#
#                              ======================
#                              | THE SUSYHIT OUTPUT |
#                              ======================
#
#
#              ------------------------------------------------------
#              |     This is the output of the SUSY-HIT package     |
#              |  created by A.Djouadi, M.Muehlleitner and M.Spira. |
#              |  In case of problems with SUSY-HIT email to        |
#              |           margarete.muehlleitner@cern.ch           |
#              |           michael.spira@psi.ch                     |
#              |           abdelhak.djouadi@cern.ch                 |
#              ------------------------------------------------------
#
#              ------------------------------------------------------
#              |  SUSY Les Houches Accord - MSSM Spectrum + Decays  |
#              |              based on the decay programs           |
#              |                                                    |
#              |                     SDECAY 1.3b                    |
#              |                                                    |
#              |  Authors: M.Muhlleitner, A.Djouadi and Y.Mambrini  |
#              |  Ref.:    Comput.Phys.Commun.168(2005)46           |
#              |           [hep-ph/0311167]                         |
#              |                                                    |
#              |                     HDECAY 3.4                     |
#              |                                                    |
#              |  By: A.Djouadi,J.Kalinowski,M.Muhlleitner,M.Spira  |
#              |  Ref.:    Comput.Phys.Commun.108(1998)56           |
#              |           [hep-ph/9704448]                         |
#              |                                                    |
#              |                                                    |
#              |  If not stated otherwise all DRbar couplings and   |
#              |  soft SUSY breaking masses are given at the scale  |
#              |  Q=  0.23399800E+04
#              |                                                    |
#              ------------------------------------------------------
#
#
BLOCK DCINFO  # Decay Program information
     1   SDECAY/HDECAY # decay calculator
     2   1.3b  /3.4    # version number
#
BLOCK SPINFO  # Spectrum calculator information
     1     SOFTSUSY    # spectrum calculator               
     2     3.4.0       # version number                    
#
BLOCK MODSEL  # Model selection
     1     0   #  nonUniversal                                     
#
BLOCK SMINPUTS  # Standard Model inputs
         1     1.27908970E+02   # alpha_em^-1(M_Z)^MSbar
         2     1.16637870E-05   # G_F [GeV^-2]
         3     1.18400000E-01   # alpha_S(M_Z)^MSbar
         4     9.11876000E+01   # M_Z pole mass
         5     4.18000000E+00   # mb(mb)^MSbar
         6     1.73200000E+02   # mt pole mass
         7     1.77700000E+00   # mtau pole mass
#
BLOCK MINPAR  # Input parameters - minimal models
         3     1.91400000E+01   # tanb                
#
BLOCK EXTPAR  # Input parameters - non-minimal models
         0    -1.00000000E+00   # Set                 
         1    -3.96990000E+02   # M_1(MX)             
         2    -3.53399000E+03   # M_2(MX)             
         3     2.90082000E+03   # M_3(MX)             
        11     3.26770000E+03   # At(MX)              
        12    -9.27670000E+02   # Ab(MX)              
        13    -1.84345000E+03   # Atau(MX)            
        23     1.72710000E+02   # mu(MX)              
        26     3.16949000E+03   # mA(pole)            
        31     1.11810000E+03   # meL(MX)             
        32     1.11810000E+03   # mmuL(MX)            
        33     1.28088000E+03   # mtauL(MX)           
        34     1.64683000E+03   # meR(MX)             
        35     1.64683000E+03   # mmuR(MX)            
        36     3.05010000E+03   # mtauR(MX)           
        41     2.84725000E+03   # mqL1(MX)            
        42     2.84725000E+03   # mqL2(MX)            
        43     1.92008000E+03   # mqL3(MX)            
        44     1.03347000E+03   # muR(MX)             
        45     1.03347000E+03   # mcR(MX)             
        46     2.85175000E+03   # mtR(MX)             
        47     3.76640000E+02   # mdR(MX)             
        48     3.76640000E+02   # msR(MX)             
        49     1.84440000E+03   # mbR(MX)             
#
BLOCK MASS  # Mass Spectrum
# PDG code           mass       particle
        24     8.04064303E+01   # W+
        25     1.25542324E+02   # h
        35     3.16950948E+03   # H
        36     3.16948971E+03   # A
        37     3.17090935E+03   # H+
         5     4.81876030E+00   # b-quark pole mass calculated from mb(mb)_Msbar
   1000001     2.94411137E+03   # ~d_L
   2000001     5.72187607E+02   # ~d_R
   1000002     2.94318066E+03   # ~u_L
   2000002     1.14933141E+03   # ~u_R
   1000003     2.94411137E+03   # ~s_L
   2000003     5.72187607E+02   # ~s_R
   1000004     2.94318066E+03   # ~c_L
   2000004     1.14933141E+03   # ~c_R
   1000005     1.93705052E+03   # ~b_1
   2000005     2.00476601E+03   # ~b_2
   1000006     1.99607315E+03   # ~t_1
   2000006     2.87902604E+03   # ~t_2
   1000011     1.13633427E+03   # ~e_L
   2000011     1.64894829E+03   # ~e_R
   1000012     1.13327834E+03   # ~nu_eL
   1000013     1.13633427E+03   # ~mu_L
   2000013     1.64894829E+03   # ~mu_R
   1000014     1.13327834E+03   # ~nu_muL
   1000015     1.29786628E+03   # ~tau_1
   2000015     3.05125226E+03   # ~tau_2
   1000016     1.29515231E+03   # ~nu_tauL
   1000021     2.95665391E+03   # ~g
   1000022    -1.77225340E+02   # ~chi_10
   1000023     1.85038669E+02   # ~chi_20
   1000025    -3.96838056E+02   # ~chi_30
   1000035    -3.49773096E+03   # ~chi_40
   1000024     1.82503792E+02   # ~chi_1+
   1000037     3.49789638E+03   # ~chi_2+
#
BLOCK NMIX  # Neutralino Mixing Matrix
  1  1     1.33235404E-01   # N_11
  1  2    -1.54936687E-02   # N_12
  1  3     7.11146075E-01   # N_13
  1  4     6.90130084E-01   # N_14
  2  1     5.67920546E-02   # N_21
  2  2    -1.60803360E-02   # N_22
  2  3    -7.00847602E-01   # N_23
  2  4     7.10864772E-01   # N_24
  3  1     9.89455842E-01   # N_31
  3  2     3.36797341E-03   # N_32
  3  3    -5.55328292E-02   # N_33
  3  4    -1.33723214E-01   # N_34
  4  1    -3.55010968E-04   # N_41
  4  2     9.99744980E-01   # N_42
  4  3    -6.45865722E-05   # N_43
  4  4     2.25797258E-02   # N_44
#
BLOCK UMIX  # Chargino Mixing Matrix U
  1  1     8.83388649E-05   # U_11
  1  2     9.99999996E-01   # U_12
  2  1    -9.99999996E-01   # U_21
  2  2     8.83388649E-05   # U_22
#
BLOCK VMIX  # Chargino Mixing Matrix V
  1  1     3.19427366E-02   # V_11
  1  2     9.99489701E-01   # V_12
  2  1     9.99489701E-01   # V_21
  2  2    -3.19427366E-02   # V_22
#
BLOCK STOPMIX  # Stop Mixing Matrix
  1  1     9.94240113E-01   # cos(theta_t)
  1  2    -1.07175546E-01   # sin(theta_t)
  2  1     1.07175546E-01   # -sin(theta_t)
  2  2     9.94240113E-01   # cos(theta_t)
#
BLOCK SBOTMIX  # Sbottom Mixing Matrix
  1  1     3.74691167E-02   # cos(theta_b)
  1  2     9.99297786E-01   # sin(theta_b)
  2  1    -9.99297786E-01   # -sin(theta_b)
  2  2     3.74691167E-02   # cos(theta_b)
#
BLOCK STAUMIX  # Stau Mixing Matrix
  1  1     9.99999335E-01   # cos(theta_tau)
  1  2     1.15325607E-03   # sin(theta_tau)
  2  1    -1.15325607E-03   # -sin(theta_tau)
  2  2     9.99999335E-01   # cos(theta_tau)
#
BLOCK ALPHA  # Higgs mixing
          -5.45939247E-02   # Mixing angle in the neutral Higgs boson sector
#
BLOCK HMIX Q=  2.33998000E+03  # DRbar Higgs Parameters
         1     1.75415411E+02   # mu(Q)MSSM           
         2     1.83424767E+01   # tan                 
         3     2.43255431E+02   # higgs               
         4     9.92522146E+06   # mA^2(Q)MSSM         
#
BLOCK GAUGE Q=  2.33998000E+03  # The gauge couplings
     1     3.64731063E-01   # gprime(Q) DRbar
     2     6.37492038E-01   # g(Q) DRbar
     3     1.01872497E+00   # g3(Q) DRbar
#
BLOCK AU Q=  2.33998000E+03  # The trilinear couplings
  1  1     0.00000000E+00   # A_u(Q) DRbar
  2  2     0.00000000E+00   # A_c(Q) DRbar
  3  3     3.26770001E+03   # A_t(Q) DRbar
#
BLOCK AD Q=  2.33998000E+03  # The trilinear couplings
  1  1     0.00000000E+00   # A_d(Q) DRbar
  2  2     0.00000000E+00   # A_s(Q) DRbar
  3  3    -9.27669997E+02   # A_b(Q) DRbar
#
BLOCK AE Q=  2.33998000E+03  # The trilinear couplings
  1  1     0.00000000E+00   # A_e(Q) DRbar
  2  2     0.00000000E+00   # A_mu(Q) DRbar
  3  3    -1.84345000E+03   # A_tau(Q) DRbar
#
BLOCK Yu Q=  2.33998000E+03  # The Yukawa couplings
  1  1     0.00000000E+00   # y_u(Q) DRbar
  2  2     0.00000000E+00   # y_c(Q) DRbar
  3  3     8.42352252E-01   # y_t(Q) DRbar
#
BLOCK Yd Q=  2.33998000E+03  # The Yukawa couplings
  1  1     0.00000000E+00   # y_d(Q) DRbar
  2  2     0.00000000E+00   # y_s(Q) DRbar
  3  3     2.40795326E-01   # y_b(Q) DRbar
#
BLOCK Ye Q=  2.33998000E+03  # The Yukawa couplings
  1  1     0.00000000E+00   # y_e(Q) DRbar
  2  2     0.00000000E+00   # y_mu(Q) DRbar
  3  3     1.86224577E-01   # y_tau(Q) DRbar
#
BLOCK MSOFT Q=  2.33998000E+03  # The soft SUSY breaking masses at the scale Q
         1    -3.96990000E+02   # M_1(Q)              
         2    -3.53399000E+03   # M_2(Q)              
         3     2.90082000E+03   # M_3(Q)              
        21     9.91465942E+06   # mH1^2(Q)            
        22     1.01275156E+05   # mH2^2(Q)            
        31     1.11810000E+03   # meL(Q)              
        32     1.11810000E+03   # mmuL(Q)             
        33     1.28088000E+03   # mtauL(Q)            
        34     1.64683000E+03   # meR(Q)              
        35     1.64683000E+03   # mmuR(Q)             
        36     3.05010000E+03   # mtauR(Q)            
        41     2.84724999E+03   # mqL1(Q)             
        42     2.84724999E+03   # mqL2(Q)             
        43     1.92007999E+03   # mqL3(Q)             
        44     1.03346998E+03   # muR(Q)              
        45     1.03346998E+03   # mcR(Q)              
        46     2.85174999E+03   # mtR(Q)              
        47     3.76639955E+02   # mdR(Q)              
        48     3.76639955E+02   # msR(Q)              
        49     1.84439999E+03   # mbR(Q)              
#
Block HiggsBoundsInputHiggsCouplingsFermions
# ScalarNormEffCoupSq PseudoSNormEffCoupSq NP   IP1 IP2 IP2
    1.00475918E+00    0.00000000E+00        3  25   5   5  # h0-b-b eff. coupling^2, normalised to SM
    3.36441692E+02    0.00000000E+00        3  35   5   5  # H0-b-b eff. coupling^2, normalised to SM
    0.00000000E+00    3.36446451E+02        3  36   5   5  # A0-b-b eff. coupling^2, normalised to SM
#
    9.99985855E-01    0.00000000E+00        3  25   6   6  # h0-t-t eff. coupling^2, normalised to SM
    2.98638663E-03    0.00000000E+00        3  35   6   6  # H0-t-t eff. coupling^2, normalised to SM
    0.00000000E+00    2.97224119E-03        3  36   6   6  # A0-t-t eff. coupling^2, normalised to SM
#
    1.00475918E+00    0.00000000E+00        3  25  15  15  # h0-tau-tau eff. coupling^2, normalised to SM
    3.36441692E+02    0.00000000E+00        3  35  15  15  # H0-tau-tau eff. coupling^2, normalised to SM
    0.00000000E+00    3.36446451E+02        3  36  15  15  # A0-tau-tau eff. coupling^2, normalised to SM
#
Block HiggsBoundsInputHiggsCouplingsBosons
    9.99999983E-01        3  25  24  24  # h0-W-W eff. coupling^2, normalised to SM
    1.67903773E-08        3  35  24  24  # H0-W-W eff. coupling^2, normalised to SM
    0.00000000E+00        3  36  24  24  # A0-W-W eff. coupling^2, normalised to SM
#
    9.99999983E-01        3  25  23  23  # h0-Z-Z eff. coupling^2, normalised to SM
    1.67903773E-08        3  35  23  23  # H0-Z-Z eff. coupling^2, normalised to SM
    0.00000000E+00        3  36  23  23  # A0-Z-Z eff. coupling^2, normalised to SM
#
    8.91573537E-01        3  25  21  21  # h0-g-g eff. coupling^2, normalised to SM
    4.67705557E-15        3  35  21  21  # H0-g-g eff. coupling^2, normalised to SM
    7.67292980E-13        3  36  21  21  # A0-g-g eff. coupling^2, normalised to SM
#
    0.00000000E+00        3  25  25  23  # h0-h0-Z eff. coupling^2, normalised to SM
    0.00000000E+00        3  35  25  23  # H0-h0-Z eff. coupling^2, normalised to SM
    1.67903773E-08        3  36  25  23  # A0-h0-Z eff. coupling^2, normalised to SM
    0.00000000E+00        3  35  35  23  # H0-H0-Z eff. coupling^2, normalised to SM
    9.99999983E-01        3  36  35  23  # A0-H0-Z eff. coupling^2, normalised to SM
    0.00000000E+00        3  36  36  23  # A0-A0-Z eff. coupling^2, normalised to SM
#
    0.00000000E+00        4  25  21  21  23  # h0-g-g-Z eff. coupling^2, normalised to SM
    0.00000000E+00        4  35  21  21  23  # H0-g-g-Z eff. coupling^2, normalised to SM
    0.00000000E+00        4  36  21  21  23  # A0-g-g-Z eff. coupling^2, normalised to SM
#
#
#
#                             =================
#                             |The decay table|
#                             =================
#
# - The QCD corrections to the decays gluino -> squark  + quark
#                                     squark -> gaugino + quark_prime
#                                     squark -> squark_prime + Higgs
#                                     squark -> gluino  + quark
#   are included.
#
# - The multi-body decays for the inos, stops and sbottoms are included.
#
# - The loop induced decays for the gluino, neutralinos and stops
#   are included.
#
# - The SUSY decays of the top quark are included.
#
#
#         PDG            Width
DECAY         6     1.43053258E+00   # top decays
#          BR         NDA      ID1       ID2
     1.00000000E+00    2           5        24   # BR(t ->  b    W+)
#
#         PDG            Width
DECAY   1000021     2.45576938E+02   # gluino decays
#          BR         NDA      ID1       ID2
     8.49625440E-06    2     1000001        -1   # BR(~g -> ~d_L  db)
     8.49625440E-06    2    -1000001         1   # BR(~g -> ~d_L* d )
     1.09821286E-01    2     2000001        -1   # BR(~g -> ~d_R  db)
     1.09821286E-01    2    -2000001         1   # BR(~g -> ~d_R* d )
     9.80086132E-06    2     1000002        -2   # BR(~g -> ~u_L  ub)
     9.80086132E-06    2    -1000002         2   # BR(~g -> ~u_L* u )
     8.54173186E-02    2     2000002        -2   # BR(~g -> ~u_R  ub)
     8.54173186E-02    2    -2000002         2   # BR(~g -> ~u_R* u )
     8.49625440E-06    2     1000003        -3   # BR(~g -> ~s_L  sb)
     8.49625440E-06    2    -1000003         3   # BR(~g -> ~s_L* s )
     1.09821286E-01    2     2000003        -3   # BR(~g -> ~s_R  sb)
     1.09821286E-01    2    -2000003         3   # BR(~g -> ~s_R* s )
     9.72846955E-06    2     1000004        -4   # BR(~g -> ~c_L  cb)
     9.72846955E-06    2    -1000004         4   # BR(~g -> ~c_L* c )
     8.54173076E-02    2     2000004        -4   # BR(~g -> ~c_R  cb)
     8.54173076E-02    2    -2000004         4   # BR(~g -> ~c_R* c )
     3.86160761E-02    2     1000005        -5   # BR(~g -> ~b_1  bb)
     3.86160761E-02    2    -1000005         5   # BR(~g -> ~b_1* b )
     3.46421740E-02    2     2000005        -5   # BR(~g -> ~b_2  bb)
     3.46421740E-02    2    -2000005         5   # BR(~g -> ~b_2* b )
     3.62280290E-02    2     1000006        -6   # BR(~g -> ~t_1  tb)
     3.62280290E-02    2    -1000006         6   # BR(~g -> ~t_1* t )
#
#         PDG            Width
DECAY   1000006     3.03544567E+01   # stop1 decays
#          BR         NDA      ID1       ID2
     4.33750491E-01    2     1000022         6   # BR(~t_1 -> ~chi_10 t )
     4.59210680E-01    2     1000023         6   # BR(~t_1 -> ~chi_20 t )
     1.75730116E-02    2     1000025         6   # BR(~t_1 -> ~chi_30 t )
     8.94658174E-02    2     1000024         5   # BR(~t_1 -> ~chi_1+ b )
#
#         PDG            Width
DECAY   2000006     1.33847718E+02   # stop2 decays
#          BR         NDA      ID1       ID2
     1.41252782E-01    2     1000022         6   # BR(~t_2 -> ~chi_10 t )
     1.49868788E-01    2     1000023         6   # BR(~t_2 -> ~chi_20 t )
     5.49826663E-02    2     1000025         6   # BR(~t_2 -> ~chi_30 t )
     2.96164585E-01    2     1000024         5   # BR(~t_2 -> ~chi_1+ b )
     9.49699769E-02    2     1000006        25   # BR(~t_2 -> ~t_1    h )
     8.99715585E-02    2     1000006        23   # BR(~t_2 -> ~t_1    Z )
     2.91415167E-04    2     1000005        24   # BR(~t_2 -> ~b_1    W+)
     1.72498228E-01    2     2000005        24   # BR(~t_2 -> ~b_2    W+)
#
#         PDG            Width
DECAY   1000005     5.42545760E+00   # sbottom1 decays
#          BR         NDA      ID1       ID2
     2.12204288E-01    2     1000022         5   # BR(~b_1 -> ~chi_10 b )
     1.97353696E-01    2     1000023         5   # BR(~b_1 -> ~chi_20 b )
     1.87958827E-01    2     1000025         5   # BR(~b_1 -> ~chi_30 b )
     4.02483189E-01    2    -1000024         6   # BR(~b_1 -> ~chi_1- t )
#
#         PDG            Width
DECAY   2000005     2.99090421E+01   # sbottom2 decays
#          BR         NDA      ID1       ID2
     3.82462340E-02    2     1000022         5   # BR(~b_2 -> ~chi_10 b )
     3.78926457E-02    2     1000023         5   # BR(~b_2 -> ~chi_20 b )
     9.15865398E-03    2     1000025         5   # BR(~b_2 -> ~chi_30 b )
     9.14702466E-01    2    -1000024         6   # BR(~b_2 -> ~chi_1- t )
#
#         PDG            Width
DECAY   1000002     4.32188856E-01   # sup_L decays
#          BR         NDA      ID1       ID2
     2.58501399E-03    2     1000022         2   # BR(~u_L -> ~chi_10 u)
     7.24049055E-04    2     1000023         2   # BR(~u_L -> ~chi_20 u)
     9.43061626E-01    2     1000025         2   # BR(~u_L -> ~chi_30 u)
     5.36293107E-02    2     1000024         1   # BR(~u_L -> ~chi_1+ d)
#
#         PDG            Width
DECAY   2000002     2.16713109E+00   # sup_R decays
#          BR         NDA      ID1       ID2
     2.16731536E-02    2     1000022         2   # BR(~u_R -> ~chi_10 u)
     3.92080393E-03    2     1000023         2   # BR(~u_R -> ~chi_20 u)
     9.74406042E-01    2     1000025         2   # BR(~u_R -> ~chi_30 u)
#
#         PDG            Width
DECAY   1000001     4.06829675E-01   # sdown_L decays
#          BR         NDA      ID1       ID2
     4.67389379E-02    2     1000022         1   # BR(~d_L -> ~chi_10 d)
     2.02194956E-02    2     1000023         1   # BR(~d_L -> ~chi_20 d)
     9.33041131E-01    2     1000025         1   # BR(~d_L -> ~chi_30 d)
     4.35835917E-07    2    -1000024         2   # BR(~d_L -> ~chi_1- u)
#
#         PDG            Width
DECAY   2000001     1.00928255E-01   # sdown_R decays
#          BR         NDA      ID1       ID2
     5.13728067E-02    2     1000022         1   # BR(~d_R -> ~chi_10 d)
     9.15674718E-03    2     1000023         1   # BR(~d_R -> ~chi_20 d)
     9.39470446E-01    2     1000025         1   # BR(~d_R -> ~chi_30 d)
#
#         PDG            Width
DECAY   1000004     4.48679326E-01   # scharm_L decays
#          BR         NDA      ID1       ID2
     2.58841973E-03    2     1000022         4   # BR(~c_L -> ~chi_10 c)
     7.24964065E-04    2     1000023         4   # BR(~c_L -> ~chi_20 c)
     9.42988569E-01    2     1000025         4   # BR(~c_L -> ~chi_30 c)
     5.36980475E-02    2     1000024         3   # BR(~c_L -> ~chi_1+ s)
#
#         PDG            Width
DECAY   2000004     2.10753287E+00   # scharm_R decays
#          BR         NDA      ID1       ID2
     2.17035264E-02    2     1000022         4   # BR(~c_R -> ~chi_10 c)
     3.92606586E-03    2     1000023         4   # BR(~c_R -> ~chi_20 c)
     9.74370408E-01    2     1000025         4   # BR(~c_R -> ~chi_30 c)
#
#         PDG            Width
DECAY   1000003     4.22396857E-01   # sstrange_L decays
#          BR         NDA      ID1       ID2
     4.67998332E-02    2     1000022         3   # BR(~s_L -> ~chi_10 s)
     2.02447521E-02    2     1000023         3   # BR(~s_L -> ~chi_20 s)
     9.32954978E-01    2     1000025         3   # BR(~s_L -> ~chi_30 s)
     4.36387783E-07    2    -1000024         4   # BR(~s_L -> ~chi_1- c)
#
#         PDG            Width
DECAY   2000003     9.44929253E-02   # sstrange_R decays
#          BR         NDA      ID1       ID2
     5.16703477E-02    2     1000022         3   # BR(~s_R -> ~chi_10 s)
     9.20939621E-03    2     1000023         3   # BR(~s_R -> ~chi_20 s)
     9.39120256E-01    2     1000025         3   # BR(~s_R -> ~chi_30 s)
#
#         PDG            Width
DECAY   1000011     1.16579061E+00   # selectron_L decays
#          BR         NDA      ID1       ID2
     1.38363824E-02    2     1000022        11   # BR(~e_L -> ~chi_10 e-)
     1.00585173E-03    2     1000023        11   # BR(~e_L -> ~chi_20 e-)
     9.85157707E-01    2     1000025        11   # BR(~e_L -> ~chi_30 e-)
     5.83673228E-08    2    -1000024        12   # BR(~e_L -> ~chi_1- nu_e)
#
#         PDG            Width
DECAY   2000011     7.76255646E+00   # selectron_R decays
#          BR         NDA      ID1       ID2
     1.95009293E-02    2     1000022        11   # BR(~e_R -> ~chi_10 e-)
     3.53570433E-03    2     1000023        11   # BR(~e_R -> ~chi_20 e-)
     9.76963366E-01    2     1000025        11   # BR(~e_R -> ~chi_30 e-)
#
#         PDG            Width
DECAY   1000013     1.16579058E+00   # smuon_L decays
#          BR         NDA      ID1       ID2
     1.38363825E-02    2     1000022        13   # BR(~mu_L -> ~chi_10 mu-)
     1.00585173E-03    2     1000023        13   # BR(~mu_L -> ~chi_20 mu-)
     9.85157707E-01    2     1000025        13   # BR(~mu_L -> ~chi_30 mu-)
     5.83673241E-08    2    -1000024        14   # BR(~mu_L -> ~chi_1- nu_mu)
#
#         PDG            Width
DECAY   2000013     7.76255639E+00   # smuon_R decays
#          BR         NDA      ID1       ID2
     1.95009294E-02    2     1000022        13   # BR(~mu_R -> ~chi_10 mu-)
     3.53570434E-03    2     1000023        13   # BR(~mu_R -> ~chi_20 mu-)
     9.76963366E-01    2     1000025        13   # BR(~mu_R -> ~chi_30 mu-)
#
#         PDG            Width
DECAY   1000015     2.27872574E+00   # stau_1 decays
#          BR         NDA      ID1       ID2
     1.99672668E-01    2     1000022        15   # BR(~tau_1 -> ~chi_10  tau-)
     1.85761583E-01    2     1000023        15   # BR(~tau_1 -> ~chi_20  tau-)
     6.14565475E-01    2     1000025        15   # BR(~tau_1 -> ~chi_30  tau-)
     2.73339096E-07    2    -1000024        16   # BR(~tau_1 -> ~chi_1-  nu_tau)
#
#         PDG            Width
DECAY   2000015     1.98246296E+01   # stau_2 decays
#          BR         NDA      ID1       ID2
     6.76703249E-02    2     1000022        15   # BR(~tau_2 -> ~chi_10  tau-)
     5.44054035E-02    2     1000023        15   # BR(~tau_2 -> ~chi_20  tau-)
     7.71149710E-01    2     1000025        15   # BR(~tau_2 -> ~chi_30  tau-)
     1.05429922E-01    2    -1000024        16   # BR(~tau_2 -> ~chi_1-  nu_tau)
     6.54226601E-04    2     1000016       -24   # BR(~tau_2 -> ~nu_tauL W-)
     3.54113392E-04    2     1000015        25   # BR(~tau_2 -> ~tau_1   h)
     3.36299772E-04    2     1000015        23   # BR(~tau_2 -> ~tau_1   Z)
#
#         PDG            Width
DECAY   1000012     1.17257577E+00   # snu_eL decays
#          BR         NDA      ID1       ID2
     3.12815657E-02    2     1000022        12   # BR(~nu_eL -> ~chi_10 nu_e)
     8.73303375E-03    2     1000023        12   # BR(~nu_eL -> ~chi_20 nu_e)
     9.52420621E-01    2     1000025        12   # BR(~nu_eL -> ~chi_30 nu_e)
     7.56477993E-03    2     1000024        11   # BR(~nu_eL -> ~chi_1+ e-)
#
#         PDG            Width
DECAY   1000014     1.17257577E+00   # snu_muL decays
#          BR         NDA      ID1       ID2
     3.12815657E-02    2     1000022        14   # BR(~nu_muL -> ~chi_10 nu_mu)
     8.73303375E-03    2     1000023        14   # BR(~nu_muL -> ~chi_20 nu_mu)
     9.52420621E-01    2     1000025        14   # BR(~nu_muL -> ~chi_30 nu_mu)
     7.56477980E-03    2     1000024        13   # BR(~nu_muL -> ~chi_1+ mu-)
#
#         PDG            Width
DECAY   1000016     2.28430366E+00   # snu_tauL decays
#          BR         NDA      ID1       ID2
     1.85672534E-02    2     1000022        16   # BR(~nu_tauL -> ~chi_10 nu_tau)
     5.18912200E-03    2     1000023        16   # BR(~nu_tauL -> ~chi_20 nu_tau)
     5.95924777E-01    2     1000025        16   # BR(~nu_tauL -> ~chi_30 nu_tau)
     3.80318848E-01    2     1000024        15   # BR(~nu_tauL -> ~chi_1+ tau-)
#
#         PDG            Width
DECAY   1000024     4.40322621E-09   # chargino1+ decays
#           BR         NDA      ID1       ID2       ID3
     3.49579541E-01    3     1000022         2        -1   # BR(~chi_1+ -> ~chi_10 u    db)
     3.49579541E-01    3     1000022         4        -3   # BR(~chi_1+ -> ~chi_10 c    sb)
     1.16528241E-01    3     1000022       -11        12   # BR(~chi_1+ -> ~chi_10 e+   nu_e)
     1.16528241E-01    3     1000022       -13        14   # BR(~chi_1+ -> ~chi_10 mu+  nu_mu)
     6.77844368E-02    3     1000022       -15        16   # BR(~chi_1+ -> ~chi_10 tau+ nu_tau)
#
#         PDG            Width
DECAY   1000037     1.46691141E+02   # chargino2+ decays
#          BR         NDA      ID1       ID2
     2.43654220E-02    2     1000002        -1   # BR(~chi_2+ -> ~u_L     db)
     2.43169496E-02    2    -1000001         2   # BR(~chi_2+ -> ~d_L*    u )
     2.43654166E-02    2     1000004        -3   # BR(~chi_2+ -> ~c_L     sb)
     2.43168639E-02    2    -1000003         4   # BR(~chi_2+ -> ~s_L*     c )
     1.28685995E-01    2     1000006        -5   # BR(~chi_2+ -> ~t_1     bb)
     6.68693449E-04    2     2000006        -5   # BR(~chi_2+ -> ~t_2     bb)
     1.92901023E-04    2    -1000005         6   # BR(~chi_2+ -> ~b_1*    t )
     1.28370190E-01    2    -2000005         6   # BR(~chi_2+ -> ~b_2*    t )
     7.71411214E-02    2     1000012       -11   # BR(~chi_2+ -> ~nu_eL   e+  )
     7.71411214E-02    2     1000014       -13   # BR(~chi_2+ -> ~nu_muL mu+ )
     7.17023376E-02    2     1000016       -15   # BR(~chi_2+ -> ~nu_tau1 tau+)
     7.71221279E-02    2    -1000011        12   # BR(~chi_2+ -> ~e_L+    nu_e)
     7.71221279E-02    2    -1000013        14   # BR(~chi_2+ -> ~mu_L+   nu_mu)
     7.16798399E-02    2    -1000015        16   # BR(~chi_2+ -> ~tau_1+  nu_tau)
     7.00346330E-09    2    -2000015        16   # BR(~chi_2+ -> ~tau_2+  nu_tau)
     4.75848778E-02    2     1000024        23   # BR(~chi_2+ -> ~chi_1+  Z )
     4.37069768E-02    2     1000022        24   # BR(~chi_2+ -> ~chi_10  W+)
     4.65217916E-02    2     1000023        24   # BR(~chi_2+ -> ~chi_20  W+)
     2.01535599E-03    2     1000025        24   # BR(~chi_2+ -> ~chi_30  W+)
     4.74781613E-02    2     1000024        25   # BR(~chi_2+ -> ~chi_1+  h )
     1.38222941E-03    2     1000024        35   # BR(~chi_2+ -> ~chi_1+  H )
     1.38221652E-03    2     1000024        36   # BR(~chi_2+ -> ~chi_1+  A )
     1.39717765E-03    2     1000022        37   # BR(~chi_2+ -> ~chi_10  H+)
     1.34009827E-03    2     1000023        37   # BR(~chi_2+ -> ~chi_20  H+)
#
#         PDG            Width
DECAY   1000022     0.00000000E+00   # neutralino1 decays
#
#         PDG            Width
DECAY   1000023     2.38965267E-08   # neutralino2 decays
#          BR         NDA      ID1       ID2
     3.37186543E-02    2     1000022        22   # BR(~chi_20 -> ~chi_10 gam)
#           BR         NDA      ID1       ID2       ID3
     1.33030841E-01    3     1000022        -2         2   # BR(~chi_20 -> ~chi_10 ub      u)
     1.72708196E-01    3     1000022        -1         1   # BR(~chi_20 -> ~chi_10 db      d)
     1.33030841E-01    3     1000022        -4         4   # BR(~chi_20 -> ~chi_10 cb      c)
     1.72708196E-01    3     1000022        -3         3   # BR(~chi_20 -> ~chi_10 sb      s)
     3.96952458E-02    3     1000022       -11        11   # BR(~chi_20 -> ~chi_10 e+      e-)
     3.96952458E-02    3     1000022       -13        13   # BR(~chi_20 -> ~chi_10 mu+     mu-)
     2.80955469E-02    3     1000022       -15        15   # BR(~chi_20 -> ~chi_10 tau+    tau-)
     7.93839437E-02    3     1000022       -12        12   # BR(~chi_20 -> ~chi_10 nu_eb   nu_e)
     7.93839437E-02    3     1000022       -14        14   # BR(~chi_20 -> ~chi_10 nu_mub  nu_mu)
     7.93830898E-02    3     1000022       -16        16   # BR(~chi_20 -> ~chi_10 nu_taub nu_tau)
     1.70468661E-03    3     1000024        -2         1   # BR(~chi_20 -> ~chi_1+ ub      d)
     1.70468661E-03    3    -1000024        -1         2   # BR(~chi_20 -> ~chi_1- db      u)
     1.70468661E-03    3     1000024        -4         3   # BR(~chi_20 -> ~chi_1+ cb      s)
     1.70468661E-03    3    -1000024        -3         4   # BR(~chi_20 -> ~chi_1- sb      c)
     5.68233456E-04    3     1000024       -12        11   # BR(~chi_20 -> ~chi_1+ nu_eb   e-)
     5.68233456E-04    3    -1000024        12       -11   # BR(~chi_20 -> ~chi_1- nu_e    e+)
     5.68233456E-04    3     1000024       -14        13   # BR(~chi_20 -> ~chi_1+ nu_mub  mu-)
     5.68233456E-04    3    -1000024        14       -13   # BR(~chi_20 -> ~chi_1- nu_mu   mu+)
     3.72868662E-05    3     1000024       -16        15   # BR(~chi_20 -> ~chi_1+ nu_taub tau-)
     3.72868662E-05    3    -1000024        16       -15   # BR(~chi_20 -> ~chi_1- nu_tau  tau+)
#
#         PDG            Width
DECAY   1000025     6.59134837E-01   # neutralino3 decays
#          BR         NDA      ID1       ID2
     5.15070655E-02    2     1000022        23   # BR(~chi_30 -> ~chi_10   Z )
     2.00506408E-01    2     1000023        23   # BR(~chi_30 -> ~chi_20   Z )
     2.64732785E-01    2     1000024       -24   # BR(~chi_30 -> ~chi_1+   W-)
     2.64732785E-01    2    -1000024        24   # BR(~chi_30 -> ~chi_1-   W+)
     1.94732306E-01    2     1000022        25   # BR(~chi_30 -> ~chi_10   h )
     2.37886509E-02    2     1000023        25   # BR(~chi_30 -> ~chi_20   h )
#
#         PDG            Width
DECAY   1000035     1.46677762E+02   # neutralino4 decays
#          BR         NDA      ID1       ID2
     2.28202502E-02    2     1000022        23   # BR(~chi_40 -> ~chi_10   Z )
     2.39076338E-02    2     1000023        23   # BR(~chi_40 -> ~chi_20   Z )
     8.27812620E-04    2     1000025        23   # BR(~chi_40 -> ~chi_30   Z )
     4.61822785E-02    2     1000024       -24   # BR(~chi_40 -> ~chi_1+   W-)
     4.61822785E-02    2    -1000024        24   # BR(~chi_40 -> ~chi_1-   W+)
     2.22431761E-02    2     1000022        25   # BR(~chi_40 -> ~chi_10   h )
     1.14646753E-03    2     1000022        35   # BR(~chi_40 -> ~chi_10   H )
     2.62926425E-04    2     1000022        36   # BR(~chi_40 -> ~chi_10   A )
     2.39865137E-02    2     1000023        25   # BR(~chi_40 -> ~chi_20   h )
     2.35968015E-04    2     1000023        35   # BR(~chi_40 -> ~chi_20   H )
     1.11584383E-03    2     1000023        36   # BR(~chi_40 -> ~chi_20   A )
     1.20634207E-03    2     1000025        25   # BR(~chi_40 -> ~chi_30   h )
     1.36741508E-03    2     1000024       -37   # BR(~chi_40 -> ~chi_1+   H-)
     1.36741508E-03    2    -1000024        37   # BR(~chi_40 -> ~chi_1-   H+)
     1.21823297E-02    2     1000002        -2   # BR(~chi_40 -> ~u_L      ub)
     1.21823297E-02    2    -1000002         2   # BR(~chi_40 -> ~u_L*     u )
     8.06889339E-09    2     2000002        -2   # BR(~chi_40 -> ~u_R      ub)
     8.06889339E-09    2    -2000002         2   # BR(~chi_40 -> ~u_R*     u )
     1.21489678E-02    2     1000001        -1   # BR(~chi_40 -> ~d_L      db)
     1.21489678E-02    2    -1000001         1   # BR(~chi_40 -> ~d_L*     d )
     2.39355607E-09    2     2000001        -1   # BR(~chi_40 -> ~d_R      db)
     2.39355607E-09    2    -2000001         1   # BR(~chi_40 -> ~d_R*     d )
     1.21822869E-02    2     1000004        -4   # BR(~chi_40 -> ~c_L      cb)
     1.21822869E-02    2    -1000004         4   # BR(~chi_40 -> ~c_L*     c )
     8.06889291E-09    2     2000004        -4   # BR(~chi_40 -> ~c_R      cb)
     8.06889291E-09    2    -2000004         4   # BR(~chi_40 -> ~c_R*     c )
     1.21489678E-02    2     1000003        -3   # BR(~chi_40 -> ~s _L      sb)
     1.21489678E-02    2    -1000003         3   # BR(~chi_40 -> ~s _L*     s )
     2.39355607E-09    2     2000003        -3   # BR(~chi_40 -> ~s _R      sb)
     2.39355607E-09    2    -2000003         3   # BR(~chi_40 -> ~s _R*     s )
     6.34554329E-02    2     1000006        -6   # BR(~chi_40 -> ~t_1      tb)
     6.34554329E-02    2    -1000006         6   # BR(~chi_40 -> ~t_1*     t )
     3.17224930E-04    2     2000006        -6   # BR(~chi_40 -> ~t_2      tb)
     3.17224930E-04    2    -2000006         6   # BR(~chi_40 -> ~t_2*     t )
     9.77203337E-05    2     1000005        -5   # BR(~chi_40 -> ~b_1      bb)
     9.77203337E-05    2    -1000005         5   # BR(~chi_40 -> ~b_1*     b )
     6.50820184E-02    2     2000005        -5   # BR(~chi_40 -> ~b_2      bb)
     6.50820184E-02    2    -2000005         5   # BR(~chi_40 -> ~b_2*     b )
     3.85265721E-02    2     1000011       -11   # BR(~chi_40 -> ~e_L-     e+)
     3.85265721E-02    2    -1000011        11   # BR(~chi_40 -> ~e_L+     e-)
     4.81129119E-09    2     2000011       -11   # BR(~chi_40 -> ~e_R-     e+)
     4.81129119E-09    2    -2000011        11   # BR(~chi_40 -> ~e_R+     e-)
     3.85265721E-02    2     1000013       -13   # BR(~chi_40 -> ~mu_L-    mu+)
     3.85265721E-02    2    -1000013        13   # BR(~chi_40 -> ~mu_L+    mu-)
     4.81129119E-09    2     2000013       -13   # BR(~chi_40 -> ~mu_R-    mu+)
     4.81129119E-09    2    -2000013        13   # BR(~chi_40 -> ~mu_R+    mu-)
     3.58075742E-02    2     1000015       -15   # BR(~chi_40 -> ~tau_1-   tau+)
     3.58075742E-02    2    -1000015        15   # BR(~chi_40 -> ~tau_1+   tau-)
     3.95601644E-09    2     2000015       -15   # BR(~chi_40 -> ~tau_2-   tau+)
     3.95601644E-09    2    -2000015        15   # BR(~chi_40 -> ~tau_2+   tau-)
     3.86067868E-02    2     1000012       -12   # BR(~chi_40 -> ~nu_eL    nu_eb)
     3.86067868E-02    2    -1000012        12   # BR(~chi_40 -> ~nu_eL*   nu_e )
     3.86067868E-02    2     1000014       -14   # BR(~chi_40 -> ~nu_muL   nu_mub)
     3.86067868E-02    2    -1000014        14   # BR(~chi_40 -> ~nu_muL*  nu_mu )
     3.58845639E-02    2     1000016       -16   # BR(~chi_40 -> ~nu_tau1  nu_taub)
     3.58845639E-02    2    -1000016        16   # BR(~chi_40 -> ~nu_tau1* nu_tau )
#
#         PDG            Width
DECAY        25     4.15294570E-03   # h decays
#          BR         NDA      ID1       ID2
     5.92730838E-01    2           5        -5   # BR(h -> b       bb     )
     6.28746795E-02    2         -15        15   # BR(h -> tau+    tau-   )
     2.22551870E-04    2         -13        13   # BR(h -> mu+     mu-    )
     2.42697887E-04    2           3        -3   # BR(h -> s       sb     )
     2.09563111E-02    2           4        -4   # BR(h -> c       cb     )
     7.79445977E-02    2          21        21   # BR(h -> g       g      )
     2.30583892E-03    2          22        22   # BR(h -> gam     gam    )
     1.57927875E-03    2          22        23   # BR(h -> Z       gam    )
     2.14120509E-01    2          24       -24   # BR(h -> W+      W-     )
     2.70226974E-02    2          23        23   # BR(h -> Z       Z      )
#
#         PDG            Width
DECAY        35     1.79496687E+01   # H decays
#          BR         NDA      ID1       ID2
     6.45695532E-01    2           5        -5   # BR(H -> b       bb     )
     1.24632192E-01    2         -15        15   # BR(H -> tau+    tau-   )
     4.41434280E-04    2         -13        13   # BR(H -> mu+     mu-    )
     2.61873345E-04    2           3        -3   # BR(H -> s       sb     )
     2.14832694E-07    2           4        -4   # BR(H -> c       cb     )
     2.11369943E-02    2           6        -6   # BR(H -> t       tb     )
     4.16811817E-06    2          21        21   # BR(H -> g       g      )
     6.12478689E-09    2          22        22   # BR(H -> gam     gam    )
     7.67499345E-09    2          23        22   # BR(H -> Z       gam    )
     9.57453648E-06    2          24       -24   # BR(H -> W+      W-     )
     4.77729894E-06    2          23        23   # BR(H -> Z       Z      )
     3.73298335E-05    2          25        25   # BR(H -> h       h      )
     1.49376551E-03    2     1000024  -1000024   # BR(H -> ~chi_1+ ~chi_1-)
     6.18950692E-03    2     1000022   1000022   # BR(H -> ~chi_10 ~chi_10)
     1.38451023E-03    2     1000023   1000023   # BR(H -> ~chi_20 ~chi_20)
     1.48079878E-03    2     1000025   1000025   # BR(H -> ~chi_30 ~chi_30)
     3.80602060E-04    2     1000022   1000023   # BR(H -> ~chi_10 ~chi_20)
     1.06927810E-01    2     1000022   1000025   # BR(H -> ~chi_10 ~chi_30)
     8.99043367E-02    2     1000023   1000025   # BR(H -> ~chi_20 ~chi_30)
     8.58747934E-07    2     2000002  -2000002   # BR(H -> ~u_R    ~u_R*  )
     8.58747934E-07    2     2000004  -2000004   # BR(H -> ~c_R    ~c_R*  )
     2.90786976E-07    2     2000001  -2000001   # BR(H -> ~d_R    ~d_R*  )
     2.90786976E-07    2     2000003  -2000003   # BR(H -> ~s_R    ~s_R*  )
     1.01453230E-06    2     1000011  -1000011   # BR(H -> ~e_L-   ~e_L+  )
     1.01453230E-06    2     1000013  -1000013   # BR(H -> ~mu_L-  ~mu_L+ )
     9.09908160E-07    2     1000015  -1000015   # BR(H -> ~tau_1- ~tau_1+)
     3.30260745E-06    2     1000012  -1000012   # BR(H -> ~nu_eL  ~nu_eL*   )
     3.30260745E-06    2     1000014  -1000014   # BR(H -> ~nu_muL ~nu_muL*  )
     2.72271633E-06    2     1000016  -1000016   # BR(H -> ~nu_tauL ~nu_tauL*)
#
#         PDG            Width
DECAY        36     1.79522176E+01   # A decays
#          BR         NDA      ID1       ID2
     6.45667009E-01    2           5        -5   # BR(A -> b       bb     )
     1.24615628E-01    2         -15        15   # BR(A -> tau+    tau-   )
     4.41375055E-04    2         -13        13   # BR(A -> mu+     mu-    )
     2.61893173E-04    2           3        -3   # BR(A -> s       sb     )
     2.15764921E-07    2           4        -4   # BR(A -> c       cb     )
     2.11971161E-02    2           6        -6   # BR(A -> t       tb     )
     5.33778584E-05    2          21        21   # BR(A -> g       g      )
     3.59339903E-08    2          22        22   # BR(A -> gam     gam    )
     5.08101336E-08    2          23        22   # BR(A -> Z       gam    )
     9.70209213E-06    2          23        25   # BR(A -> Z       h      )
     1.51455324E-03    2     1000024  -1000024   # BR(A -> ~chi_1+ ~chi_1-)
     5.06949161E-03    2     1000022   1000022   # BR(A -> ~chi_10 ~chi_10)
     1.75178329E-03    2     1000023   1000023   # BR(A -> ~chi_20 ~chi_20)
     9.30979855E-04    2     1000025   1000025   # BR(A -> ~chi_30 ~chi_30)
     7.91710137E-04    2     1000022   1000023   # BR(A -> ~chi_10 ~chi_20)
     8.93537350E-02    2     1000022   1000025   # BR(A -> ~chi_10 ~chi_30)
     1.08341343E-01    2     1000023   1000025   # BR(A -> ~chi_20 ~chi_30)
#
#         PDG            Width
DECAY        37     1.75057370E+01   # H+ decays
#          BR         NDA      ID1       ID2
     1.07198790E-03    2           4        -5   # BR(H+ -> c       bb     )
     1.27851167E-01    2         -15        16   # BR(H+ -> tau+    nu_tau )
     4.52834982E-04    2         -13        14   # BR(H+ -> mu+     nu_mu  )
     1.07198642E-05    2           2        -5   # BR(H+ -> u       bb     )
     1.34369125E-05    2           2        -3   # BR(H+ -> u       sb     )
     2.64691467E-04    2           4        -3   # BR(H+ -> c       sb     )
     6.58285190E-01    2           6        -5   # BR(H+ -> t       bb     )
     9.96851297E-06    2          24        25   # BR(H+ -> W+      h      )
     4.33357446E-13    2          24        36   # BR(H+ -> W+      A      )
     2.36038132E-03    2     1000024   1000022   # BR(H+ -> ~chi_1+ ~chi_10)
     1.61695315E-04    2     1000024   1000023   # BR(H+ -> ~chi_1+ ~chi_20)
     2.09506302E-01    2     1000024   1000025   # BR(H+ -> ~chi_1+ ~chi_30)
     4.07896508E-06    2    -1000011   1000012   # BR(H+ -> ~e_L+   ~nu_eL )
     4.07896508E-06    2    -1000013   1000014   # BR(H+ -> ~mu_L+  ~nu_muL)
     3.46780113E-06    2    -1000015   1000016   # BR(H+ -> ~tau_1+ ~nu_tauL)
