#
#                              ======================
#                              | THE SUSYHIT OUTPUT |
#                              ======================
#
#
#              ------------------------------------------------------
#              |     This is the output of the SUSY-HIT package     |
#              |  created by A.Djouadi, M.Muehlleitner and M.Spira. |
#              |  In case of problems with SUSY-HIT email to        |
#              |           margarete.muehlleitner@cern.ch           |
#              |           michael.spira@psi.ch                     |
#              |           abdelhak.djouadi@cern.ch                 |
#              ------------------------------------------------------
#
#              ------------------------------------------------------
#              |  SUSY Les Houches Accord - MSSM Spectrum + Decays  |
#              |              based on the decay programs           |
#              |                                                    |
#              |                     SDECAY 1.3b                    |
#              |                                                    |
#              |  Authors: M.Muhlleitner, A.Djouadi and Y.Mambrini  |
#              |  Ref.:    Comput.Phys.Commun.168(2005)46           |
#              |           [hep-ph/0311167]                         |
#              |                                                    |
#              |                     HDECAY 3.4                     |
#              |                                                    |
#              |  By: A.Djouadi,J.Kalinowski,M.Muhlleitner,M.Spira  |
#              |  Ref.:    Comput.Phys.Commun.108(1998)56           |
#              |           [hep-ph/9704448]                         |
#              |                                                    |
#              |                                                    |
#              |  If not stated otherwise all DRbar couplings and   |
#              |  soft SUSY breaking masses are given at the scale  |
#              |  Q=  0.28846540E+04
#              |                                                    |
#              ------------------------------------------------------
#
#
BLOCK DCINFO  # Decay Program information
     1   SDECAY/HDECAY # decay calculator
     2   1.3b  /3.4    # version number
#
BLOCK SPINFO  # Spectrum calculator information
     1     SOFTSUSY    # spectrum calculator               
     2     3.4.0       # version number                    
#
BLOCK MODSEL  # Model selection
     1     0   #  nonUniversal                                     
#
BLOCK SMINPUTS  # Standard Model inputs
         1     1.27908970E+02   # alpha_em^-1(M_Z)^MSbar
         2     1.16637870E-05   # G_F [GeV^-2]
         3     1.18400000E-01   # alpha_S(M_Z)^MSbar
         4     9.11876000E+01   # M_Z pole mass
         5     4.18000000E+00   # mb(mb)^MSbar
         6     1.73200000E+02   # mt pole mass
         7     1.77700000E+00   # mtau pole mass
#
BLOCK MINPAR  # Input parameters - minimal models
         3     4.50300000E+01   # tanb                
#
BLOCK EXTPAR  # Input parameters - non-minimal models
         0    -1.00000000E+00   # Set                 
         1    -3.23829000E+03   # M_1(MX)             
         2     2.02660000E+02   # M_2(MX)             
         3     3.79612000E+03   # M_3(MX)             
        11    -3.74807000E+03   # At(MX)              
        12     1.27985000E+03   # Ab(MX)              
        13     1.01658000E+03   # Atau(MX)            
        23     2.49059000E+03   # mu(MX)              
        26     3.75169000E+03   # mA(pole)            
        31     2.59900000E+03   # meL(MX)             
        32     2.59900000E+03   # mmuL(MX)            
        33     1.67962000E+03   # mtauL(MX)           
        34     3.12300000E+03   # meR(MX)             
        35     3.12300000E+03   # mmuR(MX)            
        36     3.29680000E+02   # mtauR(MX)           
        41     1.57507000E+03   # mqL1(MX)            
        42     1.57507000E+03   # mqL2(MX)            
        43     2.42426000E+03   # mqL3(MX)            
        44     3.16250000E+03   # muR(MX)             
        45     3.16250000E+03   # mcR(MX)             
        46     3.43192000E+03   # mtR(MX)             
        47     3.58101000E+03   # mdR(MX)             
        48     3.58101000E+03   # msR(MX)             
        49     4.18830000E+02   # mbR(MX)             
#
BLOCK MASS  # Mass Spectrum
# PDG code           mass       particle
        24     8.03664888E+01   # W+
        25     1.26118178E+02   # h
        35     3.75166536E+03   # H
        36     3.75169014E+03   # A
        37     3.75254453E+03   # H+
         5     4.81876030E+00   # b-quark pole mass calculated from mb(mb)_Msbar
   1000001     1.70239695E+03   # ~d_L
   2000001     3.68053914E+03   # ~d_R
   1000002     1.70058973E+03   # ~u_L
   2000002     3.26781518E+03   # ~u_R
   1000003     1.70239695E+03   # ~s_L
   2000003     3.68053914E+03   # ~s_R
   1000004     1.70058973E+03   # ~c_L
   2000004     3.26781518E+03   # ~c_R
   1000005     6.39736164E+02   # ~b_1
   2000005     2.53040282E+03   # ~b_2
   1000006     2.52183597E+03   # ~t_1
   2000006     3.48833882E+03   # ~t_2
   1000011     2.60457393E+03   # ~e_L
   2000011     3.13643672E+03   # ~e_R
   1000012     2.60301852E+03   # ~nu_eL
   1000013     2.60457393E+03   # ~mu_L
   2000013     3.13643672E+03   # ~mu_R
   1000014     2.60301852E+03   # ~nu_muL
   1000015     3.47633278E+02   # ~tau_1
   2000015     1.68214935E+03   # ~tau_2
   1000016     1.67537367E+03   # ~nu_tauL
   1000021     3.82561690E+03   # ~g
   1000022     2.17218606E+02   # ~chi_10
   1000023    -2.51872315E+03   # ~chi_20
   1000025     2.52016388E+03   # ~chi_30
   1000035    -3.20453901E+03   # ~chi_40
   1000024     2.17380086E+02   # ~chi_1+
   1000037     2.52164036E+03   # ~chi_2+
#
BLOCK NMIX  # Neutralino Mixing Matrix
  1  1     5.79460998E-05   # N_11
  1  2     9.99497880E-01   # N_12
  1  3    -3.14962123E-02   # N_13
  1  4     3.46035500E-03   # N_14
  2  1     4.27417247E-02   # N_21
  2  2     1.98104815E-02   # N_22
  2  3     7.06341054E-01   # N_23
  2  4     7.06302347E-01   # N_24
  3  1    -5.52947056E-03   # N_31
  3  2     2.47172559E-02   # N_32
  3  3     7.06681213E-01   # N_33
  3  4    -7.07078599E-01   # N_34
  4  1     9.99070852E-01   # N_41
  4  2    -7.68692039E-04   # N_42
  4  3    -2.63052783E-02   # N_43
  4  4    -3.41302633E-02   # N_44
#
BLOCK UMIX  # Chargino Mixing Matrix U
  1  1     9.99008503E-01   # U_11
  1  2    -4.45197848E-02   # U_12
  2  1     4.45197848E-02   # U_21
  2  2     9.99008503E-01   # U_22
#
BLOCK VMIX  # Chargino Mixing Matrix V
  1  1     9.99988040E-01   # V_11
  1  2    -4.89079057E-03   # V_12
  2  1     4.89079057E-03   # V_21
  2  2     9.99988040E-01   # V_22
#
BLOCK STOPMIX  # Stop Mixing Matrix
  1  1     9.95688672E-01   # cos(theta_t)
  1  2     9.27581180E-02   # sin(theta_t)
  2  1    -9.27581180E-02   # -sin(theta_t)
  2  2     9.95688672E-01   # cos(theta_t)
#
BLOCK SBOTMIX  # Sbottom Mixing Matrix
  1  1     3.31864901E-02   # cos(theta_b)
  1  2     9.99449177E-01   # sin(theta_b)
  2  1    -9.99449177E-01   # -sin(theta_b)
  2  2     3.31864901E-02   # cos(theta_b)
#
BLOCK STAUMIX  # Stau Mixing Matrix
  1  1     7.48271937E-02   # cos(theta_tau)
  1  2     9.97196516E-01   # sin(theta_tau)
  2  1    -9.97196516E-01   # -sin(theta_tau)
  2  2     7.48271937E-02   # cos(theta_tau)
#
BLOCK ALPHA  # Higgs mixing
          -2.28414872E-02   # Mixing angle in the neutral Higgs boson sector
#
BLOCK HMIX Q=  2.88465400E+03  # DRbar Higgs Parameters
         1     2.52167137E+03   # mu(Q)MSSM           
         2     4.37863177E+01   # tan                 
         3     2.42758059E+02   # higgs               
         4     1.56570954E+07   # mA^2(Q)MSSM         
#
BLOCK GAUGE Q=  2.88465400E+03  # The gauge couplings
     1     3.64570319E-01   # gprime(Q) DRbar
     2     6.40919481E-01   # g(Q) DRbar
     3     1.00800790E+00   # g3(Q) DRbar
#
BLOCK AU Q=  2.88465400E+03  # The trilinear couplings
  1  1     0.00000000E+00   # A_u(Q) DRbar
  2  2     0.00000000E+00   # A_c(Q) DRbar
  3  3    -3.74806998E+03   # A_t(Q) DRbar
#
BLOCK AD Q=  2.88465400E+03  # The trilinear couplings
  1  1     0.00000000E+00   # A_d(Q) DRbar
  2  2     0.00000000E+00   # A_s(Q) DRbar
  3  3     1.27985001E+03   # A_b(Q) DRbar
#
BLOCK AE Q=  2.88465400E+03  # The trilinear couplings
  1  1     0.00000000E+00   # A_e(Q) DRbar
  2  2     0.00000000E+00   # A_mu(Q) DRbar
  3  3     1.01658000E+03   # A_tau(Q) DRbar
#
BLOCK Yu Q=  2.88465400E+03  # The Yukawa couplings
  1  1     0.00000000E+00   # y_u(Q) DRbar
  2  2     0.00000000E+00   # y_c(Q) DRbar
  3  3     8.13223117E-01   # y_t(Q) DRbar
#
BLOCK Yd Q=  2.88465400E+03  # The Yukawa couplings
  1  1     0.00000000E+00   # y_d(Q) DRbar
  2  2     0.00000000E+00   # y_s(Q) DRbar
  3  3     4.38606275E-01   # y_b(Q) DRbar
#
BLOCK Ye Q=  2.88465400E+03  # The Yukawa couplings
  1  1     0.00000000E+00   # y_e(Q) DRbar
  2  2     0.00000000E+00   # y_mu(Q) DRbar
  3  3     4.66784695E-01   # y_tau(Q) DRbar
#
BLOCK MSOFT Q=  2.88465400E+03  # The soft SUSY breaking masses at the scale Q
         1    -3.23829000E+03   # M_1(Q)              
         2     2.02660000E+02   # M_2(Q)              
         3     3.79612000E+03   # M_3(Q)              
        21     7.97834100E+06   # mH1^2(Q)            
        22    -6.20127473E+06   # mH2^2(Q)            
        31     2.59900000E+03   # meL(Q)              
        32     2.59900000E+03   # mmuL(Q)             
        33     1.67962000E+03   # mtauL(Q)            
        34     3.12300000E+03   # meR(Q)              
        35     3.12300000E+03   # mmuR(Q)             
        36     3.29680013E+02   # mtauR(Q)            
        41     1.57506998E+03   # mqL1(Q)             
        42     1.57506998E+03   # mqL2(Q)             
        43     2.42425997E+03   # mqL3(Q)             
        44     3.16249999E+03   # muR(Q)              
        45     3.16249999E+03   # mcR(Q)              
        46     3.43191997E+03   # mtR(Q)              
        47     3.58100999E+03   # mdR(Q)              
        48     3.58100999E+03   # msR(Q)              
        49     4.18829899E+02   # mbR(Q)              
#
Block HiggsBoundsInputHiggsCouplingsFermions
# ScalarNormEffCoupSq PseudoSNormEffCoupSq NP   IP1 IP2 IP2
    1.00063694E+00    0.00000000E+00        3  25   5   5  # h0-b-b eff. coupling^2, normalised to SM
    1.91724098E+03    0.00000000E+00        3  35   5   5  # H0-b-b eff. coupling^2, normalised to SM
    0.00000000E+00    1.91724162E+03        3  36   5   5  # A0-b-b eff. coupling^2, normalised to SM
#
    9.99999668E-01    0.00000000E+00        3  25   6   6  # h0-t-t eff. coupling^2, normalised to SM
    5.21914888E-04    0.00000000E+00        3  35   6   6  # H0-t-t eff. coupling^2, normalised to SM
    0.00000000E+00    5.21582669E-04        3  36   6   6  # A0-t-t eff. coupling^2, normalised to SM
#
    1.00063694E+00    0.00000000E+00        3  25  15  15  # h0-tau-tau eff. coupling^2, normalised to SM
    1.91724098E+03    0.00000000E+00        3  35  15  15  # H0-tau-tau eff. coupling^2, normalised to SM
    0.00000000E+00    1.91724162E+03        3  36  15  15  # A0-tau-tau eff. coupling^2, normalised to SM
#
Block HiggsBoundsInputHiggsCouplingsBosons
    1.00000000E+00        3  25  24  24  # h0-W-W eff. coupling^2, normalised to SM
    5.28845342E-11        3  35  24  24  # H0-W-W eff. coupling^2, normalised to SM
    0.00000000E+00        3  36  24  24  # A0-W-W eff. coupling^2, normalised to SM
#
    1.00000000E+00        3  25  23  23  # h0-Z-Z eff. coupling^2, normalised to SM
    5.28845342E-11        3  35  23  23  # H0-Z-Z eff. coupling^2, normalised to SM
    0.00000000E+00        3  36  23  23  # A0-Z-Z eff. coupling^2, normalised to SM
#
    8.58398566E-01        3  25  21  21  # h0-g-g eff. coupling^2, normalised to SM
    4.61307372E-13        3  35  21  21  # H0-g-g eff. coupling^2, normalised to SM
    6.81394601E-13        3  36  21  21  # A0-g-g eff. coupling^2, normalised to SM
#
    0.00000000E+00        3  25  25  23  # h0-h0-Z eff. coupling^2, normalised to SM
    0.00000000E+00        3  35  25  23  # H0-h0-Z eff. coupling^2, normalised to SM
    5.28845342E-11        3  36  25  23  # A0-h0-Z eff. coupling^2, normalised to SM
    0.00000000E+00        3  35  35  23  # H0-H0-Z eff. coupling^2, normalised to SM
    1.00000000E+00        3  36  35  23  # A0-H0-Z eff. coupling^2, normalised to SM
    0.00000000E+00        3  36  36  23  # A0-A0-Z eff. coupling^2, normalised to SM
#
    0.00000000E+00        4  25  21  21  23  # h0-g-g-Z eff. coupling^2, normalised to SM
    0.00000000E+00        4  35  21  21  23  # H0-g-g-Z eff. coupling^2, normalised to SM
    0.00000000E+00        4  36  21  21  23  # A0-g-g-Z eff. coupling^2, normalised to SM
#
#
#
#                             =================
#                             |The decay table|
#                             =================
#
# - The QCD corrections to the decays gluino -> squark  + quark
#                                     squark -> gaugino + quark_prime
#                                     squark -> squark_prime + Higgs
#                                     squark -> gluino  + quark
#   are included.
#
# - The multi-body decays for the inos, stops and sbottoms are included.
#
# - The loop induced decays for the gluino, neutralinos and stops
#   are included.
#
# - The SUSY decays of the top quark are included.
#
#
#         PDG            Width
DECAY         6     1.44775067E+00   # top decays
#          BR         NDA      ID1       ID2
     1.00000000E+00    2           5        24   # BR(t ->  b    W+)
#
#         PDG            Width
DECAY   1000021     3.18389964E+02   # gluino decays
#          BR         NDA      ID1       ID2
     7.44349494E-02    2     1000001        -1   # BR(~g -> ~d_L  db)
     7.44349494E-02    2    -1000001         1   # BR(~g -> ~d_L* d )
     6.40745464E-04    2     2000001        -1   # BR(~g -> ~d_R  db)
     6.40745464E-04    2    -2000001         1   # BR(~g -> ~d_R* d )
     7.45129734E-02    2     1000002        -2   # BR(~g -> ~u_L  ub)
     7.45129734E-02    2    -1000002         2   # BR(~g -> ~u_L* u )
     8.45904252E-03    2     2000002        -2   # BR(~g -> ~u_R  ub)
     8.45904252E-03    2    -2000002         2   # BR(~g -> ~u_R* u )
     7.44349494E-02    2     1000003        -3   # BR(~g -> ~s_L  sb)
     7.44349494E-02    2    -1000003         3   # BR(~g -> ~s_L* s )
     6.40745464E-04    2     2000003        -3   # BR(~g -> ~s_R  sb)
     6.40745464E-04    2    -2000003         3   # BR(~g -> ~s_R* s )
     7.45129650E-02    2     1000004        -4   # BR(~g -> ~c_L  cb)
     7.45129650E-02    2    -1000004         4   # BR(~g -> ~c_L* c )
     8.45901152E-03    2     2000004        -4   # BR(~g -> ~c_R  cb)
     8.45901152E-03    2    -2000004         4   # BR(~g -> ~c_R* c )
     1.08258757E-01    2     1000005        -5   # BR(~g -> ~b_1  bb)
     1.08258757E-01    2    -1000005         5   # BR(~g -> ~b_1* b )
     3.66096186E-02    2     2000005        -5   # BR(~g -> ~b_2  bb)
     3.66096186E-02    2    -2000005         5   # BR(~g -> ~b_2* b )
     3.57921468E-02    2     1000006        -6   # BR(~g -> ~t_1  tb)
     3.57921468E-02    2    -1000006         6   # BR(~g -> ~t_1* t )
     3.24409540E-03    2     2000006        -6   # BR(~g -> ~t_2  tb)
     3.24409540E-03    2    -2000006         6   # BR(~g -> ~t_2* t )
#
#         PDG            Width
DECAY   1000006     3.91799407E+01   # stop1 decays
#          BR         NDA      ID1       ID2
     2.54447553E-01    2     1000022         6   # BR(~t_1 -> ~chi_10 t )
     5.14803416E-01    2     1000024         5   # BR(~t_1 -> ~chi_1+ b )
     2.30749031E-01    2     1000005        24   # BR(~t_1 -> ~b_1    W+)
#
#         PDG            Width
DECAY   2000006     7.07694260E+01   # stop2 decays
#          BR         NDA      ID1       ID2
     1.48888877E-03    2     1000022         6   # BR(~t_2 -> ~chi_10 t )
     7.00543014E-02    2     1000023         6   # BR(~t_2 -> ~chi_20 t )
     7.48899394E-02    2     1000025         6   # BR(~t_2 -> ~chi_30 t )
     2.43499092E-03    2     1000035         6   # BR(~t_2 -> ~chi_40 t )
     2.99918279E-03    2     1000024         5   # BR(~t_2 -> ~chi_1+ b )
     1.47092708E-01    2     1000037         5   # BR(~t_2 -> ~chi_2+ b )
     1.76122880E-01    2     1000006        25   # BR(~t_2 -> ~t_1    h )
     1.78523194E-01    2     1000006        23   # BR(~t_2 -> ~t_1    Z )
     3.23932582E-03    2     1000005        24   # BR(~t_2 -> ~b_1    W+)
     3.43154589E-01    2     2000005        24   # BR(~t_2 -> ~b_2    W+)
#
#         PDG            Width
DECAY   1000005     2.18206265E-02   # sbottom1 decays
#          BR         NDA      ID1       ID2
     3.79660365E-01    2     1000022         5   # BR(~b_1 -> ~chi_10 b )
     6.20339635E-01    2    -1000024         6   # BR(~b_1 -> ~chi_1- t )
#
#         PDG            Width
DECAY   2000005     3.93180726E+01   # sbottom2 decays
#          BR         NDA      ID1       ID2
     2.58266679E-01    2     1000022         5   # BR(~b_2 -> ~chi_10 b )
     9.09780986E-06    2     1000023         5   # BR(~b_2 -> ~chi_20 b )
     7.57608100E-06    2     1000025         5   # BR(~b_2 -> ~chi_30 b )
     5.10613932E-01    2    -1000024         6   # BR(~b_2 -> ~chi_1- t )
     1.10750059E-01    2     1000005        25   # BR(~b_2 -> ~b_1    h )
     1.20352656E-01    2     1000005        23   # BR(~b_2 -> ~b_1    Z )
#
#         PDG            Width
DECAY   1000002     2.05558354E+01   # sup_L decays
#          BR         NDA      ID1       ID2
     3.33131093E-01    2     1000022         2   # BR(~u_L -> ~chi_10 u)
     6.66868907E-01    2     1000024         1   # BR(~u_L -> ~chi_1+ d)
#
#         PDG            Width
DECAY   2000002     3.47673370E-01   # sup_R decays
#           BR         NDA      ID1       ID2
     7.21263006E-08    2     1000022         2   # BR(~u_R -> ~chi_10 u)
#           BR         NDA      ID1       ID2       ID3
     6.82939853E-02    3        2       -1        1000001   # BR(~u_R -> u  db  ~d_L)
     3.13167500E-02    3        2       1        -1000001   # BR(~u_R -> u  d  ~d_L*)
     6.88548565E-02    3        2       -2        1000002   # BR(~u_R -> u  ub  ~u_L)
     3.18603637E-02    3        2       2        -1000002   # BR(~u_R -> u  u  ~u_L*)
     6.90734525E-02    3        2       -3        1000003   # BR(~u_R -> u  sb  ~s_L)
     3.15267172E-02    3        2       3        -1000003   # BR(~u_R -> u  s  ~s_L*)
     6.87570636E-02    3        2       -4        1000004   # BR(~u_R -> u  cb  ~c_L)
     3.16273864E-02    3        2       4        -1000004   # BR(~u_R -> u  c  ~c_L*)
     1.26940985E-01    3        2       -5        1000005   # BR(~u_R -> u  bb  ~b_1)
     4.01813921E-01    3        2       5        -1000005   # BR(~u_R -> u  b  ~b_1*)
     3.38536138E-03    3        2       -5        2000005   # BR(~u_R -> u  bb  ~b_2)
     2.07139822E-03    3        2       5        -2000005   # BR(~u_R -> u  b  ~b_2*)
     2.83930288E-03    3        2       -6        1000006   # BR(~u_R -> u  tb  ~t_1)
     1.75178790E-03    3        2       6        -1000006   # BR(~u_R -> u  t  ~t_1*)
     2.68415726E-04    3        2       -11        1000011   # BR(~u_R -> u  e+  ~e_L-)
     2.57727534E-04    3        2       11        -1000011   # BR(~u_R -> u  e-  ~e_L+)
     7.97156251E-06    3        2       -11        2000011   # BR(~u_R -> u  e+  ~e_R-)
     8.06043903E-06    3        2       11        -2000011   # BR(~u_R -> u  e-  ~e_R+)
     2.74898822E-04    3        2       -12        1000012   # BR(~u_R -> u  nu_eb  ~nu_eL)
     2.62821395E-04    3        2       12        -1000012   # BR(~u_R -> u  nu_e  ~nu_eL*)
     2.73253600E-04    3        2       -13        1000013   # BR(~u_R -> u  mu+  ~mu_L-)
     2.58630680E-04    3        2       13        -1000013   # BR(~u_R -> u  mu-  ~mu_L+)
     8.06015140E-06    3        2       -13        2000013   # BR(~u_R -> u  mu+  ~mu_R-)
     7.95775644E-06    3        2       13        -2000013   # BR(~u_R -> u  mu-  ~mu_R+)
     2.71973664E-04    3        2       -14        1000014   # BR(~u_R -> u  nu_mub  ~nu_muL)
     2.61107142E-04    3        2       14        -1000014   # BR(~u_R -> u  nu_mu  ~nu_muL*)
     1.64461834E-02    3        2       -15        1000015   # BR(~u_R -> u  tau+  ~tau_1-)
     2.42316517E-02    3        2       15        -1000015   # BR(~u_R -> u  tau-  ~tau_1+)
     2.18483803E-03    3        2       -15        2000015   # BR(~u_R -> u  tau+  ~tau_2-)
     1.91898506E-03    3        2       15        -2000015   # BR(~u_R -> u  tau-  ~tau_2+)
     2.01372916E-03    3        2       -16        1000016   # BR(~u_R -> u  nu_taub  ~nu_tau1)
     1.73988016E-03    3        2       16        -1000016   # BR(~u_R -> u  nu_tau  ~nu_tau1*)
     6.01541614E-04    3        2       23        1000022   # BR(~u_R -> u  Z  ~chi_10)
     4.10183846E-04    3        2       25        1000022   # BR(~u_R -> u  h  ~chi_10)
     3.17539419E-05    3        2       23        1000023   # BR(~u_R -> u  Z  ~chi_20)
     1.57751512E-03    3        2       25        1000023   # BR(~u_R -> u  h  ~chi_20)
     1.49985603E-03    3        2       23        1000025   # BR(~u_R -> u  Z  ~chi_30)
     1.96586814E-05    3        2       25        1000025   # BR(~u_R -> u  h  ~chi_30)
     9.88398968E-04    3        2       -24        1000024   # BR(~u_R -> u  W-  ~chi_1+)
     1.01368132E-03    3        2       24        -1000024   # BR(~u_R -> u  W+  ~chi_1-)
     1.46194689E-03    3        2       -24        1000037   # BR(~u_R -> u  W-  ~chi_2+)
     1.58591382E-03    3        2       24        -1000037   # BR(~u_R -> u  W+  ~chi_2-)
#
#         PDG            Width
DECAY   1000001     2.05508661E+01   # sdown_L decays
#          BR         NDA      ID1       ID2
     3.33556873E-01    2     1000022         1   # BR(~d_L -> ~chi_10 d)
     6.66443127E-01    2    -1000024         2   # BR(~d_L -> ~chi_1- u)
#
#         PDG            Width
DECAY   2000001     1.12781783E+00   # sdown_R decays
#           BR         NDA      ID1       ID2
     6.19469050E-09    2     1000022         1   # BR(~d_R -> ~chi_10 d)
#           BR         NDA      ID1       ID2       ID3
     7.80090523E-02    3        1       -1        1000001   # BR(~d_R -> d  db  ~d_L)
     4.67557778E-02    3        1       1        -1000001   # BR(~d_R -> d  d  ~d_L*)
     7.76056182E-02    3        1       -2        1000002   # BR(~d_R -> d  ub  ~u_L)
     4.63736239E-02    3        1       2        -1000002   # BR(~d_R -> d  u  ~u_L*)
     2.03552376E-04    3        1       -2        2000002   # BR(~d_R -> d  ub  ~u_R)
     2.41945102E-04    3        1       2        -2000002   # BR(~d_R -> d  u  ~u_R*)
     7.93177742E-02    3        1       -3        1000003   # BR(~d_R -> d  sb  ~s_L)
     4.53654825E-02    3        1       3        -1000003   # BR(~d_R -> d  s  ~s_L*)
     7.86199664E-02    3        1       -4        1000004   # BR(~d_R -> d  cb  ~c_L)
     4.63700773E-02    3        1       4        -1000004   # BR(~d_R -> d  c  ~c_L*)
     2.04040044E-04    3        1       -4        2000004   # BR(~d_R -> d  cb  ~c_R)
     2.38513696E-04    3        1       4        -2000004   # BR(~d_R -> d  c  ~c_R*)
     1.18636180E-01    3        1       -5        1000005   # BR(~d_R -> d  bb  ~b_1)
     2.60254797E-01    3        1       5        -1000005   # BR(~d_R -> d  b  ~b_1*)
     1.28194462E-02    3        1       -5        2000005   # BR(~d_R -> d  bb  ~b_2)
     9.23730743E-03    3        1       5        -2000005   # BR(~d_R -> d  b  ~b_2*)
     1.18919915E-02    3        1       -6        1000006   # BR(~d_R -> d  tb  ~t_1)
     8.58968509E-03    3        1       6        -1000006   # BR(~d_R -> d  t  ~t_1*)
     2.68092941E-08    3        1       -6        2000006   # BR(~d_R -> d  tb  ~t_2)
     2.87156304E-08    3        1       6        -2000006   # BR(~d_R -> d  t  ~t_2*)
     6.49360189E-04    3        1       -11        1000011   # BR(~d_R -> d  e+  ~e_L-)
     6.51896060E-04    3        1       11        -1000011   # BR(~d_R -> d  e-  ~e_L+)
     4.89236812E-05    3        1       -11        2000011   # BR(~d_R -> d  e+  ~e_R-)
     4.72540853E-05    3        1       11        -2000011   # BR(~d_R -> d  e-  ~e_R+)
     6.50610391E-04    3        1       -12        1000012   # BR(~d_R -> d  nu_eb  ~nu_eL)
     6.50255724E-04    3        1       12        -1000012   # BR(~d_R -> d  nu_e  ~nu_eL*)
     6.47019386E-04    3        1       -13        1000013   # BR(~d_R -> d  mu+  ~mu_L-)
     6.46522852E-04    3        1       13        -1000013   # BR(~d_R -> d  mu-  ~mu_L+)
     4.93191352E-05    3        1       -13        2000013   # BR(~d_R -> d  mu+  ~mu_R-)
     4.72478787E-05    3        1       13        -2000013   # BR(~d_R -> d  mu-  ~mu_R+)
     6.51186725E-04    3        1       -14        1000014   # BR(~d_R -> d  nu_mub  ~nu_muL)
     6.57420002E-04    3        1       14        -1000014   # BR(~d_R -> d  nu_mu  ~nu_muL*)
     2.32927688E-02    3        1       -15        1000015   # BR(~d_R -> d  tau+  ~tau_1-)
     2.43354905E-02    3        1       15        -1000015   # BR(~d_R -> d  tau-  ~tau_1+)
     3.22419091E-03    3        1       -15        2000015   # BR(~d_R -> d  tau+  ~tau_2-)
     3.16744416E-03    3        1       15        -2000015   # BR(~d_R -> d  tau-  ~tau_2+)
     3.18065552E-03    3        1       -16        1000016   # BR(~d_R -> d  nu_taub  ~nu_tau1)
     3.09278671E-03    3        1       16        -1000016   # BR(~d_R -> d  nu_tau  ~nu_tau1*)
     1.18192847E-04    3        1       23        1000022   # BR(~d_R -> d  Z  ~chi_10)
     8.33467937E-05    3        1       25        1000022   # BR(~d_R -> d  h  ~chi_10)
     5.48616969E-05    3        1       23        1000023   # BR(~d_R -> d  Z  ~chi_20)
     3.28652367E-03    3        1       25        1000023   # BR(~d_R -> d  h  ~chi_20)
     3.14882413E-03    3        1       23        1000025   # BR(~d_R -> d  Z  ~chi_30)
     4.88784612E-05    3        1       25        1000025   # BR(~d_R -> d  h  ~chi_30)
     1.97177234E-04    3        1       -24        1000024   # BR(~d_R -> d  W-  ~chi_1+)
     1.99651038E-04    3        1       24        -1000024   # BR(~d_R -> d  W+  ~chi_1-)
     3.21177757E-03    3        1       -24        1000037   # BR(~d_R -> d  W-  ~chi_2+)
     3.22552091E-03    3        1       24        -1000037   # BR(~d_R -> d  W+  ~chi_2-)
#
#         PDG            Width
DECAY   1000004     2.01639697E+01   # scharm_L decays
#          BR         NDA      ID1       ID2
     3.33130928E-01    2     1000022         4   # BR(~c_L -> ~chi_10 c)
     6.66869072E-01    2     1000024         3   # BR(~c_L -> ~chi_1+ s)
#
#         PDG            Width
DECAY   2000004     3.46612512E-01   # scharm_R decays
#           BR         NDA      ID1       ID2
     7.37488752E-08    2     1000022         4   # BR(~c_R -> ~chi_10 c)
#           BR         NDA      ID1       ID2       ID3
     6.84683881E-02    3        4       -1        1000001   # BR(~c_R -> c  db  ~d_L)
     3.18799801E-02    3        4       1        -1000001   # BR(~c_R -> c  d  ~d_L*)
     6.88722973E-02    3        4       -2        1000002   # BR(~c_R -> c  ub  ~u_L)
     3.15597378E-02    3        4       2        -1000002   # BR(~c_R -> c  u  ~u_L*)
     6.86126414E-02    3        4       -3        1000003   # BR(~c_R -> c  sb  ~s_L)
     3.19001756E-02    3        4       3        -1000003   # BR(~c_R -> c  s  ~s_L*)
     6.83818361E-02    3        4       -4        1000004   # BR(~c_R -> c  cb  ~c_L)
     3.18049684E-02    3        4       4        -1000004   # BR(~c_R -> c  c  ~c_L*)
     1.27641093E-01    3        4       -5        1000005   # BR(~c_R -> c  bb  ~b_1)
     4.00245217E-01    3        4       5        -1000005   # BR(~c_R -> c  b  ~b_1*)
     3.38649056E-03    3        4       -5        2000005   # BR(~c_R -> c  bb  ~b_2)
     2.09470222E-03    3        4       5        -2000005   # BR(~c_R -> c  b  ~b_2*)
     2.90756959E-03    3        4       -6        1000006   # BR(~c_R -> c  tb  ~t_1)
     1.74203174E-03    3        4       6        -1000006   # BR(~c_R -> c  t  ~t_1*)
     2.68671778E-04    3        4       -11        1000011   # BR(~c_R -> c  e+  ~e_L-)
     2.59055853E-04    3        4       11        -1000011   # BR(~c_R -> c  e-  ~e_L+)
     8.00634686E-06    3        4       -11        2000011   # BR(~c_R -> c  e+  ~e_R-)
     7.98038127E-06    3        4       11        -2000011   # BR(~c_R -> c  e-  ~e_R+)
     2.73264803E-04    3        4       -12        1000012   # BR(~c_R -> c  nu_eb  ~nu_eL)
     2.61055203E-04    3        4       12        -1000012   # BR(~c_R -> c  nu_e  ~nu_eL*)
     2.70278760E-04    3        4       -13        1000013   # BR(~c_R -> c  mu+  ~mu_L-)
     2.58605782E-04    3        4       13        -1000013   # BR(~c_R -> c  mu-  ~mu_L+)
     8.07876202E-06    3        4       -13        2000013   # BR(~c_R -> c  mu+  ~mu_R-)
     7.90883163E-06    3        4       13        -2000013   # BR(~c_R -> c  mu-  ~mu_R+)
     2.74808314E-04    3        4       -14        1000014   # BR(~c_R -> c  nu_mub  ~nu_muL)
     2.65928081E-04    3        4       14        -1000014   # BR(~c_R -> c  nu_mu  ~nu_muL*)
     1.65718196E-02    3        4       -15        1000015   # BR(~c_R -> c  tau+  ~tau_1-)
     2.46551977E-02    3        4       15        -1000015   # BR(~c_R -> c  tau-  ~tau_1+)
     2.18393731E-03    3        4       -15        2000015   # BR(~c_R -> c  tau+  ~tau_2-)
     1.92159825E-03    3        4       15        -2000015   # BR(~c_R -> c  tau-  ~tau_2+)
     2.02929778E-03    3        4       -16        1000016   # BR(~c_R -> c  nu_taub  ~nu_tau1)
     1.73144356E-03    3        4       16        -1000016   # BR(~c_R -> c  nu_tau  ~nu_tau1*)
     6.03786628E-04    3        4       23        1000022   # BR(~c_R -> c  Z  ~chi_10)
     4.11439273E-04    3        4       25        1000022   # BR(~c_R -> c  h  ~chi_10)
     3.17732327E-05    3        4       23        1000023   # BR(~c_R -> c  Z  ~chi_20)
     1.59071003E-03    3        4       25        1000023   # BR(~c_R -> c  h  ~chi_20)
     1.50173459E-03    3        4       23        1000025   # BR(~c_R -> c  Z  ~chi_30)
     1.96418183E-05    3        4       25        1000025   # BR(~c_R -> c  h  ~chi_30)
     1.00256046E-03    3        4       -24        1000024   # BR(~c_R -> c  W-  ~chi_1+)
     1.01271589E-03    3        4       24        -1000024   # BR(~c_R -> c  W+  ~chi_1-)
     1.47646142E-03    3        4       -24        1000037   # BR(~c_R -> c  W-  ~chi_2+)
     1.59503763E-03    3        4       24        -1000037   # BR(~c_R -> c  W+  ~chi_2-)
#
#         PDG            Width
DECAY   1000003     2.01601656E+01   # sstrange_L decays
#          BR         NDA      ID1       ID2
     3.33557295E-01    2     1000022         3   # BR(~s_L -> ~chi_10 s)
     6.66442705E-01    2    -1000024         4   # BR(~s_L -> ~chi_1- c)
#
#         PDG            Width
DECAY   2000003     1.12849389E+00   # sstrange_R decays
#           BR         NDA      ID1       ID2
     6.39013740E-09    2     1000022         3   # BR(~s_R -> ~chi_10 s)
#           BR         NDA      ID1       ID2       ID3
     7.83265205E-02    3        3       -1        1000001   # BR(~s_R -> s  db  ~d_L)
     4.62324169E-02    3        3       1        -1000001   # BR(~s_R -> s  d  ~d_L*)
     7.75591261E-02    3        3       -2        1000002   # BR(~s_R -> s  ub  ~u_L)
     4.57680813E-02    3        3       2        -1000002   # BR(~s_R -> s  u  ~u_L*)
     2.03962114E-04    3        3       -2        2000002   # BR(~s_R -> s  ub  ~u_R)
     2.42190057E-04    3        3       2        -2000002   # BR(~s_R -> s  u  ~u_R*)
     7.92702563E-02    3        3       -3        1000003   # BR(~s_R -> s  sb  ~s_L)
     4.62554564E-02    3        3       3        -1000003   # BR(~s_R -> s  s  ~s_L*)
     7.85728666E-02    3        3       -4        1000004   # BR(~s_R -> s  cb  ~c_L)
     4.69280344E-02    3        3       4        -1000004   # BR(~s_R -> s  c  ~c_L*)
     1.99868163E-04    3        3       -4        2000004   # BR(~s_R -> s  cb  ~c_R)
     2.40488674E-04    3        3       4        -2000004   # BR(~s_R -> s  c  ~c_R*)
     1.19265155E-01    3        3       -5        1000005   # BR(~s_R -> s  bb  ~b_1)
     2.59132994E-01    3        3       5        -1000005   # BR(~s_R -> s  b  ~b_1*)
     1.28117663E-02    3        3       -5        2000005   # BR(~s_R -> s  bb  ~b_2)
     9.17151620E-03    3        3       5        -2000005   # BR(~s_R -> s  b  ~b_2*)
     1.18910702E-02    3        3       -6        1000006   # BR(~s_R -> s  tb  ~t_1)
     8.71054782E-03    3        3       6        -1000006   # BR(~s_R -> s  t  ~t_1*)
     2.67356343E-08    3        3       -6        2000006   # BR(~s_R -> s  tb  ~t_2)
     2.86753878E-08    3        3       6        -2000006   # BR(~s_R -> s  t  ~t_2*)
     6.48971169E-04    3        3       -11        1000011   # BR(~s_R -> s  e+  ~e_L-)
     6.51505521E-04    3        3       11        -1000011   # BR(~s_R -> s  e-  ~e_L+)
     4.88943719E-05    3        3       -11        2000011   # BR(~s_R -> s  e+  ~e_R-)
     4.72257763E-05    3        3       11        -2000011   # BR(~s_R -> s  e-  ~e_R+)
     6.50220622E-04    3        3       -12        1000012   # BR(~s_R -> s  nu_eb  ~nu_eL)
     6.49866168E-04    3        3       12        -1000012   # BR(~s_R -> s  nu_e  ~nu_eL*)
     6.46631768E-04    3        3       -13        1000013   # BR(~s_R -> s  mu+  ~mu_L-)
     6.46135532E-04    3        3       13        -1000013   # BR(~s_R -> s  mu-  ~mu_L+)
     4.92895889E-05    3        3       -13        2000013   # BR(~s_R -> s  mu+  ~mu_R-)
     4.72195733E-05    3        3       13        -2000013   # BR(~s_R -> s  mu-  ~mu_R+)
     6.50796611E-04    3        3       -14        1000014   # BR(~s_R -> s  nu_mub  ~nu_muL)
     6.57026153E-04    3        3       14        -1000014   # BR(~s_R -> s  nu_mu  ~nu_muL*)
     2.32788145E-02    3        3       -15        1000015   # BR(~s_R -> s  tau+  ~tau_1-)
     2.43209115E-02    3        3       15        -1000015   # BR(~s_R -> s  tau-  ~tau_1+)
     3.22225936E-03    3        3       -15        2000015   # BR(~s_R -> s  tau+  ~tau_2-)
     3.16554659E-03    3        3       15        -2000015   # BR(~s_R -> s  tau-  ~tau_2+)
     3.17875004E-03    3        3       -16        1000016   # BR(~s_R -> s  nu_taub  ~nu_tau1)
     3.09093387E-03    3        3       16        -1000016   # BR(~s_R -> s  nu_tau  ~nu_tau1*)
     1.18122039E-04    3        3       23        1000022   # BR(~s_R -> s  Z  ~chi_10)
     8.32968621E-05    3        3       25        1000022   # BR(~s_R -> s  h  ~chi_10)
     5.48288304E-05    3        3       23        1000023   # BR(~s_R -> s  Z  ~chi_20)
     3.28455478E-03    3        3       25        1000023   # BR(~s_R -> s  h  ~chi_20)
     3.14693773E-03    3        3       23        1000025   # BR(~s_R -> s  Z  ~chi_30)
     4.88491789E-05    3        3       25        1000025   # BR(~s_R -> s  h  ~chi_30)
     1.97059108E-04    3        3       -24        1000024   # BR(~s_R -> s  W-  ~chi_1+)
     1.99531431E-04    3        3       24        -1000024   # BR(~s_R -> s  W+  ~chi_1-)
     3.20985344E-03    3        3       -24        1000037   # BR(~s_R -> s  W-  ~chi_2+)
     3.22358856E-03    3        3       24        -1000037   # BR(~s_R -> s  W+  ~chi_2-)
#
#         PDG            Width
DECAY   1000011     3.14333068E+01   # selectron_L decays
#          BR         NDA      ID1       ID2
     3.33567429E-01    2     1000022        11   # BR(~e_L -> ~chi_10 e-)
     2.77092335E-06    2     1000023        11   # BR(~e_L -> ~chi_20 e-)
     6.40645559E-07    2     1000025        11   # BR(~e_L -> ~chi_30 e-)
     6.66423888E-01    2    -1000024        12   # BR(~e_L -> ~chi_1- nu_e)
     5.27105196E-06    2    -1000037        12   # BR(~e_L -> ~chi_2- nu_e)
#
#         PDG            Width
DECAY   2000011     2.29456424E-02   # selectron_R decays
#           BR         NDA      ID1       ID2
     2.40398255E-06    2     1000022        11   # BR(~e_R -> ~chi_10 e-)
#           BR         NDA      ID1       ID2       ID3
     5.58363100E-03    3        11       -1        1000001   # BR(~e_R- -> e-  db  ~d_L)
     3.88435411E-03    3        11       1        -1000001   # BR(~e_R- -> e-  d  ~d_L*)
     5.56489106E-03    3        11       -2        1000002   # BR(~e_R- -> e-  ub  ~u_L)
     3.79610205E-03    3        11       2        -1000002   # BR(~e_R- -> e-  u  ~u_L*)
     5.56924918E-03    3        11       -3        1000003   # BR(~e_R- -> e-  sb  ~s_L)
     3.78939054E-03    3        11       3        -1000003   # BR(~e_R- -> e-  s  ~s_L*)
     5.71001665E-03    3        11       -4        1000004   # BR(~e_R- -> e-  cb  ~c_L)
     3.75317450E-03    3        11       4        -1000004   # BR(~e_R- -> e-  c  ~c_L*)
     7.89256614E-02    3        11       -5        1000005   # BR(~e_R- -> e-  bb  ~b_1)
     1.33899062E-01    3        11       5        -1000005   # BR(~e_R- -> e-  b  ~b_1*)
     3.86347868E-04    3        11       -5        2000005   # BR(~e_R- -> e-  bb  ~b_2)
     3.44209148E-04    3        11       5        -2000005   # BR(~e_R- -> e-  b  ~b_2*)
     7.27937782E-04    3        11       -6        1000006   # BR(~e_R- -> e-  tb  ~t_1)
     6.31623198E-04    3        11       6        -1000006   # BR(~e_R- -> e-  t  ~t_1*)
     6.27090747E-04    3        11       -11        1000011   # BR(~e_R- -> e-  e+  ~e_L-)
     5.20752473E-04    3        11       11        -1000011   # BR(~e_R- -> e-  e-  ~e_L+)
     6.32712729E-04    3        11       -12        1000012   # BR(~e_R- -> e-  nu_eb  ~nu_eL)
     5.40974177E-04    3        11       12        -1000012   # BR(~e_R- -> e-  nu_e  ~nu_eL*)
     6.18548820E-04    3        11       -13        1000013   # BR(~e_R- -> e-  mu+  ~mu_L-)
     5.20142335E-04    3        11       13        -1000013   # BR(~e_R- -> e-  mu-  ~mu_L+)
     6.28877578E-04    3        11       -14        1000014   # BR(~e_R- -> e-  nu_mub  ~nu_muL)
     5.35744426E-04    3        11       14        -1000014   # BR(~e_R- -> e-  nu_mu  ~nu_muL*)
     1.85028597E-01    3        11       -15        1000015   # BR(~e_R- -> e-  tau+  ~tau_1-)
     3.94528070E-01    3        11       15        -1000015   # BR(~e_R- -> e-  tau-  ~tau_1+)
     2.15526762E-02    3        11       -15        2000015   # BR(~e_R- -> e-  tau+  ~tau_2-)
     1.58596563E-02    3        11       15        -2000015   # BR(~e_R- -> e-  tau-  ~tau_2+)
     1.79005666E-02    3        11       -16        1000016   # BR(~e_R- -> e-  nu_taub  ~nu_tau1)
     1.19142448E-02    3        11       16        -1000016   # BR(~e_R- -> e-  nu_tau  ~nu_tau1*)
     1.45918773E-02    3        11       23        1000022   # BR(~e_R- -> e-  Z  ~chi_10)
     9.94698673E-03    3        11       25        1000022   # BR(~e_R- -> e-  h  ~chi_10)
     1.73841287E-04    3        11       23        1000023   # BR(~e_R- -> e-  Z  ~chi_20)
     6.00985572E-03    3        11       25        1000023   # BR(~e_R- -> e-  h  ~chi_20)
     5.54527949E-03    3        11       23        1000025   # BR(~e_R- -> e-  Z  ~chi_30)
     4.99964212E-05    3        11       25        1000025   # BR(~e_R- -> e-  h  ~chi_30)
     2.39435441E-02    3        11       -24        1000024   # BR(~e_R- -> e-  W-  ~chi_1+)
     2.41841127E-02    3        11       24        -1000024   # BR(~e_R- -> e-  W+  ~chi_1-)
     5.15914953E-03    3        11       -24        1000037   # BR(~e_R- -> e-  W-  ~chi_2+)
     6.41864794E-03    3        11       24        -1000037   # BR(~e_R- -> e-  W+  ~chi_2-)
#
#         PDG            Width
DECAY   1000013     3.14333068E+01   # smuon_L decays
#          BR         NDA      ID1       ID2
     3.33567428E-01    2     1000022        13   # BR(~mu_L -> ~chi_10 mu-)
     2.77092119E-06    2     1000023        13   # BR(~mu_L -> ~chi_20 mu-)
     6.40645041E-07    2     1000025        13   # BR(~mu_L -> ~chi_30 mu-)
     6.66423889E-01    2    -1000024        14   # BR(~mu_L -> ~chi_1- nu_mu)
     5.27105197E-06    2    -1000037        14   # BR(~mu_L -> ~chi_2- nu_mu)
#
#         PDG            Width
DECAY   2000013     2.29456454E-02   # smuon_R decays
#           BR         NDA      ID1       ID2
     2.40398220E-06    2     1000022        13   # BR(~mu_R -> ~chi_10 mu-)
#           BR         NDA      ID1       ID2       ID3
     5.60629250E-03    3        13       -1        1000001   # BR(~mu_R- -> mu-  db  ~d_L)
     3.88544311E-03    3        13       1        -1000001   # BR(~mu_R- -> mu-  d  ~d_L*)
     5.56489031E-03    3        13       -2        1000002   # BR(~mu_R- -> mu-  ub  ~u_L)
     3.79597079E-03    3        13       2        -1000002   # BR(~mu_R- -> mu-  u  ~u_L*)
     5.57012006E-03    3        13       -3        1000003   # BR(~mu_R- -> mu-  sb  ~s_L)
     3.79126402E-03    3        13       3        -1000003   # BR(~mu_R- -> mu-  s  ~s_L*)
     5.70827264E-03    3        13       -4        1000004   # BR(~mu_R- -> mu-  cb  ~c_L)
     3.75103852E-03    3        13       4        -1000004   # BR(~mu_R- -> mu-  c  ~c_L*)
     7.89343671E-02    3        13       -5        1000005   # BR(~mu_R- -> mu-  bb  ~b_1)
     1.33890328E-01    3        13       5        -1000005   # BR(~mu_R- -> mu-  b  ~b_1*)
     3.86360890E-04    3        13       -5        2000005   # BR(~mu_R- -> mu-  bb  ~b_2)
     3.44413933E-04    3        13       5        -2000005   # BR(~mu_R- -> mu-  b  ~b_2*)
     7.27371128E-04    3        13       -6        1000006   # BR(~mu_R- -> mu-  tb  ~t_1)
     6.31361625E-04    3        13       6        -1000006   # BR(~mu_R- -> mu-  t  ~t_1*)
     6.24955181E-04    3        13       -11        1000011   # BR(~mu_R- -> mu-  e+  ~e_L-)
     5.19227059E-04    3        13       11        -1000011   # BR(~mu_R- -> mu-  e-  ~e_L+)
     6.32930551E-04    3        13       -12        1000012   # BR(~mu_R- -> mu-  nu_eb  ~nu_eL)
     5.38969367E-04    3        13       12        -1000012   # BR(~mu_R- -> mu-  nu_e  ~nu_eL*)
     6.19681849E-04    3        13       -13        1000013   # BR(~mu_R- -> mu-  mu+  ~mu_L-)
     5.20447334E-04    3        13       13        -1000013   # BR(~mu_R- -> mu-  mu-  ~mu_L+)
     6.29051819E-04    3        13       -14        1000014   # BR(~mu_R- -> mu-  nu_mub  ~nu_muL)
     5.35221379E-04    3        13       14        -1000014   # BR(~mu_R- -> mu-  nu_mu  ~nu_muL*)
     1.84963200E-01    3        13       -15        1000015   # BR(~mu_R- -> mu-  tau+  ~tau_1-)
     3.94562882E-01    3        13       15        -1000015   # BR(~mu_R- -> mu-  tau-  ~tau_1+)
     2.15692342E-02    3        13       -15        2000015   # BR(~mu_R- -> mu-  tau+  ~tau_2-)
     1.58622690E-02    3        13       15        -2000015   # BR(~mu_R- -> mu-  tau-  ~tau_2+)
     1.78996926E-02    3        13       -16        1000016   # BR(~mu_R- -> mu-  nu_taub  ~nu_tau1)
     1.19124999E-02    3        13       16        -1000016   # BR(~mu_R- -> mu-  nu_tau  ~nu_tau1*)
     1.45918754E-02    3        13       23        1000022   # BR(~mu_R- -> mu-  Z  ~chi_10)
     9.94654958E-03    3        13       25        1000022   # BR(~mu_R- -> mu-  h  ~chi_10)
     1.73884845E-04    3        13       23        1000023   # BR(~mu_R- -> mu-  Z  ~chi_20)
     6.00898329E-03    3        13       25        1000023   # BR(~mu_R- -> mu-  h  ~chi_20)
     5.55399500E-03    3        13       23        1000025   # BR(~mu_R- -> mu-  Z  ~chi_30)
     5.00007726E-05    3        13       25        1000025   # BR(~mu_R- -> mu-  h  ~chi_30)
     2.39435409E-02    3        13       -24        1000024   # BR(~mu_R- -> mu-  W-  ~chi_1+)
     2.41841093E-02    3        13       24        -1000024   # BR(~mu_R- -> mu-  W+  ~chi_1-)
     5.15609815E-03    3        13       -24        1000037   # BR(~mu_R- -> mu-  W-  ~chi_2+)
     6.41080245E-03    3        13       24        -1000037   # BR(~mu_R- -> mu-  W+  ~chi_2-)
#
#         PDG            Width
DECAY   1000015     1.81398593E-02   # stau_1 decays
#          BR         NDA      ID1       ID2
     3.33961523E-01    2     1000022        15   # BR(~tau_1 -> ~chi_10  tau-)
     6.66038477E-01    2    -1000024        16   # BR(~tau_1 -> ~chi_1-  nu_tau)
#
#         PDG            Width
DECAY   2000015     3.46638680E+01   # stau_2 decays
#          BR         NDA      ID1       ID2
     1.89747278E-01    2     1000022        15   # BR(~tau_2 -> ~chi_10  tau-)
     3.78685617E-01    2    -1000024        16   # BR(~tau_2 -> ~chi_1-  nu_tau)
     2.15636437E-01    2     1000015        25   # BR(~tau_2 -> ~tau_1   h)
     2.15930669E-01    2     1000015        23   # BR(~tau_2 -> ~tau_1   Z)
#
#         PDG            Width
DECAY   1000012     3.14534632E+01   # snu_eL decays
#          BR         NDA      ID1       ID2
     3.33105073E-01    2     1000022        12   # BR(~nu_eL -> ~chi_10 nu_e)
     2.78270385E-08    2     1000023        12   # BR(~nu_eL -> ~chi_20 nu_e)
     1.03029574E-06    2     1000025        12   # BR(~nu_eL -> ~chi_30 nu_e)
     6.66893807E-01    2     1000024        11   # BR(~nu_eL -> ~chi_1+ e-)
     6.12830869E-08    2     1000037        11   # BR(~nu_eL -> ~chi_2+ e-)
#
#         PDG            Width
DECAY   1000014     3.14534631E+01   # snu_muL decays
#          BR         NDA      ID1       ID2
     3.33105074E-01    2     1000022        14   # BR(~nu_muL -> ~chi_10 nu_mu)
     2.78270386E-08    2     1000023        14   # BR(~nu_muL -> ~chi_20 nu_mu)
     1.03029574E-06    2     1000025        14   # BR(~nu_muL -> ~chi_30 nu_mu)
     6.66893807E-01    2     1000024        13   # BR(~nu_muL -> ~chi_1+ mu-)
     6.12830337E-08    2     1000037        13   # BR(~nu_muL -> ~chi_2+ mu-)
#
#         PDG            Width
DECAY   1000016     3.43408581E+01   # snu_tauL decays
#          BR         NDA      ID1       ID2
     1.92494157E-01    2     1000022        16   # BR(~nu_tauL -> ~chi_10 nu_tau)
     3.85769087E-01    2     1000024        15   # BR(~nu_tauL -> ~chi_1+ tau-)
     4.21736756E-01    2    -1000015       -24   # BR(~nu_tauL -> ~tau_1+ W-)
#
#         PDG            Width
DECAY   1000024     3.23989620E-15   # chargino1+ decays
#           BR         NDA      ID1       ID2       ID3
     1.98027420E-02    3     1000022       -11        12   # BR(~chi_1+ -> ~chi_10 e+   nu_e)
     2.02292640E-03    3     1000022       -13        14   # BR(~chi_1+ -> ~chi_10 mu+  nu_mu)
     9.78174330E-01    2     1000022       211             # BR(~chi_1+ -> ~chi_10 pi+)
#
#         PDG            Width
DECAY   1000037     3.50134506E+01   # chargino2+ decays
#          BR         NDA      ID1       ID2
     6.33639619E-06    2     1000002        -1   # BR(~chi_2+ -> ~u_L     db)
     5.23196653E-04    2    -1000001         2   # BR(~chi_2+ -> ~d_L*    u )
     6.33639570E-06    2     1000004        -3   # BR(~chi_2+ -> ~c_L     sb)
     5.23196010E-04    2    -1000003         4   # BR(~chi_2+ -> ~s_L*     c )
     3.66850309E-01    2    -1000005         6   # BR(~chi_2+ -> ~b_1*    t )
     4.86056771E-02    2     1000016       -15   # BR(~chi_2+ -> ~nu_tau1 tau+)
     1.47712575E-01    2    -1000015        16   # BR(~chi_2+ -> ~tau_1+  nu_tau)
     8.85491055E-04    2    -2000015        16   # BR(~chi_2+ -> ~tau_2+  nu_tau)
     1.45751479E-01    2     1000024        23   # BR(~chi_2+ -> ~chi_1+  Z )
     1.41908932E-01    2     1000022        24   # BR(~chi_2+ -> ~chi_10  W+)
     1.47226472E-01    2     1000024        25   # BR(~chi_2+ -> ~chi_1+  h )
#
#         PDG            Width
DECAY   1000022     0.00000000E+00   # neutralino1 decays
#
#         PDG            Width
DECAY   1000023     3.46142361E+01   # neutralino2 decays
#          BR         NDA      ID1       ID2
     8.94314187E-02    2     1000022        23   # BR(~chi_20 -> ~chi_10   Z )
     1.43098025E-01    2     1000024       -24   # BR(~chi_20 -> ~chi_1+   W-)
     1.43098025E-01    2    -1000024        24   # BR(~chi_20 -> ~chi_1-   W+)
     5.82631390E-02    2     1000022        25   # BR(~chi_20 -> ~chi_10   h )
     1.03886609E-04    2     1000002        -2   # BR(~chi_20 -> ~u_L      ub)
     1.03886609E-04    2    -1000002         2   # BR(~chi_20 -> ~u_L*     u )
     1.82055296E-05    2     1000001        -1   # BR(~chi_20 -> ~d_L      db)
     1.82055296E-05    2    -1000001         1   # BR(~chi_20 -> ~d_L*     d )
     1.03886481E-04    2     1000004        -4   # BR(~chi_20 -> ~c_L      cb)
     1.03886481E-04    2    -1000004         4   # BR(~chi_20 -> ~c_L*     c )
     1.82055296E-05    2     1000003        -3   # BR(~chi_20 -> ~s _L      sb)
     1.82055296E-05    2    -1000003         3   # BR(~chi_20 -> ~s _L*     s )
     1.82487719E-01    2     1000005        -5   # BR(~chi_20 -> ~b_1      bb)
     1.82487719E-01    2    -1000005         5   # BR(~chi_20 -> ~b_1*     b )
     7.60922775E-02    2     1000015       -15   # BR(~chi_20 -> ~tau_1-   tau+)
     7.60922775E-02    2    -1000015        15   # BR(~chi_20 -> ~tau_1+   tau-)
     2.42295783E-02    2     2000015       -15   # BR(~chi_20 -> ~tau_2-   tau+)
     2.42295783E-02    2    -2000015        15   # BR(~chi_20 -> ~tau_2+   tau-)
     9.36678324E-07    2     1000016       -16   # BR(~chi_20 -> ~nu_tau1  nu_taub)
     9.36678324E-07    2    -1000016        16   # BR(~chi_20 -> ~nu_tau1* nu_tau )
#
#         PDG            Width
DECAY   1000025     3.46234155E+01   # neutralino3 decays
#          BR         NDA      ID1       ID2
     5.77378449E-02    2     1000022        23   # BR(~chi_30 -> ~chi_10   Z )
     1.43550688E-01    2     1000024       -24   # BR(~chi_30 -> ~chi_1+   W-)
     1.43550688E-01    2    -1000024        24   # BR(~chi_30 -> ~chi_1-   W+)
     9.04872715E-02    2     1000022        25   # BR(~chi_30 -> ~chi_10   h )
     7.48498660E-05    2     1000002        -2   # BR(~chi_30 -> ~u_L      ub)
     7.48498660E-05    2    -1000002         2   # BR(~chi_30 -> ~u_L*     u )
     8.83878378E-05    2     1000001        -1   # BR(~chi_30 -> ~d_L      db)
     8.83878378E-05    2    -1000001         1   # BR(~chi_30 -> ~d_L*     d )
     7.48497742E-05    2     1000004        -4   # BR(~chi_30 -> ~c_L      cb)
     7.48497742E-05    2    -1000004         4   # BR(~chi_30 -> ~c_L*     c )
     8.83878378E-05    2     1000003        -3   # BR(~chi_30 -> ~s _L      sb)
     8.83878378E-05    2    -1000003         3   # BR(~chi_30 -> ~s _L*     s )
     1.82204123E-01    2     1000005        -5   # BR(~chi_30 -> ~b_1      bb)
     1.82204123E-01    2    -1000005         5   # BR(~chi_30 -> ~b_1*     b )
     7.54018611E-02    2     1000015       -15   # BR(~chi_30 -> ~tau_1-   tau+)
     7.54018611E-02    2    -1000015        15   # BR(~chi_30 -> ~tau_1+   tau-)
     2.43683421E-02    2     2000015       -15   # BR(~chi_30 -> ~tau_2-   tau+)
     2.43683421E-02    2    -2000015        15   # BR(~chi_30 -> ~tau_2+   tau-)
     3.59530353E-05    2     1000016       -16   # BR(~chi_30 -> ~nu_tau1  nu_taub)
     3.59530353E-05    2    -1000016        16   # BR(~chi_30 -> ~nu_tau1* nu_tau )
#
#         PDG            Width
DECAY   1000035     3.60253559E+01   # neutralino4 decays
#          BR         NDA      ID1       ID2
     2.62448004E-04    2     1000022        23   # BR(~chi_40 -> ~chi_10   Z )
     5.19562765E-04    2     1000023        23   # BR(~chi_40 -> ~chi_20   Z )
     2.93217317E-02    2     1000025        23   # BR(~chi_40 -> ~chi_30   Z )
     4.50178351E-04    2     1000024       -24   # BR(~chi_40 -> ~chi_1+   W-)
     4.50178351E-04    2    -1000024        24   # BR(~chi_40 -> ~chi_1-   W+)
     2.90524020E-02    2     1000037       -24   # BR(~chi_40 -> ~chi_2+   W-)
     2.90524020E-02    2    -1000037        24   # BR(~chi_40 -> ~chi_2-   W+)
     2.01711061E-04    2     1000022        25   # BR(~chi_40 -> ~chi_10   h )
     3.35268143E-02    2     1000023        25   # BR(~chi_40 -> ~chi_20   h )
     5.05896184E-04    2     1000025        25   # BR(~chi_40 -> ~chi_30   h )
     9.91082622E-03    2     1000002        -2   # BR(~chi_40 -> ~u_L      ub)
     9.91082622E-03    2    -1000002         2   # BR(~chi_40 -> ~u_L*     u )
     1.00563715E-02    2     1000001        -1   # BR(~chi_40 -> ~d_L      db)
     1.00563715E-02    2    -1000001         1   # BR(~chi_40 -> ~d_L*     d )
     9.91082350E-03    2     1000004        -4   # BR(~chi_40 -> ~c_L      cb)
     9.91082350E-03    2    -1000004         4   # BR(~chi_40 -> ~c_L*     c )
     1.00563715E-02    2     1000003        -3   # BR(~chi_40 -> ~s _L      sb)
     1.00563715E-02    2    -1000003         3   # BR(~chi_40 -> ~s _L*     s )
     4.91856767E-03    2     1000006        -6   # BR(~chi_40 -> ~t_1      tb)
     4.91856767E-03    2    -1000006         6   # BR(~chi_40 -> ~t_1*     t )
     7.19493439E-02    2     1000005        -5   # BR(~chi_40 -> ~b_1      bb)
     7.19493439E-02    2    -1000005         5   # BR(~chi_40 -> ~b_1*     b )
     2.93795875E-03    2     2000005        -5   # BR(~chi_40 -> ~b_2      bb)
     2.93795875E-03    2    -2000005         5   # BR(~chi_40 -> ~b_2*     b )
     6.74242763E-03    2     1000011       -11   # BR(~chi_40 -> ~e_L-     e+)
     6.74242763E-03    2    -1000011        11   # BR(~chi_40 -> ~e_L+     e-)
     4.15160459E-04    2     2000011       -11   # BR(~chi_40 -> ~e_R-     e+)
     4.15160459E-04    2    -2000011        11   # BR(~chi_40 -> ~e_R+     e-)
     6.74242763E-03    2     1000013       -13   # BR(~chi_40 -> ~mu_L-    mu+)
     6.74242763E-03    2    -1000013        13   # BR(~chi_40 -> ~mu_L+    mu-)
     4.15160459E-04    2     2000013       -13   # BR(~chi_40 -> ~mu_R-    mu+)
     4.15160459E-04    2    -2000013        13   # BR(~chi_40 -> ~mu_R+    mu-)
     2.28066417E-01    2     1000015       -15   # BR(~chi_40 -> ~tau_1-   tau+)
     2.28066417E-01    2    -1000015        15   # BR(~chi_40 -> ~tau_1+   tau-)
     3.15092086E-02    2     2000015       -15   # BR(~chi_40 -> ~tau_2-   tau+)
     3.15092086E-02    2    -2000015        15   # BR(~chi_40 -> ~tau_2+   tau-)
     6.81055266E-03    2     1000012       -12   # BR(~chi_40 -> ~nu_eL    nu_eb)
     6.81055266E-03    2    -1000012        12   # BR(~chi_40 -> ~nu_eL*   nu_e )
     6.81055266E-03    2     1000014       -14   # BR(~chi_40 -> ~nu_muL   nu_mub)
     6.81055266E-03    2    -1000014        14   # BR(~chi_40 -> ~nu_muL*  nu_mu )
     3.10761677E-02    2     1000016       -16   # BR(~chi_40 -> ~nu_tau1  nu_taub)
     3.10761677E-02    2    -1000016        16   # BR(~chi_40 -> ~nu_tau1* nu_tau )
#
#         PDG            Width
DECAY        25     6.06951884E-03   # h decays
#          BR         NDA      ID1       ID2
     7.09793043E-01    2           5        -5   # BR(h -> b       bb     )
     4.30393693E-02    2         -15        15   # BR(h -> tau+    tau-   )
     1.52341446E-04    2         -13        13   # BR(h -> mu+     mu-    )
     1.65983172E-04    2           3        -3   # BR(h -> s       sb     )
     1.43919285E-02    2           4        -4   # BR(h -> c       cb     )
     5.30460816E-02    2          21        21   # BR(h -> g       g      )
     1.63138784E-03    2          22        22   # BR(h -> gam     gam    )
     1.13495706E-03    2          22        23   # BR(h -> Z       gam    )
     1.56797785E-01    2          24       -24   # BR(h -> W+      W-     )
     1.98471232E-02    2          23        23   # BR(h -> Z       Z      )
#
#         PDG            Width
DECAY        35     9.72285544E+01   # H decays
#          BR         NDA      ID1       ID2
     6.77183579E-01    2           5        -5   # BR(H -> b       bb     )
     1.46614682E-01    2         -15        15   # BR(H -> tau+    tau-   )
     5.31332619E-04    2         -13        13   # BR(H -> mu+     mu-    )
     1.75911462E-04    2           3        -3   # BR(H -> s       sb     )
     8.02533580E-09    2           4        -4   # BR(H -> c       cb     )
     7.91769027E-04    2           6        -6   # BR(H -> t       tb     )
     1.52601104E-05    2          21        21   # BR(H -> g       g      )
     7.63693718E-09    2          22        22   # BR(H -> gam     gam    )
     6.14412071E-09    2          23        22   # BR(H -> Z       gam    )
     9.24363711E-09    2          24       -24   # BR(H -> W+      W-     )
     4.61375537E-09    2          23        23   # BR(H -> Z       Z      )
     4.96156474E-07    2          25        25   # BR(H -> h       h      )
     6.31838275E-04    2     1000024  -1000024   # BR(H -> ~chi_1+ ~chi_1-)
     4.82825118E-02    2     1000024  -1000037   # BR(H -> ~chi_1+ ~chi_2-)
     4.82825118E-02    2     1000037  -1000024   # BR(H -> ~chi_2+ ~chi_1-)
     3.15918070E-04    2     1000022   1000022   # BR(H -> ~chi_10 ~chi_10)
     2.87344256E-02    2     1000022   1000023   # BR(H -> ~chi_10 ~chi_20)
     1.96074525E-02    2     1000022   1000025   # BR(H -> ~chi_10 ~chi_30)
     1.54970737E-06    2     1000022   1000035   # BR(H -> ~chi_10 ~chi_40)
     8.09894373E-08    2     1000002  -1000002   # BR(H -> ~u_L    ~u_L*  )
     8.09894373E-08    2     1000004  -1000004   # BR(H -> ~c_L    ~c_L*  )
     1.18368098E-07    2     1000001  -1000001   # BR(H -> ~d_L    ~d_L*  )
     1.18368098E-07    2     1000003  -1000003   # BR(H -> ~s_L    ~s_L*  )
     7.80277626E-05    2     1000005  -1000005   # BR(H -> ~b_1    ~b_1*  )
     9.44491340E-03    2     1000005  -2000005   # BR(H -> ~b_1    ~b_2*  )
     9.44491340E-03    2     2000005  -1000005   # BR(H -> ~b_2    ~b_1*  )
     1.39942081E-04    2     1000015  -1000015   # BR(H -> ~tau_1- ~tau_1+)
     6.12967513E-05    2     2000015  -2000015   # BR(H -> ~tau_2- ~tau_2+)
     4.83058799E-03    2     1000015  -2000015   # BR(H -> ~tau_1- ~tau_2+)
     4.83058799E-03    2     2000015  -1000015   # BR(H -> ~tau_2- ~tau_1+)
     5.83290652E-08    2     1000016  -1000016   # BR(H -> ~nu_tauL ~nu_tauL*)
#
#         PDG            Width
DECAY        36     9.72296045E+01   # A decays
#          BR         NDA      ID1       ID2
     6.77174790E-01    2           5        -5   # BR(A -> b       bb     )
     1.46614248E-01    2         -15        15   # BR(A -> tau+    tau-   )
     5.31330570E-04    2         -13        13   # BR(A -> mu+     mu-    )
     1.75917081E-04    2           3        -3   # BR(A -> s       sb     )
     8.09471695E-09    2           4        -4   # BR(A -> c       cb     )
     7.95543341E-04    2           6        -6   # BR(A -> t       tb     )
     1.85467775E-05    2          21        21   # BR(A -> g       g      )
     2.15141253E-08    2          22        22   # BR(A -> gam     gam    )
     1.42353743E-08    2          23        22   # BR(A -> Z       gam    )
     9.37670075E-09    2          23        25   # BR(A -> Z       h      )
     6.46890739E-04    2     1000024  -1000024   # BR(A -> ~chi_1+ ~chi_1-)
     4.82754046E-02    2     1000024  -1000037   # BR(A -> ~chi_1+ ~chi_2-)
     4.82754046E-02    2     1000037  -1000024   # BR(A -> ~chi_2+ ~chi_1-)
     3.23441189E-04    2     1000022   1000022   # BR(A -> ~chi_10 ~chi_10)
     1.96876832E-02    2     1000022   1000023   # BR(A -> ~chi_10 ~chi_20)
     2.86359755E-02    2     1000022   1000025   # BR(A -> ~chi_10 ~chi_30)
     5.01490530E-07    2     1000022   1000035   # BR(A -> ~chi_10 ~chi_40)
     9.48138712E-03    2     1000005  -2000005   # BR(A -> ~b_1    ~b_2*  )
     9.48138712E-03    2    -1000005   2000005   # BR(A -> ~b_1*   ~b_2   )
     4.94074775E-03    2     1000015  -2000015   # BR(A -> ~tau_1- ~tau_2+)
     4.94074775E-03    2    -1000015   2000015   # BR(A -> ~tau_1+ ~tau_2-)
#
#         PDG            Width
DECAY        37     7.70883439E+01   # H+ decays
#          BR         NDA      ID1       ID2
     6.21755150E-04    2           4        -5   # BR(H+ -> c       bb     )
     1.84963006E-01    2         -15        16   # BR(H+ -> tau+    nu_tau )
     6.70306606E-04    2         -13        14   # BR(H+ -> mu+     nu_mu  )
     6.21754660E-06    2           2        -5   # BR(H+ -> u       bb     )
     1.11050467E-05    2           2        -3   # BR(H+ -> u       sb     )
     2.18590841E-04    2           4        -3   # BR(H+ -> c       sb     )
     3.70557951E-01    2           6        -5   # BR(H+ -> t       bb     )
     1.18394083E-08    2          24        25   # BR(H+ -> W+      h      )
     7.77182679E-15    2          24        36   # BR(H+ -> W+      A      )
     7.74785770E-14    2     1000024   1000022   # BR(H+ -> ~chi_1+ ~chi_10)
     6.12923623E-02    2     1000024   1000023   # BR(H+ -> ~chi_1+ ~chi_20)
     6.11207953E-02    2     1000024   1000025   # BR(H+ -> ~chi_1+ ~chi_30)
     2.61834103E-06    2     1000024   1000035   # BR(H+ -> ~chi_1+ ~chi_40)
     6.11419611E-02    2     1000037   1000022   # BR(H+ -> ~chi_2+ ~chi_10)
     1.24149279E-02    2    -1000015   1000016   # BR(H+ -> ~tau_1+ ~nu_tauL)
     4.16457339E-05    2    -2000015   1000016   # BR(H+ -> ~tau_2+ ~nu_tauL)
     2.49405580E-07    2     1000002  -1000001   # BR(H+ -> ~u_L    ~d_L*  )
     2.49405580E-07    2     1000004  -1000003   # BR(H+ -> ~c_L    ~s_L*  )
     2.46936247E-01    2     1000006  -1000005   # BR(H+ -> ~t_1    ~b_1*  )
