#
#                              ======================
#                              | THE SUSYHIT OUTPUT |
#                              ======================
#
#
#              ------------------------------------------------------
#              |     This is the output of the SUSY-HIT package     |
#              |  created by A.Djouadi, M.Muehlleitner and M.Spira. |
#              |  In case of problems with SUSY-HIT email to        |
#              |           margarete.muehlleitner@cern.ch           |
#              |           michael.spira@psi.ch                     |
#              |           abdelhak.djouadi@cern.ch                 |
#              ------------------------------------------------------
#
#              ------------------------------------------------------
#              |  SUSY Les Houches Accord - MSSM Spectrum + Decays  |
#              |              based on the decay programs           |
#              |                                                    |
#              |                     SDECAY 1.3b                    |
#              |                                                    |
#              |  Authors: M.Muhlleitner, A.Djouadi and Y.Mambrini  |
#              |  Ref.:    Comput.Phys.Commun.168(2005)46           |
#              |           [hep-ph/0311167]                         |
#              |                                                    |
#              |                     HDECAY 3.4                     |
#              |                                                    |
#              |  By: A.Djouadi,J.Kalinowski,M.Muhlleitner,M.Spira  |
#              |  Ref.:    Comput.Phys.Commun.108(1998)56           |
#              |           [hep-ph/9704448]                         |
#              |                                                    |
#              |                                                    |
#              |  If not stated otherwise all DRbar couplings and   |
#              |  soft SUSY breaking masses are given at the scale  |
#              |  Q=  0.17291890E+04
#              |                                                    |
#              ------------------------------------------------------
#
#
BLOCK DCINFO  # Decay Program information
     1   SDECAY/HDECAY # decay calculator
     2   1.3b  /3.4    # version number
#
BLOCK SPINFO  # Spectrum calculator information
     1     SOFTSUSY    # spectrum calculator               
     2     3.4.0       # version number                    
#
BLOCK MODSEL  # Model selection
     1     0   #  nonUniversal                                     
#
BLOCK SMINPUTS  # Standard Model inputs
         1     1.27908970E+02   # alpha_em^-1(M_Z)^MSbar
         2     1.16637870E-05   # G_F [GeV^-2]
         3     1.18400000E-01   # alpha_S(M_Z)^MSbar
         4     9.11876000E+01   # M_Z pole mass
         5     4.18000000E+00   # mb(mb)^MSbar
         6     1.73200000E+02   # mt pole mass
         7     1.77700000E+00   # mtau pole mass
#
BLOCK MINPAR  # Input parameters - minimal models
         3     1.99200000E+01   # tanb                
#
BLOCK EXTPAR  # Input parameters - non-minimal models
         0    -1.00000000E+00   # Set                 
         1     1.99374000E+03   # M_1(MX)             
         2     2.00170000E+02   # M_2(MX)             
         3     3.09251000E+03   # M_3(MX)             
        11    -3.44724000E+03   # At(MX)              
        12     2.77631000E+03   # Ab(MX)              
        13    -3.58116000E+03   # Atau(MX)            
        23     3.31988000E+03   # mu(MX)              
        26     2.42587000E+03   # mA(pole)            
        31     2.45690000E+03   # meL(MX)             
        32     2.45690000E+03   # mmuL(MX)            
        33     5.11930000E+02   # mtauL(MX)           
        34     3.86980000E+03   # meR(MX)             
        35     3.86980000E+03   # mmuR(MX)            
        36     2.75596000E+03   # mtauR(MX)           
        41     3.46810000E+03   # mqL1(MX)            
        42     3.46810000E+03   # mqL2(MX)            
        43     7.94010000E+02   # mqL3(MX)            
        44     1.21973000E+03   # muR(MX)             
        45     1.21973000E+03   # mcR(MX)             
        46     3.76679000E+03   # mtR(MX)             
        47     1.55259000E+03   # mdR(MX)             
        48     1.55259000E+03   # msR(MX)             
        49     3.90475000E+03   # mbR(MX)             
#
BLOCK MASS  # Mass Spectrum
# PDG code           mass       particle
        24     8.03723197E+01   # W+
        25     1.26684417E+02   # h
        35     2.42574942E+03   # H
        36     2.42586986E+03   # A
        37     2.42715072E+03   # H+
         5     4.81876030E+00   # b-quark pole mass calculated from mb(mb)_Msbar
   1000001     3.51300026E+03   # ~d_L
   2000001     1.58986703E+03   # ~d_R
   1000002     3.51223337E+03   # ~u_L
   2000002     1.23956607E+03   # ~u_R
   1000003     3.51300026E+03   # ~s_L
   2000003     1.58986703E+03   # ~s_R
   1000004     3.51223337E+03   # ~c_L
   2000004     1.23956607E+03   # ~c_R
   1000005     8.59438090E+02   # ~b_1
   2000005     3.93437422E+03   # ~b_2
   1000006     8.56693397E+02   # ~t_1
   2000006     3.76848044E+03   # ~t_2
   1000011     2.46003804E+03   # ~e_L
   2000011     3.87579888E+03   # ~e_R
   1000012     2.45841389E+03   # ~nu_eL
   1000013     2.46003804E+03   # ~mu_L
   2000013     3.87579888E+03   # ~mu_R
   1000014     2.45841389E+03   # ~nu_muL
   1000015     5.04975835E+02   # ~tau_1
   2000015     2.76220303E+03   # ~tau_2
   1000016     5.00383893E+02   # ~nu_tauL
   1000021     3.14550582E+03   # ~g
   1000022     2.14891358E+02   # ~chi_10
   1000023     1.98650262E+03   # ~chi_20
   1000025    -3.35485827E+03   # ~chi_30
   1000035     3.35575130E+03   # ~chi_40
   1000024     2.15051739E+02   # ~chi_1+
   1000037     3.35604993E+03   # ~chi_2+
#
BLOCK NMIX  # Neutralino Mixing Matrix
  1  1    -1.34077503E-04   # N_11
  1  2     9.99708215E-01   # N_12
  1  3    -2.39784069E-02   # N_13
  1  4     2.91597581E-03   # N_14
  2  1     9.99683172E-01   # N_21
  2  2     6.81863764E-04   # N_22
  2  3     2.11882053E-02   # N_23
  2  4    -1.35701997E-02   # N_24
  3  1    -5.39333335E-03   # N_31
  3  2     1.48915845E-02   # N_32
  3  3     7.06885817E-01   # N_33
  3  4     7.07150334E-01   # N_34
  4  1    -2.45855502E-02   # N_41
  4  2     1.90068583E-02   # N_42
  4  3     7.06603522E-01   # N_43
  4  4    -7.06926978E-01   # N_44
#
BLOCK UMIX  # Chargino Mixing Matrix U
  1  1     9.99425155E-01   # U_11
  1  2    -3.39022112E-02   # U_12
  2  1     3.39022112E-02   # U_21
  2  2     9.99425155E-01   # U_22
#
BLOCK VMIX  # Chargino Mixing Matrix V
  1  1     9.99991489E-01   # V_11
  1  2    -4.12587237E-03   # V_12
  2  1     4.12587237E-03   # V_21
  2  2     9.99991489E-01   # V_22
#
BLOCK STOPMIX  # Stop Mixing Matrix
  1  1     9.99266893E-01   # cos(theta_t)
  1  2     3.82841554E-02   # sin(theta_t)
  2  1    -3.82841554E-02   # -sin(theta_t)
  2  2     9.99266893E-01   # cos(theta_t)
#
BLOCK SBOTMIX  # Sbottom Mixing Matrix
  1  1     9.99963653E-01   # cos(theta_b)
  1  2     8.52600017E-03   # sin(theta_b)
  2  1    -8.52600017E-03   # -sin(theta_b)
  2  2     9.99963653E-01   # cos(theta_b)
#
BLOCK STAUMIX  # Stau Mixing Matrix
  1  1     9.99870160E-01   # cos(theta_tau)
  1  2     1.61140666E-02   # sin(theta_tau)
  2  1    -1.61140666E-02   # -sin(theta_tau)
  2  2     9.99870160E-01   # cos(theta_tau)
#
BLOCK ALPHA  # Higgs mixing
          -5.21462768E-02   # Mixing angle in the neutral Higgs boson sector
#
BLOCK HMIX Q=  1.72918900E+03  # DRbar Higgs Parameters
         1     3.35515120E+03   # mu(Q)MSSM           
         2     1.91950750E+01   # tan                 
         3     2.44134007E+02   # higgs               
         4     7.65147170E+06   # mA^2(Q)MSSM         
#
BLOCK GAUGE Q=  1.72918900E+03  # The gauge couplings
     1     3.62828133E-01   # gprime(Q) DRbar
     2     6.39949910E-01   # g(Q) DRbar
     3     1.02260168E+00   # g3(Q) DRbar
#
BLOCK AU Q=  1.72918900E+03  # The trilinear couplings
  1  1     0.00000000E+00   # A_u(Q) DRbar
  2  2     0.00000000E+00   # A_c(Q) DRbar
  3  3    -3.44723999E+03   # A_t(Q) DRbar
#
BLOCK AD Q=  1.72918900E+03  # The trilinear couplings
  1  1     0.00000000E+00   # A_d(Q) DRbar
  2  2     0.00000000E+00   # A_s(Q) DRbar
  3  3     2.77631000E+03   # A_b(Q) DRbar
#
BLOCK AE Q=  1.72918900E+03  # The trilinear couplings
  1  1     0.00000000E+00   # A_e(Q) DRbar
  2  2     0.00000000E+00   # A_mu(Q) DRbar
  3  3    -3.58116000E+03   # A_tau(Q) DRbar
#
BLOCK Yu Q=  1.72918900E+03  # The Yukawa couplings
  1  1     0.00000000E+00   # y_u(Q) DRbar
  2  2     0.00000000E+00   # y_c(Q) DRbar
  3  3     8.23949469E-01   # y_t(Q) DRbar
#
BLOCK Yd Q=  1.72918900E+03  # The Yukawa couplings
  1  1     0.00000000E+00   # y_d(Q) DRbar
  2  2     0.00000000E+00   # y_s(Q) DRbar
  3  3     2.28432568E-01   # y_b(Q) DRbar
#
BLOCK Ye Q=  1.72918900E+03  # The Yukawa couplings
  1  1     0.00000000E+00   # y_e(Q) DRbar
  2  2     0.00000000E+00   # y_mu(Q) DRbar
  3  3     1.95749648E-01   # y_tau(Q) DRbar
#
BLOCK MSOFT Q=  1.72918900E+03  # The soft SUSY breaking masses at the scale Q
         1     1.99374000E+03   # M_1(Q)              
         2     2.00170000E+02   # M_2(Q)              
         3     3.09251000E+03   # M_3(Q)              
        21    -5.46018451E+06   # mH1^2(Q)            
        22    -1.14295518E+07   # mH2^2(Q)            
        31     2.45690000E+03   # meL(Q)              
        32     2.45690000E+03   # mmuL(Q)             
        33     5.11930000E+02   # mtauL(Q)            
        34     3.86980000E+03   # meR(Q)              
        35     3.86980000E+03   # mmuR(Q)             
        36     2.75596000E+03   # mtauR(Q)            
        41     3.46810000E+03   # mqL1(Q)             
        42     3.46810000E+03   # mqL2(Q)             
        43     7.94009973E+02   # mqL3(Q)             
        44     1.21972999E+03   # muR(Q)              
        45     1.21972999E+03   # mcR(Q)              
        46     3.76678999E+03   # mtR(Q)              
        47     1.55258999E+03   # mdR(Q)              
        48     1.55258999E+03   # msR(Q)              
        49     3.90475000E+03   # mbR(Q)              
#
Block HiggsBoundsInputHiggsCouplingsFermions
# ScalarNormEffCoupSq PseudoSNormEffCoupSq NP   IP1 IP2 IP2
    1.00371326E+00    0.00000000E+00        3  25   5   5  # h0-b-b eff. coupling^2, normalised to SM
    3.68447191E+02    0.00000000E+00        3  35   5   5  # H0-b-b eff. coupling^2, normalised to SM
    0.00000000E+00    3.68450904E+02        3  36   5   5  # A0-b-b eff. coupling^2, normalised to SM
#
    9.99989922E-01    0.00000000E+00        3  25   6   6  # h0-t-t eff. coupling^2, normalised to SM
    2.72414383E-03    0.00000000E+00        3  35   6   6  # H0-t-t eff. coupling^2, normalised to SM
    0.00000000E+00    2.71406580E-03        3  36   6   6  # A0-t-t eff. coupling^2, normalised to SM
#
    1.00371326E+00    0.00000000E+00        3  25  15  15  # h0-tau-tau eff. coupling^2, normalised to SM
    3.68447191E+02    0.00000000E+00        3  35  15  15  # H0-tau-tau eff. coupling^2, normalised to SM
    0.00000000E+00    3.68450904E+02        3  36  15  15  # A0-tau-tau eff. coupling^2, normalised to SM
#
Block HiggsBoundsInputHiggsCouplingsBosons
    9.99999991E-01        3  25  24  24  # h0-W-W eff. coupling^2, normalised to SM
    9.33828589E-09        3  35  24  24  # H0-W-W eff. coupling^2, normalised to SM
    0.00000000E+00        3  36  24  24  # A0-W-W eff. coupling^2, normalised to SM
#
    9.99999991E-01        3  25  23  23  # h0-Z-Z eff. coupling^2, normalised to SM
    9.33828589E-09        3  35  23  23  # H0-Z-Z eff. coupling^2, normalised to SM
    0.00000000E+00        3  36  23  23  # A0-Z-Z eff. coupling^2, normalised to SM
#
    8.93423643E-01        3  25  21  21  # h0-g-g eff. coupling^2, normalised to SM
    1.69824840E-12        3  35  21  21  # H0-g-g eff. coupling^2, normalised to SM
    1.09103736E-11        3  36  21  21  # A0-g-g eff. coupling^2, normalised to SM
#
    0.00000000E+00        3  25  25  23  # h0-h0-Z eff. coupling^2, normalised to SM
    0.00000000E+00        3  35  25  23  # H0-h0-Z eff. coupling^2, normalised to SM
    9.33828589E-09        3  36  25  23  # A0-h0-Z eff. coupling^2, normalised to SM
    0.00000000E+00        3  35  35  23  # H0-H0-Z eff. coupling^2, normalised to SM
    9.99999991E-01        3  36  35  23  # A0-H0-Z eff. coupling^2, normalised to SM
    0.00000000E+00        3  36  36  23  # A0-A0-Z eff. coupling^2, normalised to SM
#
    0.00000000E+00        4  25  21  21  23  # h0-g-g-Z eff. coupling^2, normalised to SM
    0.00000000E+00        4  35  21  21  23  # H0-g-g-Z eff. coupling^2, normalised to SM
    0.00000000E+00        4  36  21  21  23  # A0-g-g-Z eff. coupling^2, normalised to SM
#
#
#
#                             =================
#                             |The decay table|
#                             =================
#
# - The QCD corrections to the decays gluino -> squark  + quark
#                                     squark -> gaugino + quark_prime
#                                     squark -> squark_prime + Higgs
#                                     squark -> gluino  + quark
#   are included.
#
# - The multi-body decays for the inos, stops and sbottoms are included.
#
# - The loop induced decays for the gluino, neutralinos and stops
#   are included.
#
# - The SUSY decays of the top quark are included.
#
#
#         PDG            Width
DECAY         6     1.44311241E+00   # top decays
#          BR         NDA      ID1       ID2
     1.00000000E+00    2           5        24   # BR(t ->  b    W+)
#
#         PDG            Width
DECAY   1000021     2.51947376E+02   # gluino decays
#          BR         NDA      ID1       ID2
     6.57002969E-02    2     2000001        -1   # BR(~g -> ~d_R  db)
     6.57002969E-02    2    -2000001         1   # BR(~g -> ~d_R* d )
     8.45693934E-02    2     2000002        -2   # BR(~g -> ~u_R  ub)
     8.45693934E-02    2    -2000002         2   # BR(~g -> ~u_R* u )
     6.57002969E-02    2     2000003        -3   # BR(~g -> ~s_R  sb)
     6.57002969E-02    2    -2000003         3   # BR(~g -> ~s_R* s )
     8.45693830E-02    2     2000004        -4   # BR(~g -> ~c_R  cb)
     8.45693830E-02    2    -2000004         4   # BR(~g -> ~c_R* c )
     1.00099715E-01    2     1000005        -5   # BR(~g -> ~b_1  bb)
     1.00099715E-01    2    -1000005         5   # BR(~g -> ~b_1* b )
     9.93609147E-02    2     1000006        -6   # BR(~g -> ~t_1  tb)
     9.93609147E-02    2    -1000006         6   # BR(~g -> ~t_1* t )
#
#         PDG            Width
DECAY   1000006     8.89842613E+00   # stop1 decays
#          BR         NDA      ID1       ID2
     3.12086613E-01    2     1000022         6   # BR(~t_1 -> ~chi_10 t )
     6.87913387E-01    2     1000024         5   # BR(~t_1 -> ~chi_1+ b )
#
#         PDG            Width
DECAY   2000006     1.44466070E+02   # stop2 decays
#          BR         NDA      ID1       ID2
     1.14247868E-04    2     1000022         6   # BR(~t_2 -> ~chi_10 t )
     3.11441361E-02    2     1000023         6   # BR(~t_2 -> ~chi_20 t )
     6.61670711E-03    2     1000025         6   # BR(~t_2 -> ~chi_30 t )
     7.07922996E-03    2     1000035         6   # BR(~t_2 -> ~chi_40 t )
     2.29644757E-04    2     1000024         5   # BR(~t_2 -> ~chi_1+ b )
     1.50681575E-02    2     1000037         5   # BR(~t_2 -> ~chi_2+ b )
     1.24467571E-01    2     1000021         6   # BR(~t_2 -> ~g      t )
     1.52763160E-01    2     1000006        25   # BR(~t_2 -> ~t_1    h )
     5.53808476E-02    2     1000006        35   # BR(~t_2 -> ~t_1    H )
     5.57091273E-02    2     1000006        36   # BR(~t_2 -> ~t_1    A )
     1.10833860E-01    2     1000005        37   # BR(~t_2 -> ~b_1    H+)
     1.49364522E-01    2     1000006        23   # BR(~t_2 -> ~t_1    Z )
     2.91228788E-01    2     1000005        24   # BR(~t_2 -> ~b_1    W+)
#
#         PDG            Width
DECAY   1000005     8.65911535E+00   # sbottom1 decays
#          BR         NDA      ID1       ID2
     3.55210947E-01    2     1000022         5   # BR(~b_1 -> ~chi_10 b )
     6.44789053E-01    2    -1000024         6   # BR(~b_1 -> ~chi_1- t )
#
#         PDG            Width
DECAY   2000005     3.75238142E+01   # sbottom2 decays
#          BR         NDA      ID1       ID2
     5.44389240E-06    2     1000022         5   # BR(~b_2 -> ~chi_10 b )
     3.38513671E-02    2     1000023         5   # BR(~b_2 -> ~chi_20 b )
     4.05302779E-03    2     1000025         5   # BR(~b_2 -> ~chi_30 b )
     4.04683133E-03    2     1000035         5   # BR(~b_2 -> ~chi_40 b )
     1.08438089E-05    2    -1000024         6   # BR(~b_2 -> ~chi_1- t )
     7.78862982E-03    2    -1000037         6   # BR(~b_2 -> ~chi_2- t )
     7.57161668E-01    2     1000021         5   # BR(~b_2 -> ~g      b )
     3.43846735E-02    2     1000005        25   # BR(~b_2 -> ~b_1    h )
     1.54141655E-02    2     1000005        35   # BR(~b_2 -> ~b_1    H )
     1.54126010E-02    2     1000005        36   # BR(~b_2 -> ~b_1    A )
     3.08279652E-02    2     1000006       -37   # BR(~b_2 -> ~t_1    H-)
     3.29160745E-02    2     1000005        23   # BR(~b_2 -> ~b_1    Z )
     6.41266679E-02    2     1000006       -24   # BR(~b_2 -> ~t_1    W-)
     4.10655593E-08    2     2000006       -24   # BR(~b_2 -> ~t_2    W-)
#
#         PDG            Width
DECAY   1000002     5.10053404E+01   # sup_L decays
#          BR         NDA      ID1       ID2
     2.64467205E-01    2     1000022         2   # BR(~u_L -> ~chi_10 u)
     4.48710754E-03    2     1000023         2   # BR(~u_L -> ~chi_20 u)
     4.30940822E-07    2     1000025         2   # BR(~u_L -> ~chi_30 u)
     4.56810543E-07    2     1000035         2   # BR(~u_L -> ~chi_40 u)
     5.29255663E-01    2     1000024         1   # BR(~u_L -> ~chi_1+ d)
     7.51404601E-08    2     1000037         1   # BR(~u_L -> ~chi_2+ d)
     2.01789061E-01    2     1000021         2   # BR(~u_L -> ~g      u)
#
#         PDG            Width
DECAY   2000002     2.15781046E-04   # sup_R decays
#           BR         NDA      ID1       ID2
     2.32174019E-04    2     1000022         2   # BR(~u_R -> ~chi_10 u)
#           BR         NDA      ID1       ID2       ID3
     5.23076525E-01    3        2       -5        1000005   # BR(~u_R -> u  bb  ~b_1)
     5.83322781E-02    3        2       5        -1000005   # BR(~u_R -> u  b  ~b_1*)
     2.00318799E-01    3        2       -6        1000006   # BR(~u_R -> u  tb  ~t_1)
     2.18522436E-02    3        2       6        -1000006   # BR(~u_R -> u  t  ~t_1*)
     8.15502580E-02    3        2       -15        1000015   # BR(~u_R -> u  tau+  ~tau_1-)
     1.61413621E-02    3        2       15        -1000015   # BR(~u_R -> u  tau-  ~tau_1+)
     8.20183250E-02    3        2       -16        1000016   # BR(~u_R -> u  nu_taub  ~nu_tau1)
     1.63156128E-02    3        2       16        -1000016   # BR(~u_R -> u  nu_tau  ~nu_tau1*)
     5.46757938E-06    3        2       23        1000022   # BR(~u_R -> u  Z  ~chi_10)
     3.89000801E-05    3        2       25        1000022   # BR(~u_R -> u  h  ~chi_10)
     6.95102756E-05    3        2       -24        1000024   # BR(~u_R -> u  W-  ~chi_1+)
     4.85445787E-05    3        2       24        -1000024   # BR(~u_R -> u  W+  ~chi_1-)
#
#         PDG            Width
DECAY   1000001     5.10208586E+01   # sdown_L decays
#          BR         NDA      ID1       ID2
     2.64471413E-01    2     1000022         1   # BR(~d_L -> ~chi_10 d)
     4.42420512E-03    2     1000023         1   # BR(~d_L -> ~chi_20 d)
     5.71901377E-07    2     1000025         1   # BR(~d_L -> ~chi_30 d)
     1.25030433E-06    2     1000035         1   # BR(~d_L -> ~chi_40 d)
     5.28611175E-01    2    -1000024         2   # BR(~d_L -> ~chi_1- u)
     5.11851005E-06    2    -1000037         2   # BR(~d_L -> ~chi_2- u)
     2.02486266E-01    2     1000021         1   # BR(~d_L -> ~g      d)
#
#         PDG            Width
DECAY   2000001     3.61679125E-03   # sdown_R decays
#           BR         NDA      ID1       ID2
     4.49222628E-06    2     1000022         1   # BR(~d_R -> ~chi_10 d)
#           BR         NDA      ID1       ID2       ID3
     3.31260478E-03    3        1       -2        2000002   # BR(~d_R -> d  ub  ~u_R)
     1.60012000E-02    3        1       2        -2000002   # BR(~d_R -> d  u  ~u_R*)
     3.34191253E-03    3        1       -4        2000004   # BR(~d_R -> d  cb  ~c_R)
     1.60924411E-02    3        1       4        -2000004   # BR(~d_R -> d  c  ~c_R*)
     4.60186913E-01    3        1       -5        1000005   # BR(~d_R -> d  bb  ~b_1)
     7.06924957E-02    3        1       5        -1000005   # BR(~d_R -> d  b  ~b_1*)
     3.60651171E-01    3        1       -6        1000006   # BR(~d_R -> d  tb  ~t_1)
     5.35059910E-02    3        1       6        -1000006   # BR(~d_R -> d  t  ~t_1*)
     6.18697582E-03    3        1       -15        1000015   # BR(~d_R -> d  tau+  ~tau_1-)
     1.90378695E-03    3        1       15        -1000015   # BR(~d_R -> d  tau-  ~tau_1+)
     6.21711303E-03    3        1       -16        1000016   # BR(~d_R -> d  nu_taub  ~nu_tau1)
     1.89178737E-03    3        1       16        -1000016   # BR(~d_R -> d  nu_tau  ~nu_tau1*)
     4.96655703E-07    3        1       23        1000022   # BR(~d_R -> d  Z  ~chi_10)
     2.63758656E-06    3        1       25        1000022   # BR(~d_R -> d  h  ~chi_10)
     4.69062183E-06    3        1       -24        1000024   # BR(~d_R -> d  W-  ~chi_1+)
     3.29076222E-06    3        1       24        -1000024   # BR(~d_R -> d  W+  ~chi_1-)
#
#         PDG            Width
DECAY   1000004     5.04641009E+01   # scharm_L decays
#          BR         NDA      ID1       ID2
     2.81228706E-01    2     1000022         4   # BR(~c_L -> ~chi_10 c)
     4.71478639E-03    2     1000023         4   # BR(~c_L -> ~chi_20 c)
     4.18746619E-07    2     1000025         4   # BR(~c_L -> ~chi_30 c)
     4.43774185E-07    2     1000035         4   # BR(~c_L -> ~chi_40 c)
     5.62798644E-01    2     1000024         3   # BR(~c_L -> ~chi_1+ s)
     7.29937932E-08    2     1000037         3   # BR(~c_L -> ~chi_2+ s)
     1.51256928E-01    2     1000021         4   # BR(~c_L -> ~g      c)
#
#         PDG            Width
DECAY   2000004     2.16680660E-04   # scharm_R decays
#           BR         NDA      ID1       ID2
     2.25234772E-04    2     1000022         4   # BR(~c_R -> ~chi_10 c)
#           BR         NDA      ID1       ID2       ID3
     5.22843154E-01    3        4       -5        1000005   # BR(~c_R -> c  bb  ~b_1)
     5.84085353E-02    3        4       5        -1000005   # BR(~c_R -> c  b  ~b_1*)
     2.01079321E-01    3        4       -6        1000006   # BR(~c_R -> c  tb  ~t_1)
     2.16812151E-02    3        4       6        -1000006   # BR(~c_R -> c  t  ~t_1*)
     8.16408809E-02    3        4       -15        1000015   # BR(~c_R -> c  tau+  ~tau_1-)
     1.61920311E-02    3        4       15        -1000015   # BR(~c_R -> c  tau-  ~tau_1+)
     8.16408809E-02    3        4       -16        1000016   # BR(~c_R -> c  nu_taub  ~nu_tau1)
     1.61269584E-02    3        4       16        -1000016   # BR(~c_R -> c  nu_tau  ~nu_tau1*)
     5.45503229E-06    3        4       23        1000022   # BR(~c_R -> c  Z  ~chi_10)
     3.86208902E-05    3        4       25        1000022   # BR(~c_R -> c  h  ~chi_10)
     6.94893581E-05    3        4       -24        1000024   # BR(~c_R -> c  W-  ~chi_1+)
     4.82230393E-05    3        4       24        -1000024   # BR(~c_R -> c  W+  ~chi_1-)
#
#         PDG            Width
DECAY   1000003     5.04686290E+01   # sstrange_L decays
#          BR         NDA      ID1       ID2
     2.81294432E-01    2     1000022         3   # BR(~s_L -> ~chi_10 s)
     4.64972091E-03    2     1000023         3   # BR(~s_L -> ~chi_20 s)
     5.55981540E-07    2     1000025         3   # BR(~s_L -> ~chi_30 s)
     1.21520076E-06    2     1000035         3   # BR(~s_L -> ~chi_40 s)
     5.62235398E-01    2    -1000024         4   # BR(~s_L -> ~chi_1- c)
     4.97413276E-06    2    -1000037         4   # BR(~s_L -> ~chi_2- c)
     1.51813703E-01    2     1000021         3   # BR(~s_L -> ~g      s)
#
#         PDG            Width
DECAY   2000003     3.61570009E-03   # sstrange_R decays
#           BR         NDA      ID1       ID2
     4.43388805E-06    2     1000022         3   # BR(~s_R -> ~chi_10 s)
#           BR         NDA      ID1       ID2       ID3
     3.31360448E-03    3        3       -2        2000002   # BR(~s_R -> s  ub  ~u_R)
     1.58696791E-02    3        3       2        -2000002   # BR(~s_R -> s  u  ~u_R*)
     3.37113137E-03    3        3       -4        2000004   # BR(~s_R -> s  cb  ~c_R)
     1.57571144E-02    3        3       4        -2000004   # BR(~s_R -> s  c  ~c_R*)
     4.61515048E-01    3        3       -5        1000005   # BR(~s_R -> s  bb  ~b_1)
     7.07138296E-02    3        3       5        -1000005   # BR(~s_R -> s  b  ~b_1*)
     3.59432466E-01    3        3       -6        1000006   # BR(~s_R -> s  tb  ~t_1)
     5.38070070E-02    3        3       6        -1000006   # BR(~s_R -> s  t  ~t_1*)
     6.18884295E-03    3        3       -15        1000015   # BR(~s_R -> s  tau+  ~tau_1-)
     1.90436149E-03    3        3       15        -1000015   # BR(~s_R -> s  tau-  ~tau_1+)
     6.21898925E-03    3        3       -16        1000016   # BR(~s_R -> s  nu_taub  ~nu_tau1)
     1.89235828E-03    3        3       16        -1000016   # BR(~s_R -> s  nu_tau  ~nu_tau1*)
     4.95588670E-07    3        3       23        1000022   # BR(~s_R -> s  Z  ~chi_10)
     2.63893569E-06    3        3       25        1000022   # BR(~s_R -> s  h  ~chi_10)
     4.69148424E-06    3        3       -24        1000024   # BR(~s_R -> s  W-  ~chi_1+)
     3.30807304E-06    3        3       24        -1000024   # BR(~s_R -> s  W+  ~chi_1-)
#
#         PDG            Width
DECAY   1000011     2.99677759E+01   # selectron_L decays
#          BR         NDA      ID1       ID2
     3.29083943E-01    2     1000022        11   # BR(~e_L -> ~chi_10 e-)
     1.30358884E-02    2     1000023        11   # BR(~e_L -> ~chi_20 e-)
     6.57880169E-01    2    -1000024        12   # BR(~e_L -> ~chi_1- nu_e)
#
#         PDG            Width
DECAY   2000011     1.10298931E+01   # selectron_R decays
#          BR         NDA      ID1       ID2
     3.28843739E-08    2     1000022        11   # BR(~e_R -> ~chi_10 e-)
     9.99926871E-01    2     1000023        11   # BR(~e_R -> ~chi_20 e-)
     3.36630561E-06    2     1000025        11   # BR(~e_R -> ~chi_30 e-)
     6.97293918E-05    2     1000035        11   # BR(~e_R -> ~chi_40 e-)
#
#         PDG            Width
DECAY   1000013     2.99677759E+01   # smuon_L decays
#          BR         NDA      ID1       ID2
     3.29083942E-01    2     1000022        13   # BR(~mu_L -> ~chi_10 mu-)
     1.30358880E-02    2     1000023        13   # BR(~mu_L -> ~chi_20 mu-)
     6.57880170E-01    2    -1000024        14   # BR(~mu_L -> ~chi_1- nu_mu)
#
#         PDG            Width
DECAY   2000013     1.10298931E+01   # smuon_R decays
#          BR         NDA      ID1       ID2
     3.28843739E-08    2     1000022        13   # BR(~mu_R -> ~chi_10 mu-)
     9.99926871E-01    2     1000023        13   # BR(~mu_R -> ~chi_20 mu-)
     3.36630554E-06    2     1000025        13   # BR(~mu_R -> ~chi_30 mu-)
     6.97293903E-05    2     1000035        13   # BR(~mu_R -> ~chi_40 mu-)
#
#         PDG            Width
DECAY   1000015     4.13291400E+00   # stau_1 decays
#          BR         NDA      ID1       ID2
     3.33571079E-01    2     1000022        15   # BR(~tau_1 -> ~chi_10  tau-)
     6.66428921E-01    2    -1000024        16   # BR(~tau_1 -> ~chi_1-  nu_tau)
#
#         PDG            Width
DECAY   2000015     9.74063015E+00   # stau_2 decays
#          BR         NDA      ID1       ID2
     3.75606272E-05    2     1000022        15   # BR(~tau_2 -> ~chi_10  tau-)
     3.45883971E-01    2     1000023        15   # BR(~tau_2 -> ~chi_20  tau-)
     7.50991937E-05    2    -1000024        16   # BR(~tau_2 -> ~chi_1-  nu_tau)
     3.19651629E-01    2     1000016       -24   # BR(~tau_2 -> ~nu_tauL W-)
     1.70761652E-01    2     1000015        25   # BR(~tau_2 -> ~tau_1   h)
     1.63590088E-01    2     1000015        23   # BR(~tau_2 -> ~tau_1   Z)
#
#         PDG            Width
DECAY   1000012     2.99689255E+01   # snu_eL decays
#          BR         NDA      ID1       ID2
     3.28947414E-01    2     1000022        12   # BR(~nu_eL -> ~chi_10 nu_e)
     1.29000972E-02    2     1000023        12   # BR(~nu_eL -> ~chi_20 nu_e)
     6.58152489E-01    2     1000024        11   # BR(~nu_eL -> ~chi_1+ e-)
#
#         PDG            Width
DECAY   1000014     2.99689255E+01   # snu_muL decays
#          BR         NDA      ID1       ID2
     3.28947415E-01    2     1000022        14   # BR(~nu_muL -> ~chi_10 nu_mu)
     1.29000972E-02    2     1000023        14   # BR(~nu_muL -> ~chi_20 nu_mu)
     6.58152488E-01    2     1000024        13   # BR(~nu_muL -> ~chi_1+ mu-)
#
#         PDG            Width
DECAY   1000016     4.06512601E+00   # snu_tauL decays
#          BR         NDA      ID1       ID2
     3.33393105E-01    2     1000022        16   # BR(~nu_tauL -> ~chi_10 nu_tau)
     6.66606895E-01    2     1000024        15   # BR(~nu_tauL -> ~chi_1+ tau-)
#
#         PDG            Width
DECAY   1000024     3.10929420E-15   # chargino1+ decays
#           BR         NDA      ID1       ID2       ID3
     1.99417440E-02    3     1000022       -11        12   # BR(~chi_1+ -> ~chi_10 e+   nu_e)
     1.95869230E-03    3     1000022       -13        14   # BR(~chi_1+ -> ~chi_10 mu+  nu_mu)
     9.78099560E-01    2     1000022       211             # BR(~chi_1+ -> ~chi_10 pi+)
#
#         PDG            Width
DECAY   1000037     9.23767218E+01   # chargino2+ decays
#          BR         NDA      ID1       ID2
     5.01405246E-02    2     1000006        -5   # BR(~chi_2+ -> ~t_1     bb)
     6.39302999E-01    2    -1000005         6   # BR(~chi_2+ -> ~b_1*    t )
     5.40998191E-07    2     1000012       -11   # BR(~chi_2+ -> ~nu_eL   e+  )
     5.40998191E-07    2     1000014       -13   # BR(~chi_2+ -> ~nu_muL mu+ )
     1.32253719E-02    2     1000016       -15   # BR(~chi_2+ -> ~nu_tau1 tau+)
     3.64158001E-05    2    -1000011        12   # BR(~chi_2+ -> ~e_L+    nu_e)
     3.64158001E-05    2    -1000013        14   # BR(~chi_2+ -> ~mu_L+   nu_mu)
     1.18662234E-04    2    -1000015        16   # BR(~chi_2+ -> ~tau_1+  nu_tau)
     1.44409895E-03    2    -2000015        16   # BR(~chi_2+ -> ~tau_2+  nu_tau)
     7.62062607E-02    2     1000024        23   # BR(~chi_2+ -> ~chi_1+  Z )
     7.42825382E-02    2     1000022        24   # BR(~chi_2+ -> ~chi_10  W+)
     2.23308747E-02    2     1000023        24   # BR(~chi_2+ -> ~chi_20  W+)
     7.46763204E-02    2     1000024        25   # BR(~chi_2+ -> ~chi_1+  h )
     1.60713705E-02    2     1000024        35   # BR(~chi_2+ -> ~chi_1+  H )
     1.60700722E-02    2     1000024        36   # BR(~chi_2+ -> ~chi_1+  A )
     1.60569932E-02    2     1000022        37   # BR(~chi_2+ -> ~chi_10  H+)
#
#         PDG            Width
DECAY   1000022     0.00000000E+00   # neutralino1 decays
#
#         PDG            Width
DECAY   1000023     1.70390780E+01   # neutralino2 decays
#          BR         NDA      ID1       ID2
     3.15954619E-05    2     1000022        23   # BR(~chi_20 -> ~chi_10   Z )
     1.23889379E-04    2     1000024       -24   # BR(~chi_20 -> ~chi_1+   W-)
     1.23889379E-04    2    -1000024        24   # BR(~chi_20 -> ~chi_1-   W+)
     8.27548703E-05    2     1000022        25   # BR(~chi_20 -> ~chi_10   h )
     1.53169440E-01    2     2000002        -2   # BR(~chi_20 -> ~u_R      ub)
     1.53169440E-01    2    -2000002         2   # BR(~chi_20 -> ~u_R*     u )
     1.34473635E-02    2     2000001        -1   # BR(~chi_20 -> ~d_R      db)
     1.34473635E-02    2    -2000001         1   # BR(~chi_20 -> ~d_R*     d )
     1.53169234E-01    2     2000004        -4   # BR(~chi_20 -> ~c_R      cb)
     1.53169234E-01    2    -2000004         4   # BR(~chi_20 -> ~c_R*     c )
     1.34473635E-02    2     2000003        -3   # BR(~chi_20 -> ~s _R      sb)
     1.34473635E-02    2    -2000003         3   # BR(~chi_20 -> ~s _R*     s )
     1.60377566E-02    2     1000006        -6   # BR(~chi_20 -> ~t_1      tb)
     1.60377566E-02    2    -1000006         6   # BR(~chi_20 -> ~t_1*     t )
     1.67998157E-02    2     1000005        -5   # BR(~chi_20 -> ~b_1      bb)
     1.67998157E-02    2    -1000005         5   # BR(~chi_20 -> ~b_1*     b )
     6.69971310E-02    2     1000015       -15   # BR(~chi_20 -> ~tau_1-   tau+)
     6.69971310E-02    2    -1000015        15   # BR(~chi_20 -> ~tau_1+   tau-)
     6.67508313E-02    2     1000016       -16   # BR(~chi_20 -> ~nu_tau1  nu_taub)
     6.67508313E-02    2    -1000016        16   # BR(~chi_20 -> ~nu_tau1* nu_tau )
#
#         PDG            Width
DECAY   1000025     9.20252341E+01   # neutralino3 decays
#          BR         NDA      ID1       ID2
     4.74057930E-02    2     1000022        23   # BR(~chi_30 -> ~chi_10   Z )
     2.18272559E-02    2     1000023        23   # BR(~chi_30 -> ~chi_20   Z )
     7.45519684E-02    2     1000024       -24   # BR(~chi_30 -> ~chi_1+   W-)
     7.45519684E-02    2    -1000024        24   # BR(~chi_30 -> ~chi_1-   W+)
     2.89280670E-02    2     1000022        25   # BR(~chi_30 -> ~chi_10   h )
     6.70228785E-03    2     1000022        35   # BR(~chi_30 -> ~chi_10   H )
     9.38167978E-03    2     1000022        36   # BR(~chi_30 -> ~chi_10   A )
     1.13826323E-03    2     1000023        25   # BR(~chi_30 -> ~chi_20   h )
     1.60625114E-02    2     1000024       -37   # BR(~chi_30 -> ~chi_1+   H-)
     1.60625114E-02    2    -1000024        37   # BR(~chi_30 -> ~chi_1-   H+)
     2.64323752E-06    2     2000002        -2   # BR(~chi_30 -> ~u_R      ub)
     2.64323752E-06    2    -2000002         2   # BR(~chi_30 -> ~u_R*     u )
     5.34207571E-07    2     2000001        -1   # BR(~chi_30 -> ~d_R      db)
     5.34207571E-07    2    -2000001         1   # BR(~chi_30 -> ~d_R*     d )
     2.64323729E-06    2     2000004        -4   # BR(~chi_30 -> ~c_R      cb)
     2.64323729E-06    2    -2000004         4   # BR(~chi_30 -> ~c_R*     c )
     5.34207571E-07    2     2000003        -3   # BR(~chi_30 -> ~s _R      sb)
     5.34207571E-07    2    -2000003         3   # BR(~chi_30 -> ~s _R*     s )
     3.19498938E-01    2     1000006        -6   # BR(~chi_30 -> ~t_1      tb)
     3.19498938E-01    2    -1000006         6   # BR(~chi_30 -> ~t_1*     t )
     2.47987990E-02    2     1000005        -5   # BR(~chi_30 -> ~b_1      bb)
     2.47987990E-02    2    -1000005         5   # BR(~chi_30 -> ~b_1*     b )
     2.22245958E-06    2     1000011       -11   # BR(~chi_30 -> ~e_L-     e+)
     2.22245958E-06    2    -1000011        11   # BR(~chi_30 -> ~e_L+     e-)
     2.22245958E-06    2     1000013       -13   # BR(~chi_30 -> ~mu_L-    mu+)
     2.22245958E-06    2    -1000013        13   # BR(~chi_30 -> ~mu_L+    mu-)
     6.62998284E-03    2     1000015       -15   # BR(~chi_30 -> ~tau_1-   tau+)
     6.62998284E-03    2    -1000015        15   # BR(~chi_30 -> ~tau_1+   tau-)
     7.22198634E-04    2     2000015       -15   # BR(~chi_30 -> ~tau_2-   tau+)
     7.22198634E-04    2    -2000015        15   # BR(~chi_30 -> ~tau_2+   tau-)
     5.12886020E-06    2     1000012       -12   # BR(~chi_30 -> ~nu_eL    nu_eb)
     5.12886020E-06    2    -1000012        12   # BR(~chi_30 -> ~nu_eL*   nu_e )
     5.12886020E-06    2     1000014       -14   # BR(~chi_30 -> ~nu_muL   nu_mub)
     5.12886020E-06    2    -1000014        14   # BR(~chi_30 -> ~nu_muL*  nu_mu )
     2.28711750E-05    2     1000016       -16   # BR(~chi_30 -> ~nu_tau1  nu_taub)
     2.28711750E-05    2    -1000016        16   # BR(~chi_30 -> ~nu_tau1* nu_tau )
#
#         PDG            Width
DECAY   1000035     9.27034933E+01   # neutralino4 decays
#          BR         NDA      ID1       ID2
     2.88733285E-02    2     1000022        23   # BR(~chi_40 -> ~chi_10   Z )
     1.05269242E-03    2     1000023        23   # BR(~chi_40 -> ~chi_20   Z )
     7.39718622E-02    2     1000024       -24   # BR(~chi_40 -> ~chi_1+   W-)
     7.39718622E-02    2    -1000024        24   # BR(~chi_40 -> ~chi_1-   W+)
     4.57090037E-02    2     1000022        25   # BR(~chi_40 -> ~chi_10   h )
     9.30769930E-03    2     1000022        35   # BR(~chi_40 -> ~chi_10   H )
     6.65035002E-03    2     1000022        36   # BR(~chi_40 -> ~chi_10   A )
     2.13034405E-02    2     1000023        25   # BR(~chi_40 -> ~chi_20   h )
     1.59487772E-02    2     1000024       -37   # BR(~chi_40 -> ~chi_1+   H-)
     1.59487772E-02    2    -1000024        37   # BR(~chi_40 -> ~chi_1-   H+)
     5.45475233E-05    2     2000002        -2   # BR(~chi_40 -> ~u_R      ub)
     5.45475233E-05    2    -2000002         2   # BR(~chi_40 -> ~u_R*     u )
     1.10257820E-05    2     2000001        -1   # BR(~chi_40 -> ~d_R      db)
     1.10257820E-05    2    -2000001         1   # BR(~chi_40 -> ~d_R*     d )
     5.45475185E-05    2     2000004        -4   # BR(~chi_40 -> ~c_R      cb)
     5.45475185E-05    2    -2000004         4   # BR(~chi_40 -> ~c_R*     c )
     1.10257820E-05    2     2000003        -3   # BR(~chi_40 -> ~s _R      sb)
     1.10257820E-05    2    -2000003         3   # BR(~chi_40 -> ~s _R*     s )
     3.21471159E-01    2     1000006        -6   # BR(~chi_40 -> ~t_1      tb)
     3.21471159E-01    2    -1000006         6   # BR(~chi_40 -> ~t_1*     t )
     2.46334864E-02    2     1000005        -5   # BR(~chi_40 -> ~b_1      bb)
     2.46334864E-02    2    -1000005         5   # BR(~chi_40 -> ~b_1*     b )
     4.05212572E-07    2     1000011       -11   # BR(~chi_40 -> ~e_L-     e+)
     4.05212572E-07    2    -1000011        11   # BR(~chi_40 -> ~e_L+     e-)
     4.05212572E-07    2     1000013       -13   # BR(~chi_40 -> ~mu_L-    mu+)
     4.05212572E-07    2    -1000013        13   # BR(~chi_40 -> ~mu_L+    mu-)
     6.55936462E-03    2     1000015       -15   # BR(~chi_40 -> ~tau_1-   tau+)
     6.55936462E-03    2    -1000015        15   # BR(~chi_40 -> ~tau_1+   tau-)
     7.24267112E-04    2     2000015       -15   # BR(~chi_40 -> ~tau_2-   tau+)
     7.24267112E-04    2    -2000015        15   # BR(~chi_40 -> ~tau_2+   tau-)
     1.71785867E-05    2     1000012       -12   # BR(~chi_40 -> ~nu_eL    nu_eb)
     1.71785867E-05    2    -1000012        12   # BR(~chi_40 -> ~nu_eL*   nu_e )
     1.71785867E-05    2     1000014       -14   # BR(~chi_40 -> ~nu_muL   nu_mub)
     1.71785867E-05    2    -1000014        14   # BR(~chi_40 -> ~nu_muL*  nu_mu )
     7.65120165E-05    2     1000016       -16   # BR(~chi_40 -> ~nu_tau1  nu_taub)
     7.65120165E-05    2    -1000016        16   # BR(~chi_40 -> ~nu_tau1* nu_tau )
#
#         PDG            Width
DECAY        25     4.89723746E-03   # h decays
#          BR         NDA      ID1       ID2
     6.23811791E-01    2           5        -5   # BR(h -> b       bb     )
     5.37449173E-02    2         -15        15   # BR(h -> tau+    tau-   )
     1.90237109E-04    2         -13        13   # BR(h -> mu+     mu-    )
     2.06977379E-04    2           3        -3   # BR(h -> s       sb     )
     1.79011376E-02    2           4        -4   # BR(h -> c       cb     )
     6.79702003E-02    2          21        21   # BR(h -> g       g      )
     2.03558074E-03    2          22        22   # BR(h -> gam     gam    )
     1.47757751E-03    2          22        23   # BR(h -> Z       gam    )
     2.06308889E-01    2          24       -24   # BR(h -> W+      W-     )
     2.63526921E-02    2          23        23   # BR(h -> Z       Z      )
#
#         PDG            Width
DECAY        35     1.17544764E+01   # H decays
#          BR         NDA      ID1       ID2
     7.86407144E-01    2           5        -5   # BR(H -> b       bb     )
     1.53499696E-01    2         -15        15   # BR(H -> tau+    tau-   )
     5.52041522E-04    2         -13        13   # BR(H -> mu+     mu-    )
     2.39361889E-04    2           3        -3   # BR(H -> s       sb     )
     2.37405226E-07    2           4        -4   # BR(H -> c       cb     )
     2.31895778E-02    2           6        -6   # BR(H -> t       tb     )
     3.53681839E-05    2          21        21   # BR(H -> g       g      )
     3.90141085E-07    2          22        22   # BR(H -> gam     gam    )
     1.27985541E-08    2          23        22   # BR(H -> Z       gam    )
     3.63498876E-06    2          24       -24   # BR(H -> W+      W-     )
     1.81222383E-06    2          23        23   # BR(H -> Z       Z      )
     4.24264032E-05    2          25        25   # BR(H -> h       h      )
     1.88767430E-03    2     1000024  -1000024   # BR(H -> ~chi_1+ ~chi_1-)
     9.43975091E-04    2     1000022   1000022   # BR(H -> ~chi_10 ~chi_10)
     4.87555223E-05    2     1000022   1000023   # BR(H -> ~chi_10 ~chi_20)
     3.29247293E-02    2     1000006  -1000006   # BR(H -> ~t_1    ~t_1*  )
     3.93466087E-05    2     1000005  -1000005   # BR(H -> ~b_1    ~b_1*  )
     1.75975085E-04    2     1000015  -1000015   # BR(H -> ~tau_1- ~tau_1+)
     7.84138833E-06    2     1000016  -1000016   # BR(H -> ~nu_tauL ~nu_tauL*)
#
#         PDG            Width
DECAY        36     1.13723111E+01   # A decays
#          BR         NDA      ID1       ID2
     8.12959913E-01    2           5        -5   # BR(A -> b       bb     )
     1.58667874E-01    2         -15        15   # BR(A -> tau+    tau-   )
     5.70626928E-04    2         -13        13   # BR(A -> mu+     mu-    )
     2.47466546E-04    2           3        -3   # BR(A -> s       sb     )
     2.46742732E-07    2           4        -4   # BR(A -> c       cb     )
     2.42112285E-02    2           6        -6   # BR(A -> t       tb     )
     9.26818406E-05    2          21        21   # BR(A -> g       g      )
     1.91149064E-07    2          22        22   # BR(A -> gam     gam    )
     7.71383358E-08    2          23        22   # BR(A -> Z       gam    )
     3.79918289E-06    2          23        25   # BR(A -> Z       h      )
     2.06632649E-03    2     1000024  -1000024   # BR(A -> ~chi_1+ ~chi_1-)
     1.03325952E-03    2     1000022   1000022   # BR(A -> ~chi_10 ~chi_10)
     1.46308730E-04    2     1000022   1000023   # BR(A -> ~chi_10 ~chi_20)
#
#         PDG            Width
DECAY        37     9.38362969E+00   # H+ decays
#          BR         NDA      ID1       ID2
     1.24496296E-03    2           4        -5   # BR(H+ -> c       bb     )
     1.92396038E-01    2         -15        16   # BR(H+ -> tau+    nu_tau )
     6.91925573E-04    2         -13        14   # BR(H+ -> mu+     nu_mu  )
     1.24496029E-05    2           2        -5   # BR(H+ -> u       bb     )
     1.49942440E-05    2           2        -3   # BR(H+ -> u       sb     )
     2.95418885E-04    2           4        -3   # BR(H+ -> c       sb     )
     7.67630575E-01    2           6        -5   # BR(H+ -> t       bb     )
     4.61610640E-06    2          24        25   # BR(H+ -> W+      h      )
     4.83289700E-13    2          24        36   # BR(H+ -> W+      A      )
     1.55608672E-12    2     1000024   1000022   # BR(H+ -> ~chi_1+ ~chi_10)
     2.40066581E-04    2     1000024   1000023   # BR(H+ -> ~chi_1+ ~chi_20)
     1.61654393E-04    2    -1000015   1000016   # BR(H+ -> ~tau_1+ ~nu_tauL)
     3.73072988E-02    2     1000006  -1000005   # BR(H+ -> ~t_1    ~b_1*  )
