#
#                              ======================
#                              | THE SUSYHIT OUTPUT |
#                              ======================
#
#
#              ------------------------------------------------------
#              |     This is the output of the SUSY-HIT package     |
#              |  created by A.Djouadi, M.Muehlleitner and M.Spira. |
#              |  In case of problems with SUSY-HIT email to        |
#              |           margarete.muehlleitner@cern.ch           |
#              |           michael.spira@psi.ch                     |
#              |           abdelhak.djouadi@cern.ch                 |
#              ------------------------------------------------------
#
#              ------------------------------------------------------
#              |  SUSY Les Houches Accord - MSSM Spectrum + Decays  |
#              |              based on the decay programs           |
#              |                                                    |
#              |                     SDECAY 1.3b                    |
#              |                                                    |
#              |  Authors: M.Muhlleitner, A.Djouadi and Y.Mambrini  |
#              |  Ref.:    Comput.Phys.Commun.168(2005)46           |
#              |           [hep-ph/0311167]                         |
#              |                                                    |
#              |                     HDECAY 3.4                     |
#              |                                                    |
#              |  By: A.Djouadi,J.Kalinowski,M.Muhlleitner,M.Spira  |
#              |  Ref.:    Comput.Phys.Commun.108(1998)56           |
#              |           [hep-ph/9704448]                         |
#              |                                                    |
#              |                                                    |
#              |  If not stated otherwise all DRbar couplings and   |
#              |  soft SUSY breaking masses are given at the scale  |
#              |  Q=  0.24810360E+04
#              |                                                    |
#              ------------------------------------------------------
#
#
BLOCK DCINFO  # Decay Program information
     1   SDECAY/HDECAY # decay calculator
     2   1.3b  /3.4    # version number
#
BLOCK SPINFO  # Spectrum calculator information
     1     SOFTSUSY    # spectrum calculator               
     2     3.4.0       # version number                    
#
BLOCK MODSEL  # Model selection
     1     0   #  nonUniversal                                     
#
BLOCK SMINPUTS  # Standard Model inputs
         1     1.27908970E+02   # alpha_em^-1(M_Z)^MSbar
         2     1.16637870E-05   # G_F [GeV^-2]
         3     1.18400000E-01   # alpha_S(M_Z)^MSbar
         4     9.11876000E+01   # M_Z pole mass
         5     4.18000000E+00   # mb(mb)^MSbar
         6     1.73200000E+02   # mt pole mass
         7     1.77700000E+00   # mtau pole mass
#
BLOCK MINPAR  # Input parameters - minimal models
         3     2.89400000E+01   # tanb                
#
BLOCK EXTPAR  # Input parameters - non-minimal models
         0    -1.00000000E+00   # Set                 
         1    -6.35960000E+02   # M_1(MX)             
         2     1.61250000E+02   # M_2(MX)             
         3     3.37639000E+03   # M_3(MX)             
        11    -3.62985000E+03   # At(MX)              
        12    -1.20921000E+03   # Ab(MX)              
        13     3.26018000E+03   # Atau(MX)            
        23     2.71783000E+03   # mu(MX)              
        26     2.05936000E+03   # mA(pole)            
        31     2.15128000E+03   # meL(MX)             
        32     2.15128000E+03   # mmuL(MX)            
        33     1.11126000E+03   # mtauL(MX)           
        34     1.33534000E+03   # meR(MX)             
        35     1.33534000E+03   # mmuR(MX)            
        36     8.45190000E+02   # mtauR(MX)           
        41     9.92250000E+02   # mqL1(MX)            
        42     9.92250000E+02   # mqL2(MX)            
        43     2.28271000E+03   # mqL3(MX)            
        44     2.08452000E+03   # muR(MX)             
        45     2.08452000E+03   # mcR(MX)             
        46     2.69851000E+03   # mtR(MX)             
        47     3.42728000E+03   # mdR(MX)             
        48     3.42728000E+03   # msR(MX)             
        49     2.56962000E+03   # mbR(MX)             
#
BLOCK MASS  # Mass Spectrum
# PDG code           mass       particle
        24     8.03680504E+01   # W+
        25     1.26410695E+02   # h
        35     2.05950165E+03   # H
        36     2.05935972E+03   # A
        37     2.06112989E+03   # H+
         5     4.81876030E+00   # b-quark pole mass calculated from mb(mb)_Msbar
   1000001     1.10894235E+03   # ~d_L
   2000001     3.50744339E+03   # ~d_R
   1000002     1.10612610E+03   # ~u_L
   2000002     2.17702434E+03   # ~u_R
   1000003     1.10894235E+03   # ~s_L
   2000003     3.50744339E+03   # ~s_R
   1000004     1.10612610E+03   # ~c_L
   2000004     2.17702434E+03   # ~c_R
   1000005     2.36027661E+03   # ~b_1
   2000005     2.65906085E+03   # ~b_2
   1000006     2.33713287E+03   # ~t_1
   2000006     2.76001325E+03   # ~t_2
   1000011     2.15387316E+03   # ~e_L
   2000011     1.34469279E+03   # ~e_R
   1000012     2.15209153E+03   # ~nu_eL
   1000013     2.15387316E+03   # ~mu_L
   2000013     1.34469279E+03   # ~mu_R
   1000014     2.15209153E+03   # ~nu_muL
   1000015     8.22012572E+02   # ~tau_1
   2000015     1.11635349E+03   # ~tau_2
   1000016     1.09802775E+03   # ~nu_tauL
   1000021     3.39396639E+03   # ~g
   1000022     1.71990261E+02   # ~chi_10
   1000023    -6.29009421E+02   # ~chi_20
   1000025     2.74250663E+03   # ~chi_30
   1000035    -2.74280946E+03   # ~chi_40
   1000024     1.72149754E+02   # ~chi_1+
   1000037     2.74361004E+03   # ~chi_2+
#
BLOCK NMIX  # Neutralino Mixing Matrix
  1  1     2.47646931E-04   # N_11
  1  2     9.99592668E-01   # N_12
  1  3    -2.83940160E-02   # N_13
  1  4     2.86639163E-03   # N_14
  2  1     9.99853077E-01   # N_21
  2  2     2.21244247E-04   # N_22
  2  3     1.68344522E-02   # N_23
  2  4     3.22113380E-03   # N_24
  3  1    -9.62616433E-03   # N_31
  3  2     2.21050652E-02   # N_32
  3  3     7.06731092E-01   # N_33
  3  4    -7.07071331E-01   # N_34
  4  1    -1.41809402E-02   # N_41
  4  2     1.80503411E-02   # N_42
  4  3     7.06711784E-01   # N_43
  4  4     7.07129084E-01   # N_44
#
BLOCK UMIX  # Chargino Mixing Matrix U
  1  1     9.99193692E-01   # U_11
  1  2    -4.01492917E-02   # U_12
  2  1     4.01492917E-02   # U_21
  2  2     9.99193692E-01   # U_22
#
BLOCK VMIX  # Chargino Mixing Matrix V
  1  1     9.99991783E-01   # V_11
  1  2    -4.05394202E-03   # V_12
  2  1     4.05394202E-03   # V_21
  2  2     9.99991783E-01   # V_22
#
BLOCK STOPMIX  # Stop Mixing Matrix
  1  1     9.67946509E-01   # cos(theta_t)
  1  2     2.51156437E-01   # sin(theta_t)
  2  1    -2.51156437E-01   # -sin(theta_t)
  2  2     9.67946509E-01   # cos(theta_t)
#
BLOCK SBOTMIX  # Sbottom Mixing Matrix
  1  1     9.94695831E-01   # cos(theta_b)
  1  2     1.02860118E-01   # sin(theta_b)
  2  1    -1.02860118E-01   # -sin(theta_b)
  2  2     9.94695831E-01   # cos(theta_b)
#
BLOCK STAUMIX  # Stau Mixing Matrix
  1  1     2.42867491E-01   # cos(theta_tau)
  1  2     9.70059473E-01   # sin(theta_tau)
  2  1    -9.70059473E-01   # -sin(theta_tau)
  2  2     2.42867491E-01   # cos(theta_tau)
#
BLOCK ALPHA  # Higgs mixing
          -3.59084009E-02   # Mixing angle in the neutral Higgs boson sector
#
BLOCK HMIX Q=  2.48103600E+03  # DRbar Higgs Parameters
         1     2.75305272E+03   # mu(Q)MSSM           
         2     2.79056214E+01   # tan                 
         3     2.43097366E+02   # higgs               
         4     4.58123441E+06   # mA^2(Q)MSSM         
#
BLOCK GAUGE Q=  2.48103600E+03  # The gauge couplings
     1     3.64336617E-01   # gprime(Q) DRbar
     2     6.41854041E-01   # g(Q) DRbar
     3     1.01433995E+00   # g3(Q) DRbar
#
BLOCK AU Q=  2.48103600E+03  # The trilinear couplings
  1  1     0.00000000E+00   # A_u(Q) DRbar
  2  2     0.00000000E+00   # A_c(Q) DRbar
  3  3    -3.62984999E+03   # A_t(Q) DRbar
#
BLOCK AD Q=  2.48103600E+03  # The trilinear couplings
  1  1     0.00000000E+00   # A_d(Q) DRbar
  2  2     0.00000000E+00   # A_s(Q) DRbar
  3  3    -1.20921000E+03   # A_b(Q) DRbar
#
BLOCK AE Q=  2.48103600E+03  # The trilinear couplings
  1  1     0.00000000E+00   # A_e(Q) DRbar
  2  2     0.00000000E+00   # A_mu(Q) DRbar
  3  3     3.26018000E+03   # A_tau(Q) DRbar
#
BLOCK Yu Q=  2.48103600E+03  # The Yukawa couplings
  1  1     0.00000000E+00   # y_u(Q) DRbar
  2  2     0.00000000E+00   # y_c(Q) DRbar
  3  3     8.16294363E-01   # y_t(Q) DRbar
#
BLOCK Yd Q=  2.48103600E+03  # The Yukawa couplings
  1  1     0.00000000E+00   # y_d(Q) DRbar
  2  2     0.00000000E+00   # y_s(Q) DRbar
  3  3     3.17305520E-01   # y_b(Q) DRbar
#
BLOCK Ye Q=  2.48103600E+03  # The Yukawa couplings
  1  1     0.00000000E+00   # y_e(Q) DRbar
  2  2     0.00000000E+00   # y_mu(Q) DRbar
  3  3     2.94900559E-01   # y_tau(Q) DRbar
#
BLOCK MSOFT Q=  2.48103600E+03  # The soft SUSY breaking masses at the scale Q
         1    -6.35960000E+02   # M_1(Q)              
         2     1.61250000E+02   # M_2(Q)              
         3     3.37639000E+03   # M_3(Q)              
        21    -3.35013659E+06   # mH1^2(Q)            
        22    -7.48098513E+06   # mH2^2(Q)            
        31     2.15128000E+03   # meL(Q)              
        32     2.15128000E+03   # mmuL(Q)             
        33     1.11126000E+03   # mtauL(Q)            
        34     1.33534000E+03   # meR(Q)              
        35     1.33534000E+03   # mmuR(Q)             
        36     8.45190001E+02   # mtauR(Q)            
        41     9.92249975E+02   # mqL1(Q)             
        42     9.92249975E+02   # mqL2(Q)             
        43     2.28270998E+03   # mqL3(Q)             
        44     2.08451999E+03   # muR(Q)              
        45     2.08451999E+03   # mcR(Q)              
        46     2.69850997E+03   # mtR(Q)              
        47     3.42727999E+03   # mdR(Q)              
        48     3.42727999E+03   # msR(Q)              
        49     2.56961999E+03   # mbR(Q)              
#
Block HiggsBoundsInputHiggsCouplingsFermions
# ScalarNormEffCoupSq PseudoSNormEffCoupSq NP   IP1 IP2 IP2
    1.00495404E+00    0.00000000E+00        3  25   5   5  # h0-b-b eff. coupling^2, normalised to SM
    7.78718752E+02    0.00000000E+00        3  35   5   5  # H0-b-b eff. coupling^2, normalised to SM
    0.00000000E+00    7.78723706E+02        3  36   5   5  # A0-b-b eff. coupling^2, normalised to SM
#
    9.99993638E-01    0.00000000E+00        3  25   6   6  # h0-t-t eff. coupling^2, normalised to SM
    1.29051425E-03    0.00000000E+00        3  35   6   6  # H0-t-t eff. coupling^2, normalised to SM
    0.00000000E+00    1.28415251E-03        3  36   6   6  # A0-t-t eff. coupling^2, normalised to SM
#
    1.00495404E+00    0.00000000E+00        3  25  15  15  # h0-tau-tau eff. coupling^2, normalised to SM
    7.78718752E+02    0.00000000E+00        3  35  15  15  # H0-tau-tau eff. coupling^2, normalised to SM
    0.00000000E+00    7.78723706E+02        3  36  15  15  # A0-tau-tau eff. coupling^2, normalised to SM
#
Block HiggsBoundsInputHiggsCouplingsBosons
    9.99999992E-01        3  25  24  24  # h0-W-W eff. coupling^2, normalised to SM
    7.85963948E-09        3  35  24  24  # H0-W-W eff. coupling^2, normalised to SM
    0.00000000E+00        3  36  24  24  # A0-W-W eff. coupling^2, normalised to SM
#
    9.99999992E-01        3  25  23  23  # h0-Z-Z eff. coupling^2, normalised to SM
    7.85963948E-09        3  35  23  23  # H0-Z-Z eff. coupling^2, normalised to SM
    0.00000000E+00        3  36  23  23  # A0-Z-Z eff. coupling^2, normalised to SM
#
    8.86740304E-01        3  25  21  21  # h0-g-g eff. coupling^2, normalised to SM
    1.53664380E-11        3  35  21  21  # H0-g-g eff. coupling^2, normalised to SM
    1.11776297E-10        3  36  21  21  # A0-g-g eff. coupling^2, normalised to SM
#
    0.00000000E+00        3  25  25  23  # h0-h0-Z eff. coupling^2, normalised to SM
    0.00000000E+00        3  35  25  23  # H0-h0-Z eff. coupling^2, normalised to SM
    7.85963948E-09        3  36  25  23  # A0-h0-Z eff. coupling^2, normalised to SM
    0.00000000E+00        3  35  35  23  # H0-H0-Z eff. coupling^2, normalised to SM
    9.99999992E-01        3  36  35  23  # A0-H0-Z eff. coupling^2, normalised to SM
    0.00000000E+00        3  36  36  23  # A0-A0-Z eff. coupling^2, normalised to SM
#
    0.00000000E+00        4  25  21  21  23  # h0-g-g-Z eff. coupling^2, normalised to SM
    0.00000000E+00        4  35  21  21  23  # H0-g-g-Z eff. coupling^2, normalised to SM
    0.00000000E+00        4  36  21  21  23  # A0-g-g-Z eff. coupling^2, normalised to SM
#
#
#
#                             =================
#                             |The decay table|
#                             =================
#
# - The QCD corrections to the decays gluino -> squark  + quark
#                                     squark -> gaugino + quark_prime
#                                     squark -> squark_prime + Higgs
#                                     squark -> gluino  + quark
#   are included.
#
# - The multi-body decays for the inos, stops and sbottoms are included.
#
# - The loop induced decays for the gluino, neutralinos and stops
#   are included.
#
# - The SUSY decays of the top quark are included.
#
#
#         PDG            Width
DECAY         6     1.45190543E+00   # top decays
#          BR         NDA      ID1       ID2
     1.00000000E+00    2           5        24   # BR(t ->  b    W+)
#
#         PDG            Width
DECAY   1000021     3.10740425E+02   # gluino decays
#          BR         NDA      ID1       ID2
     8.51867758E-02    2     1000001        -1   # BR(~g -> ~d_L  db)
     8.51867758E-02    2    -1000001         1   # BR(~g -> ~d_L* d )
     8.52901015E-02    2     1000002        -2   # BR(~g -> ~u_L  ub)
     8.52901015E-02    2    -1000002         2   # BR(~g -> ~u_L* u )
     3.69835853E-02    2     2000002        -2   # BR(~g -> ~u_R  ub)
     3.69835853E-02    2    -2000002         2   # BR(~g -> ~u_R* u )
     8.51867758E-02    2     1000003        -3   # BR(~g -> ~s_L  sb)
     8.51867758E-02    2    -1000003         3   # BR(~g -> ~s_L* s )
     8.52900962E-02    2     1000004        -4   # BR(~g -> ~c_L  cb)
     8.52900962E-02    2    -1000004         4   # BR(~g -> ~c_L* c )
     3.69835649E-02    2     2000004        -4   # BR(~g -> ~c_R  cb)
     3.69835649E-02    2    -2000004         4   # BR(~g -> ~c_R* c )
     2.85271358E-02    2     1000005        -5   # BR(~g -> ~b_1  bb)
     2.85271358E-02    2    -1000005         5   # BR(~g -> ~b_1* b )
     1.60641488E-02    2     2000005        -5   # BR(~g -> ~b_2  bb)
     1.60641488E-02    2    -2000005         5   # BR(~g -> ~b_2* b )
     2.67859106E-02    2     1000006        -6   # BR(~g -> ~t_1  tb)
     2.67859106E-02    2    -1000006         6   # BR(~g -> ~t_1* t )
     1.37019052E-02    2     2000006        -6   # BR(~g -> ~t_2  tb)
     1.37019052E-02    2    -2000006         6   # BR(~g -> ~t_2* t )
#
#         PDG            Width
DECAY   1000006     2.71317274E+01   # stop1 decays
#          BR         NDA      ID1       ID2
     3.24145204E-01    2     1000022         6   # BR(~t_1 -> ~chi_10 t )
     1.95559645E-02    2     1000023         6   # BR(~t_1 -> ~chi_20 t )
     6.56298832E-01    2     1000024         5   # BR(~t_1 -> ~chi_1+ b )
#
#         PDG            Width
DECAY   2000006     3.80679644E+01   # stop2 decays
#          BR         NDA      ID1       ID2
     1.77093617E-02    2     1000022         6   # BR(~t_2 -> ~chi_10 t )
     1.43550919E-01    2     1000023         6   # BR(~t_2 -> ~chi_20 t )
     0.00000000E+00    2     1000025         6   # BR(~t_2 -> ~chi_30 t )
     3.57428245E-02    2     1000024         5   # BR(~t_2 -> ~chi_1+ b )
     1.29426957E-04    2     1000037         5   # BR(~t_2 -> ~chi_2+ b )
     1.80018327E-01    2     1000006        25   # BR(~t_2 -> ~t_1    h )
     2.24220802E-01    2     1000006        23   # BR(~t_2 -> ~t_1    Z )
     3.98609148E-01    2     1000005        24   # BR(~t_2 -> ~b_1    W+)
     1.91912483E-05    2     2000005        24   # BR(~t_2 -> ~b_2    W+)
#
#         PDG            Width
DECAY   1000005     2.85994851E+01   # sbottom1 decays
#          BR         NDA      ID1       ID2
     3.32263488E-01    2     1000022         5   # BR(~b_1 -> ~chi_10 b )
     1.11991088E-02    2     1000023         5   # BR(~b_1 -> ~chi_20 b )
     6.56537403E-01    2    -1000024         6   # BR(~b_1 -> ~chi_1- t )
#
#         PDG            Width
DECAY   2000005     3.92664081E+00   # sbottom2 decays
#          BR         NDA      ID1       ID2
     1.90011973E-02    2     1000022         5   # BR(~b_2 -> ~chi_10 b )
     3.48203360E-01    2     1000023         5   # BR(~b_2 -> ~chi_20 b )
     3.76203964E-02    2    -1000024         6   # BR(~b_2 -> ~chi_1- t )
     1.38930987E-01    2     1000005        25   # BR(~b_2 -> ~b_1    h )
     1.34506494E-01    2     1000005        23   # BR(~b_2 -> ~b_1    Z )
     3.21737566E-01    2     1000006       -24   # BR(~b_2 -> ~t_1    W-)
#
#         PDG            Width
DECAY   1000002     1.34791859E+01   # sup_L decays
#          BR         NDA      ID1       ID2
     3.31284035E-01    2     1000022         2   # BR(~u_L -> ~chi_10 u)
     5.74108598E-03    2     1000023         2   # BR(~u_L -> ~chi_20 u)
     6.62974879E-01    2     1000024         1   # BR(~u_L -> ~chi_1+ d)
#
#         PDG            Width
DECAY   2000002     4.30080452E+00   # sup_R decays
#          BR         NDA      ID1       ID2
     7.19480645E-08    2     1000022         2   # BR(~u_R -> ~chi_10 u)
     9.99999928E-01    2     1000023         2   # BR(~u_R -> ~chi_20 u)
#
#         PDG            Width
DECAY   1000001     1.35000935E+01   # sdown_L decays
#          BR         NDA      ID1       ID2
     3.31593387E-01    2     1000022         1   # BR(~d_L -> ~chi_10 d)
     5.74689323E-03    2     1000023         1   # BR(~d_L -> ~chi_20 d)
     6.62659719E-01    2    -1000024         2   # BR(~d_L -> ~chi_1- u)
#
#         PDG            Width
DECAY   2000001     2.91835629E+00   # sdown_R decays
#          BR         NDA      ID1       ID2
     4.10941825E-08    2     1000022         1   # BR(~d_R -> ~chi_10 d)
     6.32071680E-01    2     1000023         1   # BR(~d_R -> ~chi_20 d)
     9.67984618E-06    2     1000025         1   # BR(~d_R -> ~chi_30 d)
     2.09930313E-05    2     1000035         1   # BR(~d_R -> ~chi_40 d)
     3.67897606E-01    2     1000021         1   # BR(~d_R -> ~g      d)
#
#         PDG            Width
DECAY   1000004     1.30195183E+01   # scharm_L decays
#          BR         NDA      ID1       ID2
     3.31291017E-01    2     1000022         4   # BR(~c_L -> ~chi_10 c)
     5.71813031E-03    2     1000023         4   # BR(~c_L -> ~chi_20 c)
     6.62990853E-01    2     1000024         3   # BR(~c_L -> ~chi_1+ s)
#
#         PDG            Width
DECAY   2000004     4.29142555E+00   # scharm_R decays
#          BR         NDA      ID1       ID2
     7.21227769E-08    2     1000022         4   # BR(~c_R -> ~chi_10 c)
     9.99999928E-01    2     1000023         4   # BR(~c_R -> ~chi_20 c)
#
#         PDG            Width
DECAY   1000003     1.30413261E+01   # sstrange_L decays
#          BR         NDA      ID1       ID2
     3.31601728E-01    2     1000022         3   # BR(~s_L -> ~chi_10 s)
     5.72409913E-03    2     1000023         3   # BR(~s_L -> ~chi_20 s)
     6.62674173E-01    2    -1000024         4   # BR(~s_L -> ~chi_1- c)
#
#         PDG            Width
DECAY   2000003     2.70344564E+00   # sstrange_R decays
#          BR         NDA      ID1       ID2
     4.64698381E-08    2     1000022         3   # BR(~s_R -> ~chi_10 s)
     7.12975634E-01    2     1000023         3   # BR(~s_R -> ~chi_20 s)
     1.06547758E-05    2     1000025         3   # BR(~s_R -> ~chi_30 s)
     2.31071284E-05    2     1000035         3   # BR(~s_R -> ~chi_40 s)
     2.86990558E-01    2     1000021         3   # BR(~s_R -> ~g      s)
#
#         PDG            Width
DECAY   1000011     2.84907159E+01   # selectron_L decays
#          BR         NDA      ID1       ID2
     3.05704362E-01    2     1000022        11   # BR(~e_L -> ~chi_10 e-)
     8.35612257E-02    2     1000023        11   # BR(~e_L -> ~chi_20 e-)
     6.10734412E-01    2    -1000024        12   # BR(~e_L -> ~chi_1- nu_e)
#
#         PDG            Width
DECAY   2000011     4.33285422E+00   # selectron_R decays
#          BR         NDA      ID1       ID2
     9.72643678E-08    2     1000022        11   # BR(~e_R -> ~chi_10 e-)
     9.99999903E-01    2     1000023        11   # BR(~e_R -> ~chi_20 e-)
#
#         PDG            Width
DECAY   1000013     2.84907158E+01   # smuon_L decays
#          BR         NDA      ID1       ID2
     3.05704361E-01    2     1000022        13   # BR(~mu_L -> ~chi_10 mu-)
     8.35612254E-02    2     1000023        13   # BR(~mu_L -> ~chi_20 mu-)
     6.10734414E-01    2    -1000024        14   # BR(~mu_L -> ~chi_1- nu_mu)
#
#         PDG            Width
DECAY   2000013     4.33285413E+00   # smuon_R decays
#          BR         NDA      ID1       ID2
     9.72643685E-08    2     1000022        13   # BR(~mu_R -> ~chi_10 mu-)
     9.99999903E-01    2     1000023        13   # BR(~mu_R -> ~chi_20 mu-)
#
#         PDG            Width
DECAY   1000015     1.34056834E+00   # stau_1 decays
#          BR         NDA      ID1       ID2
     1.56191197E-01    2     1000022        15   # BR(~tau_1 -> ~chi_10  tau-)
     5.31868248E-01    2     1000023        15   # BR(~tau_1 -> ~chi_20  tau-)
     3.11940555E-01    2    -1000024        16   # BR(~tau_1 -> ~chi_1-  nu_tau)
#
#         PDG            Width
DECAY   2000015     1.67776558E+01   # stau_2 decays
#          BR         NDA      ID1       ID2
     2.42248115E-01    2     1000022        15   # BR(~tau_2 -> ~chi_10  tau-)
     4.79265133E-02    2     1000023        15   # BR(~tau_2 -> ~chi_20  tau-)
     4.83772044E-01    2    -1000024        16   # BR(~tau_2 -> ~chi_1-  nu_tau)
     1.02784326E-01    2     1000015        25   # BR(~tau_2 -> ~tau_1   h)
     1.23269002E-01    2     1000015        23   # BR(~tau_2 -> ~tau_1   Z)
#
#         PDG            Width
DECAY   1000012     2.84850440E+01   # snu_eL decays
#          BR         NDA      ID1       ID2
     3.05334013E-01    2     1000022        12   # BR(~nu_eL -> ~chi_10 nu_e)
     8.33528655E-02    2     1000023        12   # BR(~nu_eL -> ~chi_20 nu_e)
     6.11313122E-01    2     1000024        11   # BR(~nu_eL -> ~chi_1+ e-)
#
#         PDG            Width
DECAY   1000014     2.84850439E+01   # snu_muL decays
#          BR         NDA      ID1       ID2
     3.05334014E-01    2     1000022        14   # BR(~nu_muL -> ~chi_10 nu_mu)
     8.33528657E-02    2     1000023        14   # BR(~nu_muL -> ~chi_20 nu_mu)
     6.11313121E-01    2     1000024        13   # BR(~nu_muL -> ~chi_1+ mu-)
#
#         PDG            Width
DECAY   1000016     1.71700242E+01   # snu_tauL decays
#          BR         NDA      ID1       ID2
     2.49093685E-01    2     1000022        16   # BR(~nu_tauL -> ~chi_10 nu_tau)
     3.80725223E-02    2     1000023        16   # BR(~nu_tauL -> ~chi_20 nu_tau)
     4.98836366E-01    2     1000024        15   # BR(~nu_tauL -> ~chi_1+ tau-)
     2.13997426E-01    2    -1000015       -24   # BR(~nu_tauL -> ~tau_1+ W-)
#
#         PDG            Width
DECAY   1000024     3.00361440E-15   # chargino1+ decays
#           BR         NDA      ID1       ID2       ID3
     2.00727250E-02    3     1000022       -11        12   # BR(~chi_1+ -> ~chi_10 e+   nu_e)
     1.90834240E-03    3     1000022       -13        14   # BR(~chi_1+ -> ~chi_10 mu+  nu_mu)
     9.78018930E-01    2     1000022       211             # BR(~chi_1+ -> ~chi_10 pi+)
#
#         PDG            Width
DECAY   1000037     2.90411485E+01   # chargino2+ decays
#          BR         NDA      ID1       ID2
     1.32461317E-05    2     1000002        -1   # BR(~chi_2+ -> ~u_L     db)
     1.29669161E-03    2    -1000001         2   # BR(~chi_2+ -> ~d_L*    u )
     1.32461316E-05    2     1000004        -3   # BR(~chi_2+ -> ~c_L     sb)
     1.29669141E-03    2    -1000003         4   # BR(~chi_2+ -> ~s_L*     c )
     2.90236285E-02    2     1000006        -5   # BR(~chi_2+ -> ~t_1     bb)
     1.14611017E-01    2    -1000005         6   # BR(~chi_2+ -> ~b_1*    t )
     9.41701772E-07    2     1000012       -11   # BR(~chi_2+ -> ~nu_eL   e+  )
     9.41701772E-07    2     1000014       -13   # BR(~chi_2+ -> ~nu_muL mu+ )
     5.75524426E-02    2     1000016       -15   # BR(~chi_2+ -> ~nu_tau1 tau+)
     9.18776824E-05    2    -1000011        12   # BR(~chi_2+ -> ~e_L+    nu_e)
     9.18776824E-05    2    -1000013        14   # BR(~chi_2+ -> ~mu_L+   nu_mu)
     6.08600586E-02    2    -1000015        16   # BR(~chi_2+ -> ~tau_1+  nu_tau)
     6.10118260E-03    2    -2000015        16   # BR(~chi_2+ -> ~tau_2+  nu_tau)
     1.86115860E-01    2     1000024        23   # BR(~chi_2+ -> ~chi_1+  Z )
     1.81451633E-01    2     1000022        24   # BR(~chi_2+ -> ~chi_10  W+)
     5.63276458E-02    2     1000023        24   # BR(~chi_2+ -> ~chi_20  W+)
     1.94152104E-01    2     1000024        25   # BR(~chi_2+ -> ~chi_1+  h )
     3.52016391E-02    2     1000024        35   # BR(~chi_2+ -> ~chi_1+  H )
     3.52215378E-02    2     1000024        36   # BR(~chi_2+ -> ~chi_1+  A )
     3.51537440E-02    2     1000022        37   # BR(~chi_2+ -> ~chi_10  H+)
     5.42199375E-03    2     1000023        37   # BR(~chi_2+ -> ~chi_20  H+)
#
#         PDG            Width
DECAY   1000022     0.00000000E+00   # neutralino1 decays
#
#         PDG            Width
DECAY   1000023     4.35495858E-05   # neutralino2 decays
#          BR         NDA      ID1       ID2
     3.35737832E-01    2     1000022        23   # BR(~chi_20 -> ~chi_10   Z )
     3.31067350E-01    2     1000024       -24   # BR(~chi_20 -> ~chi_1+   W-)
     3.31067350E-01    2    -1000024        24   # BR(~chi_20 -> ~chi_1-   W+)
     2.12746771E-03    2     1000022        25   # BR(~chi_20 -> ~chi_10   h )
#
#         PDG            Width
DECAY   1000025     2.96871362E+01   # neutralino3 decays
#          BR         NDA      ID1       ID2
     7.28405401E-02    2     1000022        23   # BR(~chi_30 -> ~chi_10   Z )
     3.86142833E-02    2     1000023        23   # BR(~chi_30 -> ~chi_20   Z )
     1.77393213E-01    2     1000024       -24   # BR(~chi_30 -> ~chi_1+   W-)
     1.77393213E-01    2    -1000024        24   # BR(~chi_30 -> ~chi_1-   W+)
     1.13473490E-01    2     1000022        25   # BR(~chi_30 -> ~chi_10   h )
     2.08558233E-02    2     1000022        35   # BR(~chi_30 -> ~chi_10   H )
     1.34035088E-02    2     1000022        36   # BR(~chi_30 -> ~chi_10   A )
     1.82619261E-02    2     1000023        25   # BR(~chi_30 -> ~chi_20   h )
     1.42207400E-04    2     1000023        35   # BR(~chi_30 -> ~chi_20   H )
     5.20031149E-03    2     1000023        36   # BR(~chi_30 -> ~chi_20   A )
     3.42130855E-02    2     1000024       -37   # BR(~chi_30 -> ~chi_1+   H-)
     3.42130855E-02    2    -1000024        37   # BR(~chi_30 -> ~chi_1-   H+)
     1.62086400E-04    2     1000002        -2   # BR(~chi_30 -> ~u_L      ub)
     1.62086400E-04    2    -1000002         2   # BR(~chi_30 -> ~u_L*     u )
     4.15750976E-06    2     2000002        -2   # BR(~chi_30 -> ~u_R      ub)
     4.15750976E-06    2    -2000002         2   # BR(~chi_30 -> ~u_R*     u )
     2.25089195E-04    2     1000001        -1   # BR(~chi_30 -> ~d_L      db)
     2.25089195E-04    2    -1000001         1   # BR(~chi_30 -> ~d_L*     d )
     1.62086374E-04    2     1000004        -4   # BR(~chi_30 -> ~c_L      cb)
     1.62086374E-04    2    -1000004         4   # BR(~chi_30 -> ~c_L*     c )
     4.15749683E-06    2     2000004        -4   # BR(~chi_30 -> ~c_R      cb)
     4.15749683E-06    2    -2000004         4   # BR(~chi_30 -> ~c_R*     c )
     2.25089195E-04    2     1000003        -3   # BR(~chi_30 -> ~s _L      sb)
     2.25089195E-04    2    -1000003         3   # BR(~chi_30 -> ~s _L*     s )
     7.55305854E-02    2     1000006        -6   # BR(~chi_30 -> ~t_1      tb)
     7.55305854E-02    2    -1000006         6   # BR(~chi_30 -> ~t_1*     t )
     9.25090773E-03    2     1000005        -5   # BR(~chi_30 -> ~b_1      bb)
     9.25090773E-03    2    -1000005         5   # BR(~chi_30 -> ~b_1*     b )
     4.96364648E-04    2     2000005        -5   # BR(~chi_30 -> ~b_2      bb)
     4.96364648E-04    2    -2000005         5   # BR(~chi_30 -> ~b_2*     b )
     7.69711015E-06    2     1000011       -11   # BR(~chi_30 -> ~e_L-     e+)
     7.69711015E-06    2    -1000011        11   # BR(~chi_30 -> ~e_L+     e-)
     1.30431141E-05    2     2000011       -11   # BR(~chi_30 -> ~e_R-     e+)
     1.30431141E-05    2    -2000011        11   # BR(~chi_30 -> ~e_R+     e-)
     7.69711015E-06    2     1000013       -13   # BR(~chi_30 -> ~mu_L-    mu+)
     7.69711015E-06    2    -1000013        13   # BR(~chi_30 -> ~mu_L+    mu-)
     1.30431141E-05    2     2000013       -13   # BR(~chi_30 -> ~mu_R-    mu+)
     1.30431141E-05    2    -2000013        13   # BR(~chi_30 -> ~mu_R+    mu-)
     3.21702763E-02    2     1000015       -15   # BR(~chi_30 -> ~tau_1-   tau+)
     3.21702763E-02    2    -1000015        15   # BR(~chi_30 -> ~tau_1+   tau-)
     2.85814556E-02    2     2000015       -15   # BR(~chi_30 -> ~tau_2-   tau+)
     2.85814556E-02    2    -2000015        15   # BR(~chi_30 -> ~tau_2+   tau-)
     2.12387055E-05    2     1000012       -12   # BR(~chi_30 -> ~nu_eL    nu_eb)
     2.12387055E-05    2    -1000012        12   # BR(~chi_30 -> ~nu_eL*   nu_e )
     2.12387055E-05    2     1000014       -14   # BR(~chi_30 -> ~nu_muL   nu_mub)
     2.12387055E-05    2    -1000014        14   # BR(~chi_30 -> ~nu_muL*  nu_mu )
     1.01442270E-04    2     1000016       -16   # BR(~chi_30 -> ~nu_tau1  nu_taub)
     1.01442270E-04    2    -1000016        16   # BR(~chi_30 -> ~nu_tau1* nu_tau )
#
#         PDG            Width
DECAY   1000035     2.81351342E+01   # neutralino4 decays
#          BR         NDA      ID1       ID2
     1.15215915E-01    2     1000022        23   # BR(~chi_40 -> ~chi_10   Z )
     1.88339873E-02    2     1000023        23   # BR(~chi_40 -> ~chi_20   Z )
     1.87234777E-01    2     1000024       -24   # BR(~chi_40 -> ~chi_1+   W-)
     1.87234777E-01    2    -1000024        24   # BR(~chi_40 -> ~chi_1-   W+)
     8.07005865E-02    2     1000022        25   # BR(~chi_40 -> ~chi_10   h )
     1.41523736E-02    2     1000022        35   # BR(~chi_40 -> ~chi_10   H )
     2.20323549E-02    2     1000022        36   # BR(~chi_40 -> ~chi_10   A )
     4.25462882E-02    2     1000023        25   # BR(~chi_40 -> ~chi_20   h )
     5.49662003E-03    2     1000023        35   # BR(~chi_40 -> ~chi_20   H )
     1.51939929E-04    2     1000023        36   # BR(~chi_40 -> ~chi_20   A )
     3.61048529E-02    2     1000024       -37   # BR(~chi_40 -> ~chi_1+   H-)
     3.61048529E-02    2    -1000024        37   # BR(~chi_40 -> ~chi_1-   H+)
     9.81839402E-05    2     1000002        -2   # BR(~chi_40 -> ~u_L      ub)
     9.81839402E-05    2    -1000002         2   # BR(~chi_40 -> ~u_L*     u )
     9.52846134E-06    2     2000002        -2   # BR(~chi_40 -> ~u_R      ub)
     9.52846134E-06    2    -2000002         2   # BR(~chi_40 -> ~u_R*     u )
     1.78379905E-04    2     1000001        -1   # BR(~chi_40 -> ~d_L      db)
     1.78379905E-04    2    -1000001         1   # BR(~chi_40 -> ~d_L*     d )
     9.81839245E-05    2     1000004        -4   # BR(~chi_40 -> ~c_L      cb)
     9.81839245E-05    2    -1000004         4   # BR(~chi_40 -> ~c_L*     c )
     9.52843174E-06    2     2000004        -4   # BR(~chi_40 -> ~c_R      cb)
     9.52843174E-06    2    -2000004         4   # BR(~chi_40 -> ~c_R*     c )
     1.78379905E-04    2     1000003        -3   # BR(~chi_40 -> ~s _L      sb)
     1.78379905E-04    2    -1000003         3   # BR(~chi_40 -> ~s _L*     s )
     5.19124434E-02    2     1000006        -6   # BR(~chi_40 -> ~t_1      tb)
     5.19124434E-02    2    -1000006         6   # BR(~chi_40 -> ~t_1*     t )
     9.74366973E-03    2     1000005        -5   # BR(~chi_40 -> ~b_1      bb)
     9.74366973E-03    2    -1000005         5   # BR(~chi_40 -> ~b_1*     b )
     5.40955633E-04    2     2000005        -5   # BR(~chi_40 -> ~b_2      bb)
     5.40955633E-04    2    -2000005         5   # BR(~chi_40 -> ~b_2*     b )
     2.93573015E-06    2     1000011       -11   # BR(~chi_40 -> ~e_L-     e+)
     2.93573015E-06    2    -1000011        11   # BR(~chi_40 -> ~e_L+     e-)
     2.98753340E-05    2     2000011       -11   # BR(~chi_40 -> ~e_R-     e+)
     2.98753340E-05    2    -2000011        11   # BR(~chi_40 -> ~e_R+     e-)
     2.93573015E-06    2     1000013       -13   # BR(~chi_40 -> ~mu_L-    mu+)
     2.93573015E-06    2    -1000013        13   # BR(~chi_40 -> ~mu_L+    mu-)
     2.98753340E-05    2     2000013       -13   # BR(~chi_40 -> ~mu_R-    mu+)
     2.98753340E-05    2    -2000013        13   # BR(~chi_40 -> ~mu_R+    mu-)
     3.39798464E-02    2     1000015       -15   # BR(~chi_40 -> ~tau_1-   tau+)
     3.39798464E-02    2    -1000015        15   # BR(~chi_40 -> ~tau_1+   tau-)
     3.01444608E-02    2     2000015       -15   # BR(~chi_40 -> ~tau_2-   tau+)
     3.01444608E-02    2    -2000015        15   # BR(~chi_40 -> ~tau_2+   tau-)
     2.01016777E-05    2     1000012       -12   # BR(~chi_40 -> ~nu_eL    nu_eb)
     2.01016777E-05    2    -1000012        12   # BR(~chi_40 -> ~nu_eL*   nu_e )
     2.01016777E-05    2     1000014       -14   # BR(~chi_40 -> ~nu_muL   nu_mub)
     2.01016777E-05    2    -1000014        14   # BR(~chi_40 -> ~nu_muL*  nu_mu )
     9.59516642E-05    2     1000016       -16   # BR(~chi_40 -> ~nu_tau1  nu_taub)
     9.59516642E-05    2    -1000016        16   # BR(~chi_40 -> ~nu_tau1* nu_tau )
#
#         PDG            Width
DECAY        25     5.02623289E-03   # h decays
#          BR         NDA      ID1       ID2
     6.40780271E-01    2           5        -5   # BR(h -> b       bb     )
     5.23156762E-02    2         -15        15   # BR(h -> tau+    tau-   )
     1.85179666E-04    2         -13        13   # BR(h -> mu+     mu-    )
     2.01467926E-04    2           3        -3   # BR(h -> s       sb     )
     1.74114998E-02    2           4        -4   # BR(h -> c       cb     )
     6.55550816E-02    2          21        21   # BR(h -> g       g      )
     1.97143253E-03    2          22        22   # BR(h -> gam     gam    )
     1.40585591E-03    2          22        23   # BR(h -> Z       gam    )
     1.95336011E-01    2          24       -24   # BR(h -> W+      W-     )
     2.48375248E-02    2          23        23   # BR(h -> Z       Z      )
#
#         PDG            Width
DECAY        35     2.38233018E+01   # H decays
#          BR         NDA      ID1       ID2
     7.35621543E-01    2           5        -5   # BR(H -> b       bb     )
     1.35637813E-01    2         -15        15   # BR(H -> tau+    tau-   )
     4.86375737E-04    2         -13        13   # BR(H -> mu+     mu-    )
     1.92418352E-04    2           3        -3   # BR(H -> s       sb     )
     4.81880002E-08    2           4        -4   # BR(H -> c       cb     )
     4.67339750E-03    2           6        -6   # BR(H -> t       tb     )
     2.18478290E-05    2          21        21   # BR(H -> g       g      )
     5.03116175E-08    2          22        22   # BR(H -> gam     gam    )
     1.02261292E-08    2          23        22   # BR(H -> Z       gam    )
     9.21373314E-07    2          24       -24   # BR(H -> W+      W-     )
     4.58998326E-07    2          23        23   # BR(H -> Z       Z      )
     9.62216089E-06    2          25        25   # BR(H -> h       h      )
     1.12264079E-03    2     1000024  -1000024   # BR(H -> ~chi_1+ ~chi_1-)
     5.60930959E-04    2     1000022   1000022   # BR(H -> ~chi_10 ~chi_10)
     2.99637443E-05    2     1000023   1000023   # BR(H -> ~chi_20 ~chi_20)
     3.22064997E-04    2     1000022   1000023   # BR(H -> ~chi_10 ~chi_20)
     2.47604141E-02    2     1000015  -1000015   # BR(H -> ~tau_1- ~tau_1+)
     4.82797396E-02    2     1000015  -2000015   # BR(H -> ~tau_1- ~tau_2+)
     4.82797396E-02    2     2000015  -1000015   # BR(H -> ~tau_2- ~tau_1+)
#
#         PDG            Width
DECAY        36     2.38920125E+01   # A decays
#          BR         NDA      ID1       ID2
     7.33503414E-01    2           5        -5   # BR(A -> b       bb     )
     1.35239689E-01    2         -15        15   # BR(A -> tau+    tau-   )
     4.84946667E-04    2         -13        13   # BR(A -> mu+     mu-    )
     1.91872570E-04    2           3        -3   # BR(A -> s       sb     )
     4.82500519E-08    2           4        -4   # BR(A -> c       cb     )
     4.72816548E-03    2           6        -6   # BR(A -> t       tb     )
     5.87318625E-05    2          21        21   # BR(A -> g       g      )
     7.92330585E-08    2          22        22   # BR(A -> gam     gam    )
     3.87230828E-08    2          23        22   # BR(A -> Z       gam    )
     9.26673206E-07    2          23        25   # BR(A -> Z       h      )
     1.16831767E-03    2     1000024  -1000024   # BR(A -> ~chi_1+ ~chi_1-)
     5.83727454E-04    2     1000022   1000022   # BR(A -> ~chi_10 ~chi_10)
     4.63650311E-05    2     1000023   1000023   # BR(A -> ~chi_20 ~chi_20)
     2.84495081E-04    2     1000022   1000023   # BR(A -> ~chi_10 ~chi_20)
     6.18545911E-02    2     1000015  -2000015   # BR(A -> ~tau_1- ~tau_2+)
     6.18545911E-02    2    -1000015   2000015   # BR(A -> ~tau_1+ ~tau_2-)
#
#         PDG            Width
DECAY        37     1.86332906E+01   # H+ decays
#          BR         NDA      ID1       ID2
     1.10855079E-03    2           4        -5   # BR(H+ -> c       bb     )
     1.73556341E-01    2         -15        16   # BR(H+ -> tau+    nu_tau )
     6.22343705E-04    2         -13        14   # BR(H+ -> mu+     nu_mu  )
     1.10854803E-05    2           2        -5   # BR(H+ -> u       bb     )
     1.22979932E-05    2           2        -3   # BR(H+ -> u       sb     )
     2.42121081E-04    2           4        -3   # BR(H+ -> c       sb     )
     6.63068759E-01    2           6        -5   # BR(H+ -> t       bb     )
     1.19288597E-06    2          24        25   # BR(H+ -> W+      h      )
     1.22658267E-12    2          24        36   # BR(H+ -> W+      A      )
     1.08573912E-10    2     1000024   1000022   # BR(H+ -> ~chi_1+ ~chi_10)
     7.77746288E-04    2     1000024   1000023   # BR(H+ -> ~chi_1+ ~chi_20)
     1.60599561E-01    2    -1000015   1000016   # BR(H+ -> ~tau_1+ ~nu_tauL)
