#
#                              ======================
#                              | THE SUSYHIT OUTPUT |
#                              ======================
#
#
#              ------------------------------------------------------
#              |     This is the output of the SUSY-HIT package     |
#              |  created by A.Djouadi, M.Muehlleitner and M.Spira. |
#              |  In case of problems with SUSY-HIT email to        |
#              |           margarete.muehlleitner@cern.ch           |
#              |           michael.spira@psi.ch                     |
#              |           abdelhak.djouadi@cern.ch                 |
#              ------------------------------------------------------
#
#              ------------------------------------------------------
#              |  SUSY Les Houches Accord - MSSM Spectrum + Decays  |
#              |              based on the decay programs           |
#              |                                                    |
#              |                     SDECAY 1.3b                    |
#              |                                                    |
#              |  Authors: M.Muhlleitner, A.Djouadi and Y.Mambrini  |
#              |  Ref.:    Comput.Phys.Commun.168(2005)46           |
#              |           [hep-ph/0311167]                         |
#              |                                                    |
#              |                     HDECAY 3.4                     |
#              |                                                    |
#              |  By: A.Djouadi,J.Kalinowski,M.Muhlleitner,M.Spira  |
#              |  Ref.:    Comput.Phys.Commun.108(1998)56           |
#              |           [hep-ph/9704448]                         |
#              |                                                    |
#              |                                                    |
#              |  If not stated otherwise all DRbar couplings and   |
#              |  soft SUSY breaking masses are given at the scale  |
#              |  Q=  0.21342760E+04
#              |                                                    |
#              ------------------------------------------------------
#
#
BLOCK DCINFO  # Decay Program information
     1   SDECAY/HDECAY # decay calculator
     2   1.3b  /3.4    # version number
#
BLOCK SPINFO  # Spectrum calculator information
     1     SOFTSUSY    # spectrum calculator               
     2     3.4.0       # version number                    
#
BLOCK MODSEL  # Model selection
     1     0   #  nonUniversal                                     
#
BLOCK SMINPUTS  # Standard Model inputs
         1     1.27908970E+02   # alpha_em^-1(M_Z)^MSbar
         2     1.16637870E-05   # G_F [GeV^-2]
         3     1.18400000E-01   # alpha_S(M_Z)^MSbar
         4     9.11876000E+01   # M_Z pole mass
         5     4.18000000E+00   # mb(mb)^MSbar
         6     1.73200000E+02   # mt pole mass
         7     1.77700000E+00   # mtau pole mass
#
BLOCK MINPAR  # Input parameters - minimal models
         3     3.34300000E+01   # tanb                
#
BLOCK EXTPAR  # Input parameters - non-minimal models
         0    -1.00000000E+00   # Set                 
         1    -1.60367000E+03   # M_1(MX)             
         2    -2.20293000E+03   # M_2(MX)             
         3     1.84122000E+03   # M_3(MX)             
        11    -3.59096000E+03   # At(MX)              
        12    -2.67924000E+03   # Ab(MX)              
        13     1.18329000E+03   # Atau(MX)            
        23    -4.35120000E+02   # mu(MX)              
        26     3.43060000E+03   # mA(pole)            
        31     3.61374000E+03   # meL(MX)             
        32     3.61374000E+03   # mmuL(MX)            
        33     3.46262000E+03   # mtauL(MX)           
        34     1.31566000E+03   # meR(MX)             
        35     1.31566000E+03   # mmuR(MX)            
        36     1.18579000E+03   # mtauR(MX)           
        41     3.82347000E+03   # mqL1(MX)            
        42     3.82347000E+03   # mqL2(MX)            
        43     1.85906000E+03   # mqL3(MX)            
        44     9.93710000E+02   # muR(MX)             
        45     9.93710000E+02   # mcR(MX)             
        46     2.45536000E+03   # mtR(MX)             
        47     3.95521000E+03   # mdR(MX)             
        48     3.95521000E+03   # msR(MX)             
        49     1.37176000E+03   # mbR(MX)             
#
BLOCK MASS  # Mass Spectrum
# PDG code           mass       particle
        24     8.03909000E+01   # W+
        25     1.27232527E+02   # h
        35     3.43060743E+03   # H
        36     3.43060014E+03   # A
        37     3.43205132E+03   # H+
         5     4.81876030E+00   # b-quark pole mass calculated from mb(mb)_Msbar
   1000001     3.86819119E+03   # ~d_L
   2000001     3.99235818E+03   # ~d_R
   1000002     3.86750804E+03   # ~u_L
   2000002     1.09880672E+03   # ~u_R
   1000003     3.86819119E+03   # ~s_L
   2000003     3.99235818E+03   # ~s_R
   1000004     3.86750804E+03   # ~c_L
   2000004     1.09880672E+03   # ~c_R
   1000005     1.45678200E+03   # ~b_1
   2000005     1.91878881E+03   # ~b_2
   1000006     1.89442494E+03   # ~t_1
   2000006     2.45537129E+03   # ~t_2
   1000011     3.62234485E+03   # ~e_L
   2000011     1.32816614E+03   # ~e_R
   1000012     3.62114791E+03   # ~nu_eL
   1000013     3.62234485E+03   # ~mu_L
   2000013     1.32816614E+03   # ~mu_R
   1000014     3.62114791E+03   # ~nu_muL
   1000015     1.19755325E+03   # ~tau_1
   2000015     3.46987215E+03   # ~tau_2
   1000016     3.46862723E+03   # ~nu_tauL
   1000021     2.01374901E+03   # ~g
   1000022    -4.50104329E+02   # ~chi_10
   1000023     4.53945161E+02   # ~chi_20
   1000025    -1.58253318E+03   # ~chi_30
   1000035    -2.25124630E+03   # ~chi_40
   1000024     4.52215046E+02   # ~chi_1+
   1000037     2.25141174E+03   # ~chi_2+
#
BLOCK NMIX  # Neutralino Mixing Matrix
  1  1    -2.79917978E-02   # N_11
  1  2     3.16817050E-02   # N_12
  1  3     7.08291771E-01   # N_13
  1  4    -7.04652749E-01   # N_14
  2  1     1.47294875E-02   # N_21
  2  2    -2.01015324E-02   # N_22
  2  3     7.05808312E-01   # N_23
  2  4     7.07964404E-01   # N_24
  3  1     9.99495981E-01   # N_31
  3  2     3.88212388E-03   # N_32
  3  3     9.41252111E-03   # N_33
  3  4    -3.00685492E-02   # N_34
  4  1    -2.69917504E-03   # N_41
  4  2     9.99288310E-01   # N_42
  4  3    -8.29450594E-03   # N_43
  4  4     3.66986177E-02   # N_44
#
BLOCK UMIX  # Chargino Mixing Matrix U
  1  1     1.17181694E-02   # U_11
  1  2     9.99931340E-01   # U_12
  2  1    -9.99931340E-01   # U_21
  2  2     1.17181694E-02   # U_22
#
BLOCK VMIX  # Chargino Mixing Matrix V
  1  1    -5.18442843E-02   # V_11
  1  2    -9.98655181E-01   # V_12
  2  1     9.98655181E-01   # V_21
  2  2    -5.18442843E-02   # V_22
#
BLOCK STOPMIX  # Stop Mixing Matrix
  1  1     9.77827024E-01   # cos(theta_t)
  1  2     2.09414209E-01   # sin(theta_t)
  2  1    -2.09414209E-01   # -sin(theta_t)
  2  2     9.77827024E-01   # cos(theta_t)
#
BLOCK SBOTMIX  # Sbottom Mixing Matrix
  1  1    -1.80788827E-02   # cos(theta_b)
  1  2     9.99836564E-01   # sin(theta_b)
  2  1    -9.99836564E-01   # -sin(theta_b)
  2  2    -1.80788827E-02   # cos(theta_b)
#
BLOCK STAUMIX  # Stau Mixing Matrix
  1  1    -2.66326864E-03   # cos(theta_tau)
  1  2     9.99996453E-01   # sin(theta_tau)
  2  1    -9.99996453E-01   # -sin(theta_tau)
  2  2    -2.66326864E-03   # cos(theta_tau)
#
BLOCK ALPHA  # Higgs mixing
          -3.07949152E-02   # Mixing angle in the neutral Higgs boson sector
#
BLOCK HMIX Q=  2.13427600E+03  # DRbar Higgs Parameters
         1    -4.43396805E+02   # mu(Q)MSSM           
         2     3.25386668E+01   # tan                 
         3     2.42933379E+02   # higgs               
         4     1.21229758E+07   # mA^2(Q)MSSM         
#
BLOCK GAUGE Q=  2.13427600E+03  # The gauge couplings
     1     3.64332395E-01   # gprime(Q) DRbar
     2     6.36486147E-01   # g(Q) DRbar
     3     1.02574907E+00   # g3(Q) DRbar
#
BLOCK AU Q=  2.13427600E+03  # The trilinear couplings
  1  1     0.00000000E+00   # A_u(Q) DRbar
  2  2     0.00000000E+00   # A_c(Q) DRbar
  3  3    -3.59095999E+03   # A_t(Q) DRbar
#
BLOCK AD Q=  2.13427600E+03  # The trilinear couplings
  1  1     0.00000000E+00   # A_d(Q) DRbar
  2  2     0.00000000E+00   # A_s(Q) DRbar
  3  3    -2.67924000E+03   # A_b(Q) DRbar
#
BLOCK AE Q=  2.13427600E+03  # The trilinear couplings
  1  1     0.00000000E+00   # A_e(Q) DRbar
  2  2     0.00000000E+00   # A_mu(Q) DRbar
  3  3     1.18329000E+03   # A_tau(Q) DRbar
#
BLOCK Yu Q=  2.13427600E+03  # The Yukawa couplings
  1  1     0.00000000E+00   # y_u(Q) DRbar
  2  2     0.00000000E+00   # y_c(Q) DRbar
  3  3     8.26335318E-01   # y_t(Q) DRbar
#
BLOCK Yd Q=  2.13427600E+03  # The Yukawa couplings
  1  1     0.00000000E+00   # y_d(Q) DRbar
  2  2     0.00000000E+00   # y_s(Q) DRbar
  3  3     4.69131311E-01   # y_b(Q) DRbar
#
BLOCK Ye Q=  2.13427600E+03  # The Yukawa couplings
  1  1     0.00000000E+00   # y_e(Q) DRbar
  2  2     0.00000000E+00   # y_mu(Q) DRbar
  3  3     3.39249308E-01   # y_tau(Q) DRbar
#
BLOCK MSOFT Q=  2.13427600E+03  # The soft SUSY breaking masses at the scale Q
         1    -1.60367000E+03   # M_1(Q)              
         2    -2.20293000E+03   # M_2(Q)              
         3     1.84122000E+03   # M_3(Q)              
        21     1.16899412E+07   # mH1^2(Q)            
        22    -1.27495098E+05   # mH2^2(Q)            
        31     3.61374000E+03   # meL(Q)              
        32     3.61374000E+03   # mmuL(Q)             
        33     3.46262000E+03   # mtauL(Q)            
        34     1.31566000E+03   # meR(Q)              
        35     1.31566000E+03   # mmuR(Q)             
        36     1.18579000E+03   # mtauR(Q)            
        41     3.82347000E+03   # mqL1(Q)             
        42     3.82347000E+03   # mqL2(Q)             
        43     1.85905999E+03   # mqL3(Q)             
        44     9.93709993E+02   # muR(Q)              
        45     9.93709993E+02   # mcR(Q)              
        46     2.45535999E+03   # mtR(Q)              
        47     3.95521000E+03   # mdR(Q)              
        48     3.95521000E+03   # msR(Q)              
        49     1.37175999E+03   # mbR(Q)              
#
Block HiggsBoundsInputHiggsCouplingsFermions
# ScalarNormEffCoupSq PseudoSNormEffCoupSq NP   IP1 IP2 IP2
    1.00468575E+00    0.00000000E+00        3  25   5   5  # h0-b-b eff. coupling^2, normalised to SM
    1.05876015E+03    0.00000000E+00        3  35   5   5  # H0-b-b eff. coupling^2, normalised to SM
    0.00000000E+00    1.05876484E+03        3  36   5   5  # A0-b-b eff. coupling^2, normalised to SM
#
    9.99995574E-01    0.00000000E+00        3  25   6   6  # h0-t-t eff. coupling^2, normalised to SM
    9.48922474E-04    0.00000000E+00        3  35   6   6  # H0-t-t eff. coupling^2, normalised to SM
    0.00000000E+00    9.44496799E-04        3  36   6   6  # A0-t-t eff. coupling^2, normalised to SM
#
    1.00468575E+00    0.00000000E+00        3  25  15  15  # h0-tau-tau eff. coupling^2, normalised to SM
    1.05876015E+03    0.00000000E+00        3  35  15  15  # H0-tau-tau eff. coupling^2, normalised to SM
    0.00000000E+00    1.05876484E+03        3  36  15  15  # A0-tau-tau eff. coupling^2, normalised to SM
#
Block HiggsBoundsInputHiggsCouplingsBosons
    9.99999995E-01        3  25  24  24  # h0-W-W eff. coupling^2, normalised to SM
    5.17230021E-09        3  35  24  24  # H0-W-W eff. coupling^2, normalised to SM
    0.00000000E+00        3  36  24  24  # A0-W-W eff. coupling^2, normalised to SM
#
    9.99999995E-01        3  25  23  23  # h0-Z-Z eff. coupling^2, normalised to SM
    5.17230021E-09        3  35  23  23  # H0-Z-Z eff. coupling^2, normalised to SM
    0.00000000E+00        3  36  23  23  # A0-Z-Z eff. coupling^2, normalised to SM
#
    8.83492986E-01        3  25  21  21  # h0-g-g eff. coupling^2, normalised to SM
    7.12974849E-14        3  35  21  21  # H0-g-g eff. coupling^2, normalised to SM
    7.24896870E-13        3  36  21  21  # A0-g-g eff. coupling^2, normalised to SM
#
    0.00000000E+00        3  25  25  23  # h0-h0-Z eff. coupling^2, normalised to SM
    0.00000000E+00        3  35  25  23  # H0-h0-Z eff. coupling^2, normalised to SM
    5.17230021E-09        3  36  25  23  # A0-h0-Z eff. coupling^2, normalised to SM
    0.00000000E+00        3  35  35  23  # H0-H0-Z eff. coupling^2, normalised to SM
    9.99999995E-01        3  36  35  23  # A0-H0-Z eff. coupling^2, normalised to SM
    0.00000000E+00        3  36  36  23  # A0-A0-Z eff. coupling^2, normalised to SM
#
    0.00000000E+00        4  25  21  21  23  # h0-g-g-Z eff. coupling^2, normalised to SM
    0.00000000E+00        4  35  21  21  23  # H0-g-g-Z eff. coupling^2, normalised to SM
    0.00000000E+00        4  36  21  21  23  # A0-g-g-Z eff. coupling^2, normalised to SM
#
#
#
#                             =================
#                             |The decay table|
#                             =================
#
# - The QCD corrections to the decays gluino -> squark  + quark
#                                     squark -> gaugino + quark_prime
#                                     squark -> squark_prime + Higgs
#                                     squark -> gluino  + quark
#   are included.
#
# - The multi-body decays for the inos, stops and sbottoms are included.
#
# - The loop induced decays for the gluino, neutralinos and stops
#   are included.
#
# - The SUSY decays of the top quark are included.
#
#
#         PDG            Width
DECAY         6     1.42670950E+00   # top decays
#          BR         NDA      ID1       ID2
     1.00000000E+00    2           5        24   # BR(t ->  b    W+)
#
#         PDG            Width
DECAY   1000021     4.33841527E+01   # gluino decays
#          BR         NDA      ID1       ID2
     1.92588177E-01    2     2000002        -2   # BR(~g -> ~u_R  ub)
     1.92588177E-01    2    -2000002         2   # BR(~g -> ~u_R* u )
     1.92587994E-01    2     2000004        -4   # BR(~g -> ~c_R  cb)
     1.92587994E-01    2    -2000004         4   # BR(~g -> ~c_R* c )
     1.10506267E-01    2     1000005        -5   # BR(~g -> ~b_1  bb)
     1.10506267E-01    2    -1000005         5   # BR(~g -> ~b_1* b )
     4.31756147E-03    2     2000005        -5   # BR(~g -> ~b_2  bb)
     4.31756147E-03    2    -2000005         5   # BR(~g -> ~b_2* b )
#
#         PDG            Width
DECAY   1000006     2.99612987E+01   # stop1 decays
#          BR         NDA      ID1       ID2
     3.73515963E-01    2     1000022         6   # BR(~t_1 -> ~chi_10 t )
     3.65264804E-01    2     1000023         6   # BR(~t_1 -> ~chi_20 t )
     7.12167763E-04    2     1000025         6   # BR(~t_1 -> ~chi_30 t )
     2.57643106E-01    2     1000024         5   # BR(~t_1 -> ~chi_1+ b )
     2.86395843E-03    2     1000005        24   # BR(~t_1 -> ~b_1    W+)
#
#         PDG            Width
DECAY   2000006     1.22340008E+02   # stop2 decays
#          BR         NDA      ID1       ID2
     1.25519722E-01    2     1000022         6   # BR(~t_2 -> ~chi_10 t )
     1.28719602E-01    2     1000023         6   # BR(~t_2 -> ~chi_20 t )
     1.52981157E-02    2     1000025         6   # BR(~t_2 -> ~chi_30 t )
     2.48085784E-05    2     1000035         6   # BR(~t_2 -> ~chi_40 t )
     2.50369089E-01    2     1000024         5   # BR(~t_2 -> ~chi_1+ b )
     8.42758889E-05    2     1000037         5   # BR(~t_2 -> ~chi_2+ b )
     9.27088390E-02    2     1000021         6   # BR(~t_2 -> ~g      t )
     9.45700380E-02    2     1000006        25   # BR(~t_2 -> ~t_1    h )
     1.03876234E-01    2     1000006        23   # BR(~t_2 -> ~t_1    Z )
     2.91203889E-04    2     1000005        24   # BR(~t_2 -> ~b_1    W+)
     1.88538072E-01    2     2000005        24   # BR(~t_2 -> ~b_2    W+)
#
#         PDG            Width
DECAY   1000005     1.02197171E+01   # sbottom1 decays
#          BR         NDA      ID1       ID2
     2.56791241E-01    2     1000022         5   # BR(~b_1 -> ~chi_10 b )
     2.53135523E-01    2     1000023         5   # BR(~b_1 -> ~chi_20 b )
     4.90073236E-01    2    -1000024         6   # BR(~b_1 -> ~chi_1- t )
#
#         PDG            Width
DECAY   2000005     3.04044463E+01   # sbottom2 decays
#          BR         NDA      ID1       ID2
     1.23796718E-01    2     1000022         5   # BR(~b_2 -> ~chi_10 b )
     1.22948566E-01    2     1000023         5   # BR(~b_2 -> ~chi_20 b )
     9.18362888E-04    2     1000025         5   # BR(~b_2 -> ~chi_30 b )
     7.48618562E-01    2    -1000024         6   # BR(~b_2 -> ~chi_1- t )
     1.97088044E-03    2     1000005        25   # BR(~b_2 -> ~b_1    h )
     1.74691039E-03    2     1000005        23   # BR(~b_2 -> ~b_1    Z )
#
#         PDG            Width
DECAY   1000002     1.62747800E+02   # sup_L decays
#          BR         NDA      ID1       ID2
     6.23123564E-05    2     1000022         2   # BR(~u_L -> ~chi_10 u)
     2.68388433E-05    2     1000023         2   # BR(~u_L -> ~chi_20 u)
     2.43066656E-03    2     1000025         2   # BR(~u_L -> ~chi_30 u)
     4.05292668E-02    2     1000035         2   # BR(~u_L -> ~chi_40 u)
     4.82659217E-04    2     1000024         1   # BR(~u_L -> ~chi_1+ d)
     8.10272640E-02    2     1000037         1   # BR(~u_L -> ~chi_2+ d)
     8.75440992E-01    2     1000021         2   # BR(~u_L -> ~g      u)
#
#         PDG            Width
DECAY   2000002     1.90578801E-03   # sup_R decays
#           BR         NDA      ID1       ID2
     7.43468001E-01    2     1000022         2   # BR(~u_R -> ~chi_10 u)
     2.04450603E-01    2     1000023         2   # BR(~u_R -> ~chi_20 u)
#           BR         NDA      ID1       ID2       ID3
     3.19684035E-03    3        2       23        1000022   # BR(~u_R -> u  Z  ~chi_10)
     9.96595630E-03    3        2       25        1000022   # BR(~u_R -> u  h  ~chi_10)
     1.10788818E-02    3        2       23        1000023   # BR(~u_R -> u  Z  ~chi_20)
     1.66471821E-03    3        2       25        1000023   # BR(~u_R -> u  h  ~chi_20)
     5.37100662E-03    3        2       -24        1000024   # BR(~u_R -> u  W-  ~chi_1+)
     2.08039928E-02    3        2       24        -1000024   # BR(~u_R -> u  W+  ~chi_1-)
#
#         PDG            Width
DECAY   1000001     1.62776232E+02   # sdown_L decays
#          BR         NDA      ID1       ID2
     1.23100329E-04    2     1000022         1   # BR(~d_L -> ~chi_10 d)
     4.71249522E-05    2     1000023         1   # BR(~d_L -> ~chi_20 d)
     2.24089190E-03    2     1000025         1   # BR(~d_L -> ~chi_30 d)
     4.06276107E-02    2     1000035         1   # BR(~d_L -> ~chi_40 d)
     2.46583989E-05    2    -1000024         2   # BR(~d_L -> ~chi_1- u)
     8.12639032E-02    2    -1000037         2   # BR(~d_L -> ~chi_2- u)
     8.75672711E-01    2     1000021         1   # BR(~d_L -> ~g      d)
#
#         PDG            Width
DECAY   2000001     1.55499180E+02   # sdown_R decays
#          BR         NDA      ID1       ID2
     1.10963004E-05    2     1000022         1   # BR(~d_R -> ~chi_10 d)
     3.07118342E-06    2     1000023         1   # BR(~d_R -> ~chi_20 d)
     1.03431551E-02    2     1000025         1   # BR(~d_R -> ~chi_30 d)
     4.95415870E-08    2     1000035         1   # BR(~d_R -> ~chi_40 d)
     9.89642628E-01    2     1000021         1   # BR(~d_R -> ~g      d)
#
#         PDG            Width
DECAY   1000004     1.35581271E+02   # scharm_L decays
#          BR         NDA      ID1       ID2
     7.76105744E-05    2     1000022         4   # BR(~c_L -> ~chi_10 c)
     3.34275498E-05    2     1000023         4   # BR(~c_L -> ~chi_20 c)
     3.01708769E-03    2     1000025         4   # BR(~c_L -> ~chi_30 c)
     5.01265260E-02    2     1000035         4   # BR(~c_L -> ~chi_40 c)
     6.01151847E-04    2     1000024         3   # BR(~c_L -> ~chi_1+ s)
     1.00214316E-01    2     1000037         3   # BR(~c_L -> ~chi_2+ s)
     8.45929880E-01    2     1000021         4   # BR(~c_L -> ~g      c)
#
#         PDG            Width
DECAY   2000004     1.88389791E-03   # scharm_R decays
#           BR         NDA      ID1       ID2
     7.42943691E-01    2     1000022         4   # BR(~c_R -> ~chi_10 c)
     2.04297346E-01    2     1000023         4   # BR(~c_R -> ~chi_20 c)
#           BR         NDA      ID1       ID2       ID3
     3.26004926E-03    3        4       23        1000022   # BR(~c_R -> c  Z  ~chi_10)
     1.00690169E-02    3        4       25        1000022   # BR(~c_R -> c  h  ~chi_10)
     1.11885043E-02    3        4       23        1000023   # BR(~c_R -> c  Z  ~chi_20)
     1.69855276E-03    3        4       25        1000023   # BR(~c_R -> c  h  ~chi_20)
     5.47163406E-03    3        4       -24        1000024   # BR(~c_R -> c  W-  ~chi_1+)
     2.10712055E-02    3        4       24        -1000024   # BR(~c_R -> c  W+  ~chi_1-)
#
#         PDG            Width
DECAY   1000003     1.35596009E+02   # sstrange_L decays
#          BR         NDA      ID1       ID2
     1.53332193E-04    2     1000022         3   # BR(~s_L -> ~chi_10 s)
     5.86974301E-05    2     1000023         3   # BR(~s_L -> ~chi_20 s)
     2.78170956E-03    2     1000025         3   # BR(~s_L -> ~chi_30 s)
     5.02516069E-02    2     1000035         3   # BR(~s_L -> ~chi_40 s)
     3.07139483E-05    2    -1000024         4   # BR(~s_L -> ~chi_1- c)
     1.00513764E-01    2    -1000037         4   # BR(~s_L -> ~chi_2- c)
     8.46210176E-01    2     1000021         3   # BR(~s_L -> ~g      s)
#
#         PDG            Width
DECAY   2000003     1.25544384E+02   # sstrange_R decays
#          BR         NDA      ID1       ID2
     1.42526596E-05    2     1000022         3   # BR(~s_R -> ~chi_10 s)
     3.94473580E-06    2     1000023         3   # BR(~s_R -> ~chi_20 s)
     1.32444326E-02    2     1000025         3   # BR(~s_R -> ~chi_30 s)
     6.32431724E-08    2     1000035         3   # BR(~s_R -> ~chi_40 s)
     9.86737307E-01    2     1000021         3   # BR(~s_R -> ~g      s)
#
#         PDG            Width
DECAY   1000011     1.96475583E+01   # selectron_L decays
#          BR         NDA      ID1       ID2
     1.76589125E-04    2     1000022        11   # BR(~e_L -> ~chi_10 e-)
     9.80316686E-05    2     1000023        11   # BR(~e_L -> ~chi_20 e-)
     1.61381964E-01    2     1000025        11   # BR(~e_L -> ~chi_30 e-)
     2.78600876E-01    2     1000035        11   # BR(~e_L -> ~chi_40 e-)
     1.97726618E-04    2    -1000024        12   # BR(~e_L -> ~chi_1- nu_e)
     5.59544812E-01    2    -1000037        12   # BR(~e_L -> ~chi_2- nu_e)
#
#         PDG            Width
DECAY   2000011     6.29596226E-03   # selectron_R decays
#           BR         NDA      ID1       ID2
     6.83980601E-01    2     1000022        11   # BR(~e_R -> ~chi_10 e-)
     1.88548794E-01    2     1000023        11   # BR(~e_R -> ~chi_20 e-)
#           BR         NDA      ID1       ID2       ID3
     4.28687449E-04    3        11       -2        2000002   # BR(~e_R- -> e-  ub  ~u_R)
     7.20318803E-04    3        11       2        -2000002   # BR(~e_R- -> e-  u  ~u_R*)
     4.32531182E-04    3        11       -4        2000004   # BR(~e_R- -> e-  cb  ~c_R)
     7.20763533E-04    3        11       4        -2000004   # BR(~e_R- -> e-  c  ~c_R*)
     2.71126149E-05    3        11       -15        1000015   # BR(~e_R- -> e-  tau+  ~tau_1-)
     4.27607392E-05    3        11       15        -1000015   # BR(~e_R- -> e-  tau-  ~tau_1+)
     4.16155608E-03    3        11       23        1000022   # BR(~e_R- -> e-  Z  ~chi_10)
     2.53432269E-02    3        11       25        1000022   # BR(~e_R- -> e-  h  ~chi_10)
     2.51764533E-02    3        11       23        1000023   # BR(~e_R- -> e-  Z  ~chi_20)
     4.30180469E-03    3        11       25        1000023   # BR(~e_R- -> e-  h  ~chi_20)
     1.70887301E-02    3        11       -24        1000024   # BR(~e_R- -> e-  W-  ~chi_1+)
     4.90266598E-02    3        11       24        -1000024   # BR(~e_R- -> e-  W+  ~chi_1-)
#
#         PDG            Width
DECAY   1000013     1.96475582E+01   # smuon_L decays
#          BR         NDA      ID1       ID2
     1.76589125E-04    2     1000022        13   # BR(~mu_L -> ~chi_10 mu-)
     9.80316685E-05    2     1000023        13   # BR(~mu_L -> ~chi_20 mu-)
     1.61381964E-01    2     1000025        13   # BR(~mu_L -> ~chi_30 mu-)
     2.78600876E-01    2     1000035        13   # BR(~mu_L -> ~chi_40 mu-)
     1.97726619E-04    2    -1000024        14   # BR(~mu_L -> ~chi_1- nu_mu)
     5.59544813E-01    2    -1000037        14   # BR(~mu_L -> ~chi_2- nu_mu)
#
#         PDG            Width
DECAY   2000013     6.29433030E-03   # smuon_R decays
#           BR         NDA      ID1       ID2
     6.84157929E-01    2     1000022        13   # BR(~mu_R -> ~chi_10 mu-)
     1.88597677E-01    2     1000023        13   # BR(~mu_R -> ~chi_20 mu-)
#           BR         NDA      ID1       ID2       ID3
     4.29640624E-04    3        13       -2        2000002   # BR(~mu_R- -> mu-  ub  ~u_R)
     7.19171029E-04    3        13       2        -2000002   # BR(~mu_R- -> mu-  u  ~u_R*)
     4.32786312E-04    3        13       -4        2000004   # BR(~mu_R- -> mu-  cb  ~c_R)
     7.15103877E-04    3        13       4        -2000004   # BR(~mu_R- -> mu-  c  ~c_R*)
     2.75025287E-05    3        13       -15        1000015   # BR(~mu_R- -> mu-  tau+  ~tau_1-)
     4.28862146E-05    3        13       15        -1000015   # BR(~mu_R- -> mu-  tau-  ~tau_1+)
     4.17470942E-03    3        13       23        1000022   # BR(~mu_R- -> mu-  Z  ~chi_10)
     2.51925133E-02    3        13       25        1000022   # BR(~mu_R- -> mu-  h  ~chi_10)
     2.51067218E-02    3        13       23        1000023   # BR(~mu_R- -> mu-  Z  ~chi_20)
     4.28671498E-03    3        13       25        1000023   # BR(~mu_R- -> mu-  h  ~chi_20)
     1.73012846E-02    3        13       -24        1000024   # BR(~mu_R- -> mu-  W-  ~chi_1+)
     4.88153601E-02    3        13       24        -1000024   # BR(~mu_R- -> mu-  W+  ~chi_1-)
#
#         PDG            Width
DECAY   1000015     4.03630357E+00   # stau_1 decays
#          BR         NDA      ID1       ID2
     2.52299145E-01    2     1000022        15   # BR(~tau_1 -> ~chi_10  tau-)
     2.48310012E-01    2     1000023        15   # BR(~tau_1 -> ~chi_20  tau-)
     4.99390843E-01    2    -1000024        16   # BR(~tau_1 -> ~chi_1-  nu_tau)
#
#         PDG            Width
DECAY   2000015     2.47675926E+01   # stau_2 decays
#          BR         NDA      ID1       ID2
     1.55612971E-01    2     1000022        15   # BR(~tau_2 -> ~chi_10  tau-)
     1.54492133E-01    2     1000023        15   # BR(~tau_2 -> ~chi_20  tau-)
     1.17516096E-01    2     1000025        15   # BR(~tau_2 -> ~chi_30  tau-)
     1.88463911E-01    2     1000035        15   # BR(~tau_2 -> ~chi_40  tau-)
     1.15723727E-04    2    -1000024        16   # BR(~tau_2 -> ~chi_1-  nu_tau)
     3.78482158E-01    2    -1000037        16   # BR(~tau_2 -> ~chi_2-  nu_tau)
     2.69396125E-03    2     1000015        25   # BR(~tau_2 -> ~tau_1   h)
     2.62304639E-03    2     1000015        23   # BR(~tau_2 -> ~tau_1   Z)
#
#         PDG            Width
DECAY   1000012     1.96578741E+01   # snu_eL decays
#          BR         NDA      ID1       ID2
     1.63750548E-03    2     1000022        12   # BR(~nu_eL -> ~chi_10 nu_e)
     5.85491269E-04    2     1000023        12   # BR(~nu_eL -> ~chi_20 nu_e)
     1.56877364E-01    2     1000025        12   # BR(~nu_eL -> ~chi_30 nu_e)
     2.79856508E-01    2     1000035        12   # BR(~nu_eL -> ~chi_40 nu_e)
     3.86693415E-03    2     1000024        11   # BR(~nu_eL -> ~chi_1+ e-)
     5.57176196E-01    2     1000037        11   # BR(~nu_eL -> ~chi_2+ e-)
#
#         PDG            Width
DECAY   1000014     1.96578740E+01   # snu_muL decays
#          BR         NDA      ID1       ID2
     1.63750549E-03    2     1000022        14   # BR(~nu_muL -> ~chi_10 nu_mu)
     5.85491270E-04    2     1000023        14   # BR(~nu_muL -> ~chi_20 nu_mu)
     1.56877365E-01    2     1000025        14   # BR(~nu_muL -> ~chi_30 nu_mu)
     2.79856509E-01    2     1000035        14   # BR(~nu_muL -> ~chi_40 nu_mu)
     3.86693415E-03    2     1000024        13   # BR(~nu_muL -> ~chi_1+ mu-)
     5.57176195E-01    2     1000037        13   # BR(~nu_muL -> ~chi_2+ mu-)
#
#         PDG            Width
DECAY   1000016     2.47702272E+01   # snu_tauL decays
#          BR         NDA      ID1       ID2
     1.24129431E-03    2     1000022        16   # BR(~nu_tauL -> ~chi_10 nu_tau)
     4.43803846E-04    2     1000023        16   # BR(~nu_tauL -> ~chi_20 nu_tau)
     1.14248393E-01    2     1000025        16   # BR(~nu_tauL -> ~chi_30 nu_tau)
     1.89332235E-01    2     1000035        16   # BR(~nu_tauL -> ~chi_40 nu_tau)
     3.12697366E-01    2     1000024        15   # BR(~nu_tauL -> ~chi_1+ tau-)
     3.76956956E-01    2     1000037        15   # BR(~nu_tauL -> ~chi_2+ tau-)
     5.07995232E-03    2    -1000015       -24   # BR(~nu_tauL -> ~tau_1+ W-)
#
#         PDG            Width
DECAY   1000024     4.40350641E-11   # chargino1+ decays
#           BR         NDA      ID1       ID2       ID3
     3.74602805E-01    3     1000022         2        -1   # BR(~chi_1+ -> ~chi_10 u    db)
     3.74602805E-01    3     1000022         4        -3   # BR(~chi_1+ -> ~chi_10 c    sb)
     1.24867669E-01    3     1000022       -11        12   # BR(~chi_1+ -> ~chi_10 e+   nu_e)
     1.24867669E-01    3     1000022       -13        14   # BR(~chi_1+ -> ~chi_10 mu+  nu_mu)
     1.05905312E-03    3     1000022       -15        16   # BR(~chi_1+ -> ~chi_10 tau+ nu_tau)
#
#         PDG            Width
DECAY   1000037     2.19555689E+01   # chargino2+ decays
#          BR         NDA      ID1       ID2
     1.03683955E-01    2     1000006        -5   # BR(~chi_2+ -> ~t_1     bb)
     3.49083849E-05    2    -1000005         6   # BR(~chi_2+ -> ~b_1*    t )
     7.52619472E-02    2    -2000005         6   # BR(~chi_2+ -> ~b_2*    t )
     2.72731747E-06    2    -1000015        16   # BR(~chi_2+ -> ~tau_1+  nu_tau)
     2.08026906E-01    2     1000024        23   # BR(~chi_2+ -> ~chi_1+  Z )
     2.00572594E-01    2     1000022        24   # BR(~chi_2+ -> ~chi_10  W+)
     2.02422653E-01    2     1000023        24   # BR(~chi_2+ -> ~chi_20  W+)
     9.11815069E-04    2     1000025        24   # BR(~chi_2+ -> ~chi_30  W+)
     2.09082494E-01    2     1000024        25   # BR(~chi_2+ -> ~chi_1+  h )
#
#         PDG            Width
DECAY   1000022     0.00000000E+00   # neutralino1 decays
#
#         PDG            Width
DECAY   1000023     7.62412046E-10   # neutralino2 decays
#          BR         NDA      ID1       ID2
     8.32635640E-02    2     1000022        22   # BR(~chi_20 -> ~chi_10 gam)
#           BR         NDA      ID1       ID2       ID3
     1.27273241E-01    3     1000022        -2         2   # BR(~chi_20 -> ~chi_10 ub      u)
     1.65251024E-01    3     1000022        -1         1   # BR(~chi_20 -> ~chi_10 db      d)
     1.27273241E-01    3     1000022        -4         4   # BR(~chi_20 -> ~chi_10 cb      c)
     1.65251024E-01    3     1000022        -3         3   # BR(~chi_20 -> ~chi_10 sb      s)
     3.79905412E-02    3     1000022       -11        11   # BR(~chi_20 -> ~chi_10 e+      e-)
     3.79905412E-02    3     1000022       -13        13   # BR(~chi_20 -> ~chi_10 mu+     mu-)
     1.11615124E-03    3     1000022       -15        15   # BR(~chi_20 -> ~chi_10 tau+    tau-)
     7.59690182E-02    3     1000022       -12        12   # BR(~chi_20 -> ~chi_10 nu_eb   nu_e)
     7.59690182E-02    3     1000022       -14        14   # BR(~chi_20 -> ~chi_10 nu_mub  nu_mu)
     7.59690274E-02    3     1000022       -16        16   # BR(~chi_20 -> ~chi_10 nu_taub nu_tau)
     8.00508109E-03    3     1000024        -2         1   # BR(~chi_20 -> ~chi_1+ ub      d)
     8.00508109E-03    3    -1000024        -1         2   # BR(~chi_20 -> ~chi_1- db      u)
     2.66836143E-03    3     1000024       -12        11   # BR(~chi_20 -> ~chi_1+ nu_eb   e-)
     2.66836143E-03    3    -1000024        12       -11   # BR(~chi_20 -> ~chi_1- nu_e    e+)
     2.66836143E-03    3     1000024       -14        13   # BR(~chi_20 -> ~chi_1+ nu_mub  mu-)
     2.66836143E-03    3    -1000024        14       -13   # BR(~chi_20 -> ~chi_1- nu_mu   mu+)
#
#         PDG            Width
DECAY   1000025     1.29521222E+01   # neutralino3 decays
#          BR         NDA      ID1       ID2
     1.62234591E-02    2     1000022        23   # BR(~chi_30 -> ~chi_10   Z )
     5.89540288E-02    2     1000023        23   # BR(~chi_30 -> ~chi_20   Z )
     7.43030507E-02    2     1000024       -24   # BR(~chi_30 -> ~chi_1+   W-)
     7.43030507E-02    2    -1000024        24   # BR(~chi_30 -> ~chi_1-   W+)
     6.23392940E-02    2     1000022        25   # BR(~chi_30 -> ~chi_10   h )
     1.70139403E-02    2     1000023        25   # BR(~chi_30 -> ~chi_20   h )
     1.15365368E-01    2     2000002        -2   # BR(~chi_30 -> ~u_R      ub)
     1.15365368E-01    2    -2000002         2   # BR(~chi_30 -> ~u_R*     u )
     1.15364944E-01    2     2000004        -4   # BR(~chi_30 -> ~c_R      cb)
     1.15364944E-01    2    -2000004         4   # BR(~chi_30 -> ~c_R*     c )
     2.49483612E-03    2     1000005        -5   # BR(~chi_30 -> ~b_1      bb)
     2.49483612E-03    2    -1000005         5   # BR(~chi_30 -> ~b_1*     b )
     2.81711632E-02    2     2000011       -11   # BR(~chi_30 -> ~e_R-     e+)
     2.81711632E-02    2    -2000011        11   # BR(~chi_30 -> ~e_R+     e-)
     2.81711632E-02    2     2000013       -13   # BR(~chi_30 -> ~mu_R-    mu+)
     2.81711632E-02    2    -2000013        13   # BR(~chi_30 -> ~mu_R+    mu-)
     5.88641140E-02    2     1000015       -15   # BR(~chi_30 -> ~tau_1-   tau+)
     5.88641140E-02    2    -1000015        15   # BR(~chi_30 -> ~tau_1+   tau-)
#
#         PDG            Width
DECAY   1000035     2.19500287E+01   # neutralino4 decays
#          BR         NDA      ID1       ID2
     5.92198082E-02    2     1000022        23   # BR(~chi_40 -> ~chi_10   Z )
     1.49314373E-01    2     1000023        23   # BR(~chi_40 -> ~chi_20   Z )
     2.33647277E-05    2     1000025        23   # BR(~chi_40 -> ~chi_30   Z )
     2.01676892E-01    2     1000024       -24   # BR(~chi_40 -> ~chi_1+   W-)
     2.01676892E-01    2    -1000024        24   # BR(~chi_40 -> ~chi_1-   W+)
     1.49259467E-01    2     1000022        25   # BR(~chi_40 -> ~chi_10   h )
     5.88514880E-02    2     1000023        25   # BR(~chi_40 -> ~chi_20   h )
     7.83721841E-04    2     1000025        25   # BR(~chi_40 -> ~chi_30   h )
     1.46409014E-06    2     2000002        -2   # BR(~chi_40 -> ~u_R      ub)
     1.46409014E-06    2    -2000002         2   # BR(~chi_40 -> ~u_R*     u )
     1.46408951E-06    2     2000004        -4   # BR(~chi_40 -> ~c_R      cb)
     1.46408951E-06    2    -2000004         4   # BR(~chi_40 -> ~c_R*     c )
     4.32141306E-02    2     1000006        -6   # BR(~chi_40 -> ~t_1      tb)
     4.32141306E-02    2    -1000006         6   # BR(~chi_40 -> ~t_1*     t )
     1.88144624E-05    2     1000005        -5   # BR(~chi_40 -> ~b_1      bb)
     1.88144624E-05    2    -1000005         5   # BR(~chi_40 -> ~b_1*     b )
     4.63570745E-02    2     2000005        -5   # BR(~chi_40 -> ~b_2      bb)
     4.63570745E-02    2    -2000005         5   # BR(~chi_40 -> ~b_2*     b )
     8.38660158E-07    2     2000011       -11   # BR(~chi_40 -> ~e_R-     e+)
     8.38660158E-07    2    -2000011        11   # BR(~chi_40 -> ~e_R+     e-)
     8.38660158E-07    2     2000013       -13   # BR(~chi_40 -> ~mu_R-    mu+)
     8.38660158E-07    2    -2000013        13   # BR(~chi_40 -> ~mu_R+    mu-)
     2.37148783E-06    2     1000015       -15   # BR(~chi_40 -> ~tau_1-   tau+)
     2.37148783E-06    2    -1000015        15   # BR(~chi_40 -> ~tau_1+   tau-)
#
#         PDG            Width
DECAY        25     4.20247086E-03   # h decays
#          BR         NDA      ID1       ID2
     5.44648292E-01    2           5        -5   # BR(h -> b       bb     )
     6.29623883E-02    2         -15        15   # BR(h -> tau+    tau-   )
     2.22854927E-04    2         -13        13   # BR(h -> mu+     mu-    )
     2.42455045E-04    2           3        -3   # BR(h -> s       sb     )
     2.09332160E-02    2           4        -4   # BR(h -> c       cb     )
     7.97828481E-02    2          21        21   # BR(h -> g       g      )
     2.41785936E-03    2          22        22   # BR(h -> gam     gam    )
     1.80558073E-03    2          22        23   # BR(h -> Z       gam    )
     2.54180014E-01    2          24       -24   # BR(h -> W+      W-     )
     3.28044916E-02    2          23        23   # BR(h -> Z       Z      )
#
#         PDG            Width
DECAY        35     7.46088727E+01   # H decays
#          BR         NDA      ID1       ID2
     5.78896211E-01    2           5        -5   # BR(H -> b       bb     )
     9.85623930E-02    2         -15        15   # BR(H -> tau+    tau-   )
     3.48884322E-04    2         -13        13   # BR(H -> mu+     mu-    )
     2.29501732E-04    2           3        -3   # BR(H -> s       sb     )
     1.75916536E-08    2           4        -4   # BR(H -> c       cb     )
     1.73327237E-03    2           6        -6   # BR(H -> t       tb     )
     5.45308503E-06    2          21        21   # BR(H -> g       g      )
     9.53287075E-09    2          22        22   # BR(H -> gam     gam    )
     3.40586156E-09    2          23        22   # BR(H -> Z       gam    )
     9.00324488E-07    2          24       -24   # BR(H -> W+      W-     )
     4.49302165E-07    2          23        23   # BR(H -> Z       Z      )
     2.82313547E-06    2          25        25   # BR(H -> h       h      )
     9.27000894E-04    2     1000024  -1000024   # BR(H -> ~chi_1+ ~chi_1-)
     5.73698344E-02    2     1000024  -1000037   # BR(H -> ~chi_1+ ~chi_2-)
     5.73698344E-02    2     1000037  -1000024   # BR(H -> ~chi_2+ ~chi_1-)
     3.59487320E-04    2     1000022   1000022   # BR(H -> ~chi_10 ~chi_10)
     1.44930988E-04    2     1000023   1000023   # BR(H -> ~chi_20 ~chi_20)
     4.54686388E-07    2     1000025   1000025   # BR(H -> ~chi_30 ~chi_30)
     4.08419718E-05    2     1000022   1000023   # BR(H -> ~chi_10 ~chi_20)
     1.27637347E-02    2     1000022   1000025   # BR(H -> ~chi_10 ~chi_30)
     1.83181448E-02    2     1000022   1000035   # BR(H -> ~chi_10 ~chi_40)
     1.97540110E-02    2     1000023   1000025   # BR(H -> ~chi_20 ~chi_30)
     3.92841255E-02    2     1000023   1000035   # BR(H -> ~chi_20 ~chi_40)
     6.81051598E-08    2     2000002  -2000002   # BR(H -> ~u_R    ~u_R*  )
     6.81051598E-08    2     2000004  -2000004   # BR(H -> ~c_R    ~c_R*  )
     1.71248233E-04    2     1000005  -1000005   # BR(H -> ~b_1    ~b_1*  )
     5.68580386E-02    2     1000005  -2000005   # BR(H -> ~b_1    ~b_2*  )
     5.68580386E-02    2     2000005  -1000005   # BR(H -> ~b_2    ~b_1*  )
     4.20942130E-08    2     2000011  -2000011   # BR(H -> ~e_R-   ~e_R+  )
     4.20942130E-08    2     2000013  -2000013   # BR(H -> ~mu_R-  ~mu_R+ )
     1.34297197E-07    2     1000015  -1000015   # BR(H -> ~tau_1- ~tau_1+)
#
#         PDG            Width
DECAY        36     7.46089407E+01   # A decays
#          BR         NDA      ID1       ID2
     5.78928180E-01    2           5        -5   # BR(A -> b       bb     )
     9.85626408E-02    2         -15        15   # BR(A -> tau+    tau-   )
     3.48884825E-04    2         -13        13   # BR(A -> mu+     mu-    )
     2.29517306E-04    2           3        -3   # BR(A -> s       sb     )
     1.76720389E-08    2           4        -4   # BR(A -> c       cb     )
     1.73648998E-03    2           6        -6   # BR(A -> t       tb     )
     1.73875780E-05    2          21        21   # BR(A -> g       g      )
     3.74875943E-08    2          22        22   # BR(A -> gam     gam    )
     1.38030121E-08    2          23        22   # BR(A -> Z       gam    )
     9.12787911E-07    2          23        25   # BR(A -> Z       h      )
     1.02431176E-03    2     1000024  -1000024   # BR(A -> ~chi_1+ ~chi_1-)
     5.73153594E-02    2     1000024  -1000037   # BR(A -> ~chi_1+ ~chi_2-)
     5.73153594E-02    2     1000037  -1000024   # BR(A -> ~chi_2+ ~chi_1-)
     4.36377143E-04    2     1000022   1000022   # BR(A -> ~chi_10 ~chi_10)
     1.37742161E-04    2     1000023   1000023   # BR(A -> ~chi_20 ~chi_20)
     4.53294924E-06    2     1000025   1000025   # BR(A -> ~chi_30 ~chi_30)
     2.31074263E-05    2     1000022   1000023   # BR(A -> ~chi_10 ~chi_20)
     1.98026686E-02    2     1000022   1000025   # BR(A -> ~chi_10 ~chi_30)
     3.94626496E-02    2     1000022   1000035   # BR(A -> ~chi_10 ~chi_40)
     1.26836605E-02    2     1000023   1000025   # BR(A -> ~chi_20 ~chi_30)
     1.81026347E-02    2     1000023   1000035   # BR(A -> ~chi_20 ~chi_40)
     5.69337572E-02    2     1000005  -2000005   # BR(A -> ~b_1    ~b_2*  )
     5.69337572E-02    2    -1000005   2000005   # BR(A -> ~b_1*   ~b_2   )
#
#         PDG            Width
DECAY        37     8.59084579E+01   # H+ decays
#          BR         NDA      ID1       ID2
     8.52772984E-04    2           4        -5   # BR(H+ -> c       bb     )
     8.56349315E-02    2         -15        16   # BR(H+ -> tau+    nu_tau )
     3.03124265E-04    2         -13        14   # BR(H+ -> mu+     nu_mu  )
     8.52772189E-06    2           2        -5   # BR(H+ -> u       bb     )
     9.97544962E-06    2           2        -3   # BR(H+ -> u       sb     )
     1.96361864E-04    2           4        -3   # BR(H+ -> c       sb     )
     5.08268537E-01    2           6        -5   # BR(H+ -> t       bb     )
     7.94116156E-07    2          24        25   # BR(H+ -> W+      h      )
     9.85663748E-14    2          24        36   # BR(H+ -> W+      A      )
     3.99575084E-06    2     1000024   1000022   # BR(H+ -> ~chi_1+ ~chi_10)
     9.06709959E-05    2     1000024   1000023   # BR(H+ -> ~chi_1+ ~chi_20)
     2.90809769E-02    2     1000024   1000025   # BR(H+ -> ~chi_1+ ~chi_30)
     4.98415044E-02    2     1000024   1000035   # BR(H+ -> ~chi_1+ ~chi_40)
     5.02629600E-02    2     1000037   1000022   # BR(H+ -> ~chi_2+ ~chi_10)
     4.97923018E-02    2     1000037   1000023   # BR(H+ -> ~chi_2+ ~chi_20)
     2.25652566E-01    2     1000006  -1000005   # BR(H+ -> ~t_1    ~b_1*  )
