#
#                              ======================
#                              | THE SUSYHIT OUTPUT |
#                              ======================
#
#
#              ------------------------------------------------------
#              |     This is the output of the SUSY-HIT package     |
#              |  created by A.Djouadi, M.Muehlleitner and M.Spira. |
#              |  In case of problems with SUSY-HIT email to        |
#              |           margarete.muehlleitner@cern.ch           |
#              |           michael.spira@psi.ch                     |
#              |           abdelhak.djouadi@cern.ch                 |
#              ------------------------------------------------------
#
#              ------------------------------------------------------
#              |  SUSY Les Houches Accord - MSSM Spectrum + Decays  |
#              |              based on the decay programs           |
#              |                                                    |
#              |                     SDECAY 1.3b                    |
#              |                                                    |
#              |  Authors: M.Muhlleitner, A.Djouadi and Y.Mambrini  |
#              |  Ref.:    Comput.Phys.Commun.168(2005)46           |
#              |           [hep-ph/0311167]                         |
#              |                                                    |
#              |                     HDECAY 3.4                     |
#              |                                                    |
#              |  By: A.Djouadi,J.Kalinowski,M.Muhlleitner,M.Spira  |
#              |  Ref.:    Comput.Phys.Commun.108(1998)56           |
#              |           [hep-ph/9704448]                         |
#              |                                                    |
#              |                                                    |
#              |  If not stated otherwise all DRbar couplings and   |
#              |  soft SUSY breaking masses are given at the scale  |
#              |  Q=  0.26742320E+04
#              |                                                    |
#              ------------------------------------------------------
#
#
BLOCK DCINFO  # Decay Program information
     1   SDECAY/HDECAY # decay calculator
     2   1.3b  /3.4    # version number
#
BLOCK SPINFO  # Spectrum calculator information
     1     SOFTSUSY    # spectrum calculator               
     2     3.4.0       # version number                    
#
BLOCK MODSEL  # Model selection
     1     0   #  nonUniversal                                     
#
BLOCK SMINPUTS  # Standard Model inputs
         1     1.27908970E+02   # alpha_em^-1(M_Z)^MSbar
         2     1.16637870E-05   # G_F [GeV^-2]
         3     1.18400000E-01   # alpha_S(M_Z)^MSbar
         4     9.11876000E+01   # M_Z pole mass
         5     4.18000000E+00   # mb(mb)^MSbar
         6     1.73200000E+02   # mt pole mass
         7     1.77700000E+00   # mtau pole mass
#
BLOCK MINPAR  # Input parameters - minimal models
         3     1.91800000E+01   # tanb                
#
BLOCK EXTPAR  # Input parameters - non-minimal models
         0    -1.00000000E+00   # Set                 
         1     2.08222000E+03   # M_1(MX)             
         2    -2.00141000E+03   # M_2(MX)             
         3     2.49077000E+03   # M_3(MX)             
        11     2.98797000E+03   # At(MX)              
        12    -1.81377000E+03   # Ab(MX)              
        13     9.79070000E+02   # Atau(MX)            
        23     3.86780000E+02   # mu(MX)              
        26     1.65674000E+03   # mA(pole)            
        31     2.82484000E+03   # meL(MX)             
        32     2.82484000E+03   # mmuL(MX)            
        33     2.07697000E+03   # mtauL(MX)           
        34     1.95041000E+03   # meR(MX)             
        35     1.95041000E+03   # mmuR(MX)            
        36     1.44114000E+03   # mtauR(MX)           
        41     1.30398000E+03   # mqL1(MX)            
        42     1.30398000E+03   # mqL2(MX)            
        43     2.03175000E+03   # mqL3(MX)            
        44     6.78030000E+02   # muR(MX)             
        45     6.78030000E+02   # mcR(MX)             
        46     3.51575000E+03   # mtR(MX)             
        47     1.65261000E+03   # mdR(MX)             
        48     1.65261000E+03   # msR(MX)             
        49     1.32816000E+03   # mbR(MX)             
#
BLOCK MASS  # Mass Spectrum
# PDG code           mass       particle
        24     8.03978727E+01   # W+
        25     1.24652727E+02   # h
        35     1.65677633E+03   # H
        36     1.65673500E+03   # A
        37     1.65900047E+03   # H+
         5     4.81876030E+00   # b-quark pole mass calculated from mb(mb)_Msbar
   1000001     1.46000957E+03   # ~d_L
   2000001     1.77072759E+03   # ~d_R
   1000002     1.45791641E+03   # ~u_L
   2000002     8.72677482E+02   # ~u_R
   1000003     1.46000957E+03   # ~s_L
   2000003     1.77072759E+03   # ~s_R
   1000004     1.45791641E+03   # ~c_L
   2000004     8.72677482E+02   # ~c_R
   1000005     1.45462882E+03   # ~b_1
   2000005     2.13220188E+03   # ~b_2
   1000006     2.13117231E+03   # ~t_1
   2000006     3.52956132E+03   # ~t_2
   1000011     2.83927224E+03   # ~e_L
   2000011     1.95943773E+03   # ~e_R
   1000012     2.83784646E+03   # ~nu_eL
   1000013     2.83927224E+03   # ~mu_L
   2000013     1.95943773E+03   # ~mu_R
   1000014     2.83784646E+03   # ~nu_muL
   1000015     1.44931108E+03   # ~tau_1
   2000015     2.09720241E+03   # ~tau_2
   1000016     2.09538176E+03   # ~nu_tauL
   1000021     2.53450357E+03   # ~g
   1000022    -4.01740709E+02   # ~chi_10
   1000023     4.04090318E+02   # ~chi_20
   1000025    -1.99441266E+03   # ~chi_30
   1000035     2.04458506E+03   # ~chi_40
   1000024     4.03242364E+02   # ~chi_1+
   1000037     1.99458128E+03   # ~chi_2+
#
BLOCK NMIX  # Neutralino Mixing Matrix
  1  1    -1.17448245E-02   # N_11
  1  2    -3.27611258E-02   # N_12
  1  3     7.08090521E-01   # N_13
  1  4     7.05263484E-01   # N_14
  2  1    -1.95667659E-02   # N_21
  2  2    -2.45121486E-02   # N_22
  2  3    -7.06075674E-01   # N_23
  2  4     7.07441474E-01   # N_24
  3  1    -4.27778076E-04   # N_31
  3  2     9.99162485E-01   # N_32
  3  3     5.89294302E-03   # N_33
  3  4     4.04897280E-02   # N_34
  4  1     9.99739475E-01   # N_41
  4  2    -4.37091215E-04   # N_42
  4  3    -5.49813001E-03   # N_43
  4  4     2.21486284E-02   # N_44
#
BLOCK UMIX  # Chargino Mixing Matrix U
  1  1    -8.34896000E-03   # U_11
  1  2     9.99965147E-01   # U_12
  2  1    -9.99965147E-01   # U_21
  2  2    -8.34896000E-03   # U_22
#
BLOCK VMIX  # Chargino Mixing Matrix V
  1  1     5.73027078E-02   # V_11
  1  2     9.98356850E-01   # V_12
  2  1     9.98356850E-01   # V_21
  2  2    -5.73027078E-02   # V_22
#
BLOCK STOPMIX  # Stop Mixing Matrix
  1  1     9.98732724E-01   # cos(theta_t)
  1  2    -5.03283818E-02   # sin(theta_t)
  2  1     5.03283818E-02   # -sin(theta_t)
  2  2     9.98732724E-01   # cos(theta_t)
#
BLOCK SBOTMIX  # Sbottom Mixing Matrix
  1  1     8.48165460E-03   # cos(theta_b)
  1  2     9.99964030E-01   # sin(theta_b)
  2  1    -9.99964030E-01   # -sin(theta_b)
  2  2     8.48165460E-03   # cos(theta_b)
#
BLOCK STAUMIX  # Stau Mixing Matrix
  1  1     4.78580166E-03   # cos(theta_tau)
  1  2     9.99988548E-01   # sin(theta_tau)
  2  1    -9.99988548E-01   # -sin(theta_tau)
  2  2     4.78580166E-03   # cos(theta_tau)
#
BLOCK ALPHA  # Higgs mixing
          -5.49063998E-02   # Mixing angle in the neutral Higgs boson sector
#
BLOCK HMIX Q=  2.67423200E+03  # DRbar Higgs Parameters
         1     3.92929648E+02   # mu(Q)MSSM           
         2     1.83539920E+01   # tan                 
         3     2.42734528E+02   # higgs               
         4     2.49257760E+06   # mA^2(Q)MSSM         
#
BLOCK GAUGE Q=  2.67423200E+03  # The gauge couplings
     1     3.65065133E-01   # gprime(Q) DRbar
     2     6.38748379E-01   # g(Q) DRbar
     3     1.02052335E+00   # g3(Q) DRbar
#
BLOCK AU Q=  2.67423200E+03  # The trilinear couplings
  1  1     0.00000000E+00   # A_u(Q) DRbar
  2  2     0.00000000E+00   # A_c(Q) DRbar
  3  3     2.98797001E+03   # A_t(Q) DRbar
#
BLOCK AD Q=  2.67423200E+03  # The trilinear couplings
  1  1     0.00000000E+00   # A_d(Q) DRbar
  2  2     0.00000000E+00   # A_s(Q) DRbar
  3  3    -1.81377000E+03   # A_b(Q) DRbar
#
BLOCK AE Q=  2.67423200E+03  # The trilinear couplings
  1  1     0.00000000E+00   # A_e(Q) DRbar
  2  2     0.00000000E+00   # A_mu(Q) DRbar
  3  3     9.79070001E+02   # A_tau(Q) DRbar
#
BLOCK Yu Q=  2.67423200E+03  # The Yukawa couplings
  1  1     0.00000000E+00   # y_u(Q) DRbar
  2  2     0.00000000E+00   # y_c(Q) DRbar
  3  3     8.36189543E-01   # y_t(Q) DRbar
#
BLOCK Yd Q=  2.67423200E+03  # The Yukawa couplings
  1  1     0.00000000E+00   # y_d(Q) DRbar
  2  2     0.00000000E+00   # y_s(Q) DRbar
  3  3     2.34511074E-01   # y_b(Q) DRbar
#
BLOCK Ye Q=  2.67423200E+03  # The Yukawa couplings
  1  1     0.00000000E+00   # y_e(Q) DRbar
  2  2     0.00000000E+00   # y_mu(Q) DRbar
  3  3     1.85453648E-01   # y_tau(Q) DRbar
#
BLOCK MSOFT Q=  2.67423200E+03  # The soft SUSY breaking masses at the scale Q
         1     2.08222000E+03   # M_1(Q)              
         2    -2.00141000E+03   # M_2(Q)              
         3     2.49077000E+03   # M_3(Q)              
        21     2.52206996E+06   # mH1^2(Q)            
        22    -6.29103656E+04   # mH2^2(Q)            
        31     2.82484000E+03   # meL(Q)              
        32     2.82484000E+03   # mmuL(Q)             
        33     2.07697000E+03   # mtauL(Q)            
        34     1.95041000E+03   # meR(Q)              
        35     1.95041000E+03   # mmuR(Q)             
        36     1.44114000E+03   # mtauR(Q)            
        41     1.30397999E+03   # mqL1(Q)             
        42     1.30397999E+03   # mqL2(Q)             
        43     2.03174999E+03   # mqL3(Q)             
        44     6.78029976E+02   # muR(Q)              
        45     6.78029976E+02   # mcR(Q)              
        46     3.51574999E+03   # mtR(Q)              
        47     1.65260999E+03   # mdR(Q)              
        48     1.65260999E+03   # msR(Q)              
        49     1.32815999E+03   # mbR(Q)              
#
Block HiggsBoundsInputHiggsCouplingsFermions
# ScalarNormEffCoupSq PseudoSNormEffCoupSq NP   IP1 IP2 IP2
    1.01755488E+00    0.00000000E+00        3  25   5   5  # h0-b-b eff. coupling^2, normalised to SM
    3.36851467E+02    0.00000000E+00        3  35   5   5  # H0-b-b eff. coupling^2, normalised to SM
    0.00000000E+00    3.36869022E+02        3  36   5   5  # A0-b-b eff. coupling^2, normalised to SM
#
    9.99947888E-01    0.00000000E+00        3  25   6   6  # h0-t-t eff. coupling^2, normalised to SM
    3.02062468E-03    0.00000000E+00        3  35   6   6  # H0-t-t eff. coupling^2, normalised to SM
    0.00000000E+00    2.96851279E-03        3  36   6   6  # A0-t-t eff. coupling^2, normalised to SM
#
    1.01755488E+00    0.00000000E+00        3  25  15  15  # h0-tau-tau eff. coupling^2, normalised to SM
    3.36851467E+02    0.00000000E+00        3  35  15  15  # H0-tau-tau eff. coupling^2, normalised to SM
    0.00000000E+00    3.36869022E+02        3  36  15  15  # A0-tau-tau eff. coupling^2, normalised to SM
#
Block HiggsBoundsInputHiggsCouplingsBosons
    9.99999773E-01        3  25  24  24  # h0-W-W eff. coupling^2, normalised to SM
    2.26724770E-07        3  35  24  24  # H0-W-W eff. coupling^2, normalised to SM
    0.00000000E+00        3  36  24  24  # A0-W-W eff. coupling^2, normalised to SM
#
    9.99999773E-01        3  25  23  23  # h0-Z-Z eff. coupling^2, normalised to SM
    2.26724770E-07        3  35  23  23  # H0-Z-Z eff. coupling^2, normalised to SM
    0.00000000E+00        3  36  23  23  # A0-Z-Z eff. coupling^2, normalised to SM
#
    8.89100651E-01        3  25  21  21  # h0-g-g eff. coupling^2, normalised to SM
    3.91814343E-11        3  35  21  21  # H0-g-g eff. coupling^2, normalised to SM
    1.29488975E-09        3  36  21  21  # A0-g-g eff. coupling^2, normalised to SM
#
    0.00000000E+00        3  25  25  23  # h0-h0-Z eff. coupling^2, normalised to SM
    0.00000000E+00        3  35  25  23  # H0-h0-Z eff. coupling^2, normalised to SM
    2.26724770E-07        3  36  25  23  # A0-h0-Z eff. coupling^2, normalised to SM
    0.00000000E+00        3  35  35  23  # H0-H0-Z eff. coupling^2, normalised to SM
    9.99999773E-01        3  36  35  23  # A0-H0-Z eff. coupling^2, normalised to SM
    0.00000000E+00        3  36  36  23  # A0-A0-Z eff. coupling^2, normalised to SM
#
    0.00000000E+00        4  25  21  21  23  # h0-g-g-Z eff. coupling^2, normalised to SM
    0.00000000E+00        4  35  21  21  23  # H0-g-g-Z eff. coupling^2, normalised to SM
    0.00000000E+00        4  36  21  21  23  # A0-g-g-Z eff. coupling^2, normalised to SM
#
#
#
#                             =================
#                             |The decay table|
#                             =================
#
# - The QCD corrections to the decays gluino -> squark  + quark
#                                     squark -> gaugino + quark_prime
#                                     squark -> squark_prime + Higgs
#                                     squark -> gluino  + quark
#   are included.
#
# - The multi-body decays for the inos, stops and sbottoms are included.
#
# - The loop induced decays for the gluino, neutralinos and stops
#   are included.
#
# - The SUSY decays of the top quark are included.
#
#
#         PDG            Width
DECAY         6     1.43655824E+00   # top decays
#          BR         NDA      ID1       ID2
     1.00000000E+00    2           5        24   # BR(t ->  b    W+)
#
#         PDG            Width
DECAY   1000021     2.35682049E+02   # gluino decays
#          BR         NDA      ID1       ID2
     4.97565200E-02    2     1000001        -1   # BR(~g -> ~d_L  db)
     4.97565200E-02    2    -1000001         1   # BR(~g -> ~d_L* d )
     2.92037917E-02    2     2000001        -1   # BR(~g -> ~d_R  db)
     2.92037917E-02    2    -2000001         1   # BR(~g -> ~d_R* d )
     4.98982291E-02    2     1000002        -2   # BR(~g -> ~u_L  ub)
     4.98982291E-02    2    -1000002         2   # BR(~g -> ~u_L* u )
     8.65916208E-02    2     2000002        -2   # BR(~g -> ~u_R  ub)
     8.65916208E-02    2    -2000002         2   # BR(~g -> ~u_R* u )
     4.97565200E-02    2     1000003        -3   # BR(~g -> ~s_L  sb)
     4.97565200E-02    2    -1000003         3   # BR(~g -> ~s_L* s )
     2.92037917E-02    2     2000003        -3   # BR(~g -> ~s_R  sb)
     2.92037917E-02    2    -2000003         3   # BR(~g -> ~s_R* s )
     4.98981997E-02    2     1000004        -4   # BR(~g -> ~c_L  cb)
     4.98981997E-02    2    -1000004         4   # BR(~g -> ~c_L* c )
     8.65916103E-02    2     2000004        -4   # BR(~g -> ~c_R  cb)
     8.65916103E-02    2    -2000004         4   # BR(~g -> ~c_R* c )
     5.01360727E-02    2     1000005        -5   # BR(~g -> ~b_1  bb)
     5.01360727E-02    2    -1000005         5   # BR(~g -> ~b_1* b )
     9.65800773E-03    2     2000005        -5   # BR(~g -> ~b_2  bb)
     9.65800773E-03    2    -2000005         5   # BR(~g -> ~b_2* b )
     9.30563623E-03    2     1000006        -6   # BR(~g -> ~t_1  tb)
     9.30563623E-03    2    -1000006         6   # BR(~g -> ~t_1* t )
#
#         PDG            Width
DECAY   1000006     2.99032997E+01   # stop1 decays
#          BR         NDA      ID1       ID2
     4.51197323E-01    2     1000022         6   # BR(~t_1 -> ~chi_10 t )
     4.57366750E-01    2     1000023         6   # BR(~t_1 -> ~chi_20 t )
     8.04827765E-02    2     1000024         5   # BR(~t_1 -> ~chi_1+ b )
     8.77940648E-03    2     1000037         5   # BR(~t_1 -> ~chi_2+ b )
     2.17374449E-03    2     1000005        24   # BR(~t_1 -> ~b_1    W+)
#
#         PDG            Width
DECAY   2000006     1.82008569E+02   # stop2 decays
#          BR         NDA      ID1       ID2
     1.29989211E-01    2     1000022         6   # BR(~t_2 -> ~chi_10 t )
     1.30538956E-01    2     1000023         6   # BR(~t_2 -> ~chi_20 t )
     5.68860500E-04    2     1000025         6   # BR(~t_2 -> ~chi_30 t )
     2.01024397E-02    2     1000035         6   # BR(~t_2 -> ~chi_40 t )
     2.60128233E-01    2     1000024         5   # BR(~t_2 -> ~chi_1+ b )
     1.14245249E-03    2     1000037         5   # BR(~t_2 -> ~chi_2+ b )
     2.49821796E-01    2     1000021         6   # BR(~t_2 -> ~g      t )
     5.94522314E-02    2     1000006        25   # BR(~t_2 -> ~t_1    h )
     3.92729151E-06    2     1000005        37   # BR(~t_2 -> ~b_1    H+)
     5.03549028E-02    2     1000006        23   # BR(~t_2 -> ~t_1    Z )
     1.57707065E-05    2     1000005        24   # BR(~t_2 -> ~b_1    W+)
     9.78812203E-02    2     2000005        24   # BR(~t_2 -> ~b_2    W+)
#
#         PDG            Width
DECAY   1000005     2.66449516E+00   # sbottom1 decays
#          BR         NDA      ID1       ID2
     2.55873207E-01    2     1000022         5   # BR(~b_1 -> ~chi_10 b )
     2.53507075E-01    2     1000023         5   # BR(~b_1 -> ~chi_20 b )
     4.90619718E-01    2    -1000024         6   # BR(~b_1 -> ~chi_1- t )
#
#         PDG            Width
DECAY   2000005     2.94708986E+01   # sbottom2 decays
#          BR         NDA      ID1       ID2
     3.71355416E-02    2     1000022         5   # BR(~b_2 -> ~chi_10 b )
     3.68238302E-02    2     1000023         5   # BR(~b_2 -> ~chi_20 b )
     4.58209891E-03    2     1000025         5   # BR(~b_2 -> ~chi_30 b )
     6.95449241E-05    2     1000035         5   # BR(~b_2 -> ~chi_40 b )
     9.19150795E-01    2    -1000024         6   # BR(~b_2 -> ~chi_1- t )
     1.10072250E-03    2     1000005        25   # BR(~b_2 -> ~b_1    h )
     1.13746680E-03    2     1000005        23   # BR(~b_2 -> ~b_1    Z )
#
#         PDG            Width
DECAY   1000002     4.36978219E-02   # sup_L decays
#          BR         NDA      ID1       ID2
     1.42761924E-01    2     1000022         2   # BR(~u_L -> ~chi_10 u)
     9.27690462E-02    2     1000023         2   # BR(~u_L -> ~chi_20 u)
     7.64469030E-01    2     1000024         1   # BR(~u_L -> ~chi_1+ d)
#
#         PDG            Width
DECAY   2000002     6.97822452E-04   # sup_R decays
#           BR         NDA      ID1       ID2
     2.61436057E-01    2     1000022         2   # BR(~u_R -> ~chi_10 u)
     7.21074953E-01    2     1000023         2   # BR(~u_R -> ~chi_20 u)
#           BR         NDA      ID1       ID2       ID3
     3.57469152E-03    3        2       23        1000022   # BR(~u_R -> u  Z  ~chi_10)
     7.39557746E-04    3        2       25        1000022   # BR(~u_R -> u  h  ~chi_10)
     1.50711688E-03    3        2       23        1000023   # BR(~u_R -> u  Z  ~chi_20)
     3.05722465E-03    3        2       25        1000023   # BR(~u_R -> u  h  ~chi_20)
     9.94995214E-04    3        2       -24        1000024   # BR(~u_R -> u  W-  ~chi_1+)
     7.61540415E-03    3        2       24        -1000024   # BR(~u_R -> u  W+  ~chi_1-)
#
#         PDG            Width
DECAY   1000001     7.66412185E-03   # sdown_L decays
#          BR         NDA      ID1       ID2
     6.20257848E-01    2     1000022         1   # BR(~d_L -> ~chi_10 d)
     2.87044997E-01    2     1000023         1   # BR(~d_L -> ~chi_20 d)
     9.26971547E-02    2    -1000024         2   # BR(~d_L -> ~chi_1- u)
#
#         PDG            Width
DECAY   2000001     2.06442481E-02   # sdown_R decays
#           BR         NDA      ID1       ID2
     6.25056983E-03    2     1000022         1   # BR(~d_R -> ~chi_10 d)
     1.73267831E-02    2     1000023         1   # BR(~d_R -> ~chi_20 d)
#           BR         NDA      ID1       ID2       ID3
     3.33448812E-03    3        1       -1        1000001   # BR(~d_R -> d  db  ~d_L)
     1.37074501E-03    3        1       1        -1000001   # BR(~d_R -> d  d  ~d_L*)
     3.46251410E-03    3        1       -2        1000002   # BR(~d_R -> d  ub  ~u_L)
     1.42969605E-03    3        1       2        -1000002   # BR(~d_R -> d  u  ~u_L*)
     1.03186127E-01    3        1       -2        2000002   # BR(~d_R -> d  ub  ~u_R)
     3.67744079E-01    3        1       2        -2000002   # BR(~d_R -> d  u  ~u_R*)
     3.35991894E-03    3        1       -3        1000003   # BR(~d_R -> d  sb  ~s_L)
     1.37762344E-03    3        1       3        -1000003   # BR(~d_R -> d  s  ~s_L*)
     3.51991508E-03    3        1       -4        1000004   # BR(~d_R -> d  cb  ~c_L)
     1.41753770E-03    3        1       4        -1000004   # BR(~d_R -> d  c  ~c_L*)
     1.03699587E-01    3        1       -4        2000004   # BR(~d_R -> d  cb  ~c_R)
     3.68368951E-01    3        1       4        -2000004   # BR(~d_R -> d  c  ~c_R*)
     1.47769974E-03    3        1       -5        1000005   # BR(~d_R -> d  bb  ~b_1)
     3.62987307E-03    3        1       5        -1000005   # BR(~d_R -> d  b  ~b_1*)
     2.52055681E-05    3        1       -15        1000015   # BR(~d_R -> d  tau+  ~tau_1-)
     3.92840658E-05    3        1       15        -1000015   # BR(~d_R -> d  tau-  ~tau_1+)
     1.76034506E-03    3        1       23        1000022   # BR(~d_R -> d  Z  ~chi_10)
     4.41401400E-04    3        1       25        1000022   # BR(~d_R -> d  h  ~chi_10)
     4.41701726E-04    3        1       23        1000023   # BR(~d_R -> d  Z  ~chi_20)
     1.77642702E-03    3        1       25        1000023   # BR(~d_R -> d  h  ~chi_20)
     1.15799810E-03    3        1       -24        1000024   # BR(~d_R -> d  W-  ~chi_1+)
     3.40152859E-03    3        1       24        -1000024   # BR(~d_R -> d  W+  ~chi_1-)
#
#         PDG            Width
DECAY   1000004     4.33496598E-02   # scharm_L decays
#          BR         NDA      ID1       ID2
     1.42762918E-01    2     1000022         4   # BR(~c_L -> ~chi_10 c)
     9.27682580E-02    2     1000023         4   # BR(~c_L -> ~chi_20 c)
     7.64468824E-01    2     1000024         3   # BR(~c_L -> ~chi_1+ s)
#
#         PDG            Width
DECAY   2000004     6.74348532E-04   # scharm_R decays
#           BR         NDA      ID1       ID2
     2.61283481E-01    2     1000022         4   # BR(~c_R -> ~chi_10 c)
     7.20630189E-01    2     1000023         4   # BR(~c_R -> ~chi_20 c)
#           BR         NDA      ID1       ID2       ID3
     3.69912572E-03    3        4       23        1000022   # BR(~c_R -> c  Z  ~chi_10)
     7.66917959E-04    3        4       25        1000022   # BR(~c_R -> c  h  ~chi_10)
     1.56121049E-03    3        4       23        1000023   # BR(~c_R -> c  Z  ~chi_20)
     3.16171816E-03    3        4       25        1000023   # BR(~c_R -> c  h  ~chi_20)
     1.02546379E-03    3        4       -24        1000024   # BR(~c_R -> c  W-  ~chi_1+)
     7.87189376E-03    3        4       24        -1000024   # BR(~c_R -> c  W+  ~chi_1-)
#
#         PDG            Width
DECAY   1000003     7.60369583E-03   # sstrange_L decays
#          BR         NDA      ID1       ID2
     6.20261253E-01    2     1000022         3   # BR(~s_L -> ~chi_10 s)
     2.87042139E-01    2     1000023         3   # BR(~s_L -> ~chi_20 s)
     9.26966081E-02    2    -1000024         4   # BR(~s_L -> ~chi_1- c)
#
#         PDG            Width
DECAY   2000003     2.05496490E-02   # sstrange_R decays
#           BR         NDA      ID1       ID2
     6.30082189E-03    2     1000022         3   # BR(~s_R -> ~chi_10 s)
     1.74658246E-02    2     1000023         3   # BR(~s_R -> ~chi_20 s)
#           BR         NDA      ID1       ID2       ID3
     3.31772091E-03    3        3       -1        1000001   # BR(~s_R -> s  db  ~d_L)
     1.38474385E-03    3        3       1        -1000001   # BR(~s_R -> s  d  ~d_L*)
     3.47991346E-03    3        3       -2        1000002   # BR(~s_R -> s  ub  ~u_L)
     1.44026791E-03    3        3       2        -1000002   # BR(~s_R -> s  u  ~u_L*)
     1.03680603E-01    3        3       -2        2000002   # BR(~s_R -> s  ub  ~u_R)
     3.69320178E-01    3        3       2        -2000002   # BR(~s_R -> s  u  ~u_R*)
     3.37538613E-03    3        3       -3        1000003   # BR(~s_R -> s  sb  ~s_L)
     1.37817439E-03    3        3       3        -1000003   # BR(~s_R -> s  s  ~s_L*)
     3.49655608E-03    3        3       -4        1000004   # BR(~s_R -> s  cb  ~c_L)
     1.43910001E-03    3        3       4        -1000004   # BR(~s_R -> s  c  ~c_L*)
     1.03870388E-01    3        3       -4        2000004   # BR(~s_R -> s  cb  ~c_R)
     3.65850532E-01    3        3       4        -2000004   # BR(~s_R -> s  c  ~c_R*)
     1.47676489E-03    3        3       -5        1000005   # BR(~s_R -> s  bb  ~b_1)
     3.64658297E-03    3        3       5        -1000005   # BR(~s_R -> s  b  ~b_1*)
     2.48836368E-05    3        3       -15        1000015   # BR(~s_R -> s  tau+  ~tau_1-)
     3.99208766E-05    3        3       15        -1000015   # BR(~s_R -> s  tau-  ~tau_1+)
     1.76844870E-03    3        3       23        1000022   # BR(~s_R -> s  Z  ~chi_10)
     4.43433366E-04    3        3       25        1000022   # BR(~s_R -> s  h  ~chi_10)
     4.43735074E-04    3        3       23        1000023   # BR(~s_R -> s  Z  ~chi_20)
     1.77550478E-03    3        3       25        1000023   # BR(~s_R -> s  h  ~chi_20)
     1.16332888E-03    3        3       -24        1000024   # BR(~s_R -> s  W-  ~chi_1+)
     3.41718733E-03    3        3       24        -1000024   # BR(~s_R -> s  W+  ~chi_1-)
#
#         PDG            Width
DECAY   1000011     9.76604686E+00   # selectron_L decays
#          BR         NDA      ID1       ID2
     1.76561845E-03    2     1000022        11   # BR(~e_L -> ~chi_10 e-)
     1.44308815E-03    2     1000023        11   # BR(~e_L -> ~chi_20 e-)
     3.02137945E-01    2     1000025        11   # BR(~e_L -> ~chi_30 e-)
     8.91514223E-02    2     1000035        11   # BR(~e_L -> ~chi_40 e-)
     1.57922393E-04    2    -1000024        12   # BR(~e_L -> ~chi_1- nu_e)
     6.05344004E-01    2    -1000037        12   # BR(~e_L -> ~chi_2- nu_e)
#
#         PDG            Width
DECAY   2000011     1.45120004E-02   # selectron_R decays
#           BR         NDA      ID1       ID2
     9.06349773E-02    2     1000022        11   # BR(~e_R -> ~chi_10 e-)
     2.51300649E-01    2     1000023        11   # BR(~e_R -> ~chi_20 e-)
#           BR         NDA      ID1       ID2       ID3
     5.77983720E-04    3        11       -1        1000001   # BR(~e_R- -> e-  db  ~d_L)
     4.42020384E-04    3        11       1        -1000001   # BR(~e_R- -> e-  d  ~d_L*)
     4.66076336E-05    3        11       -1        2000001   # BR(~e_R- -> e-  db  ~d_R)
     5.54244746E-05    3        11       1        -2000001   # BR(~e_R- -> e-  d  ~d_R*)
     5.89277821E-04    3        11       -2        1000002   # BR(~e_R- -> e-  ub  ~u_L)
     4.32380086E-04    3        11       2        -1000002   # BR(~e_R- -> e-  u  ~u_L*)
     7.14581015E-02    3        11       -2        2000002   # BR(~e_R- -> e-  ub  ~u_R)
     1.25447901E-01    3        11       2        -2000002   # BR(~e_R- -> e-  u  ~u_R*)
     5.79299872E-04    3        11       -3        1000003   # BR(~e_R- -> e-  sb  ~s_L)
     4.35887528E-04    3        11       3        -1000003   # BR(~e_R- -> e-  s  ~s_L*)
     4.66544914E-05    3        11       -3        2000003   # BR(~e_R- -> e-  sb  ~s_R)
     5.53638351E-05    3        11       3        -2000003   # BR(~e_R- -> e-  s  ~s_R*)
     5.87355274E-04    3        11       -4        1000004   # BR(~e_R- -> e-  cb  ~c_L)
     4.34784992E-04    3        11       4        -1000004   # BR(~e_R- -> e-  c  ~c_L*)
     7.33393032E-02    3        11       -4        2000004   # BR(~e_R- -> e-  cb  ~c_R)
     1.26894980E-01    3        11       4        -2000004   # BR(~e_R- -> e-  c  ~c_R*)
     1.77673644E-03    3        11       -5        1000005   # BR(~e_R- -> e-  bb  ~b_1)
     2.38444039E-03    3        11       5        -1000005   # BR(~e_R- -> e-  b  ~b_1*)
     5.56835705E-03    3        11       -15        1000015   # BR(~e_R- -> e-  tau+  ~tau_1-)
     7.39732613E-03    3        11       15        -1000015   # BR(~e_R- -> e-  tau-  ~tau_1+)
     4.59736756E-02    3        11       23        1000022   # BR(~e_R- -> e-  Z  ~chi_10)
     1.26281694E-02    3        11       25        1000022   # BR(~e_R- -> e-  h  ~chi_10)
     1.21843987E-02    3        11       23        1000023   # BR(~e_R- -> e-  Z  ~chi_20)
     4.69018729E-02    3        11       25        1000023   # BR(~e_R- -> e-  h  ~chi_20)
     3.77990617E-02    3        11       -24        1000024   # BR(~e_R- -> e-  W-  ~chi_1+)
     8.40270096E-02    3        11       24        -1000024   # BR(~e_R- -> e-  W+  ~chi_1-)
#
#         PDG            Width
DECAY   1000013     9.76604682E+00   # smuon_L decays
#          BR         NDA      ID1       ID2
     1.76561846E-03    2     1000022        13   # BR(~mu_L -> ~chi_10 mu-)
     1.44308816E-03    2     1000023        13   # BR(~mu_L -> ~chi_20 mu-)
     3.02137943E-01    2     1000025        13   # BR(~mu_L -> ~chi_30 mu-)
     8.91514216E-02    2     1000035        13   # BR(~mu_L -> ~chi_40 mu-)
     1.57922394E-04    2    -1000024        14   # BR(~mu_L -> ~chi_1- nu_mu)
     6.05344006E-01    2    -1000037        14   # BR(~mu_L -> ~chi_2- nu_mu)
#
#         PDG            Width
DECAY   2000013     1.45110335E-02   # smuon_R decays
#           BR         NDA      ID1       ID2
     9.06410162E-02    2     1000022        13   # BR(~mu_R -> ~chi_10 mu-)
     2.51317394E-01    2     1000023        13   # BR(~mu_R -> ~chi_20 mu-)
#           BR         NDA      ID1       ID2       ID3
     5.77450257E-04    3        13       -1        1000001   # BR(~mu_R- -> mu-  db  ~d_L)
     4.43069752E-04    3        13       1        -1000001   # BR(~mu_R- -> mu-  d  ~d_L*)
     4.66114286E-05    3        13       -1        2000001   # BR(~mu_R- -> mu-  db  ~d_R)
     5.54378158E-05    3        13       1        -2000001   # BR(~mu_R- -> mu-  d  ~d_R*)
     5.89062110E-04    3        13       -2        1000002   # BR(~mu_R- -> mu-  ub  ~u_L)
     4.32608747E-04    3        13       2        -1000002   # BR(~mu_R- -> mu-  u  ~u_L*)
     7.14421893E-02    3        13       -2        2000002   # BR(~mu_R- -> mu-  ub  ~u_R)
     1.25483826E-01    3        13       2        -2000002   # BR(~mu_R- -> mu-  u  ~u_R*)
     5.79014583E-04    3        13       -3        1000003   # BR(~mu_R- -> mu-  sb  ~s_L)
     4.35985487E-04    3        13       3        -1000003   # BR(~mu_R- -> mu-  s  ~s_L*)
     4.66286568E-05    3        13       -3        2000003   # BR(~mu_R- -> mu-  sb  ~s_R)
     5.54247223E-05    3        13       3        -2000003   # BR(~mu_R- -> mu-  s  ~s_R*)
     5.88352306E-04    3        13       -4        1000004   # BR(~mu_R- -> mu-  cb  ~c_L)
     4.35751183E-04    3        13       4        -1000004   # BR(~mu_R- -> mu-  c  ~c_L*)
     7.33510816E-02    3        13       -4        2000004   # BR(~mu_R- -> mu-  cb  ~c_R)
     1.26841414E-01    3        13       4        -2000004   # BR(~mu_R- -> mu-  c  ~c_R*)
     1.77657918E-03    3        13       -5        1000005   # BR(~mu_R- -> mu-  bb  ~b_1)
     2.38590863E-03    3        13       5        -1000005   # BR(~mu_R- -> mu-  b  ~b_1*)
     5.53620114E-03    3        13       -15        1000015   # BR(~mu_R- -> mu-  tau+  ~tau_1-)
     7.39850819E-03    3        13       15        -1000015   # BR(~mu_R- -> mu-  tau-  ~tau_1+)
     4.59794956E-02    3        13       23        1000022   # BR(~mu_R- -> mu-  Z  ~chi_10)
     1.26297000E-02    3        13       25        1000022   # BR(~mu_R- -> mu-  h  ~chi_10)
     1.21838324E-02    3        13       23        1000023   # BR(~mu_R- -> mu-  Z  ~chi_20)
     4.69036200E-02    3        13       25        1000023   # BR(~mu_R- -> mu-  h  ~chi_20)
     3.78043370E-02    3        13       -24        1000024   # BR(~mu_R- -> mu-  W-  ~chi_1+)
     8.40395002E-02    3        13       24        -1000024   # BR(~mu_R- -> mu-  W+  ~chi_1-)
#
#         PDG            Width
DECAY   1000015     1.69197322E+00   # stau_1 decays
#          BR         NDA      ID1       ID2
     2.51172670E-01    2     1000022        15   # BR(~tau_1 -> ~chi_10  tau-)
     2.49869529E-01    2     1000023        15   # BR(~tau_1 -> ~chi_20  tau-)
     4.98957800E-01    2    -1000024        16   # BR(~tau_1 -> ~chi_1-  nu_tau)
#
#         PDG            Width
DECAY   2000015     1.61248633E+00   # stau_2 decays
#          BR         NDA      ID1       ID2
     4.21360258E-01    2     1000022        15   # BR(~tau_2 -> ~chi_10  tau-)
     4.17777900E-01    2     1000023        15   # BR(~tau_2 -> ~chi_20  tau-)
     4.81493566E-02    2     1000025        15   # BR(~tau_2 -> ~chi_30  tau-)
     4.21864781E-03    2     1000035        15   # BR(~tau_2 -> ~chi_40  tau-)
     4.74196180E-04    2    -1000024        16   # BR(~tau_2 -> ~chi_1-  nu_tau)
     9.62147054E-02    2    -1000037        16   # BR(~tau_2 -> ~chi_2-  nu_tau)
     5.94162438E-03    2     1000015        25   # BR(~tau_2 -> ~tau_1   h)
     5.86331196E-03    2     1000015        23   # BR(~tau_2 -> ~tau_1   Z)
#
#         PDG            Width
DECAY   1000012     9.77772875E+00   # snu_eL decays
#          BR         NDA      ID1       ID2
     7.67529222E-04    2     1000022        12   # BR(~nu_eL -> ~chi_10 nu_e)
     2.00872737E-04    2     1000023        12   # BR(~nu_eL -> ~chi_20 nu_e)
     3.01329940E-01    2     1000025        12   # BR(~nu_eL -> ~chi_30 nu_e)
     8.90797583E-02    2     1000035        12   # BR(~nu_eL -> ~chi_40 nu_e)
     7.42632499E-03    2     1000024        11   # BR(~nu_eL -> ~chi_1+ e-)
     6.01195575E-01    2     1000037        11   # BR(~nu_eL -> ~chi_2+ e-)
#
#         PDG            Width
DECAY   1000014     9.77772868E+00   # snu_muL decays
#          BR         NDA      ID1       ID2
     7.67529227E-04    2     1000022        14   # BR(~nu_muL -> ~chi_10 nu_mu)
     2.00872738E-04    2     1000023        14   # BR(~nu_muL -> ~chi_20 nu_mu)
     3.01329942E-01    2     1000025        14   # BR(~nu_muL -> ~chi_30 nu_mu)
     8.90797589E-02    2     1000035        14   # BR(~nu_muL -> ~chi_40 nu_mu)
     7.42632502E-03    2     1000024        13   # BR(~nu_muL -> ~chi_1+ mu-)
     6.01195572E-01    2     1000037        13   # BR(~nu_muL -> ~chi_2+ mu-)
#
#         PDG            Width
DECAY   1000016     1.63738275E+00   # snu_tauL decays
#          BR         NDA      ID1       ID2
     3.26972112E-03    2     1000022        16   # BR(~nu_tauL -> ~chi_10 nu_tau)
     8.55374411E-04    2     1000023        16   # BR(~nu_tauL -> ~chi_20 nu_tau)
     4.58864817E-02    2     1000025        16   # BR(~nu_tauL -> ~chi_30 nu_tau)
     3.89586378E-03    2     1000035        16   # BR(~nu_tauL -> ~chi_40 nu_tau)
     8.43640263E-01    2     1000024        15   # BR(~nu_tauL -> ~chi_1+ tau-)
     9.12601300E-02    2     1000037        15   # BR(~nu_tauL -> ~chi_2+ tau-)
     1.11921663E-02    2    -1000015       -24   # BR(~nu_tauL -> ~tau_1+ W-)
#
#         PDG            Width
DECAY   1000024     5.08999340E-12   # chargino1+ decays
#           BR         NDA      ID1       ID2       ID3
     6.00001422E-01    3     1000022         2        -1   # BR(~chi_1+ -> ~chi_10 u    db)
     1.99999289E-01    3     1000022       -11        12   # BR(~chi_1+ -> ~chi_10 e+   nu_e)
     1.99999289E-01    3     1000022       -13        14   # BR(~chi_1+ -> ~chi_10 mu+  nu_mu)
#
#         PDG            Width
DECAY   1000037     3.60014025E+01   # chargino2+ decays
#          BR         NDA      ID1       ID2
     1.46331059E-01    2     1000002        -1   # BR(~chi_2+ -> ~u_L     db)
     1.45849486E-01    2    -1000001         2   # BR(~chi_2+ -> ~d_L*    u )
     1.46331030E-01    2     1000004        -3   # BR(~chi_2+ -> ~c_L     sb)
     1.45849021E-01    2    -1000003         4   # BR(~chi_2+ -> ~s_L*     c )
     3.86830299E-06    2    -1000005         6   # BR(~chi_2+ -> ~b_1*    t )
     2.79403962E-07    2    -1000015        16   # BR(~chi_2+ -> ~tau_1+  nu_tau)
     1.05141707E-01    2     1000024        23   # BR(~chi_2+ -> ~chi_1+  Z )
     1.01853567E-01    2     1000022        24   # BR(~chi_2+ -> ~chi_10  W+)
     1.02462618E-01    2     1000023        24   # BR(~chi_2+ -> ~chi_20  W+)
     1.06177363E-01    2     1000024        25   # BR(~chi_2+ -> ~chi_1+  h )
#
#         PDG            Width
DECAY   1000022     0.00000000E+00   # neutralino1 decays
#
#         PDG            Width
DECAY   1000023     6.79763282E-11   # neutralino2 decays
#          BR         NDA      ID1       ID2
     2.47172957E-01    2     1000022        22   # BR(~chi_20 -> ~chi_10 gam)
#           BR         NDA      ID1       ID2       ID3
     1.24417974E-01    3     1000022        -2         2   # BR(~chi_20 -> ~chi_10 ub      u)
     1.61504944E-01    3     1000022        -1         1   # BR(~chi_20 -> ~chi_10 db      d)
     1.61504944E-01    3     1000022        -3         3   # BR(~chi_20 -> ~chi_10 sb      s)
     3.71057071E-02    3     1000022       -11        11   # BR(~chi_20 -> ~chi_10 e+      e-)
     3.71057071E-02    3     1000022       -13        13   # BR(~chi_20 -> ~chi_10 mu+     mu-)
     7.41947457E-02    3     1000022       -12        12   # BR(~chi_20 -> ~chi_10 nu_eb   nu_e)
     7.41947457E-02    3     1000022       -14        14   # BR(~chi_20 -> ~chi_10 nu_mub  nu_mu)
     7.41947812E-02    3     1000022       -16        16   # BR(~chi_20 -> ~chi_10 nu_taub nu_tau)
     2.58105295E-03    3     1000024        -2         1   # BR(~chi_20 -> ~chi_1+ ub      d)
     2.58105295E-03    3    -1000024        -1         2   # BR(~chi_20 -> ~chi_1- db      u)
     8.60347194E-04    3     1000024       -12        11   # BR(~chi_20 -> ~chi_1+ nu_eb   e-)
     8.60347194E-04    3    -1000024        12       -11   # BR(~chi_20 -> ~chi_1- nu_e    e+)
     8.60347194E-04    3     1000024       -14        13   # BR(~chi_20 -> ~chi_1+ nu_mub  mu-)
     8.60347194E-04    3    -1000024        14       -13   # BR(~chi_20 -> ~chi_1- nu_mu   mu+)
#
#         PDG            Width
DECAY   1000025     3.59900924E+01   # neutralino3 decays
#          BR         NDA      ID1       ID2
     3.75725691E-02    2     1000022        23   # BR(~chi_30 -> ~chi_10   Z )
     6.75361228E-02    2     1000023        23   # BR(~chi_30 -> ~chi_20   Z )
     1.02444501E-01    2     1000024       -24   # BR(~chi_30 -> ~chi_1+   W-)
     1.02444501E-01    2    -1000024        24   # BR(~chi_30 -> ~chi_1-   W+)
     6.81523062E-02    2     1000022        25   # BR(~chi_30 -> ~chi_10   h )
     3.75676155E-02    2     1000023        25   # BR(~chi_30 -> ~chi_20   h )
     7.32608738E-02    2     1000002        -2   # BR(~chi_30 -> ~u_L      ub)
     7.32608738E-02    2    -1000002         2   # BR(~chi_30 -> ~u_L*     u )
     2.32428078E-08    2     2000002        -2   # BR(~chi_30 -> ~u_R      ub)
     2.32428078E-08    2    -2000002         2   # BR(~chi_30 -> ~u_R*     u )
     7.28086580E-02    2     1000001        -1   # BR(~chi_30 -> ~d_L      db)
     7.28086580E-02    2    -1000001         1   # BR(~chi_30 -> ~d_L*     d )
     4.13550039E-10    2     2000001        -1   # BR(~chi_30 -> ~d_R      db)
     4.13550039E-10    2    -2000001         1   # BR(~chi_30 -> ~d_R*     d )
     7.32606422E-02    2     1000004        -4   # BR(~chi_30 -> ~c_L      cb)
     7.32606422E-02    2    -1000004         4   # BR(~chi_30 -> ~c_L*     c )
     2.32427989E-08    2     2000004        -4   # BR(~chi_30 -> ~c_R      cb)
     2.32427989E-08    2    -2000004         4   # BR(~chi_30 -> ~c_R*     c )
     7.28086580E-02    2     1000003        -3   # BR(~chi_30 -> ~s _L      sb)
     7.28086580E-02    2    -1000003         3   # BR(~chi_30 -> ~s _L*     s )
     4.13550039E-10    2     2000003        -3   # BR(~chi_30 -> ~s _R      sb)
     4.13550039E-10    2    -2000003         3   # BR(~chi_30 -> ~s _R*     s )
     2.16769314E-06    2     1000005        -5   # BR(~chi_30 -> ~b_1      bb)
     2.16769314E-06    2    -1000005         5   # BR(~chi_30 -> ~b_1*     b )
     3.24963097E-11    2     2000011       -11   # BR(~chi_30 -> ~e_R-     e+)
     3.24963097E-11    2    -2000011        11   # BR(~chi_30 -> ~e_R+     e-)
     3.24963097E-11    2     2000013       -13   # BR(~chi_30 -> ~mu_R-    mu+)
     3.24963097E-11    2    -2000013        13   # BR(~chi_30 -> ~mu_R+    mu-)
     1.45100335E-07    2     1000015       -15   # BR(~chi_30 -> ~tau_1-   tau+)
     1.45100335E-07    2    -1000015        15   # BR(~chi_30 -> ~tau_1+   tau-)
#
#         PDG            Width
DECAY   1000035     2.93269483E+01   # neutralino4 decays
#          BR         NDA      ID1       ID2
     3.18449362E-02    2     1000022        23   # BR(~chi_40 -> ~chi_10   Z )
     1.16610711E-02    2     1000023        23   # BR(~chi_40 -> ~chi_20   Z )
     4.22543991E-02    2     1000024       -24   # BR(~chi_40 -> ~chi_1+   W-)
     4.22543991E-02    2    -1000024        24   # BR(~chi_40 -> ~chi_1-   W+)
     1.26230801E-02    2     1000022        25   # BR(~chi_40 -> ~chi_10   h )
     3.52089475E-02    2     1000023        25   # BR(~chi_40 -> ~chi_20   h )
     3.70428712E-03    2     1000002        -2   # BR(~chi_40 -> ~u_L      ub)
     3.70428712E-03    2    -1000002         2   # BR(~chi_40 -> ~u_L*     u )
     1.63086581E-01    2     2000002        -2   # BR(~chi_40 -> ~u_R      ub)
     1.63086581E-01    2    -2000002         2   # BR(~chi_40 -> ~u_R*     u )
     3.71654277E-03    2     1000001        -1   # BR(~chi_40 -> ~d_L      db)
     3.71654277E-03    2    -1000001         1   # BR(~chi_40 -> ~d_L*     d )
     3.93047452E-03    2     2000001        -1   # BR(~chi_40 -> ~d_R      db)
     3.93047452E-03    2    -2000001         1   # BR(~chi_40 -> ~d_R*     d )
     3.70427758E-03    2     1000004        -4   # BR(~chi_40 -> ~c_L      cb)
     3.70427758E-03    2    -1000004         4   # BR(~chi_40 -> ~c_L*     c )
     1.63086526E-01    2     2000004        -4   # BR(~chi_40 -> ~c_R      cb)
     1.63086526E-01    2    -2000004         4   # BR(~chi_40 -> ~c_R*     c )
     3.71654277E-03    2     1000003        -3   # BR(~chi_40 -> ~s _L      sb)
     3.71654277E-03    2    -1000003         3   # BR(~chi_40 -> ~s _L*     s )
     3.93047452E-03    2     2000003        -3   # BR(~chi_40 -> ~s _R      sb)
     3.93047452E-03    2    -2000003         3   # BR(~chi_40 -> ~s _R*     s )
     1.50142153E-02    2     1000005        -5   # BR(~chi_40 -> ~b_1      bb)
     1.50142153E-02    2    -1000005         5   # BR(~chi_40 -> ~b_1*     b )
     1.22884545E-03    2     2000011       -11   # BR(~chi_40 -> ~e_R-     e+)
     1.22884545E-03    2    -2000011        11   # BR(~chi_40 -> ~e_R+     e-)
     1.22884545E-03    2     2000013       -13   # BR(~chi_40 -> ~mu_R-    mu+)
     1.22884545E-03    2    -2000013        13   # BR(~chi_40 -> ~mu_R+    mu-)
     4.57289716E-02    2     1000015       -15   # BR(~chi_40 -> ~tau_1-   tau+)
     4.57289716E-02    2    -1000015        15   # BR(~chi_40 -> ~tau_1+   tau-)
#
#         PDG            Width
DECAY        25     4.13962510E-03   # h decays
#          BR         NDA      ID1       ID2
     6.15536756E-01    2           5        -5   # BR(h -> b       bb     )
     6.34354312E-02    2         -15        15   # BR(h -> tau+    tau-   )
     2.24528935E-04    2         -13        13   # BR(h -> mu+     mu-    )
     2.44977513E-04    2           3        -3   # BR(h -> s       sb     )
     2.09032606E-02    2           4        -4   # BR(h -> c       cb     )
     7.64572207E-02    2          21        21   # BR(h -> g       g      )
     2.24735960E-03    2          22        22   # BR(h -> gam     gam    )
     1.46295310E-03    2          22        23   # BR(h -> Z       gam    )
     1.95226111E-01    2          24       -24   # BR(h -> W+      W-     )
     2.42614019E-02    2          23        23   # BR(h -> Z       Z      )
#
#         PDG            Width
DECAY        35     7.90511538E+00   # H decays
#          BR         NDA      ID1       ID2
     8.18225551E-01    2           5        -5   # BR(H -> b       bb     )
     1.49183445E-01    2         -15        15   # BR(H -> tau+    tau-   )
     5.24565922E-04    2         -13        13   # BR(H -> mu+     mu-    )
     3.23846368E-04    2           3        -3   # BR(H -> s       sb     )
     2.81971896E-07    2           4        -4   # BR(H -> c       cb     )
     2.69453118E-02    2           6        -6   # BR(H -> t       tb     )
     2.55668502E-05    2          21        21   # BR(H -> g       g      )
     1.09824488E-08    2          22        22   # BR(H -> gam     gam    )
     2.47167221E-08    2          23        22   # BR(H -> Z       gam    )
     4.14840276E-05    2          24       -24   # BR(H -> W+      W-     )
     2.06352481E-05    2          23        23   # BR(H -> Z       Z      )
     1.60016832E-04    2          25        25   # BR(H -> h       h      )
     3.94223202E-03    2     1000024  -1000024   # BR(H -> ~chi_1+ ~chi_1-)
     4.63624764E-04    2     1000022   1000022   # BR(H -> ~chi_10 ~chi_10)
     1.03493869E-04    2     1000023   1000023   # BR(H -> ~chi_20 ~chi_20)
     3.99082742E-05    2     1000022   1000023   # BR(H -> ~chi_10 ~chi_20)
#
#         PDG            Width
DECAY        36     7.91777826E+00   # A decays
#          BR         NDA      ID1       ID2
     8.17020521E-01    2           5        -5   # BR(A -> b       bb     )
     1.48949513E-01    2         -15        15   # BR(A -> tau+    tau-   )
     5.23741032E-04    2         -13        13   # BR(A -> mu+     mu-    )
     3.23407145E-04    2           3        -3   # BR(A -> s       sb     )
     2.79199330E-07    2           4        -4   # BR(A -> c       cb     )
     2.72791143E-02    2           6        -6   # BR(A -> t       tb     )
     1.46716038E-04    2          21        21   # BR(A -> g       g      )
     8.84620618E-08    2          22        22   # BR(A -> gam     gam    )
     1.05163653E-07    2          23        22   # BR(A -> Z       gam    )
     4.16218906E-05    2          23        25   # BR(A -> Z       h      )
     4.99662476E-03    2     1000024  -1000024   # BR(A -> ~chi_1+ ~chi_1-)
     4.86600814E-04    2     1000022   1000022   # BR(A -> ~chi_10 ~chi_10)
     1.68892828E-04    2     1000023   1000023   # BR(A -> ~chi_20 ~chi_20)
     6.27743465E-05    2     1000022   1000023   # BR(A -> ~chi_10 ~chi_20)
#
#         PDG            Width
DECAY        37     7.43347274E+00   # H+ decays
#          BR         NDA      ID1       ID2
     1.36697590E-03    2           4        -5   # BR(H+ -> c       bb     )
     1.58870819E-01    2         -15        16   # BR(H+ -> tau+    nu_tau )
     5.58626642E-04    2         -13        14   # BR(H+ -> mu+     nu_mu  )
     1.36697045E-05    2           2        -5   # BR(H+ -> u       bb     )
     1.72133252E-05    2           2        -3   # BR(H+ -> u       sb     )
     3.39095350E-04    2           4        -3   # BR(H+ -> c       sb     )
     8.36741591E-01    2           6        -5   # BR(H+ -> t       bb     )
     4.46107039E-05    2          24        25   # BR(H+ -> W+      h      )
     1.05501275E-11    2          24        36   # BR(H+ -> W+      A      )
     6.92310368E-04    2     1000024   1000022   # BR(H+ -> ~chi_1+ ~chi_10)
     1.35508719E-03    2     1000024   1000023   # BR(H+ -> ~chi_1+ ~chi_20)
