#
#                              ======================
#                              | THE SUSYHIT OUTPUT |
#                              ======================
#
#
#              ------------------------------------------------------
#              |     This is the output of the SUSY-HIT package     |
#              |  created by A.Djouadi, M.Muehlleitner and M.Spira. |
#              |  In case of problems with SUSY-HIT email to        |
#              |           margarete.muehlleitner@cern.ch           |
#              |           michael.spira@psi.ch                     |
#              |           abdelhak.djouadi@cern.ch                 |
#              ------------------------------------------------------
#
#              ------------------------------------------------------
#              |  SUSY Les Houches Accord - MSSM Spectrum + Decays  |
#              |              based on the decay programs           |
#              |                                                    |
#              |                     SDECAY 1.3b                    |
#              |                                                    |
#              |  Authors: M.Muhlleitner, A.Djouadi and Y.Mambrini  |
#              |  Ref.:    Comput.Phys.Commun.168(2005)46           |
#              |           [hep-ph/0311167]                         |
#              |                                                    |
#              |                     HDECAY 3.4                     |
#              |                                                    |
#              |  By: A.Djouadi,J.Kalinowski,M.Muhlleitner,M.Spira  |
#              |  Ref.:    Comput.Phys.Commun.108(1998)56           |
#              |           [hep-ph/9704448]                         |
#              |                                                    |
#              |                                                    |
#              |  If not stated otherwise all DRbar couplings and   |
#              |  soft SUSY breaking masses are given at the scale  |
#              |  Q=  0.16963760E+04
#              |                                                    |
#              ------------------------------------------------------
#
#
BLOCK DCINFO  # Decay Program information
     1   SDECAY/HDECAY # decay calculator
     2   1.3b  /3.4    # version number
#
BLOCK SPINFO  # Spectrum calculator information
     1     SOFTSUSY    # spectrum calculator               
     2     3.4.0       # version number                    
#
BLOCK MODSEL  # Model selection
     1     0   #  nonUniversal                                     
#
BLOCK SMINPUTS  # Standard Model inputs
         1     1.27908970E+02   # alpha_em^-1(M_Z)^MSbar
         2     1.16637870E-05   # G_F [GeV^-2]
         3     1.18400000E-01   # alpha_S(M_Z)^MSbar
         4     9.11876000E+01   # M_Z pole mass
         5     4.18000000E+00   # mb(mb)^MSbar
         6     1.73200000E+02   # mt pole mass
         7     1.77700000E+00   # mtau pole mass
#
BLOCK MINPAR  # Input parameters - minimal models
         3     2.68600000E+01   # tanb                
#
BLOCK EXTPAR  # Input parameters - non-minimal models
         0    -1.00000000E+00   # Set                 
         1     1.25039000E+03   # M_1(MX)             
         2     1.34423000E+03   # M_2(MX)             
         3     3.09305000E+03   # M_3(MX)             
        11    -4.84729000E+03   # At(MX)              
        12     6.85440000E+02   # Ab(MX)              
        13     1.82829000E+03   # Atau(MX)            
        23    -3.17140000E+02   # mu(MX)              
        26     2.76218000E+03   # mA(pole)            
        31     1.09280000E+03   # meL(MX)             
        32     1.09280000E+03   # mmuL(MX)            
        33     2.47208000E+03   # mtauL(MX)           
        34     3.26153000E+03   # meR(MX)             
        35     3.26153000E+03   # mmuR(MX)            
        36     2.32827000E+03   # mtauR(MX)           
        41     3.71610000E+02   # mqL1(MX)            
        42     3.71610000E+02   # mqL2(MX)            
        43     1.17434000E+03   # mqL3(MX)            
        44     3.07878000E+03   # muR(MX)             
        45     3.07878000E+03   # mcR(MX)             
        46     2.49875000E+03   # mtR(MX)             
        47     1.71176000E+03   # mdR(MX)             
        48     1.71176000E+03   # msR(MX)             
        49     3.98573000E+03   # mbR(MX)             
#
BLOCK MASS  # Mass Spectrum
# PDG code           mass       particle
        24     8.03693134E+01   # W+
        25     1.26493808E+02   # h
        35     2.76218210E+03   # H
        36     2.76217997E+03   # A
        37     2.76369306E+03   # H+
         5     4.81876030E+00   # b-quark pole mass calculated from mb(mb)_Msbar
   1000001     3.36940490E+02   # ~d_L
   2000001     1.74700120E+03   # ~d_R
   1000002     3.27525856E+02   # ~u_L
   2000002     3.12271148E+03   # ~u_R
   1000003     3.36940490E+02   # ~s_L
   2000003     1.74700120E+03   # ~s_R
   1000004     3.27525856E+02   # ~c_L
   2000004     3.12271148E+03   # ~c_R
   1000005     1.18636584E+03   # ~b_1
   2000005     4.01261379E+03   # ~b_2
   1000006     1.14747318E+03   # ~t_1
   2000006     2.48207144E+03   # ~t_2
   1000011     1.10775957E+03   # ~e_L
   2000011     3.26545346E+03   # ~e_R
   1000012     1.10478030E+03   # ~nu_eL
   1000013     1.10775957E+03   # ~mu_L
   2000013     3.26545346E+03   # ~mu_R
   1000014     1.10478030E+03   # ~nu_muL
   1000015     2.33142388E+03   # ~tau_1
   2000015     2.47765883E+03   # ~tau_2
   1000016     2.47606277E+03   # ~nu_tauL
   1000021     3.09576847E+03   # ~g
   1000022     3.25131800E+02   # ~chi_10
   1000023    -3.32242132E+02   # ~chi_20
   1000025     1.25073728E+03   # ~chi_30
   1000035     1.33943629E+03   # ~chi_40
   1000024     3.28757123E+02   # ~chi_1+
   1000037     1.33954985E+03   # ~chi_2+
#
BLOCK NMIX  # Neutralino Mixing Matrix
  1  1    -3.19792050E-02   # N_11
  1  2     5.30537162E-02   # N_12
  1  3     7.10446186E-01   # N_13
  1  4     7.01019864E-01   # N_14
  2  1    -2.03155079E-02   # N_21
  2  2     3.51120939E-02   # N_22
  2  3    -7.03580289E-01   # N_23
  2  4     7.09456974E-01   # N_24
  3  1     9.98402791E-01   # N_31
  3  2     4.42649212E-02   # N_32
  3  3     7.87787859E-03   # N_33
  3  4     3.42114416E-02   # N_34
  4  1    -4.19103513E-02   # N_41
  4  2     9.96992006E-01   # N_42
  4  3    -1.33765835E-02   # N_43
  4  4    -6.38085312E-02   # N_44
#
BLOCK UMIX  # Chargino Mixing Matrix U
  1  1     1.85647180E-02   # U_11
  1  2     9.99827661E-01   # U_12
  2  1    -9.99827661E-01   # U_21
  2  2     1.85647180E-02   # U_22
#
BLOCK VMIX  # Chargino Mixing Matrix V
  1  1     8.84744858E-02   # V_11
  1  2    -9.96078443E-01   # V_12
  2  1    -9.96078443E-01   # V_21
  2  2    -8.84744858E-02   # V_22
#
BLOCK STOPMIX  # Stop Mixing Matrix
  1  1     9.88837308E-01   # cos(theta_t)
  1  2     1.48999256E-01   # sin(theta_t)
  2  1    -1.48999256E-01   # -sin(theta_t)
  2  2     9.88837308E-01   # cos(theta_t)
#
BLOCK SBOTMIX  # Sbottom Mixing Matrix
  1  1     9.99999118E-01   # cos(theta_b)
  1  2    -1.32815632E-03   # sin(theta_b)
  2  1     1.32815632E-03   # -sin(theta_b)
  2  2     9.99999118E-01   # cos(theta_b)
#
BLOCK STAUMIX  # Stau Mixing Matrix
  1  1    -2.55250632E-02   # cos(theta_tau)
  1  2     9.99674182E-01   # sin(theta_tau)
  2  1    -9.99674182E-01   # -sin(theta_tau)
  2  2    -2.55250632E-02   # cos(theta_tau)
#
BLOCK ALPHA  # Higgs mixing
          -3.85059140E-02   # Mixing angle in the neutral Higgs boson sector
#
BLOCK HMIX Q=  1.69637600E+03  # DRbar Higgs Parameters
         1    -3.20995618E+02   # mu(Q)MSSM           
         2     2.60250505E+01   # tan                 
         3     2.42351784E+02   # higgs               
         4     7.43435528E+06   # mA^2(Q)MSSM         
#
BLOCK GAUGE Q=  1.69637600E+03  # The gauge couplings
     1     3.63284208E-01   # gprime(Q) DRbar
     2     6.39767882E-01   # g(Q) DRbar
     3     1.02576682E+00   # g3(Q) DRbar
#
BLOCK AU Q=  1.69637600E+03  # The trilinear couplings
  1  1     0.00000000E+00   # A_u(Q) DRbar
  2  2     0.00000000E+00   # A_c(Q) DRbar
  3  3    -4.84728999E+03   # A_t(Q) DRbar
#
BLOCK AD Q=  1.69637600E+03  # The trilinear couplings
  1  1     0.00000000E+00   # A_d(Q) DRbar
  2  2     0.00000000E+00   # A_s(Q) DRbar
  3  3     6.85440003E+02   # A_b(Q) DRbar
#
BLOCK AE Q=  1.69637600E+03  # The trilinear couplings
  1  1     0.00000000E+00   # A_e(Q) DRbar
  2  2     0.00000000E+00   # A_mu(Q) DRbar
  3  3     1.82829000E+03   # A_tau(Q) DRbar
#
BLOCK Yu Q=  1.69637600E+03  # The Yukawa couplings
  1  1     0.00000000E+00   # y_u(Q) DRbar
  2  2     0.00000000E+00   # y_c(Q) DRbar
  3  3     8.20940011E-01   # y_t(Q) DRbar
#
BLOCK Yd Q=  1.69637600E+03  # The Yukawa couplings
  1  1     0.00000000E+00   # y_d(Q) DRbar
  2  2     0.00000000E+00   # y_s(Q) DRbar
  3  3     3.47498338E-01   # y_b(Q) DRbar
#
BLOCK Ye Q=  1.69637600E+03  # The Yukawa couplings
  1  1     0.00000000E+00   # y_e(Q) DRbar
  2  2     0.00000000E+00   # y_mu(Q) DRbar
  3  3     2.63599868E-01   # y_tau(Q) DRbar
#
BLOCK MSOFT Q=  1.69637600E+03  # The soft SUSY breaking masses at the scale Q
         1     1.25039000E+03   # M_1(Q)              
         2     1.34423000E+03   # M_2(Q)              
         3     3.09305000E+03   # M_3(Q)              
        21     7.48856613E+06   # mH1^2(Q)            
        22    -1.48614592E+05   # mH2^2(Q)            
        31     1.09280000E+03   # meL(Q)              
        32     1.09280000E+03   # mmuL(Q)             
        33     2.47208000E+03   # mtauL(Q)            
        34     3.26153000E+03   # meR(Q)              
        35     3.26153000E+03   # mmuR(Q)             
        36     2.32827000E+03   # mtauR(Q)            
        41     3.71609971E+02   # mqL1(Q)             
        42     3.71609971E+02   # mqL2(Q)             
        43     1.17433998E+03   # mqL3(Q)             
        44     3.07878000E+03   # muR(Q)              
        45     3.07878000E+03   # mcR(Q)              
        46     2.49874999E+03   # mtR(Q)              
        47     1.71175999E+03   # mdR(Q)              
        48     1.71175999E+03   # msR(Q)              
        49     3.98573000E+03   # mbR(Q)              
#
Block HiggsBoundsInputHiggsCouplingsFermions
# ScalarNormEffCoupSq PseudoSNormEffCoupSq NP   IP1 IP2 IP2
    1.00522694E+00    0.00000000E+00        3  25   5   5  # h0-b-b eff. coupling^2, normalised to SM
    6.77298027E+02    0.00000000E+00        3  35   5   5  # H0-b-b eff. coupling^2, normalised to SM
    0.00000000E+00    6.77303254E+02        3  36   5   5  # A0-b-b eff. coupling^2, normalised to SM
#
    9.99992283E-01    0.00000000E+00        3  25   6   6  # h0-t-t eff. coupling^2, normalised to SM
    1.48416080E-03    0.00000000E+00        3  35   6   6  # H0-t-t eff. coupling^2, normalised to SM
    0.00000000E+00    1.47644352E-03        3  36   6   6  # A0-t-t eff. coupling^2, normalised to SM
#
    1.00522694E+00    0.00000000E+00        3  25  15  15  # h0-tau-tau eff. coupling^2, normalised to SM
    6.77298027E+02    0.00000000E+00        3  35  15  15  # H0-tau-tau eff. coupling^2, normalised to SM
    0.00000000E+00    6.77303254E+02        3  36  15  15  # A0-tau-tau eff. coupling^2, normalised to SM
#
Block HiggsBoundsInputHiggsCouplingsBosons
    9.99999990E-01        3  25  24  24  # h0-W-W eff. coupling^2, normalised to SM
    1.00582105E-08        3  35  24  24  # H0-W-W eff. coupling^2, normalised to SM
    0.00000000E+00        3  36  24  24  # A0-W-W eff. coupling^2, normalised to SM
#
    9.99999990E-01        3  25  23  23  # h0-Z-Z eff. coupling^2, normalised to SM
    1.00582105E-08        3  35  23  23  # H0-Z-Z eff. coupling^2, normalised to SM
    0.00000000E+00        3  36  23  23  # A0-Z-Z eff. coupling^2, normalised to SM
#
    8.55236926E-01        3  25  21  21  # h0-g-g eff. coupling^2, normalised to SM
    2.52295328E-13        3  35  21  21  # H0-g-g eff. coupling^2, normalised to SM
    3.84096331E-12        3  36  21  21  # A0-g-g eff. coupling^2, normalised to SM
#
    0.00000000E+00        3  25  25  23  # h0-h0-Z eff. coupling^2, normalised to SM
    0.00000000E+00        3  35  25  23  # H0-h0-Z eff. coupling^2, normalised to SM
    1.00582105E-08        3  36  25  23  # A0-h0-Z eff. coupling^2, normalised to SM
    0.00000000E+00        3  35  35  23  # H0-H0-Z eff. coupling^2, normalised to SM
    9.99999990E-01        3  36  35  23  # A0-H0-Z eff. coupling^2, normalised to SM
    0.00000000E+00        3  36  36  23  # A0-A0-Z eff. coupling^2, normalised to SM
#
    0.00000000E+00        4  25  21  21  23  # h0-g-g-Z eff. coupling^2, normalised to SM
    0.00000000E+00        4  35  21  21  23  # H0-g-g-Z eff. coupling^2, normalised to SM
    0.00000000E+00        4  36  21  21  23  # A0-g-g-Z eff. coupling^2, normalised to SM
#
#
#
#                             =================
#                             |The decay table|
#                             =================
#
# - The QCD corrections to the decays gluino -> squark  + quark
#                                     squark -> gaugino + quark_prime
#                                     squark -> squark_prime + Higgs
#                                     squark -> gluino  + quark
#   are included.
#
# - The multi-body decays for the inos, stops and sbottoms are included.
#
# - The loop induced decays for the gluino, neutralinos and stops
#   are included.
#
# - The SUSY decays of the top quark are included.
#
#
#         PDG            Width
DECAY         6     1.44242621E+00   # top decays
#          BR         NDA      ID1       ID2
     1.00000000E+00    2           5        24   # BR(t ->  b    W+)
#
#         PDG            Width
DECAY   1000021     4.02805770E+02   # gluino decays
#          BR         NDA      ID1       ID2
     7.60745252E-02    2     1000001        -1   # BR(~g -> ~d_L  db)
     7.60745252E-02    2    -1000001         1   # BR(~g -> ~d_L* d )
     3.61890935E-02    2     2000001        -1   # BR(~g -> ~d_R  db)
     3.61890935E-02    2    -2000001         1   # BR(~g -> ~d_R* d )
     7.61750626E-02    2     1000002        -2   # BR(~g -> ~u_L  ub)
     7.61750626E-02    2    -1000002         2   # BR(~g -> ~u_L* u )
     7.60745252E-02    2     1000003        -3   # BR(~g -> ~s_L  sb)
     7.60745252E-02    2    -1000003         3   # BR(~g -> ~s_L* s )
     3.61890935E-02    2     2000003        -3   # BR(~g -> ~s_R  sb)
     3.61890935E-02    2    -2000003         3   # BR(~g -> ~s_R* s )
     7.61750621E-02    2     1000004        -4   # BR(~g -> ~c_L  cb)
     7.61750621E-02    2    -1000004         4   # BR(~g -> ~c_L* c )
     5.66521017E-02    2     1000005        -5   # BR(~g -> ~b_1  bb)
     5.66521017E-02    2    -1000005         5   # BR(~g -> ~b_1* b )
     5.58852177E-02    2     1000006        -6   # BR(~g -> ~t_1  tb)
     5.58852177E-02    2    -1000006         6   # BR(~g -> ~t_1* t )
     1.05853187E-02    2     2000006        -6   # BR(~g -> ~t_2  tb)
     1.05853187E-02    2    -2000006         6   # BR(~g -> ~t_2* t )
#
#         PDG            Width
DECAY   1000006     1.52610285E+01   # stop1 decays
#          BR         NDA      ID1       ID2
     3.89896029E-01    2     1000022         6   # BR(~t_1 -> ~chi_10 t )
     4.21095379E-01    2     1000023         6   # BR(~t_1 -> ~chi_20 t )
     1.89008592E-01    2     1000024         5   # BR(~t_1 -> ~chi_1+ b )
#
#         PDG            Width
DECAY   2000006     2.60534158E+02   # stop2 decays
#          BR         NDA      ID1       ID2
     5.93462795E-02    2     1000022         6   # BR(~t_2 -> ~chi_10 t )
     6.04205954E-02    2     1000023         6   # BR(~t_2 -> ~chi_20 t )
     1.22434988E-02    2     1000025         6   # BR(~t_2 -> ~chi_30 t )
     1.40766417E-03    2     1000035         6   # BR(~t_2 -> ~chi_40 t )
     1.17608851E-01    2     1000024         5   # BR(~t_2 -> ~chi_1+ b )
     2.64782466E-03    2     1000037         5   # BR(~t_2 -> ~chi_2+ b )
     1.72637216E-01    2     1000006        25   # BR(~t_2 -> ~t_1    h )
     1.98919823E-01    2     1000006        23   # BR(~t_2 -> ~t_1    Z )
     3.74768248E-01    2     1000005        24   # BR(~t_2 -> ~b_1    W+)
#
#         PDG            Width
DECAY   1000005     1.52042798E+01   # sbottom1 decays
#          BR         NDA      ID1       ID2
     8.19514967E-02    2     1000022         5   # BR(~b_1 -> ~chi_10 b )
     7.92245524E-02    2     1000023         5   # BR(~b_1 -> ~chi_20 b )
     8.38823951E-01    2    -1000024         6   # BR(~b_1 -> ~chi_1- t )
#
#         PDG            Width
DECAY   2000005     5.78093274E+01   # sbottom2 decays
#          BR         NDA      ID1       ID2
     8.30752029E-02    2     1000022         5   # BR(~b_2 -> ~chi_10 b )
     8.14527893E-02    2     1000023         5   # BR(~b_2 -> ~chi_20 b )
     3.29153289E-02    2     1000025         5   # BR(~b_2 -> ~chi_30 b )
     8.62632795E-05    2     1000035         5   # BR(~b_2 -> ~chi_40 b )
     1.63835021E-01    2    -1000024         6   # BR(~b_2 -> ~chi_1- t )
     5.78976142E-05    2    -1000037         6   # BR(~b_2 -> ~chi_2- t )
     6.34815467E-01    2     1000021         5   # BR(~b_2 -> ~g      b )
     5.69123180E-04    2     1000005        25   # BR(~b_2 -> ~b_1    h )
     3.83396311E-04    2     1000005        35   # BR(~b_2 -> ~b_1    H )
     3.83455605E-04    2     1000005        36   # BR(~b_2 -> ~b_1    A )
     9.96254645E-04    2     1000006       -37   # BR(~b_2 -> ~t_1    H-)
     4.84108888E-04    2     1000005        23   # BR(~b_2 -> ~b_1    Z )
     9.39227125E-04    2     1000006       -24   # BR(~b_2 -> ~t_1    W-)
     6.46342889E-06    2     2000006       -24   # BR(~b_2 -> ~t_2    W-)
#
#         PDG            Width
DECAY   1000002     7.77691117E-07   # sup_L decays
#          BR         NDA      ID1       ID2
     1.00000000E+00    2     1000022         2   # BR(~u_L -> ~chi_10 u)
#
#         PDG            Width
DECAY   2000002     5.02227251E+00   # sup_R decays
#          BR         NDA      ID1       ID2
     1.39137740E-03    2     1000022         2   # BR(~u_R -> ~chi_10 u)
     5.60999882E-04    2     1000023         2   # BR(~u_R -> ~chi_20 u)
     9.81996097E-01    2     1000025         2   # BR(~u_R -> ~chi_30 u)
     1.63558775E-03    2     1000035         2   # BR(~u_R -> ~chi_40 u)
     1.44159378E-02    2     1000021         2   # BR(~u_R -> ~g      u)
#
#         PDG            Width
DECAY   1000001     3.10496808E-05   # sdown_L decays
#          BR         NDA      ID1       ID2
     8.54685424E-01    2     1000022         1   # BR(~d_L -> ~chi_10 d)
     6.22695848E-02    2     1000023         1   # BR(~d_L -> ~chi_20 d)
     8.30449915E-02    2    -1000024         2   # BR(~d_L -> ~chi_1- u)
#
#         PDG            Width
DECAY   2000001     2.48061821E-01   # sdown_R decays
#          BR         NDA      ID1       ID2
     3.94844822E-03    2     1000022         1   # BR(~d_R -> ~chi_10 d)
     1.58849496E-03    2     1000023         1   # BR(~d_R -> ~chi_20 d)
     9.93206353E-01    2     1000025         1   # BR(~d_R -> ~chi_30 d)
     1.25670420E-03    2     1000035         1   # BR(~d_R -> ~chi_40 d)
#
#         PDG            Width
DECAY   1000004     4.64132121E-07   # scharm_L decays
#          BR         NDA      ID1       ID2
     1.00000000E+00    2     1000022         4   # BR(~c_L -> ~chi_10 c)
#
#         PDG            Width
DECAY   2000004     5.19088290E+00   # scharm_R decays
#          BR         NDA      ID1       ID2
     1.40484698E-03    2     1000022         4   # BR(~c_R -> ~chi_10 c)
     5.66406273E-04    2     1000023         4   # BR(~c_R -> ~chi_20 c)
     9.86490796E-01    2     1000025         4   # BR(~c_R -> ~chi_30 c)
     1.64210484E-03    2     1000035         4   # BR(~c_R -> ~chi_40 c)
     9.89584573E-03    2     1000021         4   # BR(~c_R -> ~g      c)
#
#         PDG            Width
DECAY   1000003     2.64606505E-05   # sstrange_L decays
#          BR         NDA      ID1       ID2
     8.58959690E-01    2     1000022         3   # BR(~s_L -> ~chi_10 s)
     6.03456903E-02    2     1000023         3   # BR(~s_L -> ~chi_20 s)
     8.06946195E-02    2    -1000024         4   # BR(~s_L -> ~chi_1- c)
#
#         PDG            Width
DECAY   2000003     2.43076552E-01   # sstrange_R decays
#          BR         NDA      ID1       ID2
     3.99648318E-03    2     1000022         3   # BR(~s_R -> ~chi_10 s)
     1.60775167E-03    2     1000023         3   # BR(~s_R -> ~chi_20 s)
     9.93144529E-01    2     1000025         3   # BR(~s_R -> ~chi_30 s)
     1.25123573E-03    2     1000035         3   # BR(~s_R -> ~chi_40 s)
#
#         PDG            Width
DECAY   1000011     9.24782545E-03   # selectron_L decays
#          BR         NDA      ID1       ID2
     4.95935766E-01    2     1000022        11   # BR(~e_L -> ~chi_10 e-)
     2.24504533E-01    2     1000023        11   # BR(~e_L -> ~chi_20 e-)
     2.79559701E-01    2    -1000024        12   # BR(~e_L -> ~chi_1- nu_e)
#
#         PDG            Width
DECAY   2000011     1.24902919E+01   # selectron_R decays
#          BR         NDA      ID1       ID2
     1.37627619E-03    2     1000022        11   # BR(~e_R -> ~chi_10 e-)
     5.54933575E-04    2     1000023        11   # BR(~e_R -> ~chi_20 e-)
     9.96400577E-01    2     1000025        11   # BR(~e_R -> ~chi_30 e-)
     1.66821293E-03    2     1000035        11   # BR(~e_R -> ~chi_40 e-)
#
#         PDG            Width
DECAY   1000013     9.24782531E-03   # smuon_L decays
#          BR         NDA      ID1       ID2
     4.95935763E-01    2     1000022        13   # BR(~mu_L -> ~chi_10 mu-)
     2.24504532E-01    2     1000023        13   # BR(~mu_L -> ~chi_20 mu-)
     2.79559705E-01    2    -1000024        14   # BR(~mu_L -> ~chi_1- nu_mu)
#
#         PDG            Width
DECAY   2000013     1.24902918E+01   # smuon_R decays
#          BR         NDA      ID1       ID2
     1.37627619E-03    2     1000022        13   # BR(~mu_R -> ~chi_10 mu-)
     5.54933575E-04    2     1000023        13   # BR(~mu_R -> ~chi_20 mu-)
     9.96400577E-01    2     1000025        13   # BR(~mu_R -> ~chi_30 mu-)
     1.66821293E-03    2     1000035        13   # BR(~mu_R -> ~chi_40 mu-)
#
#         PDG            Width
DECAY   1000015     1.24170346E+01   # stau_1 decays
#          BR         NDA      ID1       ID2
     1.28039736E-01    2     1000022        15   # BR(~tau_1 -> ~chi_10  tau-)
     1.22995110E-01    2     1000023        15   # BR(~tau_1 -> ~chi_20  tau-)
     4.98217655E-01    2     1000025        15   # BR(~tau_1 -> ~chi_30  tau-)
     8.70712569E-04    2     1000035        15   # BR(~tau_1 -> ~chi_40  tau-)
     2.49657600E-01    2    -1000024        16   # BR(~tau_1 -> ~chi_1-  nu_tau)
     2.19186893E-04    2    -1000037        16   # BR(~tau_1 -> ~chi_2-  nu_tau)
#
#         PDG            Width
DECAY   2000015     2.03027972E+01   # stau_2 decays
#          BR         NDA      ID1       ID2
     8.21037573E-02    2     1000022        15   # BR(~tau_2 -> ~chi_10  tau-)
     8.12692936E-02    2     1000023        15   # BR(~tau_2 -> ~chi_20  tau-)
     1.03277289E-01    2     1000025        15   # BR(~tau_2 -> ~chi_30  tau-)
     2.35670720E-01    2     1000035        15   # BR(~tau_2 -> ~chi_40  tau-)
     6.20477394E-05    2    -1000024        16   # BR(~tau_2 -> ~chi_1-  nu_tau)
     4.97383105E-01    2    -1000037        16   # BR(~tau_2 -> ~chi_2-  nu_tau)
     1.20409337E-04    2     1000015        25   # BR(~tau_2 -> ~tau_1   h)
     1.13378188E-04    2     1000015        23   # BR(~tau_2 -> ~tau_1   Z)
#
#         PDG            Width
DECAY   1000012     8.56272369E-02   # snu_eL decays
#          BR         NDA      ID1       ID2
     2.22247411E-01    2     1000022        12   # BR(~nu_eL -> ~chi_10 nu_e)
     9.45667346E-02    2     1000023        12   # BR(~nu_eL -> ~chi_20 nu_e)
     6.83185855E-01    2     1000024        11   # BR(~nu_eL -> ~chi_1+ e-)
#
#         PDG            Width
DECAY   1000014     8.56272357E-02   # snu_muL decays
#          BR         NDA      ID1       ID2
     2.22247414E-01    2     1000022        14   # BR(~nu_muL -> ~chi_10 nu_mu)
     9.45667360E-02    2     1000023        14   # BR(~nu_muL -> ~chi_20 nu_mu)
     6.83185850E-01    2     1000024        13   # BR(~nu_muL -> ~chi_1+ mu-)
#
#         PDG            Width
DECAY   1000016     2.03230017E+01   # snu_tauL decays
#          BR         NDA      ID1       ID2
     2.42955491E-03    2     1000022        16   # BR(~nu_tauL -> ~chi_10 nu_tau)
     1.04088730E-03    2     1000023        16   # BR(~nu_tauL -> ~chi_20 nu_tau)
     7.51787743E-02    2     1000025        16   # BR(~nu_tauL -> ~chi_30 nu_tau)
     2.58632740E-01    2     1000035        16   # BR(~nu_tauL -> ~chi_40 nu_tau)
     1.69986168E-01    2     1000024        15   # BR(~nu_tauL -> ~chi_1+ tau-)
     4.92474775E-01    2     1000037        15   # BR(~nu_tauL -> ~chi_2+ tau-)
     2.57100669E-04    2    -1000015       -24   # BR(~nu_tauL -> ~tau_1+ W-)
#
#         PDG            Width
DECAY   1000024     4.39757084E-06   # chargino1+ decays
#          BR         NDA      ID1       ID2
     5.10798082E-01    2     1000002        -1   # BR(~chi_1+ -> ~u_L     db)
     4.89201918E-01    2     1000004        -3   # BR(~chi_1+ -> ~c_L     sb)
#
#         PDG            Width
DECAY   1000037     7.22190705E+01   # chargino2+ decays
#          BR         NDA      ID1       ID2
     2.03193257E-01    2     1000002        -1   # BR(~chi_2+ -> ~u_L     db)
     2.03221645E-01    2    -1000001         2   # BR(~chi_2+ -> ~d_L*    u )
     2.03193255E-01    2     1000004        -3   # BR(~chi_2+ -> ~c_L     sb)
     2.03221604E-01    2    -1000003         4   # BR(~chi_2+ -> ~s_L*     c )
     1.50524752E-02    2     1000006        -5   # BR(~chi_2+ -> ~t_1     bb)
     7.66314120E-03    2     1000012       -11   # BR(~chi_2+ -> ~nu_eL   e+  )
     7.66314120E-03    2     1000014       -13   # BR(~chi_2+ -> ~nu_muL mu+ )
     7.54457848E-03    2    -1000011        12   # BR(~chi_2+ -> ~e_L+    nu_e)
     7.54457848E-03    2    -1000013        14   # BR(~chi_2+ -> ~mu_L+   nu_mu)
     3.61547060E-02    2     1000024        23   # BR(~chi_2+ -> ~chi_1+  Z )
     3.47503750E-02    2     1000022        24   # BR(~chi_2+ -> ~chi_10  W+)
     3.55419079E-02    2     1000023        24   # BR(~chi_2+ -> ~chi_20  W+)
     1.27683957E-05    2     1000025        24   # BR(~chi_2+ -> ~chi_30  W+)
     3.52425662E-02    2     1000024        25   # BR(~chi_2+ -> ~chi_1+  h )
#
#         PDG            Width
DECAY   1000022     0.00000000E+00   # neutralino1 decays
#
#         PDG            Width
DECAY   1000023     7.44833552E-06   # neutralino2 decays
#          BR         NDA      ID1       ID2
     2.56193414E-01    2     1000002        -2   # BR(~chi_20 -> ~u_L      ub)
     2.56193414E-01    2    -1000002         2   # BR(~chi_20 -> ~u_L*     u )
     2.43806586E-01    2     1000004        -4   # BR(~chi_20 -> ~c_L      cb)
     2.43806586E-01    2    -1000004         4   # BR(~chi_20 -> ~c_L*     c )
#
#         PDG            Width
DECAY   1000025     5.25187747E+00   # neutralino3 decays
#          BR         NDA      ID1       ID2
     3.33633741E-02    2     1000022        23   # BR(~chi_30 -> ~chi_10   Z )
     8.52332967E-02    2     1000023        23   # BR(~chi_30 -> ~chi_20   Z )
     1.55874782E-01    2     1000024       -24   # BR(~chi_30 -> ~chi_1+   W-)
     1.55874782E-01    2    -1000024        24   # BR(~chi_30 -> ~chi_1-   W+)
     8.59565109E-02    2     1000022        25   # BR(~chi_30 -> ~chi_10   h )
     3.45453509E-02    2     1000023        25   # BR(~chi_30 -> ~chi_20   h )
     7.04380888E-02    2     1000002        -2   # BR(~chi_30 -> ~u_L      ub)
     7.04380888E-02    2    -1000002         2   # BR(~chi_30 -> ~u_L*     u )
     2.68837941E-02    2     1000001        -1   # BR(~chi_30 -> ~d_L      db)
     2.68837941E-02    2    -1000001         1   # BR(~chi_30 -> ~d_L*     d )
     7.04380710E-02    2     1000004        -4   # BR(~chi_30 -> ~c_L      cb)
     7.04380710E-02    2    -1000004         4   # BR(~chi_30 -> ~c_L*     c )
     2.68837941E-02    2     1000003        -3   # BR(~chi_30 -> ~s _L      sb)
     2.68837941E-02    2    -1000003         3   # BR(~chi_30 -> ~s _L*     s )
     3.07713518E-04    2     1000005        -5   # BR(~chi_30 -> ~b_1      bb)
     3.07713518E-04    2    -1000005         5   # BR(~chi_30 -> ~b_1*     b )
     8.41530194E-03    2     1000011       -11   # BR(~chi_30 -> ~e_L-     e+)
     8.41530194E-03    2    -1000011        11   # BR(~chi_30 -> ~e_L+     e-)
     8.41530194E-03    2     1000013       -13   # BR(~chi_30 -> ~mu_L-    mu+)
     8.41530194E-03    2    -1000013        13   # BR(~chi_30 -> ~mu_L+    mu-)
     6.39694323E-03    2     1000012       -12   # BR(~chi_30 -> ~nu_eL    nu_eb)
     6.39694323E-03    2    -1000012        12   # BR(~chi_30 -> ~nu_eL*   nu_e )
     6.39694323E-03    2     1000014       -14   # BR(~chi_30 -> ~nu_muL   nu_mub)
     6.39694323E-03    2    -1000014        14   # BR(~chi_30 -> ~nu_muL*  nu_mu )
#
#         PDG            Width
DECAY   1000035     7.21616683E+01   # neutralino4 decays
#          BR         NDA      ID1       ID2
     1.12348918E-02    2     1000022        23   # BR(~chi_40 -> ~chi_10   Z )
     2.64352701E-02    2     1000023        23   # BR(~chi_40 -> ~chi_20   Z )
     3.39549206E-02    2     1000024       -24   # BR(~chi_40 -> ~chi_1+   W-)
     3.39549206E-02    2    -1000024        24   # BR(~chi_40 -> ~chi_1-   W+)
     2.51723820E-02    2     1000022        25   # BR(~chi_40 -> ~chi_10   h )
     1.09335488E-02    2     1000023        25   # BR(~chi_40 -> ~chi_20   h )
     1.00239263E-01    2     1000002        -2   # BR(~chi_40 -> ~u_L      ub)
     1.00239263E-01    2    -1000002         2   # BR(~chi_40 -> ~u_L*     u )
     1.02720522E-01    2     1000001        -1   # BR(~chi_40 -> ~d_L      db)
     1.02720522E-01    2    -1000001         1   # BR(~chi_40 -> ~d_L*     d )
     1.00239244E-01    2     1000004        -4   # BR(~chi_40 -> ~c_L      cb)
     1.00239244E-01    2    -1000004         4   # BR(~chi_40 -> ~c_L*     c )
     1.02720522E-01    2     1000003        -3   # BR(~chi_40 -> ~s _L      sb)
     1.02720522E-01    2    -1000003         3   # BR(~chi_40 -> ~s _L*     s )
     2.72364357E-03    2     1000006        -6   # BR(~chi_40 -> ~t_1      tb)
     2.72364357E-03    2    -1000006         6   # BR(~chi_40 -> ~t_1*     t )
     5.31802540E-03    2     1000005        -5   # BR(~chi_40 -> ~b_1      bb)
     5.31802540E-03    2    -1000005         5   # BR(~chi_40 -> ~b_1*     b )
     3.57390605E-03    2     1000011       -11   # BR(~chi_40 -> ~e_L-     e+)
     3.57390605E-03    2    -1000011        11   # BR(~chi_40 -> ~e_L+     e-)
     3.57390605E-03    2     1000013       -13   # BR(~chi_40 -> ~mu_L-    mu+)
     3.57390605E-03    2    -1000013        13   # BR(~chi_40 -> ~mu_L+    mu-)
     4.02400012E-03    2     1000012       -12   # BR(~chi_40 -> ~nu_eL    nu_eb)
     4.02400012E-03    2    -1000012        12   # BR(~chi_40 -> ~nu_eL*   nu_e )
     4.02400012E-03    2     1000014       -14   # BR(~chi_40 -> ~nu_muL   nu_mub)
     4.02400012E-03    2    -1000014        14   # BR(~chi_40 -> ~nu_muL*  nu_mu )
#
#         PDG            Width
DECAY        25     4.16214524E-03   # h decays
#          BR         NDA      ID1       ID2
     5.64983483E-01    2           5        -5   # BR(h -> b       bb     )
     6.32427385E-02    2         -15        15   # BR(h -> tau+    tau-   )
     2.23861363E-04    2         -13        13   # BR(h -> mu+     mu-    )
     2.43867746E-04    2           3        -3   # BR(h -> s       sb     )
     2.10373129E-02    2           4        -4   # BR(h -> c       cb     )
     7.78976800E-02    2          21        21   # BR(h -> g       g      )
     2.40874950E-03    2          22        22   # BR(h -> gam     gam    )
     1.71005005E-03    2          22        23   # BR(h -> Z       gam    )
     2.37953717E-01    2          24       -24   # BR(h -> W+      W-     )
     3.02985403E-02    2          23        23   # BR(h -> Z       Z      )
#
#         PDG            Width
DECAY        35     4.55200595E+01   # H decays
#          BR         NDA      ID1       ID2
     4.36708358E-01    2           5        -5   # BR(H -> b       bb     )
     8.66430509E-02    2         -15        15   # BR(H -> tau+    tau-   )
     3.12451430E-04    2         -13        13   # BR(H -> mu+     mu-    )
     2.22803154E-04    2           3        -3   # BR(H -> s       sb     )
     3.73688954E-08    2           4        -4   # BR(H -> c       cb     )
     3.66501331E-03    2           6        -6   # BR(H -> t       tb     )
     6.56552449E-06    2          21        21   # BR(H -> g       g      )
     4.07113431E-08    2          22        22   # BR(H -> gam     gam    )
     3.53319007E-09    2          23        22   # BR(H -> Z       gam    )
     1.49505678E-06    2          24       -24   # BR(H -> W+      W-     )
     7.45699480E-07    2          23        23   # BR(H -> Z       Z      )
     6.86349542E-06    2          25        25   # BR(H -> h       h      )
     3.74269009E-03    2     1000024  -1000024   # BR(H -> ~chi_1+ ~chi_1-)
     3.55360807E-06    2     1000037  -1000037   # BR(H -> ~chi_2+ ~chi_2-)
     1.40410562E-01    2     1000024  -1000037   # BR(H -> ~chi_1+ ~chi_2-)
     1.40410562E-01    2     1000037  -1000024   # BR(H -> ~chi_2+ ~chi_1-)
     1.26379768E-03    2     1000022   1000022   # BR(H -> ~chi_10 ~chi_10)
     4.54632302E-04    2     1000023   1000023   # BR(H -> ~chi_20 ~chi_20)
     7.98604806E-07    2     1000025   1000025   # BR(H -> ~chi_30 ~chi_30)
     1.93866994E-06    2     1000035   1000035   # BR(H -> ~chi_40 ~chi_40)
     4.57745281E-05    2     1000022   1000023   # BR(H -> ~chi_10 ~chi_20)
     1.75084990E-02    2     1000022   1000025   # BR(H -> ~chi_10 ~chi_30)
     6.84249561E-02    2     1000022   1000035   # BR(H -> ~chi_10 ~chi_40)
     1.95092364E-02    2     1000023   1000025   # BR(H -> ~chi_20 ~chi_30)
     7.86284105E-02    2     1000023   1000035   # BR(H -> ~chi_20 ~chi_40)
     3.16450326E-06    2     1000025   1000035   # BR(H -> ~chi_30 ~chi_40)
     1.53186121E-06    2     1000002  -1000002   # BR(H -> ~u_L    ~u_L*  )
     1.53186121E-06    2     1000004  -1000004   # BR(H -> ~c_L    ~c_L*  )
     2.01404225E-03    2     1000006  -1000006   # BR(H -> ~t_1    ~t_1*  )
     2.24573334E-06    2     1000001  -1000001   # BR(H -> ~d_L    ~d_L*  )
     2.24573334E-06    2     1000003  -1000003   # BR(H -> ~s_L    ~s_L*  )
     7.29651668E-07    2     1000005  -1000005   # BR(H -> ~b_1    ~b_1*  )
     1.94989750E-07    2     1000011  -1000011   # BR(H -> ~e_L-   ~e_L+  )
     1.94989750E-07    2     1000013  -1000013   # BR(H -> ~mu_L-  ~mu_L+ )
     6.39315329E-07    2     1000012  -1000012   # BR(H -> ~nu_eL  ~nu_eL*   )
     6.39315329E-07    2     1000014  -1000014   # BR(H -> ~nu_muL ~nu_muL*  )
#
#         PDG            Width
DECAY        36     4.54291762E+01   # A decays
#          BR         NDA      ID1       ID2
     4.37604791E-01    2           5        -5   # BR(A -> b       bb     )
     8.68171257E-02    2         -15        15   # BR(A -> tau+    tau-   )
     3.13078637E-04    2         -13        13   # BR(A -> mu+     mu-    )
     2.23273508E-04    2           3        -3   # BR(A -> s       sb     )
     3.75934273E-08    2           4        -4   # BR(A -> c       cb     )
     3.69138132E-03    2           6        -6   # BR(A -> t       tb     )
     2.56685490E-05    2          21        21   # BR(A -> g       g      )
     3.85404452E-09    2          22        22   # BR(A -> gam     gam    )
     1.99086865E-08    2          23        22   # BR(A -> Z       gam    )
     1.51656681E-06    2          23        25   # BR(A -> Z       h      )
     3.84960498E-03    2     1000024  -1000024   # BR(A -> ~chi_1+ ~chi_1-)
     2.85427082E-05    2     1000037  -1000037   # BR(A -> ~chi_2+ ~chi_2-)
     1.40623315E-01    2     1000024  -1000037   # BR(A -> ~chi_1+ ~chi_2-)
     1.40623315E-01    2     1000037  -1000024   # BR(A -> ~chi_2+ ~chi_1-)
     1.15167815E-03    2     1000022   1000022   # BR(A -> ~chi_10 ~chi_10)
     5.64747211E-04    2     1000023   1000023   # BR(A -> ~chi_20 ~chi_20)
     2.26634561E-06    2     1000025   1000025   # BR(A -> ~chi_30 ~chi_30)
     1.55630875E-05    2     1000035   1000035   # BR(A -> ~chi_40 ~chi_40)
     9.30049843E-05    2     1000022   1000023   # BR(A -> ~chi_10 ~chi_20)
     1.98508078E-02    2     1000022   1000025   # BR(A -> ~chi_10 ~chi_30)
     8.00753930E-02    2     1000022   1000035   # BR(A -> ~chi_10 ~chi_40)
     1.72245429E-02    2     1000023   1000025   # BR(A -> ~chi_20 ~chi_30)
     6.72073508E-02    2     1000023   1000035   # BR(A -> ~chi_20 ~chi_40)
     1.29707543E-05    2     1000025   1000035   # BR(A -> ~chi_30 ~chi_40)
#
#         PDG            Width
DECAY        37     4.58487272E+01   # H+ decays
#          BR         NDA      ID1       ID2
     7.42691628E-04    2           4        -5   # BR(H+ -> c       bb     )
     8.60698048E-02    2         -15        16   # BR(H+ -> tau+    nu_tau )
     3.10383658E-04    2         -13        14   # BR(H+ -> mu+     nu_mu  )
     7.42690550E-06    2           2        -5   # BR(H+ -> u       bb     )
     1.10655923E-05    2           2        -3   # BR(H+ -> u       sb     )
     2.17840159E-04    2           4        -3   # BR(H+ -> c       sb     )
     4.44641768E-01    2           6        -5   # BR(H+ -> t       bb     )
     1.50628137E-06    2          24        25   # BR(H+ -> W+      h      )
     2.27550934E-13    2          24        36   # BR(H+ -> W+      A      )
     7.31701891E-05    2     1000024   1000022   # BR(H+ -> ~chi_1+ ~chi_10)
     4.38593124E-04    2     1000024   1000023   # BR(H+ -> ~chi_1+ ~chi_20)
     5.12409282E-02    2     1000024   1000025   # BR(H+ -> ~chi_1+ ~chi_30)
     1.33689614E-01    2     1000024   1000035   # BR(H+ -> ~chi_1+ ~chi_40)
     1.42372561E-01    2     1000037   1000022   # BR(H+ -> ~chi_2+ ~chi_10)
     1.38956603E-01    2     1000037   1000023   # BR(H+ -> ~chi_2+ ~chi_20)
     1.80830669E-05    2     1000037   1000025   # BR(H+ -> ~chi_2+ ~chi_30)
     1.63115727E-08    2     1000037   1000035   # BR(H+ -> ~chi_2+ ~chi_40)
     7.62518640E-07    2    -1000011   1000012   # BR(H+ -> ~e_L+   ~nu_eL )
     7.62518640E-07    2    -1000013   1000014   # BR(H+ -> ~mu_L+  ~nu_muL)
     3.70546841E-06    2     1000002  -1000001   # BR(H+ -> ~u_L    ~d_L*  )
     3.70546841E-06    2     1000004  -1000003   # BR(H+ -> ~c_L    ~s_L*  )
     1.19900798E-03    2     1000006  -1000005   # BR(H+ -> ~t_1    ~b_1*  )
