#
#                              ======================
#                              | THE SUSYHIT OUTPUT |
#                              ======================
#
#
#              ------------------------------------------------------
#              |     This is the output of the SUSY-HIT package     |
#              |  created by A.Djouadi, M.Muehlleitner and M.Spira. |
#              |  In case of problems with SUSY-HIT email to        |
#              |           margarete.muehlleitner@cern.ch           |
#              |           michael.spira@psi.ch                     |
#              |           abdelhak.djouadi@cern.ch                 |
#              ------------------------------------------------------
#
#              ------------------------------------------------------
#              |  SUSY Les Houches Accord - MSSM Spectrum + Decays  |
#              |              based on the decay programs           |
#              |                                                    |
#              |                     SDECAY 1.3b                    |
#              |                                                    |
#              |  Authors: M.Muhlleitner, A.Djouadi and Y.Mambrini  |
#              |  Ref.:    Comput.Phys.Commun.168(2005)46           |
#              |           [hep-ph/0311167]                         |
#              |                                                    |
#              |                     HDECAY 3.4                     |
#              |                                                    |
#              |  By: A.Djouadi,J.Kalinowski,M.Muhlleitner,M.Spira  |
#              |  Ref.:    Comput.Phys.Commun.108(1998)56           |
#              |           [hep-ph/9704448]                         |
#              |                                                    |
#              |                                                    |
#              |  If not stated otherwise all DRbar couplings and   |
#              |  soft SUSY breaking masses are given at the scale  |
#              |  Q=  0.32769830E+04
#              |                                                    |
#              ------------------------------------------------------
#
#
BLOCK DCINFO  # Decay Program information
     1   SDECAY/HDECAY # decay calculator
     2   1.3b  /3.4    # version number
#
BLOCK SPINFO  # Spectrum calculator information
     1     SOFTSUSY    # spectrum calculator               
     2     3.4.0       # version number                    
#
BLOCK MODSEL  # Model selection
     1     0   #  nonUniversal                                     
#
BLOCK SMINPUTS  # Standard Model inputs
         1     1.27908970E+02   # alpha_em^-1(M_Z)^MSbar
         2     1.16637870E-05   # G_F [GeV^-2]
         3     1.18400000E-01   # alpha_S(M_Z)^MSbar
         4     9.11876000E+01   # M_Z pole mass
         5     4.18000000E+00   # mb(mb)^MSbar
         6     1.73200000E+02   # mt pole mass
         7     1.77700000E+00   # mtau pole mass
#
BLOCK MINPAR  # Input parameters - minimal models
         3     5.31400000E+01   # tanb                
#
BLOCK EXTPAR  # Input parameters - non-minimal models
         0    -1.00000000E+00   # Set                 
         1    -5.51710000E+02   # M_1(MX)             
         2     2.69740000E+02   # M_2(MX)             
         3     1.91116000E+03   # M_3(MX)             
        11    -3.33930000E+02   # At(MX)              
        12    -3.27467000E+03   # Ab(MX)              
        13     1.09046000E+03   # Atau(MX)            
        23    -1.57530000E+02   # mu(MX)              
        26     3.56183000E+03   # mA(pole)            
        31     2.09772000E+03   # meL(MX)             
        32     2.09772000E+03   # mmuL(MX)            
        33     5.90810000E+02   # mtauL(MX)           
        34     3.58080000E+03   # meR(MX)             
        35     3.58080000E+03   # mmuR(MX)            
        36     2.12353000E+03   # mtauR(MX)           
        41     3.14857000E+03   # mqL1(MX)            
        42     3.14857000E+03   # mqL2(MX)            
        43     3.95702000E+03   # mqL3(MX)            
        44     2.58394000E+03   # muR(MX)             
        45     2.58394000E+03   # mcR(MX)             
        46     2.70893000E+03   # mtR(MX)             
        47     3.59260000E+02   # mdR(MX)             
        48     3.59260000E+02   # msR(MX)             
        49     1.05734000E+03   # mbR(MX)             
#
BLOCK MASS  # Mass Spectrum
# PDG code           mass       particle
        24     8.03771526E+01   # W+
        25     1.24222602E+02   # h
        35     3.56183222E+03   # H
        36     3.56183005E+03   # A
        37     3.56293833E+03   # H+
         5     4.81876030E+00   # b-quark pole mass calculated from mb(mb)_Msbar
   1000001     3.21268735E+03   # ~d_L
   2000001     6.44723183E+02   # ~d_R
   1000002     3.21184007E+03   # ~u_L
   2000002     2.65324626E+03   # ~u_R
   1000003     3.21268735E+03   # ~s_L
   2000003     6.44723183E+02   # ~s_R
   1000004     3.21184007E+03   # ~c_L
   2000004     2.65324626E+03   # ~c_R
   1000005     1.14589778E+03   # ~b_1
   2000005     3.97242196E+03   # ~b_2
   1000006     2.73540753E+03   # ~t_1
   2000006     3.97447882E+03   # ~t_2
   1000011     2.10014771E+03   # ~e_L
   2000011     3.58678576E+03   # ~e_R
   1000012     2.09831342E+03   # ~nu_eL
   1000013     2.10014771E+03   # ~mu_L
   2000013     3.58678576E+03   # ~mu_R
   1000014     2.09831342E+03   # ~nu_muL
   1000015     5.58292553E+02   # ~tau_1
   2000015     2.11041427E+03   # ~tau_2
   1000016     5.52359589E+02   # ~nu_tauL
   1000021     2.11508882E+03   # ~g
   1000022     1.48137206E+02   # ~chi_10
   1000023    -1.71317728E+02   # ~chi_20
   1000025     3.15934094E+02   # ~chi_30
   1000035    -5.47399559E+02   # ~chi_40
   1000024     1.53265182E+02   # ~chi_1+
   1000037     3.17062640E+02   # ~chi_2+
#
BLOCK NMIX  # Neutralino Mixing Matrix
  1  1     3.85023053E-02   # N_11
  1  2     3.41802424E-01   # N_12
  1  3     7.03831346E-01   # N_13
  1  4     6.21538504E-01   # N_14
  2  1     8.45946604E-02   # N_21
  2  2     1.24984084E-01   # N_22
  2  3    -6.90244733E-01   # N_23
  2  4     7.07661593E-01   # N_24
  3  1    -1.63859451E-02   # N_31
  3  2     9.31384813E-01   # N_32
  3  3    -1.65406765E-01   # N_33
  3  4    -3.23874101E-01   # N_34
  4  1     9.95536447E-01   # N_41
  4  2    -8.50952972E-03   # N_42
  4  3     2.87096904E-02   # N_43
  4  4    -8.95015355E-02   # N_44
#
BLOCK UMIX  # Chargino Mixing Matrix U
  1  1     2.40890402E-01   # U_11
  1  2     9.70552324E-01   # U_12
  2  1    -9.70552324E-01   # U_21
  2  2     2.40890402E-01   # U_22
#
BLOCK VMIX  # Chargino Mixing Matrix V
  1  1     4.71167213E-01   # V_11
  1  2    -8.82043909E-01   # V_12
  2  1    -8.82043909E-01   # V_21
  2  2    -4.71167213E-01   # V_22
#
BLOCK STOPMIX  # Stop Mixing Matrix
  1  1     9.04507194E-03   # cos(theta_t)
  1  2     9.99959093E-01   # sin(theta_t)
  2  1    -9.99959093E-01   # -sin(theta_t)
  2  2     9.04507194E-03   # cos(theta_t)
#
BLOCK SBOTMIX  # Sbottom Mixing Matrix
  1  1    -8.26296774E-04   # cos(theta_b)
  1  2     9.99999659E-01   # sin(theta_b)
  2  1    -9.99999659E-01   # -sin(theta_b)
  2  2    -8.26296774E-04   # cos(theta_b)
#
BLOCK STAUMIX  # Stau Mixing Matrix
  1  1     9.99992366E-01   # cos(theta_tau)
  1  2    -3.90742136E-03   # sin(theta_tau)
  2  1     3.90742136E-03   # -sin(theta_tau)
  2  2     9.99992366E-01   # cos(theta_tau)
#
BLOCK ALPHA  # Higgs mixing
          -1.89411021E-02   # Mixing angle in the neutral Higgs boson sector
#
BLOCK HMIX Q=  3.27698300E+03  # DRbar Higgs Parameters
         1    -1.62815197E+02   # mu(Q)MSSM           
         2     5.28816226E+01   # tan                 
         3     2.40753332E+02   # higgs               
         4     1.29297449E+07   # mA^2(Q)MSSM         
#
BLOCK GAUGE Q=  3.27698300E+03  # The gauge couplings
     1     3.65796195E-01   # gprime(Q) DRbar
     2     6.43632181E-01   # g(Q) DRbar
     3     1.01809168E+00   # g3(Q) DRbar
#
BLOCK AU Q=  3.27698300E+03  # The trilinear couplings
  1  1     0.00000000E+00   # A_u(Q) DRbar
  2  2     0.00000000E+00   # A_c(Q) DRbar
  3  3    -3.33929983E+02   # A_t(Q) DRbar
#
BLOCK AD Q=  3.27698300E+03  # The trilinear couplings
  1  1     0.00000000E+00   # A_d(Q) DRbar
  2  2     0.00000000E+00   # A_s(Q) DRbar
  3  3    -3.27466999E+03   # A_b(Q) DRbar
#
BLOCK AE Q=  3.27698300E+03  # The trilinear couplings
  1  1     0.00000000E+00   # A_e(Q) DRbar
  2  2     0.00000000E+00   # A_mu(Q) DRbar
  3  3     1.09046001E+03   # A_tau(Q) DRbar
#
BLOCK Yu Q=  3.27698300E+03  # The Yukawa couplings
  1  1     0.00000000E+00   # y_u(Q) DRbar
  2  2     0.00000000E+00   # y_c(Q) DRbar
  3  3     8.27745743E-01   # y_t(Q) DRbar
#
BLOCK Yd Q=  3.27698300E+03  # The Yukawa couplings
  1  1     0.00000000E+00   # y_d(Q) DRbar
  2  2     0.00000000E+00   # y_s(Q) DRbar
  3  3     7.31227775E-01   # y_b(Q) DRbar
#
BLOCK Ye Q=  3.27698300E+03  # The Yukawa couplings
  1  1     0.00000000E+00   # y_e(Q) DRbar
  2  2     0.00000000E+00   # y_mu(Q) DRbar
  3  3     5.10267184E-01   # y_tau(Q) DRbar
#
BLOCK MSOFT Q=  3.27698300E+03  # The soft SUSY breaking masses at the scale Q
         1    -5.51710000E+02   # M_1(Q)              
         2     2.69740000E+02   # M_2(Q)              
         3     1.91116000E+03   # M_3(Q)              
        21     1.31720583E+07   # mH1^2(Q)            
        22     2.30399547E+05   # mH2^2(Q)            
        31     2.09772000E+03   # meL(Q)              
        32     2.09772000E+03   # mmuL(Q)             
        33     5.90809998E+02   # mtauL(Q)            
        34     3.58080000E+03   # meR(Q)              
        35     3.58080000E+03   # mmuR(Q)             
        36     2.12353000E+03   # mtauR(Q)            
        41     3.14857000E+03   # mqL1(Q)             
        42     3.14857000E+03   # mqL2(Q)             
        43     3.95701999E+03   # mqL3(Q)             
        44     2.58393999E+03   # muR(Q)              
        45     2.58393999E+03   # mcR(Q)              
        46     2.70892998E+03   # mtR(Q)              
        47     3.59259958E+02   # mdR(Q)              
        48     3.59259958E+02   # msR(Q)              
        49     1.05733995E+03   # mbR(Q)              
#
Block HiggsBoundsInputHiggsCouplingsFermions
# ScalarNormEffCoupSq PseudoSNormEffCoupSq NP   IP1 IP2 IP2
    1.00351385E+00    0.00000000E+00        3  25   5   5  # h0-b-b eff. coupling^2, normalised to SM
    2.79646249E+03    0.00000000E+00        3  35   5   5  # H0-b-b eff. coupling^2, normalised to SM
    0.00000000E+00    2.79646601E+03        3  36   5   5  # A0-b-b eff. coupling^2, normalised to SM
#
    9.99998743E-01    0.00000000E+00        3  25   6   6  # h0-t-t eff. coupling^2, normalised to SM
    3.58850724E-04    0.00000000E+00        3  35   6   6  # H0-t-t eff. coupling^2, normalised to SM
    0.00000000E+00    3.57594191E-04        3  36   6   6  # A0-t-t eff. coupling^2, normalised to SM
#
    1.00351385E+00    0.00000000E+00        3  25  15  15  # h0-tau-tau eff. coupling^2, normalised to SM
    2.79646249E+03    0.00000000E+00        3  35  15  15  # H0-tau-tau eff. coupling^2, normalised to SM
    0.00000000E+00    2.79646601E+03        3  36  15  15  # A0-tau-tau eff. coupling^2, normalised to SM
#
Block HiggsBoundsInputHiggsCouplingsBosons
    9.99999999E-01        3  25  24  24  # h0-W-W eff. coupling^2, normalised to SM
    1.10188281E-09        3  35  24  24  # H0-W-W eff. coupling^2, normalised to SM
    0.00000000E+00        3  36  24  24  # A0-W-W eff. coupling^2, normalised to SM
#
    9.99999999E-01        3  25  23  23  # h0-Z-Z eff. coupling^2, normalised to SM
    1.10188281E-09        3  35  23  23  # H0-Z-Z eff. coupling^2, normalised to SM
    0.00000000E+00        3  36  23  23  # A0-Z-Z eff. coupling^2, normalised to SM
#
    8.95540534E-01        3  25  21  21  # h0-g-g eff. coupling^2, normalised to SM
    8.53251658E-13        3  35  21  21  # H0-g-g eff. coupling^2, normalised to SM
    1.94910449E-12        3  36  21  21  # A0-g-g eff. coupling^2, normalised to SM
#
    0.00000000E+00        3  25  25  23  # h0-h0-Z eff. coupling^2, normalised to SM
    0.00000000E+00        3  35  25  23  # H0-h0-Z eff. coupling^2, normalised to SM
    1.10188281E-09        3  36  25  23  # A0-h0-Z eff. coupling^2, normalised to SM
    0.00000000E+00        3  35  35  23  # H0-H0-Z eff. coupling^2, normalised to SM
    9.99999999E-01        3  36  35  23  # A0-H0-Z eff. coupling^2, normalised to SM
    0.00000000E+00        3  36  36  23  # A0-A0-Z eff. coupling^2, normalised to SM
#
    0.00000000E+00        4  25  21  21  23  # h0-g-g-Z eff. coupling^2, normalised to SM
    0.00000000E+00        4  35  21  21  23  # H0-g-g-Z eff. coupling^2, normalised to SM
    0.00000000E+00        4  36  21  21  23  # A0-g-g-Z eff. coupling^2, normalised to SM
#
#
#
#                             =================
#                             |The decay table|
#                             =================
#
# - The QCD corrections to the decays gluino -> squark  + quark
#                                     squark -> gaugino + quark_prime
#                                     squark -> squark_prime + Higgs
#                                     squark -> gluino  + quark
#   are included.
#
# - The multi-body decays for the inos, stops and sbottoms are included.
#
# - The loop induced decays for the gluino, neutralinos and stops
#   are included.
#
# - The SUSY decays of the top quark are included.
#
#
#         PDG            Width
DECAY         6     1.45954848E+00   # top decays
#          BR         NDA      ID1       ID2
     1.00000000E+00    2           5        24   # BR(t ->  b    W+)
#
#         PDG            Width
DECAY   1000021     9.23902225E+01   # gluino decays
#          BR         NDA      ID1       ID2
     1.89116207E-01    2     2000001        -1   # BR(~g -> ~d_R  db)
     1.89116207E-01    2    -2000001         1   # BR(~g -> ~d_R* d )
     1.89116207E-01    2     2000003        -3   # BR(~g -> ~s_R  sb)
     1.89116207E-01    2    -2000003         3   # BR(~g -> ~s_R* s )
     1.21767587E-01    2     1000005        -5   # BR(~g -> ~b_1  bb)
     1.21767587E-01    2    -1000005         5   # BR(~g -> ~b_1* b )
#
#         PDG            Width
DECAY   1000006     1.02706482E+02   # stop1 decays
#          BR         NDA      ID1       ID2
     1.39133666E-01    2     1000022         6   # BR(~t_1 -> ~chi_10 t )
     1.79444766E-01    2     1000023         6   # BR(~t_1 -> ~chi_20 t )
     3.57410752E-02    2     1000025         6   # BR(~t_1 -> ~chi_30 t )
     6.05258990E-02    2     1000035         6   # BR(~t_1 -> ~chi_40 t )
     2.82781766E-01    2     1000024         5   # BR(~t_1 -> ~chi_1+ b )
     7.63849031E-02    2     1000037         5   # BR(~t_1 -> ~chi_2+ b )
     2.25987920E-01    2     1000021         6   # BR(~t_1 -> ~g      t )
     3.96203481E-09    2     1000005        24   # BR(~t_1 -> ~b_1    W+)
#
#         PDG            Width
DECAY   2000006     2.56739591E+02   # stop2 decays
#          BR         NDA      ID1       ID2
     8.81308313E-02    2     1000022         6   # BR(~t_2 -> ~chi_10 t )
     1.06104363E-01    2     1000023         6   # BR(~t_2 -> ~chi_20 t )
     7.69464385E-02    2     1000025         6   # BR(~t_2 -> ~chi_30 t )
     3.46049989E-03    2     1000035         6   # BR(~t_2 -> ~chi_40 t )
     1.81675727E-01    2     1000024         5   # BR(~t_2 -> ~chi_1+ b )
     1.08635507E-01    2     1000037         5   # BR(~t_2 -> ~chi_2+ b )
     4.33633627E-01    2     1000021         6   # BR(~t_2 -> ~g      t )
     3.82933942E-04    2     1000006        25   # BR(~t_2 -> ~t_1    h )
     9.48124511E-04    2     1000006        23   # BR(~t_2 -> ~t_1    Z )
     8.19480089E-05    2     1000005        24   # BR(~t_2 -> ~b_1    W+)
#
#         PDG            Width
DECAY   1000005     2.32123788E+01   # sbottom1 decays
#          BR         NDA      ID1       ID2
     2.51656367E-01    2     1000022         5   # BR(~b_1 -> ~chi_10 b )
     2.39274686E-01    2     1000023         5   # BR(~b_1 -> ~chi_20 b )
     1.21990115E-02    2     1000025         5   # BR(~b_1 -> ~chi_30 b )
     1.75136601E-02    2     1000035         5   # BR(~b_1 -> ~chi_40 b )
     4.54900433E-01    2    -1000024         6   # BR(~b_1 -> ~chi_1- t )
     2.44558426E-02    2    -1000037         6   # BR(~b_1 -> ~chi_2- t )
#
#         PDG            Width
DECAY   2000005     2.57577536E+02   # sbottom2 decays
#          BR         NDA      ID1       ID2
     8.80997439E-02    2     1000022         5   # BR(~b_2 -> ~chi_10 b )
     7.86323188E-02    2     1000023         5   # BR(~b_2 -> ~chi_20 b )
     5.92488273E-02    2     1000025         5   # BR(~b_2 -> ~chi_30 b )
     2.50936095E-03    2     1000035         5   # BR(~b_2 -> ~chi_40 b )
     1.69480802E-01    2    -1000024         6   # BR(~b_2 -> ~chi_1- t )
     1.64736476E-01    2    -1000037         6   # BR(~b_2 -> ~chi_2- t )
     4.35367949E-01    2     1000021         5   # BR(~b_2 -> ~g      b )
     4.82909406E-05    2     1000005        25   # BR(~b_2 -> ~b_1    h )
     4.18877371E-05    2     1000005        23   # BR(~b_2 -> ~b_1    Z )
     1.83434352E-03    2     1000006       -24   # BR(~b_2 -> ~t_1    W-)
#
#         PDG            Width
DECAY   1000002     1.17478413E+02   # sup_L decays
#          BR         NDA      ID1       ID2
     1.30885642E-02    2     1000022         2   # BR(~u_L -> ~chi_10 u)
     2.13277245E-03    2     1000023         2   # BR(~u_L -> ~chi_20 u)
     9.12506914E-02    2     1000025         2   # BR(~u_L -> ~chi_30 u)
     3.30571768E-03    2     1000035         2   # BR(~u_L -> ~chi_40 u)
     4.76723009E-02    2     1000024         1   # BR(~u_L -> ~chi_1+ d)
     1.64751842E-01    2     1000037         1   # BR(~u_L -> ~chi_2+ d)
     6.77798111E-01    2     1000021         2   # BR(~u_L -> ~g      u)
#
#         PDG            Width
DECAY   2000002     3.27507118E+01   # sup_R decays
#          BR         NDA      ID1       ID2
     2.68864187E-04    2     1000022         2   # BR(~u_R -> ~chi_10 u)
     1.29544545E-03    2     1000023         2   # BR(~u_R -> ~chi_20 u)
     4.76908057E-05    2     1000025         2   # BR(~u_R -> ~chi_30 u)
     1.66339024E-01    2     1000035         2   # BR(~u_R -> ~chi_40 u)
     8.32048976E-01    2     1000021         2   # BR(~u_R -> ~g      u)
#
#         PDG            Width
DECAY   1000001     1.17510967E+02   # sdown_L decays
#          BR         NDA      ID1       ID2
     1.20174915E-02    2     1000022         1   # BR(~d_L -> ~chi_10 d)
     1.27339470E-03    2     1000023         1   # BR(~d_L -> ~chi_20 d)
     9.24757582E-02    2     1000025         1   # BR(~d_L -> ~chi_30 d)
     3.96014549E-03    2     1000035         1   # BR(~d_L -> ~chi_40 d)
     1.24610214E-02    2    -1000024         2   # BR(~d_L -> ~chi_1- u)
     1.99475554E-01    2    -1000037         2   # BR(~d_L -> ~chi_2- u)
     6.78336635E-01    2     1000021         1   # BR(~d_L -> ~g      d)
#
#         PDG            Width
DECAY   2000001     3.43794931E-02   # sdown_R decays
#           BR         NDA      ID1       ID2
     1.53352208E-02    2     1000022         1   # BR(~d_R -> ~chi_10 d)
     7.12850964E-02    2     1000023         1   # BR(~d_R -> ~chi_20 d)
     1.79106828E-03    2     1000025         1   # BR(~d_R -> ~chi_30 d)
     9.11588615E-01    2     1000035         1   # BR(~d_R -> ~chi_40 d)
#
#         PDG            Width
DECAY   1000004     9.61492361E+01   # scharm_L decays
#          BR         NDA      ID1       ID2
     1.67041612E-02    2     1000022         4   # BR(~c_L -> ~chi_10 c)
     2.72150197E-03    2     1000023         4   # BR(~c_L -> ~chi_20 c)
     1.16331377E-01    2     1000025         4   # BR(~c_L -> ~chi_30 c)
     4.20874184E-03    2     1000035         4   # BR(~c_L -> ~chi_40 c)
     6.08392320E-02    2     1000024         3   # BR(~c_L -> ~chi_1+ s)
     2.10033319E-01    2     1000037         3   # BR(~c_L -> ~chi_2+ s)
     5.89161667E-01    2     1000021         4   # BR(~c_L -> ~g      c)
#
#         PDG            Width
DECAY   2000004     2.51453582E+01   # scharm_R decays
#          BR         NDA      ID1       ID2
     3.67821562E-04    2     1000022         4   # BR(~c_R -> ~chi_10 c)
     1.77187305E-03    2     1000023         4   # BR(~c_R -> ~chi_20 c)
     6.51500725E-05    2     1000025         4   # BR(~c_R -> ~chi_30 c)
     2.26834115E-01    2     1000035         4   # BR(~c_R -> ~chi_40 c)
     7.70961040E-01    2     1000021         4   # BR(~c_R -> ~g      c)
#
#         PDG            Width
DECAY   1000003     9.61497517E+01   # sstrange_L decays
#          BR         NDA      ID1       ID2
     1.53412698E-02    2     1000022         3   # BR(~s_L -> ~chi_10 s)
     1.62533175E-03    2     1000023         3   # BR(~s_L -> ~chi_20 s)
     1.17924393E-01    2     1000025         3   # BR(~s_L -> ~chi_30 s)
     5.04327914E-03    2     1000035         3   # BR(~s_L -> ~chi_40 s)
     1.59069078E-02    2    -1000024         4   # BR(~s_L -> ~chi_1- c)
     2.54367912E-01    2    -1000037         4   # BR(~s_L -> ~chi_2- c)
     5.89790906E-01    2     1000021         3   # BR(~s_L -> ~g      s)
#
#         PDG            Width
DECAY   2000003     3.23727850E-02   # sstrange_R decays
#           BR         NDA      ID1       ID2
     1.56693827E-02    2     1000022         3   # BR(~s_R -> ~chi_10 s)
     7.28236356E-02    2     1000023         3   # BR(~s_R -> ~chi_20 s)
     1.82646273E-03    2     1000025         3   # BR(~s_R -> ~chi_30 s)
     9.09680519E-01    2     1000035         3   # BR(~s_R -> ~chi_40 s)
#
#         PDG            Width
DECAY   1000011     2.73155566E+01   # selectron_L decays
#          BR         NDA      ID1       ID2
     4.14889657E-02    2     1000022        11   # BR(~e_L -> ~chi_10 e-)
     9.36308525E-03    2     1000023        11   # BR(~e_L -> ~chi_20 e-)
     2.57313676E-01    2     1000025        11   # BR(~e_L -> ~chi_30 e-)
     8.54791056E-02    2     1000035        11   # BR(~e_L -> ~chi_40 e-)
     3.63786104E-02    2    -1000024        12   # BR(~e_L -> ~chi_1- nu_e)
     5.69976557E-01    2    -1000037        12   # BR(~e_L -> ~chi_2- nu_e)
#
#         PDG            Width
DECAY   2000011     1.82239065E+01   # selectron_R decays
#          BR         NDA      ID1       ID2
     1.54807881E-03    2     1000022        11   # BR(~e_R -> ~chi_10 e-)
     7.46456563E-03    2     1000023        11   # BR(~e_R -> ~chi_20 e-)
     2.77000251E-04    2     1000025        11   # BR(~e_R -> ~chi_30 e-)
     9.90710355E-01    2     1000035        11   # BR(~e_R -> ~chi_40 e-)
#
#         PDG            Width
DECAY   1000013     2.73155565E+01   # smuon_L decays
#          BR         NDA      ID1       ID2
     4.14889656E-02    2     1000022        13   # BR(~mu_L -> ~chi_10 mu-)
     9.36308522E-03    2     1000023        13   # BR(~mu_L -> ~chi_20 mu-)
     2.57313675E-01    2     1000025        13   # BR(~mu_L -> ~chi_30 mu-)
     8.54791053E-02    2     1000035        13   # BR(~mu_L -> ~chi_40 mu-)
     3.63786105E-02    2    -1000024        14   # BR(~mu_L -> ~chi_1- nu_mu)
     5.69976558E-01    2    -1000037        14   # BR(~mu_L -> ~chi_2- nu_mu)
#
#         PDG            Width
DECAY   2000013     1.82239065E+01   # smuon_R decays
#          BR         NDA      ID1       ID2
     1.54807881E-03    2     1000022        13   # BR(~mu_R -> ~chi_10 mu-)
     7.46456563E-03    2     1000023        13   # BR(~mu_R -> ~chi_20 mu-)
     2.77000251E-04    2     1000025        13   # BR(~mu_R -> ~chi_30 mu-)
     9.90710355E-01    2     1000035        13   # BR(~mu_R -> ~chi_40 mu-)
#
#         PDG            Width
DECAY   1000015     5.85231592E+00   # stau_1 decays
#          BR         NDA      ID1       ID2
     2.57487658E-01    2     1000022        15   # BR(~tau_1 -> ~chi_10  tau-)
     2.02870365E-01    2     1000023        15   # BR(~tau_1 -> ~chi_20  tau-)
     1.60100205E-01    2     1000025        15   # BR(~tau_1 -> ~chi_30  tau-)
     1.77436911E-04    2     1000035        15   # BR(~tau_1 -> ~chi_40  tau-)
     3.99841277E-02    2    -1000024        16   # BR(~tau_1 -> ~chi_1-  nu_tau)
     3.39380207E-01    2    -1000037        16   # BR(~tau_1 -> ~chi_2-  nu_tau)
#
#         PDG            Width
DECAY   2000015     3.15255023E+01   # stau_2 decays
#          BR         NDA      ID1       ID2
     1.70071914E-01    2     1000022        15   # BR(~tau_2 -> ~chi_10  tau-)
     1.65678247E-01    2     1000023        15   # BR(~tau_2 -> ~chi_20  tau-)
     9.52049681E-03    2     1000025        15   # BR(~tau_2 -> ~chi_30  tau-)
     3.07587157E-01    2     1000035        15   # BR(~tau_2 -> ~chi_40  tau-)
     3.22408156E-01    2    -1000024        16   # BR(~tau_2 -> ~chi_1-  nu_tau)
     1.99946159E-02    2    -1000037        16   # BR(~tau_2 -> ~chi_2-  nu_tau)
     2.33424712E-03    2     1000016       -24   # BR(~tau_2 -> ~nu_tauL W-)
     1.21307658E-03    2     1000015        25   # BR(~tau_2 -> ~tau_1   h)
     1.19209045E-03    2     1000015        23   # BR(~tau_2 -> ~tau_1   Z)
#
#         PDG            Width
DECAY   1000012     2.73570450E+01   # snu_eL decays
#          BR         NDA      ID1       ID2
     3.20273224E-02    2     1000022        12   # BR(~nu_eL -> ~chi_10 nu_e)
     1.84455390E-03    2     1000023        12   # BR(~nu_eL -> ~chi_20 nu_e)
     2.67152465E-01    2     1000025        12   # BR(~nu_eL -> ~chi_30 nu_e)
     9.05398319E-02    2     1000035        12   # BR(~nu_eL -> ~chi_40 nu_e)
     1.38838684E-01    2     1000024        11   # BR(~nu_eL -> ~chi_1+ e-)
     4.69597143E-01    2     1000037        11   # BR(~nu_eL -> ~chi_2+ e-)
#
#         PDG            Width
DECAY   1000014     2.73570449E+01   # snu_muL decays
#          BR         NDA      ID1       ID2
     3.20273225E-02    2     1000022        14   # BR(~nu_muL -> ~chi_10 nu_mu)
     1.84455391E-03    2     1000023        14   # BR(~nu_muL -> ~chi_20 nu_mu)
     2.67152466E-01    2     1000025        14   # BR(~nu_muL -> ~chi_30 nu_mu)
     9.05398322E-02    2     1000035        14   # BR(~nu_muL -> ~chi_40 nu_mu)
     1.38838683E-01    2     1000024        13   # BR(~nu_muL -> ~chi_1+ mu-)
     4.69597142E-01    2     1000037        13   # BR(~nu_muL -> ~chi_2+ mu-)
#
#         PDG            Width
DECAY   1000016     5.94925346E+00   # snu_tauL decays
#          BR         NDA      ID1       ID2
     3.37275101E-02    2     1000022        16   # BR(~nu_tauL -> ~chi_10 nu_tau)
     1.84844568E-03    2     1000023        16   # BR(~nu_tauL -> ~chi_20 nu_tau)
     1.53274292E-01    2     1000025        16   # BR(~nu_tauL -> ~chi_30 nu_tau)
     4.03361776E-05    2     1000035        16   # BR(~nu_tauL -> ~chi_40 nu_tau)
     5.31573384E-01    2     1000024        15   # BR(~nu_tauL -> ~chi_1+ tau-)
     2.79536032E-01    2     1000037        15   # BR(~nu_tauL -> ~chi_2+ tau-)
#
#         PDG            Width
DECAY   1000024     4.96676157E-09   # chargino1+ decays
#           BR         NDA      ID1       ID2       ID3
     3.50214458E-01    3     1000022         2        -1   # BR(~chi_1+ -> ~chi_10 u    db)
     3.50214458E-01    3     1000022         4        -3   # BR(~chi_1+ -> ~chi_10 c    sb)
     1.16758622E-01    3     1000022       -11        12   # BR(~chi_1+ -> ~chi_10 e+   nu_e)
     1.16758622E-01    3     1000022       -13        14   # BR(~chi_1+ -> ~chi_10 mu+  nu_mu)
     6.60538399E-02    3     1000022       -15        16   # BR(~chi_1+ -> ~chi_10 tau+ nu_tau)
#
#         PDG            Width
DECAY   1000037     1.29151936E+00   # chargino2+ decays
#          BR         NDA      ID1       ID2
     2.70318318E-01    2     1000024        23   # BR(~chi_2+ -> ~chi_1+  Z )
     3.13755942E-01    2     1000022        24   # BR(~chi_2+ -> ~chi_10  W+)
     2.70134016E-01    2     1000023        24   # BR(~chi_2+ -> ~chi_20  W+)
     1.45791724E-01    2     1000024        25   # BR(~chi_2+ -> ~chi_1+  h )
#
#         PDG            Width
DECAY   1000022     0.00000000E+00   # neutralino1 decays
#
#         PDG            Width
DECAY   1000023     8.59738960E-06   # neutralino2 decays
#          BR         NDA      ID1       ID2
     5.69934170E-04    2     1000022        22   # BR(~chi_20 -> ~chi_10 gam)
#           BR         NDA      ID1       ID2       ID3
     6.91082139E-02    3     1000022        -2         2   # BR(~chi_20 -> ~chi_10 ub      u)
     8.96201877E-02    3     1000022        -1         1   # BR(~chi_20 -> ~chi_10 db      d)
     6.91082139E-02    3     1000022        -4         4   # BR(~chi_20 -> ~chi_10 cb      c)
     8.96201877E-02    3     1000022        -3         3   # BR(~chi_20 -> ~chi_10 sb      s)
     6.15339306E-02    3     1000022        -5         5   # BR(~chi_20 -> ~chi_10 bb      b)
     2.05410387E-02    3     1000022       -11        11   # BR(~chi_20 -> ~chi_10 e+      e-)
     2.05410387E-02    3     1000022       -13        13   # BR(~chi_20 -> ~chi_10 mu+     mu-)
     2.04425874E-02    3     1000022       -15        15   # BR(~chi_20 -> ~chi_10 tau+    tau-)
     4.10708184E-02    3     1000022       -12        12   # BR(~chi_20 -> ~chi_10 nu_eb   nu_e)
     4.10708184E-02    3     1000022       -14        14   # BR(~chi_20 -> ~chi_10 nu_mub  nu_mu)
     4.11159317E-02    3     1000022       -16        16   # BR(~chi_20 -> ~chi_10 nu_taub nu_tau)
     7.29705528E-02    3     1000024        -2         1   # BR(~chi_20 -> ~chi_1+ ub      d)
     7.29705528E-02    3    -1000024        -1         2   # BR(~chi_20 -> ~chi_1- db      u)
     7.29705528E-02    3     1000024        -4         3   # BR(~chi_20 -> ~chi_1+ cb      s)
     7.29705528E-02    3    -1000024        -3         4   # BR(~chi_20 -> ~chi_1- sb      c)
     2.43229425E-02    3     1000024       -12        11   # BR(~chi_20 -> ~chi_1+ nu_eb   e-)
     2.43229425E-02    3    -1000024        12       -11   # BR(~chi_20 -> ~chi_1- nu_e    e+)
     2.43229425E-02    3     1000024       -14        13   # BR(~chi_20 -> ~chi_1+ nu_mub  mu-)
     2.43229425E-02    3    -1000024        14       -13   # BR(~chi_20 -> ~chi_1- nu_mu   mu+)
     2.32415588E-02    3     1000024       -16        15   # BR(~chi_20 -> ~chi_1+ nu_taub tau-)
     2.32415588E-02    3    -1000024        16       -15   # BR(~chi_20 -> ~chi_1- nu_tau  tau+)
#
#         PDG            Width
DECAY   1000025     1.32756560E+00   # neutralino3 decays
#          BR         NDA      ID1       ID2
     3.35306524E-02    2     1000022        23   # BR(~chi_30 -> ~chi_10   Z )
     1.58748761E-01    2     1000023        23   # BR(~chi_30 -> ~chi_20   Z )
     3.47166228E-01    2     1000024       -24   # BR(~chi_30 -> ~chi_1+   W-)
     3.47166228E-01    2    -1000024        24   # BR(~chi_30 -> ~chi_1-   W+)
     1.09371590E-01    2     1000022        25   # BR(~chi_30 -> ~chi_10   h )
     4.01653984E-03    2     1000023        25   # BR(~chi_30 -> ~chi_20   h )
#
#         PDG            Width
DECAY   1000035     1.33126909E+00   # neutralino4 decays
#          BR         NDA      ID1       ID2
     1.74964298E-01    2     1000022        23   # BR(~chi_40 -> ~chi_10   Z )
     5.94163510E-02    2     1000023        23   # BR(~chi_40 -> ~chi_20   Z )
     1.07624969E-02    2     1000025        23   # BR(~chi_40 -> ~chi_30   Z )
     2.33540311E-01    2     1000024       -24   # BR(~chi_40 -> ~chi_1+   W-)
     2.33540311E-01    2    -1000024        24   # BR(~chi_40 -> ~chi_1-   W+)
     1.32012229E-02    2     1000037       -24   # BR(~chi_40 -> ~chi_2+   W-)
     1.32012229E-02    2    -1000037        24   # BR(~chi_40 -> ~chi_2-   W+)
     5.04149317E-02    2     1000022        25   # BR(~chi_40 -> ~chi_10   h )
     2.10364529E-01    2     1000023        25   # BR(~chi_40 -> ~chi_20   h )
     5.94325644E-04    2     1000025        25   # BR(~chi_40 -> ~chi_30   h )
#
#         PDG            Width
DECAY        25     3.89471164E-03   # h decays
#          BR         NDA      ID1       ID2
     6.03568973E-01    2           5        -5   # BR(h -> b       bb     )
     6.62600661E-02    2         -15        15   # BR(h -> tau+    tau-   )
     2.34518752E-04    2         -13        13   # BR(h -> mu+     mu-    )
     2.56345905E-04    2           3        -3   # BR(h -> s       sb     )
     2.21573034E-02    2           4        -4   # BR(h -> c       cb     )
     8.07276637E-02    2          21        21   # BR(h -> g       g      )
     2.34703709E-03    2          22        22   # BR(h -> gam     gam    )
     1.49429019E-03    2          22        23   # BR(h -> Z       gam    )
     1.98531228E-01    2          24       -24   # BR(h -> W+      W-     )
     2.44225734E-02    2          23        23   # BR(h -> Z       Z      )
#
#         PDG            Width
DECAY        35     1.86278793E+02   # H decays
#          BR         NDA      ID1       ID2
     6.14247967E-01    2           5        -5   # BR(H -> b       bb     )
     1.17774411E-01    2         -15        15   # BR(H -> tau+    tau-   )
     3.95954323E-04    2         -13        13   # BR(H -> mu+     mu-    )
     2.59587605E-04    2           3        -3   # BR(H -> s       sb     )
     2.75288989E-09    2           4        -4   # BR(H -> c       cb     )
     2.71396845E-04    2           6        -6   # BR(H -> t       tb     )
     8.80372044E-06    2          21        21   # BR(H -> g       g      )
     2.59547621E-08    2          22        22   # BR(H -> gam     gam    )
     5.36925207E-09    2          23        22   # BR(H -> Z       gam    )
     8.59987725E-08    2          24       -24   # BR(H -> W+      W-     )
     4.29203953E-08    2          23        23   # BR(H -> Z       Z      )
     3.42630679E-07    2          25        25   # BR(H -> h       h      )
     3.41131017E-02    2     1000024  -1000024   # BR(H -> ~chi_1+ ~chi_1-)
     7.55284926E-03    2     1000037  -1000037   # BR(H -> ~chi_2+ ~chi_2-)
     5.88000942E-02    2     1000024  -1000037   # BR(H -> ~chi_1+ ~chi_2-)
     5.88000942E-02    2     1000037  -1000024   # BR(H -> ~chi_2+ ~chi_1-)
     8.47356333E-03    2     1000022   1000022   # BR(H -> ~chi_10 ~chi_10)
     4.64664993E-04    2     1000023   1000023   # BR(H -> ~chi_20 ~chi_20)
     4.01866724E-03    2     1000025   1000025   # BR(H -> ~chi_30 ~chi_30)
     2.99341812E-05    2     1000035   1000035   # BR(H -> ~chi_40 ~chi_40)
     2.07608616E-03    2     1000022   1000023   # BR(H -> ~chi_10 ~chi_20)
     3.01052529E-02    2     1000022   1000025   # BR(H -> ~chi_10 ~chi_30)
     1.12102737E-02    2     1000022   1000035   # BR(H -> ~chi_10 ~chi_40)
     3.38368957E-02    2     1000023   1000025   # BR(H -> ~chi_20 ~chi_30)
     1.03071934E-02    2     1000023   1000035   # BR(H -> ~chi_20 ~chi_40)
     1.09455342E-03    2     1000025   1000035   # BR(H -> ~chi_30 ~chi_40)
     3.02780145E-09    2     2000001  -2000001   # BR(H -> ~d_R    ~d_R*  )
     3.02780145E-09    2     2000003  -2000003   # BR(H -> ~s_R    ~s_R*  )
     1.82131229E-06    2     1000005  -1000005   # BR(H -> ~b_1    ~b_1*  )
     1.91685109E-07    2     1000015  -1000015   # BR(H -> ~tau_1- ~tau_1+)
     3.07804180E-03    2     1000015  -2000015   # BR(H -> ~tau_1- ~tau_2+)
     3.07804180E-03    2     2000015  -1000015   # BR(H -> ~tau_2- ~tau_1+)
     4.65510814E-08    2     1000016  -1000016   # BR(H -> ~nu_tauL ~nu_tauL*)
#
#         PDG            Width
DECAY        36     1.86280908E+02   # A decays
#          BR         NDA      ID1       ID2
     6.14248441E-01    2           5        -5   # BR(A -> b       bb     )
     1.17773263E-01    2         -15        15   # BR(A -> tau+    tau-   )
     3.95950083E-04    2         -13        13   # BR(A -> mu+     mu-    )
     2.59591347E-04    2           3        -3   # BR(A -> s       sb     )
     2.76868877E-09    2           4        -4   # BR(A -> c       cb     )
     2.72078852E-04    2           6        -6   # BR(A -> t       tb     )
     1.33057462E-05    2          21        21   # BR(A -> g       g      )
     3.51953505E-09    2          22        22   # BR(A -> gam     gam    )
     9.72671030E-09    2          23        22   # BR(A -> Z       gam    )
     8.72224534E-08    2          23        25   # BR(A -> Z       h      )
     3.31793458E-02    2     1000024  -1000024   # BR(A -> ~chi_1+ ~chi_1-)
     6.62666400E-03    2     1000037  -1000037   # BR(A -> ~chi_2+ ~chi_2-)
     5.97295013E-02    2     1000024  -1000037   # BR(A -> ~chi_1+ ~chi_2-)
     5.97295013E-02    2     1000037  -1000024   # BR(A -> ~chi_2+ ~chi_1-)
     7.98067414E-03    2     1000022   1000022   # BR(A -> ~chi_10 ~chi_10)
     5.06858184E-04    2     1000023   1000023   # BR(A -> ~chi_20 ~chi_20)
     3.57732420E-03    2     1000025   1000025   # BR(A -> ~chi_30 ~chi_30)
     4.18684636E-05    2     1000035   1000035   # BR(A -> ~chi_40 ~chi_40)
     2.33732991E-03    2     1000022   1000023   # BR(A -> ~chi_10 ~chi_20)
     2.87843932E-02    2     1000022   1000025   # BR(A -> ~chi_10 ~chi_30)
     1.01372871E-02    2     1000022   1000035   # BR(A -> ~chi_10 ~chi_40)
     3.57815393E-02    2     1000023   1000025   # BR(A -> ~chi_20 ~chi_30)
     1.14934813E-02    2     1000023   1000035   # BR(A -> ~chi_20 ~chi_40)
     9.75025276E-04    2     1000025   1000035   # BR(A -> ~chi_30 ~chi_40)
     3.07823642E-03    2     1000015  -2000015   # BR(A -> ~tau_1- ~tau_2+)
     3.07823642E-03    2    -1000015   2000015   # BR(A -> ~tau_1+ ~tau_2-)
#
#         PDG            Width
DECAY        37     1.86051553E+02   # H+ decays
#          BR         NDA      ID1       ID2
     1.03112409E-03    2           4        -5   # BR(H+ -> c       bb     )
     1.17955139E-01    2         -15        16   # BR(H+ -> tau+    nu_tau )
     3.96561543E-04    2         -13        14   # BR(H+ -> mu+     nu_mu  )
     1.03112322E-05    2           2        -5   # BR(H+ -> u       bb     )
     1.30077110E-05    2           2        -3   # BR(H+ -> u       sb     )
     2.56033915E-04    2           4        -3   # BR(H+ -> c       sb     )
     6.13100401E-01    2           6        -5   # BR(H+ -> t       bb     )
     8.74503120E-08    2          24        25   # BR(H+ -> W+      h      )
     1.18251767E-14    2          24        36   # BR(H+ -> W+      A      )
     1.01102003E-03    2     1000024   1000022   # BR(H+ -> ~chi_1+ ~chi_10)
     1.29090619E-02    2     1000024   1000023   # BR(H+ -> ~chi_1+ ~chi_20)
     7.21160775E-02    2     1000024   1000025   # BR(H+ -> ~chi_1+ ~chi_30)
     1.92627818E-02    2     1000024   1000035   # BR(H+ -> ~chi_1+ ~chi_40)
     8.83360742E-02    2     1000037   1000022   # BR(H+ -> ~chi_2+ ~chi_10)
     6.53278001E-02    2     1000037   1000023   # BR(H+ -> ~chi_2+ ~chi_20)
     1.83383017E-06    2     1000037   1000025   # BR(H+ -> ~chi_2+ ~chi_30)
     2.09563164E-03    2     1000037   1000035   # BR(H+ -> ~chi_2+ ~chi_40)
     2.13636220E-07    2    -1000015   1000016   # BR(H+ -> ~tau_1+ ~nu_tauL)
     6.17684006E-03    2    -2000015   1000016   # BR(H+ -> ~tau_2+ ~nu_tauL)
