#
#                              ======================
#                              | THE SUSYHIT OUTPUT |
#                              ======================
#
#
#              ------------------------------------------------------
#              |     This is the output of the SUSY-HIT package     |
#              |  created by A.Djouadi, M.Muehlleitner and M.Spira. |
#              |  In case of problems with SUSY-HIT email to        |
#              |           margarete.muehlleitner@cern.ch           |
#              |           michael.spira@psi.ch                     |
#              |           abdelhak.djouadi@cern.ch                 |
#              ------------------------------------------------------
#
#              ------------------------------------------------------
#              |  SUSY Les Houches Accord - MSSM Spectrum + Decays  |
#              |              based on the decay programs           |
#              |                                                    |
#              |                     SDECAY 1.3b                    |
#              |                                                    |
#              |  Authors: M.Muhlleitner, A.Djouadi and Y.Mambrini  |
#              |  Ref.:    Comput.Phys.Commun.168(2005)46           |
#              |           [hep-ph/0311167]                         |
#              |                                                    |
#              |                     HDECAY 3.4                     |
#              |                                                    |
#              |  By: A.Djouadi,J.Kalinowski,M.Muhlleitner,M.Spira  |
#              |  Ref.:    Comput.Phys.Commun.108(1998)56           |
#              |           [hep-ph/9704448]                         |
#              |                                                    |
#              |                                                    |
#              |  If not stated otherwise all DRbar couplings and   |
#              |  soft SUSY breaking masses are given at the scale  |
#              |  Q=  0.91187600E+02
#              |                                                    |
#              ------------------------------------------------------
#
#
BLOCK DCINFO  # Decay Program information
     1   SDECAY/HDECAY # decay calculator
     2   1.3b  /3.4    # version number
#
BLOCK SPINFO  # Spectrum calculator information
     1   SuSpect     # RGE +Spectrum calculator            
     2   2.41        # version number                      
#
BLOCK MODSEL  # Model selection
     1     2   # #general MSSM low scale                           
#
BLOCK SMINPUTS  # Standard Model inputs
         1     1.27934000E+02   # alpha_em^-1(M_Z)^MSbar
         2     1.16639000E-05   # G_F [GeV^-2]
         3     1.17200000E-01   # alpha_S(M_Z)^MSbar
         4     9.11870000E+01   # M_Z pole mass
         5     4.25000000E+00   # mb(mb)^MSbar
         6     1.75000000E+02   # mt pole mass
         7     1.77700000E+00   # mtau pole mass
#
BLOCK MINPAR  # Input parameters - minimal models
#
BLOCK EXTPAR  # Input parameters - non-minimal models
         0     9.11876000E+01   # EWSB                
         1     2.50000000E+03   # M_1                 
         2     2.50000000E+03   # M_2                 
         3     2.50000000E+03   # M_3                 
        11     0.00000000E+00   # A_t                 
        12     0.00000000E+00   # A_b                 
        13     0.00000000E+00   # A_tau               
        14     0.00000000E+00   # A_u                 
        15     0.00000000E+00   # A_d                 
        16     0.00000000E+00   # A_e                 
        23     1.00000000E+03   # mu(EWSB)            
        25     2.00000000E+00   # tanbeta(in)         
        26     2.50000000E+03   # MA_pole             
        31     2.50000000E+03   # M_eL                
        32     2.50000000E+03   # M_muL               
        33     2.50000000E+03   # M_tauL              
        34     2.50000000E+03   # M_eR                
        35     2.50000000E+03   # M_muR               
        36     8.00000000E+01   # M_tauR              
        41     2.50000000E+03   # M_q1L               
        42     2.50000000E+03   # M_q2L               
        43     2.50000000E+03   # M_q3L               
        44     2.50000000E+03   # M_uR                
        45     2.50000000E+03   # M_cR                
        46     3.60400000E+02   # M_tR                
        47     2.50000000E+03   # M_dR                
        48     2.50000000E+03   # M_sR                
        49     2.50000000E+03   # M_bR                
#
BLOCK MASS  # Mass Spectrum
# PDG code           mass       particle
        24     8.05376329E+01   # W+
        25     1.25000000E+02   # h
        35     1.76369410E+03   # H
        36     1.74237589E+03   # A
        37     1.74423624E+03   # H+
         5     4.87877839E+00   # b-quark pole mass calculated from mb(mb)_Msbar
   1000001     2.50041907E+03   # ~d_L
   2000001     2.50007980E+03   # ~d_R
   1000002     2.49966067E+03   # ~u_L
   2000002     2.49984040E+03   # ~u_R
   1000003     2.50041907E+03   # ~s_L
   2000003     2.50007980E+03   # ~s_R
   1000004     2.49966067E+03   # ~c_L
   2000004     2.49984040E+03   # ~c_R
   1000005     2.49915653E+03   # ~b_1
   2000005     2.50134479E+03   # ~b_2
   1000006     5.61092121E+02   # ~t_1
   2000006     2.50491987E+03   # ~t_2
   1000011     2.50025949E+03   # ~e_L
   2000011     2.50023939E+03   # ~e_R
   1000012     2.49950105E+03   # ~nu_eL
   1000013     2.50025949E+03   # ~mu_L
   2000013     2.50023939E+03   # ~mu_R
   1000014     2.49950105E+03   # ~nu_muL
   1000015     45.0072134E+01   # ~tau_1
   2000015     2.50026053E+03   # ~tau_2
   1000016     2.49950105E+03   # ~nu_tauL
   1000021     2.50000000E+03   # ~g
   1000022     9.95028816E+02   # ~chi_10
   1000023    -1.00023781E+03   # ~chi_20
   1000025     2.50000076E+03   # ~chi_30
   1000035     2.50520924E+03   # ~chi_40
   1000024     9.96398045E+02   # ~chi_1+
   1000037     2.50396308E+03   # ~chi_2+
   1000039     1.00000000E-06   # ~G
#
BLOCK NMIX  # Neutralino Mixing Matrix
  1  1     2.81012052E-02   # N_11
  1  2    -5.00171139E-02   # N_12
  1  3     7.06528249E-01   # N_13
  1  4    -7.05355545E-01   # N_14
  2  1     4.03943270E-03   # N_21
  2  2    -7.18975173E-03   # N_22
  2  3    -7.06830492E-01   # N_23
  2  4    -7.07334889E-01   # N_24
  3  1     8.71797876E-01   # N_31
  3  2     4.89865761E-01   # N_32
  3  3     2.47617226E-06   # N_33
  3  4    -3.99809872E-06   # N_34
  4  1     4.89066810E-01   # N_41
  4  2    -8.70318480E-01   # N_42
  4  3    -3.47633304E-02   # N_43
  4  4     4.63779019E-02   # N_44
#
BLOCK UMIX  # Chargino Mixing Matrix U
  1  1    -4.29156577E-02   # U_11
  1  2     9.99078699E-01   # U_12
  2  1     9.99078699E-01   # U_21
  2  2     4.29156577E-02   # U_22
#
BLOCK VMIX  # Chargino Mixing Matrix V
  1  1    -5.72621132E-02   # V_11
  1  2     9.98359179E-01   # V_12
  2  1     9.98359179E-01   # V_21
  2  2     5.72621132E-02   # V_22
#
BLOCK STOPMIX  # Stop Mixing Matrix
  1  1     1.29901584E-02   # cos(theta_t)
  1  2     9.99915624E-01   # sin(theta_t)
  2  1    -9.99915624E-01   # -sin(theta_t)
  2  2     1.29901584E-02   # cos(theta_t)
#
BLOCK SBOTMIX  # Sbottom Mixing Matrix
  1  1     6.49984042E-01   # cos(theta_b)
  1  2     7.59947857E-01   # sin(theta_b)
  2  1    -7.59947857E-01   # -sin(theta_b)
  2  2     6.49984042E-01   # cos(theta_b)
#
BLOCK STAUMIX  # Stau Mixing Matrix
  1  1     5.70462893E-04   # cos(theta_tau)
  1  2     9.99999837E-01   # sin(theta_tau)
  2  1    -9.99999837E-01   # -sin(theta_tau)
  2  2     5.70462893E-04   # cos(theta_tau)
#
BLOCK ALPHA  # Higgs mixing
          -4.65701664E-01   # Mixing angle in the neutral Higgs boson sector
#
BLOCK HMIX Q=  9.11876000E+01  # DRbar Higgs Parameters
         1     1.00000000E+03   # mu(Q)               
         2     1.99999974E+00   # tanbeta(Q)          
         3     2.52188921E+02   # vev(Q)              
         4     3.07472007E+06   # MA^2(Q)             
#
BLOCK GAUGE Q=  9.11876000E+01  # The gauge couplings
     1     3.53994666E-01   # gprime(Q) DRbar
     2     6.30071899E-01   # g(Q) DRbar
     3     1.09032280E+00   # g3(Q) DRbar
#
BLOCK AU Q=  9.11876000E+01  # The trilinear couplings
  1  1     0.00000000E+00   # A_u(Q) DRbar
  2  2     0.00000000E+00   # A_c(Q) DRbar
  3  3     0.00000000E+00   # A_t(Q) DRbar
#
BLOCK AD Q=  9.11876000E+01  # The trilinear couplings
  1  1     0.00000000E+00   # A_d(Q) DRbar
  2  2     0.00000000E+00   # A_s(Q) DRbar
  3  3     0.00000000E+00   # A_b(Q) DRbar
#
BLOCK AE Q=  9.11876000E+01  # The trilinear couplings
  1  1     0.00000000E+00   # A_e(Q) DRbar
  2  2     0.00000000E+00   # A_mu(Q) DRbar
  3  3     0.00000000E+00   # A_tau(Q) DRbar
#
BLOCK Yu Q=  9.11876000E+01  # The Yukawa couplings
  1  1     0.00000000E+00   # y_u(Q) DRbar
  2  2     0.00000000E+00   # y_c(Q) DRbar
  3  3     9.96364407E-01   # y_t(Q) DRbar
#
BLOCK Yd Q=  9.11876000E+01  # The Yukawa couplings
  1  1     0.00000000E+00   # y_d(Q) DRbar
  2  2     0.00000000E+00   # y_s(Q) DRbar
  3  3     3.38663774E-02   # y_b(Q) DRbar
#
BLOCK Ye Q=  9.11876000E+01  # The Yukawa couplings
  1  1     0.00000000E+00   # y_e(Q) DRbar
  2  2     0.00000000E+00   # y_mu(Q) DRbar
  3  3     2.23171101E-02   # y_tau(Q) DRbar
#
BLOCK MSOFT Q=  9.11876000E+01  # The soft SUSY breaking masses at the scale Q
         1     2.50000000E+03   # M_1                 
         2     2.50000000E+03   # M_2                 
         3     2.50000000E+03   # M_3                 
        14     0.00000000E+00   # A_u                 
        15     0.00000000E+00   # A_d                 
        16     0.00000000E+00   # A_e                 
        21     1.95871758E+06   # M^2_Hd              
        22    -6.66773205E+05   # M^2_Hu              
        31     2.50000000E+03   # M_eL                
        32     2.50000000E+03   # M_muL               
        33     2.50000000E+03   # M_tauL              
        34     2.50000000E+03   # M_eR                
        35     2.50000000E+03   # M_muR               
        36     8.00000000E+01   # M_tauR              
        41     2.50000000E+03   # M_q1L               
        42     2.50000000E+03   # M_q2L               
        43     2.50000000E+03   # M_q3L               
        44     2.50000000E+03   # M_uR                
        45     2.50000000E+03   # M_cR                
        46     3.60400000E+02   # M_tR                
        47     2.50000000E+03   # M_dR                
        48     2.50000000E+03   # M_sR                
        49     2.50000000E+03   # M_bR                
#
#
#
#                             =================
#                             |The decay table|
#                             =================
#
# - The QCD corrections to the decays gluino -> squark  + quark
#                                     squark -> gaugino + quark_prime
#                                     squark -> squark_prime + Higgs
#                                     squark -> gluino  + quark
#   are included.
#
# - The multi-body decays for the inos, stops and sbottoms are included.
#
# - The loop induced decays for the gluino, neutralinos and stops
#   are included.
#
# - The SUSY decays of the top quark are included.
#
# - Possible decays of the NLSP in GMSB models are included.
#
#
#         PDG            Width
DECAY         6     1.44287490E+00   # top decays
#          BR         NDA      ID1       ID2
     1.00000000E+00    2           5        24   # BR(t ->  b    W+)
#
#         PDG            Width
DECAY   1000021     3.01539845E+01   # gluino decays
#          BR         NDA      ID1       ID2
     1.11235968E-07    2     1000002        -2   # BR(~g -> ~u_L  ub)
     1.11235968E-07    2    -1000002         2   # BR(~g -> ~u_L* u )
     2.46092129E-08    2     2000002        -2   # BR(~g -> ~u_R  ub)
     2.46092129E-08    2    -2000002         2   # BR(~g -> ~u_R* u )
     1.11235968E-07    2     1000004        -4   # BR(~g -> ~c_L  cb)
     1.11235968E-07    2    -1000004         4   # BR(~g -> ~c_L* c )
     2.46092129E-08    2     2000004        -4   # BR(~g -> ~c_R  cb)
     2.46092129E-08    2    -2000004         4   # BR(~g -> ~c_R* c )
     4.99999728E-01    2     1000006        -6   # BR(~g -> ~t_1  tb)
     4.99999728E-01    2    -1000006         6   # BR(~g -> ~t_1* t )
     3.72856523E-12    2     1000039        21   # BR(~g -> ~G g)
#
#         PDG            Width
DECAY   1000006     3.41613940E-07   # stop1 decays
#          BR         NDA      ID1       ID2
#           BR         NDA      ID1       ID2       ID3
     1.00000000E+00    3    -1000015         5        16   # BR(~t_1 -> ~tau_1+  b  nu_tau)
#
#         PDG            Width
DECAY   2000006     2.97186267E+01   # stop2 decays
#          BR         NDA      ID1       ID2
     4.38901071E-01    2     1000022         6   # BR(~t_2 -> ~chi_10 t )
     4.42205454E-01    2     1000023         6   # BR(~t_2 -> ~chi_20 t )
     0.00000000E+00    2     1000025         6   # BR(~t_2 -> ~chi_30 t )
     2.61562739E-03    2     1000024         5   # BR(~t_2 -> ~chi_1+ b )
    -3.40217175E-02    2     1000006        25   # BR(~t_2 -> ~t_1    h )
     6.12393726E-02    2     1000006        35   # BR(~t_2 -> ~t_1    H )
     6.31807141E-02    2     1000006        36   # BR(~t_2 -> ~t_1    A )
     2.58794784E-02    2     1000006        23   # BR(~t_2 -> ~t_1    Z )
#
#         PDG            Width
DECAY   1000005     1.27166871E+01   # sbottom1 decays
#          BR         NDA      ID1       ID2
     3.32492725E-03    2     1000022         5   # BR(~b_1 -> ~chi_10 b )
     8.99842923E-04    2     1000023         5   # BR(~b_1 -> ~chi_20 b )
     7.46322932E-01    2    -1000024         6   # BR(~b_1 -> ~chi_1- t )
     1.19217444E-01    2     1000006       -37   # BR(~b_1 -> ~t_1    H-)
     1.30234854E-01    2     1000006       -24   # BR(~b_1 -> ~t_1    W-)
#
#         PDG            Width
DECAY   2000005     2.09822408E+01   # sbottom2 decays
#          BR         NDA      ID1       ID2
     3.43442479E-04    2     1000022         5   # BR(~b_2 -> ~chi_10 b )
     8.18914918E-04    2     1000023         5   # BR(~b_2 -> ~chi_20 b )
     7.82641525E-01    2    -1000024         6   # BR(~b_2 -> ~chi_1- t )
     1.05402739E-01    2     1000006       -37   # BR(~b_2 -> ~t_1    H-)
     1.10793379E-01    2     1000006       -24   # BR(~b_2 -> ~t_1    W-)
#
#         PDG            Width
DECAY   1000002     5.97403908E-02   # sup_L decays
#          BR         NDA      ID1       ID2
     2.33013738E-01    2     1000022         2   # BR(~u_L -> ~chi_10 u)
     4.79732696E-03    2     1000023         2   # BR(~u_L -> ~chi_20 u)
     7.62188935E-01    2     1000024         1   # BR(~u_L -> ~chi_1+ d)
#
#         PDG            Width
DECAY   2000002     3.14342587E-03   # sup_R decays
#          BR         NDA      ID1       ID2
     9.79827120E-01    2     1000022         2   # BR(~u_R -> ~chi_10 u)
     2.01728797E-02    2     1000023         2   # BR(~u_R -> ~chi_20 u)
#
#         PDG            Width
DECAY   1000001     4.73302902E-02   # sdown_L decays
#          BR         NDA      ID1       ID2
     4.48858588E-01    2     1000022         1   # BR(~d_L -> ~chi_10 d)
     9.24120474E-03    2     1000023         1   # BR(~d_L -> ~chi_20 d)
     6.01164561E-04    2     1000025         1   # BR(~d_L -> ~chi_30 d)
     5.40537283E-01    2    -1000024         2   # BR(~d_L -> ~chi_1- u)
     7.61759748E-04    2     1000021         1   # BR(~d_L -> ~g      d)
#
#         PDG            Width
DECAY   2000001     7.92586602E-04   # sdown_R decays
#          BR         NDA      ID1       ID2
     9.71595528E-01    2     1000022         1   # BR(~d_R -> ~chi_10 d)
     2.00034234E-02    2     1000023         1   # BR(~d_R -> ~chi_20 d)
     6.75113610E-03    2     1000025         1   # BR(~d_R -> ~chi_30 d)
     1.64991268E-03    2     1000021         1   # BR(~d_R -> ~g      d)
#
#         PDG            Width
DECAY   1000004     5.97403908E-02   # scharm_L decays
#          BR         NDA      ID1       ID2
     2.33013738E-01    2     1000022         4   # BR(~c_L -> ~chi_10 c)
     4.79732696E-03    2     1000023         4   # BR(~c_L -> ~chi_20 c)
     7.62188935E-01    2     1000024         3   # BR(~c_L -> ~chi_1+ s)
#
#         PDG            Width
DECAY   2000004     3.14342587E-03   # scharm_R decays
#          BR         NDA      ID1       ID2
     9.79827120E-01    2     1000022         4   # BR(~c_R -> ~chi_10 c)
     2.01728797E-02    2     1000023         4   # BR(~c_R -> ~chi_20 c)
#
#         PDG            Width
DECAY   1000003     4.73302902E-02   # sstrange_L decays
#          BR         NDA      ID1       ID2
     4.48858588E-01    2     1000022         3   # BR(~s_L -> ~chi_10 s)
     9.24120474E-03    2     1000023         3   # BR(~s_L -> ~chi_20 s)
     6.01164561E-04    2     1000025         3   # BR(~s_L -> ~chi_30 s)
     5.40537283E-01    2    -1000024         4   # BR(~s_L -> ~chi_1- c)
     7.61759748E-04    2     1000021         3   # BR(~s_L -> ~g      s)
#
#         PDG            Width
DECAY   2000003     7.92586602E-04   # sstrange_R decays
#          BR         NDA      ID1       ID2
     9.71595528E-01    2     1000022         3   # BR(~s_R -> ~chi_10 s)
     2.00034234E-02    2     1000023         3   # BR(~s_R -> ~chi_20 s)
     6.75113610E-03    2     1000025         3   # BR(~s_R -> ~chi_30 s)
     1.64991268E-03    2     1000021         3   # BR(~s_R -> ~g      s)
#
#         PDG            Width
DECAY   1000011     3.40968995E-02   # selectron_L decays
#          BR         NDA      ID1       ID2
     2.40308746E-01    2     1000022        11   # BR(~e_L -> ~chi_10 e-)
     4.94586655E-03    2     1000023        11   # BR(~e_L -> ~chi_20 e-)
     1.19027830E-05    2     1000025        11   # BR(~e_L -> ~chi_30 e-)
     7.54733485E-01    2    -1000024        12   # BR(~e_L -> ~chi_1- nu_e)
#
#         PDG            Width
DECAY   2000011     7.11676960E-03   # selectron_R decays
#          BR         NDA      ID1       ID2
     9.79786199E-01    2     1000022        11   # BR(~e_R -> ~chi_10 e-)
     2.01652952E-02    2     1000023        11   # BR(~e_R -> ~chi_20 e-)
     4.85053132E-05    2     1000025        11   # BR(~e_R -> ~chi_30 e-)
#
#         PDG            Width
DECAY   1000013     3.40968995E-02   # smuon_L decays
#          BR         NDA      ID1       ID2
     2.40308746E-01    2     1000022        13   # BR(~mu_L -> ~chi_10 mu-)
     4.94586655E-03    2     1000023        13   # BR(~mu_L -> ~chi_20 mu-)
     1.19027830E-05    2     1000025        13   # BR(~mu_L -> ~chi_30 mu-)
     7.54733485E-01    2    -1000024        14   # BR(~mu_L -> ~chi_1- nu_mu)
#
#         PDG            Width
DECAY   2000013     7.11676960E-03   # smuon_R decays
#          BR         NDA      ID1       ID2
     9.79786199E-01    2     1000022        13   # BR(~mu_R -> ~chi_10 mu-)
     2.01652952E-02    2     1000023        13   # BR(~mu_R -> ~chi_20 mu-)
     4.85053132E-05    2     1000025        13   # BR(~mu_R -> ~chi_30 mu-)
#
#         PDG            Width
DECAY   1000015     1.00000000E-10   # stau_1 decays
#          BR         NDA      ID1       ID2
     1.00000000E+00    2     1000039        15   # BR(~tau_1 -> ~G       tau-)
#
#         PDG            Width
DECAY   2000015     5.50898979E-02   # stau_2 decays
#          BR         NDA      ID1       ID2
     3.07195449E-01    2     1000022        15   # BR(~tau_2 -> ~chi_10  tau-)
     1.61592068E-01    2     1000023        15   # BR(~tau_2 -> ~chi_20  tau-)
     4.66689514E-01    2    -1000024        16   # BR(~tau_2 -> ~chi_1-  nu_tau)
     2.86066464E-02    2     1000015        25   # BR(~tau_2 -> ~tau_1   h)
     3.61687560E-03    2     1000015        35   # BR(~tau_2 -> ~tau_1   H)
     3.67480242E-03    2     1000015        36   # BR(~tau_2 -> ~tau_1   A)
     2.86246443E-02    2     1000015        23   # BR(~tau_2 -> ~tau_1   Z)
#
#         PDG            Width
DECAY   1000012     7.66822639E-02   # snu_eL decays
#          BR         NDA      ID1       ID2
     3.94723297E-01    2     1000022        12   # BR(~nu_eL -> ~chi_10 nu_e)
     8.12389999E-03    2     1000023        12   # BR(~nu_eL -> ~chi_20 nu_e)
     5.97152803E-01    2     1000024        11   # BR(~nu_eL -> ~chi_1+ e-)
#
#         PDG            Width
DECAY   1000014     7.66822639E-02   # snu_muL decays
#          BR         NDA      ID1       ID2
     3.94723297E-01    2     1000022        14   # BR(~nu_muL -> ~chi_10 nu_mu)
     8.12389999E-03    2     1000023        14   # BR(~nu_muL -> ~chi_20 nu_mu)
     5.97152803E-01    2     1000024        13   # BR(~nu_muL -> ~chi_1+ mu-)
#
#         PDG            Width
DECAY   1000016     9.76076313E-02   # snu_tauL decays
#          BR         NDA      ID1       ID2
     3.10101532E-01    2     1000022        16   # BR(~nu_tauL -> ~chi_10 nu_tau)
     6.38227804E-03    2     1000023        16   # BR(~nu_tauL -> ~chi_20 nu_tau)
     6.47908578E-01    2     1000024        15   # BR(~nu_tauL -> ~chi_1+ tau-)
     4.12506956E-03    2    -1000015       -37   # BR(~nu_tauL -> ~tau_1+ H-)
     3.14825420E-02    2    -1000015       -24   # BR(~nu_tauL -> ~tau_1+ W-)
#
#         PDG            Width
DECAY   1000024     2.02039243E+01   # chargino1+ decays
#          BR         NDA      ID1       ID2
     9.99759508E-01    2     1000006        -5   # BR(~chi_1+ -> ~t_1     bb)
     2.40491728E-04    2    -1000015        16   # BR(~chi_1+ -> ~tau_1+  nu_tau)
     2.73356150E-14    2     1000039        24   # BR(~chi_1+ -> ~G       W+)
#
#         PDG            Width
DECAY   1000037     2.95137880E+01   # chargino2+ decays
#          BR         NDA      ID1       ID2
     2.90359247E-04    2     1000002        -1   # BR(~chi_2+ -> ~u_L     db)
     2.37594479E-04    2    -1000001         2   # BR(~chi_2+ -> ~d_L*    u )
     2.90359247E-04    2     1000004        -3   # BR(~chi_2+ -> ~c_L     sb)
     2.37594479E-04    2    -1000003         4   # BR(~chi_2+ -> ~s_L*    c )
     7.25886506E-03    2     1000006        -5   # BR(~chi_2+ -> ~t_1     bb)
     4.23400959E-06    2     1000012       -11   # BR(~chi_2+ -> ~nu_eL   e+  )
     4.23400959E-06    2     1000014       -13   # BR(~chi_2+ -> ~nu_muL  mu+ )
     3.87960462E-06    2     1000016       -15   # BR(~chi_2+ -> ~nu_tau1 tau+)
     2.92206649E-06    2    -1000011        12   # BR(~chi_2+ -> ~e_L+    nu_e)
     2.92206649E-06    2    -1000013        14   # BR(~chi_2+ -> ~mu_L+   nu_mu)
     3.01716092E-07    2    -1000015        16   # BR(~chi_2+ -> ~tau_1+  nu_tau)
     2.92043097E-06    2    -2000015        16   # BR(~chi_2+ -> ~tau_2+  nu_tau)
     2.51892268E-01    2     1000024        23   # BR(~chi_2+ -> ~chi_1+  Z )
     2.44945355E-01    2     1000022        24   # BR(~chi_2+ -> ~chi_10  W+)
     2.45326754E-01    2     1000023        24   # BR(~chi_2+ -> ~chi_20  W+)
     2.49499437E-01    2     1000024        25   # BR(~chi_2+ -> ~chi_1+  h )
     3.82022289E-12    2     1000039        24   # BR(~chi_2+ -> ~G       W+)
     2.87019980E-16    2     1000039        37   # BR(~chi_2+ -> ~G       H+)
#
#         PDG            Width
DECAY   1000022     2.03525968E+01   # neutralino1 decays
#          BR         NDA      ID1       ID2
     4.99785148E-01    2     1000006        -6   # BR(~chi_10 -> ~t_1      tb)
     4.99785148E-01    2    -1000006         6   # BR(~chi_10 -> ~t_1*     t )
     2.14852298E-04    2     1000015       -15   # BR(~chi_10 -> ~tau_1-   tau+)
     2.14852298E-04    2    -1000015        15   # BR(~chi_10 -> ~tau_1+   tau-)
     1.47209879E-29    2     1000039        22   # BR(~chi_10 -> ~G        gam)
     2.40885613E-14    2     1000039        23   # BR(~chi_10 -> ~G        Z)
     2.53568955E-15    2     1000039        25   # BR(~chi_10 -> ~G        h)
#
#         PDG            Width
DECAY   1000023     2.04043323E+01   # neutralino2 decays
#          BR         NDA      ID1       ID2
     4.99878464E-01    2     1000006        -6   # BR(~chi_20 -> ~t_1      tb)
     4.99878464E-01    2    -1000006         6   # BR(~chi_20 -> ~t_1*     t )
     1.21536112E-04    2     1000015       -15   # BR(~chi_20 -> ~tau_1-   tau+)
     1.21536112E-04    2    -1000015        15   # BR(~chi_20 -> ~tau_1+   tau-)
     5.76550885E-32    2     1000039        22   # BR(~chi_20 -> ~G        gam)
     2.74119816E-15    2     1000039        23   # BR(~chi_20 -> ~G        Z)
     2.39063856E-14    2     1000039        25   # BR(~chi_20 -> ~G        h)
#
#         PDG            Width
DECAY   1000025     3.71738102E+01   # neutralino3 decays
#          BR         NDA      ID1       ID2
     9.01140689E-11    2     1000022        23   # BR(~chi_30 -> ~chi_10   Z )
     1.62350617E-09    2     1000023        23   # BR(~chi_30 -> ~chi_20   Z )
     1.86476533E-01    2     1000024       -24   # BR(~chi_30 -> ~chi_1+   W-)
     1.86476533E-01    2    -1000024        24   # BR(~chi_30 -> ~chi_1-   W+)
     7.33771484E-10    2     1000022        25   # BR(~chi_30 -> ~chi_10   h )
     1.48711099E-11    2     1000023        25   # BR(~chi_30 -> ~chi_20   h )
     7.44615920E-06    2     1000002        -2   # BR(~chi_30 -> ~u_L      ub)
     7.44615920E-06    2    -1000002         2   # BR(~chi_30 -> ~u_L*     u )
     3.50541426E-06    2     2000002        -2   # BR(~chi_30 -> ~u_R      ub)
     3.50541426E-06    2    -2000002         2   # BR(~chi_30 -> ~u_R*     u )
     7.44615920E-06    2     1000004        -4   # BR(~chi_30 -> ~c_L      cb)
     7.44615920E-06    2    -1000004         4   # BR(~chi_30 -> ~c_L*     c )
     3.50541426E-06    2     2000004        -4   # BR(~chi_30 -> ~c_R      cb)
     3.50541426E-06    2    -2000004         4   # BR(~chi_30 -> ~c_R*     c )
     1.86396280E-01    2     1000006        -6   # BR(~chi_30 -> ~t_1      tb)
     1.86396280E-01    2    -1000006         6   # BR(~chi_30 -> ~t_1*     t )
     1.27116219E-01    2     1000015       -15   # BR(~chi_30 -> ~tau_1-   tau+)
     1.27116219E-01    2    -1000015        15   # BR(~chi_30 -> ~tau_1+   tau-)
     8.06746098E-17    2     1000012       -12   # BR(~chi_30 -> ~nu_eL    nu_eb)
     8.06746098E-17    2    -1000012        12   # BR(~chi_30 -> ~nu_eL*   nu_e )
     8.06746098E-17    2     1000014       -14   # BR(~chi_30 -> ~nu_muL   nu_mub)
     8.06746098E-17    2    -1000014        14   # BR(~chi_30 -> ~nu_muL*  nu_mu )
     8.06746098E-17    2     1000016       -16   # BR(~chi_30 -> ~nu_tau1  nu_taub)
     8.06746098E-17    2    -1000016        16   # BR(~chi_30 -> ~nu_tau1* nu_tau )
     3.02447524E-12    2     1000039        22   # BR(~chi_30 -> ~G        gam)
     8.72759416E-21    2     1000039        23   # BR(~chi_30 -> ~G        Z)
     9.06325568E-24    2     1000039        25   # BR(~chi_30 -> ~G        h)
     1.54630506E-24    2     1000039        35   # BR(~chi_30 -> ~G        H)
     1.92620592E-26    2     1000039        36   # BR(~chi_30 -> ~G        A)
#
#         PDG            Width
DECAY   1000035     3.19887363E+01   # neutralino4 decays
#          BR         NDA      ID1       ID2
     6.12330945E-03    2     1000022        23   # BR(~chi_40 -> ~chi_10   Z )
     2.98899309E-01    2     1000023        23   # BR(~chi_40 -> ~chi_20   Z )
     8.11097270E-02    2     1000024       -24   # BR(~chi_40 -> ~chi_1+   W-)
     8.11097270E-02    2    -1000024        24   # BR(~chi_40 -> ~chi_1-   W+)
     2.95633077E-01    2     1000022        25   # BR(~chi_40 -> ~chi_10   h )
     6.00312101E-03    2     1000023        25   # BR(~chi_40 -> ~chi_20   h )
     2.07427318E-04    2     1000002        -2   # BR(~chi_40 -> ~u_L      ub)
     2.07427318E-04    2    -1000002         2   # BR(~chi_40 -> ~u_L*     u )
     4.43783516E-05    2     2000002        -2   # BR(~chi_40 -> ~u_R      ub)
     4.43783516E-05    2    -2000002         2   # BR(~chi_40 -> ~u_R*     u )
     2.72031316E-04    2     1000001        -1   # BR(~chi_40 -> ~d_L      db)
     2.72031316E-04    2    -1000001         1   # BR(~chi_40 -> ~d_L*     d )
     1.05851633E-05    2     2000001        -1   # BR(~chi_40 -> ~d_R      db)
     1.05851633E-05    2    -2000001         1   # BR(~chi_40 -> ~d_R*     d )
     2.07427318E-04    2     1000004        -4   # BR(~chi_40 -> ~c_L      cb)
     2.07427318E-04    2    -1000004         4   # BR(~chi_40 -> ~c_L*     c )
     4.43783516E-05    2     2000004        -4   # BR(~chi_40 -> ~c_R      cb)
     4.43783516E-05    2    -2000004         4   # BR(~chi_40 -> ~c_R*     c )
     2.72031316E-04    2     1000003        -3   # BR(~chi_40 -> ~s_L      sb)
     2.72031316E-04    2    -1000003         3   # BR(~chi_40 -> ~s_L*     s )
     1.05851633E-05    2     2000003        -3   # BR(~chi_40 -> ~s_R      sb)
     1.05851633E-05    2    -2000003         3   # BR(~chi_40 -> ~s_R*     s )
     6.84045499E-02    2     1000006        -6   # BR(~chi_40 -> ~t_1      tb)
     6.84045499E-02    2    -1000006         6   # BR(~chi_40 -> ~t_1*     t )
     6.43927696E-06    2     1000005        -5   # BR(~chi_40 -> ~b_1      bb)
     6.43927696E-06    2    -1000005         5   # BR(~chi_40 -> ~b_1*     b )
     8.54685803E-07    2     1000011       -11   # BR(~chi_40 -> ~e_L-     e+)
     8.54685803E-07    2    -1000011        11   # BR(~chi_40 -> ~e_L+     e-)
     7.33674532E-07    2     2000011       -11   # BR(~chi_40 -> ~e_R-     e+)
     7.33674532E-07    2    -2000011        11   # BR(~chi_40 -> ~e_R+     e-)
     8.54685803E-07    2     1000013       -13   # BR(~chi_40 -> ~mu_L-    mu+)
     8.54685803E-07    2    -1000013        13   # BR(~chi_40 -> ~mu_L+    mu-)
     7.33674532E-07    2     2000013       -13   # BR(~chi_40 -> ~mu_R-    mu+)
     7.33674532E-07    2    -2000013        13   # BR(~chi_40 -> ~mu_R+    mu-)
     4.65857033E-02    2     1000015       -15   # BR(~chi_40 -> ~tau_1-   tau+)
     4.65857033E-02    2    -1000015        15   # BR(~chi_40 -> ~tau_1+   tau-)
     7.95483839E-07    2     2000015       -15   # BR(~chi_40 -> ~tau_2-   tau+)
     7.95483839E-07    2    -2000015        15   # BR(~chi_40 -> ~tau_2+   tau-)
     4.20103911E-06    2     1000012       -12   # BR(~chi_40 -> ~nu_eL    nu_eb)
     4.20103911E-06    2    -1000012        12   # BR(~chi_40 -> ~nu_eL*   nu_e )
     4.20103911E-06    2     1000014       -14   # BR(~chi_40 -> ~nu_muL   nu_mub)
     4.20103911E-06    2    -1000014        14   # BR(~chi_40 -> ~nu_muL*  nu_mu )
     4.20103911E-06    2     1000016       -16   # BR(~chi_40 -> ~nu_tau1  nu_taub)
     4.20103911E-06    2    -1000016        16   # BR(~chi_40 -> ~nu_tau1* nu_tau )
     2.37933881E-20    2     1000039        22   # BR(~chi_40 -> ~G        gam)
     3.52657279E-12    2     1000039        23   # BR(~chi_40 -> ~G        Z)
     1.17286319E-15    2     1000039        25   # BR(~chi_40 -> ~G        h)
     3.09381361E-16    2     1000039        35   # BR(~chi_40 -> ~G        H)
     1.35207113E-17    2     1000039        36   # BR(~chi_40 -> ~G        A)
#
#         PDG            Width
DECAY        25     4.12905006E-03   # h decays
#          BR         NDA      ID1       ID2
     6.14736061E-01    2           5        -5   # BR(h -> b       bb     )
     6.31809067E-02    2         -15        15   # BR(h -> tau+    tau-   )
     2.23637140E-04    2         -13        13   # BR(h -> mu+     mu-    )
     4.73910345E-04    2           3        -3   # BR(h -> s       sb     )
     2.04307442E-02    2           4        -4   # BR(h -> c       cb     )
     7.32079783E-02    2          21        21   # BR(h -> g       g      )
     2.17015678E-03    2          22        22   # BR(h -> gam     gam    )
     1.52135717E-03    2          22        23   # BR(h -> Z       gam    )
     1.98707114E-01    2          24       -24   # BR(h -> W+      W-     )
     2.53481343E-02    2          23        23   # BR(h -> Z       Z      )
#
#         PDG            Width
DECAY        35     2.00562595E+01   # H decays
#          BR         NDA      ID1       ID2
     4.23107002E-03    2           5        -5   # BR(H -> b       bb     )
     7.27494984E-04    2         -15        15   # BR(H -> tau+    tau-   )
     2.57196914E-06    2         -13        13   # BR(H -> mu+     mu-    )
     3.37021486E-06    2           3        -3   # BR(H -> s       sb     )
     9.58129122E-06    2           4        -4   # BR(H -> c       cb     )
     9.64297405E-01    2           6        -6   # BR(H -> t       tb     )
     1.01854706E-03    2          21        21   # BR(H -> g       g      )
     3.57671460E-06    2          22        22   # BR(H -> gam     gam    )
     1.21278846E-06    2          23        22   # BR(H -> Z       gam    )
     3.74004466E-04    2          24       -24   # BR(H -> W+      W-     )
     1.86343784E-04    2          23        23   # BR(H -> Z       Z      )
     1.33185935E-03    2          25        25   # BR(H -> h       h      )
     3.21136069E-18    2          36        36   # BR(H -> A       A      )
     2.40594051E-07    2          23        36   # BR(H -> Z       A      )
     3.72579351E-07    2          24       -37   # BR(H -> W+      H-     )
     3.72579351E-07    2         -24        37   # BR(H -> W-      H+     )
     2.77334864E-02    2     1000006  -1000006   # BR(H -> ~t_1    ~t_1*  )
     7.84903299E-05    2     1000015  -1000015   # BR(H -> ~tau_1- ~tau_1+)
#
#         PDG            Width
DECAY        36     1.96425606E+01   # A decays
#          BR         NDA      ID1       ID2
     4.31392620E-03    2           5        -5   # BR(A -> b       bb     )
     7.35354082E-04    2         -15        15   # BR(A -> tau+    tau-   )
     2.59974362E-06    2         -13        13   # BR(A -> mu+     mu-    )
     3.46865477E-06    2           3        -3   # BR(A -> s       sb     )
     9.68980872E-06    2           4        -4   # BR(A -> c       cb     )
     9.93480266E-01    2           6        -6   # BR(A -> t       tb     )
     1.08543052E-03    2          21        21   # BR(A -> g       g      )
     3.71570808E-06    2          22        22   # BR(A -> gam     gam    )
     1.49583426E-06    2          23        22   # BR(A -> Z       gam    )
     3.64053908E-04    2          23        25   # BR(A -> Z       h      )
#
#         PDG            Width
DECAY        37     1.92094043E+01   # H+ decays
#          BR         NDA      ID1       ID2
     6.88735215E-06    2           4        -5   # BR(H+ -> c       bb     )
     7.52738565E-04    2         -15        16   # BR(H+ -> tau+    nu_tau )
     2.66120407E-06    2         -13        14   # BR(H+ -> mu+     nu_mu  )
     4.39816634E-08    2           2        -5   # BR(H+ -> u       bb     )
     1.67949242E-07    2           2        -3   # BR(H+ -> u       sb     )
     1.29511689E-05    2           4        -3   # BR(H+ -> c       sb     )
     9.98850388E-01    2           6        -5   # BR(H+ -> t       bb     )
     3.74162140E-04    2          24        25   # BR(H+ -> W+      h      )
     1.52495148E-12    2          24        36   # BR(H+ -> W+      A      )
