#
#                              ======================
#                              | THE SUSYHIT OUTPUT |
#                              ======================
#
#
#              ------------------------------------------------------
#              |     This is the output of the SUSY-HIT package     |
#              |  created by A.Djouadi, M.Muehlleitner and M.Spira. |
#              |  In case of problems with SUSY-HIT email to        |
#              |           margarete.muehlleitner@cern.ch           |
#              |           michael.spira@psi.ch                     |
#              |           abdelhak.djouadi@cern.ch                 |
#              ------------------------------------------------------
#
#              ------------------------------------------------------
#              |  SUSY Les Houches Accord - MSSM Spectrum + Decays  |
#              |              based on the decay programs           |
#              |                                                    |
#              |                     SDECAY 1.3b                    |
#              |                                                    |
#              |  Authors: M.Muhlleitner, A.Djouadi and Y.Mambrini  |
#              |  Ref.:    Comput.Phys.Commun.168(2005)46           |
#              |           [hep-ph/0311167]                         |
#              |                                                    |
#              |                     HDECAY 3.4                     |
#              |                                                    |
#              |  By: A.Djouadi,J.Kalinowski,M.Muhlleitner,M.Spira  |
#              |  Ref.:    Comput.Phys.Commun.108(1998)56           |
#              |           [hep-ph/9704448]                         |
#              |                                                    |
#              |                                                    |
#              |  If not stated otherwise all DRbar couplings and   |
#              |  soft SUSY breaking masses are given at the scale  |
#              |  Q=  0.11372880E+04
#              |                                                    |
#              ------------------------------------------------------
#
#
BLOCK DCINFO  # Decay Program information
     1   SDECAY/HDECAY # decay calculator
     2   1.3b  /3.4    # version number
#
BLOCK SPINFO  # Spectrum calculator information
     1     SOFTSUSY    # spectrum calculator               
     2     3.4.0       # version number                    
#
BLOCK MODSEL  # Model selection
     1     0   #  nonUniversal                                     
#
BLOCK SMINPUTS  # Standard Model inputs
         1     1.27908970E+02   # alpha_em^-1(M_Z)^MSbar
         2     1.16637870E-05   # G_F [GeV^-2]
         3     1.18400000E-01   # alpha_S(M_Z)^MSbar
         4     9.11876000E+01   # M_Z pole mass
         5     4.18000000E+00   # mb(mb)^MSbar
         6     1.73200000E+02   # mt pole mass
         7     1.77700000E+00   # mtau pole mass
#
BLOCK MINPAR  # Input parameters - minimal models
         3     9.17000000E+00   # tanb                
#
BLOCK EXTPAR  # Input parameters - non-minimal models
         0    -1.00000000E+00   # Set                 
         1    -3.06956000E+03   # M_1(MX)             
         2     7.70510000E+02   # M_2(MX)             
         3     1.08121000E+03   # M_3(MX)             
        11     2.17658000E+03   # At(MX)              
        12     5.18460000E+02   # Ab(MX)              
        13     3.84122000E+03   # Atau(MX)            
        23     2.22250000E+02   # mu(MX)              
        26     3.41975000E+03   # mA(pole)            
        31     2.44379000E+03   # meL(MX)             
        32     2.44379000E+03   # mmuL(MX)            
        33     1.75442000E+03   # mtauL(MX)           
        34     3.35382000E+03   # meR(MX)             
        35     3.35382000E+03   # mmuR(MX)            
        36     3.96809000E+03   # mtauR(MX)           
        41     2.81213000E+03   # mqL1(MX)            
        42     2.81213000E+03   # mqL2(MX)            
        43     6.65210000E+02   # mqL3(MX)            
        44     2.18953000E+03   # muR(MX)             
        45     2.18953000E+03   # mcR(MX)             
        46     1.95506000E+03   # mtR(MX)             
        47     3.18487000E+03   # mdR(MX)             
        48     3.18487000E+03   # msR(MX)             
        49     7.63580000E+02   # mbR(MX)             
#
BLOCK MASS  # Mass Spectrum
# PDG code           mass       particle
        24     8.04141714E+01   # W+
        25     1.24981324E+02   # h
        35     3.41983132E+03   # H
        36     3.41974990E+03   # A
        37     3.42098630E+03   # H+
         5     4.81876030E+00   # b-quark pole mass calculated from mb(mb)_Msbar
   1000001     2.83978885E+03   # ~d_L
   2000001     3.21114121E+03   # ~d_R
   1000002     2.83882437E+03   # ~u_L
   2000002     2.20213634E+03   # ~u_R
   1000003     2.83978885E+03   # ~s_L
   2000003     3.21114121E+03   # ~s_R
   1000004     2.83882437E+03   # ~c_L
   2000004     2.20213634E+03   # ~c_R
   1000005     7.35590005E+02   # ~b_1
   2000005     8.24131171E+02   # ~b_2
   1000006     7.27246612E+02   # ~t_1
   2000006     1.95602493E+03   # ~t_2
   1000011     2.44295215E+03   # ~e_L
   2000011     3.36078528E+03   # ~e_R
   1000012     2.44135800E+03   # ~nu_eL
   1000013     2.44295215E+03   # ~mu_L
   2000013     3.36078528E+03   # ~mu_R
   1000014     2.44135800E+03   # ~nu_muL
   1000015     1.75175457E+03   # ~tau_1
   2000015     3.97402355E+03   # ~tau_2
   1000016     1.74965901E+03   # ~nu_tauL
   1000021     1.21096729E+03   # ~g
   1000022     2.23317765E+02   # ~chi_10
   1000023    -2.31110432E+02   # ~chi_20
   1000025     8.07580319E+02   # ~chi_30
   1000035    -3.08202086E+03   # ~chi_40
   1000024     2.25308512E+02   # ~chi_1+
   1000037     8.07783971E+02   # ~chi_2+
#
BLOCK NMIX  # Neutralino Mixing Matrix
  1  1    -1.00994138E-02   # N_11
  1  2    -1.07715616E-01   # N_12
  1  3     7.10264768E-01   # N_13
  1  4    -6.95571209E-01   # N_14
  2  1     9.50619898E-03   # N_21
  2  2     4.94776043E-02   # N_22
  2  3     7.02678169E-01   # N_23
  2  4     7.09721769E-01   # N_24
  3  1    -1.29255466E-03   # N_31
  3  2     9.92949766E-01   # N_32
  3  3     4.20362907E-02   # N_33
  3  4    -1.10824376E-01   # N_34
  4  1     9.99902977E-01   # N_41
  4  2    -2.74793344E-04   # N_42
  4  3     5.47846674E-04   # N_43
  4  4    -1.39162146E-02   # N_44
#
BLOCK UMIX  # Chargino Mixing Matrix U
  1  1    -5.95157177E-02   # U_11
  1  2     9.98227369E-01   # U_12
  2  1    -9.98227369E-01   # U_21
  2  2    -5.95157177E-02   # U_22
#
BLOCK VMIX  # Chargino Mixing Matrix V
  1  1    -1.57224100E-01   # V_11
  1  2     9.87562951E-01   # V_12
  2  1    -9.87562951E-01   # V_21
  2  2    -1.57224100E-01   # V_22
#
BLOCK STOPMIX  # Stop Mixing Matrix
  1  1     9.95476872E-01   # cos(theta_t)
  1  2    -9.50041963E-02   # sin(theta_t)
  2  1     9.50041963E-02   # -sin(theta_t)
  2  2     9.95476872E-01   # cos(theta_t)
#
BLOCK SBOTMIX  # Sbottom Mixing Matrix
  1  1     9.99665089E-01   # cos(theta_b)
  1  2     2.58787526E-02   # sin(theta_b)
  2  1    -2.58787526E-02   # -sin(theta_b)
  2  2     9.99665089E-01   # cos(theta_b)
#
BLOCK STAUMIX  # Stau Mixing Matrix
  1  1     9.99999969E-01   # cos(theta_tau)
  1  2    -2.48997990E-04   # sin(theta_tau)
  2  1     2.48997990E-04   # -sin(theta_tau)
  2  2     9.99999969E-01   # cos(theta_tau)
#
BLOCK ALPHA  # Higgs mixing
          -1.13136894E-01   # Mixing angle in the neutral Higgs boson sector
#
BLOCK HMIX Q=  1.13728800E+03  # DRbar Higgs Parameters
         1     2.24986308E+02   # mu(Q)MSSM           
         2     8.81948803E+00   # tan                 
         3     2.43241373E+02   # higgs               
         4     1.17197349E+07   # mA^2(Q)MSSM         
#
BLOCK GAUGE Q=  1.13728800E+03  # The gauge couplings
     1     3.62002884E-01   # gprime(Q) DRbar
     2     6.40027349E-01   # g(Q) DRbar
     3     1.05076194E+00   # g3(Q) DRbar
#
BLOCK AU Q=  1.13728800E+03  # The trilinear couplings
  1  1     0.00000000E+00   # A_u(Q) DRbar
  2  2     0.00000000E+00   # A_c(Q) DRbar
  3  3     2.17658000E+03   # A_t(Q) DRbar
#
BLOCK AD Q=  1.13728800E+03  # The trilinear couplings
  1  1     0.00000000E+00   # A_d(Q) DRbar
  2  2     0.00000000E+00   # A_s(Q) DRbar
  3  3     5.18460000E+02   # A_b(Q) DRbar
#
BLOCK AE Q=  1.13728800E+03  # The trilinear couplings
  1  1     0.00000000E+00   # A_e(Q) DRbar
  2  2     0.00000000E+00   # A_mu(Q) DRbar
  3  3     3.84122000E+03   # A_tau(Q) DRbar
#
BLOCK Yu Q=  1.13728800E+03  # The Yukawa couplings
  1  1     0.00000000E+00   # y_u(Q) DRbar
  2  2     0.00000000E+00   # y_c(Q) DRbar
  3  3     8.80620201E-01   # y_t(Q) DRbar
#
BLOCK Yd Q=  1.13728800E+03  # The Yukawa couplings
  1  1     0.00000000E+00   # y_d(Q) DRbar
  2  2     0.00000000E+00   # y_s(Q) DRbar
  3  3     1.20509644E-01   # y_b(Q) DRbar
#
BLOCK Ye Q=  1.13728800E+03  # The Yukawa couplings
  1  1     0.00000000E+00   # y_e(Q) DRbar
  2  2     0.00000000E+00   # y_mu(Q) DRbar
  3  3     9.08844773E-02   # y_tau(Q) DRbar
#
BLOCK MSOFT Q=  1.13728800E+03  # The soft SUSY breaking masses at the scale Q
         1    -3.06956000E+03   # M_1(Q)              
         2     7.70510000E+02   # M_2(Q)              
         3     1.08121000E+03   # M_3(Q)              
        21     1.14909083E+07   # mH1^2(Q)            
        22     4.21810728E+04   # mH2^2(Q)            
        31     2.44379000E+03   # meL(Q)              
        32     2.44379000E+03   # mmuL(Q)             
        33     1.75442000E+03   # mtauL(Q)            
        34     3.35382000E+03   # meR(Q)              
        35     3.35382000E+03   # mmuR(Q)             
        36     3.96809000E+03   # mtauR(Q)            
        41     2.81213000E+03   # mqL1(Q)             
        42     2.81213000E+03   # mqL2(Q)             
        43     6.65209999E+02   # mqL3(Q)             
        44     2.18953000E+03   # muR(Q)              
        45     2.18953000E+03   # mcR(Q)              
        46     1.95506000E+03   # mtR(Q)              
        47     3.18487000E+03   # mdR(Q)              
        48     3.18487000E+03   # msR(Q)              
        49     7.63579999E+02   # mbR(Q)              
#
Block HiggsBoundsInputHiggsCouplingsFermions
# ScalarNormEffCoupSq PseudoSNormEffCoupSq NP   IP1 IP2 IP2
    1.00412846E+00    0.00000000E+00        3  25   5   5  # h0-b-b eff. coupling^2, normalised to SM
    7.77792406E+01    0.00000000E+00        3  35   5   5  # H0-b-b eff. coupling^2, normalised to SM
    0.00000000E+00    7.77833691E+01        3  36   5   5  # A0-b-b eff. coupling^2, normalised to SM
#
    9.99946924E-01    0.00000000E+00        3  25   6   6  # h0-t-t eff. coupling^2, normalised to SM
    1.29092951E-02    0.00000000E+00        3  35   6   6  # H0-t-t eff. coupling^2, normalised to SM
    0.00000000E+00    1.28562186E-02        3  36   6   6  # A0-t-t eff. coupling^2, normalised to SM
#
    1.00412846E+00    0.00000000E+00        3  25  15  15  # h0-tau-tau eff. coupling^2, normalised to SM
    7.77792406E+01    0.00000000E+00        3  35  15  15  # H0-tau-tau eff. coupling^2, normalised to SM
    0.00000000E+00    7.77833691E+01        3  36  15  15  # A0-tau-tau eff. coupling^2, normalised to SM
#
Block HiggsBoundsInputHiggsCouplingsBosons
    9.99999945E-01        3  25  24  24  # h0-W-W eff. coupling^2, normalised to SM
    5.46696699E-08        3  35  24  24  # H0-W-W eff. coupling^2, normalised to SM
    0.00000000E+00        3  36  24  24  # A0-W-W eff. coupling^2, normalised to SM
#
    9.99999945E-01        3  25  23  23  # h0-Z-Z eff. coupling^2, normalised to SM
    5.46696699E-08        3  35  23  23  # H0-Z-Z eff. coupling^2, normalised to SM
    0.00000000E+00        3  36  23  23  # A0-Z-Z eff. coupling^2, normalised to SM
#
    8.94435261E-01        3  25  21  21  # h0-g-g eff. coupling^2, normalised to SM
    1.13621428E-13        3  35  21  21  # H0-g-g eff. coupling^2, normalised to SM
    1.08078161E-12        3  36  21  21  # A0-g-g eff. coupling^2, normalised to SM
#
    0.00000000E+00        3  25  25  23  # h0-h0-Z eff. coupling^2, normalised to SM
    0.00000000E+00        3  35  25  23  # H0-h0-Z eff. coupling^2, normalised to SM
    5.46696699E-08        3  36  25  23  # A0-h0-Z eff. coupling^2, normalised to SM
    0.00000000E+00        3  35  35  23  # H0-H0-Z eff. coupling^2, normalised to SM
    9.99999945E-01        3  36  35  23  # A0-H0-Z eff. coupling^2, normalised to SM
    0.00000000E+00        3  36  36  23  # A0-A0-Z eff. coupling^2, normalised to SM
#
    0.00000000E+00        4  25  21  21  23  # h0-g-g-Z eff. coupling^2, normalised to SM
    0.00000000E+00        4  35  21  21  23  # H0-g-g-Z eff. coupling^2, normalised to SM
    0.00000000E+00        4  36  21  21  23  # A0-g-g-Z eff. coupling^2, normalised to SM
#
#
#
#                             =================
#                             |The decay table|
#                             =================
#
# - The QCD corrections to the decays gluino -> squark  + quark
#                                     squark -> gaugino + quark_prime
#                                     squark -> squark_prime + Higgs
#                                     squark -> gluino  + quark
#   are included.
#
# - The multi-body decays for the inos, stops and sbottoms are included.
#
# - The loop induced decays for the gluino, neutralinos and stops
#   are included.
#
# - The SUSY decays of the top quark are included.
#
#
#         PDG            Width
DECAY         6     1.44158716E+00   # top decays
#          BR         NDA      ID1       ID2
     1.00000000E+00    2           5        24   # BR(t ->  b    W+)
#
#         PDG            Width
DECAY   1000021     3.02228932E+01   # gluino decays
#          BR         NDA      ID1       ID2
     1.79215203E-01    2     1000005        -5   # BR(~g -> ~b_1  bb)
     1.79215203E-01    2    -1000005         5   # BR(~g -> ~b_1* b )
     1.30111567E-01    2     2000005        -5   # BR(~g -> ~b_2  bb)
     1.30111567E-01    2    -2000005         5   # BR(~g -> ~b_2* b )
     1.90673231E-01    2     1000006        -6   # BR(~g -> ~t_1  tb)
     1.90673231E-01    2    -1000006         6   # BR(~g -> ~t_1* t )
#
#         PDG            Width
DECAY   1000006     7.86009468E+00   # stop1 decays
#          BR         NDA      ID1       ID2
     4.88964481E-01    2     1000022         6   # BR(~t_1 -> ~chi_10 t )
     4.89030634E-01    2     1000023         6   # BR(~t_1 -> ~chi_20 t )
     2.20048845E-02    2     1000024         5   # BR(~t_1 -> ~chi_1+ b )
#
#         PDG            Width
DECAY   2000006     1.56597182E+02   # stop2 decays
#          BR         NDA      ID1       ID2
     9.03154040E-02    2     1000022         6   # BR(~t_2 -> ~chi_10 t )
     9.37812311E-02    2     1000023         6   # BR(~t_2 -> ~chi_20 t )
     4.94571257E-04    2     1000025         6   # BR(~t_2 -> ~chi_30 t )
     1.85391281E-01    2     1000024         5   # BR(~t_2 -> ~chi_1+ b )
     1.03428824E-03    2     1000037         5   # BR(~t_2 -> ~chi_2+ b )
     2.75898144E-01    2     1000021         6   # BR(~t_2 -> ~g      t )
     9.48331303E-02    2     1000006        25   # BR(~t_2 -> ~t_1    h )
     8.75880427E-02    2     1000006        23   # BR(~t_2 -> ~t_1    Z )
     1.70563520E-01    2     1000005        24   # BR(~t_2 -> ~b_1    W+)
     1.00387625E-04    2     2000005        24   # BR(~t_2 -> ~b_2    W+)
#
#         PDG            Width
DECAY   1000005     7.98791513E+00   # sbottom1 decays
#          BR         NDA      ID1       ID2
     1.47724302E-02    2     1000022         5   # BR(~b_1 -> ~chi_10 b )
     1.12102909E-02    2     1000023         5   # BR(~b_1 -> ~chi_20 b )
     9.74017279E-01    2    -1000024         6   # BR(~b_1 -> ~chi_1- t )
#
#         PDG            Width
DECAY   2000005     3.96573487E-01   # sbottom2 decays
#          BR         NDA      ID1       ID2
     2.53007617E-01    2     1000022         5   # BR(~b_2 -> ~chi_10 b )
     2.54801542E-01    2     1000023         5   # BR(~b_2 -> ~chi_20 b )
     1.76362996E-05    2     1000025         5   # BR(~b_2 -> ~chi_30 b )
     4.91067645E-01    2    -1000024         6   # BR(~b_2 -> ~chi_1- t )
     1.10556072E-03    2     1000006       -24   # BR(~b_2 -> ~t_1    W-)
#
#         PDG            Width
DECAY   1000002     1.59279350E+02   # sup_L decays
#          BR         NDA      ID1       ID2
     8.31586987E-04    2     1000022         2   # BR(~u_L -> ~chi_10 u)
     1.81754179E-04    2     1000023         2   # BR(~u_L -> ~chi_20 u)
     5.84250698E-02    2     1000025         2   # BR(~u_L -> ~chi_30 u)
     3.42062394E-03    2     1000024         1   # BR(~u_L -> ~chi_1+ d)
     1.15632276E-01    2     1000037         1   # BR(~u_L -> ~chi_2+ d)
     8.21508689E-01    2     1000021         2   # BR(~u_L -> ~g      u)
#
#         PDG            Width
DECAY   2000002     7.38170306E+01   # sup_R decays
#          BR         NDA      ID1       ID2
     6.63488956E-06    2     1000022         2   # BR(~u_R -> ~chi_10 u)
     5.87001734E-06    2     1000023         2   # BR(~u_R -> ~chi_20 u)
     8.34131434E-08    2     1000025         2   # BR(~u_R -> ~chi_30 u)
     9.99987412E-01    2     1000021         2   # BR(~u_R -> ~g      u)
#
#         PDG            Width
DECAY   1000001     1.59305790E+02   # sdown_L decays
#          BR         NDA      ID1       ID2
     7.74956558E-04    2     1000022         1   # BR(~d_L -> ~chi_10 d)
     1.57257543E-04    2     1000023         1   # BR(~d_L -> ~chi_20 d)
     5.84997660E-02    2     1000025         1   # BR(~d_L -> ~chi_30 d)
     4.90243179E-04    2    -1000024         2   # BR(~d_L -> ~chi_1- u)
     1.18178104E-01    2    -1000037         2   # BR(~d_L -> ~chi_2- u)
     8.21899672E-01    2     1000021         1   # BR(~d_L -> ~g      d)
#
#         PDG            Width
DECAY   2000001     1.62756535E+02   # sdown_R decays
#          BR         NDA      ID1       ID2
     1.11559359E-06    2     1000022         1   # BR(~d_R -> ~chi_10 d)
     9.87729398E-07    2     1000023         1   # BR(~d_R -> ~chi_20 d)
     1.62095784E-08    2     1000025         1   # BR(~d_R -> ~chi_30 d)
     7.39533735E-05    2     1000035         1   # BR(~d_R -> ~chi_40 d)
     9.99923927E-01    2     1000021         1   # BR(~d_R -> ~g      d)
#
#         PDG            Width
DECAY   1000004     1.40690888E+02   # scharm_L decays
#          BR         NDA      ID1       ID2
     9.75786982E-04    2     1000022         4   # BR(~c_L -> ~chi_10 c)
     2.13264120E-04    2     1000023         4   # BR(~c_L -> ~chi_20 c)
     6.84401015E-02    2     1000025         4   # BR(~c_L -> ~chi_30 c)
     4.01374105E-03    2     1000024         3   # BR(~c_L -> ~chi_1+ s)
     1.35453611E-01    2     1000037         3   # BR(~c_L -> ~chi_2+ s)
     7.90903496E-01    2     1000021         4   # BR(~c_L -> ~g      c)
#
#         PDG            Width
DECAY   2000004     6.27733673E+01   # scharm_R decays
#          BR         NDA      ID1       ID2
     8.12238969E-06    2     1000022         4   # BR(~c_R -> ~chi_10 c)
     7.18561902E-06    2     1000023         4   # BR(~c_R -> ~chi_20 c)
     1.01745284E-07    2     1000025         4   # BR(~c_R -> ~chi_30 c)
     9.99984590E-01    2     1000021         4   # BR(~c_R -> ~g      c)
#
#         PDG            Width
DECAY   1000003     1.40701951E+02   # sstrange_L decays
#          BR         NDA      ID1       ID2
     9.09412611E-04    2     1000022         3   # BR(~s_L -> ~chi_10 s)
     1.84536027E-04    2     1000023         3   # BR(~s_L -> ~chi_20 s)
     6.85334557E-02    2     1000025         3   # BR(~s_L -> ~chi_30 s)
     5.75296138E-04    2    -1000024         4   # BR(~s_L -> ~chi_1- c)
     1.38447509E-01    2    -1000037         4   # BR(~s_L -> ~chi_2- c)
     7.91349791E-01    2     1000021         3   # BR(~s_L -> ~g      s)
#
#         PDG            Width
DECAY   2000003     1.38407940E+02   # sstrange_R decays
#          BR         NDA      ID1       ID2
     1.35775476E-06    2     1000022         3   # BR(~s_R -> ~chi_10 s)
     1.20210666E-06    2     1000023         3   # BR(~s_R -> ~chi_20 s)
     1.97054517E-08    2     1000025         3   # BR(~s_R -> ~chi_30 s)
     8.34536658E-05    2     1000035         3   # BR(~s_R -> ~chi_40 s)
     9.99913967E-01    2     1000021         3   # BR(~s_R -> ~g      s)
#
#         PDG            Width
DECAY   1000011     2.37371163E+01   # selectron_L decays
#          BR         NDA      ID1       ID2
     5.30560919E-03    2     1000022        11   # BR(~e_L -> ~chi_10 e-)
     1.23936127E-03    2     1000023        11   # BR(~e_L -> ~chi_20 e-)
     3.27552730E-01    2     1000025        11   # BR(~e_L -> ~chi_30 e-)
     2.92050359E-03    2    -1000024        12   # BR(~e_L -> ~chi_1- nu_e)
     6.62981796E-01    2    -1000037        12   # BR(~e_L -> ~chi_2- nu_e)
#
#         PDG            Width
DECAY   2000011     4.46364945E-01   # selectron_R decays
#           BR         NDA      ID1       ID2
     3.96902293E-03    2     1000022        11   # BR(~e_R -> ~chi_10 e-)
     3.51424066E-03    2     1000023        11   # BR(~e_R -> ~chi_20 e-)
     5.82334639E-05    2     1000025        11   # BR(~e_R -> ~chi_30 e-)
     9.92458503E-01    2     1000035        11   # BR(~e_R -> ~chi_40 e-)
#
#         PDG            Width
DECAY   1000013     2.37371163E+01   # smuon_L decays
#          BR         NDA      ID1       ID2
     5.30560918E-03    2     1000022        13   # BR(~mu_L -> ~chi_10 mu-)
     1.23936127E-03    2     1000023        13   # BR(~mu_L -> ~chi_20 mu-)
     3.27552729E-01    2     1000025        13   # BR(~mu_L -> ~chi_30 mu-)
     2.92050360E-03    2    -1000024        14   # BR(~mu_L -> ~chi_1- nu_mu)
     6.62981797E-01    2    -1000037        14   # BR(~mu_L -> ~chi_2- nu_mu)
#
#         PDG            Width
DECAY   2000013     4.46364910E-01   # smuon_R decays
#           BR         NDA      ID1       ID2
     3.96902322E-03    2     1000022        13   # BR(~mu_R -> ~chi_10 mu-)
     3.51424094E-03    2     1000023        13   # BR(~mu_R -> ~chi_20 mu-)
     5.82334682E-05    2     1000025        13   # BR(~mu_R -> ~chi_30 mu-)
     9.92458502E-01    2     1000035        13   # BR(~mu_R -> ~chi_40 mu-)
#
#         PDG            Width
DECAY   1000015     1.36129299E+01   # stau_1 decays
#          BR         NDA      ID1       ID2
     1.68444727E-02    2     1000022        15   # BR(~tau_1 -> ~chi_10  tau-)
     1.16034666E-02    2     1000023        15   # BR(~tau_1 -> ~chi_20  tau-)
     3.20139867E-01    2     1000025        15   # BR(~tau_1 -> ~chi_30  tau-)
     3.58845795E-03    2    -1000024        16   # BR(~tau_1 -> ~chi_1-  nu_tau)
     6.47823736E-01    2    -1000037        16   # BR(~tau_1 -> ~chi_2-  nu_tau)
#
#         PDG            Width
DECAY   2000015     4.59455894E+00   # stau_2 decays
#          BR         NDA      ID1       ID2
     7.17337954E-02    2     1000022        15   # BR(~tau_2 -> ~chi_10  tau-)
     7.00998976E-02    2     1000023        15   # BR(~tau_2 -> ~chi_20  tau-)
     2.24447248E-04    2     1000025        15   # BR(~tau_2 -> ~chi_30  tau-)
     7.16174060E-01    2     1000035        15   # BR(~tau_2 -> ~chi_40  tau-)
     1.40750339E-01    2    -1000024        16   # BR(~tau_2 -> ~chi_1-  nu_tau)
     4.35893769E-04    2    -1000037        16   # BR(~tau_2 -> ~chi_2-  nu_tau)
     2.78966812E-04    2     1000016       -24   # BR(~tau_2 -> ~nu_tauL W-)
     1.59768097E-04    2     1000015        25   # BR(~tau_2 -> ~tau_1   h)
     1.42832377E-04    2     1000015        23   # BR(~tau_2 -> ~tau_1   Z)
#
#         PDG            Width
DECAY   1000012     2.37825825E+01   # snu_eL decays
#          BR         NDA      ID1       ID2
     4.27956977E-03    2     1000022        12   # BR(~nu_eL -> ~chi_10 nu_e)
     7.98996130E-04    2     1000023        12   # BR(~nu_eL -> ~chi_20 nu_e)
     3.27571779E-01    2     1000025        12   # BR(~nu_eL -> ~chi_30 nu_e)
     2.03286411E-02    2     1000024        11   # BR(~nu_eL -> ~chi_1+ e-)
     6.47021014E-01    2     1000037        11   # BR(~nu_eL -> ~chi_2+ e-)
#
#         PDG            Width
DECAY   1000014     2.37825824E+01   # snu_muL decays
#          BR         NDA      ID1       ID2
     4.27956978E-03    2     1000022        14   # BR(~nu_muL -> ~chi_10 nu_mu)
     7.98996133E-04    2     1000023        14   # BR(~nu_muL -> ~chi_20 nu_mu)
     3.27571780E-01    2     1000025        14   # BR(~nu_muL -> ~chi_30 nu_mu)
     2.03286411E-02    2     1000024        13   # BR(~nu_muL -> ~chi_1+ mu-)
     6.47021013E-01    2     1000037        13   # BR(~nu_muL -> ~chi_2+ mu-)
#
#         PDG            Width
DECAY   1000016     1.36731821E+01   # snu_tauL decays
#          BR         NDA      ID1       ID2
     5.24980680E-03    2     1000022        16   # BR(~nu_tauL -> ~chi_10 nu_tau)
     9.79008511E-04    2     1000023        16   # BR(~nu_tauL -> ~chi_20 nu_tau)
     3.18844044E-01    2     1000025        16   # BR(~nu_tauL -> ~chi_30 nu_tau)
     4.51822577E-02    2     1000024        15   # BR(~nu_tauL -> ~chi_1+ tau-)
     6.29744883E-01    2     1000037        15   # BR(~nu_tauL -> ~chi_2+ tau-)
#
#         PDG            Width
DECAY   1000024     2.12531813E-11   # chargino1+ decays
#           BR         NDA      ID1       ID2       ID3
     5.99719995E-01    3     1000022         2        -1   # BR(~chi_1+ -> ~chi_10 u    db)
     1.99907833E-01    3     1000022       -11        12   # BR(~chi_1+ -> ~chi_10 e+   nu_e)
     1.99907833E-01    3     1000022       -13        14   # BR(~chi_1+ -> ~chi_10 mu+  nu_mu)
     4.64337506E-04    3     1000022       -15        16   # BR(~chi_1+ -> ~chi_10 tau+ nu_tau)
#
#         PDG            Width
DECAY   1000037     7.42072898E+00   # chargino2+ decays
#          BR         NDA      ID1       ID2
     4.79759948E-02    2     1000006        -5   # BR(~chi_2+ -> ~t_1     bb)
     2.44694969E-01    2     1000024        23   # BR(~chi_2+ -> ~chi_1+  Z )
     2.39137297E-01    2     1000022        24   # BR(~chi_2+ -> ~chi_10  W+)
     2.43875231E-01    2     1000023        24   # BR(~chi_2+ -> ~chi_20  W+)
     2.24316508E-01    2     1000024        25   # BR(~chi_2+ -> ~chi_1+  h )
#
#         PDG            Width
DECAY   1000022     0.00000000E+00   # neutralino1 decays
#
#         PDG            Width
DECAY   1000023     3.86359505E-08   # neutralino2 decays
#          BR         NDA      ID1       ID2
     1.84476689E-02    2     1000022        22   # BR(~chi_20 -> ~chi_10 gam)
#           BR         NDA      ID1       ID2       ID3
     8.38508852E-02    3     1000022        -2         2   # BR(~chi_20 -> ~chi_10 ub      u)
     1.08668413E-01    3     1000022        -1         1   # BR(~chi_20 -> ~chi_10 db      d)
     8.38508852E-02    3     1000022        -4         4   # BR(~chi_20 -> ~chi_10 cb      c)
     1.08668413E-01    3     1000022        -3         3   # BR(~chi_20 -> ~chi_10 sb      s)
     2.48653371E-02    3     1000022       -11        11   # BR(~chi_20 -> ~chi_10 e+      e-)
     2.48653371E-02    3     1000022       -13        13   # BR(~chi_20 -> ~chi_10 mu+     mu-)
     1.75445883E-02    3     1000022       -15        15   # BR(~chi_20 -> ~chi_10 tau+    tau-)
     4.96855889E-02    3     1000022       -12        12   # BR(~chi_20 -> ~chi_10 nu_eb   nu_e)
     4.96855889E-02    3     1000022       -14        14   # BR(~chi_20 -> ~chi_10 nu_mub  nu_mu)
     4.96860504E-02    3     1000022       -16        16   # BR(~chi_20 -> ~chi_10 nu_taub nu_tau)
     6.60136971E-02    3     1000024        -2         1   # BR(~chi_20 -> ~chi_1+ ub      d)
     6.60136971E-02    3    -1000024        -1         2   # BR(~chi_20 -> ~chi_1- db      u)
     6.60136971E-02    3     1000024        -4         3   # BR(~chi_20 -> ~chi_1+ cb      s)
     6.60136971E-02    3    -1000024        -3         4   # BR(~chi_20 -> ~chi_1- sb      c)
     2.20045629E-02    3     1000024       -12        11   # BR(~chi_20 -> ~chi_1+ nu_eb   e-)
     2.20045629E-02    3    -1000024        12       -11   # BR(~chi_20 -> ~chi_1- nu_e    e+)
     2.20045629E-02    3     1000024       -14        13   # BR(~chi_20 -> ~chi_1+ nu_mub  mu-)
     2.20045629E-02    3    -1000024        14       -13   # BR(~chi_20 -> ~chi_1- nu_mu   mu+)
     1.40541023E-02    3     1000024       -16        15   # BR(~chi_20 -> ~chi_1+ nu_taub tau-)
     1.40541023E-02    3    -1000024        16       -15   # BR(~chi_20 -> ~chi_1- nu_tau  tau+)
#
#         PDG            Width
DECAY   1000025     7.33685427E+00   # neutralino3 decays
#          BR         NDA      ID1       ID2
     4.17594259E-02    2     1000022        23   # BR(~chi_30 -> ~chi_10   Z )
     2.04791043E-01    2     1000023        23   # BR(~chi_30 -> ~chi_20   Z )
     2.47298058E-01    2     1000024       -24   # BR(~chi_30 -> ~chi_1+   W-)
     2.47298058E-01    2    -1000024        24   # BR(~chi_30 -> ~chi_1-   W+)
     1.83658093E-01    2     1000022        25   # BR(~chi_30 -> ~chi_10   h )
     3.68657806E-02    2     1000023        25   # BR(~chi_30 -> ~chi_20   h )
     1.91647704E-02    2     1000005        -5   # BR(~chi_30 -> ~b_1      bb)
     1.91647704E-02    2    -1000005         5   # BR(~chi_30 -> ~b_1*     b )
#
#         PDG            Width
DECAY   1000035     3.78666503E+01   # neutralino4 decays
#          BR         NDA      ID1       ID2
     2.12349366E-02    2     1000022        23   # BR(~chi_40 -> ~chi_10   Z )
     2.58967215E-02    2     1000023        23   # BR(~chi_40 -> ~chi_20   Z )
     4.65446636E-04    2     1000025        23   # BR(~chi_40 -> ~chi_30   Z )
     4.57557002E-02    2     1000024       -24   # BR(~chi_40 -> ~chi_1+   W-)
     4.57557002E-02    2    -1000024        24   # BR(~chi_40 -> ~chi_1-   W+)
     6.64984768E-04    2     1000037       -24   # BR(~chi_40 -> ~chi_2+   W-)
     6.64984768E-04    2    -1000037        24   # BR(~chi_40 -> ~chi_2-   W+)
     2.71086240E-02    2     1000022        25   # BR(~chi_40 -> ~chi_10   h )
     2.39040227E-02    2     1000023        25   # BR(~chi_40 -> ~chi_20   h )
     2.19286866E-04    2     1000025        25   # BR(~chi_40 -> ~chi_30   h )
     4.10656085E-04    2     1000002        -2   # BR(~chi_40 -> ~u_L      ub)
     4.10656085E-04    2    -1000002         2   # BR(~chi_40 -> ~u_L*     u )
     6.61266677E-02    2     2000002        -2   # BR(~chi_40 -> ~u_R      ub)
     6.61266677E-02    2    -2000002         2   # BR(~chi_40 -> ~u_R*     u )
     4.09983843E-04    2     1000001        -1   # BR(~chi_40 -> ~d_L      db)
     4.09983843E-04    2    -1000001         1   # BR(~chi_40 -> ~d_L*     d )
     4.10648024E-04    2     1000004        -4   # BR(~chi_40 -> ~c_L      cb)
     4.10648024E-04    2    -1000004         4   # BR(~chi_40 -> ~c_L*     c )
     6.61265898E-02    2     2000004        -4   # BR(~chi_40 -> ~c_R      cb)
     6.61265898E-02    2    -2000004         4   # BR(~chi_40 -> ~c_R*     c )
     4.09983843E-04    2     1000003        -3   # BR(~chi_40 -> ~s _L      sb)
     4.09983843E-04    2    -1000003         3   # BR(~chi_40 -> ~s _L*     s )
     1.59941338E-02    2     1000006        -6   # BR(~chi_40 -> ~t_1      tb)
     1.59941338E-02    2    -1000006         6   # BR(~chi_40 -> ~t_1*     t )
     9.94973317E-02    2     2000006        -6   # BR(~chi_40 -> ~t_2      tb)
     9.94973317E-02    2    -2000006         6   # BR(~chi_40 -> ~t_2*     t )
     1.57964215E-02    2     1000005        -5   # BR(~chi_40 -> ~b_1      bb)
     1.57964215E-02    2    -1000005         5   # BR(~chi_40 -> ~b_1*     b )
     6.09388735E-02    2     2000005        -5   # BR(~chi_40 -> ~b_2      bb)
     6.09388735E-02    2    -2000005         5   # BR(~chi_40 -> ~b_2*     b )
     7.32115527E-03    2     1000011       -11   # BR(~chi_40 -> ~e_L-     e+)
     7.32115527E-03    2    -1000011        11   # BR(~chi_40 -> ~e_L+     e-)
     7.32115527E-03    2     1000013       -13   # BR(~chi_40 -> ~mu_L-    mu+)
     7.32115527E-03    2    -1000013        13   # BR(~chi_40 -> ~mu_L+    mu-)
     2.42813988E-02    2     1000015       -15   # BR(~chi_40 -> ~tau_1-   tau+)
     2.42813988E-02    2    -1000015        15   # BR(~chi_40 -> ~tau_1+   tau-)
     7.36778633E-03    2     1000012       -12   # BR(~chi_40 -> ~nu_eL    nu_eb)
     7.36778633E-03    2    -1000012        12   # BR(~chi_40 -> ~nu_eL*   nu_e )
     7.36778633E-03    2     1000014       -14   # BR(~chi_40 -> ~nu_muL   nu_mub)
     7.36778633E-03    2    -1000014        14   # BR(~chi_40 -> ~nu_muL*  nu_mu )
     2.43842241E-02    2     1000016       -16   # BR(~chi_40 -> ~nu_tau1  nu_taub)
     2.43842241E-02    2    -1000016        16   # BR(~chi_40 -> ~nu_tau1* nu_tau )
#
#         PDG            Width
DECAY        25     4.07471211E-03   # h decays
#          BR         NDA      ID1       ID2
     6.01336286E-01    2           5        -5   # BR(h -> b       bb     )
     6.37522396E-02    2         -15        15   # BR(h -> tau+    tau-   )
     2.25660330E-04    2         -13        13   # BR(h -> mu+     mu-    )
     2.46332908E-04    2           3        -3   # BR(h -> s       sb     )
     2.12811720E-02    2           4        -4   # BR(h -> c       cb     )
     7.85183827E-02    2          21        21   # BR(h -> g       g      )
     2.32397847E-03    2          22        22   # BR(h -> gam     gam    )
     1.53171622E-03    2          22        23   # BR(h -> Z       gam    )
     2.05098964E-01    2          24       -24   # BR(h -> W+      W-     )
     2.56852684E-02    2          23        23   # BR(h -> Z       Z      )
#
#         PDG            Width
DECAY        35     4.57467102E+01   # H decays
#          BR         NDA      ID1       ID2
     6.10709187E-02    2           5        -5   # BR(H -> b       bb     )
     1.19881539E-02    2         -15        15   # BR(H -> tau+    tau-   )
     4.24556468E-05    2         -13        13   # BR(H -> mu+     mu-    )
     2.60485141E-05    2           3        -3   # BR(H -> s       sb     )
     3.89243804E-07    2           4        -4   # BR(H -> c       cb     )
     3.83494730E-02    2           6        -6   # BR(H -> t       tb     )
     1.10828068E-05    2          21        21   # BR(H -> g       g      )
     1.45809688E-07    2          22        22   # BR(H -> gam     gam    )
     2.36931283E-08    2          23        22   # BR(H -> Z       gam    )
     1.53739410E-05    2          24       -24   # BR(H -> W+      W-     )
     7.67221370E-06    2          23        23   # BR(H -> Z       Z      )
     5.77629492E-05    2          25        25   # BR(H -> h       h      )
     1.37785157E-02    2     1000024  -1000024   # BR(H -> ~chi_1+ ~chi_1-)
     7.19003526E-04    2     1000037  -1000037   # BR(H -> ~chi_2+ ~chi_2-)
     2.75589438E-01    2     1000024  -1000037   # BR(H -> ~chi_1+ ~chi_2-)
     2.75589438E-01    2     1000037  -1000024   # BR(H -> ~chi_2+ ~chi_1-)
     2.54646823E-03    2     1000022   1000022   # BR(H -> ~chi_10 ~chi_10)
     7.36905845E-04    2     1000023   1000023   # BR(H -> ~chi_20 ~chi_20)
     3.67217309E-04    2     1000025   1000025   # BR(H -> ~chi_30 ~chi_30)
     8.43389380E-04    2     1000022   1000023   # BR(H -> ~chi_10 ~chi_20)
     1.04235534E-01    2     1000022   1000025   # BR(H -> ~chi_10 ~chi_30)
     1.51403357E-03    2     1000022   1000035   # BR(H -> ~chi_10 ~chi_40)
     1.73720645E-01    2     1000023   1000025   # BR(H -> ~chi_20 ~chi_30)
     4.62509617E-04    2     1000023   1000035   # BR(H -> ~chi_20 ~chi_40)
     5.47298039E-04    2     1000006  -1000006   # BR(H -> ~t_1    ~t_1*  )
     1.81771629E-02    2     1000006  -2000006   # BR(H -> ~t_1    ~t_2*  )
     1.81771629E-02    2     2000006  -1000006   # BR(H -> ~t_2    ~t_1*  )
     5.21938658E-06    2     1000005  -1000005   # BR(H -> ~b_1    ~b_1*  )
     3.31384633E-06    2     2000005  -2000005   # BR(H -> ~b_2    ~b_2*  )
     7.08622366E-04    2     1000005  -2000005   # BR(H -> ~b_1    ~b_2*  )
     7.08622366E-04    2     2000005  -1000005   # BR(H -> ~b_2    ~b_1*  )
#
#         PDG            Width
DECAY        36     4.57874727E+01   # A decays
#          BR         NDA      ID1       ID2
     6.10420697E-02    2           5        -5   # BR(A -> b       bb     )
     1.19778465E-02    2         -15        15   # BR(A -> tau+    tau-   )
     4.24190960E-05    2         -13        13   # BR(A -> mu+     mu-    )
     2.60496594E-05    2           3        -3   # BR(A -> s       sb     )
     3.90883981E-07    2           4        -4   # BR(A -> c       cb     )
     3.84087641E-02    2           6        -6   # BR(A -> t       tb     )
     3.41475288E-05    2          21        21   # BR(A -> g       g      )
     1.86674332E-07    2          22        22   # BR(A -> gam     gam    )
     4.30127812E-08    2          23        22   # BR(A -> Z       gam    )
     1.55738401E-05    2          23        25   # BR(A -> Z       h      )
     1.66082659E-02    2     1000024  -1000024   # BR(A -> ~chi_1+ ~chi_1-)
     3.23441366E-03    2     1000037  -1000037   # BR(A -> ~chi_2+ ~chi_2-)
     2.72675673E-01    2     1000024  -1000037   # BR(A -> ~chi_1+ ~chi_2-)
     2.72675673E-01    2     1000037  -1000024   # BR(A -> ~chi_2+ ~chi_1-)
     4.04535349E-03    2     1000022   1000022   # BR(A -> ~chi_10 ~chi_10)
     4.73191461E-04    2     1000023   1000023   # BR(A -> ~chi_20 ~chi_20)
     1.62397283E-03    2     1000025   1000025   # BR(A -> ~chi_30 ~chi_30)
     2.49721843E-04    2     1000022   1000023   # BR(A -> ~chi_10 ~chi_20)
     1.72998046E-01    2     1000022   1000025   # BR(A -> ~chi_10 ~chi_30)
     5.17009032E-04    2     1000022   1000035   # BR(A -> ~chi_10 ~chi_40)
     1.02776333E-01    2     1000023   1000025   # BR(A -> ~chi_20 ~chi_30)
     1.44600154E-03    2     1000023   1000035   # BR(A -> ~chi_20 ~chi_40)
     1.88590632E-02    2     1000006  -2000006   # BR(A -> ~t_1    ~t_2*  )
     1.88590632E-02    2    -1000006   2000006   # BR(A -> ~t_1*   ~t_2   )
     7.05363238E-04    2     1000005  -2000005   # BR(A -> ~b_1    ~b_2*  )
     7.05363238E-04    2    -1000005   2000005   # BR(A -> ~b_1*   ~b_2   )
#
#         PDG            Width
DECAY        37     4.63105917E+01   # H+ decays
#          BR         NDA      ID1       ID2
     9.68351194E-05    2           4        -5   # BR(H+ -> c       bb     )
     1.18468278E-02    2         -15        16   # BR(H+ -> tau+    nu_tau )
     4.19550982E-05    2         -13        14   # BR(H+ -> mu+     nu_mu  )
     9.68344082E-07    2           2        -5   # BR(H+ -> u       bb     )
     1.28820418E-06    2           2        -3   # BR(H+ -> u       sb     )
     2.57264892E-05    2           4        -3   # BR(H+ -> c       sb     )
     9.48965873E-02    2           6        -5   # BR(H+ -> t       bb     )
     1.54220366E-05    2          24        25   # BR(H+ -> W+      h      )
     8.20900808E-14    2          24        36   # BR(H+ -> W+      A      )
     8.64715239E-04    2     1000024   1000022   # BR(H+ -> ~chi_1+ ~chi_10)
     3.97351039E-03    2     1000024   1000023   # BR(H+ -> ~chi_1+ ~chi_20)
     2.75657420E-01    2     1000024   1000025   # BR(H+ -> ~chi_1+ ~chi_30)
     1.97689595E-03    2     1000024   1000035   # BR(H+ -> ~chi_1+ ~chi_40)
     2.83985712E-01    2     1000037   1000022   # BR(H+ -> ~chi_2+ ~chi_10)
     2.72623599E-01    2     1000037   1000023   # BR(H+ -> ~chi_2+ ~chi_20)
     2.23528406E-08    2     1000037   1000025   # BR(H+ -> ~chi_2+ ~chi_30)
     2.88428969E-04    2     1000006  -1000005   # BR(H+ -> ~t_1    ~b_1*  )
     3.62193994E-04    2     2000006  -2000005   # BR(H+ -> ~t_2    ~b_2*  )
     5.32516798E-03    2     1000006  -2000005   # BR(H+ -> ~t_1    ~b_2*  )
     4.80167232E-02    2     2000006  -1000005   # BR(H+ -> ~t_2    ~b_1*  )
