#
#                              ======================
#                              | THE SUSYHIT OUTPUT |
#                              ======================
#
#
#              ------------------------------------------------------
#              |     This is the output of the SUSY-HIT package     |
#              |  created by A.Djouadi, M.Muehlleitner and M.Spira. |
#              |  In case of problems with SUSY-HIT email to        |
#              |           margarete.muehlleitner@cern.ch           |
#              |           michael.spira@psi.ch                     |
#              |           abdelhak.djouadi@cern.ch                 |
#              ------------------------------------------------------
#
#              ------------------------------------------------------
#              |  SUSY Les Houches Accord - MSSM Spectrum + Decays  |
#              |              based on the decay programs           |
#              |                                                    |
#              |                     SDECAY 1.3b                    |
#              |                                                    |
#              |  Authors: M.Muhlleitner, A.Djouadi and Y.Mambrini  |
#              |  Ref.:    Comput.Phys.Commun.168(2005)46           |
#              |           [hep-ph/0311167]                         |
#              |                                                    |
#              |                     HDECAY 3.4                     |
#              |                                                    |
#              |  By: A.Djouadi,J.Kalinowski,M.Muhlleitner,M.Spira  |
#              |  Ref.:    Comput.Phys.Commun.108(1998)56           |
#              |           [hep-ph/9704448]                         |
#              |                                                    |
#              |                                                    |
#              |  If not stated otherwise all DRbar couplings and   |
#              |  soft SUSY breaking masses are given at the scale  |
#              |  Q=  0.17300110E+04
#              |                                                    |
#              ------------------------------------------------------
#
#
BLOCK DCINFO  # Decay Program information
     1   SDECAY/HDECAY # decay calculator
     2   1.3b  /3.4    # version number
#
BLOCK SPINFO  # Spectrum calculator information
     1     SOFTSUSY    # spectrum calculator               
     2     3.4.0       # version number                    
#
BLOCK MODSEL  # Model selection
     1     0   #  nonUniversal                                     
#
BLOCK SMINPUTS  # Standard Model inputs
         1     1.27908970E+02   # alpha_em^-1(M_Z)^MSbar
         2     1.16637870E-05   # G_F [GeV^-2]
         3     1.18400000E-01   # alpha_S(M_Z)^MSbar
         4     9.11876000E+01   # M_Z pole mass
         5     4.18000000E+00   # mb(mb)^MSbar
         6     1.73200000E+02   # mt pole mass
         7     1.77700000E+00   # mtau pole mass
#
BLOCK MINPAR  # Input parameters - minimal models
         3     1.24700000E+01   # tanb                
#
BLOCK EXTPAR  # Input parameters - non-minimal models
         0    -1.00000000E+00   # Set                 
         1    -1.92289000E+03   # M_1(MX)             
         2    -2.08510000E+03   # M_2(MX)             
         3     2.16202000E+03   # M_3(MX)             
        11    -4.93256000E+03   # At(MX)              
        12    -2.87848000E+03   # Ab(MX)              
        13    -2.15173000E+03   # Atau(MX)            
        23     4.10930000E+02   # mu(MX)              
        26     1.98756000E+03   # mA(pole)            
        31     9.09470000E+02   # meL(MX)             
        32     9.09470000E+02   # mmuL(MX)            
        33     3.27046000E+03   # mtauL(MX)           
        34     3.08356000E+03   # meR(MX)             
        35     3.08356000E+03   # mmuR(MX)            
        36     8.77930000E+02   # mtauR(MX)           
        41     3.85346000E+03   # mqL1(MX)            
        42     3.85346000E+03   # mqL2(MX)            
        43     1.31823000E+03   # mqL3(MX)            
        44     4.60590000E+02   # muR(MX)             
        45     4.60590000E+02   # mcR(MX)             
        46     2.31640000E+03   # mtR(MX)             
        47     8.40230000E+02   # mdR(MX)             
        48     8.40230000E+02   # msR(MX)             
        49     1.92590000E+03   # mbR(MX)             
#
BLOCK MASS  # Mass Spectrum
# PDG code           mass       particle
        24     8.03881162E+01   # W+
        25     1.26452093E+02   # h
        35     1.98762398E+03   # H
        36     1.98755993E+03   # A
        37     1.98949422E+03   # H+
         5     4.81876030E+00   # b-quark pole mass calculated from mb(mb)_Msbar
   1000001     3.88988824E+03   # ~d_L
   2000001     9.28483830E+02   # ~d_R
   1000002     3.88925772E+03   # ~u_L
   2000002     5.64223708E+02   # ~u_R
   1000003     3.88988824E+03   # ~s_L
   2000003     9.28483830E+02   # ~s_R
   1000004     3.88925772E+03   # ~c_L
   2000004     5.64223708E+02   # ~c_R
   1000005     1.37515814E+03   # ~b_1
   2000005     1.99118624E+03   # ~b_2
   1000006     1.32469501E+03   # ~t_1
   2000006     2.29617776E+03   # ~t_2
   1000011     9.25557498E+02   # ~e_L
   2000011     3.08977774E+03   # ~e_R
   1000012     9.22024806E+02   # ~nu_eL
   1000013     9.25557498E+02   # ~mu_L
   2000013     3.08977774E+03   # ~mu_R
   1000014     9.22024806E+02   # ~nu_muL
   1000015     8.97458402E+02   # ~tau_1
   2000015     3.27636529E+03   # ~tau_2
   1000016     3.27513106E+03   # ~nu_tauL
   1000021     2.25628892E+03   # ~g
   1000022    -4.23763823E+02   # ~chi_10
   1000023     4.26907318E+02   # ~chi_20
   1000025    -1.90412259E+03   # ~chi_30
   1000035    -2.11075724E+03   # ~chi_40
   1000024     4.25684069E+02   # ~chi_1+
   1000037     2.11091277E+03   # ~chi_2+
#
BLOCK NMIX  # Neutralino Mixing Matrix
  1  1     1.87733710E-02   # N_11
  1  2    -2.97106248E-02   # N_12
  1  3     7.08321612E-01   # N_13
  1  4     7.05014420E-01   # N_14
  2  1     1.41860946E-02   # N_21
  2  2    -2.37106843E-02   # N_22
  2  3    -7.05869033E-01   # N_23
  2  4     7.07803269E-01   # N_24
  3  1     9.99681573E-01   # N_31
  3  2     1.00044148E-02   # N_32
  3  3    -3.24550236E-03   # N_33
  3  4    -2.29375395E-02   # N_34
  4  1    -9.11414195E-03   # N_41
  4  2     9.99227198E-01   # N_42
  4  3     4.34386615E-03   # N_43
  4  4     3.79877524E-02   # N_44
#
BLOCK UMIX  # Chargino Mixing Matrix U
  1  1    -6.11878925E-03   # U_11
  1  2     9.99981280E-01   # U_12
  2  1    -9.99981280E-01   # U_21
  2  2    -6.11878925E-03   # U_22
#
BLOCK VMIX  # Chargino Mixing Matrix V
  1  1     5.34586431E-02   # V_11
  1  2     9.98570064E-01   # V_12
  2  1     9.98570064E-01   # V_21
  2  2    -5.34586431E-02   # V_22
#
BLOCK STOPMIX  # Stop Mixing Matrix
  1  1     9.78196485E-01   # cos(theta_t)
  1  2     2.07681575E-01   # sin(theta_t)
  2  1    -2.07681575E-01   # -sin(theta_t)
  2  2     9.78196485E-01   # cos(theta_t)
#
BLOCK SBOTMIX  # Sbottom Mixing Matrix
  1  1     9.99964730E-01   # cos(theta_b)
  1  2     8.39873538E-03   # sin(theta_b)
  2  1    -8.39873538E-03   # -sin(theta_b)
  2  2     9.99964730E-01   # cos(theta_b)
#
BLOCK STAUMIX  # Stau Mixing Matrix
  1  1     1.25663100E-03   # cos(theta_tau)
  1  2     9.99999210E-01   # sin(theta_tau)
  2  1    -9.99999210E-01   # -sin(theta_tau)
  2  2     1.25663100E-03   # cos(theta_tau)
#
BLOCK ALPHA  # Higgs mixing
          -8.37587909E-02   # Mixing angle in the neutral Higgs boson sector
#
BLOCK HMIX Q=  1.73001100E+03  # DRbar Higgs Parameters
         1     4.15525816E+02   # mu(Q)MSSM           
         2     1.19853459E+01   # tan                 
         3     2.42331825E+02   # higgs               
         4     3.91181746E+06   # mA^2(Q)MSSM         
#
BLOCK GAUGE Q=  1.73001100E+03  # The gauge couplings
     1     3.63723584E-01   # gprime(Q) DRbar
     2     6.37113307E-01   # g(Q) DRbar
     3     1.03092105E+00   # g3(Q) DRbar
#
BLOCK AU Q=  1.73001100E+03  # The trilinear couplings
  1  1     0.00000000E+00   # A_u(Q) DRbar
  2  2     0.00000000E+00   # A_c(Q) DRbar
  3  3    -4.93255999E+03   # A_t(Q) DRbar
#
BLOCK AD Q=  1.73001100E+03  # The trilinear couplings
  1  1     0.00000000E+00   # A_d(Q) DRbar
  2  2     0.00000000E+00   # A_s(Q) DRbar
  3  3    -2.87848000E+03   # A_b(Q) DRbar
#
BLOCK AE Q=  1.73001100E+03  # The trilinear couplings
  1  1     0.00000000E+00   # A_e(Q) DRbar
  2  2     0.00000000E+00   # A_mu(Q) DRbar
  3  3    -2.15173000E+03   # A_tau(Q) DRbar
#
BLOCK Yu Q=  1.73001100E+03  # The Yukawa couplings
  1  1     0.00000000E+00   # y_u(Q) DRbar
  2  2     0.00000000E+00   # y_c(Q) DRbar
  3  3     8.27153257E-01   # y_t(Q) DRbar
#
BLOCK Yd Q=  1.73001100E+03  # The Yukawa couplings
  1  1     0.00000000E+00   # y_d(Q) DRbar
  2  2     0.00000000E+00   # y_s(Q) DRbar
  3  3     1.60400454E-01   # y_b(Q) DRbar
#
BLOCK Ye Q=  1.73001100E+03  # The Yukawa couplings
  1  1     0.00000000E+00   # y_e(Q) DRbar
  2  2     0.00000000E+00   # y_mu(Q) DRbar
  3  3     1.22471004E-01   # y_tau(Q) DRbar
#
BLOCK MSOFT Q=  1.73001100E+03  # The soft SUSY breaking masses at the scale Q
         1    -1.92289000E+03   # M_1(Q)              
         2    -2.08510000E+03   # M_2(Q)              
         3     2.16202000E+03   # M_3(Q)              
        21     3.71220369E+06   # mH1^2(Q)            
        22    -1.72110274E+05   # mH2^2(Q)            
        31     9.09470000E+02   # meL(Q)              
        32     9.09470000E+02   # mmuL(Q)             
        33     3.27046000E+03   # mtauL(Q)            
        34     3.08356000E+03   # meR(Q)              
        35     3.08356000E+03   # mmuR(Q)             
        36     8.77930000E+02   # mtauR(Q)            
        41     3.85346000E+03   # mqL1(Q)             
        42     3.85346000E+03   # mqL2(Q)             
        43     1.31822999E+03   # mqL3(Q)             
        44     4.60589987E+02   # muR(Q)              
        45     4.60589987E+02   # mcR(Q)              
        46     2.31639999E+03   # mtR(Q)              
        47     8.40229993E+02   # mdR(Q)              
        48     8.40229993E+02   # msR(Q)              
        49     1.92590000E+03   # mbR(Q)              
#
Block HiggsBoundsInputHiggsCouplingsFermions
# ScalarNormEffCoupSq PseudoSNormEffCoupSq NP   IP1 IP2 IP2
    1.01241586E+00    0.00000000E+00        3  25   5   5  # h0-b-b eff. coupling^2, normalised to SM
    1.43636100E+02    0.00000000E+00        3  35   5   5  # H0-b-b eff. coupling^2, normalised to SM
    0.00000000E+00    1.43648516E+02        3  36   5   5  # A0-b-b eff. coupling^2, normalised to SM
#
    9.99913568E-01    0.00000000E+00        3  25   6   6  # h0-t-t eff. coupling^2, normalised to SM
    7.04786858E-03    0.00000000E+00        3  35   6   6  # H0-t-t eff. coupling^2, normalised to SM
    0.00000000E+00    6.96143633E-03        3  36   6   6  # A0-t-t eff. coupling^2, normalised to SM
#
    1.01241586E+00    0.00000000E+00        3  25  15  15  # h0-tau-tau eff. coupling^2, normalised to SM
    1.43636100E+02    0.00000000E+00        3  35  15  15  # H0-tau-tau eff. coupling^2, normalised to SM
    0.00000000E+00    1.43648516E+02        3  36  15  15  # A0-tau-tau eff. coupling^2, normalised to SM
#
Block HiggsBoundsInputHiggsCouplingsBosons
    9.99999733E-01        3  25  24  24  # h0-W-W eff. coupling^2, normalised to SM
    2.66641609E-07        3  35  24  24  # H0-W-W eff. coupling^2, normalised to SM
    0.00000000E+00        3  36  24  24  # A0-W-W eff. coupling^2, normalised to SM
#
    9.99999733E-01        3  25  23  23  # h0-Z-Z eff. coupling^2, normalised to SM
    2.66641609E-07        3  35  23  23  # H0-Z-Z eff. coupling^2, normalised to SM
    0.00000000E+00        3  36  23  23  # A0-Z-Z eff. coupling^2, normalised to SM
#
    8.44814009E-01        3  25  21  21  # h0-g-g eff. coupling^2, normalised to SM
    6.46647503E-12        3  35  21  21  # H0-g-g eff. coupling^2, normalised to SM
    1.36867326E-10        3  36  21  21  # A0-g-g eff. coupling^2, normalised to SM
#
    0.00000000E+00        3  25  25  23  # h0-h0-Z eff. coupling^2, normalised to SM
    0.00000000E+00        3  35  25  23  # H0-h0-Z eff. coupling^2, normalised to SM
    2.66641609E-07        3  36  25  23  # A0-h0-Z eff. coupling^2, normalised to SM
    0.00000000E+00        3  35  35  23  # H0-H0-Z eff. coupling^2, normalised to SM
    9.99999733E-01        3  36  35  23  # A0-H0-Z eff. coupling^2, normalised to SM
    0.00000000E+00        3  36  36  23  # A0-A0-Z eff. coupling^2, normalised to SM
#
    0.00000000E+00        4  25  21  21  23  # h0-g-g-Z eff. coupling^2, normalised to SM
    0.00000000E+00        4  35  21  21  23  # H0-g-g-Z eff. coupling^2, normalised to SM
    0.00000000E+00        4  36  21  21  23  # A0-g-g-Z eff. coupling^2, normalised to SM
#
#
#
#                             =================
#                             |The decay table|
#                             =================
#
# - The QCD corrections to the decays gluino -> squark  + quark
#                                     squark -> gaugino + quark_prime
#                                     squark -> squark_prime + Higgs
#                                     squark -> gluino  + quark
#   are included.
#
# - The multi-body decays for the inos, stops and sbottoms are included.
#
# - The loop induced decays for the gluino, neutralinos and stops
#   are included.
#
# - The SUSY decays of the top quark are included.
#
#
#         PDG            Width
DECAY         6     1.42964606E+00   # top decays
#          BR         NDA      ID1       ID2
     1.00000000E+00    2           5        24   # BR(t ->  b    W+)
#
#         PDG            Width
DECAY   1000021     1.81909434E+02   # gluino decays
#          BR         NDA      ID1       ID2
     8.79364505E-02    2     2000001        -1   # BR(~g -> ~d_R  db)
     8.79364505E-02    2    -2000001         1   # BR(~g -> ~d_R* d )
     1.12004034E-01    2     2000002        -2   # BR(~g -> ~u_R  ub)
     1.12004034E-01    2    -2000002         2   # BR(~g -> ~u_R* u )
     8.79364505E-02    2     2000003        -3   # BR(~g -> ~s_R  sb)
     8.79364505E-02    2    -2000003         3   # BR(~g -> ~s_R* s )
     1.12004026E-01    2     2000004        -4   # BR(~g -> ~c_R  cb)
     1.12004026E-01    2    -2000004         4   # BR(~g -> ~c_R* c )
     4.74577468E-02    2     1000005        -5   # BR(~g -> ~b_1  bb)
     4.74577468E-02    2    -1000005         5   # BR(~g -> ~b_1* b )
     6.01662488E-03    2     2000005        -5   # BR(~g -> ~b_2  bb)
     6.01662488E-03    2    -2000005         5   # BR(~g -> ~b_2* b )
     4.66446670E-02    2     1000006        -6   # BR(~g -> ~t_1  tb)
     4.66446670E-02    2    -1000006         6   # BR(~g -> ~t_1* t )
#
#         PDG            Width
DECAY   1000006     1.46292175E+01   # stop1 decays
#          BR         NDA      ID1       ID2
     4.83547315E-01    2     1000022         6   # BR(~t_1 -> ~chi_10 t )
     4.53280310E-01    2     1000023         6   # BR(~t_1 -> ~chi_20 t )
     6.31723747E-02    2     1000024         5   # BR(~t_1 -> ~chi_1+ b )
#
#         PDG            Width
DECAY   2000006     2.30015211E+02   # stop2 decays
#          BR         NDA      ID1       ID2
     6.22727547E-02    2     1000022         6   # BR(~t_2 -> ~chi_10 t )
     6.40801732E-02    2     1000023         6   # BR(~t_2 -> ~chi_20 t )
     2.06810148E-03    2     1000025         6   # BR(~t_2 -> ~chi_30 t )
     7.10322251E-06    2     1000035         6   # BR(~t_2 -> ~chi_40 t )
     1.23226310E-01    2     1000024         5   # BR(~t_2 -> ~chi_1+ b )
     3.75994632E-05    2     1000037         5   # BR(~t_2 -> ~chi_2+ b )
     1.73976528E-01    2     1000006        25   # BR(~t_2 -> ~t_1    h )
     2.04734377E-01    2     1000006        23   # BR(~t_2 -> ~t_1    Z )
     3.69595684E-01    2     1000005        24   # BR(~t_2 -> ~b_1    W+)
     1.36930473E-06    2     2000005        24   # BR(~t_2 -> ~b_2    W+)
#
#         PDG            Width
DECAY   1000005     1.52386867E+01   # sbottom1 decays
#          BR         NDA      ID1       ID2
     1.93758703E-02    2     1000022         5   # BR(~b_1 -> ~chi_10 b )
     1.89676758E-02    2     1000023         5   # BR(~b_1 -> ~chi_20 b )
     9.61656454E-01    2    -1000024         6   # BR(~b_1 -> ~chi_1- t )
#
#         PDG            Width
DECAY   2000005     1.96371671E+00   # sbottom2 decays
#          BR         NDA      ID1       ID2
     2.36901764E-01    2     1000022         5   # BR(~b_2 -> ~chi_10 b )
     2.35990701E-01    2     1000023         5   # BR(~b_2 -> ~chi_20 b )
     4.32627099E-03    2     1000025         5   # BR(~b_2 -> ~chi_30 b )
     4.67035737E-01    2    -1000024         6   # BR(~b_2 -> ~chi_1- t )
     1.44254617E-02    2     1000005        25   # BR(~b_2 -> ~b_1    h )
     1.26211195E-02    2     1000005        23   # BR(~b_2 -> ~b_1    Z )
     2.86989455E-02    2     1000006       -24   # BR(~b_2 -> ~t_1    W-)
#
#         PDG            Width
DECAY   1000002     1.59620085E+02   # sup_L decays
#          BR         NDA      ID1       ID2
     6.30639469E-05    2     1000022         2   # BR(~u_L -> ~chi_10 u)
     4.07362905E-05    2     1000023         2   # BR(~u_L -> ~chi_20 u)
     2.20431770E-03    2     1000025         2   # BR(~u_L -> ~chi_30 u)
     4.71572746E-02    2     1000035         2   # BR(~u_L -> ~chi_40 u)
     5.27482362E-04    2     1000024         1   # BR(~u_L -> ~chi_1+ d)
     9.45068526E-02    2     1000037         1   # BR(~u_L -> ~chi_2+ d)
     8.55500272E-01    2     1000021         2   # BR(~u_L -> ~g      u)
#
#         PDG            Width
DECAY   2000002     1.45476484E-04   # sup_R decays
#           BR         NDA      ID1       ID2
     6.45342620E-01    2     1000022         2   # BR(~u_R -> ~chi_10 u)
     3.54591667E-01    2     1000023         2   # BR(~u_R -> ~chi_20 u)
#           BR         NDA      ID1       ID2       ID3
     1.35602673E-05    3        2       23        1000022   # BR(~u_R -> u  Z  ~chi_10)
     3.13528337E-07    3        2       25        1000022   # BR(~u_R -> u  h  ~chi_10)
     9.60636362E-06    3        2       23        1000023   # BR(~u_R -> u  Z  ~chi_20)
     6.39952229E-08    3        2       25        1000023   # BR(~u_R -> u  h  ~chi_20)
     1.62218658E-06    3        2       -24        1000024   # BR(~u_R -> u  W-  ~chi_1+)
     4.05467595E-05    3        2       24        -1000024   # BR(~u_R -> u  W+  ~chi_1-)
#
#         PDG            Width
DECAY   1000001     1.59652316E+02   # sdown_L decays
#          BR         NDA      ID1       ID2
     1.02251562E-04    2     1000022         1   # BR(~d_L -> ~chi_10 d)
     6.43601555E-05    2     1000023         1   # BR(~d_L -> ~chi_20 d)
     1.78609602E-03    2     1000025         1   # BR(~d_L -> ~chi_30 d)
     4.74967709E-02    2     1000035         1   # BR(~d_L -> ~chi_40 d)
     6.91020348E-06    2    -1000024         2   # BR(~d_L -> ~chi_1- u)
     9.47960129E-02    2    -1000037         2   # BR(~d_L -> ~chi_2- u)
     8.55747598E-01    2     1000021         1   # BR(~d_L -> ~g      d)
#
#         PDG            Width
DECAY   2000001     8.95911485E-04   # sdown_R decays
#           BR         NDA      ID1       ID2
     1.37558764E-01    2     1000022         1   # BR(~d_R -> ~chi_10 d)
     7.79362701E-02    2     1000023         1   # BR(~d_R -> ~chi_20 d)
#           BR         NDA      ID1       ID2       ID3
     3.85763556E-02    3        1       -2        2000002   # BR(~d_R -> d  ub  ~u_R)
     3.52423208E-01    3        1       2        -2000002   # BR(~d_R -> d  u  ~u_R*)
     3.87192268E-02    3        1       -4        2000004   # BR(~d_R -> d  cb  ~c_R)
     3.50503376E-01    3        1       4        -2000004   # BR(~d_R -> d  c  ~c_R*)
     1.57995519E-14    3        1       -11        1000011   # BR(~d_R -> d  e+  ~e_L-)
     3.77503811E-15    3        1       11        -1000011   # BR(~d_R -> d  e-  ~e_L+)
     7.97980617E-13    3        1       -12        1000012   # BR(~d_R -> d  nu_eb  ~nu_eL)
     1.89873668E-13    3        1       12        -1000012   # BR(~d_R -> d  nu_e  ~nu_eL*)
     1.59122862E-14    3        1       -13        1000013   # BR(~d_R -> d  mu+  ~mu_L-)
     3.68563196E-15    3        1       13        -1000013   # BR(~d_R -> d  mu-  ~mu_L+)
     8.14812637E-13    3        1       -14        1000014   # BR(~d_R -> d  nu_mub  ~nu_muL)
     1.84995954E-13    3        1       14        -1000014   # BR(~d_R -> d  nu_mu  ~nu_muL*)
     1.81212098E-09    3        1       -15        1000015   # BR(~d_R -> d  tau+  ~tau_1-)
     7.95770577E-09    3        1       15        -1000015   # BR(~d_R -> d  tau-  ~tau_1+)
     2.76076380E-04    3        1       23        1000022   # BR(~d_R -> d  Z  ~chi_10)
     7.13887488E-04    3        1       25        1000022   # BR(~d_R -> d  h  ~chi_10)
     6.83002741E-04    3        1       23        1000023   # BR(~d_R -> d  Z  ~chi_20)
     2.78308744E-04    3        1       25        1000023   # BR(~d_R -> d  h  ~chi_20)
     1.80408447E-04    3        1       -24        1000024   # BR(~d_R -> d  W-  ~chi_1+)
     2.15110536E-03    3        1       24        -1000024   # BR(~d_R -> d  W+  ~chi_1-)
#
#         PDG            Width
DECAY   1000004     1.20350963E+02   # scharm_L decays
#          BR         NDA      ID1       ID2
     8.70412318E-05    2     1000022         4   # BR(~c_L -> ~chi_10 c)
     5.62237031E-05    2     1000023         4   # BR(~c_L -> ~chi_20 c)
     3.02437740E-03    2     1000025         4   # BR(~c_L -> ~chi_30 c)
     6.46123664E-02    2     1000035         4   # BR(~c_L -> ~chi_40 c)
     7.28028449E-04    2     1000024         3   # BR(~c_L -> ~chi_1+ s)
     1.29488148E-01    2     1000037         3   # BR(~c_L -> ~chi_2+ s)
     8.02003815E-01    2     1000021         4   # BR(~c_L -> ~g      c)
#
#         PDG            Width
DECAY   2000004     1.36952733E-04   # scharm_R decays
#           BR         NDA      ID1       ID2
     6.45444898E-01    2     1000022         4   # BR(~c_R -> ~chi_10 c)
     3.54485440E-01    2     1000023         4   # BR(~c_R -> ~chi_20 c)
#           BR         NDA      ID1       ID2       ID3
     1.44414788E-05    3        4       23        1000022   # BR(~c_R -> c  Z  ~chi_10)
     3.24980735E-07    3        4       25        1000022   # BR(~c_R -> c  h  ~chi_10)
     1.01370740E-05    3        4       23        1000023   # BR(~c_R -> c  Z  ~chi_20)
     6.47099169E-08    3        4       25        1000023   # BR(~c_R -> c  h  ~chi_20)
     1.71132035E-06    3        4       -24        1000024   # BR(~c_R -> c  W-  ~chi_1+)
     4.29827127E-05    3        4       24        -1000024   # BR(~c_R -> c  W+  ~chi_1-)
#
#         PDG            Width
DECAY   1000003     1.20361817E+02   # sstrange_L decays
#          BR         NDA      ID1       ID2
     1.41143495E-04    2     1000022         3   # BR(~s_L -> ~chi_10 s)
     8.88386781E-05    2     1000023         3   # BR(~s_L -> ~chi_20 s)
     2.45084078E-03    2     1000025         3   # BR(~s_L -> ~chi_30 s)
     6.50848668E-02    2     1000035         3   # BR(~s_L -> ~chi_40 s)
     9.53845557E-06    2    -1000024         4   # BR(~s_L -> ~chi_1- c)
     1.29898851E-01    2    -1000037         4   # BR(~s_L -> ~chi_2- c)
     8.02325920E-01    2     1000021         3   # BR(~s_L -> ~g      s)
#
#         PDG            Width
DECAY   2000003     8.91758237E-04   # sstrange_R decays
#           BR         NDA      ID1       ID2
     1.34520487E-01    2     1000022         3   # BR(~s_R -> ~chi_10 s)
     7.62113696E-02    2     1000023         3   # BR(~s_R -> ~chi_20 s)
#           BR         NDA      ID1       ID2       ID3
     3.87560199E-02    3        3       -2        2000002   # BR(~s_R -> s  ub  ~u_R)
     3.55331733E-01    3        3       2        -2000002   # BR(~s_R -> s  u  ~u_R*)
     3.87537771E-02    3        3       -4        2000004   # BR(~s_R -> s  cb  ~c_R)
     3.52124586E-01    3        3       4        -2000004   # BR(~s_R -> s  c  ~c_R*)
     1.60267653E-14    3        3       -11        1000011   # BR(~s_R -> s  e+  ~e_L-)
     3.85351080E-15    3        3       11        -1000011   # BR(~s_R -> s  e-  ~e_L+)
     8.03132475E-13    3        3       -12        1000012   # BR(~s_R -> s  nu_eb  ~nu_eL)
     1.87808750E-13    3        3       12        -1000012   # BR(~s_R -> s  nu_e  ~nu_eL*)
     1.58181886E-14    3        3       -13        1000013   # BR(~s_R -> s  mu+  ~mu_L-)
     3.66399755E-15    3        3       13        -1000013   # BR(~s_R -> s  mu-  ~mu_L+)
     8.23238821E-13    3        3       -14        1000014   # BR(~s_R -> s  nu_mub  ~nu_muL)
     1.87091067E-13    3        3       14        -1000014   # BR(~s_R -> s  nu_mu  ~nu_muL*)
     1.83682071E-09    3        3       -15        1000015   # BR(~s_R -> s  tau+  ~tau_1-)
     7.96348125E-09    3        3       15        -1000015   # BR(~s_R -> s  tau-  ~tau_1+)
     2.77205177E-04    3        3       23        1000022   # BR(~s_R -> s  Z  ~chi_10)
     7.17212326E-04    3        3       25        1000022   # BR(~s_R -> s  h  ~chi_10)
     6.86183737E-04    3        3       23        1000023   # BR(~s_R -> s  Z  ~chi_20)
     2.79604931E-04    3        3       25        1000023   # BR(~s_R -> s  h  ~chi_20)
     1.81697228E-04    3        3       -24        1000024   # BR(~s_R -> s  W-  ~chi_1+)
     2.16011461E-03    3        3       24        -1000024   # BR(~s_R -> s  W+  ~chi_1-)
#
#         PDG            Width
DECAY   1000011     1.58064794E-03   # selectron_L decays
#          BR         NDA      ID1       ID2
     5.32792500E-01    2     1000022        11   # BR(~e_L -> ~chi_10 e-)
     3.57146051E-01    2     1000023        11   # BR(~e_L -> ~chi_20 e-)
     1.10061449E-01    2    -1000024        12   # BR(~e_L -> ~chi_1- nu_e)
#
#         PDG            Width
DECAY   2000011     6.26137271E+00   # selectron_R decays
#          BR         NDA      ID1       ID2
     8.81355925E-04    2     1000022        11   # BR(~e_R -> ~chi_10 e-)
     5.02972813E-04    2     1000023        11   # BR(~e_R -> ~chi_20 e-)
     9.98554300E-01    2     1000025        11   # BR(~e_R -> ~chi_30 e-)
     6.13709689E-05    2     1000035        11   # BR(~e_R -> ~chi_40 e-)
#
#         PDG            Width
DECAY   1000013     1.58064788E-03   # smuon_L decays
#          BR         NDA      ID1       ID2
     5.32792498E-01    2     1000022        13   # BR(~mu_L -> ~chi_10 mu-)
     3.57146049E-01    2     1000023        13   # BR(~mu_L -> ~chi_20 mu-)
     1.10061453E-01    2    -1000024        14   # BR(~mu_L -> ~chi_1- nu_mu)
#
#         PDG            Width
DECAY   2000013     6.26137267E+00   # smuon_R decays
#          BR         NDA      ID1       ID2
     8.81355928E-04    2     1000022        13   # BR(~mu_R -> ~chi_10 mu-)
     5.02972815E-04    2     1000023        13   # BR(~mu_R -> ~chi_20 mu-)
     9.98554300E-01    2     1000025        13   # BR(~mu_R -> ~chi_30 mu-)
     6.13709687E-05    2     1000035        13   # BR(~mu_R -> ~chi_40 mu-)
#
#         PDG            Width
DECAY   1000015     3.23525469E-01   # stau_1 decays
#          BR         NDA      ID1       ID2
     2.54130204E-01    2     1000022        15   # BR(~tau_1 -> ~chi_10  tau-)
     2.48654045E-01    2     1000023        15   # BR(~tau_1 -> ~chi_20  tau-)
     4.97215751E-01    2    -1000024        16   # BR(~tau_1 -> ~chi_1-  nu_tau)
#
#         PDG            Width
DECAY   2000015     1.66439302E+01   # stau_2 decays
#          BR         NDA      ID1       ID2
     2.87561201E-02    2     1000022        15   # BR(~tau_2 -> ~chi_10  tau-)
     2.84815016E-02    2     1000023        15   # BR(~tau_2 -> ~chi_20  tau-)
     1.17554238E-01    2     1000025        15   # BR(~tau_2 -> ~chi_30  tau-)
     2.68727699E-01    2     1000035        15   # BR(~tau_2 -> ~chi_40  tau-)
     5.30710466E-05    2    -1000024        16   # BR(~tau_2 -> ~chi_1-  nu_tau)
     5.43804698E-01    2    -1000037        16   # BR(~tau_2 -> ~chi_2-  nu_tau)
     8.91485339E-04    2     1000015        25   # BR(~tau_2 -> ~tau_1   h)
     5.44075523E-03    2     1000015        35   # BR(~tau_2 -> ~tau_1   H)
     5.44282088E-03    2     1000015        36   # BR(~tau_2 -> ~tau_1   A)
     8.47611138E-04    2     1000015        23   # BR(~tau_2 -> ~tau_1   Z)
#
#         PDG            Width
DECAY   1000012     1.92847973E-02   # snu_eL decays
#          BR         NDA      ID1       ID2
     1.96303100E-01    2     1000022        12   # BR(~nu_eL -> ~chi_10 nu_e)
     1.20558836E-01    2     1000023        12   # BR(~nu_eL -> ~chi_20 nu_e)
     6.83138064E-01    2     1000024        11   # BR(~nu_eL -> ~chi_1+ e-)
#
#         PDG            Width
DECAY   1000014     1.92847967E-02   # snu_muL decays
#          BR         NDA      ID1       ID2
     1.96303106E-01    2     1000022        14   # BR(~nu_muL -> ~chi_10 nu_mu)
     1.20558839E-01    2     1000023        14   # BR(~nu_muL -> ~chi_20 nu_mu)
     6.83138055E-01    2     1000024        13   # BR(~nu_muL -> ~chi_1+ mu-)
#
#         PDG            Width
DECAY   1000016     1.66539814E+01   # snu_tauL decays
#          BR         NDA      ID1       ID2
     1.25472556E-03    2     1000022        16   # BR(~nu_tauL -> ~chi_10 nu_tau)
     7.76374252E-04    2     1000023        16   # BR(~nu_tauL -> ~chi_20 nu_tau)
     1.09399615E-01    2     1000025        16   # BR(~nu_tauL -> ~chi_30 nu_tau)
     2.73822178E-01    2     1000035        16   # BR(~nu_tauL -> ~chi_40 nu_tau)
     6.11051770E-02    2     1000024        15   # BR(~nu_tauL -> ~chi_1+ tau-)
     5.41157508E-01    2     1000037        15   # BR(~nu_tauL -> ~chi_2+ tau-)
     1.08413852E-02    2    -1000015       -37   # BR(~nu_tauL -> ~tau_1+ H-)
     1.64303741E-03    2    -1000015       -24   # BR(~nu_tauL -> ~tau_1+ W-)
#
#         PDG            Width
DECAY   1000024     1.72095930E-11   # chargino1+ decays
#           BR         NDA      ID1       ID2       ID3
     5.99913969E-01    3     1000022         2        -1   # BR(~chi_1+ -> ~chi_10 u    db)
     1.99975556E-01    3     1000022       -11        12   # BR(~chi_1+ -> ~chi_10 e+   nu_e)
     1.99975556E-01    3     1000022       -13        14   # BR(~chi_1+ -> ~chi_10 mu+  nu_mu)
     1.34919771E-04    3     1000022       -15        16   # BR(~chi_1+ -> ~chi_10 tau+ nu_tau)
#
#         PDG            Width
DECAY   1000037     5.48121744E+01   # chargino2+ decays
#          BR         NDA      ID1       ID2
     1.68421953E-01    2     1000006        -5   # BR(~chi_2+ -> ~t_1     bb)
     1.46562692E-01    2    -1000005         6   # BR(~chi_2+ -> ~b_1*    t )
     1.01534000E-01    2     1000012       -11   # BR(~chi_2+ -> ~nu_eL   e+  )
     1.01534000E-01    2     1000014       -13   # BR(~chi_2+ -> ~nu_muL mu+ )
     1.01452905E-01    2    -1000011        12   # BR(~chi_2+ -> ~e_L+    nu_e)
     1.01452905E-01    2    -1000013        14   # BR(~chi_2+ -> ~mu_L+   nu_mu)
     6.74731923E-10    2    -1000015        16   # BR(~chi_2+ -> ~tau_1+  nu_tau)
     7.03683467E-02    2     1000024        23   # BR(~chi_2+ -> ~chi_1+  Z )
     6.81213958E-02    2     1000022        24   # BR(~chi_2+ -> ~chi_10  W+)
     6.86283992E-02    2     1000023        24   # BR(~chi_2+ -> ~chi_20  W+)
     9.94616191E-05    2     1000025        24   # BR(~chi_2+ -> ~chi_30  W+)
     7.18239410E-02    2     1000024        25   # BR(~chi_2+ -> ~chi_1+  h )
#
#         PDG            Width
DECAY   1000022     0.00000000E+00   # neutralino1 decays
#
#         PDG            Width
DECAY   1000023     2.94462942E-10   # neutralino2 decays
#          BR         NDA      ID1       ID2
     1.39134331E-01    2     1000022        22   # BR(~chi_20 -> ~chi_10 gam)
#           BR         NDA      ID1       ID2       ID3
     1.21580244E-01    3     1000022        -2         2   # BR(~chi_20 -> ~chi_10 ub      u)
     1.57795401E-01    3     1000022        -1         1   # BR(~chi_20 -> ~chi_10 db      d)
     1.21580244E-01    3     1000022        -4         4   # BR(~chi_20 -> ~chi_10 cb      c)
     1.57795401E-01    3     1000022        -3         3   # BR(~chi_20 -> ~chi_10 sb      s)
     3.62365586E-02    3     1000022       -11        11   # BR(~chi_20 -> ~chi_10 e+      e-)
     3.62365586E-02    3     1000022       -13        13   # BR(~chi_20 -> ~chi_10 mu+     mu-)
     7.24549134E-02    3     1000022       -12        12   # BR(~chi_20 -> ~chi_10 nu_eb   nu_e)
     7.24549134E-02    3     1000022       -14        14   # BR(~chi_20 -> ~chi_10 nu_mub  nu_mu)
     7.24532768E-02    3     1000022       -16        16   # BR(~chi_20 -> ~chi_10 nu_taub nu_tau)
     3.68342523E-03    3     1000024        -2         1   # BR(~chi_20 -> ~chi_1+ ub      d)
     3.68342523E-03    3    -1000024        -1         2   # BR(~chi_20 -> ~chi_1- db      u)
     1.22782709E-03    3     1000024       -12        11   # BR(~chi_20 -> ~chi_1+ nu_eb   e-)
     1.22782709E-03    3    -1000024        12       -11   # BR(~chi_20 -> ~chi_1- nu_e    e+)
     1.22782709E-03    3     1000024       -14        13   # BR(~chi_20 -> ~chi_1+ nu_mub  mu-)
     1.22782709E-03    3    -1000024        14       -13   # BR(~chi_20 -> ~chi_1- nu_mu   mu+)
#
#         PDG            Width
DECAY   1000025     4.26263290E+01   # neutralino3 decays
#          BR         NDA      ID1       ID2
     8.64441240E-03    2     1000022        23   # BR(~chi_30 -> ~chi_10   Z )
     1.52770591E-02    2     1000023        23   # BR(~chi_30 -> ~chi_20   Z )
     2.47515364E-02    2     1000024       -24   # BR(~chi_30 -> ~chi_1+   W-)
     2.47515364E-02    2    -1000024        24   # BR(~chi_30 -> ~chi_1-   W+)
     1.64495333E-02    2     1000022        25   # BR(~chi_30 -> ~chi_10   h )
     9.32002621E-03    2     1000023        25   # BR(~chi_30 -> ~chi_20   h )
     1.28318987E-01    2     2000002        -2   # BR(~chi_30 -> ~u_R      ub)
     1.28318987E-01    2    -2000002         2   # BR(~chi_30 -> ~u_R*     u )
     2.24700958E-02    2     2000001        -1   # BR(~chi_30 -> ~d_R      db)
     2.24700958E-02    2    -2000001         1   # BR(~chi_30 -> ~d_R*     d )
     1.28318967E-01    2     2000004        -4   # BR(~chi_30 -> ~c_R      cb)
     1.28318967E-01    2    -2000004         4   # BR(~chi_30 -> ~c_R*     c )
     2.24700958E-02    2     2000003        -3   # BR(~chi_30 -> ~s _R      sb)
     2.24700958E-02    2    -2000003         3   # BR(~chi_30 -> ~s _R*     s )
     7.01508446E-03    2     1000006        -6   # BR(~chi_30 -> ~t_1      tb)
     7.01508446E-03    2    -1000006         6   # BR(~chi_30 -> ~t_1*     t )
     2.01094841E-03    2     1000005        -5   # BR(~chi_30 -> ~b_1      bb)
     2.01094841E-03    2    -1000005         5   # BR(~chi_30 -> ~b_1*     b )
     1.77387140E-02    2     1000011       -11   # BR(~chi_30 -> ~e_L-     e+)
     1.77387140E-02    2    -1000011        11   # BR(~chi_30 -> ~e_L+     e-)
     1.77387140E-02    2     1000013       -13   # BR(~chi_30 -> ~mu_L-    mu+)
     1.77387140E-02    2    -1000013        13   # BR(~chi_30 -> ~mu_L+    mu-)
     7.10904720E-02    2     1000015       -15   # BR(~chi_30 -> ~tau_1-   tau+)
     7.10904720E-02    2    -1000015        15   # BR(~chi_30 -> ~tau_1+   tau-)
     1.66154350E-02    2     1000012       -12   # BR(~chi_30 -> ~nu_eL    nu_eb)
     1.66154350E-02    2    -1000012        12   # BR(~chi_30 -> ~nu_eL*   nu_e )
     1.66154350E-02    2     1000014       -14   # BR(~chi_30 -> ~nu_muL   nu_mub)
     1.66154350E-02    2    -1000014        14   # BR(~chi_30 -> ~nu_muL*  nu_mu )
#
#         PDG            Width
DECAY   1000035     5.47924382E+01   # neutralino4 decays
#          BR         NDA      ID1       ID2
     2.75089883E-02    2     1000022        23   # BR(~chi_40 -> ~chi_10   Z )
     4.36278416E-02    2     1000023        23   # BR(~chi_40 -> ~chi_20   Z )
     3.26617048E-07    2     1000025        23   # BR(~chi_40 -> ~chi_30   Z )
     6.78080084E-02    2     1000024       -24   # BR(~chi_40 -> ~chi_1+   W-)
     6.78080084E-02    2    -1000024        24   # BR(~chi_40 -> ~chi_1-   W+)
     4.44249888E-02    2     1000022        25   # BR(~chi_40 -> ~chi_10   h )
     2.76243010E-02    2     1000023        25   # BR(~chi_40 -> ~chi_20   h )
     7.90431415E-05    2     1000025        25   # BR(~chi_40 -> ~chi_30   h )
     9.43337138E-06    2     2000002        -2   # BR(~chi_40 -> ~u_R      ub)
     9.43337138E-06    2    -2000002         2   # BR(~chi_40 -> ~u_R*     u )
     1.78419740E-06    2     2000001        -1   # BR(~chi_40 -> ~d_R      db)
     1.78419740E-06    2    -2000001         1   # BR(~chi_40 -> ~d_R*     d )
     9.43337046E-06    2     2000004        -4   # BR(~chi_40 -> ~c_R      cb)
     9.43337046E-06    2    -2000004         4   # BR(~chi_40 -> ~c_R*     c )
     1.78419740E-06    2     2000003        -3   # BR(~chi_40 -> ~s _R      sb)
     1.78419740E-06    2    -2000003         3   # BR(~chi_40 -> ~s _R*     s )
     8.00808547E-02    2     1000006        -6   # BR(~chi_40 -> ~t_1      tb)
     8.00808547E-02    2    -1000006         6   # BR(~chi_40 -> ~t_1*     t )
     7.74290442E-02    2     1000005        -5   # BR(~chi_40 -> ~b_1      bb)
     7.74290442E-02    2    -1000005         5   # BR(~chi_40 -> ~b_1*     b )
     3.22287625E-07    2     2000005        -5   # BR(~chi_40 -> ~b_2      bb)
     3.22287625E-07    2    -2000005         5   # BR(~chi_40 -> ~b_2*     b )
     5.01347006E-02    2     1000011       -11   # BR(~chi_40 -> ~e_L-     e+)
     5.01347006E-02    2    -1000011        11   # BR(~chi_40 -> ~e_L+     e-)
     5.01347006E-02    2     1000013       -13   # BR(~chi_40 -> ~mu_L-    mu+)
     5.01347006E-02    2    -1000013        13   # BR(~chi_40 -> ~mu_L+    mu-)
     5.65073447E-06    2     1000015       -15   # BR(~chi_40 -> ~tau_1-   tau+)
     5.65073447E-06    2    -1000015        15   # BR(~chi_40 -> ~tau_1+   tau-)
     5.13757693E-02    2     1000012       -12   # BR(~chi_40 -> ~nu_eL    nu_eb)
     5.13757693E-02    2    -1000012        12   # BR(~chi_40 -> ~nu_eL*   nu_e )
     5.13757693E-02    2     1000014       -14   # BR(~chi_40 -> ~nu_muL   nu_mub)
     5.13757693E-02    2    -1000014        14   # BR(~chi_40 -> ~nu_muL*  nu_mu )
#
#         PDG            Width
DECAY        25     4.36335166E-03   # h decays
#          BR         NDA      ID1       ID2
     5.86951943E-01    2           5        -5   # BR(h -> b       bb     )
     6.07383660E-02    2         -15        15   # BR(h -> tau+    tau-   )
     2.15005143E-04    2         -13        13   # BR(h -> mu+     mu-    )
     2.34053392E-04    2           3        -3   # BR(h -> s       sb     )
     2.00603279E-02    2           4        -4   # BR(h -> c       cb     )
     7.37791113E-02    2          21        21   # BR(h -> g       g      )
     2.28109240E-03    2          22        22   # BR(h -> gam     gam    )
     1.62640024E-03    2          22        23   # BR(h -> Z       gam    )
     2.25358454E-01    2          24       -24   # BR(h -> W+      W-     )
     2.87552469E-02    2          23        23   # BR(h -> Z       Z      )
#
#         PDG            Width
DECAY        35     4.78857986E+00   # H decays
#          BR         NDA      ID1       ID2
     7.39851113E-01    2           5        -5   # BR(H -> b       bb     )
     1.24653006E-01    2         -15        15   # BR(H -> tau+    tau-   )
     4.47233624E-04    2         -13        13   # BR(H -> mu+     mu-    )
     2.79987199E-04    2           3        -3   # BR(H -> s       sb     )
     1.26985460E-06    2           4        -4   # BR(H -> c       cb     )
     1.22915270E-01    2           6        -6   # BR(H -> t       tb     )
     5.72856594E-05    2          21        21   # BR(H -> g       g      )
     1.00300368E-07    2          22        22   # BR(H -> gam     gam    )
     9.53490779E-08    2          23        22   # BR(H -> Z       gam    )
     1.39690923E-04    2          24       -24   # BR(H -> W+      W-     )
     6.95754841E-05    2          23        23   # BR(H -> Z       Z      )
     5.00230383E-04    2          25        25   # BR(H -> h       h      )
     7.51411799E-03    2     1000024  -1000024   # BR(H -> ~chi_1+ ~chi_1-)
     2.40997768E-03    2     1000022   1000022   # BR(H -> ~chi_10 ~chi_10)
     1.05454586E-03    2     1000023   1000023   # BR(H -> ~chi_20 ~chi_20)
     4.43974985E-06    2     1000022   1000023   # BR(H -> ~chi_10 ~chi_20)
     1.43604771E-05    2     2000002  -2000002   # BR(H -> ~u_R    ~u_R*  )
     1.43604771E-05    2     2000004  -2000004   # BR(H -> ~c_R    ~c_R*  )
     1.55508555E-06    2     2000001  -2000001   # BR(H -> ~d_R    ~d_R*  )
     1.55508555E-06    2     2000003  -2000003   # BR(H -> ~s_R    ~s_R*  )
     7.37150618E-06    2     1000011  -1000011   # BR(H -> ~e_L-   ~e_L+  )
     7.37150618E-06    2     1000013  -1000013   # BR(H -> ~mu_L-  ~mu_L+ )
     6.32704997E-06    2     1000015  -1000015   # BR(H -> ~tau_1- ~tau_1+)
     2.45800887E-05    2     1000012  -1000012   # BR(H -> ~nu_eL  ~nu_eL*   )
     2.45800887E-05    2     1000014  -1000014   # BR(H -> ~nu_muL ~nu_muL*  )
#
#         PDG            Width
DECAY        36     4.80167956E+00   # A decays
#          BR         NDA      ID1       ID2
     7.38021745E-01    2           5        -5   # BR(A -> b       bb     )
     1.24320023E-01    2         -15        15   # BR(A -> tau+    tau-   )
     4.46037238E-04    2         -13        13   # BR(A -> mu+     mu-    )
     2.79377554E-04    2           3        -3   # BR(A -> s       sb     )
     1.26234001E-06    2           4        -4   # BR(A -> c       cb     )
     1.23654247E-01    2           6        -6   # BR(A -> t       tb     )
     2.62779983E-04    2          21        21   # BR(A -> g       g      )
     2.40583820E-07    2          22        22   # BR(A -> gam     gam    )
     2.50649702E-07    2          23        22   # BR(A -> Z       gam    )
     1.40448392E-04    2          23        25   # BR(A -> Z       h      )
     8.83328167E-03    2     1000024  -1000024   # BR(A -> ~chi_1+ ~chi_1-)
     2.10370355E-03    2     1000022   1000022   # BR(A -> ~chi_10 ~chi_10)
     1.80577434E-03    2     1000023   1000023   # BR(A -> ~chi_20 ~chi_20)
     1.30827813E-04    2     1000022   1000023   # BR(A -> ~chi_10 ~chi_20)
#
#         PDG            Width
DECAY        37     4.49942320E+00   # H+ decays
#          BR         NDA      ID1       ID2
     1.23965130E-03    2           4        -5   # BR(H+ -> c       bb     )
     1.32800547E-01    2         -15        16   # BR(H+ -> tau+    nu_tau )
     4.76463786E-04    2         -13        14   # BR(H+ -> mu+     nu_mu  )
     1.23964594E-05    2           2        -5   # BR(H+ -> u       bb     )
     1.48995725E-05    2           2        -3   # BR(H+ -> u       sb     )
     2.94560097E-04    2           4        -3   # BR(H+ -> c       sb     )
     8.63896579E-01    2           6        -5   # BR(H+ -> t       bb     )
     1.50540991E-04    2          24        25   # BR(H+ -> W+      h      )
     7.91246672E-12    2          24        36   # BR(H+ -> W+      A      )
     3.03870210E-04    2     1000024   1000022   # BR(H+ -> ~chi_1+ ~chi_10)
     7.48115883E-04    2     1000024   1000023   # BR(H+ -> ~chi_1+ ~chi_20)
     3.11876078E-05    2    -1000011   1000012   # BR(H+ -> ~e_L+   ~nu_eL )
     3.11876078E-05    2    -1000013   1000014   # BR(H+ -> ~mu_L+  ~nu_muL)
