#
#                              ======================
#                              | THE SUSYHIT OUTPUT |
#                              ======================
#
#
#              ------------------------------------------------------
#              |     This is the output of the SUSY-HIT package     |
#              |  created by A.Djouadi, M.Muehlleitner and M.Spira. |
#              |  In case of problems with SUSY-HIT email to        |
#              |           margarete.muehlleitner@cern.ch           |
#              |           michael.spira@psi.ch                     |
#              |           abdelhak.djouadi@cern.ch                 |
#              ------------------------------------------------------
#
#              ------------------------------------------------------
#              |  SUSY Les Houches Accord - MSSM Spectrum + Decays  |
#              |              based on the decay programs           |
#              |                                                    |
#              |                     SDECAY 1.3b                    |
#              |                                                    |
#              |  Authors: M.Muhlleitner, A.Djouadi and Y.Mambrini  |
#              |  Ref.:    Comput.Phys.Commun.168(2005)46           |
#              |           [hep-ph/0311167]                         |
#              |                                                    |
#              |                     HDECAY 3.4                     |
#              |                                                    |
#              |  By: A.Djouadi,J.Kalinowski,M.Muhlleitner,M.Spira  |
#              |  Ref.:    Comput.Phys.Commun.108(1998)56           |
#              |           [hep-ph/9704448]                         |
#              |                                                    |
#              |                                                    |
#              |  If not stated otherwise all DRbar couplings and   |
#              |  soft SUSY breaking masses are given at the scale  |
#              |  Q=  0.37119680E+04
#              |                                                    |
#              ------------------------------------------------------
#
#
BLOCK DCINFO  # Decay Program information
     1   SDECAY/HDECAY # decay calculator
     2   1.3b  /3.4    # version number
#
BLOCK SPINFO  # Spectrum calculator information
     1     SOFTSUSY    # spectrum calculator               
     2     3.4.0       # version number                    
#
BLOCK MODSEL  # Model selection
     1     0   #  nonUniversal                                     
#
BLOCK SMINPUTS  # Standard Model inputs
         1     1.27908970E+02   # alpha_em^-1(M_Z)^MSbar
         2     1.16637870E-05   # G_F [GeV^-2]
         3     1.18400000E-01   # alpha_S(M_Z)^MSbar
         4     9.11876000E+01   # M_Z pole mass
         5     4.18000000E+00   # mb(mb)^MSbar
         6     1.73200000E+02   # mt pole mass
         7     1.77700000E+00   # mtau pole mass
#
BLOCK MINPAR  # Input parameters - minimal models
         3     1.53100000E+01   # tanb                
#
BLOCK EXTPAR  # Input parameters - non-minimal models
         0    -1.00000000E+00   # Set                 
         1    -3.73608000E+03   # M_1(MX)             
         2     9.94270000E+02   # M_2(MX)             
         3     3.33942000E+03   # M_3(MX)             
        11     5.09018000E+03   # At(MX)              
        12     1.56799000E+03   # Ab(MX)              
        13     2.44046000E+03   # Atau(MX)            
        23     1.95800000E+02   # mu(MX)              
        26     1.81849000E+03   # mA(pole)            
        31     2.68009000E+03   # meL(MX)             
        32     2.68009000E+03   # mmuL(MX)            
        33     2.59032000E+03   # mtauL(MX)           
        34     2.43985000E+03   # meR(MX)             
        35     2.43985000E+03   # mmuR(MX)            
        36     9.24980000E+02   # mtauR(MX)           
        41     1.00663000E+03   # mqL1(MX)            
        42     1.00663000E+03   # mqL2(MX)            
        43     3.78506000E+03   # mqL3(MX)            
        44     3.88065000E+03   # muR(MX)             
        45     3.88065000E+03   # mcR(MX)             
        46     3.64045000E+03   # mtR(MX)             
        47     6.89350000E+02   # mdR(MX)             
        48     6.89350000E+02   # msR(MX)             
        49     2.00618000E+03   # mbR(MX)             
#
BLOCK MASS  # Mass Spectrum
# PDG code           mass       particle
        24     8.03892691E+01   # W+
        25     1.27784813E+02   # h
        35     1.81854378E+03   # H
        36     1.81848999E+03   # A
        37     1.82048249E+03   # H+
         5     4.81876030E+00   # b-quark pole mass calculated from mb(mb)_Msbar
   1000001     1.26790575E+03   # ~d_L
   2000001     1.00392060E+03   # ~d_R
   1000002     1.26546501E+03   # ~u_L
   2000002     3.98448036E+03   # ~u_R
   1000003     1.26790575E+03   # ~s_L
   2000003     1.00392060E+03   # ~s_R
   1000004     1.26546501E+03   # ~c_L
   2000004     3.98448036E+03   # ~c_R
   1000005     2.17470847E+03   # ~b_1
   2000005     3.84392639E+03   # ~b_2
   1000006     3.62123246E+03   # ~t_1
   2000006     3.87867234E+03   # ~t_2
   1000011     2.68628515E+03   # ~e_L
   2000011     2.46766603E+03   # ~e_R
   1000012     2.68481569E+03   # ~nu_eL
   1000013     2.68628515E+03   # ~mu_L
   2000013     2.46766603E+03   # ~mu_R
   1000014     2.68481569E+03   # ~nu_muL
   1000015     9.79499461E+02   # ~tau_1
   2000015     2.59514706E+03   # ~tau_2
   1000016     2.59363819E+03   # ~nu_tauL
   1000021     3.46552381E+03   # ~g
   1000022     2.01774138E+02   # ~chi_10
   1000023    -2.07411372E+02   # ~chi_20
   1000025     1.02127256E+03   # ~chi_30
   1000035    -3.67509309E+03   # ~chi_40
   1000024     2.03842927E+02   # ~chi_1+
   1000037     1.02145537E+03   # ~chi_2+
#
BLOCK NMIX  # Neutralino Mixing Matrix
  1  1    -8.36178492E-03   # N_11
  1  2    -7.16963640E-02   # N_12
  1  3     7.10970348E-01   # N_13
  1  4    -6.99507595E-01   # N_14
  2  1     8.27010115E-03   # N_21
  2  2     4.25164594E-02   # N_22
  2  3     7.02903466E-01   # N_23
  2  4     7.09965262E-01   # N_24
  3  1    -7.50386572E-04   # N_31
  3  2     9.96519915E-01   # N_32
  3  3     2.11627003E-02   # N_33
  3  4    -8.06203221E-02   # N_34
  4  1     9.99930559E-01   # N_41
  4  2    -2.03363954E-04   # N_42
  4  3     1.47788846E-04   # N_43
  4  4    -1.17819312E-02   # N_44
#
BLOCK UMIX  # Chargino Mixing Matrix U
  1  1    -2.99708234E-02   # U_11
  1  2     9.99550774E-01   # U_12
  2  1    -9.99550774E-01   # U_21
  2  2    -2.99708234E-02   # U_22
#
BLOCK VMIX  # Chargino Mixing Matrix V
  1  1    -1.14290934E-01   # V_11
  1  2     9.93447322E-01   # V_12
  2  1    -9.93447322E-01   # V_21
  2  2    -1.14290934E-01   # V_22
#
BLOCK STOPMIX  # Stop Mixing Matrix
  1  1    -3.56441352E-01   # cos(theta_t)
  1  2     9.34317699E-01   # sin(theta_t)
  2  1    -9.34317699E-01   # -sin(theta_t)
  2  2    -3.56441352E-01   # cos(theta_t)
#
BLOCK SBOTMIX  # Sbottom Mixing Matrix
  1  1     3.40079232E-04   # cos(theta_b)
  1  2     9.99999942E-01   # sin(theta_b)
  2  1    -9.99999942E-01   # -sin(theta_b)
  2  2     3.40079232E-04   # cos(theta_b)
#
BLOCK STAUMIX  # Stau Mixing Matrix
  1  1     1.72553872E-04   # cos(theta_tau)
  1  2     9.99999985E-01   # sin(theta_tau)
  2  1    -9.99999985E-01   # -sin(theta_tau)
  2  2     1.72553872E-04   # cos(theta_tau)
#
BLOCK ALPHA  # Higgs mixing
          -6.90392103E-02   # Mixing angle in the neutral Higgs boson sector
#
BLOCK HMIX Q=  3.71196800E+03  # DRbar Higgs Parameters
         1     1.99191740E+02   # mu(Q)MSSM           
         2     1.45693128E+01   # tan                 
         3     2.41346466E+02   # higgs               
         4     3.33565991E+06   # mA^2(Q)MSSM         
#
BLOCK GAUGE Q=  3.71196800E+03  # The gauge couplings
     1     3.65982248E-01   # gprime(Q) DRbar
     2     6.41048273E-01   # g(Q) DRbar
     3     1.00592262E+00   # g3(Q) DRbar
#
BLOCK AU Q=  3.71196800E+03  # The trilinear couplings
  1  1     0.00000000E+00   # A_u(Q) DRbar
  2  2     0.00000000E+00   # A_c(Q) DRbar
  3  3     5.09018003E+03   # A_t(Q) DRbar
#
BLOCK AD Q=  3.71196800E+03  # The trilinear couplings
  1  1     0.00000000E+00   # A_d(Q) DRbar
  2  2     0.00000000E+00   # A_s(Q) DRbar
  3  3     1.56799001E+03   # A_b(Q) DRbar
#
BLOCK AE Q=  3.71196800E+03  # The trilinear couplings
  1  1     0.00000000E+00   # A_e(Q) DRbar
  2  2     0.00000000E+00   # A_mu(Q) DRbar
  3  3     2.44046000E+03   # A_tau(Q) DRbar
#
BLOCK Yu Q=  3.71196800E+03  # The Yukawa couplings
  1  1     0.00000000E+00   # y_u(Q) DRbar
  2  2     0.00000000E+00   # y_c(Q) DRbar
  3  3     8.31935317E-01   # y_t(Q) DRbar
#
BLOCK Yd Q=  3.71196800E+03  # The Yukawa couplings
  1  1     0.00000000E+00   # y_d(Q) DRbar
  2  2     0.00000000E+00   # y_s(Q) DRbar
  3  3     1.94532317E-01   # y_b(Q) DRbar
#
BLOCK Ye Q=  3.71196800E+03  # The Yukawa couplings
  1  1     0.00000000E+00   # y_e(Q) DRbar
  2  2     0.00000000E+00   # y_mu(Q) DRbar
  3  3     1.49858730E-01   # y_tau(Q) DRbar
#
BLOCK MSOFT Q=  3.71196800E+03  # The soft SUSY breaking masses at the scale Q
         1    -3.73608000E+03   # M_1(Q)              
         2     9.94270000E+02   # M_2(Q)              
         3     3.33942000E+03   # M_3(Q)              
        21     3.26841270E+06   # mH1^2(Q)            
        22     2.52606402E+05   # mH2^2(Q)            
        31     2.68009000E+03   # meL(Q)              
        32     2.68009000E+03   # mmuL(Q)             
        33     2.59032000E+03   # mtauL(Q)            
        34     2.43985000E+03   # meR(Q)              
        35     2.43985000E+03   # mmuR(Q)             
        36     9.24980001E+02   # mtauR(Q)            
        41     1.00662996E+03   # mqL1(Q)             
        42     1.00662996E+03   # mqL2(Q)             
        43     3.78505999E+03   # mqL3(Q)             
        44     3.88064999E+03   # muR(Q)              
        45     3.88064999E+03   # mcR(Q)              
        46     3.64044998E+03   # mtR(Q)              
        47     6.89349935E+02   # mdR(Q)              
        48     6.89349935E+02   # msR(Q)              
        49     2.00617998E+03   # mbR(Q)              
#
Block HiggsBoundsInputHiggsCouplingsFermions
# ScalarNormEffCoupSq PseudoSNormEffCoupSq NP   IP1 IP2 IP2
    1.01489437E+00    0.00000000E+00        3  25   5   5  # h0-b-b eff. coupling^2, normalised to SM
    2.12249981E+02    0.00000000E+00        3  35   5   5  # H0-b-b eff. coupling^2, normalised to SM
    0.00000000E+00    2.12264875E+02        3  36   5   5  # A0-b-b eff. coupling^2, normalised to SM
#
    9.99929831E-01    0.00000000E+00        3  25   6   6  # h0-t-t eff. coupling^2, normalised to SM
    4.78126384E-03    0.00000000E+00        3  35   6   6  # H0-t-t eff. coupling^2, normalised to SM
    0.00000000E+00    4.71109503E-03        3  36   6   6  # A0-t-t eff. coupling^2, normalised to SM
#
    1.01489437E+00    0.00000000E+00        3  25  15  15  # h0-tau-tau eff. coupling^2, normalised to SM
    2.12249981E+02    0.00000000E+00        3  35  15  15  # H0-tau-tau eff. coupling^2, normalised to SM
    0.00000000E+00    2.12264875E+02        3  36  15  15  # A0-tau-tau eff. coupling^2, normalised to SM
#
Block HiggsBoundsInputHiggsCouplingsBosons
    9.99999741E-01        3  25  24  24  # h0-W-W eff. coupling^2, normalised to SM
    2.59361322E-07        3  35  24  24  # H0-W-W eff. coupling^2, normalised to SM
    0.00000000E+00        3  36  24  24  # A0-W-W eff. coupling^2, normalised to SM
#
    9.99999741E-01        3  25  23  23  # h0-Z-Z eff. coupling^2, normalised to SM
    2.59361322E-07        3  35  23  23  # H0-Z-Z eff. coupling^2, normalised to SM
    0.00000000E+00        3  36  23  23  # A0-Z-Z eff. coupling^2, normalised to SM
#
    8.87102124E-01        3  25  21  21  # h0-g-g eff. coupling^2, normalised to SM
    8.73284545E-12        3  35  21  21  # H0-g-g eff. coupling^2, normalised to SM
    3.47110180E-10        3  36  21  21  # A0-g-g eff. coupling^2, normalised to SM
#
    0.00000000E+00        3  25  25  23  # h0-h0-Z eff. coupling^2, normalised to SM
    0.00000000E+00        3  35  25  23  # H0-h0-Z eff. coupling^2, normalised to SM
    2.59361322E-07        3  36  25  23  # A0-h0-Z eff. coupling^2, normalised to SM
    0.00000000E+00        3  35  35  23  # H0-H0-Z eff. coupling^2, normalised to SM
    9.99999741E-01        3  36  35  23  # A0-H0-Z eff. coupling^2, normalised to SM
    0.00000000E+00        3  36  36  23  # A0-A0-Z eff. coupling^2, normalised to SM
#
    0.00000000E+00        4  25  21  21  23  # h0-g-g-Z eff. coupling^2, normalised to SM
    0.00000000E+00        4  35  21  21  23  # H0-g-g-Z eff. coupling^2, normalised to SM
    0.00000000E+00        4  36  21  21  23  # A0-g-g-Z eff. coupling^2, normalised to SM
#
#
#
#                             =================
#                             |The decay table|
#                             =================
#
# - The QCD corrections to the decays gluino -> squark  + quark
#                                     squark -> gaugino + quark_prime
#                                     squark -> squark_prime + Higgs
#                                     squark -> gluino  + quark
#   are included.
#
# - The multi-body decays for the inos, stops and sbottoms are included.
#
# - The loop induced decays for the gluino, neutralinos and stops
#   are included.
#
# - The SUSY decays of the top quark are included.
#
#
#         PDG            Width
DECAY         6     1.44730846E+00   # top decays
#          BR         NDA      ID1       ID2
     1.00000000E+00    2           5        24   # BR(t ->  b    W+)
#
#         PDG            Width
DECAY   1000021     3.55295233E+02   # gluino decays
#          BR         NDA      ID1       ID2
     7.42922603E-02    2     1000001        -1   # BR(~g -> ~d_L  db)
     7.42922603E-02    2    -1000001         1   # BR(~g -> ~d_L* d )
     8.31056370E-02    2     2000001        -1   # BR(~g -> ~d_R  db)
     8.31056370E-02    2    -2000001         1   # BR(~g -> ~d_R* d )
     7.43806079E-02    2     1000002        -2   # BR(~g -> ~u_L  ub)
     7.43806079E-02    2    -1000002         2   # BR(~g -> ~u_L* u )
     7.42922603E-02    2     1000003        -3   # BR(~g -> ~s_L  sb)
     7.42922603E-02    2    -1000003         3   # BR(~g -> ~s_L* s )
     8.31056370E-02    2     2000003        -3   # BR(~g -> ~s_R  sb)
     8.31056370E-02    2    -2000003         3   # BR(~g -> ~s_R* s )
     7.43806023E-02    2     1000004        -4   # BR(~g -> ~c_L  cb)
     7.43806023E-02    2    -1000004         4   # BR(~g -> ~c_L* c )
     3.64429950E-02    2     1000005        -5   # BR(~g -> ~b_1  bb)
     3.64429950E-02    2    -1000005         5   # BR(~g -> ~b_1* b )
#
#         PDG            Width
DECAY   1000006     9.70517130E+01   # stop1 decays
#          BR         NDA      ID1       ID2
     2.41035879E-01    2     1000022         6   # BR(~t_1 -> ~chi_10 t )
     2.50238314E-01    2     1000023         6   # BR(~t_1 -> ~chi_20 t )
     3.18521775E-02    2     1000025         6   # BR(~t_1 -> ~chi_30 t )
     4.14136774E-01    2     1000024         5   # BR(~t_1 -> ~chi_1+ b )
     6.27356731E-02    2     1000037         5   # BR(~t_1 -> ~chi_2+ b )
     1.18265423E-06    2     1000005        24   # BR(~t_1 -> ~b_1    W+)
#
#         PDG            Width
DECAY   2000006     1.14755145E+02   # stop2 decays
#          BR         NDA      ID1       ID2
     2.33253802E-01    2     1000022         6   # BR(~t_2 -> ~chi_10 t )
     2.37835443E-01    2     1000023         6   # BR(~t_2 -> ~chi_20 t )
     9.48685849E-02    2     1000025         6   # BR(~t_2 -> ~chi_30 t )
     2.24680306E-05    2     1000035         6   # BR(~t_2 -> ~chi_40 t )
     1.10197195E-01    2     1000024         5   # BR(~t_2 -> ~chi_1+ b )
     1.83390602E-01    2     1000037         5   # BR(~t_2 -> ~chi_2+ b )
     8.39821679E-02    2     1000021         6   # BR(~t_2 -> ~g      t )
     2.46696330E-02    2     1000006        25   # BR(~t_2 -> ~t_1    h )
     3.17696771E-02    2     1000006        23   # BR(~t_2 -> ~t_1    Z )
     1.04285052E-05    2     1000005        24   # BR(~t_2 -> ~b_1    W+)
#
#         PDG            Width
DECAY   1000005     3.19564390E+00   # sbottom1 decays
#          BR         NDA      ID1       ID2
     2.54601518E-01    2     1000022         5   # BR(~b_1 -> ~chi_10 b )
     2.48553887E-01    2     1000023         5   # BR(~b_1 -> ~chi_20 b )
     1.29352420E-04    2     1000025         5   # BR(~b_1 -> ~chi_30 b )
     4.96461871E-01    2    -1000024         6   # BR(~b_1 -> ~chi_1- t )
     2.53372300E-04    2    -1000037         6   # BR(~b_1 -> ~chi_2- t )
#
#         PDG            Width
DECAY   2000005     1.08511367E+02   # sbottom2 decays
#          BR         NDA      ID1       ID2
     1.41115377E-02    2     1000022         5   # BR(~b_2 -> ~chi_10 b )
     1.33419442E-02    2     1000023         5   # BR(~b_2 -> ~chi_20 b )
     1.24261578E-01    2     1000025         5   # BR(~b_2 -> ~chi_30 b )
     3.87694690E-05    2     1000035         5   # BR(~b_2 -> ~chi_40 b )
     4.76885238E-01    2    -1000024         6   # BR(~b_2 -> ~chi_1- t )
     2.56138974E-01    2    -1000037         6   # BR(~b_2 -> ~chi_2- t )
     6.66289054E-02    2     1000021         5   # BR(~b_2 -> ~g      b )
     5.00934830E-06    2     1000005        25   # BR(~b_2 -> ~b_1    h )
     6.17163777E-06    2     1000005        23   # BR(~b_2 -> ~b_1    Z )
     4.85818718E-02    2     1000006       -24   # BR(~b_2 -> ~t_1    W-)
#
#         PDG            Width
DECAY   1000002     2.12307935E+00   # sup_L decays
#          BR         NDA      ID1       ID2
     1.27931229E-02    2     1000022         2   # BR(~u_L -> ~chi_10 u)
     4.61670178E-03    2     1000023         2   # BR(~u_L -> ~chi_20 u)
     3.08286621E-01    2     1000025         2   # BR(~u_L -> ~chi_30 u)
     6.21594520E-02    2     1000024         1   # BR(~u_L -> ~chi_1+ d)
     6.12144102E-01    2     1000037         1   # BR(~u_L -> ~chi_2+ d)
#
#         PDG            Width
DECAY   2000002     1.83579725E+01   # sup_R decays
#          BR         NDA      ID1       ID2
     3.40358229E-05    2     1000022         2   # BR(~u_R -> ~chi_10 u)
     3.32849417E-05    2     1000023         2   # BR(~u_R -> ~chi_20 u)
     2.41494268E-07    2     1000025         2   # BR(~u_R -> ~chi_30 u)
     1.16299627E-02    2     1000035         2   # BR(~u_R -> ~chi_40 u)
     9.88302475E-01    2     1000021         2   # BR(~u_R -> ~g      u)
#
#         PDG            Width
DECAY   1000001     2.04474977E+00   # sdown_L decays
#          BR         NDA      ID1       ID2
     1.21793383E-02    2     1000022         1   # BR(~d_L -> ~chi_10 d)
     4.14201781E-03    2     1000023         1   # BR(~d_L -> ~chi_20 d)
     3.25435960E-01    2     1000025         1   # BR(~d_L -> ~chi_30 d)
     4.44725938E-03    2    -1000024         2   # BR(~d_L -> ~chi_1- u)
     6.53795425E-01    2    -1000037         2   # BR(~d_L -> ~chi_2- u)
#
#         PDG            Width
DECAY   2000001     8.22010367E-05   # sdown_R decays
#           BR         NDA      ID1       ID2
     4.84568036E-01    2     1000022         1   # BR(~d_R -> ~chi_10 d)
     4.71756987E-01    2     1000023         1   # BR(~d_R -> ~chi_20 d)
#           BR         NDA      ID1       ID2       ID3
     3.02210301E-10    3        1       -15        1000015   # BR(~d_R -> d  tau+  ~tau_1-)
     4.20250174E-09    3        1       15        -1000015   # BR(~d_R -> d  tau-  ~tau_1+)
     5.49701097E-03    3        1       23        1000022   # BR(~d_R -> d  Z  ~chi_10)
     4.36077225E-03    3        1       25        1000022   # BR(~d_R -> d  h  ~chi_10)
     4.68874865E-03    3        1       23        1000023   # BR(~d_R -> d  Z  ~chi_20)
     5.42462745E-03    3        1       25        1000023   # BR(~d_R -> d  h  ~chi_20)
     4.51064871E-04    3        1       -24        1000024   # BR(~d_R -> d  W-  ~chi_1+)
     2.32527481E-02    3        1       24        -1000024   # BR(~d_R -> d  W+  ~chi_1-)
#
#         PDG            Width
DECAY   1000004     2.02837397E+00   # scharm_L decays
#          BR         NDA      ID1       ID2
     1.30099587E-02    2     1000022         4   # BR(~c_L -> ~chi_10 c)
     4.69478423E-03    2     1000023         4   # BR(~c_L -> ~chi_20 c)
     3.07833833E-01    2     1000025         4   # BR(~c_L -> ~chi_30 c)
     6.32123839E-02    2     1000024         3   # BR(~c_L -> ~chi_1+ s)
     6.11249040E-01    2     1000037         3   # BR(~c_L -> ~chi_2+ s)
#
#         PDG            Width
DECAY   2000004     1.28964172E+01   # scharm_R decays
#          BR         NDA      ID1       ID2
     5.09058760E-05    2     1000022         4   # BR(~c_R -> ~chi_10 c)
     4.97811632E-05    2     1000023         4   # BR(~c_R -> ~chi_20 c)
     3.59705084E-07    2     1000025         4   # BR(~c_R -> ~chi_30 c)
     1.63027713E-02    2     1000035         4   # BR(~c_R -> ~chi_40 c)
     9.83596182E-01    2     1000021         4   # BR(~c_R -> ~g      c)
#
#         PDG            Width
DECAY   1000003     1.95194303E+00   # sstrange_L decays
#          BR         NDA      ID1       ID2
     1.23970890E-02    2     1000022         3   # BR(~s_L -> ~chi_10 s)
     4.21592089E-03    2     1000023         3   # BR(~s_L -> ~chi_20 s)
     3.25321132E-01    2     1000025         3   # BR(~s_L -> ~chi_30 s)
     4.52670310E-03    2    -1000024         4   # BR(~s_L -> ~chi_1- c)
     6.53539155E-01    2    -1000037         4   # BR(~s_L -> ~chi_2- c)
#
#         PDG            Width
DECAY   2000003     7.91277391E-05   # sstrange_R decays
#           BR         NDA      ID1       ID2
     4.83716474E-01    2     1000022         3   # BR(~s_R -> ~chi_10 s)
     4.70912745E-01    2     1000023         3   # BR(~s_R -> ~chi_20 s)
#           BR         NDA      ID1       ID2       ID3
     3.10965539E-10    3        3       -15        1000015   # BR(~s_R -> s  tau+  ~tau_1-)
     4.34373589E-09    3        3       15        -1000015   # BR(~s_R -> s  tau-  ~tau_1+)
     5.71051322E-03    3        3       23        1000022   # BR(~s_R -> s  Z  ~chi_10)
     4.53014334E-03    3        3       25        1000022   # BR(~s_R -> s  h  ~chi_10)
     4.87085824E-03    3        3       23        1000023   # BR(~s_R -> s  Z  ~chi_20)
     5.63531835E-03    3        3       25        1000023   # BR(~s_R -> s  h  ~chi_20)
     4.68065945E-04    3        3       -24        1000024   # BR(~s_R -> s  W-  ~chi_1+)
     2.41558779E-02    3        3       24        -1000024   # BR(~s_R -> s  W+  ~chi_1-)
#
#         PDG            Width
DECAY   1000011     2.41359199E+01   # selectron_L decays
#          BR         NDA      ID1       ID2
     2.63051050E-03    2     1000022        11   # BR(~e_L -> ~chi_10 e-)
     1.00313296E-03    2     1000023        11   # BR(~e_L -> ~chi_20 e-)
     3.30347321E-01    2     1000025        11   # BR(~e_L -> ~chi_30 e-)
     8.07943983E-04    2    -1000024        12   # BR(~e_L -> ~chi_1- nu_e)
     6.65211092E-01    2    -1000037        12   # BR(~e_L -> ~chi_2- nu_e)
#
#         PDG            Width
DECAY   2000011     3.73551633E-03   # selectron_R decays
#           BR         NDA      ID1       ID2
     2.42877415E-01    2     1000022        11   # BR(~e_R -> ~chi_10 e-)
     2.37399329E-01    2     1000023        11   # BR(~e_R -> ~chi_20 e-)
#           BR         NDA      ID1       ID2       ID3
     3.96196903E-03    3        11       -1        1000001   # BR(~e_R- -> e-  db  ~d_L)
     1.02347297E-03    3        11       1        -1000001   # BR(~e_R- -> e-  d  ~d_L*)
     8.07331499E-03    3        11       -1        2000001   # BR(~e_R- -> e-  db  ~d_R)
     3.45574717E-02    3        11       1        -2000001   # BR(~e_R- -> e-  d  ~d_R*)
     3.89745318E-03    3        11       -2        1000002   # BR(~e_R- -> e-  ub  ~u_L)
     1.05278619E-03    3        11       2        -1000002   # BR(~e_R- -> e-  u  ~u_L*)
     3.92770335E-03    3        11       -3        1000003   # BR(~e_R- -> e-  sb  ~s_L)
     1.03474317E-03    3        11       3        -1000003   # BR(~e_R- -> e-  s  ~s_L*)
     8.00692524E-03    3        11       -3        2000003   # BR(~e_R- -> e-  sb  ~s_R)
     3.51945992E-02    3        11       3        -2000003   # BR(~e_R- -> e-  s  ~s_R*)
     3.91324752E-03    3        11       -4        1000004   # BR(~e_R- -> e-  cb  ~c_L)
     1.05527581E-03    3        11       4        -1000004   # BR(~e_R- -> e-  c  ~c_L*)
     1.04355051E-05    3        11       -5        1000005   # BR(~e_R- -> e-  bb  ~b_1)
     2.62825782E-05    3        11       5        -1000005   # BR(~e_R- -> e-  b  ~b_1*)
     2.55878952E-02    3        11       -15        1000015   # BR(~e_R- -> e-  tau+  ~tau_1-)
     1.11826576E-01    3        11       15        -1000015   # BR(~e_R- -> e-  tau-  ~tau_1+)
     3.47502162E-02    3        11       23        1000022   # BR(~e_R- -> e-  Z  ~chi_10)
     3.11041339E-02    3        11       25        1000022   # BR(~e_R- -> e-  h  ~chi_10)
     7.66239456E-05    3        11       35        1000022   # BR(~e_R- -> e-  H  ~chi_10)
     3.16448891E-04    3        11       36        1000022   # BR(~e_R- -> e-  A  ~chi_10)
     3.16743362E-02    3        11       23        1000023   # BR(~e_R- -> e-  Z  ~chi_20)
     3.59388069E-02    3        11       25        1000023   # BR(~e_R- -> e-  h  ~chi_20)
     3.05285776E-04    3        11       35        1000023   # BR(~e_R- -> e-  H  ~chi_20)
     7.10852200E-05    3        11       36        1000023   # BR(~e_R- -> e-  A  ~chi_20)
     6.14346130E-05    3        11       23        1000025   # BR(~e_R- -> e-  Z  ~chi_30)
     1.52969482E-04    3        11       25        1000025   # BR(~e_R- -> e-  h  ~chi_30)
     1.71828991E-02    3        11       -24        1000024   # BR(~e_R- -> e-  W-  ~chi_1+)
     1.23752638E-01    3        11       24        -1000024   # BR(~e_R- -> e-  W+  ~chi_1-)
     5.46269865E-04    3        11       -37        1000024   # BR(~e_R- -> e-  H-  ~chi_1+)
     2.13780353E-04    3        11       37        -1000024   # BR(~e_R- -> e-  H+  ~chi_1-)
     4.36057524E-05    3        11       -24        1000037   # BR(~e_R- -> e-  W-  ~chi_2+)
     3.82570942E-04    3        11       24        -1000037   # BR(~e_R- -> e-  W+  ~chi_2-)
#
#         PDG            Width
DECAY   1000013     2.41359198E+01   # smuon_L decays
#          BR         NDA      ID1       ID2
     2.63051050E-03    2     1000022        13   # BR(~mu_L -> ~chi_10 mu-)
     1.00313296E-03    2     1000023        13   # BR(~mu_L -> ~chi_20 mu-)
     3.30347320E-01    2     1000025        13   # BR(~mu_L -> ~chi_30 mu-)
     8.07943984E-04    2    -1000024        14   # BR(~mu_L -> ~chi_1- nu_mu)
     6.65211093E-01    2    -1000037        14   # BR(~mu_L -> ~chi_2- nu_mu)
#
#         PDG            Width
DECAY   2000013     3.73551160E-03   # smuon_R decays
#           BR         NDA      ID1       ID2
     2.42877720E-01    2     1000022        13   # BR(~mu_R -> ~chi_10 mu-)
     2.37399628E-01    2     1000023        13   # BR(~mu_R -> ~chi_20 mu-)
#           BR         NDA      ID1       ID2       ID3
     3.96197404E-03    3        13       -1        1000001   # BR(~mu_R- -> mu-  db  ~d_L)
     1.03225486E-03    3        13       1        -1000001   # BR(~mu_R- -> mu-  d  ~d_L*)
     8.07332522E-03    3        13       -1        2000001   # BR(~mu_R- -> mu-  db  ~d_R)
     3.45575155E-02    3        13       1        -2000001   # BR(~mu_R- -> mu-  d  ~d_R*)
     3.89745812E-03    3        13       -2        1000002   # BR(~mu_R- -> mu-  ub  ~u_L)
     1.04282905E-03    3        13       2        -1000002   # BR(~mu_R- -> mu-  u  ~u_L*)
     3.92770832E-03    3        13       -3        1000003   # BR(~mu_R- -> mu-  sb  ~s_L)
     1.03469094E-03    3        13       3        -1000003   # BR(~mu_R- -> mu-  s  ~s_L*)
     8.00693538E-03    3        13       -3        2000003   # BR(~mu_R- -> mu-  sb  ~s_R)
     3.51946438E-02    3        13       3        -2000003   # BR(~mu_R- -> mu-  s  ~s_R*)
     3.91325247E-03    3        13       -4        1000004   # BR(~mu_R- -> mu-  cb  ~c_L)
     1.05527714E-03    3        13       4        -1000004   # BR(~mu_R- -> mu-  c  ~c_L*)
     1.04355184E-05    3        13       -5        1000005   # BR(~mu_R- -> mu-  bb  ~b_1)
     2.60984332E-05    3        13       5        -1000005   # BR(~mu_R- -> mu-  b  ~b_1*)
     2.55879275E-02    3        13       -15        1000015   # BR(~mu_R- -> mu-  tau+  ~tau_1-)
     1.11826717E-01    3        13       15        -1000015   # BR(~mu_R- -> mu-  tau-  ~tau_1+)
     3.47502602E-02    3        13       23        1000022   # BR(~mu_R- -> mu-  Z  ~chi_10)
     3.11041733E-02    3        13       25        1000022   # BR(~mu_R- -> mu-  h  ~chi_10)
     7.66320736E-05    3        13       35        1000022   # BR(~mu_R- -> mu-  H  ~chi_10)
     3.16931153E-04    3        13       36        1000022   # BR(~mu_R- -> mu-  A  ~chi_10)
     3.16716993E-02    3        13       23        1000023   # BR(~mu_R- -> mu-  Z  ~chi_20)
     3.59388524E-02    3        13       25        1000023   # BR(~mu_R- -> mu-  h  ~chi_20)
     3.05286162E-04    3        13       35        1000023   # BR(~mu_R- -> mu-  H  ~chi_20)
     7.10853100E-05    3        13       36        1000023   # BR(~mu_R- -> mu-  A  ~chi_20)
     6.16140504E-05    3        13       23        1000025   # BR(~mu_R- -> mu-  Z  ~chi_30)
     1.52889366E-04    3        13       25        1000025   # BR(~mu_R- -> mu-  h  ~chi_30)
     1.71829208E-02    3        13       -24        1000024   # BR(~mu_R- -> mu-  W-  ~chi_1+)
     1.23752795E-01    3        13       24        -1000024   # BR(~mu_R- -> mu-  W+  ~chi_1-)
     5.46457947E-04    3        13       -37        1000024   # BR(~mu_R- -> mu-  H-  ~chi_1+)
     2.15874045E-04    3        13       37        -1000024   # BR(~mu_R- -> mu-  H+  ~chi_1-)
     4.35656524E-05    3        13       -24        1000037   # BR(~mu_R- -> mu-  W-  ~chi_2+)
     3.82571426E-04    3        13       24        -1000037   # BR(~mu_R- -> mu-  W+  ~chi_2-)
#
#         PDG            Width
DECAY   1000015     8.00980414E-01   # stau_1 decays
#          BR         NDA      ID1       ID2
     2.53687484E-01    2     1000022        15   # BR(~tau_1 -> ~chi_10  tau-)
     2.46682613E-01    2     1000023        15   # BR(~tau_1 -> ~chi_20  tau-)
     4.99629903E-01    2    -1000024        16   # BR(~tau_1 -> ~chi_1-  nu_tau)
#
#         PDG            Width
DECAY   2000015     2.39046675E+01   # stau_2 decays
#          BR         NDA      ID1       ID2
     2.67816638E-02    2     1000022        15   # BR(~tau_2 -> ~chi_10  tau-)
     2.46370135E-02    2     1000023        15   # BR(~tau_2 -> ~chi_20  tau-)
     3.14510454E-01    2     1000025        15   # BR(~tau_2 -> ~chi_30  tau-)
     7.85313989E-04    2    -1000024        16   # BR(~tau_2 -> ~chi_1-  nu_tau)
     6.33278270E-01    2    -1000037        16   # BR(~tau_2 -> ~chi_2-  nu_tau)
     2.83606428E-06    2     1000015        25   # BR(~tau_2 -> ~tau_1   h)
     4.44858215E-06    2     1000015        23   # BR(~tau_2 -> ~tau_1   Z)
#
#         PDG            Width
DECAY   1000012     2.41726058E+01   # snu_eL decays
#          BR         NDA      ID1       ID2
     2.01046914E-03    2     1000022        12   # BR(~nu_eL -> ~chi_10 nu_e)
     6.40827303E-04    2     1000023        12   # BR(~nu_eL -> ~chi_20 nu_e)
     3.30110739E-01    2     1000025        12   # BR(~nu_eL -> ~chi_30 nu_e)
     1.17247802E-02    2     1000024        11   # BR(~nu_eL -> ~chi_1+ e-)
     6.55513184E-01    2     1000037        11   # BR(~nu_eL -> ~chi_2+ e-)
#
#         PDG            Width
DECAY   1000014     2.41726057E+01   # snu_muL decays
#          BR         NDA      ID1       ID2
     2.01046914E-03    2     1000022        14   # BR(~nu_muL -> ~chi_10 nu_mu)
     6.40827305E-04    2     1000023        14   # BR(~nu_muL -> ~chi_20 nu_mu)
     3.30110740E-01    2     1000025        14   # BR(~nu_muL -> ~chi_30 nu_mu)
     1.17247802E-02    2     1000024        13   # BR(~nu_muL -> ~chi_1+ mu-)
     6.55513184E-01    2     1000037        13   # BR(~nu_muL -> ~chi_2+ mu-)
#
#         PDG            Width
DECAY   1000016     2.39419176E+01   # snu_tauL decays
#          BR         NDA      ID1       ID2
     1.95931295E-03    2     1000022        16   # BR(~nu_tauL -> ~chi_10 nu_tau)
     6.24492574E-04    2     1000023        16   # BR(~nu_tauL -> ~chi_20 nu_tau)
     3.14225947E-01    2     1000025        16   # BR(~nu_tauL -> ~chi_30 nu_tau)
     5.91820400E-02    2     1000024        15   # BR(~nu_tauL -> ~chi_1+ tau-)
     6.23999596E-01    2     1000037        15   # BR(~nu_tauL -> ~chi_2+ tau-)
     8.61136390E-06    2    -1000015       -24   # BR(~nu_tauL -> ~tau_1+ W-)
#
#         PDG            Width
DECAY   1000024     4.09538738E-11   # chargino1+ decays
#           BR         NDA      ID1       ID2       ID3
     3.74731504E-01    3     1000022         2        -1   # BR(~chi_1+ -> ~chi_10 u    db)
     3.74731504E-01    3     1000022         4        -3   # BR(~chi_1+ -> ~chi_10 c    sb)
     1.24906264E-01    3     1000022       -11        12   # BR(~chi_1+ -> ~chi_10 e+   nu_e)
     1.24906264E-01    3     1000022       -13        14   # BR(~chi_1+ -> ~chi_10 mu+  nu_mu)
     7.24464813E-04    3     1000022       -15        16   # BR(~chi_1+ -> ~chi_10 tau+ nu_tau)
#
#         PDG            Width
DECAY   1000037     8.31877087E+00   # chargino2+ decays
#          BR         NDA      ID1       ID2
     1.51759263E-07    2    -1000015        16   # BR(~chi_2+ -> ~tau_1+  nu_tau)
     2.53491912E-01    2     1000024        23   # BR(~chi_2+ -> ~chi_1+  Z )
     2.44915330E-01    2     1000022        24   # BR(~chi_2+ -> ~chi_10  W+)
     2.50585676E-01    2     1000023        24   # BR(~chi_2+ -> ~chi_20  W+)
     2.51006930E-01    2     1000024        25   # BR(~chi_2+ -> ~chi_1+  h )
#
#         PDG            Width
DECAY   1000022     0.00000000E+00   # neutralino1 decays
#
#         PDG            Width
DECAY   1000023     6.20913753E-09   # neutralino2 decays
#          BR         NDA      ID1       ID2
     4.17166247E-02    2     1000022        22   # BR(~chi_20 -> ~chi_10 gam)
#           BR         NDA      ID1       ID2       ID3
     1.05979523E-01    3     1000022        -2         2   # BR(~chi_20 -> ~chi_10 ub      u)
     1.37541767E-01    3     1000022        -1         1   # BR(~chi_20 -> ~chi_10 db      d)
     1.05979523E-01    3     1000022        -4         4   # BR(~chi_20 -> ~chi_10 cb      c)
     1.37541767E-01    3     1000022        -3         3   # BR(~chi_20 -> ~chi_10 sb      s)
     3.15866799E-02    3     1000022       -11        11   # BR(~chi_20 -> ~chi_10 e+      e-)
     3.15866799E-02    3     1000022       -13        13   # BR(~chi_20 -> ~chi_10 mu+     mu-)
     1.40139115E-02    3     1000022       -15        15   # BR(~chi_20 -> ~chi_10 tau+    tau-)
     6.31563894E-02    3     1000022       -12        12   # BR(~chi_20 -> ~chi_10 nu_eb   nu_e)
     6.31563894E-02    3     1000022       -14        14   # BR(~chi_20 -> ~chi_10 nu_mub  nu_mu)
     6.31564095E-02    3     1000022       -16        16   # BR(~chi_20 -> ~chi_10 nu_taub nu_tau)
     3.69922012E-02    3     1000024        -2         1   # BR(~chi_20 -> ~chi_1+ ub      d)
     3.69922012E-02    3    -1000024        -1         2   # BR(~chi_20 -> ~chi_1- db      u)
     3.69922012E-02    3     1000024        -4         3   # BR(~chi_20 -> ~chi_1+ cb      s)
     3.69922012E-02    3    -1000024        -3         4   # BR(~chi_20 -> ~chi_1- sb      c)
     1.23305647E-02    3     1000024       -12        11   # BR(~chi_20 -> ~chi_1+ nu_eb   e-)
     1.23305647E-02    3    -1000024        12       -11   # BR(~chi_20 -> ~chi_1- nu_e    e+)
     1.23305647E-02    3     1000024       -14        13   # BR(~chi_20 -> ~chi_1+ nu_mub  mu-)
     1.23305647E-02    3    -1000024        14       -13   # BR(~chi_20 -> ~chi_1- nu_mu   mu+)
     3.64663687E-03    3     1000024       -16        15   # BR(~chi_20 -> ~chi_1+ nu_taub tau-)
     3.64663687E-03    3    -1000024        16       -15   # BR(~chi_20 -> ~chi_1- nu_tau  tau+)
#
#         PDG            Width
DECAY   1000025     8.31394598E+00   # neutralino3 decays
#          BR         NDA      ID1       ID2
     6.39810184E-02    2     1000022        23   # BR(~chi_30 -> ~chi_10   Z )
     1.89321134E-01    2     1000023        23   # BR(~chi_30 -> ~chi_20   Z )
     2.50129229E-01    2     1000024       -24   # BR(~chi_30 -> ~chi_1+   W-)
     2.50129229E-01    2    -1000024        24   # BR(~chi_30 -> ~chi_1-   W+)
     1.83670796E-01    2     1000022        25   # BR(~chi_30 -> ~chi_10   h )
     6.27684429E-02    2     1000023        25   # BR(~chi_30 -> ~chi_20   h )
     8.02523354E-11    2     2000001        -1   # BR(~chi_30 -> ~d_R      db)
     8.02523354E-11    2    -2000001         1   # BR(~chi_30 -> ~d_R*     d )
     8.02523354E-11    2     2000003        -3   # BR(~chi_30 -> ~s _R      sb)
     8.02523354E-11    2    -2000003         3   # BR(~chi_30 -> ~s _R*     s )
     7.53829545E-08    2     1000015       -15   # BR(~chi_30 -> ~tau_1-   tau+)
     7.53829545E-08    2    -1000015        15   # BR(~chi_30 -> ~tau_1+   tau-)
#
#         PDG            Width
DECAY   1000035     6.83707527E+01   # neutralino4 decays
#          BR         NDA      ID1       ID2
     1.55199122E-02    2     1000022        23   # BR(~chi_40 -> ~chi_10   Z )
     1.68112711E-02    2     1000023        23   # BR(~chi_40 -> ~chi_20   Z )
     1.66441753E-04    2     1000025        23   # BR(~chi_40 -> ~chi_30   Z )
     3.13482079E-02    2     1000024       -24   # BR(~chi_40 -> ~chi_1+   W-)
     3.13482079E-02    2    -1000024        24   # BR(~chi_40 -> ~chi_1-   W+)
     2.17376629E-04    2     1000037       -24   # BR(~chi_40 -> ~chi_2+   W-)
     2.17376629E-04    2    -1000037        24   # BR(~chi_40 -> ~chi_2-   W+)
     1.78185343E-02    2     1000022        25   # BR(~chi_40 -> ~chi_10   h )
     7.61260514E-03    2     1000022        35   # BR(~chi_40 -> ~chi_10   H )
     1.33801893E-02    2     1000022        36   # BR(~chi_40 -> ~chi_10   A )
     1.73526783E-02    2     1000023        25   # BR(~chi_40 -> ~chi_20   h )
     1.31753096E-02    2     1000023        35   # BR(~chi_40 -> ~chi_20   H )
     7.38540819E-03    2     1000023        36   # BR(~chi_40 -> ~chi_20   A )
     6.46418283E-05    2     1000025        25   # BR(~chi_40 -> ~chi_30   h )
     1.71502542E-06    2     1000025        35   # BR(~chi_40 -> ~chi_30   H )
     1.92125123E-05    2     1000025        36   # BR(~chi_40 -> ~chi_30   A )
     2.07057939E-02    2     1000024       -37   # BR(~chi_40 -> ~chi_1+   H-)
     2.07057939E-02    2    -1000024        37   # BR(~chi_40 -> ~chi_1-   H+)
     2.09422249E-05    2     1000037       -37   # BR(~chi_40 -> ~chi_2+   H-)
     2.09422249E-05    2    -1000037        37   # BR(~chi_40 -> ~chi_2-   H+)
     8.86887929E-03    2     1000002        -2   # BR(~chi_40 -> ~u_L      ub)
     8.86887929E-03    2    -1000002         2   # BR(~chi_40 -> ~u_L*     u )
     8.89773198E-03    2     1000001        -1   # BR(~chi_40 -> ~d_L      db)
     8.89773198E-03    2    -1000001         1   # BR(~chi_40 -> ~d_L*     d )
     3.91360283E-02    2     2000001        -1   # BR(~chi_40 -> ~d_R      db)
     3.91360283E-02    2    -2000001         1   # BR(~chi_40 -> ~d_R*     d )
     8.86887876E-03    2     1000004        -4   # BR(~chi_40 -> ~c_L      cb)
     8.86887876E-03    2    -1000004         4   # BR(~chi_40 -> ~c_L*     c )
     8.89773198E-03    2     1000003        -3   # BR(~chi_40 -> ~s _L      sb)
     8.89773198E-03    2    -1000003         3   # BR(~chi_40 -> ~s _L*     s )
     3.91360283E-02    2     2000003        -3   # BR(~chi_40 -> ~s _R      sb)
     3.91360283E-02    2    -2000003         3   # BR(~chi_40 -> ~s _R*     s )
     2.01594335E-02    2     1000005        -5   # BR(~chi_40 -> ~b_1      bb)
     2.01594335E-02    2    -1000005         5   # BR(~chi_40 -> ~b_1*     b )
     7.76017178E-03    2     1000011       -11   # BR(~chi_40 -> ~e_L-     e+)
     7.76017178E-03    2    -1000011        11   # BR(~chi_40 -> ~e_L+     e-)
     4.31880161E-02    2     2000011       -11   # BR(~chi_40 -> ~e_R-     e+)
     4.31880161E-02    2    -2000011        11   # BR(~chi_40 -> ~e_R+     e-)
     7.76017178E-03    2     1000013       -13   # BR(~chi_40 -> ~mu_L-    mu+)
     7.76017178E-03    2    -1000013        13   # BR(~chi_40 -> ~mu_L+    mu-)
     4.31880161E-02    2     2000013       -13   # BR(~chi_40 -> ~mu_R-    mu+)
     4.31880161E-02    2    -2000013        13   # BR(~chi_40 -> ~mu_R+    mu-)
     1.23590951E-01    2     1000015       -15   # BR(~chi_40 -> ~tau_1-   tau+)
     1.23590951E-01    2    -1000015        15   # BR(~chi_40 -> ~tau_1+   tau-)
     8.99324971E-03    2     2000015       -15   # BR(~chi_40 -> ~tau_2-   tau+)
     8.99324971E-03    2    -2000015        15   # BR(~chi_40 -> ~tau_2+   tau-)
     7.79075159E-03    2     1000012       -12   # BR(~chi_40 -> ~nu_eL    nu_eb)
     7.79075159E-03    2    -1000012        12   # BR(~chi_40 -> ~nu_eL*   nu_e )
     7.79075159E-03    2     1000014       -14   # BR(~chi_40 -> ~nu_muL   nu_mub)
     7.79075159E-03    2    -1000014        14   # BR(~chi_40 -> ~nu_muL*  nu_mu )
     9.02692804E-03    2     1000016       -16   # BR(~chi_40 -> ~nu_tau1  nu_taub)
     9.02692804E-03    2    -1000016        16   # BR(~chi_40 -> ~nu_tau1* nu_tau )
#
#         PDG            Width
DECAY        25     4.48025742E-03   # h decays
#          BR         NDA      ID1       ID2
     5.54193122E-01    2           5        -5   # BR(h -> b       bb     )
     5.99190347E-02    2         -15        15   # BR(h -> tau+    tau-   )
     2.12081071E-04    2         -13        13   # BR(h -> mu+     mu-    )
     2.30394756E-04    2           3        -3   # BR(h -> s       sb     )
     1.97024758E-02    2           4        -4   # BR(h -> c       cb     )
     7.59608123E-02    2          21        21   # BR(h -> g       g      )
     2.31702043E-03    2          22        22   # BR(h -> gam     gam    )
     1.77433541E-03    2          22        23   # BR(h -> Z       gam    )
     2.52826869E-01    2          24       -24   # BR(h -> W+      W-     )
     3.28638540E-02    2          23        23   # BR(h -> Z       Z      )
#
#         PDG            Width
DECAY        35     1.63559281E+01   # H decays
#          BR         NDA      ID1       ID2
     2.77562168E-01    2           5        -5   # BR(H -> b       bb     )
     4.86368833E-02    2         -15        15   # BR(H -> tau+    tau-   )
     1.72039381E-04    2         -13        13   # BR(H -> mu+     mu-    )
     1.10548056E-04    2           3        -3   # BR(H -> s       sb     )
     2.33662794E-07    2           4        -4   # BR(H -> c       cb     )
     2.24909981E-02    2           6        -6   # BR(H -> t       tb     )
     1.11851481E-05    2          21        21   # BR(H -> g       g      )
     2.39263376E-07    2          22        22   # BR(H -> gam     gam    )
     1.71328914E-08    2          23        22   # BR(H -> Z       gam    )
     3.04076917E-05    2          24       -24   # BR(H -> W+      W-     )
     1.51364221E-05    2          23        23   # BR(H -> Z       Z      )
     1.10879610E-04    2          25        25   # BR(H -> h       h      )
     1.09335895E-02    2     1000024  -1000024   # BR(H -> ~chi_1+ ~chi_1-)
     2.12017750E-01    2     1000024  -1000037   # BR(H -> ~chi_1+ ~chi_2-)
     2.12017750E-01    2     1000037  -1000024   # BR(H -> ~chi_2+ ~chi_1-)
     1.72627893E-03    2     1000022   1000022   # BR(H -> ~chi_10 ~chi_10)
     7.10761135E-04    2     1000023   1000023   # BR(H -> ~chi_20 ~chi_20)
     2.92972759E-04    2     1000022   1000023   # BR(H -> ~chi_10 ~chi_20)
     7.38657103E-02    2     1000022   1000025   # BR(H -> ~chi_10 ~chi_30)
     1.39294452E-01    2     1000023   1000025   # BR(H -> ~chi_20 ~chi_30)
#
#         PDG            Width
DECAY        36     1.63462889E+01   # A decays
#          BR         NDA      ID1       ID2
     2.77776728E-01    2           5        -5   # BR(A -> b       bb     )
     4.86677349E-02    2         -15        15   # BR(A -> tau+    tau-   )
     1.72147852E-04    2         -13        13   # BR(A -> mu+     mu-    )
     1.10655278E-04    2           3        -3   # BR(A -> s       sb     )
     2.32481815E-07    2           4        -4   # BR(A -> c       cb     )
     2.27479440E-02    2           6        -6   # BR(A -> t       tb     )
     7.05454721E-05    2          21        21   # BR(A -> g       g      )
     4.35518700E-07    2          22        22   # BR(A -> gam     gam    )
     5.94126507E-08    2          23        22   # BR(A -> Z       gam    )
     3.06143326E-05    2          23        25   # BR(A -> Z       h      )
     1.23773533E-02    2     1000024  -1000024   # BR(A -> ~chi_1+ ~chi_1-)
     2.11161027E-01    2     1000024  -1000037   # BR(A -> ~chi_1+ ~chi_2-)
     2.11161027E-01    2     1000037  -1000024   # BR(A -> ~chi_2+ ~chi_1-)
     2.38383002E-03    2     1000022   1000022   # BR(A -> ~chi_10 ~chi_10)
     5.67749554E-04    2     1000023   1000023   # BR(A -> ~chi_20 ~chi_20)
     9.85884316E-05    2     1000022   1000023   # BR(A -> ~chi_10 ~chi_20)
     1.40883465E-01    2     1000022   1000025   # BR(A -> ~chi_10 ~chi_30)
     7.17898615E-02    2     1000023   1000025   # BR(A -> ~chi_20 ~chi_30)
#
#         PDG            Width
DECAY        37     1.61931627E+01   # H+ decays
#          BR         NDA      ID1       ID2
     4.62154170E-04    2           4        -5   # BR(H+ -> c       bb     )
     4.91817770E-02    2         -15        16   # BR(H+ -> tau+    nu_tau )
     1.73966124E-04    2         -13        14   # BR(H+ -> mu+     nu_mu  )
     4.62152385E-06    2           2        -5   # BR(H+ -> u       bb     )
     5.58169504E-06    2           2        -3   # BR(H+ -> u       sb     )
     1.10089595E-04    2           4        -3   # BR(H+ -> c       sb     )
     2.96088437E-01    2           6        -5   # BR(H+ -> t       bb     )
     3.10600058E-05    2          24        25   # BR(H+ -> W+      h      )
     2.54947070E-12    2          24        36   # BR(H+ -> W+      A      )
     9.55158635E-04    2     1000024   1000022   # BR(H+ -> ~chi_1+ ~chi_10)
     2.66984132E-03    2     1000024   1000023   # BR(H+ -> ~chi_1+ ~chi_20)
     2.15980208E-01    2     1000024   1000025   # BR(H+ -> ~chi_1+ ~chi_30)
     2.20609606E-01    2     1000037   1000022   # BR(H+ -> ~chi_2+ ~chi_10)
     2.13727499E-01    2     1000037   1000023   # BR(H+ -> ~chi_2+ ~chi_20)
