#
#                              ======================
#                              | THE SUSYHIT OUTPUT |
#                              ======================
#
#
#              ------------------------------------------------------
#              |     This is the output of the SUSY-HIT package     |
#              |  created by A.Djouadi, M.Muehlleitner and M.Spira. |
#              |  In case of problems with SUSY-HIT email to        |
#              |           margarete.muehlleitner@cern.ch           |
#              |           michael.spira@psi.ch                     |
#              |           abdelhak.djouadi@cern.ch                 |
#              ------------------------------------------------------
#
#              ------------------------------------------------------
#              |  SUSY Les Houches Accord - MSSM Spectrum + Decays  |
#              |              based on the decay programs           |
#              |                                                    |
#              |                     SDECAY 1.3b                    |
#              |                                                    |
#              |  Authors: M.Muhlleitner, A.Djouadi and Y.Mambrini  |
#              |  Ref.:    Comput.Phys.Commun.168(2005)46           |
#              |           [hep-ph/0311167]                         |
#              |                                                    |
#              |                     HDECAY 3.4                     |
#              |                                                    |
#              |  By: A.Djouadi,J.Kalinowski,M.Muhlleitner,M.Spira  |
#              |  Ref.:    Comput.Phys.Commun.108(1998)56           |
#              |           [hep-ph/9704448]                         |
#              |                                                    |
#              |                                                    |
#              |  If not stated otherwise all DRbar couplings and   |
#              |  soft SUSY breaking masses are given at the scale  |
#              |  Q=  0.34901960E+04
#              |                                                    |
#              ------------------------------------------------------
#
#
BLOCK DCINFO  # Decay Program information
     1   SDECAY/HDECAY # decay calculator
     2   1.3b  /3.4    # version number
#
BLOCK SPINFO  # Spectrum calculator information
     1     SOFTSUSY    # spectrum calculator               
     2     3.4.0       # version number                    
#
BLOCK MODSEL  # Model selection
     1     0   #  nonUniversal                                     
#
BLOCK SMINPUTS  # Standard Model inputs
         1     1.27908970E+02   # alpha_em^-1(M_Z)^MSbar
         2     1.16637870E-05   # G_F [GeV^-2]
         3     1.18400000E-01   # alpha_S(M_Z)^MSbar
         4     9.11876000E+01   # M_Z pole mass
         5     4.18000000E+00   # mb(mb)^MSbar
         6     1.73200000E+02   # mt pole mass
         7     1.77700000E+00   # mtau pole mass
#
BLOCK MINPAR  # Input parameters - minimal models
         3     2.61900000E+01   # tanb                
#
BLOCK EXTPAR  # Input parameters - non-minimal models
         0    -1.00000000E+00   # Set                 
         1     2.84606000E+03   # M_1(MX)             
         2     1.59870000E+02   # M_2(MX)             
         3     2.70768000E+03   # M_3(MX)             
        11    -5.74960000E+02   # At(MX)              
        12    -1.20095000E+03   # Ab(MX)              
        13     1.69698000E+03   # Atau(MX)            
        23    -1.40190000E+02   # mu(MX)              
        26     2.12624000E+03   # mA(pole)            
        31     2.82879000E+03   # meL(MX)             
        32     2.82879000E+03   # mmuL(MX)            
        33     1.21071000E+03   # mtauL(MX)           
        34     2.34558000E+03   # meR(MX)             
        35     2.34558000E+03   # mmuR(MX)            
        36     2.05772000E+03   # mtauR(MX)           
        41     2.11518000E+03   # mqL1(MX)            
        42     2.11518000E+03   # mqL2(MX)            
        43     3.09487000E+03   # mqL3(MX)            
        44     2.20908000E+03   # muR(MX)             
        45     2.20908000E+03   # mcR(MX)             
        46     3.93029000E+03   # mtR(MX)             
        47     3.79953000E+03   # mdR(MX)             
        48     3.79953000E+03   # msR(MX)             
        49     3.69041000E+03   # mbR(MX)             
#
BLOCK MASS  # Mass Spectrum
# PDG code           mass       particle
        24     8.03826585E+01   # W+
        25     1.24691839E+02   # h
        35     2.12625607E+03   # H
        36     2.12623999E+03   # A
        37     2.12818580E+03   # H+
         5     4.81876030E+00   # b-quark pole mass calculated from mb(mb)_Msbar
   1000001     2.25487679E+03   # ~d_L
   2000001     3.87663695E+03   # ~d_R
   1000002     2.25357640E+03   # ~u_L
   2000002     2.34621359E+03   # ~u_R
   1000003     2.25487679E+03   # ~s_L
   2000003     3.87663695E+03   # ~s_R
   1000004     2.25357640E+03   # ~c_L
   2000004     2.34621359E+03   # ~c_R
   1000005     3.17089743E+03   # ~b_1
   2000005     3.76092647E+03   # ~b_2
   1000006     3.17308394E+03   # ~t_1
   2000006     3.96609031E+03   # ~t_2
   1000011     2.83675160E+03   # ~e_L
   2000011     2.35975083E+03   # ~e_R
   1000012     2.83530429E+03   # ~nu_eL
   1000013     2.83675160E+03   # ~mu_L
   2000013     2.35975083E+03   # ~mu_R
   1000014     2.83530429E+03   # ~nu_muL
   1000015     1.21345980E+03   # ~tau_1
   2000015     2.06675957E+03   # ~tau_2
   1000016     1.21052333E+03   # ~nu_tauL
   1000021     2.88578232E+03   # ~g
   1000022     1.09130306E+02   # ~chi_10
   1000023    -1.58762215E+02   # ~chi_20
   1000025     2.20879721E+02   # ~chi_30
   1000035     2.79643044E+03   # ~chi_40
   1000024     1.15159468E+02   # ~chi_1+
   1000037     2.26055560E+02   # ~chi_2+
#
BLOCK NMIX  # Neutralino Mixing Matrix
  1  1    -7.33261625E-03   # N_11
  1  2     5.72766530E-01   # N_12
  1  3     6.65547444E-01   # N_13
  1  4     4.78467695E-01   # N_14
  2  1    -1.09567001E-02   # N_21
  2  2     1.80871361E-01   # N_22
  2  3    -6.71989657E-01   # N_23
  2  4     7.18049722E-01   # N_24
  3  1     8.34380307E-03   # N_31
  3  2     7.99514736E-01   # N_32
  3  3    -3.24771381E-01   # N_33
  3  4    -5.05203046E-01   # N_34
  4  1     9.99878275E-01   # N_41
  4  2    -4.89422658E-04   # N_42
  4  3     2.27270948E-04   # N_43
  4  4     1.55930883E-02   # N_44
#
BLOCK UMIX  # Chargino Mixing Matrix U
  1  1     4.78775939E-01   # U_11
  1  2     8.77937128E-01   # U_12
  2  1    -8.77937128E-01   # U_21
  2  2     4.78775939E-01   # U_22
#
BLOCK VMIX  # Chargino Mixing Matrix V
  1  1     7.53675762E-01   # V_11
  1  2    -6.57246412E-01   # V_12
  2  1    -6.57246412E-01   # V_21
  2  2    -7.53675762E-01   # V_22
#
BLOCK STOPMIX  # Stop Mixing Matrix
  1  1     9.99789185E-01   # cos(theta_t)
  1  2     2.05325487E-02   # sin(theta_t)
  2  1    -2.05325487E-02   # -sin(theta_t)
  2  2     9.99789185E-01   # cos(theta_t)
#
BLOCK SBOTMIX  # Sbottom Mixing Matrix
  1  1     9.99999319E-01   # cos(theta_b)
  1  2    -1.16704736E-03   # sin(theta_b)
  2  1     1.16704736E-03   # -sin(theta_b)
  2  2     9.99999319E-01   # cos(theta_b)
#
BLOCK STAUMIX  # Stau Mixing Matrix
  1  1     9.99994504E-01   # cos(theta_tau)
  1  2    -3.31541397E-03   # sin(theta_tau)
  2  1     3.31541397E-03   # -sin(theta_tau)
  2  2     9.99994504E-01   # cos(theta_tau)
#
BLOCK ALPHA  # Higgs mixing
          -3.99407104E-02   # Mixing angle in the neutral Higgs boson sector
#
BLOCK HMIX Q=  3.49019600E+03  # DRbar Higgs Parameters
         1    -1.42827618E+02   # mu(Q)MSSM           
         2     2.51479165E+01   # tan                 
         3     2.40427600E+02   # higgs               
         4     4.45797765E+06   # mA^2(Q)MSSM         
#
BLOCK GAUGE Q=  3.49019600E+03  # The gauge couplings
     1     3.65861060E-01   # gprime(Q) DRbar
     2     6.45468284E-01   # g(Q) DRbar
     3     1.00853495E+00   # g3(Q) DRbar
#
BLOCK AU Q=  3.49019600E+03  # The trilinear couplings
  1  1     0.00000000E+00   # A_u(Q) DRbar
  2  2     0.00000000E+00   # A_c(Q) DRbar
  3  3    -5.74959980E+02   # A_t(Q) DRbar
#
BLOCK AD Q=  3.49019600E+03  # The trilinear couplings
  1  1     0.00000000E+00   # A_d(Q) DRbar
  2  2     0.00000000E+00   # A_s(Q) DRbar
  3  3    -1.20094999E+03   # A_b(Q) DRbar
#
BLOCK AE Q=  3.49019600E+03  # The trilinear couplings
  1  1     0.00000000E+00   # A_e(Q) DRbar
  2  2     0.00000000E+00   # A_mu(Q) DRbar
  3  3     1.69698000E+03   # A_tau(Q) DRbar
#
BLOCK Yu Q=  3.49019600E+03  # The Yukawa couplings
  1  1     0.00000000E+00   # y_u(Q) DRbar
  2  2     0.00000000E+00   # y_c(Q) DRbar
  3  3     8.24916645E-01   # y_t(Q) DRbar
#
BLOCK Yd Q=  3.49019600E+03  # The Yukawa couplings
  1  1     0.00000000E+00   # y_d(Q) DRbar
  2  2     0.00000000E+00   # y_s(Q) DRbar
  3  3     3.39091715E-01   # y_b(Q) DRbar
#
BLOCK Ye Q=  3.49019600E+03  # The Yukawa couplings
  1  1     0.00000000E+00   # y_e(Q) DRbar
  2  2     0.00000000E+00   # y_mu(Q) DRbar
  3  3     2.56690915E-01   # y_tau(Q) DRbar
#
BLOCK MSOFT Q=  3.49019600E+03  # The soft SUSY breaking masses at the scale Q
         1     2.84606000E+03   # M_1(Q)              
         2     1.59870000E+02   # M_2(Q)              
         3     2.70768000E+03   # M_3(Q)              
        21     4.56931172E+06   # mH1^2(Q)            
        22     2.91512897E+05   # mH2^2(Q)            
        31     2.82879000E+03   # meL(Q)              
        32     2.82879000E+03   # mmuL(Q)             
        33     1.21071000E+03   # mtauL(Q)            
        34     2.34558000E+03   # meR(Q)              
        35     2.34558000E+03   # mmuR(Q)             
        36     2.05772000E+03   # mtauR(Q)            
        41     2.11517999E+03   # mqL1(Q)             
        42     2.11517999E+03   # mqL2(Q)             
        43     3.09486998E+03   # mqL3(Q)             
        44     2.20907999E+03   # muR(Q)              
        45     2.20907999E+03   # mcR(Q)              
        46     3.93028998E+03   # mtR(Q)              
        47     3.79952999E+03   # mdR(Q)              
        48     3.79952999E+03   # msR(Q)              
        49     3.69040999E+03   # mbR(Q)              
#
Block HiggsBoundsInputHiggsCouplingsFermions
# ScalarNormEffCoupSq PseudoSNormEffCoupSq NP   IP1 IP2 IP2
    1.00992894E+00    0.00000000E+00        3  25   5   5  # h0-b-b eff. coupling^2, normalised to SM
    6.32407775E+02    0.00000000E+00        3  35   5   5  # H0-b-b eff. coupling^2, normalised to SM
    0.00000000E+00    6.32417704E+02        3  36   5   5  # A0-b-b eff. coupling^2, normalised to SM
#
    9.99984300E-01    0.00000000E+00        3  25   6   6  # h0-t-t eff. coupling^2, normalised to SM
    1.59693338E-03    0.00000000E+00        3  35   6   6  # H0-t-t eff. coupling^2, normalised to SM
    0.00000000E+00    1.58123341E-03        3  36   6   6  # A0-t-t eff. coupling^2, normalised to SM
#
    1.00992894E+00    0.00000000E+00        3  25  15  15  # h0-tau-tau eff. coupling^2, normalised to SM
    6.32407775E+02    0.00000000E+00        3  35  15  15  # H0-tau-tau eff. coupling^2, normalised to SM
    0.00000000E+00    6.32417704E+02        3  36  15  15  # A0-tau-tau eff. coupling^2, normalised to SM
#
Block HiggsBoundsInputHiggsCouplingsBosons
    9.99999961E-01        3  25  24  24  # h0-W-W eff. coupling^2, normalised to SM
    3.87790626E-08        3  35  24  24  # H0-W-W eff. coupling^2, normalised to SM
    0.00000000E+00        3  36  24  24  # A0-W-W eff. coupling^2, normalised to SM
#
    9.99999961E-01        3  25  23  23  # h0-Z-Z eff. coupling^2, normalised to SM
    3.87790626E-08        3  35  23  23  # H0-Z-Z eff. coupling^2, normalised to SM
    0.00000000E+00        3  36  23  23  # A0-Z-Z eff. coupling^2, normalised to SM
#
    8.90995289E-01        3  25  21  21  # h0-g-g eff. coupling^2, normalised to SM
    4.07987665E-12        3  35  21  21  # H0-g-g eff. coupling^2, normalised to SM
    6.31232642E-11        3  36  21  21  # A0-g-g eff. coupling^2, normalised to SM
#
    0.00000000E+00        3  25  25  23  # h0-h0-Z eff. coupling^2, normalised to SM
    0.00000000E+00        3  35  25  23  # H0-h0-Z eff. coupling^2, normalised to SM
    3.87790626E-08        3  36  25  23  # A0-h0-Z eff. coupling^2, normalised to SM
    0.00000000E+00        3  35  35  23  # H0-H0-Z eff. coupling^2, normalised to SM
    9.99999961E-01        3  36  35  23  # A0-H0-Z eff. coupling^2, normalised to SM
    0.00000000E+00        3  36  36  23  # A0-A0-Z eff. coupling^2, normalised to SM
#
    0.00000000E+00        4  25  21  21  23  # h0-g-g-Z eff. coupling^2, normalised to SM
    0.00000000E+00        4  35  21  21  23  # H0-g-g-Z eff. coupling^2, normalised to SM
    0.00000000E+00        4  36  21  21  23  # A0-g-g-Z eff. coupling^2, normalised to SM
#
#
#
#                             =================
#                             |The decay table|
#                             =================
#
# - The QCD corrections to the decays gluino -> squark  + quark
#                                     squark -> gaugino + quark_prime
#                                     squark -> squark_prime + Higgs
#                                     squark -> gluino  + quark
#   are included.
#
# - The multi-body decays for the inos, stops and sbottoms are included.
#
# - The loop induced decays for the gluino, neutralinos and stops
#   are included.
#
# - The SUSY decays of the top quark are included.
#
#
#         PDG            Width
DECAY         6     1.46763679E+00   # top decays
#          BR         NDA      ID1       ID2
     1.00000000E+00    2           5        24   # BR(t ->  b    W+)
#
#         PDG            Width
DECAY   1000021     4.80942144E+01   # gluino decays
#          BR         NDA      ID1       ID2
     9.05385572E-02    2     1000001        -1   # BR(~g -> ~d_L  db)
     9.05385572E-02    2    -1000001         1   # BR(~g -> ~d_L* d )
     9.08661799E-02    2     1000002        -2   # BR(~g -> ~u_L  ub)
     9.08661799E-02    2    -1000002         2   # BR(~g -> ~u_L* u )
     6.85955001E-02    2     2000002        -2   # BR(~g -> ~u_R  ub)
     6.85955001E-02    2    -2000002         2   # BR(~g -> ~u_R* u )
     9.05385572E-02    2     1000003        -3   # BR(~g -> ~s_L  sb)
     9.05385572E-02    2    -1000003         3   # BR(~g -> ~s_L* s )
     9.08659522E-02    2     1000004        -4   # BR(~g -> ~c_L  cb)
     9.08659522E-02    2    -1000004         4   # BR(~g -> ~c_L* c )
     6.85952534E-02    2     2000004        -4   # BR(~g -> ~c_R  cb)
     6.85952534E-02    2    -2000004         4   # BR(~g -> ~c_R* c )
#
#         PDG            Width
DECAY   1000006     9.30756699E+01   # stop1 decays
#          BR         NDA      ID1       ID2
     1.52834353E-01    2     1000022         6   # BR(~t_1 -> ~chi_10 t )
     2.41622221E-01    2     1000023         6   # BR(~t_1 -> ~chi_20 t )
     2.02548520E-01    2     1000025         6   # BR(~t_1 -> ~chi_30 t )
     2.08435244E-04    2     1000035         6   # BR(~t_1 -> ~chi_40 t )
     2.27372164E-01    2     1000024         5   # BR(~t_1 -> ~chi_1+ b )
     1.31282553E-01    2     1000037         5   # BR(~t_1 -> ~chi_2+ b )
     4.41317535E-02    2     1000021         6   # BR(~t_1 -> ~g      t )
#
#         PDG            Width
DECAY   2000006     1.56772746E+02   # stop2 decays
#          BR         NDA      ID1       ID2
     7.58749095E-02    2     1000022         6   # BR(~t_2 -> ~chi_10 t )
     1.74299061E-01    2     1000023         6   # BR(~t_2 -> ~chi_20 t )
     8.96746875E-02    2     1000025         6   # BR(~t_2 -> ~chi_30 t )
     1.50598861E-02    2     1000035         6   # BR(~t_2 -> ~chi_40 t )
     1.42260234E-01    2     1000024         5   # BR(~t_2 -> ~chi_1+ b )
     1.98655009E-01    2     1000037         5   # BR(~t_2 -> ~chi_2+ b )
     2.95430064E-01    2     1000021         6   # BR(~t_2 -> ~g      t )
     1.24779725E-03    2     1000006        25   # BR(~t_2 -> ~t_1    h )
     2.52280489E-03    2     1000006        23   # BR(~t_2 -> ~t_1    Z )
     4.97554633E-03    2     1000005        24   # BR(~t_2 -> ~b_1    W+)
     1.16824389E-10    2     2000005        24   # BR(~t_2 -> ~b_2    W+)
#
#         PDG            Width
DECAY   1000005     9.38762044E+01   # sbottom1 decays
#          BR         NDA      ID1       ID2
     8.02816376E-02    2     1000022         5   # BR(~b_1 -> ~chi_10 b )
     3.93512850E-02    2     1000023         5   # BR(~b_1 -> ~chi_20 b )
     9.62622867E-02    2     1000025         5   # BR(~b_1 -> ~chi_30 b )
     2.48022017E-04    2     1000035         5   # BR(~b_1 -> ~chi_40 b )
     2.58708989E-01    2    -1000024         6   # BR(~b_1 -> ~chi_1- t )
     4.71394617E-01    2    -1000037         6   # BR(~b_1 -> ~chi_2- t )
     5.37531634E-02    2     1000021         5   # BR(~b_1 -> ~g      b )
#
#         PDG            Width
DECAY   2000005     5.18861273E+01   # sbottom2 decays
#          BR         NDA      ID1       ID2
     7.31245962E-02    2     1000022         5   # BR(~b_2 -> ~chi_10 b )
     7.46780785E-02    2     1000023         5   # BR(~b_2 -> ~chi_20 b )
     1.75052698E-02    2     1000025         5   # BR(~b_2 -> ~chi_30 b )
     8.57346528E-03    2     1000035         5   # BR(~b_2 -> ~chi_40 b )
     1.26714495E-01    2    -1000024         6   # BR(~b_2 -> ~chi_1- t )
     3.78819338E-02    2    -1000037         6   # BR(~b_2 -> ~chi_2- t )
     6.61475715E-01    2     1000021         5   # BR(~b_2 -> ~g      b )
     1.49061894E-05    2     1000005        25   # BR(~b_2 -> ~b_1    h )
     1.07172916E-05    2     1000005        23   # BR(~b_2 -> ~b_1    Z )
     2.08226508E-05    2     1000006       -24   # BR(~b_2 -> ~t_1    W-)
#
#         PDG            Width
DECAY   1000002     2.73309662E+01   # sup_L decays
#          BR         NDA      ID1       ID2
     1.09626545E-01    2     1000022         2   # BR(~u_L -> ~chi_10 u)
     1.06827404E-02    2     1000023         2   # BR(~u_L -> ~chi_20 u)
     2.12534809E-01    2     1000025         2   # BR(~u_L -> ~chi_30 u)
     3.81286273E-01    2     1000024         1   # BR(~u_L -> ~chi_1+ d)
     2.85869632E-01    2     1000037         1   # BR(~u_L -> ~chi_2+ d)
#
#         PDG            Width
DECAY   2000002     2.43324849E-03   # sup_R decays
#           BR         NDA      ID1       ID2
     1.20282300E-01    2     1000022         2   # BR(~u_R -> ~chi_10 u)
     2.67359960E-01    2     1000023         2   # BR(~u_R -> ~chi_20 u)
#           BR         NDA      ID1       ID2       ID3
     7.58492201E-05    3        2       -1        1000001   # BR(~u_R -> u  db  ~d_L)
     4.87455353E-05    3        2       1        -1000001   # BR(~u_R -> u  d  ~d_L*)
     8.10398120E-05    3        2       -2        1000002   # BR(~u_R -> u  ub  ~u_L)
     5.15894701E-05    3        2       2        -1000002   # BR(~u_R -> u  u  ~u_L*)
     7.56807210E-05    3        2       -3        1000003   # BR(~u_R -> u  sb  ~s_L)
     4.87825229E-05    3        2       3        -1000003   # BR(~u_R -> u  s  ~s_L*)
     8.21576592E-05    3        2       -4        1000004   # BR(~u_R -> u  cb  ~c_L)
     5.15730311E-05    3        2       4        -1000004   # BR(~u_R -> u  c  ~c_L*)
     1.86643494E-02    3        2       -15        1000015   # BR(~u_R -> u  tau+  ~tau_1-)
     8.35344195E-03    3        2       15        -1000015   # BR(~u_R -> u  tau-  ~tau_1+)
     1.30147003E-04    3        2       -15        2000015   # BR(~u_R -> u  tau+  ~tau_2-)
     2.07488056E-04    3        2       15        -2000015   # BR(~u_R -> u  tau-  ~tau_2+)
     1.90691581E-02    3        2       -16        1000016   # BR(~u_R -> u  nu_taub  ~nu_tau1)
     8.35138709E-03    3        2       16        -1000016   # BR(~u_R -> u  nu_tau  ~nu_tau1*)
     2.35327384E-02    3        2       23        1000022   # BR(~u_R -> u  Z  ~chi_10)
     1.98331573E-02    3        2       25        1000022   # BR(~u_R -> u  h  ~chi_10)
     3.94074015E-06    3        2       35        1000022   # BR(~u_R -> u  H  ~chi_10)
     5.52841194E-07    3        2       36        1000022   # BR(~u_R -> u  A  ~chi_10)
     5.93322058E-02    3        2       23        1000023   # BR(~u_R -> u  Z  ~chi_20)
     4.40152334E-02    3        2       25        1000023   # BR(~u_R -> u  h  ~chi_20)
     4.99579063E-08    3        2       35        1000023   # BR(~u_R -> u  H  ~chi_20)
     8.90743387E-07    3        2       36        1000023   # BR(~u_R -> u  A  ~chi_20)
     2.38364475E-02    3        2       23        1000025   # BR(~u_R -> u  Z  ~chi_30)
     3.54863058E-02    3        2       25        1000025   # BR(~u_R -> u  h  ~chi_30)
     8.99990285E-02    3        2       -24        1000024   # BR(~u_R -> u  W-  ~chi_1+)
     1.36402017E-01    3        2       24        -1000024   # BR(~u_R -> u  W+  ~chi_1-)
     3.82196888E-06    3        2       -37        1000024   # BR(~u_R -> u  H-  ~chi_1+)
     2.60121399E-06    3        2       37        -1000024   # BR(~u_R -> u  H+  ~chi_1-)
     2.91523864E-02    3        2       -24        1000037   # BR(~u_R -> u  W-  ~chi_2+)
     9.54649725E-02    3        2       24        -1000037   # BR(~u_R -> u  W+  ~chi_2-)
#
#         PDG            Width
DECAY   1000001     2.72555723E+01   # sdown_L decays
#          BR         NDA      ID1       ID2
     1.11058732E-01    2     1000022         1   # BR(~d_L -> ~chi_10 d)
     1.12202848E-02    2     1000023         1   # BR(~d_L -> ~chi_20 d)
     2.11566606E-01    2     1000025         1   # BR(~d_L -> ~chi_30 d)
     1.54376804E-01    2    -1000024         2   # BR(~d_L -> ~chi_1- u)
     5.11777574E-01    2    -1000037         2   # BR(~d_L -> ~chi_2- u)
#
#         PDG            Width
DECAY   2000001     5.90282529E+01   # sdown_R decays
#          BR         NDA      ID1       ID2
     1.99061405E-06    2     1000022         1   # BR(~d_R -> ~chi_10 d)
     4.43806569E-06    2     1000023         1   # BR(~d_R -> ~chi_20 d)
     2.56660569E-06    2     1000025         1   # BR(~d_R -> ~chi_30 d)
     8.71325663E-03    2     1000035         1   # BR(~d_R -> ~chi_40 d)
     9.91277748E-01    2     1000021         1   # BR(~d_R -> ~g      d)
#
#         PDG            Width
DECAY   1000004     2.76714644E+01   # scharm_L decays
#          BR         NDA      ID1       ID2
     1.09673622E-01    2     1000022         4   # BR(~c_L -> ~chi_10 c)
     1.06833887E-02    2     1000023         4   # BR(~c_L -> ~chi_20 c)
     2.12456052E-01    2     1000025         4   # BR(~c_L -> ~chi_30 c)
     3.81432829E-01    2     1000024         3   # BR(~c_L -> ~chi_1+ s)
     2.85754108E-01    2     1000037         3   # BR(~c_L -> ~chi_2+ s)
#
#         PDG            Width
DECAY   2000004     2.44962010E-03   # scharm_R decays
#           BR         NDA      ID1       ID2
     1.21371102E-01    2     1000022         4   # BR(~c_R -> ~chi_10 c)
     2.69681935E-01    2     1000023         4   # BR(~c_R -> ~chi_20 c)
#           BR         NDA      ID1       ID2       ID3
     7.49789734E-05    3        4       -1        1000001   # BR(~c_R -> c  db  ~d_L)
     4.86646889E-05    3        4       1        -1000001   # BR(~c_R -> c  d  ~d_L*)
     8.05308547E-05    3        4       -2        1000002   # BR(~c_R -> c  ub  ~u_L)
     5.23019876E-05    3        4       2        -1000002   # BR(~c_R -> c  u  ~u_L*)
     7.53504595E-05    3        4       -3        1000003   # BR(~c_R -> c  sb  ~s_L)
     4.83095318E-05    3        4       3        -1000003   # BR(~c_R -> c  s  ~s_L*)
     8.09880684E-05    3        4       -4        1000004   # BR(~c_R -> c  cb  ~c_L)
     5.12936680E-05    3        4       4        -1000004   # BR(~c_R -> c  c  ~c_L*)
     1.85983942E-02    3        4       -15        1000015   # BR(~c_R -> c  tau+  ~tau_1-)
     7.98858567E-03    3        4       15        -1000015   # BR(~c_R -> c  tau-  ~tau_1+)
     1.28342350E-04    3        4       -15        2000015   # BR(~c_R -> c  tau+  ~tau_2-)
     2.08330263E-04    3        4       15        -2000015   # BR(~c_R -> c  tau-  ~tau_2+)
     1.89951904E-02    3        4       -16        1000016   # BR(~c_R -> c  nu_taub  ~nu_tau1)
     8.35435667E-03    3        4       16        -1000016   # BR(~c_R -> c  nu_tau  ~nu_tau1*)
     2.33758696E-02    3        4       23        1000022   # BR(~c_R -> c  Z  ~chi_10)
     1.96993811E-02    3        4       25        1000022   # BR(~c_R -> c  h  ~chi_10)
     3.94767336E-06    3        4       35        1000022   # BR(~c_R -> c  H  ~chi_10)
     5.47350180E-07    3        4       36        1000022   # BR(~c_R -> c  A  ~chi_10)
     5.89356693E-02    3        4       23        1000023   # BR(~c_R -> c  Z  ~chi_20)
     4.33985662E-02    3        4       25        1000023   # BR(~c_R -> c  h  ~chi_20)
     5.01710450E-08    3        4       35        1000023   # BR(~c_R -> c  H  ~chi_20)
     8.74094723E-07    3        4       36        1000023   # BR(~c_R -> c  A  ~chi_20)
     2.37347009E-02    3        4       23        1000025   # BR(~c_R -> c  Z  ~chi_30)
     3.57806502E-02    3        4       25        1000025   # BR(~c_R -> c  h  ~chi_30)
     8.92832322E-02    3        4       -24        1000024   # BR(~c_R -> c  W-  ~chi_1+)
     1.35445492E-01    3        4       24        -1000024   # BR(~c_R -> c  W+  ~chi_1-)
     3.75960339E-06    3        4       -37        1000024   # BR(~c_R -> c  H-  ~chi_1+)
     2.56517327E-06    3        4       37        -1000024   # BR(~c_R -> c  H+  ~chi_1-)
     2.92853574E-02    3        4       -24        1000037   # BR(~c_R -> c  W-  ~chi_2+)
     9.52106820E-02    3        4       24        -1000037   # BR(~c_R -> c  W+  ~chi_2-)
#
#         PDG            Width
DECAY   1000003     2.75913478E+01   # sstrange_L decays
#          BR         NDA      ID1       ID2
     1.11126247E-01    2     1000022         3   # BR(~s_L -> ~chi_10 s)
     1.12229685E-02    2     1000023         3   # BR(~s_L -> ~chi_20 s)
     2.11525970E-01    2     1000025         3   # BR(~s_L -> ~chi_30 s)
     1.54463472E-01    2    -1000024         4   # BR(~s_L -> ~chi_1- c)
     5.11661343E-01    2    -1000037         4   # BR(~s_L -> ~chi_2- c)
#
#         PDG            Width
DECAY   2000003     4.21134673E+01   # sstrange_R decays
#          BR         NDA      ID1       ID2
     2.92424296E-06    2     1000022         3   # BR(~s_R -> ~chi_10 s)
     6.51756949E-06    2     1000023         3   # BR(~s_R -> ~chi_20 s)
     3.76780015E-06    2     1000025         3   # BR(~s_R -> ~chi_30 s)
     1.25291752E-02    2     1000035         3   # BR(~s_R -> ~chi_40 s)
     9.87457615E-01    2     1000021         3   # BR(~s_R -> ~g      s)
#
#         PDG            Width
DECAY   1000011     3.49267947E+01   # selectron_L decays
#          BR         NDA      ID1       ID2
     1.08506449E-01    2     1000022        11   # BR(~e_L -> ~chi_10 e-)
     1.02042067E-02    2     1000023        11   # BR(~e_L -> ~chi_20 e-)
     2.15083096E-01    2     1000025        11   # BR(~e_L -> ~chi_30 e-)
     8.59859181E-05    2     1000035        11   # BR(~e_L -> ~chi_40 e-)
     1.53806453E-01    2    -1000024        12   # BR(~e_L -> ~chi_1- nu_e)
     5.12313809E-01    2    -1000037        12   # BR(~e_L -> ~chi_2- nu_e)
#
#         PDG            Width
DECAY   2000011     5.56533114E-03   # selectron_R decays
#           BR         NDA      ID1       ID2
     1.20899886E-01    2     1000022        11   # BR(~e_R -> ~chi_10 e-)
     2.68649858E-01    2     1000023        11   # BR(~e_R -> ~chi_20 e-)
#           BR         NDA      ID1       ID2       ID3
     1.80474436E-07    3        11       -1        1000001   # BR(~e_R- -> e-  db  ~d_L)
     1.23325995E-07    3        11       1        -1000001   # BR(~e_R- -> e-  d  ~d_L*)
     1.89260975E-07    3        11       -2        1000002   # BR(~e_R- -> e-  ub  ~u_L)
     1.29469385E-07    3        11       2        -1000002   # BR(~e_R- -> e-  u  ~u_L*)
     8.84439735E-11    3        11       -2        2000002   # BR(~e_R- -> e-  ub  ~u_R)
     1.25572042E-10    3        11       2        -2000002   # BR(~e_R- -> e-  u  ~u_R*)
     1.81085361E-07    3        11       -3        1000003   # BR(~e_R- -> e-  sb  ~s_L)
     1.22565932E-07    3        11       3        -1000003   # BR(~e_R- -> e-  s  ~s_L*)
     1.93142146E-07    3        11       -4        1000004   # BR(~e_R- -> e-  cb  ~c_L)
     1.27322163E-07    3        11       4        -1000004   # BR(~e_R- -> e-  c  ~c_L*)
     8.26186238E-11    3        11       -4        2000004   # BR(~e_R- -> e-  cb  ~c_R)
     1.18399064E-10    3        11       4        -2000004   # BR(~e_R- -> e-  c  ~c_R*)
     1.97149095E-02    3        11       -15        1000015   # BR(~e_R- -> e-  tau+  ~tau_1-)
     8.81151521E-03    3        11       15        -1000015   # BR(~e_R- -> e-  tau-  ~tau_1+)
     1.67704307E-04    3        11       -15        2000015   # BR(~e_R- -> e-  tau+  ~tau_2-)
     2.62787597E-04    3        11       15        -2000015   # BR(~e_R- -> e-  tau-  ~tau_2+)
     2.02863041E-02    3        11       -16        1000016   # BR(~e_R- -> e-  nu_taub  ~nu_tau1)
     8.80989805E-03    3        11       16        -1000016   # BR(~e_R- -> e-  nu_tau  ~nu_tau1*)
     2.17668988E-02    3        11       23        1000022   # BR(~e_R- -> e-  Z  ~chi_10)
     1.98820155E-02    3        11       25        1000022   # BR(~e_R- -> e-  h  ~chi_10)
     5.99155722E-06    3        11       35        1000022   # BR(~e_R- -> e-  H  ~chi_10)
     9.27006834E-07    3        11       36        1000022   # BR(~e_R- -> e-  A  ~chi_10)
     5.50227816E-02    3        11       23        1000023   # BR(~e_R- -> e-  Z  ~chi_20)
     4.46352595E-02    3        11       25        1000023   # BR(~e_R- -> e-  h  ~chi_20)
     1.22835458E-07    3        11       35        1000023   # BR(~e_R- -> e-  H  ~chi_20)
     1.81031456E-06    3        11       36        1000023   # BR(~e_R- -> e-  A  ~chi_20)
     2.16914316E-02    3        11       23        1000025   # BR(~e_R- -> e-  Z  ~chi_30)
     3.59349686E-02    3        11       25        1000025   # BR(~e_R- -> e-  h  ~chi_30)
     1.51478857E-09    3        11       35        1000025   # BR(~e_R- -> e-  H  ~chi_30)
     1.95010858E-11    3        11       36        1000025   # BR(~e_R- -> e-  A  ~chi_30)
     8.95041081E-02    3        11       -24        1000024   # BR(~e_R- -> e-  W-  ~chi_1+)
     1.36279402E-01    3        11       24        -1000024   # BR(~e_R- -> e-  W+  ~chi_1-)
     6.06432917E-06    3        11       -37        1000024   # BR(~e_R- -> e-  H-  ~chi_1+)
     4.13739981E-06    3        11       37        -1000024   # BR(~e_R- -> e-  H+  ~chi_1-)
     3.01725083E-02    3        11       -24        1000037   # BR(~e_R- -> e-  W-  ~chi_2+)
     9.74874605E-02    3        11       24        -1000037   # BR(~e_R- -> e-  W+  ~chi_2-)
     1.09916191E-10    3        11       -37        1000037   # BR(~e_R- -> e-  H-  ~chi_2+)
     8.08918622E-11    3        11       37        -1000037   # BR(~e_R- -> e-  H+  ~chi_2-)
#
#         PDG            Width
DECAY   1000013     3.49267947E+01   # smuon_L decays
#          BR         NDA      ID1       ID2
     1.08506449E-01    2     1000022        13   # BR(~mu_L -> ~chi_10 mu-)
     1.02042067E-02    2     1000023        13   # BR(~mu_L -> ~chi_20 mu-)
     2.15083096E-01    2     1000025        13   # BR(~mu_L -> ~chi_30 mu-)
     8.59856187E-05    2     1000035        13   # BR(~mu_L -> ~chi_40 mu-)
     1.53806453E-01    2    -1000024        14   # BR(~mu_L -> ~chi_1- nu_mu)
     5.12313810E-01    2    -1000037        14   # BR(~mu_L -> ~chi_2- nu_mu)
#
#         PDG            Width
DECAY   2000013     5.56494247E-03   # smuon_R decays
#           BR         NDA      ID1       ID2
     1.20908330E-01    2     1000022        13   # BR(~mu_R -> ~chi_10 mu-)
     2.68668619E-01    2     1000023        13   # BR(~mu_R -> ~chi_20 mu-)
#           BR         NDA      ID1       ID2       ID3
     1.79593950E-07    3        13       -1        1000001   # BR(~mu_R- -> mu-  db  ~d_L)
     1.24094724E-07    3        13       1        -1000001   # BR(~mu_R- -> mu-  d  ~d_L*)
     1.90352372E-07    3        13       -2        1000002   # BR(~mu_R- -> mu-  ub  ~u_L)
     1.28499083E-07    3        13       2        -1000002   # BR(~mu_R- -> mu-  u  ~u_L*)
     8.89029856E-11    3        13       -2        2000002   # BR(~mu_R- -> mu-  ub  ~u_R)
     1.24723661E-10    3        13       2        -2000002   # BR(~mu_R- -> mu-  u  ~u_R*)
     1.79786225E-07    3        13       -3        1000003   # BR(~mu_R- -> mu-  sb  ~s_L)
     1.22953652E-07    3        13       3        -1000003   # BR(~mu_R- -> mu-  s  ~s_L*)
     1.93532998E-07    3        13       -4        1000004   # BR(~mu_R- -> mu-  cb  ~c_L)
     1.29611403E-07    3        13       4        -1000004   # BR(~mu_R- -> mu-  c  ~c_L*)
     8.45291759E-11    3        13       -4        2000004   # BR(~mu_R- -> mu-  cb  ~c_R)
     1.17480100E-10    3        13       4        -2000004   # BR(~mu_R- -> mu-  c  ~c_R*)
     1.98869980E-02    3        13       -15        1000015   # BR(~mu_R- -> mu-  tau+  ~tau_1-)
     8.53306216E-03    3        13       15        -1000015   # BR(~mu_R- -> mu-  tau-  ~tau_1+)
     1.65394342E-04    3        13       -15        2000015   # BR(~mu_R- -> mu-  tau+  ~tau_2-)
     2.62302802E-04    3        13       15        -2000015   # BR(~mu_R- -> mu-  tau-  ~tau_2+)
     2.02877210E-02    3        13       -16        1000016   # BR(~mu_R- -> mu-  nu_taub  ~nu_tau1)
     8.81051336E-03    3        13       16        -1000016   # BR(~mu_R- -> mu-  nu_tau  ~nu_tau1*)
     2.17684191E-02    3        13       23        1000022   # BR(~mu_R- -> mu-  Z  ~chi_10)
     1.98834041E-02    3        13       25        1000022   # BR(~mu_R- -> mu-  h  ~chi_10)
     6.04175159E-06    3        13       35        1000022   # BR(~mu_R- -> mu-  H  ~chi_10)
     9.30180328E-07    3        13       36        1000022   # BR(~mu_R- -> mu-  A  ~chi_10)
     5.50266246E-02    3        13       23        1000023   # BR(~mu_R- -> mu-  Z  ~chi_20)
     4.46383770E-02    3        13       25        1000023   # BR(~mu_R- -> mu-  h  ~chi_20)
     1.21546630E-07    3        13       35        1000023   # BR(~mu_R- -> mu-  H  ~chi_20)
     1.80163588E-06    3        13       36        1000023   # BR(~mu_R- -> mu-  A  ~chi_20)
     2.17342768E-02    3        13       23        1000025   # BR(~mu_R- -> mu-  Z  ~chi_30)
     3.59374784E-02    3        13       25        1000025   # BR(~mu_R- -> mu-  h  ~chi_30)
     1.52731139E-09    3        13       35        1000025   # BR(~mu_R- -> mu-  H  ~chi_30)
     1.94521328E-11    3        13       36        1000025   # BR(~mu_R- -> mu-  A  ~chi_30)
     8.95103593E-02    3        13       -24        1000024   # BR(~mu_R- -> mu-  W-  ~chi_1+)
     1.36288920E-01    3        13       24        -1000024   # BR(~mu_R- -> mu-  W+  ~chi_1-)
     6.04642369E-06    3        13       -37        1000024   # BR(~mu_R- -> mu-  H-  ~chi_1+)
     4.12259428E-06    3        13       37        -1000024   # BR(~mu_R- -> mu-  H+  ~chi_1-)
     3.01746156E-02    3        13       -24        1000037   # BR(~mu_R- -> mu-  W-  ~chi_2+)
     9.74942693E-02    3        13       24        -1000037   # BR(~mu_R- -> mu-  W+  ~chi_2-)
     1.09526739E-10    3        13       -37        1000037   # BR(~mu_R- -> mu-  H-  ~chi_2+)
     8.08256334E-11    3        13       37        -1000037   # BR(~mu_R- -> mu-  H+  ~chi_2-)
#
#         PDG            Width
DECAY   1000015     1.58212199E+01   # stau_1 decays
#          BR         NDA      ID1       ID2
     1.45412284E-01    2     1000022        15   # BR(~tau_1 -> ~chi_10  tau-)
     5.30986438E-02    2     1000023        15   # BR(~tau_1 -> ~chi_20  tau-)
     2.01772426E-01    2     1000025        15   # BR(~tau_1 -> ~chi_30  tau-)
     1.43801848E-01    2    -1000024        16   # BR(~tau_1 -> ~chi_1-  nu_tau)
     4.55914798E-01    2    -1000037        16   # BR(~tau_1 -> ~chi_2-  nu_tau)
#
#         PDG            Width
DECAY   2000015     5.40084457E+00   # stau_2 decays
#          BR         NDA      ID1       ID2
     2.18816121E-01    2     1000022        15   # BR(~tau_2 -> ~chi_10  tau-)
     2.24832456E-01    2     1000023        15   # BR(~tau_2 -> ~chi_20  tau-)
     5.33503806E-02    2     1000025        15   # BR(~tau_2 -> ~chi_30  tau-)
     3.80752326E-01    2    -1000024        16   # BR(~tau_2 -> ~chi_1-  nu_tau)
     1.15708030E-01    2    -1000037        16   # BR(~tau_2 -> ~chi_2-  nu_tau)
     3.22131368E-03    2     1000016       -24   # BR(~tau_2 -> ~nu_tauL W-)
     1.68515553E-03    2     1000015        25   # BR(~tau_2 -> ~tau_1   h)
     1.63421729E-03    2     1000015        23   # BR(~tau_2 -> ~tau_1   Z)
#
#         PDG            Width
DECAY   1000012     3.49715249E+01   # snu_eL decays
#          BR         NDA      ID1       ID2
     1.11502007E-01    2     1000022        12   # BR(~nu_eL -> ~chi_10 nu_e)
     1.16861216E-02    2     1000023        12   # BR(~nu_eL -> ~chi_20 nu_e)
     2.09675313E-01    2     1000025        12   # BR(~nu_eL -> ~chi_30 nu_e)
     8.01793342E-05    2     1000035        12   # BR(~nu_eL -> ~chi_40 nu_e)
     3.80452187E-01    2     1000024        11   # BR(~nu_eL -> ~chi_1+ e-)
     2.86604192E-01    2     1000037        11   # BR(~nu_eL -> ~chi_2+ e-)
#
#         PDG            Width
DECAY   1000014     3.49715248E+01   # snu_muL decays
#          BR         NDA      ID1       ID2
     1.11502007E-01    2     1000022        14   # BR(~nu_muL -> ~chi_10 nu_mu)
     1.16861216E-02    2     1000023        14   # BR(~nu_muL -> ~chi_20 nu_mu)
     2.09675313E-01    2     1000025        14   # BR(~nu_muL -> ~chi_30 nu_mu)
     8.01793343E-05    2     1000035        14   # BR(~nu_muL -> ~chi_40 nu_mu)
     3.80452186E-01    2     1000024        13   # BR(~nu_muL -> ~chi_1+ mu-)
     2.86604192E-01    2     1000037        13   # BR(~nu_muL -> ~chi_2+ mu-)
#
#         PDG            Width
DECAY   1000016     1.59475724E+01   # snu_tauL decays
#          BR         NDA      ID1       ID2
     1.03009150E-01    2     1000022        16   # BR(~nu_tauL -> ~chi_10 nu_tau)
     1.06345999E-02    2     1000023        16   # BR(~nu_tauL -> ~chi_20 nu_tau)
     1.85702229E-01    2     1000025        16   # BR(~nu_tauL -> ~chi_30 nu_tau)
     4.26339561E-01    2     1000024        15   # BR(~nu_tauL -> ~chi_1+ tau-)
     2.74314460E-01    2     1000037        15   # BR(~nu_tauL -> ~chi_2+ tau-)
#
#         PDG            Width
DECAY   1000024     1.61130148E-08   # chargino1+ decays
#           BR         NDA      ID1       ID2       ID3
     3.46390279E-01    3     1000022         2        -1   # BR(~chi_1+ -> ~chi_10 u    db)
     3.46390279E-01    3     1000022         4        -3   # BR(~chi_1+ -> ~chi_10 c    sb)
     1.15435523E-01    3     1000022       -11        12   # BR(~chi_1+ -> ~chi_10 e+   nu_e)
     1.15435523E-01    3     1000022       -13        14   # BR(~chi_1+ -> ~chi_10 mu+  nu_mu)
     7.63483969E-02    3     1000022       -15        16   # BR(~chi_1+ -> ~chi_10 tau+ nu_tau)
#
#         PDG            Width
DECAY   1000037     2.31225918E-01   # chargino2+ decays
#          BR         NDA      ID1       ID2
     2.95406232E-01    2     1000024        23   # BR(~chi_2+ -> ~chi_1+  Z )
     7.04593768E-01    2     1000022        24   # BR(~chi_2+ -> ~chi_10  W+)
#
#         PDG            Width
DECAY   1000022     0.00000000E+00   # neutralino1 decays
#
#         PDG            Width
DECAY   1000023     3.67371702E-04   # neutralino2 decays
#          BR         NDA      ID1       ID2
     4.33873090E-03    2     1000022        22   # BR(~chi_20 -> ~chi_10 gam)
#           BR         NDA      ID1       ID2       ID3
     4.70685601E-02    3     1000022        -2         2   # BR(~chi_20 -> ~chi_10 ub      u)
     6.09793066E-02    3     1000022        -1         1   # BR(~chi_20 -> ~chi_10 db      d)
     4.70685601E-02    3     1000022        -4         4   # BR(~chi_20 -> ~chi_10 cb      c)
     6.09793066E-02    3     1000022        -3         3   # BR(~chi_20 -> ~chi_10 sb      s)
     5.58512595E-02    3     1000022        -5         5   # BR(~chi_20 -> ~chi_10 bb      b)
     1.39665271E-02    3     1000022       -11        11   # BR(~chi_20 -> ~chi_10 e+      e-)
     1.39665271E-02    3     1000022       -13        13   # BR(~chi_20 -> ~chi_10 mu+     mu-)
     1.38417673E-02    3     1000022       -15        15   # BR(~chi_20 -> ~chi_10 tau+    tau-)
     2.79226725E-02    3     1000022       -12        12   # BR(~chi_20 -> ~chi_10 nu_eb   nu_e)
     2.79226725E-02    3     1000022       -14        14   # BR(~chi_20 -> ~chi_10 nu_mub  nu_mu)
     2.79472709E-02    3     1000022       -16        16   # BR(~chi_20 -> ~chi_10 nu_taub nu_tau)
     9.97745666E-02    3     1000024        -2         1   # BR(~chi_20 -> ~chi_1+ ub      d)
     9.97745666E-02    3    -1000024        -1         2   # BR(~chi_20 -> ~chi_1- db      u)
     9.97745666E-02    3     1000024        -4         3   # BR(~chi_20 -> ~chi_1+ cb      s)
     9.97745666E-02    3    -1000024        -3         4   # BR(~chi_20 -> ~chi_1- sb      c)
     3.32558009E-02    3     1000024       -12        11   # BR(~chi_20 -> ~chi_1+ nu_eb   e-)
     3.32558009E-02    3    -1000024        12       -11   # BR(~chi_20 -> ~chi_1- nu_e    e+)
     3.32558009E-02    3     1000024       -14        13   # BR(~chi_20 -> ~chi_1+ nu_mub  mu-)
     3.32558009E-02    3    -1000024        14       -13   # BR(~chi_20 -> ~chi_1- nu_mu   mu+)
     3.30126844E-02    3     1000024       -16        15   # BR(~chi_20 -> ~chi_1+ nu_taub tau-)
     3.30126844E-02    3    -1000024        16       -15   # BR(~chi_20 -> ~chi_1- nu_tau  tau+)
#
#         PDG            Width
DECAY   1000025     3.58824918E-01   # neutralino3 decays
#          BR         NDA      ID1       ID2
     3.34164641E-03    2     1000022        23   # BR(~chi_30 -> ~chi_10   Z )
     4.98329177E-01    2     1000024       -24   # BR(~chi_30 -> ~chi_1+   W-)
     4.98329177E-01    2    -1000024        24   # BR(~chi_30 -> ~chi_1-   W+)
#
#         PDG            Width
DECAY   1000035     2.28108348E+01   # neutralino4 decays
#          BR         NDA      ID1       ID2
     1.67924409E-02    2     1000022        23   # BR(~chi_40 -> ~chi_10   Z )
     4.02521338E-02    2     1000023        23   # BR(~chi_40 -> ~chi_20   Z )
     1.88755312E-02    2     1000025        23   # BR(~chi_40 -> ~chi_30   Z )
     2.89454381E-02    2     1000024       -24   # BR(~chi_40 -> ~chi_1+   W-)
     2.89454381E-02    2    -1000024        24   # BR(~chi_40 -> ~chi_1-   W+)
     4.50730944E-02    2     1000037       -24   # BR(~chi_40 -> ~chi_2+   W-)
     4.50730944E-02    2    -1000037        24   # BR(~chi_40 -> ~chi_2-   W+)
     1.66591262E-02    2     1000022        25   # BR(~chi_40 -> ~chi_10   h )
     7.96236387E-03    2     1000022        35   # BR(~chi_40 -> ~chi_10   H )
     4.90840314E-03    2     1000022        36   # BR(~chi_40 -> ~chi_10   A )
     3.94356064E-02    2     1000023        25   # BR(~chi_40 -> ~chi_20   h )
     4.31377545E-03    2     1000023        35   # BR(~chi_40 -> ~chi_20   H )
     8.83412689E-03    2     1000023        36   # BR(~chi_40 -> ~chi_20   A )
     2.48562241E-02    2     1000025        25   # BR(~chi_40 -> ~chi_30   h )
     2.28025913E-03    2     1000025        35   # BR(~chi_40 -> ~chi_30   H )
     8.11396774E-04    2     1000025        36   # BR(~chi_40 -> ~chi_30   A )
     1.10994031E-02    2     1000024       -37   # BR(~chi_40 -> ~chi_1+   H-)
     1.10994031E-02    2    -1000024        37   # BR(~chi_40 -> ~chi_1-   H+)
     3.32586490E-03    2     1000037       -37   # BR(~chi_40 -> ~chi_2+   H-)
     3.32586490E-03    2    -1000037        37   # BR(~chi_40 -> ~chi_2-   H+)
     3.30805231E-03    2     1000002        -2   # BR(~chi_40 -> ~u_L      ub)
     3.30805231E-03    2    -1000002         2   # BR(~chi_40 -> ~u_L*     u )
     3.81659899E-02    2     2000002        -2   # BR(~chi_40 -> ~u_R      ub)
     3.81659899E-02    2    -2000002         2   # BR(~chi_40 -> ~u_R*     u )
     3.32846204E-03    2     1000001        -1   # BR(~chi_40 -> ~d_L      db)
     3.32846204E-03    2    -1000001         1   # BR(~chi_40 -> ~d_L*     d )
     3.30804080E-03    2     1000004        -4   # BR(~chi_40 -> ~c_L      cb)
     3.30804080E-03    2    -1000004         4   # BR(~chi_40 -> ~c_L*     c )
     3.81657894E-02    2     2000004        -4   # BR(~chi_40 -> ~c_R      cb)
     3.81657894E-02    2    -2000004         4   # BR(~chi_40 -> ~c_R*     c )
     3.32846204E-03    2     1000003        -3   # BR(~chi_40 -> ~s _L      sb)
     3.32846204E-03    2    -1000003         3   # BR(~chi_40 -> ~s _L*     s )
     2.70573790E-02    2     2000011       -11   # BR(~chi_40 -> ~e_R-     e+)
     2.70573790E-02    2    -2000011        11   # BR(~chi_40 -> ~e_R+     e-)
     2.70573790E-02    2     2000013       -13   # BR(~chi_40 -> ~mu_R-    mu+)
     2.70573790E-02    2    -2000013        13   # BR(~chi_40 -> ~mu_R+    mu-)
     5.36693305E-02    2     1000015       -15   # BR(~chi_40 -> ~tau_1-   tau+)
     5.36693305E-02    2    -1000015        15   # BR(~chi_40 -> ~tau_1+   tau-)
     6.72035072E-02    2     2000015       -15   # BR(~chi_40 -> ~tau_2-   tau+)
     6.72035072E-02    2    -2000015        15   # BR(~chi_40 -> ~tau_2+   tau-)
     5.39731132E-02    2     1000016       -16   # BR(~chi_40 -> ~nu_tau1  nu_taub)
     5.39731132E-02    2    -1000016        16   # BR(~chi_40 -> ~nu_tau1* nu_tau )
#
#         PDG            Width
DECAY        25     3.99592518E-03   # h decays
#          BR         NDA      ID1       ID2
     6.00604494E-01    2           5        -5   # BR(h -> b       bb     )
     6.52359478E-02    2         -15        15   # BR(h -> tau+    tau-   )
     2.30906695E-04    2         -13        13   # BR(h -> mu+     mu-    )
     2.52177622E-04    2           3        -3   # BR(h -> s       sb     )
     2.16612184E-02    2           4        -4   # BR(h -> c       cb     )
     7.93648669E-02    2          21        21   # BR(h -> g       g      )
     2.30798739E-03    2          22        22   # BR(h -> gam     gam    )
     1.52008914E-03    2          22        23   # BR(h -> Z       gam    )
     2.03564441E-01    2          24       -24   # BR(h -> W+      W-     )
     2.52578703E-02    2          23        23   # BR(h -> Z       Z      )
#
#         PDG            Width
DECAY        35     4.53523760E+01   # H decays
#          BR         NDA      ID1       ID2
     3.52837359E-01    2           5        -5   # BR(H -> b       bb     )
     6.18880525E-02    2         -15        15   # BR(H -> tau+    tau-   )
     2.17665133E-04    2         -13        13   # BR(H -> mu+     mu-    )
     1.45423361E-04    2           3        -3   # BR(H -> s       sb     )
     3.21953522E-08    2           4        -4   # BR(H -> c       cb     )
     3.12742602E-03    2           6        -6   # BR(H -> t       tb     )
     7.08392278E-06    2          21        21   # BR(H -> g       g      )
     9.46401838E-08    2          22        22   # BR(H -> gam     gam    )
     4.11719950E-09    2          23        22   # BR(H -> Z       gam    )
     2.62934474E-06    2          24       -24   # BR(H -> W+      W-     )
     1.31007690E-06    2          23        23   # BR(H -> Z       Z      )
     1.08946217E-05    2          25        25   # BR(H -> h       h      )
     1.77317383E-01    2     1000024  -1000024   # BR(H -> ~chi_1+ ~chi_1-)
     4.30978563E-02    2     1000037  -1000037   # BR(H -> ~chi_2+ ~chi_2-)
     8.39120811E-02    2     1000024  -1000037   # BR(H -> ~chi_1+ ~chi_2-)
     8.39120811E-02    2     1000037  -1000024   # BR(H -> ~chi_2+ ~chi_1-)
     6.09175389E-02    2     1000022   1000022   # BR(H -> ~chi_10 ~chi_10)
     5.53854349E-03    2     1000023   1000023   # BR(H -> ~chi_20 ~chi_20)
     2.79491828E-02    2     1000025   1000025   # BR(H -> ~chi_30 ~chi_30)
     1.16307403E-02    2     1000022   1000023   # BR(H -> ~chi_10 ~chi_20)
     2.28000198E-02    2     1000022   1000025   # BR(H -> ~chi_10 ~chi_30)
     6.46865979E-02    2     1000023   1000025   # BR(H -> ~chi_20 ~chi_30)
#
#         PDG            Width
DECAY        36     4.53555637E+01   # A decays
#          BR         NDA      ID1       ID2
     3.52832786E-01    2           5        -5   # BR(A -> b       bb     )
     6.18843759E-02    2         -15        15   # BR(A -> tau+    tau-   )
     2.17651605E-04    2         -13        13   # BR(A -> mu+     mu-    )
     1.45430684E-04    2           3        -3   # BR(A -> s       sb     )
     3.21700939E-08    2           4        -4   # BR(A -> c       cb     )
     3.15341229E-03    2           6        -6   # BR(A -> t       tb     )
     2.78609666E-05    2          21        21   # BR(A -> g       g      )
     4.28114721E-08    2          22        22   # BR(A -> gam     gam    )
     1.94471371E-08    2          23        22   # BR(A -> Z       gam    )
     2.65446043E-06    2          23        25   # BR(A -> Z       h      )
     1.66308661E-01    2     1000024  -1000024   # BR(A -> ~chi_1+ ~chi_1-)
     3.22548459E-02    2     1000037  -1000037   # BR(A -> ~chi_2+ ~chi_2-)
     9.48325640E-02    2     1000024  -1000037   # BR(A -> ~chi_1+ ~chi_2-)
     9.48325640E-02    2     1000037  -1000024   # BR(A -> ~chi_2+ ~chi_1-)
     5.48935702E-02    2     1000022   1000022   # BR(A -> ~chi_10 ~chi_10)
     6.71757020E-03    2     1000023   1000023   # BR(A -> ~chi_20 ~chi_20)
     2.27856310E-02    2     1000025   1000025   # BR(A -> ~chi_30 ~chi_30)
     1.55448158E-02    2     1000022   1000023   # BR(A -> ~chi_10 ~chi_20)
     2.23488930E-02    2     1000022   1000025   # BR(A -> ~chi_10 ~chi_30)
     7.12166187E-02    2     1000023   1000025   # BR(A -> ~chi_20 ~chi_30)
#
#         PDG            Width
DECAY        37     4.50986411E+01   # H+ decays
#          BR         NDA      ID1       ID2
     5.90454899E-04    2           4        -5   # BR(H+ -> c       bb     )
     6.22938809E-02    2         -15        16   # BR(H+ -> tau+    nu_tau )
     2.19091862E-04    2         -13        14   # BR(H+ -> mu+     nu_mu  )
     5.90453512E-06    2           2        -5   # BR(H+ -> u       bb     )
     7.31208129E-06    2           2        -3   # BR(H+ -> u       sb     )
     1.43954941E-04    2           4        -3   # BR(H+ -> c       sb     )
     3.53211830E-01    2           6        -5   # BR(H+ -> t       bb     )
     2.68032553E-06    2          24        25   # BR(H+ -> W+      h      )
     8.13278374E-13    2          24        36   # BR(H+ -> W+      A      )
     4.76294373E-04    2     1000024   1000022   # BR(H+ -> ~chi_1+ ~chi_10)
     7.28417064E-02    2     1000024   1000023   # BR(H+ -> ~chi_1+ ~chi_20)
     1.66737285E-01    2     1000024   1000025   # BR(H+ -> ~chi_1+ ~chi_30)
     2.34574175E-01    2     1000037   1000022   # BR(H+ -> ~chi_2+ ~chi_10)
     1.08824947E-01    2     1000037   1000023   # BR(H+ -> ~chi_2+ ~chi_20)
     7.04829229E-05    2     1000037   1000025   # BR(H+ -> ~chi_2+ ~chi_30)
