#
#                              ======================
#                              | THE SUSYHIT OUTPUT |
#                              ======================
#
#
#              ------------------------------------------------------
#              |     This is the output of the SUSY-HIT package     |
#              |  created by A.Djouadi, M.Muehlleitner and M.Spira. |
#              |  In case of problems with SUSY-HIT email to        |
#              |           margarete.muehlleitner@cern.ch           |
#              |           michael.spira@psi.ch                     |
#              |           abdelhak.djouadi@cern.ch                 |
#              ------------------------------------------------------
#
#              ------------------------------------------------------
#              |  SUSY Les Houches Accord - MSSM Spectrum + Decays  |
#              |              based on the decay programs           |
#              |                                                    |
#              |                     SDECAY 1.3b                    |
#              |                                                    |
#              |  Authors: M.Muhlleitner, A.Djouadi and Y.Mambrini  |
#              |  Ref.:    Comput.Phys.Commun.168(2005)46           |
#              |           [hep-ph/0311167]                         |
#              |                                                    |
#              |                     HDECAY 3.4                     |
#              |                                                    |
#              |  By: A.Djouadi,J.Kalinowski,M.Muhlleitner,M.Spira  |
#              |  Ref.:    Comput.Phys.Commun.108(1998)56           |
#              |           [hep-ph/9704448]                         |
#              |                                                    |
#              |                                                    |
#              |  If not stated otherwise all DRbar couplings and   |
#              |  soft SUSY breaking masses are given at the scale  |
#              |  Q=  0.32355940E+04
#              |                                                    |
#              ------------------------------------------------------
#
#
BLOCK DCINFO  # Decay Program information
     1   SDECAY/HDECAY # decay calculator
     2   1.3b  /3.4    # version number
#
BLOCK SPINFO  # Spectrum calculator information
     1     SOFTSUSY    # spectrum calculator               
     2     3.4.0       # version number                    
#
BLOCK MODSEL  # Model selection
     1     0   #  nonUniversal                                     
#
BLOCK SMINPUTS  # Standard Model inputs
         1     1.27908970E+02   # alpha_em^-1(M_Z)^MSbar
         2     1.16637870E-05   # G_F [GeV^-2]
         3     1.18400000E-01   # alpha_S(M_Z)^MSbar
         4     9.11876000E+01   # M_Z pole mass
         5     4.18000000E+00   # mb(mb)^MSbar
         6     1.73200000E+02   # mt pole mass
         7     1.77700000E+00   # mtau pole mass
#
BLOCK MINPAR  # Input parameters - minimal models
         3     3.07800000E+01   # tanb                
#
BLOCK EXTPAR  # Input parameters - non-minimal models
         0    -1.00000000E+00   # Set                 
         1     3.95923000E+03   # M_1(MX)             
         2     1.04705000E+03   # M_2(MX)             
         3     3.42664000E+03   # M_3(MX)             
        11     2.58323000E+03   # At(MX)              
        12    -3.70781000E+03   # Ab(MX)              
        13     2.28016000E+03   # Atau(MX)            
        23    -2.19620000E+02   # mu(MX)              
        26     1.00141000E+03   # mA(pole)            
        31     3.51030000E+02   # meL(MX)             
        32     3.51030000E+02   # mmuL(MX)            
        33     3.49744000E+03   # mtauL(MX)           
        34     1.11323000E+03   # meR(MX)             
        35     1.11323000E+03   # mmuR(MX)            
        36     6.50440000E+02   # mtauR(MX)           
        41     3.84441000E+03   # mqL1(MX)            
        42     3.84441000E+03   # mqL2(MX)            
        43     3.15494000E+03   # mqL3(MX)            
        44     1.38020000E+03   # muR(MX)             
        45     1.38020000E+03   # mcR(MX)             
        46     3.31462000E+03   # mtR(MX)             
        47     8.53430000E+02   # mdR(MX)             
        48     8.53430000E+02   # msR(MX)             
        49     2.35212000E+03   # mbR(MX)             
#
BLOCK MASS  # Mass Spectrum
# PDG code           mass       particle
        24     8.03881388E+01   # W+
        25     1.24605015E+02   # h
        35     1.00143579E+03   # H
        36     1.00140998E+03   # A
        37     1.00473351E+03   # H+
         5     4.81876030E+00   # b-quark pole mass calculated from mb(mb)_Msbar
   1000001     3.94710435E+03   # ~d_L
   2000001     1.07485493E+03   # ~d_R
   1000002     3.94645033E+03   # ~u_L
   2000002     1.55485069E+03   # ~u_R
   1000003     3.94710435E+03   # ~s_L
   2000003     1.07485493E+03   # ~s_R
   1000004     3.94645033E+03   # ~c_L
   2000004     1.55485069E+03   # ~c_R
   1000005     2.46988084E+03   # ~b_1
   2000005     3.23978198E+03   # ~b_2
   1000006     3.22480528E+03   # ~t_1
   2000006     3.39107745E+03   # ~t_2
   1000011     4.02598038E+02   # ~e_L
   2000011     1.13363894E+03   # ~e_R
   1000012     3.94347158E+02   # ~nu_eL
   1000013     4.02598038E+02   # ~mu_L
   2000013     1.13363894E+03   # ~mu_R
   1000014     3.94347158E+02   # ~nu_muL
   1000015     6.64408062E+02   # ~tau_1
   2000015     3.50459326E+03   # ~tau_2
   1000016     3.50335742E+03   # ~nu_tauL
   1000021     3.54842932E+03   # ~g
   1000022     2.27404246E+02   # ~chi_10
   1000023    -2.33628756E+02   # ~chi_20
   1000025     1.08630519E+03   # ~chi_30
   1000035     3.89462221E+03   # ~chi_40
   1000024     2.30392914E+02   # ~chi_1+
   1000037     1.08649324E+03   # ~chi_2+
#
BLOCK NMIX  # Neutralino Mixing Matrix
  1  1    -8.19322907E-03   # N_11
  1  2     6.25989930E-02   # N_12
  1  3     7.11443847E-01   # N_13
  1  4     6.99901343E-01   # N_14
  2  1    -7.87114189E-03   # N_21
  2  2     4.43745140E-02   # N_22
  2  3    -7.02615171E-01   # N_23
  2  4     7.10141443E-01   # N_24
  3  1     1.19804488E-03   # N_31
  3  2     9.97051733E-01   # N_32
  3  3    -1.33968546E-02   # N_33
  3  4    -7.55442312E-02   # N_34
  4  1     9.99934738E-01   # N_41
  4  2    -3.32368432E-04   # N_42
  4  3     3.14709268E-04   # N_43
  4  4     1.14153265E-02   # N_44
#
BLOCK UMIX  # Chargino Mixing Matrix U
  1  1     1.90469820E-02   # U_11
  1  2     9.99818590E-01   # U_12
  2  1    -9.99818590E-01   # U_21
  2  2     1.90469820E-02   # U_22
#
BLOCK VMIX  # Chargino Mixing Matrix V
  1  1     1.07210233E-01   # V_11
  1  2    -9.94236373E-01   # V_12
  2  1    -9.94236373E-01   # V_21
  2  2    -1.07210233E-01   # V_22
#
BLOCK STOPMIX  # Stop Mixing Matrix
  1  1     9.48235690E-01   # cos(theta_t)
  1  2    -3.17567436E-01   # sin(theta_t)
  2  1     3.17567436E-01   # -sin(theta_t)
  2  2     9.48235690E-01   # cos(theta_t)
#
BLOCK SBOTMIX  # Sbottom Mixing Matrix
  1  1    -1.50210516E-03   # cos(theta_b)
  1  2     9.99998872E-01   # sin(theta_b)
  2  1    -9.99998872E-01   # -sin(theta_b)
  2  2    -1.50210516E-03   # cos(theta_b)
#
BLOCK STAUMIX  # Stau Mixing Matrix
  1  1    -1.33461437E-03   # cos(theta_tau)
  1  2     9.99999109E-01   # sin(theta_tau)
  2  1    -9.99999109E-01   # -sin(theta_tau)
  2  2    -1.33461437E-03   # cos(theta_tau)
#
BLOCK ALPHA  # Higgs mixing
          -3.44186657E-02   # Mixing angle in the neutral Higgs boson sector
#
BLOCK HMIX Q=  3.23559400E+03  # DRbar Higgs Parameters
         1    -2.24140334E+02   # mu(Q)MSSM           
         2     2.96974827E+01   # tan                 
         3     2.41967493E+02   # higgs               
         4     8.40619927E+05   # mA^2(Q)MSSM         
#
BLOCK GAUGE Q=  3.23559400E+03  # The gauge couplings
     1     3.65976677E-01   # gprime(Q) DRbar
     2     6.40311403E-01   # g(Q) DRbar
     3     1.00673285E+00   # g3(Q) DRbar
#
BLOCK AU Q=  3.23559400E+03  # The trilinear couplings
  1  1     0.00000000E+00   # A_u(Q) DRbar
  2  2     0.00000000E+00   # A_c(Q) DRbar
  3  3     2.58323002E+03   # A_t(Q) DRbar
#
BLOCK AD Q=  3.23559400E+03  # The trilinear couplings
  1  1     0.00000000E+00   # A_d(Q) DRbar
  2  2     0.00000000E+00   # A_s(Q) DRbar
  3  3    -3.70780999E+03   # A_b(Q) DRbar
#
BLOCK AE Q=  3.23559400E+03  # The trilinear couplings
  1  1     0.00000000E+00   # A_e(Q) DRbar
  2  2     0.00000000E+00   # A_mu(Q) DRbar
  3  3     2.28016000E+03   # A_tau(Q) DRbar
#
BLOCK Yu Q=  3.23559400E+03  # The Yukawa couplings
  1  1     0.00000000E+00   # y_u(Q) DRbar
  2  2     0.00000000E+00   # y_c(Q) DRbar
  3  3     8.28506249E-01   # y_t(Q) DRbar
#
BLOCK Yd Q=  3.23559400E+03  # The Yukawa couplings
  1  1     0.00000000E+00   # y_d(Q) DRbar
  2  2     0.00000000E+00   # y_s(Q) DRbar
  3  3     4.02463061E-01   # y_b(Q) DRbar
#
BLOCK Ye Q=  3.23559400E+03  # The Yukawa couplings
  1  1     0.00000000E+00   # y_e(Q) DRbar
  2  2     0.00000000E+00   # y_mu(Q) DRbar
  3  3     3.02026648E-01   # y_tau(Q) DRbar
#
BLOCK MSOFT Q=  3.23559400E+03  # The soft SUSY breaking masses at the scale Q
         1     3.95923000E+03   # M_1(Q)              
         2     1.04705000E+03   # M_2(Q)              
         3     3.42664000E+03   # M_3(Q)              
        21     1.01065037E+06   # mH1^2(Q)            
        22     1.85502148E+05   # mH2^2(Q)            
        31     3.51029999E+02   # meL(Q)              
        32     3.51029999E+02   # mmuL(Q)             
        33     3.49744000E+03   # mtauL(Q)            
        34     1.11323000E+03   # meR(Q)              
        35     1.11323000E+03   # mmuR(Q)             
        36     6.50440002E+02   # mtauR(Q)            
        41     3.84440999E+03   # mqL1(Q)             
        42     3.84440999E+03   # mqL2(Q)             
        43     3.15493998E+03   # mqL3(Q)             
        44     1.38019997E+03   # muR(Q)              
        45     1.38019997E+03   # mcR(Q)              
        46     3.31461998E+03   # mtR(Q)              
        47     8.53429956E+02   # mdR(Q)              
        48     8.53429956E+02   # msR(Q)              
        49     2.35211998E+03   # mbR(Q)              
#
Block HiggsBoundsInputHiggsCouplingsFermions
# ScalarNormEffCoupSq PseudoSNormEffCoupSq NP   IP1 IP2 IP2
    1.04555766E+00    0.00000000E+00        3  25   5   5  # h0-b-b eff. coupling^2, normalised to SM
    8.81894921E+02    0.00000000E+00        3  35   5   5  # H0-b-b eff. coupling^2, normalised to SM
    0.00000000E+00    8.81940479E+02        3  36   5   5  # A0-b-b eff. coupling^2, normalised to SM
#
    9.99948344E-01    0.00000000E+00        3  25   6   6  # h0-t-t eff. coupling^2, normalised to SM
    1.18551952E-03    0.00000000E+00        3  35   6   6  # H0-t-t eff. coupling^2, normalised to SM
    0.00000000E+00    1.13386337E-03        3  36   6   6  # A0-t-t eff. coupling^2, normalised to SM
#
    1.04555766E+00    0.00000000E+00        3  25  15  15  # h0-tau-tau eff. coupling^2, normalised to SM
    8.81894921E+02    0.00000000E+00        3  35  15  15  # H0-tau-tau eff. coupling^2, normalised to SM
    0.00000000E+00    8.81940479E+02        3  36  15  15  # A0-tau-tau eff. coupling^2, normalised to SM
#
Block HiggsBoundsInputHiggsCouplingsBosons
    9.99999425E-01        3  25  24  24  # h0-W-W eff. coupling^2, normalised to SM
    5.75316321E-07        3  35  24  24  # H0-W-W eff. coupling^2, normalised to SM
    0.00000000E+00        3  36  24  24  # A0-W-W eff. coupling^2, normalised to SM
#
    9.99999425E-01        3  25  23  23  # h0-Z-Z eff. coupling^2, normalised to SM
    5.75316321E-07        3  35  23  23  # H0-Z-Z eff. coupling^2, normalised to SM
    0.00000000E+00        3  36  23  23  # A0-Z-Z eff. coupling^2, normalised to SM
#
    8.87346917E-01        3  25  21  21  # h0-g-g eff. coupling^2, normalised to SM
    2.48467275E-04        3  35  21  21  # H0-g-g eff. coupling^2, normalised to SM
    7.79651096E-04        3  36  21  21  # A0-g-g eff. coupling^2, normalised to SM
#
    0.00000000E+00        3  25  25  23  # h0-h0-Z eff. coupling^2, normalised to SM
    0.00000000E+00        3  35  25  23  # H0-h0-Z eff. coupling^2, normalised to SM
    5.75316321E-07        3  36  25  23  # A0-h0-Z eff. coupling^2, normalised to SM
    0.00000000E+00        3  35  35  23  # H0-H0-Z eff. coupling^2, normalised to SM
    9.99999425E-01        3  36  35  23  # A0-H0-Z eff. coupling^2, normalised to SM
    0.00000000E+00        3  36  36  23  # A0-A0-Z eff. coupling^2, normalised to SM
#
    0.00000000E+00        4  25  21  21  23  # h0-g-g-Z eff. coupling^2, normalised to SM
    0.00000000E+00        4  35  21  21  23  # H0-g-g-Z eff. coupling^2, normalised to SM
    0.00000000E+00        4  36  21  21  23  # A0-g-g-Z eff. coupling^2, normalised to SM
#
#
#
#                             =================
#                             |The decay table|
#                             =================
#
# - The QCD corrections to the decays gluino -> squark  + quark
#                                     squark -> gaugino + quark_prime
#                                     squark -> squark_prime + Higgs
#                                     squark -> gluino  + quark
#   are included.
#
# - The multi-body decays for the inos, stops and sbottoms are included.
#
# - The loop induced decays for the gluino, neutralinos and stops
#   are included.
#
# - The SUSY decays of the top quark are included.
#
#
#         PDG            Width
DECAY         6     1.44403376E+00   # top decays
#          BR         NDA      ID1       ID2
     1.00000000E+00    2           5        24   # BR(t ->  b    W+)
#
#         PDG            Width
DECAY   1000021     2.19579658E+02   # gluino decays
#          BR         NDA      ID1       ID2
     1.25593001E-01    2     2000001        -1   # BR(~g -> ~d_R  db)
     1.25593001E-01    2    -2000001         1   # BR(~g -> ~d_R* d )
     9.93985000E-02    2     2000002        -2   # BR(~g -> ~u_R  ub)
     9.93985000E-02    2    -2000002         2   # BR(~g -> ~u_R* u )
     1.25593001E-01    2     2000003        -3   # BR(~g -> ~s_R  sb)
     1.25593001E-01    2    -2000003         3   # BR(~g -> ~s_R* s )
     9.93984873E-02    2     2000004        -4   # BR(~g -> ~c_R  cb)
     9.93984873E-02    2    -2000004         4   # BR(~g -> ~c_R* c )
     4.03769989E-02    2     1000005        -5   # BR(~g -> ~b_1  bb)
     4.03769989E-02    2    -1000005         5   # BR(~g -> ~b_1* b )
     4.32911718E-03    2     2000005        -5   # BR(~g -> ~b_2  bb)
     4.32911718E-03    2    -2000005         5   # BR(~g -> ~b_2* b )
     5.31089447E-03    2     1000006        -6   # BR(~g -> ~t_1  tb)
     5.31089447E-03    2    -1000006         6   # BR(~g -> ~t_1* t )
#
#         PDG            Width
DECAY   1000006     8.41322296E+01   # stop1 decays
#          BR         NDA      ID1       ID2
     2.45914382E-01    2     1000022         6   # BR(~t_1 -> ~chi_10 t )
     2.52952508E-01    2     1000023         6   # BR(~t_1 -> ~chi_20 t )
     1.22802992E-01    2     1000025         6   # BR(~t_1 -> ~chi_30 t )
     1.39006784E-01    2     1000024         5   # BR(~t_1 -> ~chi_1+ b )
     2.39287900E-01    2     1000037         5   # BR(~t_1 -> ~chi_2+ b )
     3.54339957E-05    2     1000005        24   # BR(~t_1 -> ~b_1    W+)
#
#         PDG            Width
DECAY   2000006     9.40971900E+01   # stop2 decays
#          BR         NDA      ID1       ID2
     2.44218793E-01    2     1000022         6   # BR(~t_2 -> ~chi_10 t )
     2.51180541E-01    2     1000023         6   # BR(~t_2 -> ~chi_20 t )
     4.35887154E-03    2     1000025         6   # BR(~t_2 -> ~chi_30 t )
     4.69542348E-01    2     1000024         5   # BR(~t_2 -> ~chi_1+ b )
     8.03385779E-03    2     1000037         5   # BR(~t_2 -> ~chi_2+ b )
     5.75789204E-03    2     1000006        25   # BR(~t_2 -> ~t_1    h )
     6.25593398E-03    2     1000006        23   # BR(~t_2 -> ~t_1    Z )
     6.08754232E-06    2     1000005        24   # BR(~t_2 -> ~b_1    W+)
     1.06456754E-02    2     2000005        24   # BR(~t_2 -> ~b_2    W+)
#
#         PDG            Width
DECAY   1000005     1.55625186E+01   # sbottom1 decays
#          BR         NDA      ID1       ID2
     2.54573473E-01    2     1000022         5   # BR(~b_1 -> ~chi_10 b )
     2.47920431E-01    2     1000023         5   # BR(~b_1 -> ~chi_20 b )
     4.57421677E-05    2     1000025         5   # BR(~b_1 -> ~chi_30 b )
     4.97369689E-01    2    -1000024         6   # BR(~b_1 -> ~chi_1- t )
     9.06645977E-05    2    -1000037         6   # BR(~b_1 -> ~chi_2- t )
#
#         PDG            Width
DECAY   2000005     8.50924581E+01   # sbottom2 decays
#          BR         NDA      ID1       ID2
     6.21046744E-02    2     1000022         5   # BR(~b_2 -> ~chi_10 b )
     6.02786686E-02    2     1000023         5   # BR(~b_2 -> ~chi_20 b )
     1.21566556E-01    2     1000025         5   # BR(~b_2 -> ~chi_30 b )
     5.05826914E-01    2    -1000024         6   # BR(~b_2 -> ~chi_1- t )
     2.50179703E-01    2    -1000037         6   # BR(~b_2 -> ~chi_2- t )
     2.23937755E-05    2     1000005        25   # BR(~b_2 -> ~b_1    h )
     2.10899617E-05    2     1000005        23   # BR(~b_2 -> ~b_1    Z )
#
#         PDG            Width
DECAY   1000002     5.00530071E+01   # sup_L decays
#          BR         NDA      ID1       ID2
     1.13291972E-03    2     1000022         2   # BR(~u_L -> ~chi_10 u)
     5.58804072E-04    2     1000023         2   # BR(~u_L -> ~chi_20 u)
     2.61165239E-01    2     1000025         2   # BR(~u_L -> ~chi_30 u)
     8.67608944E-06    2     1000035         2   # BR(~u_L -> ~chi_40 u)
     6.98926786E-03    2     1000024         1   # BR(~u_L -> ~chi_1+ d)
     5.19118104E-01    2     1000037         1   # BR(~u_L -> ~chi_2+ d)
     2.11026989E-01    2     1000021         2   # BR(~u_L -> ~g      u)
#
#         PDG            Width
DECAY   2000002     1.05467944E-03   # sup_R decays
#           BR         NDA      ID1       ID2
     2.29034513E-01    2     1000022         2   # BR(~u_R -> ~chi_10 u)
     2.10876656E-01    2     1000023         2   # BR(~u_R -> ~chi_20 u)
#           BR         NDA      ID1       ID2       ID3
     2.36792330E-02    3        2       -1        2000001   # BR(~u_R -> u  db  ~d_R)
     1.74811412E-01    3        2       1        -2000001   # BR(~u_R -> u  d  ~d_R*)
     2.40300504E-02    3        2       -3        2000003   # BR(~u_R -> u  sb  ~s_R)
     1.73521919E-01    3        2       3        -2000003   # BR(~u_R -> u  s  ~s_R*)
     1.65339339E-02    3        2       -11        1000011   # BR(~u_R -> u  e+  ~e_L-)
     1.17931569E-03    3        2       11        -1000011   # BR(~u_R -> u  e-  ~e_L+)
     8.66414924E-05    3        2       -11        2000011   # BR(~u_R -> u  e+  ~e_R-)
     7.21792781E-04    3        2       11        -2000011   # BR(~u_R -> u  e-  ~e_R+)
     1.65310895E-02    3        2       -12        1000012   # BR(~u_R -> u  nu_eb  ~nu_eL)
     1.02524043E-03    3        2       12        -1000012   # BR(~u_R -> u  nu_e  ~nu_eL*)
     1.63205989E-02    3        2       -13        1000013   # BR(~u_R -> u  mu+  ~mu_L-)
     1.16793782E-03    3        2       13        -1000013   # BR(~u_R -> u  mu-  ~mu_L+)
     8.61882741E-05    3        2       -13        2000013   # BR(~u_R -> u  mu+  ~mu_R-)
     7.24912211E-04    3        2       13        -2000013   # BR(~u_R -> u  mu-  ~mu_R+)
     1.60285670E-02    3        2       -14        1000014   # BR(~u_R -> u  nu_mub  ~nu_muL)
     1.03604941E-03    3        2       14        -1000014   # BR(~u_R -> u  nu_mu  ~nu_muL*)
     1.78547144E-03    3        2       -15        1000015   # BR(~u_R -> u  tau+  ~tau_1-)
     2.24513718E-02    3        2       15        -1000015   # BR(~u_R -> u  tau-  ~tau_1+)
     8.42483481E-03    3        2       23        1000022   # BR(~u_R -> u  Z  ~chi_10)
     8.10578052E-03    3        2       25        1000022   # BR(~u_R -> u  h  ~chi_10)
     1.34931996E-04    3        2       35        1000022   # BR(~u_R -> u  H  ~chi_10)
     4.43480725E-05    3        2       36        1000022   # BR(~u_R -> u  A  ~chi_10)
     1.02628340E-02    3        2       23        1000023   # BR(~u_R -> u  Z  ~chi_20)
     6.50301863E-03    3        2       25        1000023   # BR(~u_R -> u  h  ~chi_20)
     4.12798416E-05    3        2       35        1000023   # BR(~u_R -> u  H  ~chi_20)
     1.26853712E-04    3        2       36        1000023   # BR(~u_R -> u  A  ~chi_20)
     1.27754458E-06    3        2       23        1000025   # BR(~u_R -> u  Z  ~chi_30)
     1.87431360E-05    3        2       25        1000025   # BR(~u_R -> u  h  ~chi_30)
     1.50102482E-03    3        2       -24        1000024   # BR(~u_R -> u  W-  ~chi_1+)
     3.28516883E-02    3        2       24        -1000024   # BR(~u_R -> u  W+  ~chi_1-)
     2.73419573E-04    3        2       -37        1000024   # BR(~u_R -> u  H-  ~chi_1+)
     3.60981724E-05    3        2       37        -1000024   # BR(~u_R -> u  H+  ~chi_1-)
     1.84738598E-05    3        2       -24        1000037   # BR(~u_R -> u  W-  ~chi_2+)
     2.24987795E-05    3        2       24        -1000037   # BR(~u_R -> u  W+  ~chi_2-)
#
#         PDG            Width
DECAY   1000001     5.00447523E+01   # sdown_L decays
#          BR         NDA      ID1       ID2
     1.25218943E-03    2     1000022         1   # BR(~d_L -> ~chi_10 d)
     6.39929848E-04    2     1000023         1   # BR(~d_L -> ~chi_20 d)
     2.61026011E-01    2     1000025         1   # BR(~d_L -> ~chi_30 d)
     8.95235834E-06    2     1000035         1   # BR(~d_L -> ~chi_40 d)
     2.20675965E-04    2    -1000024         2   # BR(~d_L -> ~chi_1- u)
     5.25164553E-01    2    -1000037         2   # BR(~d_L -> ~chi_2- u)
     2.11687688E-01    2     1000021         1   # BR(~d_L -> ~g      d)
#
#         PDG            Width
DECAY   2000001     8.47457595E-05   # sdown_R decays
#           BR         NDA      ID1       ID2
     4.77819259E-01    2     1000022         1   # BR(~d_R -> ~chi_10 d)
     4.38714606E-01    2     1000023         1   # BR(~d_R -> ~chi_20 d)
#           BR         NDA      ID1       ID2       ID3
     7.89620630E-03    3        1       -11        1000011   # BR(~d_R -> d  e+  ~e_L-)
     3.32665613E-04    3        1       11        -1000011   # BR(~d_R -> d  e-  ~e_L+)
     7.79614230E-03    3        1       -12        1000012   # BR(~d_R -> d  nu_eb  ~nu_eL)
     2.19586208E-04    3        1       12        -1000012   # BR(~d_R -> d  nu_e  ~nu_eL*)
     7.78481430E-03    3        1       -13        1000013   # BR(~d_R -> d  mu+  ~mu_L-)
     3.34093413E-04    3        1       13        -1000013   # BR(~d_R -> d  mu-  ~mu_L+)
     7.71366029E-03    3        1       -14        1000014   # BR(~d_R -> d  nu_mub  ~nu_muL)
     2.17887008E-04    3        1       14        -1000014   # BR(~d_R -> d  nu_mu  ~nu_muL*)
     1.62025806E-04    3        1       -15        1000015   # BR(~d_R -> d  tau+  ~tau_1-)
     3.31827813E-03    3        1       15        -1000015   # BR(~d_R -> d  tau-  ~tau_1+)
     5.06975219E-03    3        1       23        1000022   # BR(~d_R -> d  Z  ~chi_10)
     5.66624221E-03    3        1       25        1000022   # BR(~d_R -> d  h  ~chi_10)
     6.13942223E-03    3        1       23        1000023   # BR(~d_R -> d  Z  ~chi_20)
     4.71787618E-03    3        1       25        1000023   # BR(~d_R -> d  h  ~chi_20)
     5.26881820E-04    3        1       -24        1000024   # BR(~d_R -> d  W-  ~chi_1+)
     2.55706010E-02    3        1       24        -1000024   # BR(~d_R -> d  W+  ~chi_1-)
#
#         PDG            Width
DECAY   1000004     4.90943261E+01   # scharm_L decays
#          BR         NDA      ID1       ID2
     1.21330459E-03    2     1000022         4   # BR(~c_L -> ~chi_10 c)
     5.98431856E-04    2     1000023         4   # BR(~c_L -> ~chi_20 c)
     2.78517986E-01    2     1000025         4   # BR(~c_L -> ~chi_30 c)
     8.06885486E-06    2     1000035         4   # BR(~c_L -> ~chi_40 c)
     7.48505586E-03    2     1000024         3   # BR(~c_L -> ~chi_1+ s)
     5.53609879E-01    2     1000037         3   # BR(~c_L -> ~chi_2+ s)
     1.58567274E-01    2     1000021         4   # BR(~c_L -> ~g      c)
#
#         PDG            Width
DECAY   2000004     1.04511152E-03   # scharm_R decays
#           BR         NDA      ID1       ID2
     2.26536980E-01    2     1000022         4   # BR(~c_R -> ~chi_10 c)
     2.08569203E-01    2     1000023         4   # BR(~c_R -> ~chi_20 c)
#           BR         NDA      ID1       ID2       ID3
     2.39677772E-02    3        4       -1        2000001   # BR(~c_R -> c  db  ~d_R)
     1.75397550E-01    3        4       1        -2000001   # BR(~c_R -> c  d  ~d_R*)
     2.41256550E-02    3        4       -3        2000003   # BR(~c_R -> c  sb  ~s_R)
     1.76316112E-01    3        4       3        -2000003   # BR(~c_R -> c  s  ~s_R*)
     1.66269338E-02    3        4       -11        1000011   # BR(~c_R -> c  e+  ~e_L-)
     1.18226617E-03    3        4       11        -1000011   # BR(~c_R -> c  e-  ~e_L+)
     8.61697515E-05    3        4       -11        2000011   # BR(~c_R -> c  e+  ~e_R-)
     7.25329294E-04    3        4       11        -2000011   # BR(~c_R -> c  e-  ~e_R+)
     1.63427535E-02    3        4       -12        1000012   # BR(~c_R -> c  nu_eb  ~nu_eL)
     1.04448184E-03    3        4       12        -1000012   # BR(~c_R -> c  nu_e  ~nu_eL*)
     1.64700127E-02    3        4       -13        1000013   # BR(~c_R -> c  mu+  ~mu_L-)
     1.17336761E-03    3        4       13        -1000013   # BR(~c_R -> c  mu-  ~mu_L+)
     8.66299896E-05    3        4       -13        2000013   # BR(~c_R -> c  mu+  ~mu_R-)
     7.31596566E-04    3        4       13        -2000013   # BR(~c_R -> c  mu-  ~mu_R+)
     1.61753074E-02    3        4       -14        1000014   # BR(~c_R -> c  nu_mub  ~nu_muL)
     1.05070127E-03    3        4       14        -1000014   # BR(~c_R -> c  nu_mu  ~nu_muL*)
     1.79033525E-03    3        4       -15        1000015   # BR(~c_R -> c  tau+  ~tau_1-)
     2.24071782E-02    3        4       15        -1000015   # BR(~c_R -> c  tau-  ~tau_1+)
     8.50148508E-03    3        4       23        1000022   # BR(~c_R -> c  Z  ~chi_10)
     8.18850413E-03    3        4       25        1000022   # BR(~c_R -> c  h  ~chi_10)
     1.37038008E-04    3        4       35        1000022   # BR(~c_R -> c  H  ~chi_10)
     4.47971333E-05    3        4       36        1000022   # BR(~c_R -> c  A  ~chi_10)
     1.04438615E-02    3        4       23        1000023   # BR(~c_R -> c  Z  ~chi_20)
     6.55087985E-03    3        4       25        1000023   # BR(~c_R -> c  h  ~chi_20)
     4.15505897E-05    3        4       35        1000023   # BR(~c_R -> c  H  ~chi_20)
     1.27039075E-04    3        4       36        1000023   # BR(~c_R -> c  A  ~chi_20)
     1.29096270E-06    3        4       23        1000025   # BR(~c_R -> c  Z  ~chi_30)
     1.88554041E-05    3        4       25        1000025   # BR(~c_R -> c  h  ~chi_30)
     1.53026731E-03    3        4       -24        1000024   # BR(~c_R -> c  W-  ~chi_1+)
     3.32538675E-02    3        4       24        -1000024   # BR(~c_R -> c  W+  ~chi_1-)
     2.76420262E-04    3        4       -37        1000024   # BR(~c_R -> c  H-  ~chi_1+)
     3.64927563E-05    3        4       37        -1000024   # BR(~c_R -> c  H+  ~chi_1-)
     1.85874901E-05    3        4       -24        1000037   # BR(~c_R -> c  W-  ~chi_2+)
     2.27229340E-05    3        4       24        -1000037   # BR(~c_R -> c  W+  ~chi_2-)
#
#         PDG            Width
DECAY   1000003     4.90747365E+01   # sstrange_L decays
#          BR         NDA      ID1       ID2
     1.34135482E-03    2     1000022         3   # BR(~s_L -> ~chi_10 s)
     6.85473146E-04    2     1000023         3   # BR(~s_L -> ~chi_20 s)
     2.78435506E-01    2     1000025         3   # BR(~s_L -> ~chi_30 s)
     8.33632216E-06    2     1000035         3   # BR(~s_L -> ~chi_40 s)
     2.36385658E-04    2    -1000024         4   # BR(~s_L -> ~chi_1- c)
     5.60190539E-01    2    -1000037         4   # BR(~s_L -> ~chi_2- c)
     1.59102406E-01    2     1000021         3   # BR(~s_L -> ~g      s)
#
#         PDG            Width
DECAY   2000003     8.18465417E-05   # sstrange_R decays
#           BR         NDA      ID1       ID2
     4.76330591E-01    2     1000022         3   # BR(~s_R -> ~chi_10 s)
     4.37332969E-01    2     1000023         3   # BR(~s_R -> ~chi_20 s)
#           BR         NDA      ID1       ID2       ID3
     8.17591050E-03    3        3       -11        1000011   # BR(~s_R -> s  e+  ~e_L-)
     3.44449496E-04    3        3       11        -1000011   # BR(~s_R -> s  e-  ~e_L+)
     8.07230197E-03    3        3       -12        1000012   # BR(~s_R -> s  nu_eb  ~nu_eL)
     2.27364524E-04    3        3       12        -1000012   # BR(~s_R -> s  nu_e  ~nu_eL*)
     8.06057270E-03    3        3       -13        1000013   # BR(~s_R -> s  mu+  ~mu_L-)
     3.45940090E-04    3        3       13        -1000013   # BR(~s_R -> s  mu-  ~mu_L+)
     7.98689824E-03    3        3       -14        1000014   # BR(~s_R -> s  nu_mub  ~nu_muL)
     2.27669974E-04    3        3       14        -1000014   # BR(~s_R -> s  nu_mu  ~nu_muL*)
     1.70074382E-04    3        3       -15        1000015   # BR(~s_R -> s  tau+  ~tau_1-)
     3.43582018E-03    3        3       15        -1000015   # BR(~s_R -> s  tau-  ~tau_1+)
     5.15977818E-03    3        3       23        1000022   # BR(~s_R -> s  Z  ~chi_10)
     5.86695528E-03    3        3       25        1000022   # BR(~s_R -> s  h  ~chi_10)
     6.35677439E-03    3        3       23        1000023   # BR(~s_R -> s  Z  ~chi_20)
     4.88499565E-03    3        3       25        1000023   # BR(~s_R -> s  h  ~chi_20)
     5.44555690E-04    3        3       -24        1000024   # BR(~s_R -> s  W-  ~chi_1+)
     2.64763783E-02    3        3       24        -1000024   # BR(~s_R -> s  W+  ~chi_1-)
#
#         PDG            Width
DECAY   1000011     4.24109489E-03   # selectron_L decays
#          BR         NDA      ID1       ID2
     6.02156627E-01    2     1000022        11   # BR(~e_L -> ~chi_10 e-)
     2.70797913E-01    2     1000023        11   # BR(~e_L -> ~chi_20 e-)
     1.27045460E-01    2    -1000024        12   # BR(~e_L -> ~chi_1- nu_e)
#
#         PDG            Width
DECAY   2000011     7.99039340E-04   # selectron_R decays
#           BR         NDA      ID1       ID2
     4.67530455E-01    2     1000022        11   # BR(~e_R -> ~chi_10 e-)
     4.29488924E-01    2     1000023        11   # BR(~e_R -> ~chi_20 e-)
#           BR         NDA      ID1       ID2       ID3
     5.99920400E-09    3        11       -1        2000001   # BR(~e_R- -> e-  db  ~d_R)
     7.29488488E-08    3        11       1        -2000001   # BR(~e_R- -> e-  d  ~d_R*)
     5.95953136E-09    3        11       -3        2000003   # BR(~e_R- -> e-  sb  ~s_R)
     7.47848035E-08    3        11       3        -2000003   # BR(~e_R- -> e-  s  ~s_R*)
     1.02684556E-02    3        11       -11        1000011   # BR(~e_R- -> e-  e+  ~e_L-)
     4.71503694E-04    3        11       11        -1000011   # BR(~e_R- -> e-  e-  ~e_L+)
     1.00201574E-02    3        11       -12        1000012   # BR(~e_R- -> e-  nu_eb  ~nu_eL)
     2.97519769E-04    3        11       12        -1000012   # BR(~e_R- -> e-  nu_e  ~nu_eL*)
     1.02075074E-02    3        11       -13        1000013   # BR(~e_R- -> e-  mu+  ~mu_L-)
     4.77585997E-04    3        11       13        -1000013   # BR(~e_R- -> e-  mu-  ~mu_L+)
     9.89175327E-03    3        11       -14        1000014   # BR(~e_R- -> e-  nu_mub  ~nu_muL)
     2.99459599E-04    3        11       14        -1000014   # BR(~e_R- -> e-  nu_mu  ~nu_muL*)
     2.87420141E-04    3        11       -15        1000015   # BR(~e_R- -> e-  tau+  ~tau_1-)
     5.50861489E-03    3        11       15        -1000015   # BR(~e_R- -> e-  tau-  ~tau_1+)
     5.36043695E-03    3        11       23        1000022   # BR(~e_R- -> e-  Z  ~chi_10)
     6.62195181E-03    3        11       25        1000022   # BR(~e_R- -> e-  h  ~chi_10)
     6.69941983E-03    3        11       23        1000023   # BR(~e_R- -> e-  Z  ~chi_20)
     5.50823943E-03    3        11       25        1000023   # BR(~e_R- -> e-  h  ~chi_20)
     7.21503900E-04    3        11       -24        1000024   # BR(~e_R- -> e-  W-  ~chi_1+)
     3.03389318E-02    3        11       24        -1000024   # BR(~e_R- -> e-  W+  ~chi_1-)
#
#         PDG            Width
DECAY   1000013     4.24109378E-03   # smuon_L decays
#          BR         NDA      ID1       ID2
     6.02156607E-01    2     1000022        13   # BR(~mu_L -> ~chi_10 mu-)
     2.70797899E-01    2     1000023        13   # BR(~mu_L -> ~chi_20 mu-)
     1.27045494E-01    2    -1000024        14   # BR(~mu_L -> ~chi_1- nu_mu)
#
#         PDG            Width
DECAY   2000013     7.98714757E-04   # smuon_R decays
#           BR         NDA      ID1       ID2
     4.67720442E-01    2     1000022        13   # BR(~mu_R -> ~chi_10 mu-)
     4.29663453E-01    2     1000023        13   # BR(~mu_R -> ~chi_20 mu-)
#           BR         NDA      ID1       ID2       ID3
     5.94041860E-09    3        13       -1        2000001   # BR(~mu_R- -> mu-  db  ~d_R)
     7.39387867E-08    3        13       1        -2000001   # BR(~mu_R- -> mu-  d  ~d_R*)
     5.85966387E-09    3        13       -3        2000003   # BR(~mu_R- -> mu-  sb  ~s_R)
     7.42467815E-08    3        13       3        -2000003   # BR(~mu_R- -> mu-  s  ~s_R*)
     1.02726285E-02    3        13       -11        1000011   # BR(~mu_R- -> mu-  e+  ~e_L-)
     4.77780080E-04    3        13       11        -1000011   # BR(~mu_R- -> mu-  e-  ~e_L+)
     1.00243546E-02    3        13       -12        1000012   # BR(~mu_R- -> mu-  nu_eb  ~nu_eL)
     2.97653196E-04    3        13       12        -1000012   # BR(~mu_R- -> mu-  nu_e  ~nu_eL*)
     1.02116556E-02    3        13       -13        1000013   # BR(~mu_R- -> mu-  mu+  ~mu_L-)
     4.77041393E-04    3        13       13        -1000013   # BR(~mu_R- -> mu-  mu-  ~mu_L+)
     9.89577309E-03    3        13       -14        1000014   # BR(~mu_R- -> mu-  nu_mub  ~nu_muL)
     3.00157219E-04    3        13       14        -1000014   # BR(~mu_R- -> mu-  nu_mu  ~nu_muL*)
     2.87536944E-04    3        13       -15        1000015   # BR(~mu_R- -> mu-  tau+  ~tau_1-)
     5.45163334E-03    3        13       15        -1000015   # BR(~mu_R- -> mu-  tau-  ~tau_1+)
     5.36261533E-03    3        13       23        1000022   # BR(~mu_R- -> mu-  Z  ~chi_10)
     6.57506319E-03    3        13       25        1000022   # BR(~mu_R- -> mu-  h  ~chi_10)
     6.70214235E-03    3        13       23        1000023   # BR(~mu_R- -> mu-  Z  ~chi_20)
     5.51047788E-03    3        13       25        1000023   # BR(~mu_R- -> mu-  h  ~chi_20)
     7.19906569E-04    3        13       -24        1000024   # BR(~mu_R- -> mu-  W-  ~chi_1+)
     3.00495262E-02    3        13       24        -1000024   # BR(~mu_R- -> mu-  W+  ~chi_1-)
#
#         PDG            Width
DECAY   1000015     1.86625415E+00   # stau_1 decays
#          BR         NDA      ID1       ID2
     2.55098068E-01    2     1000022        15   # BR(~tau_1 -> ~chi_10  tau-)
     2.44986740E-01    2     1000023        15   # BR(~tau_1 -> ~chi_20  tau-)
     4.99915192E-01    2    -1000024        16   # BR(~tau_1 -> ~chi_1-  nu_tau)
#
#         PDG            Width
DECAY   2000015     4.37413574E+01   # stau_2 decays
#          BR         NDA      ID1       ID2
     7.40367441E-02    2     1000022        15   # BR(~tau_2 -> ~chi_10  tau-)
     7.16786046E-02    2     1000023        15   # BR(~tau_2 -> ~chi_20  tau-)
     2.65804364E-01    2     1000025        15   # BR(~tau_2 -> ~chi_30  tau-)
     2.19765808E-04    2    -1000024        16   # BR(~tau_2 -> ~chi_1-  nu_tau)
     5.33751400E-01    2    -1000037        16   # BR(~tau_2 -> ~chi_2-  nu_tau)
     5.21327533E-04    2     1000015        25   # BR(~tau_2 -> ~tau_1   h)
     2.67361374E-02    2     1000015        35   # BR(~tau_2 -> ~tau_1   H)
     2.67418497E-02    2     1000015        36   # BR(~tau_2 -> ~tau_1   A)
     5.09807080E-04    2     1000015        23   # BR(~tau_2 -> ~tau_1   Z)
#
#         PDG            Width
DECAY   1000012     2.09011809E-02   # snu_eL decays
#          BR         NDA      ID1       ID2
     1.55182201E-01    2     1000022        12   # BR(~nu_eL -> ~chi_10 nu_e)
     7.74171194E-02    2     1000023        12   # BR(~nu_eL -> ~chi_20 nu_e)
     7.67400680E-01    2     1000024        11   # BR(~nu_eL -> ~chi_1+ e-)
#
#         PDG            Width
DECAY   1000014     2.09011756E-02   # snu_muL decays
#          BR         NDA      ID1       ID2
     1.55182240E-01    2     1000022        14   # BR(~nu_muL -> ~chi_10 nu_mu)
     7.74171391E-02    2     1000023        14   # BR(~nu_muL -> ~chi_20 nu_mu)
     7.67400621E-01    2     1000024        13   # BR(~nu_muL -> ~chi_1+ mu-)
#
#         PDG            Width
DECAY   1000016     4.37705207E+01   # snu_tauL decays
#          BR         NDA      ID1       ID2
     1.46525997E-03    2     1000022        16   # BR(~nu_tauL -> ~chi_10 nu_tau)
     7.72784050E-04    2     1000023        16   # BR(~nu_tauL -> ~chi_20 nu_tau)
     2.64740150E-01    2     1000025        16   # BR(~nu_tauL -> ~chi_30 nu_tau)
     1.51389974E-01    2     1000024        15   # BR(~nu_tauL -> ~chi_1+ tau-)
     5.27218829E-01    2     1000037        15   # BR(~nu_tauL -> ~chi_2+ tau-)
     5.34253755E-02    2    -1000015       -37   # BR(~nu_tauL -> ~tau_1+ H-)
     9.87627172E-04    2    -1000015       -24   # BR(~nu_tauL -> ~tau_1+ W-)
#
#         PDG            Width
DECAY   1000024     2.59939329E-10   # chargino1+ decays
#           BR         NDA      ID1       ID2       ID3
     3.67425064E-01    3     1000022         2        -1   # BR(~chi_1+ -> ~chi_10 u    db)
     3.67425064E-01    3     1000022         4        -3   # BR(~chi_1+ -> ~chi_10 c    sb)
     1.22537001E-01    3     1000022       -11        12   # BR(~chi_1+ -> ~chi_10 e+   nu_e)
     1.22537001E-01    3     1000022       -13        14   # BR(~chi_1+ -> ~chi_10 mu+  nu_mu)
     2.00758701E-02    3     1000022       -15        16   # BR(~chi_1+ -> ~chi_10 tau+ nu_tau)
#
#         PDG            Width
DECAY   1000037     2.15203225E+01   # chargino2+ decays
#          BR         NDA      ID1       ID2
     1.53441944E-01    2     1000012       -11   # BR(~chi_2+ -> ~nu_eL   e+  )
     1.53441944E-01    2     1000014       -13   # BR(~chi_2+ -> ~nu_muL mu+ )
     1.53185243E-01    2    -1000011        12   # BR(~chi_2+ -> ~e_L+    nu_e)
     1.53185243E-01    2    -1000013        14   # BR(~chi_2+ -> ~mu_L+   nu_mu)
     4.72259330E-06    2    -1000015        16   # BR(~chi_2+ -> ~tau_1+  nu_tau)
     9.86637763E-02    2     1000024        23   # BR(~chi_2+ -> ~chi_1+  Z )
     9.49089240E-02    2     1000022        24   # BR(~chi_2+ -> ~chi_10  W+)
     9.73632871E-02    2     1000023        24   # BR(~chi_2+ -> ~chi_20  W+)
     9.58049163E-02    2     1000024        25   # BR(~chi_2+ -> ~chi_1+  h )
#
#         PDG            Width
DECAY   1000022     0.00000000E+00   # neutralino1 decays
#
#         PDG            Width
DECAY   1000023     8.83435260E-09   # neutralino2 decays
#          BR         NDA      ID1       ID2
     4.06565706E-02    2     1000022        22   # BR(~chi_20 -> ~chi_10 gam)
#           BR         NDA      ID1       ID2       ID3
     1.22031633E-01    3     1000022        -2         2   # BR(~chi_20 -> ~chi_10 ub      u)
     1.58409803E-01    3     1000022        -1         1   # BR(~chi_20 -> ~chi_10 db      d)
     1.22031633E-01    3     1000022        -4         4   # BR(~chi_20 -> ~chi_10 cb      c)
     1.58409803E-01    3     1000022        -3         3   # BR(~chi_20 -> ~chi_10 sb      s)
     3.63855359E-02    3     1000022       -11        11   # BR(~chi_20 -> ~chi_10 e+      e-)
     3.63855359E-02    3     1000022       -13        13   # BR(~chi_20 -> ~chi_10 mu+     mu-)
     1.97676456E-02    3     1000022       -15        15   # BR(~chi_20 -> ~chi_10 tau+    tau-)
     7.28036912E-02    3     1000022       -12        12   # BR(~chi_20 -> ~chi_10 nu_eb   nu_e)
     7.28036912E-02    3     1000022       -14        14   # BR(~chi_20 -> ~chi_10 nu_mub  nu_mu)
     7.27745762E-02    3     1000022       -16        16   # BR(~chi_20 -> ~chi_10 nu_taub nu_tau)
     1.59703474E-02    3     1000024        -2         1   # BR(~chi_20 -> ~chi_1+ ub      d)
     1.59703474E-02    3    -1000024        -1         2   # BR(~chi_20 -> ~chi_1- db      u)
     1.59703474E-02    3     1000024        -4         3   # BR(~chi_20 -> ~chi_1+ cb      s)
     1.59703474E-02    3    -1000024        -3         4   # BR(~chi_20 -> ~chi_1- sb      c)
     5.32502093E-03    3     1000024       -12        11   # BR(~chi_20 -> ~chi_1+ nu_eb   e-)
     5.32502093E-03    3    -1000024        12       -11   # BR(~chi_20 -> ~chi_1- nu_e    e+)
     5.32502093E-03    3     1000024       -14        13   # BR(~chi_20 -> ~chi_1+ nu_mub  mu-)
     5.32502093E-03    3    -1000024        14       -13   # BR(~chi_20 -> ~chi_1- nu_mu   mu+)
     1.17920396E-03    3     1000024       -16        15   # BR(~chi_20 -> ~chi_1+ nu_taub tau-)
     1.17920396E-03    3    -1000024        16       -15   # BR(~chi_20 -> ~chi_1- nu_tau  tau+)
#
#         PDG            Width
DECAY   1000025     2.15149464E+01   # neutralino3 decays
#          BR         NDA      ID1       ID2
     3.21350389E-02    2     1000022        23   # BR(~chi_30 -> ~chi_10   Z )
     6.62005796E-02    2     1000023        23   # BR(~chi_30 -> ~chi_20   Z )
     9.74484000E-02    2     1000024       -24   # BR(~chi_30 -> ~chi_1+   W-)
     9.74484000E-02    2    -1000024        24   # BR(~chi_30 -> ~chi_1-   W+)
     6.26179601E-02    2     1000022        25   # BR(~chi_30 -> ~chi_10   h )
     3.08673816E-02    2     1000023        25   # BR(~chi_30 -> ~chi_20   h )
     3.31737554E-11    2     2000001        -1   # BR(~chi_30 -> ~d_R      db)
     3.31737554E-11    2    -2000001         1   # BR(~chi_30 -> ~d_R*     d )
     3.31737554E-11    2     2000003        -3   # BR(~chi_30 -> ~s _R      sb)
     3.31737554E-11    2    -2000003         3   # BR(~chi_30 -> ~s _R*     s )
     7.62713955E-02    2     1000011       -11   # BR(~chi_30 -> ~e_L-     e+)
     7.62713955E-02    2    -1000011        11   # BR(~chi_30 -> ~e_L+     e-)
     7.62713955E-02    2     1000013       -13   # BR(~chi_30 -> ~mu_L-    mu+)
     7.62713955E-02    2    -1000013        13   # BR(~chi_30 -> ~mu_L+    mu-)
     2.40544047E-06    2     1000015       -15   # BR(~chi_30 -> ~tau_1-   tau+)
     2.40544047E-06    2    -1000015        15   # BR(~chi_30 -> ~tau_1+   tau-)
     7.70479617E-02    2     1000012       -12   # BR(~chi_30 -> ~nu_eL    nu_eb)
     7.70479617E-02    2    -1000012        12   # BR(~chi_30 -> ~nu_eL*   nu_e )
     7.70479617E-02    2     1000014       -14   # BR(~chi_30 -> ~nu_muL   nu_mub)
     7.70479617E-02    2    -1000014        14   # BR(~chi_30 -> ~nu_muL*  nu_mu )
#
#         PDG            Width
DECAY   1000035     1.47239276E+02   # neutralino4 decays
#          BR         NDA      ID1       ID2
     7.79319831E-03    2     1000022        23   # BR(~chi_40 -> ~chi_10   Z )
     8.95319067E-03    2     1000023        23   # BR(~chi_40 -> ~chi_20   Z )
     7.54721502E-05    2     1000025        23   # BR(~chi_40 -> ~chi_30   Z )
     1.60058330E-02    2     1000024       -24   # BR(~chi_40 -> ~chi_1+   W-)
     1.60058330E-02    2    -1000024        24   # BR(~chi_40 -> ~chi_1-   W+)
     3.06314858E-04    2     1000037       -24   # BR(~chi_40 -> ~chi_2+   W-)
     3.06314858E-04    2    -1000037        24   # BR(~chi_40 -> ~chi_2-   W+)
     8.91896620E-03    2     1000022        25   # BR(~chi_40 -> ~chi_10   h )
     9.34151919E-03    2     1000022        35   # BR(~chi_40 -> ~chi_10   H )
     6.36168779E-03    2     1000022        36   # BR(~chi_40 -> ~chi_10   A )
     8.32404941E-03    2     1000023        25   # BR(~chi_40 -> ~chi_20   h )
     6.15979386E-03    2     1000023        35   # BR(~chi_40 -> ~chi_20   H )
     9.14353367E-03    2     1000023        36   # BR(~chi_40 -> ~chi_20   A )
     2.39140724E-04    2     1000025        25   # BR(~chi_40 -> ~chi_30   h )
     6.92922754E-06    2     1000025        35   # BR(~chi_40 -> ~chi_30   H )
     7.77217162E-07    2     1000025        36   # BR(~chi_40 -> ~chi_30   A )
     1.54475139E-02    2     1000024       -37   # BR(~chi_40 -> ~chi_1+   H-)
     1.54475139E-02    2    -1000024        37   # BR(~chi_40 -> ~chi_1-   H+)
     7.69890015E-06    2     1000037       -37   # BR(~chi_40 -> ~chi_2+   H-)
     7.69890015E-06    2    -1000037        37   # BR(~chi_40 -> ~chi_2-   H+)
     6.36413812E-02    2     2000002        -2   # BR(~chi_40 -> ~u_R      ub)
     6.36413812E-02    2    -2000002         2   # BR(~chi_40 -> ~u_R*     u )
     1.91706453E-02    2     2000001        -1   # BR(~chi_40 -> ~d_R      db)
     1.91706453E-02    2    -2000001         1   # BR(~chi_40 -> ~d_R*     d )
     6.36413762E-02    2     2000004        -4   # BR(~chi_40 -> ~c_R      cb)
     6.36413762E-02    2    -2000004         4   # BR(~chi_40 -> ~c_R*     c )
     1.91706453E-02    2     2000003        -3   # BR(~chi_40 -> ~s _R      sb)
     1.91706453E-02    2    -2000003         3   # BR(~chi_40 -> ~s _R*     s )
     1.93165402E-03    2     1000006        -6   # BR(~chi_40 -> ~t_1      tb)
     1.93165402E-03    2    -1000006         6   # BR(~chi_40 -> ~t_1*     t )
     4.27446895E-03    2     2000006        -6   # BR(~chi_40 -> ~t_2      tb)
     4.27446895E-03    2    -2000006         6   # BR(~chi_40 -> ~t_2*     t )
     8.39531328E-03    2     1000005        -5   # BR(~chi_40 -> ~b_1      bb)
     8.39531328E-03    2    -1000005         5   # BR(~chi_40 -> ~b_1*     b )
     5.59127145E-04    2     2000005        -5   # BR(~chi_40 -> ~b_2      bb)
     5.59127145E-04    2    -2000005         5   # BR(~chi_40 -> ~b_2*     b )
     1.72236439E-02    2     1000011       -11   # BR(~chi_40 -> ~e_L-     e+)
     1.72236439E-02    2    -1000011        11   # BR(~chi_40 -> ~e_L+     e-)
     5.90369338E-02    2     2000011       -11   # BR(~chi_40 -> ~e_R-     e+)
     5.90369338E-02    2    -2000011        11   # BR(~chi_40 -> ~e_R+     e-)
     1.72236439E-02    2     1000013       -13   # BR(~chi_40 -> ~mu_L-    mu+)
     1.72236439E-02    2    -1000013        13   # BR(~chi_40 -> ~mu_L+    mu-)
     5.90369338E-02    2     2000013       -13   # BR(~chi_40 -> ~mu_R-    mu+)
     5.90369338E-02    2    -2000013        13   # BR(~chi_40 -> ~mu_R+    mu-)
     6.64306025E-02    2     1000015       -15   # BR(~chi_40 -> ~tau_1-   tau+)
     6.64306025E-02    2    -1000015        15   # BR(~chi_40 -> ~tau_1+   tau-)
     6.37010325E-04    2     2000015       -15   # BR(~chi_40 -> ~tau_2-   tau+)
     6.37010325E-04    2    -2000015        15   # BR(~chi_40 -> ~tau_2+   tau-)
     1.72788890E-02    2     1000012       -12   # BR(~chi_40 -> ~nu_eL    nu_eb)
     1.72788890E-02    2    -1000012        12   # BR(~chi_40 -> ~nu_eL*   nu_e )
     1.72788890E-02    2     1000014       -14   # BR(~chi_40 -> ~nu_muL   nu_mub)
     1.72788890E-02    2    -1000014        14   # BR(~chi_40 -> ~nu_muL*  nu_mu )
     6.42352441E-04    2     1000016       -16   # BR(~chi_40 -> ~nu_tau1  nu_taub)
     6.42352441E-04    2    -1000016        16   # BR(~chi_40 -> ~nu_tau1* nu_tau )
#
#         PDG            Width
DECAY        25     4.07152181E-03   # h decays
#          BR         NDA      ID1       ID2
     6.08434817E-01    2           5        -5   # BR(h -> b       bb     )
     6.62478655E-02    2         -15        15   # BR(h -> tau+    tau-   )
     2.34813902E-04    2         -13        13   # BR(h -> mu+     mu-    )
     2.56202909E-04    2           3        -3   # BR(h -> s       sb     )
     2.12463835E-02    2           4        -4   # BR(h -> c       cb     )
     7.75713182E-02    2          21        21   # BR(h -> g       g      )
     2.27152625E-03    2          22        22   # BR(h -> gam     gam    )
     1.48050021E-03    2          22        23   # BR(h -> Z       gam    )
     1.97737120E-01    2          24       -24   # BR(h -> W+      W-     )
     2.45194530E-02    2          23        23   # BR(h -> Z       Z      )
#
#         PDG            Width
DECAY        35     1.41959048E+01   # H decays
#          BR         NDA      ID1       ID2
     8.59017665E-01    2           5        -5   # BR(H -> b       bb     )
     1.30089476E-01    2         -15        15   # BR(H -> tau+    tau-   )
     4.88629508E-04    2         -13        13   # BR(H -> mu+     mu-    )
     3.50367278E-04    2           3        -3   # BR(H -> s       sb     )
     4.01283598E-08    2           4        -4   # BR(H -> c       cb     )
     3.52843789E-03    2           6        -6   # BR(H -> t       tb     )
     7.81669438E-05    2          21        21   # BR(H -> g       g      )
     2.62416766E-08    2          22        22   # BR(H -> gam     gam    )
     3.06703063E-08    2          23        22   # BR(H -> Z       gam    )
     1.26210149E-05    2          24       -24   # BR(H -> W+      W-     )
     6.23259126E-06    2          23        23   # BR(H -> Z       Z      )
     5.15095308E-05    2          25        25   # BR(H -> h       h      )
     4.86498420E-03    2     1000024  -1000024   # BR(H -> ~chi_1+ ~chi_1-)
     1.02607825E-03    2     1000022   1000022   # BR(H -> ~chi_10 ~chi_10)
     4.49035444E-04    2     1000023   1000023   # BR(H -> ~chi_20 ~chi_20)
     2.48986148E-05    2     1000022   1000023   # BR(H -> ~chi_10 ~chi_20)
     1.34937293E-06    2     1000011  -1000011   # BR(H -> ~e_L-   ~e_L+  )
     1.34937293E-06    2     1000013  -1000013   # BR(H -> ~mu_L-  ~mu_L+ )
     4.55134894E-06    2     1000012  -1000012   # BR(H -> ~nu_eL  ~nu_eL*   )
     4.55134894E-06    2     1000014  -1000014   # BR(H -> ~nu_muL ~nu_muL*  )
#
#         PDG            Width
DECAY        36     1.42207632E+01   # A decays
#          BR         NDA      ID1       ID2
     8.57586433E-01    2           5        -5   # BR(A -> b       bb     )
     1.29867042E-01    2         -15        15   # BR(A -> tau+    tau-   )
     4.87787163E-04    2         -13        13   # BR(A -> mu+     mu-    )
     3.49793315E-04    2           3        -3   # BR(A -> s       sb     )
     3.86621183E-08    2           4        -4   # BR(A -> c       cb     )
     3.70895298E-03    2           6        -6   # BR(A -> t       tb     )
     1.38220438E-04    2          21        21   # BR(A -> g       g      )
     4.39380234E-08    2          22        22   # BR(A -> gam     gam    )
     5.78885348E-08    2          23        22   # BR(A -> Z       gam    )
     1.23937745E-05    2          23        25   # BR(A -> Z       h      )
     6.01445643E-03    2     1000024  -1000024   # BR(A -> ~chi_1+ ~chi_1-)
     1.12863622E-03    2     1000022   1000022   # BR(A -> ~chi_10 ~chi_10)
     6.57647918E-04    2     1000023   1000023   # BR(A -> ~chi_20 ~chi_20)
     4.84964191E-05    2     1000022   1000023   # BR(A -> ~chi_10 ~chi_20)
#
#         PDG            Width
DECAY        37     1.38188047E+01   # H+ decays
#          BR         NDA      ID1       ID2
     1.47229405E-03    2           4        -5   # BR(H+ -> c       bb     )
     1.34088140E-01    2         -15        16   # BR(H+ -> tau+    nu_tau )
     5.03641798E-04    2         -13        14   # BR(H+ -> mu+     nu_mu  )
     1.47228008E-05    2           2        -5   # BR(H+ -> u       bb     )
     1.79851387E-05    2           2        -3   # BR(H+ -> u       sb     )
     3.54039601E-04    2           4        -3   # BR(H+ -> c       sb     )
     8.62301324E-01    2           6        -5   # BR(H+ -> t       bb     )
     1.29632062E-05    2          24        25   # BR(H+ -> W+      h      )
     3.84720755E-11    2          24        36   # BR(H+ -> W+      A      )
     3.78728117E-04    2     1000024   1000022   # BR(H+ -> ~chi_1+ ~chi_10)
     8.45281960E-04    2     1000024   1000023   # BR(H+ -> ~chi_1+ ~chi_20)
     5.43978029E-06    2    -1000011   1000012   # BR(H+ -> ~e_L+   ~nu_eL )
     5.43978029E-06    2    -1000013   1000014   # BR(H+ -> ~mu_L+  ~nu_muL)
