#
#                              ======================
#                              | THE SUSYHIT OUTPUT |
#                              ======================
#
#
#              ------------------------------------------------------
#              |     This is the output of the SUSY-HIT package     |
#              |  created by A.Djouadi, M.Muehlleitner and M.Spira. |
#              |  In case of problems with SUSY-HIT email to        |
#              |           margarete.muehlleitner@cern.ch           |
#              |           michael.spira@psi.ch                     |
#              |           abdelhak.djouadi@cern.ch                 |
#              ------------------------------------------------------
#
#              ------------------------------------------------------
#              |  SUSY Les Houches Accord - MSSM Spectrum + Decays  |
#              |              based on the decay programs           |
#              |                                                    |
#              |                     SDECAY 1.3b                    |
#              |                                                    |
#              |  Authors: M.Muhlleitner, A.Djouadi and Y.Mambrini  |
#              |  Ref.:    Comput.Phys.Commun.168(2005)46           |
#              |           [hep-ph/0311167]                         |
#              |                                                    |
#              |                     HDECAY 3.4                     |
#              |                                                    |
#              |  By: A.Djouadi,J.Kalinowski,M.Muhlleitner,M.Spira  |
#              |  Ref.:    Comput.Phys.Commun.108(1998)56           |
#              |           [hep-ph/9704448]                         |
#              |                                                    |
#              |                                                    |
#              |  If not stated otherwise all DRbar couplings and   |
#              |  soft SUSY breaking masses are given at the scale  |
#              |  Q=  0.22679930E+04
#              |                                                    |
#              ------------------------------------------------------
#
#
BLOCK DCINFO  # Decay Program information
     1   SDECAY/HDECAY # decay calculator
     2   1.3b  /3.4    # version number
#
BLOCK SPINFO  # Spectrum calculator information
     1     SOFTSUSY    # spectrum calculator               
     2     3.4.0       # version number                    
#
BLOCK MODSEL  # Model selection
     1     0   #  nonUniversal                                     
#
BLOCK SMINPUTS  # Standard Model inputs
         1     1.27908970E+02   # alpha_em^-1(M_Z)^MSbar
         2     1.16637870E-05   # G_F [GeV^-2]
         3     1.18400000E-01   # alpha_S(M_Z)^MSbar
         4     9.11876000E+01   # M_Z pole mass
         5     4.18000000E+00   # mb(mb)^MSbar
         6     1.73200000E+02   # mt pole mass
         7     1.77700000E+00   # mtau pole mass
#
BLOCK MINPAR  # Input parameters - minimal models
         3     2.62900000E+01   # tanb                
#
BLOCK EXTPAR  # Input parameters - non-minimal models
         0    -1.00000000E+00   # Set                 
         1     3.08320000E+03   # M_1(MX)             
         2    -2.75952000E+03   # M_2(MX)             
         3     4.56900000E+02   # M_3(MX)             
        11    -3.12752000E+03   # At(MX)              
        12    -2.16474000E+03   # Ab(MX)              
        13     3.70544000E+03   # Atau(MX)            
        23    -1.69300000E+02   # mu(MX)              
        26     2.80710000E+03   # mA(pole)            
        31     3.82990000E+02   # meL(MX)             
        32     3.82990000E+02   # mmuL(MX)            
        33     3.62871000E+03   # mtauL(MX)           
        34     2.06668000E+03   # meR(MX)             
        35     2.06668000E+03   # mmuR(MX)            
        36     2.32454000E+03   # mtauR(MX)           
        41     2.84067000E+03   # mqL1(MX)            
        42     2.84067000E+03   # mqL2(MX)            
        43     2.31726000E+03   # mqL3(MX)            
        44     1.73100000E+03   # muR(MX)             
        45     1.73100000E+03   # mcR(MX)             
        46     2.22013000E+03   # mtR(MX)             
        47     1.45866000E+03   # mdR(MX)             
        48     1.45866000E+03   # msR(MX)             
        49     1.55535000E+03   # mbR(MX)             
#
BLOCK MASS  # Mass Spectrum
# PDG code           mass       particle
        24     8.03959986E+01   # W+
        25     1.25365246E+02   # h
        35     2.80711343E+03   # H
        36     2.80709997E+03   # A
        37     2.80857038E+03   # H+
         5     4.81876030E+00   # b-quark pole mass calculated from mb(mb)_Msbar
   1000001     2.88381192E+03   # ~d_L
   2000001     1.47813416E+03   # ~d_R
   1000002     2.88284903E+03   # ~u_L
   2000002     1.75507913E+03   # ~u_R
   1000003     2.88381192E+03   # ~s_L
   2000003     1.47813416E+03   # ~s_R
   1000004     2.88284903E+03   # ~c_L
   2000004     1.75507913E+03   # ~c_R
   1000005     1.56774323E+03   # ~b_1
   2000005     2.32179973E+03   # ~b_2
   1000006     2.13670604E+03   # ~t_1
   2000006     2.37422997E+03   # ~t_2
   1000011     4.39978006E+02   # ~e_L
   2000011     2.07418687E+03   # ~e_R
   1000012     4.32576724E+02   # ~nu_eL
   1000013     4.39978006E+02   # ~mu_L
   2000013     2.07418687E+03   # ~mu_R
   1000014     4.32576724E+02   # ~nu_muL
   1000015     2.33054581E+03   # ~tau_1
   2000015     3.64026779E+03   # ~tau_2
   1000016     3.63907410E+03   # ~nu_tauL
   1000021     5.83521684E+02   # ~g
   1000022    -1.76717761E+02   # ~chi_10
   1000023     1.77954714E+02   # ~chi_20
   1000025    -2.76930669E+03   # ~chi_30
   1000035     3.04041516E+03   # ~chi_40
   1000024     1.77470494E+02   # ~chi_1+
   1000037     2.76947338E+03   # ~chi_2+
#
BLOCK NMIX  # Neutralino Mixing Matrix
  1  1     1.00534964E-02   # N_11
  1  2     2.21397177E-02   # N_12
  1  3     7.08274839E-01   # N_13
  1  4    -7.05517904E-01   # N_14
  2  1    -1.04872989E-02   # N_21
  2  2    -1.81300111E-02   # N_22
  2  3     7.05930845E-01   # N_23
  2  4     7.07971017E-01   # N_24
  3  1    -2.24241208E-04   # N_31
  3  2     9.99590466E-01   # N_32
  3  3    -2.88359867E-03   # N_33
  3  4     2.84698884E-02   # N_34
  4  1     9.99894441E-01   # N_41
  4  2    -1.88586952E-04   # N_42
  4  3     2.82052416E-04   # N_43
  4  4     1.45255428E-02   # N_44
#
BLOCK UMIX  # Chargino Mixing Matrix U
  1  1     4.07847723E-03   # U_11
  1  2     9.99991683E-01   # U_12
  2  1    -9.99991683E-01   # U_21
  2  2     4.07847723E-03   # U_22
#
BLOCK VMIX  # Chargino Mixing Matrix V
  1  1    -4.02684816E-02   # V_11
  1  2    -9.99188896E-01   # V_12
  2  1     9.99188896E-01   # V_21
  2  2    -4.02684816E-02   # V_22
#
BLOCK STOPMIX  # Stop Mixing Matrix
  1  1     4.61034557E-01   # cos(theta_t)
  1  2     8.87382182E-01   # sin(theta_t)
  2  1    -8.87382182E-01   # -sin(theta_t)
  2  2     4.61034557E-01   # cos(theta_t)
#
BLOCK SBOTMIX  # Sbottom Mixing Matrix
  1  1    -1.65314695E-03   # cos(theta_b)
  1  2     9.99998634E-01   # sin(theta_b)
  2  1    -9.99998634E-01   # -sin(theta_b)
  2  2    -1.65314695E-03   # cos(theta_b)
#
BLOCK STAUMIX  # Stau Mixing Matrix
  1  1    -1.83644310E-03   # cos(theta_tau)
  1  2     9.99998314E-01   # sin(theta_tau)
  2  1    -9.99998314E-01   # -sin(theta_tau)
  2  2    -1.83644310E-03   # cos(theta_tau)
#
BLOCK ALPHA  # Higgs mixing
          -3.95403605E-02   # Mixing angle in the neutral Higgs boson sector
#
BLOCK HMIX Q=  2.26799300E+03  # DRbar Higgs Parameters
         1    -1.72074357E+02   # mu(Q)MSSM           
         2     2.53565180E+01   # tan                 
         3     2.43216743E+02   # higgs               
         4     7.88658616E+06   # mA^2(Q)MSSM         
#
BLOCK GAUGE Q=  2.26799300E+03  # The gauge couplings
     1     3.64751310E-01   # gprime(Q) DRbar
     2     6.38449267E-01   # g(Q) DRbar
     3     1.04716007E+00   # g3(Q) DRbar
#
BLOCK AU Q=  2.26799300E+03  # The trilinear couplings
  1  1     0.00000000E+00   # A_u(Q) DRbar
  2  2     0.00000000E+00   # A_c(Q) DRbar
  3  3    -3.12752000E+03   # A_t(Q) DRbar
#
BLOCK AD Q=  2.26799300E+03  # The trilinear couplings
  1  1     0.00000000E+00   # A_d(Q) DRbar
  2  2     0.00000000E+00   # A_s(Q) DRbar
  3  3    -2.16474000E+03   # A_b(Q) DRbar
#
BLOCK AE Q=  2.26799300E+03  # The trilinear couplings
  1  1     0.00000000E+00   # A_e(Q) DRbar
  2  2     0.00000000E+00   # A_mu(Q) DRbar
  3  3     3.70544000E+03   # A_tau(Q) DRbar
#
BLOCK Yu Q=  2.26799300E+03  # The Yukawa couplings
  1  1     0.00000000E+00   # y_u(Q) DRbar
  2  2     0.00000000E+00   # y_c(Q) DRbar
  3  3     8.29285215E-01   # y_t(Q) DRbar
#
BLOCK Yd Q=  2.26799300E+03  # The Yukawa couplings
  1  1     0.00000000E+00   # y_d(Q) DRbar
  2  2     0.00000000E+00   # y_s(Q) DRbar
  3  3     3.43981113E-01   # y_b(Q) DRbar
#
BLOCK Ye Q=  2.26799300E+03  # The Yukawa couplings
  1  1     0.00000000E+00   # y_e(Q) DRbar
  2  2     0.00000000E+00   # y_mu(Q) DRbar
  3  3     2.60382451E-01   # y_tau(Q) DRbar
#
BLOCK MSOFT Q=  2.26799300E+03  # The soft SUSY breaking masses at the scale Q
         1     3.08320000E+03   # M_1(Q)              
         2    -2.75952000E+03   # M_2(Q)              
         3     4.56900000E+02   # M_3(Q)              
        21     7.80420160E+06   # mH1^2(Q)            
        22     7.21753073E+04   # mH2^2(Q)            
        31     3.82990000E+02   # meL(Q)              
        32     3.82990000E+02   # mmuL(Q)             
        33     3.62871000E+03   # mtauL(Q)            
        34     2.06668000E+03   # meR(Q)              
        35     2.06668000E+03   # mmuR(Q)             
        36     2.32454000E+03   # mtauR(Q)            
        41     2.84067000E+03   # mqL1(Q)             
        42     2.84067000E+03   # mqL2(Q)             
        43     2.31726000E+03   # mqL3(Q)             
        44     1.73100000E+03   # muR(Q)              
        45     1.73100000E+03   # mcR(Q)              
        46     2.22013000E+03   # mtR(Q)              
        47     1.45866000E+03   # mdR(Q)              
        48     1.45866000E+03   # msR(Q)              
        49     1.55535000E+03   # mbR(Q)              
#
Block HiggsBoundsInputHiggsCouplingsFermions
# ScalarNormEffCoupSq PseudoSNormEffCoupSq NP   IP1 IP2 IP2
    1.00625738E+00    0.00000000E+00        3  25   5   5  # h0-b-b eff. coupling^2, normalised to SM
    6.42946748E+02    0.00000000E+00        3  35   5   5  # H0-b-b eff. coupling^2, normalised to SM
    0.00000000E+00    6.42953005E+02        3  36   5   5  # A0-b-b eff. coupling^2, normalised to SM
#
    9.99990268E-01    0.00000000E+00        3  25   6   6  # h0-t-t eff. coupling^2, normalised to SM
    1.56505588E-03    0.00000000E+00        3  35   6   6  # H0-t-t eff. coupling^2, normalised to SM
    0.00000000E+00    1.55532363E-03        3  36   6   6  # A0-t-t eff. coupling^2, normalised to SM
#
    1.00625738E+00    0.00000000E+00        3  25  15  15  # h0-tau-tau eff. coupling^2, normalised to SM
    6.42946748E+02    0.00000000E+00        3  35  15  15  # H0-tau-tau eff. coupling^2, normalised to SM
    0.00000000E+00    6.42953005E+02        3  36  15  15  # A0-tau-tau eff. coupling^2, normalised to SM
#
Block HiggsBoundsInputHiggsCouplingsBosons
    9.99999985E-01        3  25  24  24  # h0-W-W eff. coupling^2, normalised to SM
    1.51772455E-08        3  35  24  24  # H0-W-W eff. coupling^2, normalised to SM
    0.00000000E+00        3  36  24  24  # A0-W-W eff. coupling^2, normalised to SM
#
    9.99999985E-01        3  25  23  23  # h0-Z-Z eff. coupling^2, normalised to SM
    1.51772455E-08        3  35  23  23  # H0-Z-Z eff. coupling^2, normalised to SM
    0.00000000E+00        3  36  23  23  # A0-Z-Z eff. coupling^2, normalised to SM
#
    8.89211604E-01        3  25  21  21  # h0-g-g eff. coupling^2, normalised to SM
    1.20229937E-13        3  35  21  21  # H0-g-g eff. coupling^2, normalised to SM
    3.14342258E-12        3  36  21  21  # A0-g-g eff. coupling^2, normalised to SM
#
    0.00000000E+00        3  25  25  23  # h0-h0-Z eff. coupling^2, normalised to SM
    0.00000000E+00        3  35  25  23  # H0-h0-Z eff. coupling^2, normalised to SM
    1.51772455E-08        3  36  25  23  # A0-h0-Z eff. coupling^2, normalised to SM
    0.00000000E+00        3  35  35  23  # H0-H0-Z eff. coupling^2, normalised to SM
    9.99999985E-01        3  36  35  23  # A0-H0-Z eff. coupling^2, normalised to SM
    0.00000000E+00        3  36  36  23  # A0-A0-Z eff. coupling^2, normalised to SM
#
    0.00000000E+00        4  25  21  21  23  # h0-g-g-Z eff. coupling^2, normalised to SM
    0.00000000E+00        4  35  21  21  23  # H0-g-g-Z eff. coupling^2, normalised to SM
    0.00000000E+00        4  36  21  21  23  # A0-g-g-Z eff. coupling^2, normalised to SM
#
#
#
#                             =================
#                             |The decay table|
#                             =================
#
# - The QCD corrections to the decays gluino -> squark  + quark
#                                     squark -> gaugino + quark_prime
#                                     squark -> squark_prime + Higgs
#                                     squark -> gluino  + quark
#   are included.
#
# - The multi-body decays for the inos, stops and sbottoms are included.
#
# - The loop induced decays for the gluino, neutralinos and stops
#   are included.
#
# - The SUSY decays of the top quark are included.
#
#
#         PDG            Width
DECAY         6     1.43529666E+00   # top decays
#          BR         NDA      ID1       ID2
     1.00000000E+00    2           5        24   # BR(t ->  b    W+)
#
#         PDG            Width
DECAY   1000021     4.16473249E-05   # gluino decays
#          BR         NDA      ID1       ID2
     8.80568888E-02    2     1000022        21   # BR(~g -> ~chi_10 g)
     1.08789225E-01    2     1000023        21   # BR(~g -> ~chi_20 g)
#           BR         NDA      ID1       ID2       ID3
     1.21225850E-05    3     1000022         1        -1   # BR(~g -> ~chi_10 d  db)
     2.07487485E-05    3     1000023         1        -1   # BR(~g -> ~chi_20 d  db)
     1.93904494E-05    3     1000022         2        -2   # BR(~g -> ~chi_10 u  ub)
     3.61012159E-05    3     1000023         2        -2   # BR(~g -> ~chi_20 u  ub)
     1.21225850E-05    3     1000022         3        -3   # BR(~g -> ~chi_10 s  sb)
     2.07487485E-05    3     1000023         3        -3   # BR(~g -> ~chi_20 s  sb)
     1.93904494E-05    3     1000022         4        -4   # BR(~g -> ~chi_10 c  cb)
     3.61012159E-05    3     1000023         4        -4   # BR(~g -> ~chi_20 c  cb)
     1.76796885E-01    3     1000022         5        -5   # BR(~g -> ~chi_10 b  bb)
     1.74011363E-01    3     1000023         5        -5   # BR(~g -> ~chi_20 b  bb)
     9.08677707E-03    3     1000022         6        -6   # BR(~g -> ~chi_10 t  tb)
     2.27820562E-02    3     1000023         6        -6   # BR(~g -> ~chi_20 t  tb)
     4.45021667E-05    3     1000024         1        -2   # BR(~g -> ~chi_1+ d  ub)
     4.45021667E-05    3    -1000024         2        -1   # BR(~g -> ~chi_1- u  db)
     4.45021667E-05    3     1000024         3        -4   # BR(~g -> ~chi_1+ s  cb)
     4.45021667E-05    3    -1000024         4        -3   # BR(~g -> ~chi_1- c  sb)
     2.10061035E-01    3     1000024         5        -6   # BR(~g -> ~chi_1+ b  tb)
     2.10061035E-01    3    -1000024         6        -5   # BR(~g -> ~chi_1- t  bb)
#
#         PDG            Width
DECAY   1000006     1.60119566E+02   # stop1 decays
#          BR         NDA      ID1       ID2
     8.85262501E-02    2     1000022         6   # BR(~t_1 -> ~chi_10 t )
     8.73726801E-02    2     1000023         6   # BR(~t_1 -> ~chi_20 t )
     1.43639454E-01    2     1000024         5   # BR(~t_1 -> ~chi_1+ b )
     6.80459498E-01    2     1000021         6   # BR(~t_1 -> ~g      t )
     2.11773838E-06    2     1000005        24   # BR(~t_1 -> ~b_1    W+)
#
#         PDG            Width
DECAY   2000006     1.66152480E+02   # stop2 decays
#          BR         NDA      ID1       ID2
     9.53335707E-02    2     1000022         6   # BR(~t_2 -> ~chi_10 t )
     9.74936483E-02    2     1000023         6   # BR(~t_2 -> ~chi_20 t )
     0.00000000E+00    2     1000025         6   # BR(~t_2 -> ~chi_30 t )
     7.22412373E-02    2     1000024         5   # BR(~t_2 -> ~chi_1+ b )
     7.02282504E-01    2     1000021         6   # BR(~t_2 -> ~g      t )
     9.07276896E-03    2     1000006        25   # BR(~t_2 -> ~t_1    h )
     2.35570655E-02    2     1000006        23   # BR(~t_2 -> ~t_1    Z )
     1.92047584E-05    2     1000005        24   # BR(~t_2 -> ~b_1    W+)
#
#         PDG            Width
DECAY   1000005     7.47827734E+01   # sbottom1 decays
#          BR         NDA      ID1       ID2
     2.41340202E-02    2     1000022         5   # BR(~b_1 -> ~chi_10 b )
     2.39619206E-02    2     1000023         5   # BR(~b_1 -> ~chi_20 b )
     4.68858705E-02    2    -1000024         6   # BR(~b_1 -> ~chi_1- t )
     9.05018189E-01    2     1000021         5   # BR(~b_1 -> ~g      b )
#
#         PDG            Width
DECAY   2000005     1.59318950E+02   # sbottom2 decays
#          BR         NDA      ID1       ID2
     1.70320202E-02    2     1000022         5   # BR(~b_2 -> ~chi_10 b )
     1.69111732E-02    2     1000023         5   # BR(~b_2 -> ~chi_20 b )
     1.94524013E-01    2    -1000024         6   # BR(~b_2 -> ~chi_1- t )
     7.44059241E-01    2     1000021         5   # BR(~b_2 -> ~g      b )
     1.26825912E-05    2     1000005        25   # BR(~b_2 -> ~b_1    h )
     1.09283826E-05    2     1000005        23   # BR(~b_2 -> ~b_1    Z )
     2.74499415E-02    2     1000006       -24   # BR(~b_2 -> ~t_1    W-)
#
#         PDG            Width
DECAY   1000002     1.93872403E+02   # sup_L decays
#          BR         NDA      ID1       ID2
     3.35750978E-05    2     1000022         2   # BR(~u_L -> ~chi_10 u)
     2.35046080E-05    2     1000023         2   # BR(~u_L -> ~chi_20 u)
     3.73360728E-04    2     1000025         2   # BR(~u_L -> ~chi_30 u)
     1.88176723E-04    2     1000024         1   # BR(~u_L -> ~chi_1+ d)
     7.44087254E-04    2     1000037         1   # BR(~u_L -> ~chi_2+ d)
     9.98637296E-01    2     1000021         2   # BR(~u_L -> ~g      u)
#
#         PDG            Width
DECAY   2000002     1.01388957E+02   # sup_R decays
#          BR         NDA      ID1       ID2
     3.90321310E-06    2     1000022         2   # BR(~u_R -> ~chi_10 u)
     4.24611947E-06    2     1000023         2   # BR(~u_R -> ~chi_20 u)
     9.99991851E-01    2     1000021         2   # BR(~u_R -> ~g      u)
#
#         PDG            Width
DECAY   1000001     1.93912194E+02   # sdown_L decays
#          BR         NDA      ID1       ID2
     2.37397323E-05    2     1000022         1   # BR(~d_L -> ~chi_10 d)
     1.51031744E-05    2     1000023         1   # BR(~d_L -> ~chi_20 d)
     3.79322505E-04    2     1000025         1   # BR(~d_L -> ~chi_30 d)
     1.93058939E-06    2    -1000024         2   # BR(~d_L -> ~chi_1- u)
     7.57072859E-04    2    -1000037         2   # BR(~d_L -> ~chi_2- u)
     9.98822831E-01    2     1000021         1   # BR(~d_L -> ~g      d)
#
#         PDG            Width
DECAY   2000001     7.69129557E+01   # sdown_R decays
#          BR         NDA      ID1       ID2
     1.07276188E-06    2     1000022         1   # BR(~d_R -> ~chi_10 d)
     1.16686988E-06    2     1000023         1   # BR(~d_R -> ~chi_20 d)
     9.99997760E-01    2     1000021         1   # BR(~d_R -> ~g      d)
#
#         PDG            Width
DECAY   1000004     1.54502280E+02   # scharm_L decays
#          BR         NDA      ID1       ID2
     4.34464094E-05    2     1000022         4   # BR(~c_L -> ~chi_10 c)
     3.04150911E-05    2     1000023         4   # BR(~c_L -> ~chi_20 c)
     4.50669835E-04    2     1000025         4   # BR(~c_L -> ~chi_30 c)
     2.43501957E-04    2     1000024         3   # BR(~c_L -> ~chi_1+ s)
     8.98189880E-04    2     1000037         3   # BR(~c_L -> ~chi_2+ s)
     9.98333777E-01    2     1000021         4   # BR(~c_L -> ~g      c)
#
#         PDG            Width
DECAY   2000004     8.07752614E+01   # scharm_R decays
#          BR         NDA      ID1       ID2
     5.06258768E-06    2     1000022         4   # BR(~c_R -> ~chi_10 c)
     5.50732380E-06    2     1000023         4   # BR(~c_R -> ~chi_20 c)
     9.99989430E-01    2     1000021         4   # BR(~c_R -> ~g      c)
#
#         PDG            Width
DECAY   1000003     1.54525470E+02   # sstrange_L decays
#          BR         NDA      ID1       ID2
     3.07210681E-05    2     1000022         3   # BR(~s_L -> ~chi_10 s)
     1.95446651E-05    2     1000023         3   # BR(~s_L -> ~chi_20 s)
     4.58099926E-04    2     1000025         3   # BR(~s_L -> ~chi_30 s)
     2.49833097E-06    2    -1000024         4   # BR(~s_L -> ~chi_1- c)
     9.14154038E-04    2    -1000037         4   # BR(~s_L -> ~chi_2- c)
     9.98574982E-01    2     1000021         3   # BR(~s_L -> ~g      s)
#
#         PDG            Width
DECAY   2000003     6.12755144E+01   # sstrange_R decays
#          BR         NDA      ID1       ID2
     1.39337465E-06    2     1000022         3   # BR(~s_R -> ~chi_10 s)
     1.51559788E-06    2     1000023         3   # BR(~s_R -> ~chi_20 s)
     9.99997091E-01    2     1000021         3   # BR(~s_R -> ~g      s)
#
#         PDG            Width
DECAY   1000011     1.74334429E-03   # selectron_L decays
#          BR         NDA      ID1       ID2
     5.59602524E-01    2     1000022        11   # BR(~e_L -> ~chi_10 e-)
     4.16531022E-01    2     1000023        11   # BR(~e_L -> ~chi_20 e-)
     2.38664541E-02    2    -1000024        12   # BR(~e_L -> ~chi_1- nu_e)
#
#         PDG            Width
DECAY   2000011     4.39172837E-03   # selectron_R decays
#           BR         NDA      ID1       ID2
     2.49042014E-01    2     1000022        11   # BR(~e_R -> ~chi_10 e-)
     2.70942062E-01    2     1000023        11   # BR(~e_R -> ~chi_20 e-)
#           BR         NDA      ID1       ID2       ID3
     4.22772049E-04    3        11       -1        2000001   # BR(~e_R- -> e-  db  ~d_R)
     1.20997920E-03    3        11       1        -2000001   # BR(~e_R- -> e-  d  ~d_R*)
     1.08217075E-04    3        11       -2        2000002   # BR(~e_R- -> e-  ub  ~u_R)
     2.72831081E-04    3        11       2        -2000002   # BR(~e_R- -> e-  u  ~u_R*)
     4.25003516E-04    3        11       -3        2000003   # BR(~e_R- -> e-  sb  ~s_R)
     1.23482136E-03    3        11       3        -2000003   # BR(~e_R- -> e-  s  ~s_R*)
     1.08727125E-04    3        11       -4        2000004   # BR(~e_R- -> e-  cb  ~c_R)
     2.71259946E-04    3        11       4        -2000004   # BR(~e_R- -> e-  c  ~c_R*)
     2.12943498E-04    3        11       -5        1000005   # BR(~e_R- -> e-  bb  ~b_1)
     5.81092405E-04    3        11       5        -1000005   # BR(~e_R- -> e-  b  ~b_1*)
     5.57661994E-02    3        11       -11        1000011   # BR(~e_R- -> e-  e+  ~e_L-)
     1.00766706E-02    3        11       11        -1000011   # BR(~e_R- -> e-  e-  ~e_L+)
     5.72826866E-02    3        11       -12        1000012   # BR(~e_R- -> e-  nu_eb  ~nu_eL)
     1.02315071E-02    3        11       12        -1000012   # BR(~e_R- -> e-  nu_e  ~nu_eL*)
     5.54155402E-02    3        11       -13        1000013   # BR(~e_R- -> e-  mu+  ~mu_L-)
     1.00245271E-02    3        11       13        -1000013   # BR(~e_R- -> e-  mu-  ~mu_L+)
     5.65722602E-02    3        11       -14        1000014   # BR(~e_R- -> e-  nu_mub  ~nu_muL)
     1.02991342E-02    3        11       14        -1000014   # BR(~e_R- -> e-  nu_mu  ~nu_muL*)
     2.84808143E-02    3        11       23        1000022   # BR(~e_R- -> e-  Z  ~chi_10)
     2.16101708E-02    3        11       25        1000022   # BR(~e_R- -> e-  h  ~chi_10)
     2.25888287E-02    3        11       23        1000023   # BR(~e_R- -> e-  Z  ~chi_20)
     2.80413517E-02    3        11       25        1000023   # BR(~e_R- -> e-  h  ~chi_20)
     1.33856184E-02    3        11       -24        1000024   # BR(~e_R- -> e-  W-  ~chi_1+)
     9.53929671E-02    3        11       24        -1000024   # BR(~e_R- -> e-  W+  ~chi_1-)
#
#         PDG            Width
DECAY   1000013     1.74334401E-03   # smuon_L decays
#          BR         NDA      ID1       ID2
     5.59602522E-01    2     1000022        13   # BR(~mu_L -> ~chi_10 mu-)
     4.16531020E-01    2     1000023        13   # BR(~mu_L -> ~chi_20 mu-)
     2.38664580E-02    2    -1000024        14   # BR(~mu_L -> ~chi_1- nu_mu)
#
#         PDG            Width
DECAY   2000013     4.39168556E-03   # smuon_R decays
#           BR         NDA      ID1       ID2
     2.49044440E-01    2     1000022        13   # BR(~mu_R -> ~chi_10 mu-)
     2.70944703E-01    2     1000023        13   # BR(~mu_R -> ~chi_20 mu-)
#           BR         NDA      ID1       ID2       ID3
     4.22776170E-04    3        13       -1        2000001   # BR(~mu_R- -> mu-  db  ~d_R)
     1.20999100E-03    3        13       1        -2000001   # BR(~mu_R- -> mu-  d  ~d_R*)
     1.07421170E-04    3        13       -2        2000002   # BR(~mu_R- -> mu-  ub  ~u_R)
     2.75292933E-04    3        13       2        -2000002   # BR(~mu_R- -> mu-  u  ~u_R*)
     4.25007659E-04    3        13       -3        2000003   # BR(~mu_R- -> mu-  sb  ~s_R)
     1.23483340E-03    3        13       3        -2000003   # BR(~mu_R- -> mu-  s  ~s_R*)
     1.08728185E-04    3        13       -4        2000004   # BR(~mu_R- -> mu-  cb  ~c_R)
     2.71922929E-04    3        13       4        -2000004   # BR(~mu_R- -> mu-  c  ~c_R*)
     2.12945573E-04    3        13       -5        1000005   # BR(~mu_R- -> mu-  bb  ~b_1)
     5.81098069E-04    3        13       5        -1000005   # BR(~mu_R- -> mu-  b  ~b_1*)
     5.57667430E-02    3        13       -11        1000011   # BR(~mu_R- -> mu-  e+  ~e_L-)
     1.00246248E-02    3        13       11        -1000011   # BR(~mu_R- -> mu-  e-  ~e_L+)
     5.72832450E-02    3        13       -12        1000012   # BR(~mu_R- -> mu-  nu_eb  ~nu_eL)
     1.02316068E-02    3        13       12        -1000012   # BR(~mu_R- -> mu-  nu_e  ~nu_eL*)
     5.54160804E-02    3        13       -13        1000013   # BR(~mu_R- -> mu-  mu+  ~mu_L-)
     1.00767688E-02    3        13       13        -1000013   # BR(~mu_R- -> mu-  mu-  ~mu_L+)
     5.65728116E-02    3        13       -14        1000014   # BR(~mu_R- -> mu-  nu_mub  ~nu_muL)
     1.02992346E-02    3        13       14        -1000014   # BR(~mu_R- -> mu-  nu_mu  ~nu_muL*)
     2.84810919E-02    3        13       23        1000022   # BR(~mu_R- -> mu-  Z  ~chi_10)
     2.16103814E-02    3        13       25        1000022   # BR(~mu_R- -> mu-  h  ~chi_10)
     2.25890489E-02    3        13       23        1000023   # BR(~mu_R- -> mu-  Z  ~chi_20)
     2.80051926E-02    3        13       25        1000023   # BR(~mu_R- -> mu-  h  ~chi_20)
     1.34101131E-02    3        13       -24        1000024   # BR(~mu_R- -> mu-  W-  ~chi_1+)
     9.53938970E-02    3        13       24        -1000024   # BR(~mu_R- -> mu-  W+  ~chi_1-)
#
#         PDG            Width
DECAY   1000015     6.21699757E+00   # stau_1 decays
#          BR         NDA      ID1       ID2
     2.50977618E-01    2     1000022        15   # BR(~tau_1 -> ~chi_10  tau-)
     2.49233772E-01    2     1000023        15   # BR(~tau_1 -> ~chi_20  tau-)
     4.99788610E-01    2    -1000024        16   # BR(~tau_1 -> ~chi_1-  nu_tau)
#
#         PDG            Width
DECAY   2000015     1.32226083E+01   # stau_2 decays
#          BR         NDA      ID1       ID2
     1.86241303E-01    2     1000022        15   # BR(~tau_2 -> ~chi_10  tau-)
     1.84834125E-01    2     1000023        15   # BR(~tau_2 -> ~chi_20  tau-)
     1.97892062E-01    2     1000025        15   # BR(~tau_2 -> ~chi_30  tau-)
     3.32920858E-02    2     1000035        15   # BR(~tau_2 -> ~chi_40  tau-)
     2.46316062E-05    2    -1000024        16   # BR(~tau_2 -> ~chi_1-  nu_tau)
     3.96070060E-01    2    -1000037        16   # BR(~tau_2 -> ~chi_2-  nu_tau)
     8.34247384E-04    2     1000015        25   # BR(~tau_2 -> ~tau_1   h)
     8.11484799E-04    2     1000015        23   # BR(~tau_2 -> ~tau_1   Z)
#
#         PDG            Width
DECAY   1000012     4.44015859E-03   # snu_eL decays
#          BR         NDA      ID1       ID2
     7.37055926E-02    2     1000022        12   # BR(~nu_eL -> ~chi_10 nu_e)
     4.01703142E-02    2     1000023        12   # BR(~nu_eL -> ~chi_20 nu_e)
     8.86124093E-01    2     1000024        11   # BR(~nu_eL -> ~chi_1+ e-)
#
#         PDG            Width
DECAY   1000014     4.44015792E-03   # snu_muL decays
#          BR         NDA      ID1       ID2
     7.37056038E-02    2     1000022        14   # BR(~nu_muL -> ~chi_10 nu_mu)
     4.01703204E-02    2     1000023        14   # BR(~nu_muL -> ~chi_20 nu_mu)
     8.86124076E-01    2     1000024        13   # BR(~nu_muL -> ~chi_1+ mu-)
#
#         PDG            Width
DECAY   1000016     1.32287876E+01   # snu_tauL decays
#          BR         NDA      ID1       ID2
     2.98437051E-04    2     1000022        16   # BR(~nu_tauL -> ~chi_10 nu_tau)
     1.63559773E-04    2     1000023        16   # BR(~nu_tauL -> ~chi_20 nu_tau)
     1.97477945E-01    2     1000025        16   # BR(~nu_tauL -> ~chi_30 nu_tau)
     3.32079138E-02    2     1000035        16   # BR(~nu_tauL -> ~chi_40 nu_tau)
     3.72870640E-01    2     1000024        15   # BR(~nu_tauL -> ~chi_1+ tau-)
     3.94409138E-01    2     1000037        15   # BR(~nu_tauL -> ~chi_2+ tau-)
     1.57236634E-03    2    -1000015       -24   # BR(~nu_tauL -> ~tau_1+ W-)
#
#         PDG            Width
DECAY   1000024     9.42789520E-13   # chargino1+ decays
#           BR         NDA      ID1       ID2       ID3
     1.48939530E-01    3     1000022       -11        12   # BR(~chi_1+ -> ~chi_10 e+   nu_e)
     1.35311520E-01    3     1000022       -13        14   # BR(~chi_1+ -> ~chi_10 mu+  nu_mu)
     6.61477080E-01    2     1000022       211             # BR(~chi_1+ -> ~chi_10 pi+)
     5.39814420E-02    3     1000022       211        111   # BR(~chi_1+ -> ~chi_10 pi+ pi0)
     1.45212530E-04    4     1000022       211        111       111 # BR(~chi_1+ -> ~chi_10 pi+ pi0 pi0)
     1.45212530E-04    4     1000022       211        211      -211 # BR(~chi_1+ -> ~chi_10 pi+ pi+ pi-)
#
#         PDG            Width
DECAY   1000037     7.04877673E+01   # chargino2+ decays
#          BR         NDA      ID1       ID2
     2.01310128E-02    2     1000006        -5   # BR(~chi_2+ -> ~t_1     bb)
     2.49784486E-02    2     2000006        -5   # BR(~chi_2+ -> ~t_2     bb)
     7.04326162E-08    2    -1000005         6   # BR(~chi_2+ -> ~b_1*    t )
     3.78007935E-02    2    -2000005         6   # BR(~chi_2+ -> ~b_2*    t )
     1.51383330E-01    2     1000012       -11   # BR(~chi_2+ -> ~nu_eL   e+  )
     1.51383330E-01    2     1000014       -13   # BR(~chi_2+ -> ~nu_muL mu+ )
     1.51365074E-01    2    -1000011        12   # BR(~chi_2+ -> ~e_L+    nu_e)
     1.51365074E-01    2    -1000013        14   # BR(~chi_2+ -> ~mu_L+   nu_mu)
     4.06517556E-10    2    -1000015        16   # BR(~chi_2+ -> ~tau_1+  nu_tau)
     7.87113377E-02    2     1000024        23   # BR(~chi_2+ -> ~chi_1+  Z )
     7.61898219E-02    2     1000022        24   # BR(~chi_2+ -> ~chi_10  W+)
     7.67018848E-02    2     1000023        24   # BR(~chi_2+ -> ~chi_20  W+)
     7.99898219E-02    2     1000024        25   # BR(~chi_2+ -> ~chi_1+  h )
#
#         PDG            Width
DECAY   1000022     0.00000000E+00   # neutralino1 decays
#
#         PDG            Width
DECAY   1000023     5.24014036E-12   # neutralino2 decays
#          BR         NDA      ID1       ID2
     6.03996848E-01    2     1000022        22   # BR(~chi_20 -> ~chi_10 gam)
#           BR         NDA      ID1       ID2       ID3
     6.50801814E-02    3     1000022        -2         2   # BR(~chi_20 -> ~chi_10 ub      u)
     8.44755936E-02    3     1000022        -1         1   # BR(~chi_20 -> ~chi_10 db      d)
     8.44755936E-02    3     1000022        -3         3   # BR(~chi_20 -> ~chi_10 sb      s)
     1.94040565E-02    3     1000022       -11        11   # BR(~chi_20 -> ~chi_10 e+      e-)
     1.94040565E-02    3     1000022       -13        13   # BR(~chi_20 -> ~chi_10 mu+     mu-)
     3.88012408E-02    3     1000022       -12        12   # BR(~chi_20 -> ~chi_10 nu_eb   nu_e)
     3.88012408E-02    3     1000022       -14        14   # BR(~chi_20 -> ~chi_10 nu_mub  nu_mu)
     3.88006259E-02    3     1000022       -16        16   # BR(~chi_20 -> ~chi_10 nu_taub nu_tau)
     2.02815592E-03    3     1000024        -2         1   # BR(~chi_20 -> ~chi_1+ ub      d)
     2.02815592E-03    3    -1000024        -1         2   # BR(~chi_20 -> ~chi_1- db      u)
     6.76062746E-04    3     1000024       -12        11   # BR(~chi_20 -> ~chi_1+ nu_eb   e-)
     6.76062746E-04    3    -1000024        12       -11   # BR(~chi_20 -> ~chi_1- nu_e    e+)
     6.76062746E-04    3     1000024       -14        13   # BR(~chi_20 -> ~chi_1+ nu_mub  mu-)
     6.76062746E-04    3    -1000024        14       -13   # BR(~chi_20 -> ~chi_1- nu_mu   mu+)
#
#         PDG            Width
DECAY   1000025     7.04745029E+01   # neutralino3 decays
#          BR         NDA      ID1       ID2
     3.13557019E-02    2     1000022        23   # BR(~chi_30 -> ~chi_10   Z )
     4.73807118E-02    2     1000023        23   # BR(~chi_30 -> ~chi_20   Z )
     7.64876757E-02    2     1000024       -24   # BR(~chi_30 -> ~chi_1+   W-)
     7.64876757E-02    2    -1000024        24   # BR(~chi_30 -> ~chi_1-   W+)
     4.79620389E-02    2     1000022        25   # BR(~chi_30 -> ~chi_10   h )
     3.18832449E-02    2     1000023        25   # BR(~chi_30 -> ~chi_20   h )
     2.42461385E-09    2     2000002        -2   # BR(~chi_30 -> ~u_R      ub)
     2.42461385E-09    2    -2000002         2   # BR(~chi_30 -> ~u_R*     u )
     8.64274523E-10    2     2000001        -1   # BR(~chi_30 -> ~d_R      db)
     8.64274523E-10    2    -2000001         1   # BR(~chi_30 -> ~d_R*     d )
     2.42461198E-09    2     2000004        -4   # BR(~chi_30 -> ~c_R      cb)
     2.42461198E-09    2    -2000004         4   # BR(~chi_30 -> ~c_R*     c )
     8.64274523E-10    2     2000003        -3   # BR(~chi_30 -> ~s _R      sb)
     8.64274523E-10    2    -2000003         3   # BR(~chi_30 -> ~s _R*     s )
     9.50893776E-03    2     1000006        -6   # BR(~chi_30 -> ~t_1      tb)
     9.50893776E-03    2    -1000006         6   # BR(~chi_30 -> ~t_1*     t )
     1.08519741E-02    2     2000006        -6   # BR(~chi_30 -> ~t_2      tb)
     1.08519741E-02    2    -2000006         6   # BR(~chi_30 -> ~t_2*     t )
     3.34165004E-08    2     1000005        -5   # BR(~chi_30 -> ~b_1      bb)
     3.34165004E-08    2    -1000005         5   # BR(~chi_30 -> ~b_1*     b )
     2.10748755E-02    2     2000005        -5   # BR(~chi_30 -> ~b_2      bb)
     2.10748755E-02    2    -2000005         5   # BR(~chi_30 -> ~b_2*     b )
     7.56116429E-02    2     1000011       -11   # BR(~chi_30 -> ~e_L-     e+)
     7.56116429E-02    2    -1000011        11   # BR(~chi_30 -> ~e_L+     e-)
     1.00796703E-09    2     2000011       -11   # BR(~chi_30 -> ~e_R-     e+)
     1.00796703E-09    2    -2000011        11   # BR(~chi_30 -> ~e_R+     e-)
     7.56116429E-02    2     1000013       -13   # BR(~chi_30 -> ~mu_L-    mu+)
     7.56116429E-02    2    -1000013        13   # BR(~chi_30 -> ~mu_L+    mu-)
     1.00796703E-09    2     2000013       -13   # BR(~chi_30 -> ~mu_R-    mu+)
     1.00796703E-09    2    -2000013        13   # BR(~chi_30 -> ~mu_R+    mu-)
     6.38592855E-10    2     1000015       -15   # BR(~chi_30 -> ~tau_1-   tau+)
     6.38592855E-10    2    -1000015        15   # BR(~chi_30 -> ~tau_1+   tau-)
     7.57811798E-02    2     1000012       -12   # BR(~chi_30 -> ~nu_eL    nu_eb)
     7.57811798E-02    2    -1000012        12   # BR(~chi_30 -> ~nu_eL*   nu_e )
     7.57811798E-02    2     1000014       -14   # BR(~chi_30 -> ~nu_muL   nu_mub)
     7.57811798E-02    2    -1000014        14   # BR(~chi_30 -> ~nu_muL*  nu_mu )
#
#         PDG            Width
DECAY   1000035     6.78229847E+01   # neutralino4 decays
#          BR         NDA      ID1       ID2
     1.44759844E-02    2     1000022        23   # BR(~chi_40 -> ~chi_10   Z )
     1.34935023E-02    2     1000023        23   # BR(~chi_40 -> ~chi_20   Z )
     9.50900602E-08    2     1000025        23   # BR(~chi_40 -> ~chi_30   Z )
     2.71512178E-02    2     1000024       -24   # BR(~chi_40 -> ~chi_1+   W-)
     2.71512178E-02    2    -1000024        24   # BR(~chi_40 -> ~chi_1-   W+)
     9.70128342E-08    2     1000037       -24   # BR(~chi_40 -> ~chi_2+   W-)
     9.70128342E-08    2    -1000037        24   # BR(~chi_40 -> ~chi_2-   W+)
     1.40608975E-02    2     1000022        25   # BR(~chi_40 -> ~chi_10   h )
     4.58476099E-05    2     1000022        35   # BR(~chi_40 -> ~chi_10   H )
     4.13229751E-04    2     1000022        36   # BR(~chi_40 -> ~chi_10   A )
     1.52655598E-02    2     1000023        25   # BR(~chi_40 -> ~chi_20   h )
     4.08154588E-04    2     1000023        35   # BR(~chi_40 -> ~chi_20   H )
     4.41220425E-05    2     1000023        36   # BR(~chi_40 -> ~chi_20   A )
     2.84902369E-10    2     1000025        25   # BR(~chi_40 -> ~chi_30   h )
     4.45441404E-04    2     1000024       -37   # BR(~chi_40 -> ~chi_1+   H-)
     4.45441404E-04    2    -1000024        37   # BR(~chi_40 -> ~chi_1-   H+)
     1.03306783E-04    2     1000002        -2   # BR(~chi_40 -> ~u_L      ub)
     1.03306783E-04    2    -1000002         2   # BR(~chi_40 -> ~u_L*     u )
     6.82044057E-02    2     2000002        -2   # BR(~chi_40 -> ~u_R      ub)
     6.82044057E-02    2    -2000002         2   # BR(~chi_40 -> ~u_R*     u )
     1.02512500E-04    2     1000001        -1   # BR(~chi_40 -> ~d_L      db)
     1.02512500E-04    2    -1000001         1   # BR(~chi_40 -> ~d_L*     d )
     2.23470395E-02    2     2000001        -1   # BR(~chi_40 -> ~d_R      db)
     2.23470395E-02    2    -2000001         1   # BR(~chi_40 -> ~d_R*     d )
     1.03301870E-04    2     1000004        -4   # BR(~chi_40 -> ~c_L      cb)
     1.03301870E-04    2    -1000004         4   # BR(~chi_40 -> ~c_L*     c )
     6.82043765E-02    2     2000004        -4   # BR(~chi_40 -> ~c_R      cb)
     6.82043765E-02    2    -2000004         4   # BR(~chi_40 -> ~c_R*     c )
     1.02512500E-04    2     1000003        -3   # BR(~chi_40 -> ~s _L      sb)
     1.02512500E-04    2    -1000003         3   # BR(~chi_40 -> ~s _L*     s )
     2.23470395E-02    2     2000003        -3   # BR(~chi_40 -> ~s _R      sb)
     2.23470395E-02    2    -2000003         3   # BR(~chi_40 -> ~s _R*     s )
     2.89357574E-02    2     1000006        -6   # BR(~chi_40 -> ~t_1      tb)
     2.89357574E-02    2    -1000006         6   # BR(~chi_40 -> ~t_1*     t )
     8.03806215E-03    2     2000006        -6   # BR(~chi_40 -> ~t_2      tb)
     8.03806215E-03    2    -2000006         6   # BR(~chi_40 -> ~t_2*     t )
     2.13107206E-02    2     1000005        -5   # BR(~chi_40 -> ~b_1      bb)
     2.13107206E-02    2    -1000005         5   # BR(~chi_40 -> ~b_1*     b )
     1.72126438E-03    2     2000005        -5   # BR(~chi_40 -> ~b_2      bb)
     1.72126438E-03    2    -2000005         5   # BR(~chi_40 -> ~b_2*     b )
     2.84092101E-02    2     1000011       -11   # BR(~chi_40 -> ~e_L-     e+)
     2.84092101E-02    2    -1000011        11   # BR(~chi_40 -> ~e_L+     e-)
     3.39031303E-02    2     2000011       -11   # BR(~chi_40 -> ~e_R-     e+)
     3.39031303E-02    2    -2000011        11   # BR(~chi_40 -> ~e_R+     e-)
     2.84092101E-02    2     1000013       -13   # BR(~chi_40 -> ~mu_L-    mu+)
     2.84092101E-02    2    -1000013        13   # BR(~chi_40 -> ~mu_L+    mu-)
     3.39031303E-02    2     2000013       -13   # BR(~chi_40 -> ~mu_R-    mu+)
     3.39031303E-02    2    -2000013        13   # BR(~chi_40 -> ~mu_R+    mu-)
     2.01798453E-02    2     1000015       -15   # BR(~chi_40 -> ~tau_1-   tau+)
     2.01798453E-02    2    -1000015        15   # BR(~chi_40 -> ~tau_1+   tau-)
     2.84873609E-02    2     1000012       -12   # BR(~chi_40 -> ~nu_eL    nu_eb)
     2.84873609E-02    2    -1000012        12   # BR(~chi_40 -> ~nu_eL*   nu_e )
     2.84873609E-02    2     1000014       -14   # BR(~chi_40 -> ~nu_muL   nu_mub)
     2.84873609E-02    2    -1000014        14   # BR(~chi_40 -> ~nu_muL*  nu_mu )
#
#         PDG            Width
DECAY        25     4.07447498E-03   # h decays
#          BR         NDA      ID1       ID2
     5.89807910E-01    2           5        -5   # BR(h -> b       bb     )
     6.40871332E-02    2         -15        15   # BR(h -> tau+    tau-   )
     2.26825751E-04    2         -13        13   # BR(h -> mu+     mu-    )
     2.47487207E-04    2           3        -3   # BR(h -> s       sb     )
     2.13358093E-02    2           4        -4   # BR(h -> c       cb     )
     7.90088533E-02    2          21        21   # BR(h -> g       g      )
     2.33643172E-03    2          22        22   # BR(h -> gam     gam    )
     1.58407984E-03    2          22        23   # BR(h -> Z       gam    )
     2.14420140E-01    2          24       -24   # BR(h -> W+      W-     )
     2.69453297E-02    2          23        23   # BR(h -> Z       Z      )
#
#         PDG            Width
DECAY        35     2.43677328E+01   # H decays
#          BR         NDA      ID1       ID2
     8.37603316E-01    2           5        -5   # BR(H -> b       bb     )
     1.52417557E-01    2         -15        15   # BR(H -> tau+    tau-   )
     5.25537330E-04    2         -13        13   # BR(H -> mu+     mu-    )
     3.48839483E-04    2           3        -3   # BR(H -> s       sb     )
     7.46472658E-08    2           4        -4   # BR(H -> c       cb     )
     7.32426448E-03    2           6        -6   # BR(H -> t       tb     )
     9.11602106E-06    2          21        21   # BR(H -> g       g      )
     2.24610670E-08    2          22        22   # BR(H -> gam     gam    )
     6.10301115E-09    2          23        22   # BR(H -> Z       gam    )
     4.42399408E-06    2          24       -24   # BR(H -> W+      W-     )
     2.20668774E-06    2          23        23   # BR(H -> Z       Z      )
     1.61249822E-05    2          25        25   # BR(H -> h       h      )
     1.53221145E-03    2     1000024  -1000024   # BR(H -> ~chi_1+ ~chi_1-)
     1.23860599E-04    2     1000022   1000022   # BR(H -> ~chi_10 ~chi_10)
     8.03766022E-05    2     1000023   1000023   # BR(H -> ~chi_20 ~chi_20)
     6.92993659E-06    2     1000022   1000023   # BR(H -> ~chi_10 ~chi_20)
     6.02815676E-07    2     1000011  -1000011   # BR(H -> ~e_L-   ~e_L+  )
     6.02815676E-07    2     1000013  -1000013   # BR(H -> ~mu_L-  ~mu_L+ )
     1.96319949E-06    2     1000012  -1000012   # BR(H -> ~nu_eL  ~nu_eL*   )
     1.96319949E-06    2     1000014  -1000014   # BR(H -> ~nu_muL ~nu_muL*  )
#
#         PDG            Width
DECAY        36     2.43712497E+01   # A decays
#          BR         NDA      ID1       ID2
     8.37525671E-01    2           5        -5   # BR(A -> b       bb     )
     1.52396565E-01    2         -15        15   # BR(A -> tau+    tau-   )
     5.25464172E-04    2         -13        13   # BR(A -> mu+     mu-    )
     3.48829214E-04    2           3        -3   # BR(A -> s       sb     )
     7.48582062E-08    2           4        -4   # BR(A -> c       cb     )
     7.35100899E-03    2           6        -6   # BR(A -> t       tb     )
     4.66045400E-05    2          21        21   # BR(A -> g       g      )
     7.98284307E-08    2          22        22   # BR(A -> gam     gam    )
     3.68999885E-08    2          23        22   # BR(A -> Z       gam    )
     4.47907604E-06    2          23        25   # BR(A -> Z       h      )
     1.58198339E-03    2     1000024  -1000024   # BR(A -> ~chi_1+ ~chi_1-)
     1.47299803E-04    2     1000022   1000022   # BR(A -> ~chi_10 ~chi_10)
     6.97043457E-05    2     1000023   1000023   # BR(A -> ~chi_20 ~chi_20)
     2.19919159E-06    2     1000022   1000023   # BR(A -> ~chi_10 ~chi_20)
#
#         PDG            Width
DECAY        37     2.40829807E+01   # H+ decays
#          BR         NDA      ID1       ID2
     1.40668717E-03    2           4        -5   # BR(H+ -> c       bb     )
     1.54301508E-01    2         -15        16   # BR(H+ -> tau+    nu_tau )
     5.32032427E-04    2         -13        14   # BR(H+ -> mu+     nu_mu  )
     1.40668518E-05    2           2        -5   # BR(H+ -> u       bb     )
     1.76571432E-05    2           2        -3   # BR(H+ -> u       sb     )
     3.47618815E-04    2           4        -3   # BR(H+ -> c       sb     )
     8.42727706E-01    2           6        -5   # BR(H+ -> t       bb     )
     4.54308063E-06    2          24        25   # BR(H+ -> W+      h      )
     3.75469630E-13    2          24        36   # BR(H+ -> W+      A      )
     2.67008291E-04    2     1000024   1000022   # BR(H+ -> ~chi_1+ ~chi_10)
     3.76391975E-04    2     1000024   1000023   # BR(H+ -> ~chi_1+ ~chi_20)
     2.38971264E-06    2    -1000011   1000012   # BR(H+ -> ~e_L+   ~nu_eL )
     2.38971264E-06    2    -1000013   1000014   # BR(H+ -> ~mu_L+  ~nu_muL)
