#
#                              ======================
#                              | THE SUSYHIT OUTPUT |
#                              ======================
#
#
#              ------------------------------------------------------
#              |     This is the output of the SUSY-HIT package     |
#              |  created by A.Djouadi, M.Muehlleitner and M.Spira. |
#              |  In case of problems with SUSY-HIT email to        |
#              |           margarete.muehlleitner@cern.ch           |
#              |           michael.spira@psi.ch                     |
#              |           abdelhak.djouadi@cern.ch                 |
#              ------------------------------------------------------
#
#              ------------------------------------------------------
#              |  SUSY Les Houches Accord - MSSM Spectrum + Decays  |
#              |              based on the decay programs           |
#              |                                                    |
#              |                     SDECAY 1.3b                    |
#              |                                                    |
#              |  Authors: M.Muhlleitner, A.Djouadi and Y.Mambrini  |
#              |  Ref.:    Comput.Phys.Commun.168(2005)46           |
#              |           [hep-ph/0311167]                         |
#              |                                                    |
#              |                     HDECAY 3.4                     |
#              |                                                    |
#              |  By: A.Djouadi,J.Kalinowski,M.Muhlleitner,M.Spira  |
#              |  Ref.:    Comput.Phys.Commun.108(1998)56           |
#              |           [hep-ph/9704448]                         |
#              |                                                    |
#              |                                                    |
#              |  If not stated otherwise all DRbar couplings and   |
#              |  soft SUSY breaking masses are given at the scale  |
#              |  Q=  0.23489950E+04
#              |                                                    |
#              ------------------------------------------------------
#
#
BLOCK DCINFO  # Decay Program information
     1   SDECAY/HDECAY # decay calculator
     2   1.3b  /3.4    # version number
#
BLOCK SPINFO  # Spectrum calculator information
     1     SOFTSUSY    # spectrum calculator               
     2     3.4.0       # version number                    
#
BLOCK MODSEL  # Model selection
     1     0   #  nonUniversal                                     
#
BLOCK SMINPUTS  # Standard Model inputs
         1     1.27908970E+02   # alpha_em^-1(M_Z)^MSbar
         2     1.16637870E-05   # G_F [GeV^-2]
         3     1.18400000E-01   # alpha_S(M_Z)^MSbar
         4     9.11876000E+01   # M_Z pole mass
         5     4.18000000E+00   # mb(mb)^MSbar
         6     1.73200000E+02   # mt pole mass
         7     1.77700000E+00   # mtau pole mass
#
BLOCK MINPAR  # Input parameters - minimal models
         3     2.45100000E+01   # tanb                
#
BLOCK EXTPAR  # Input parameters - non-minimal models
         0    -1.00000000E+00   # Set                 
         1    -2.17451000E+03   # M_1(MX)             
         2    -1.14074000E+03   # M_2(MX)             
         3     3.12897000E+03   # M_3(MX)             
        11    -3.49135000E+03   # At(MX)              
        12    -2.43151000E+03   # Ab(MX)              
        13     1.39666000E+03   # Atau(MX)            
        23     2.60760000E+02   # mu(MX)              
        26     2.47173000E+03   # mA(pole)            
        31     2.33391000E+03   # meL(MX)             
        32     2.33391000E+03   # mmuL(MX)            
        33     2.40000000E+03   # mtauL(MX)           
        34     6.05260000E+02   # meR(MX)             
        35     6.05260000E+02   # mmuR(MX)            
        36     1.87243000E+03   # mtauR(MX)           
        41     2.44315000E+03   # mqL1(MX)            
        42     2.44315000E+03   # mqL2(MX)            
        43     2.38897000E+03   # mqL3(MX)            
        44     2.10680000E+02   # muR(MX)             
        45     2.10680000E+02   # mcR(MX)             
        46     2.31141000E+03   # mtR(MX)             
        47     2.88337000E+03   # mdR(MX)             
        48     2.88337000E+03   # msR(MX)             
        49     2.86885000E+03   # mbR(MX)             
#
BLOCK MASS  # Mass Spectrum
# PDG code           mass       particle
        24     8.03797526E+01   # W+
        25     1.26459993E+02   # h
        35     2.47174154E+03   # H
        36     2.47173001E+03   # A
        37     2.47345015E+03   # H+
         5     4.81876030E+00   # b-quark pole mass calculated from mb(mb)_Msbar
   1000001     2.53686589E+03   # ~d_L
   2000001     2.96530829E+03   # ~d_R
   1000002     2.53574175E+03   # ~u_L
   2000002     4.53859315E+02   # ~u_R
   1000003     2.53686589E+03   # ~s_L
   2000003     2.96530829E+03   # ~s_R
   1000004     2.53574175E+03   # ~c_L
   2000004     4.53859315E+02   # ~c_R
   1000005     2.44376556E+03   # ~b_1
   2000005     2.94568458E+03   # ~b_2
   1000006     2.27485901E+03   # ~t_1
   2000006     2.50819934E+03   # ~t_2
   1000011     2.34333007E+03   # ~e_L
   2000011     6.20756383E+02   # ~e_R
   1000012     2.34167363E+03   # ~nu_eL
   1000013     2.34333007E+03   # ~mu_L
   2000013     6.20756383E+02   # ~mu_R
   1000014     2.34167363E+03   # ~nu_muL
   1000015     1.87672177E+03   # ~tau_1
   2000015     2.40754254E+03   # ~tau_2
   1000016     2.40591432E+03   # ~nu_tauL
   1000021     3.17454967E+03   # ~g
   1000022    -2.69043159E+02   # ~chi_10
   1000023     2.75037869E+02   # ~chi_20
   1000025    -1.18332126E+03   # ~chi_30
   1000035    -2.14320815E+03   # ~chi_40
   1000024     2.71982008E+02   # ~chi_1+
   1000037     1.18350897E+03   # ~chi_2+
#
BLOCK NMIX  # Neutralino Mixing Matrix
  1  1     1.58624098E-02   # N_11
  1  2    -5.81525565E-02   # N_12
  1  3     7.10609613E-01   # N_13
  1  4     7.00999745E-01   # N_14
  2  1     1.34824342E-02   # N_21
  2  2    -4.03867942E-02   # N_22
  2  3    -7.03465085E-01   # N_23
  2  4     7.09453314E-01   # N_24
  3  1     3.29207063E-03   # N_31
  3  2     9.97488789E-01   # N_32
  3  3     1.29422402E-02   # N_33
  3  4     6.95541234E-02   # N_34
  4  1     9.99777860E-01   # N_41
  4  2    -1.81725526E-03   # N_42
  4  3    -1.83057259E-03   # N_43
  4  4    -2.09183267E-02   # N_44
#
BLOCK UMIX  # Chargino Mixing Matrix U
  1  1    -1.84086519E-02   # U_11
  1  2     9.99830546E-01   # U_12
  2  1    -9.99830546E-01   # U_21
  2  2    -1.84086519E-02   # U_22
#
BLOCK VMIX  # Chargino Mixing Matrix V
  1  1     9.87606279E-02   # V_11
  1  2     9.95111219E-01   # V_12
  2  1     9.95111219E-01   # V_21
  2  2    -9.87606279E-02   # V_22
#
BLOCK STOPMIX  # Stop Mixing Matrix
  1  1     5.19429360E-01   # cos(theta_t)
  1  2     8.54513394E-01   # sin(theta_t)
  2  1    -8.54513394E-01   # -sin(theta_t)
  2  2     5.19429360E-01   # cos(theta_t)
#
BLOCK SBOTMIX  # Sbottom Mixing Matrix
  1  1     9.99974557E-01   # cos(theta_b)
  1  2     7.13339699E-03   # sin(theta_b)
  2  1    -7.13339699E-03   # -sin(theta_b)
  2  2     9.99974557E-01   # cos(theta_b)
#
BLOCK STAUMIX  # Stau Mixing Matrix
  1  1     3.77479810E-03   # cos(theta_tau)
  1  2     9.99992875E-01   # sin(theta_tau)
  2  1    -9.99992875E-01   # -sin(theta_tau)
  2  2     3.77479810E-03   # cos(theta_tau)
#
BLOCK ALPHA  # Higgs mixing
          -4.24694349E-02   # Mixing angle in the neutral Higgs boson sector
#
BLOCK HMIX Q=  2.34899500E+03  # DRbar Higgs Parameters
         1     2.64537009E+02   # mu(Q)MSSM           
         2     2.36167057E+01   # tan                 
         3     2.42390938E+02   # higgs               
         4     5.97537701E+06   # mA^2(Q)MSSM         
#
BLOCK GAUGE Q=  2.34899500E+03  # The gauge couplings
     1     3.64846732E-01   # gprime(Q) DRbar
     2     6.39115251E-01   # g(Q) DRbar
     3     1.01634802E+00   # g3(Q) DRbar
#
BLOCK AU Q=  2.34899500E+03  # The trilinear couplings
  1  1     0.00000000E+00   # A_u(Q) DRbar
  2  2     0.00000000E+00   # A_c(Q) DRbar
  3  3    -3.49134999E+03   # A_t(Q) DRbar
#
BLOCK AD Q=  2.34899500E+03  # The trilinear couplings
  1  1     0.00000000E+00   # A_d(Q) DRbar
  2  2     0.00000000E+00   # A_s(Q) DRbar
  3  3    -2.43151000E+03   # A_b(Q) DRbar
#
BLOCK AE Q=  2.34899500E+03  # The trilinear couplings
  1  1     0.00000000E+00   # A_e(Q) DRbar
  2  2     0.00000000E+00   # A_mu(Q) DRbar
  3  3     1.39666000E+03   # A_tau(Q) DRbar
#
BLOCK Yu Q=  2.34899500E+03  # The Yukawa couplings
  1  1     0.00000000E+00   # y_u(Q) DRbar
  2  2     0.00000000E+00   # y_c(Q) DRbar
  3  3     8.21135054E-01   # y_t(Q) DRbar
#
BLOCK Yd Q=  2.34899500E+03  # The Yukawa couplings
  1  1     0.00000000E+00   # y_d(Q) DRbar
  2  2     0.00000000E+00   # y_s(Q) DRbar
  3  3     3.11848272E-01   # y_b(Q) DRbar
#
BLOCK Ye Q=  2.34899500E+03  # The Yukawa couplings
  1  1     0.00000000E+00   # y_e(Q) DRbar
  2  2     0.00000000E+00   # y_mu(Q) DRbar
  3  3     2.39232763E-01   # y_tau(Q) DRbar
#
BLOCK MSOFT Q=  2.34899500E+03  # The soft SUSY breaking masses at the scale Q
         1    -2.17451000E+03   # M_1(Q)              
         2    -1.14074000E+03   # M_2(Q)              
         3     3.12897000E+03   # M_3(Q)              
        21     6.03736226E+06   # mH1^2(Q)            
        22     4.57781906E+04   # mH2^2(Q)            
        31     2.33391000E+03   # meL(Q)              
        32     2.33391000E+03   # mmuL(Q)             
        33     2.40000000E+03   # mtauL(Q)            
        34     6.05260000E+02   # meR(Q)              
        35     6.05260000E+02   # mmuR(Q)             
        36     1.87243000E+03   # mtauR(Q)            
        41     2.44314999E+03   # mqL1(Q)             
        42     2.44314999E+03   # mqL2(Q)             
        43     2.38896998E+03   # mqL3(Q)             
        44     2.10679906E+02   # muR(Q)              
        45     2.10679906E+02   # mcR(Q)              
        46     2.31140997E+03   # mtR(Q)              
        47     2.88336999E+03   # mdR(Q)              
        48     2.88336999E+03   # msR(Q)              
        49     2.86884999E+03   # mbR(Q)              
#
Block HiggsBoundsInputHiggsCouplingsFermions
# ScalarNormEffCoupSq PseudoSNormEffCoupSq NP   IP1 IP2 IP2
    1.00718312E+00    0.00000000E+00        3  25   5   5  # h0-b-b eff. coupling^2, normalised to SM
    5.57741605E+02    0.00000000E+00        3  35   5   5  # H0-b-b eff. coupling^2, normalised to SM
    0.00000000E+00    5.57748788E+02        3  36   5   5  # A0-b-b eff. coupling^2, normalised to SM
#
    9.99987121E-01    0.00000000E+00        3  25   6   6  # h0-t-t eff. coupling^2, normalised to SM
    1.80580064E-03    0.00000000E+00        3  35   6   6  # H0-t-t eff. coupling^2, normalised to SM
    0.00000000E+00    1.79292187E-03        3  36   6   6  # A0-t-t eff. coupling^2, normalised to SM
#
    1.00718312E+00    0.00000000E+00        3  25  15  15  # h0-tau-tau eff. coupling^2, normalised to SM
    5.57741605E+02    0.00000000E+00        3  35  15  15  # H0-tau-tau eff. coupling^2, normalised to SM
    0.00000000E+00    5.57748788E+02        3  36  15  15  # A0-tau-tau eff. coupling^2, normalised to SM
#
Block HiggsBoundsInputHiggsCouplingsBosons
    9.99999977E-01        3  25  24  24  # h0-W-W eff. coupling^2, normalised to SM
    2.30448839E-08        3  35  24  24  # H0-W-W eff. coupling^2, normalised to SM
    0.00000000E+00        3  36  24  24  # A0-W-W eff. coupling^2, normalised to SM
#
    9.99999977E-01        3  25  23  23  # h0-Z-Z eff. coupling^2, normalised to SM
    2.30448839E-08        3  35  23  23  # H0-Z-Z eff. coupling^2, normalised to SM
    0.00000000E+00        3  36  23  23  # A0-Z-Z eff. coupling^2, normalised to SM
#
    8.77423768E-01        3  25  21  21  # h0-g-g eff. coupling^2, normalised to SM
    4.27049591E-13        3  35  21  21  # H0-g-g eff. coupling^2, normalised to SM
    1.06006841E-11        3  36  21  21  # A0-g-g eff. coupling^2, normalised to SM
#
    0.00000000E+00        3  25  25  23  # h0-h0-Z eff. coupling^2, normalised to SM
    0.00000000E+00        3  35  25  23  # H0-h0-Z eff. coupling^2, normalised to SM
    2.30448839E-08        3  36  25  23  # A0-h0-Z eff. coupling^2, normalised to SM
    0.00000000E+00        3  35  35  23  # H0-H0-Z eff. coupling^2, normalised to SM
    9.99999977E-01        3  36  35  23  # A0-H0-Z eff. coupling^2, normalised to SM
    0.00000000E+00        3  36  36  23  # A0-A0-Z eff. coupling^2, normalised to SM
#
    0.00000000E+00        4  25  21  21  23  # h0-g-g-Z eff. coupling^2, normalised to SM
    0.00000000E+00        4  35  21  21  23  # H0-g-g-Z eff. coupling^2, normalised to SM
    0.00000000E+00        4  36  21  21  23  # A0-g-g-Z eff. coupling^2, normalised to SM
#
#
#
#                             =================
#                             |The decay table|
#                             =================
#
# - The QCD corrections to the decays gluino -> squark  + quark
#                                     squark -> gaugino + quark_prime
#                                     squark -> squark_prime + Higgs
#                                     squark -> gluino  + quark
#   are included.
#
# - The multi-body decays for the inos, stops and sbottoms are included.
#
# - The loop induced decays for the gluino, neutralinos and stops
#   are included.
#
# - The SUSY decays of the top quark are included.
#
#
#         PDG            Width
DECAY         6     1.43901833E+00   # top decays
#          BR         NDA      ID1       ID2
     1.00000000E+00    2           5        24   # BR(t ->  b    W+)
#
#         PDG            Width
DECAY   1000021     1.83944694E+02   # gluino decays
#          BR         NDA      ID1       ID2
     2.15877745E-02    2     1000001        -1   # BR(~g -> ~d_L  db)
     2.15877745E-02    2    -1000001         1   # BR(~g -> ~d_L* d )
     2.68609526E-03    2     2000001        -1   # BR(~g -> ~d_R  db)
     2.68609526E-03    2    -2000001         1   # BR(~g -> ~d_R* d )
     2.16554264E-02    2     1000002        -2   # BR(~g -> ~u_L  ub)
     2.16554264E-02    2    -1000002         2   # BR(~g -> ~u_L* u )
     1.58598952E-01    2     2000002        -2   # BR(~g -> ~u_R  ub)
     1.58598952E-01    2    -2000002         2   # BR(~g -> ~u_R* u )
     2.15877745E-02    2     1000003        -3   # BR(~g -> ~s_L  sb)
     2.15877745E-02    2    -1000003         3   # BR(~g -> ~s_L* s )
     2.68609526E-03    2     2000003        -3   # BR(~g -> ~s_R  sb)
     2.68609526E-03    2    -2000003         3   # BR(~g -> ~s_R* s )
     2.16553690E-02    2     1000004        -4   # BR(~g -> ~c_L  cb)
     2.16553690E-02    2    -1000004         4   # BR(~g -> ~c_L* c )
     1.58598950E-01    2     2000004        -4   # BR(~g -> ~c_R  cb)
     1.58598950E-01    2    -2000004         4   # BR(~g -> ~c_R* c )
     2.75680073E-02    2     1000005        -5   # BR(~g -> ~b_1  bb)
     2.75680073E-02    2    -1000005         5   # BR(~g -> ~b_1* b )
     3.31325988E-03    2     2000005        -5   # BR(~g -> ~b_2  bb)
     3.31325988E-03    2    -2000005         5   # BR(~g -> ~b_2* b )
     3.16506611E-02    2     1000006        -6   # BR(~g -> ~t_1  tb)
     3.16506611E-02    2    -1000006         6   # BR(~g -> ~t_1* t )
     2.84116350E-02    2     2000006        -6   # BR(~g -> ~t_2  tb)
     2.84116350E-02    2    -2000006         6   # BR(~g -> ~t_2* t )
#
#         PDG            Width
DECAY   1000006     5.43921371E+01   # stop1 decays
#          BR         NDA      ID1       ID2
     2.56726078E-01    2     1000022         6   # BR(~t_1 -> ~chi_10 t )
     2.57638784E-01    2     1000023         6   # BR(~t_1 -> ~chi_20 t )
     3.58363007E-02    2     1000025         6   # BR(~t_1 -> ~chi_30 t )
     3.79108929E-01    2     1000024         5   # BR(~t_1 -> ~chi_1+ b )
     7.06899085E-02    2     1000037         5   # BR(~t_1 -> ~chi_2+ b )
#
#         PDG            Width
DECAY   2000006     6.53799094E+01   # stop2 decays
#          BR         NDA      ID1       ID2
     2.52965337E-01    2     1000022         6   # BR(~t_2 -> ~chi_10 t )
     2.62416693E-01    2     1000023         6   # BR(~t_2 -> ~chi_20 t )
     5.99218569E-02    2     1000025         6   # BR(~t_2 -> ~chi_30 t )
     2.18423839E-03    2     1000035         6   # BR(~t_2 -> ~chi_40 t )
     2.23561782E-01    2     1000024         5   # BR(~t_2 -> ~chi_1+ b )
     1.15921171E-01    2     1000037         5   # BR(~t_2 -> ~chi_2+ b )
     1.59920452E-02    2     1000006        25   # BR(~t_2 -> ~t_1    h )
     6.70368773E-02    2     1000006        23   # BR(~t_2 -> ~t_1    Z )
#
#         PDG            Width
DECAY   1000005     5.76737357E+01   # sbottom1 decays
#          BR         NDA      ID1       ID2
     4.11107941E-02    2     1000022         5   # BR(~b_1 -> ~chi_10 b )
     3.98030601E-02    2     1000023         5   # BR(~b_1 -> ~chi_20 b )
     1.00246112E-01    2     1000025         5   # BR(~b_1 -> ~chi_30 b )
     3.38447007E-04    2     1000035         5   # BR(~b_1 -> ~chi_40 b )
     5.43174205E-01    2    -1000024         6   # BR(~b_1 -> ~chi_1- t )
     2.05927883E-01    2    -1000037         6   # BR(~b_1 -> ~chi_2- t )
     6.93994988E-02    2     1000006       -24   # BR(~b_1 -> ~t_1    W-)
#
#         PDG            Width
DECAY   2000005     1.16043402E+01   # sbottom2 decays
#          BR         NDA      ID1       ID2
     2.43435463E-01    2     1000022         5   # BR(~b_2 -> ~chi_10 b )
     2.39180909E-01    2     1000023         5   # BR(~b_2 -> ~chi_20 b )
     1.87728824E-04    2     1000025         5   # BR(~b_2 -> ~chi_30 b )
     3.30716560E-02    2     1000035         5   # BR(~b_2 -> ~chi_40 b )
     4.79305941E-01    2    -1000024         6   # BR(~b_2 -> ~chi_1- t )
     3.76516329E-04    2    -1000037         6   # BR(~b_2 -> ~chi_2- t )
     1.15719482E-03    2     1000005        25   # BR(~b_2 -> ~b_1    h )
     1.04553066E-03    2     1000005        23   # BR(~b_2 -> ~b_1    Z )
     1.22301722E-03    2     1000006       -24   # BR(~b_2 -> ~t_1    W-)
     1.01604353E-03    2     2000006       -24   # BR(~b_2 -> ~t_2    W-)
#
#         PDG            Width
DECAY   1000002     1.88700523E+01   # sup_L decays
#          BR         NDA      ID1       ID2
     1.60050981E-03    2     1000022         2   # BR(~u_L -> ~chi_10 u)
     7.52417496E-04    2     1000023         2   # BR(~u_L -> ~chi_20 u)
     3.29950981E-01    2     1000025         2   # BR(~u_L -> ~chi_30 u)
     1.60916911E-03    2     1000035         2   # BR(~u_L -> ~chi_40 u)
     1.02660931E-02    2     1000024         1   # BR(~u_L -> ~chi_1+ d)
     6.55820829E-01    2     1000037         1   # BR(~u_L -> ~chi_2+ d)
#
#         PDG            Width
DECAY   2000002     2.05996428E-04   # sup_R decays
#           BR         NDA      ID1       ID2
     5.92240269E-01    2     1000022         2   # BR(~u_R -> ~chi_10 u)
     4.07338703E-01    2     1000023         2   # BR(~u_R -> ~chi_20 u)
#           BR         NDA      ID1       ID2       ID3
     8.60014911E-05    3        2       23        1000022   # BR(~u_R -> u  Z  ~chi_10)
     1.96124760E-05    3        2       25        1000022   # BR(~u_R -> u  h  ~chi_10)
     6.75691327E-05    3        2       23        1000023   # BR(~u_R -> u  Z  ~chi_20)
     9.59725378E-06    3        2       25        1000023   # BR(~u_R -> u  h  ~chi_20)
     3.89463063E-06    3        2       -24        1000024   # BR(~u_R -> u  W-  ~chi_1+)
     2.34353578E-04    3        2       24        -1000024   # BR(~u_R -> u  W+  ~chi_1-)
#
#         PDG            Width
DECAY   1000001     1.88144311E+01   # sdown_L decays
#          BR         NDA      ID1       ID2
     1.97686482E-03    2     1000022         1   # BR(~d_L -> ~chi_10 d)
     9.73710640E-04    2     1000023         1   # BR(~d_L -> ~chi_20 d)
     3.30394052E-01    2     1000025         1   # BR(~d_L -> ~chi_30 d)
     1.68480357E-03    2     1000035         1   # BR(~d_L -> ~chi_40 d)
     3.57890968E-04    2    -1000024         2   # BR(~d_L -> ~chi_1- u)
     6.64612678E-01    2    -1000037         2   # BR(~d_L -> ~chi_2- u)
#
#         PDG            Width
DECAY   2000001     3.94501384E-01   # sdown_R decays
#          BR         NDA      ID1       ID2
     1.06476999E-03    2     1000022         1   # BR(~d_R -> ~chi_10 d)
     7.68678235E-04    2     1000023         1   # BR(~d_R -> ~chi_20 d)
     3.31128230E-05    2     1000025         1   # BR(~d_R -> ~chi_30 d)
     9.98133439E-01    2     1000035         1   # BR(~d_R -> ~chi_40 d)
#
#         PDG            Width
DECAY   1000004     1.90350817E+01   # scharm_L decays
#          BR         NDA      ID1       ID2
     1.60848209E-03    2     1000022         4   # BR(~c_L -> ~chi_10 c)
     7.56138262E-04    2     1000023         4   # BR(~c_L -> ~chi_20 c)
     3.29943866E-01    2     1000025         4   # BR(~c_L -> ~chi_30 c)
     1.56792474E-03    2     1000035         4   # BR(~c_L -> ~chi_40 c)
     1.03170558E-02    2     1000024         3   # BR(~c_L -> ~chi_1+ s)
     6.55806534E-01    2     1000037         3   # BR(~c_L -> ~chi_2+ s)
#
#         PDG            Width
DECAY   2000004     1.90923270E-04   # scharm_R decays
#           BR         NDA      ID1       ID2
     5.92292455E-01    2     1000022         4   # BR(~c_R -> ~chi_10 c)
     4.07254469E-01    2     1000023         4   # BR(~c_R -> ~chi_20 c)
#           BR         NDA      ID1       ID2       ID3
     9.24298020E-05    3        4       23        1000022   # BR(~c_R -> c  Z  ~chi_10)
     2.09990118E-05    3        4       25        1000022   # BR(~c_R -> c  h  ~chi_10)
     7.28093544E-05    3        4       23        1000023   # BR(~c_R -> c  Z  ~chi_20)
     1.03156624E-05    3        4       25        1000023   # BR(~c_R -> c  h  ~chi_20)
     4.17020933E-06    3        4       -24        1000024   # BR(~c_R -> c  W-  ~chi_1+)
     2.52352687E-04    3        4       24        -1000024   # BR(~c_R -> c  W+  ~chi_1-)
#
#         PDG            Width
DECAY   1000003     1.89787114E+01   # sstrange_L decays
#          BR         NDA      ID1       ID2
     1.98680584E-03    2     1000022         3   # BR(~s_L -> ~chi_10 s)
     9.78572062E-04    2     1000023         3   # BR(~s_L -> ~chi_20 s)
     3.30403307E-01    2     1000025         3   # BR(~s_L -> ~chi_30 s)
     1.64182521E-03    2     1000035         3   # BR(~s_L -> ~chi_40 s)
     3.59684213E-04    2    -1000024         4   # BR(~s_L -> ~chi_1- c)
     6.64629805E-01    2    -1000037         4   # BR(~s_L -> ~chi_2- c)
#
#         PDG            Width
DECAY   2000003     3.98658055E-01   # sstrange_R decays
#          BR         NDA      ID1       ID2
     1.08334403E-03    2     1000022         3   # BR(~s_R -> ~chi_10 s)
     7.82059435E-04    2     1000023         3   # BR(~s_R -> ~chi_20 s)
     3.35339824E-05    2     1000025         3   # BR(~s_R -> ~chi_30 s)
     9.98101063E-01    2     1000035         3   # BR(~s_R -> ~chi_40 s)
#
#         PDG            Width
DECAY   1000011     1.59619304E+01   # selectron_L decays
#          BR         NDA      ID1       ID2
     1.40021956E-03    2     1000022        11   # BR(~e_L -> ~chi_10 e-)
     6.20001192E-04    2     1000023        11   # BR(~e_L -> ~chi_20 e-)
     3.30652109E-01    2     1000025        11   # BR(~e_L -> ~chi_30 e-)
     5.16159952E-03    2     1000035        11   # BR(~e_L -> ~chi_40 e-)
     3.93459352E-04    2    -1000024        12   # BR(~e_L -> ~chi_1- nu_e)
     6.61772611E-01    2    -1000037        12   # BR(~e_L -> ~chi_2- nu_e)
#
#         PDG            Width
DECAY   2000011     9.37602852E-04   # selectron_R decays
#           BR         NDA      ID1       ID2
     5.81967379E-01    2     1000022        11   # BR(~e_R -> ~chi_10 e-)
     4.11715291E-01    2     1000023        11   # BR(~e_R -> ~chi_20 e-)
#           BR         NDA      ID1       ID2       ID3
     2.70882282E-05    3        11       -2        2000002   # BR(~e_R- -> e-  ub  ~u_R)
     4.33915062E-04    3        11       2        -2000002   # BR(~e_R- -> e-  u  ~u_R*)
     2.68834506E-05    3        11       -4        2000004   # BR(~e_R- -> e-  cb  ~c_R)
     4.36432120E-04    3        11       4        -2000004   # BR(~e_R- -> e-  c  ~c_R*)
     3.72417809E-04    3        11       23        1000022   # BR(~e_R- -> e-  Z  ~chi_10)
     6.69174586E-04    3        11       25        1000022   # BR(~e_R- -> e-  h  ~chi_10)
     6.01331362E-04    3        11       23        1000023   # BR(~e_R- -> e-  Z  ~chi_20)
     3.91338400E-04    3        11       25        1000023   # BR(~e_R- -> e-  h  ~chi_20)
     9.39342279E-05    3        11       -24        1000024   # BR(~e_R- -> e-  W-  ~chi_1+)
     3.26481515E-03    3        11       24        -1000024   # BR(~e_R- -> e-  W+  ~chi_1-)
#
#         PDG            Width
DECAY   1000013     1.59619304E+01   # smuon_L decays
#          BR         NDA      ID1       ID2
     1.40021956E-03    2     1000022        13   # BR(~mu_L -> ~chi_10 mu-)
     6.20001191E-04    2     1000023        13   # BR(~mu_L -> ~chi_20 mu-)
     3.30652108E-01    2     1000025        13   # BR(~mu_L -> ~chi_30 mu-)
     5.16159875E-03    2     1000035        13   # BR(~mu_L -> ~chi_40 mu-)
     3.93459353E-04    2    -1000024        14   # BR(~mu_L -> ~chi_1- nu_mu)
     6.61772613E-01    2    -1000037        14   # BR(~mu_L -> ~chi_2- nu_mu)
#
#         PDG            Width
DECAY   2000013     9.37599226E-04   # smuon_R decays
#           BR         NDA      ID1       ID2
     5.81969579E-01    2     1000022        13   # BR(~mu_R -> ~chi_10 mu-)
     4.11716846E-01    2     1000023        13   # BR(~mu_R -> ~chi_20 mu-)
#           BR         NDA      ID1       ID2       ID3
     2.68984864E-05    3        13       -2        2000002   # BR(~mu_R- -> mu-  ub  ~u_R)
     4.38737564E-04    3        13       2        -2000002   # BR(~mu_R- -> mu-  u  ~u_R*)
     2.70595360E-05    3        13       -4        2000004   # BR(~mu_R- -> mu-  cb  ~c_R)
     4.37329713E-04    3        13       4        -2000004   # BR(~mu_R- -> mu-  c  ~c_R*)
     3.72120614E-04    3        13       23        1000022   # BR(~mu_R- -> mu-  Z  ~chi_10)
     6.65593553E-04    3        13       25        1000022   # BR(~mu_R- -> mu-  h  ~chi_10)
     6.03765430E-04    3        13       23        1000023   # BR(~mu_R- -> mu-  Z  ~chi_20)
     3.96320720E-04    3        13       25        1000023   # BR(~mu_R- -> mu-  h  ~chi_20)
     9.44668015E-05    3        13       -24        1000024   # BR(~mu_R- -> mu-  W-  ~chi_1+)
     3.25128255E-03    3        13       24        -1000024   # BR(~mu_R- -> mu-  W+  ~chi_1-)
#
#         PDG            Width
DECAY   1000015     4.10040405E+00   # stau_1 decays
#          BR         NDA      ID1       ID2
     2.53379385E-01    2     1000022        15   # BR(~tau_1 -> ~chi_10  tau-)
     2.47114612E-01    2     1000023        15   # BR(~tau_1 -> ~chi_20  tau-)
     1.60948438E-05    2     1000025        15   # BR(~tau_1 -> ~chi_30  tau-)
     4.99476803E-01    2    -1000024        16   # BR(~tau_1 -> ~chi_1-  nu_tau)
     1.31049798E-05    2    -1000037        16   # BR(~tau_1 -> ~chi_2-  nu_tau)
#
#         PDG            Width
DECAY   2000015     1.97211049E+01   # stau_2 decays
#          BR         NDA      ID1       ID2
     6.95245305E-02    2     1000022        15   # BR(~tau_2 -> ~chi_10  tau-)
     6.75858285E-02    2     1000023        15   # BR(~tau_2 -> ~chi_20  tau-)
     2.84973287E-01    2     1000025        15   # BR(~tau_2 -> ~chi_30  tau-)
     6.91582433E-03    2     1000035        15   # BR(~tau_2 -> ~chi_40  tau-)
     2.79291007E-04    2    -1000024        16   # BR(~tau_2 -> ~chi_1-  nu_tau)
     5.70340866E-01    2    -1000037        16   # BR(~tau_2 -> ~chi_2-  nu_tau)
     1.91897856E-04    2     1000015        25   # BR(~tau_2 -> ~tau_1   h)
     1.88475141E-04    2     1000015        23   # BR(~tau_2 -> ~tau_1   Z)
#
#         PDG            Width
DECAY   1000012     1.60016583E+01   # snu_eL decays
#          BR         NDA      ID1       ID2
     2.61527370E-03    2     1000022        12   # BR(~nu_eL -> ~chi_10 nu_e)
     1.33704011E-03    2     1000023        12   # BR(~nu_eL -> ~chi_20 nu_e)
     3.26806606E-01    2     1000025        12   # BR(~nu_eL -> ~chi_30 nu_e)
     5.13590774E-03    2     1000035        12   # BR(~nu_eL -> ~chi_40 nu_e)
     1.12880811E-02    2     1000024        11   # BR(~nu_eL -> ~chi_1+ e-)
     6.52817091E-01    2     1000037        11   # BR(~nu_eL -> ~chi_2+ e-)
#
#         PDG            Width
DECAY   1000014     1.60016583E+01   # snu_muL decays
#          BR         NDA      ID1       ID2
     2.61527371E-03    2     1000022        14   # BR(~nu_muL -> ~chi_10 nu_mu)
     1.33704012E-03    2     1000023        14   # BR(~nu_muL -> ~chi_20 nu_mu)
     3.26806608E-01    2     1000025        14   # BR(~nu_muL -> ~chi_30 nu_mu)
     5.13590776E-03    2     1000035        14   # BR(~nu_muL -> ~chi_40 nu_mu)
     1.12880811E-02    2     1000024        13   # BR(~nu_muL -> ~chi_1+ mu-)
     6.52817090E-01    2     1000037        13   # BR(~nu_muL -> ~chi_2+ mu-)
#
#         PDG            Width
DECAY   1000016     1.97573389E+01   # snu_tauL decays
#          BR         NDA      ID1       ID2
     2.17931232E-03    2     1000022        16   # BR(~nu_tauL -> ~chi_10 nu_tau)
     1.11422967E-03    2     1000023        16   # BR(~nu_tauL -> ~chi_20 nu_tau)
     2.81861273E-01    2     1000025        16   # BR(~nu_tauL -> ~chi_30 nu_tau)
     6.91379071E-03    2     1000035        16   # BR(~nu_tauL -> ~chi_40 nu_tau)
     1.44502641E-01    2     1000024        15   # BR(~nu_tauL -> ~chi_1+ tau-)
     5.63062886E-01    2     1000037        15   # BR(~nu_tauL -> ~chi_2+ tau-)
     3.65867134E-04    2    -1000015       -24   # BR(~nu_tauL -> ~tau_1+ W-)
#
#         PDG            Width
DECAY   1000024     2.37464792E-10   # chargino1+ decays
#           BR         NDA      ID1       ID2       ID3
     3.68012853E-01    3     1000022         2        -1   # BR(~chi_1+ -> ~chi_10 u    db)
     3.68012853E-01    3     1000022         4        -3   # BR(~chi_1+ -> ~chi_10 c    sb)
     1.22671232E-01    3     1000022       -11        12   # BR(~chi_1+ -> ~chi_10 e+   nu_e)
     1.22671232E-01    3     1000022       -13        14   # BR(~chi_1+ -> ~chi_10 mu+  nu_mu)
     1.86318305E-02    3     1000022       -15        16   # BR(~chi_1+ -> ~chi_10 tau+ nu_tau)
#
#         PDG            Width
DECAY   1000037     8.92718143E+00   # chargino2+ decays
#          BR         NDA      ID1       ID2
     2.54647484E-01    2     1000024        23   # BR(~chi_2+ -> ~chi_1+  Z )
     2.45371137E-01    2     1000022        24   # BR(~chi_2+ -> ~chi_10  W+)
     2.50575091E-01    2     1000023        24   # BR(~chi_2+ -> ~chi_20  W+)
     2.49406289E-01    2     1000024        25   # BR(~chi_2+ -> ~chi_1+  h )
#
#         PDG            Width
DECAY   1000022     0.00000000E+00   # neutralino1 decays
#
#         PDG            Width
DECAY   1000023     7.25785644E-09   # neutralino2 decays
#          BR         NDA      ID1       ID2
     4.32978065E-02    2     1000022        22   # BR(~chi_20 -> ~chi_10 gam)
#           BR         NDA      ID1       ID2       ID3
     1.23051166E-01    3     1000022        -2         2   # BR(~chi_20 -> ~chi_10 ub      u)
     1.59701878E-01    3     1000022        -1         1   # BR(~chi_20 -> ~chi_10 db      d)
     1.23051166E-01    3     1000022        -4         4   # BR(~chi_20 -> ~chi_10 cb      c)
     1.59701878E-01    3     1000022        -3         3   # BR(~chi_20 -> ~chi_10 sb      s)
     3.66734178E-02    3     1000022       -11        11   # BR(~chi_20 -> ~chi_10 e+      e-)
     3.66734178E-02    3     1000022       -13        13   # BR(~chi_20 -> ~chi_10 mu+     mu-)
     1.85101792E-02    3     1000022       -15        15   # BR(~chi_20 -> ~chi_10 tau+    tau-)
     7.33276403E-02    3     1000022       -12        12   # BR(~chi_20 -> ~chi_10 nu_eb   nu_e)
     7.33276403E-02    3     1000022       -14        14   # BR(~chi_20 -> ~chi_10 nu_mub  nu_mu)
     7.33276109E-02    3     1000022       -16        16   # BR(~chi_20 -> ~chi_10 nu_taub nu_tau)
     1.45537371E-02    3     1000024        -2         1   # BR(~chi_20 -> ~chi_1+ ub      d)
     1.45537371E-02    3    -1000024        -1         2   # BR(~chi_20 -> ~chi_1- db      u)
     1.45537371E-02    3     1000024        -4         3   # BR(~chi_20 -> ~chi_1+ cb      s)
     1.45537371E-02    3    -1000024        -3         4   # BR(~chi_20 -> ~chi_1- sb      c)
     4.85125539E-03    3     1000024       -12        11   # BR(~chi_20 -> ~chi_1+ nu_eb   e-)
     4.85125539E-03    3    -1000024        12       -11   # BR(~chi_20 -> ~chi_1- nu_e    e+)
     4.85125539E-03    3     1000024       -14        13   # BR(~chi_20 -> ~chi_1+ nu_mub  mu-)
     4.85125539E-03    3    -1000024        14       -13   # BR(~chi_20 -> ~chi_1- nu_mu   mu+)
     8.68114046E-04    3     1000024       -16        15   # BR(~chi_20 -> ~chi_1+ nu_taub tau-)
     8.68114046E-04    3    -1000024        16       -15   # BR(~chi_20 -> ~chi_1- nu_tau  tau+)
#
#         PDG            Width
DECAY   1000025     8.92192736E+00   # neutralino3 decays
#          BR         NDA      ID1       ID2
     8.10015654E-02    2     1000022        23   # BR(~chi_30 -> ~chi_10   Z )
     1.72366260E-01    2     1000023        23   # BR(~chi_30 -> ~chi_20   Z )
     2.51629756E-01    2     1000024       -24   # BR(~chi_30 -> ~chi_1+   W-)
     2.51629756E-01    2    -1000024        24   # BR(~chi_30 -> ~chi_1-   W+)
     1.65480100E-01    2     1000022        25   # BR(~chi_30 -> ~chi_10   h )
     7.78693450E-02    2     1000023        25   # BR(~chi_30 -> ~chi_20   h )
     3.80468987E-06    2     2000002        -2   # BR(~chi_30 -> ~u_R      ub)
     3.80468987E-06    2    -2000002         2   # BR(~chi_30 -> ~u_R*     u )
     3.80468714E-06    2     2000004        -4   # BR(~chi_30 -> ~c_R      cb)
     3.80468714E-06    2    -2000004         4   # BR(~chi_30 -> ~c_R*     c )
     1.99976216E-06    2     2000011       -11   # BR(~chi_30 -> ~e_R-     e+)
     1.99976216E-06    2    -2000011        11   # BR(~chi_30 -> ~e_R+     e-)
     1.99976216E-06    2     2000013       -13   # BR(~chi_30 -> ~mu_R-    mu+)
     1.99976216E-06    2    -2000013        13   # BR(~chi_30 -> ~mu_R+    mu-)
#
#         PDG            Width
DECAY   1000035     5.25160907E+01   # neutralino4 decays
#          BR         NDA      ID1       ID2
     1.03532298E-02    2     1000022        23   # BR(~chi_40 -> ~chi_10   Z )
     1.50063954E-02    2     1000023        23   # BR(~chi_40 -> ~chi_20   Z )
     4.23020430E-05    2     1000025        23   # BR(~chi_40 -> ~chi_30   Z )
     2.39106559E-02    2     1000024       -24   # BR(~chi_40 -> ~chi_1+   W-)
     2.39106559E-02    2    -1000024        24   # BR(~chi_40 -> ~chi_1-   W+)
     5.52608888E-04    2     1000037       -24   # BR(~chi_40 -> ~chi_2+   W-)
     5.52608888E-04    2    -1000037        24   # BR(~chi_40 -> ~chi_2-   W+)
     1.50140517E-02    2     1000022        25   # BR(~chi_40 -> ~chi_10   h )
     1.09393567E-02    2     1000023        25   # BR(~chi_40 -> ~chi_20   h )
     4.97774093E-04    2     1000025        25   # BR(~chi_40 -> ~chi_30   h )
     1.31205356E-01    2     2000002        -2   # BR(~chi_40 -> ~u_R      ub)
     1.31205356E-01    2    -2000002         2   # BR(~chi_40 -> ~u_R*     u )
     1.31205349E-01    2     2000004        -4   # BR(~chi_40 -> ~c_R      cb)
     1.31205349E-01    2    -2000004         4   # BR(~chi_40 -> ~c_R*     c )
     9.06618689E-02    2     2000011       -11   # BR(~chi_40 -> ~e_R-     e+)
     9.06618689E-02    2    -2000011        11   # BR(~chi_40 -> ~e_R+     e-)
     9.06618689E-02    2     2000013       -13   # BR(~chi_40 -> ~mu_R-    mu+)
     9.06618689E-02    2    -2000013        13   # BR(~chi_40 -> ~mu_R+    mu-)
     5.87573714E-03    2     1000015       -15   # BR(~chi_40 -> ~tau_1-   tau+)
     5.87573714E-03    2    -1000015        15   # BR(~chi_40 -> ~tau_1+   tau-)
#
#         PDG            Width
DECAY        25     4.31673436E-03   # h decays
#          BR         NDA      ID1       ID2
     5.80883769E-01    2           5        -5   # BR(h -> b       bb     )
     6.10803163E-02    2         -15        15   # BR(h -> tau+    tau-   )
     2.16196926E-04    2         -13        13   # BR(h -> mu+     mu-    )
     2.35403857E-04    2           3        -3   # BR(h -> s       sb     )
     2.02794727E-02    2           4        -4   # BR(h -> c       cb     )
     7.60156541E-02    2          21        21   # BR(h -> g       g      )
     2.29102543E-03    2          22        22   # BR(h -> gam     gam    )
     1.64460298E-03    2          22        23   # BR(h -> Z       gam    )
     2.28259846E-01    2          24       -24   # BR(h -> W+      W-     )
     2.90937133E-02    2          23        23   # BR(h -> Z       Z      )
#
#         PDG            Width
DECAY        35     3.71189588E+01   # H decays
#          BR         NDA      ID1       ID2
     4.34539394E-01    2           5        -5   # BR(H -> b       bb     )
     7.79747907E-02    2         -15        15   # BR(H -> tau+    tau-   )
     2.76060921E-04    2         -13        13   # BR(H -> mu+     mu-    )
     1.68410840E-04    2           3        -3   # BR(H -> s       sb     )
     5.06503831E-08    2           4        -4   # BR(H -> c       cb     )
     4.95077873E-03    2           6        -6   # BR(H -> t       tb     )
     6.16722508E-06    2          21        21   # BR(H -> g       g      )
     1.56414326E-08    2          22        22   # BR(H -> gam     gam    )
     3.98490520E-09    2          23        22   # BR(H -> Z       gam    )
     3.00607118E-06    2          24       -24   # BR(H -> W+      W-     )
     1.49878606E-06    2          23        23   # BR(H -> Z       Z      )
     1.26416590E-05    2          25        25   # BR(H -> h       h      )
     5.18277739E-03    2     1000024  -1000024   # BR(H -> ~chi_1+ ~chi_1-)
     6.82583474E-06    2     1000037  -1000037   # BR(H -> ~chi_2+ ~chi_2-)
     1.57462822E-01    2     1000024  -1000037   # BR(H -> ~chi_1+ ~chi_2-)
     1.57462822E-01    2     1000037  -1000024   # BR(H -> ~chi_2+ ~chi_1-)
     1.27635212E-03    2     1000022   1000022   # BR(H -> ~chi_10 ~chi_10)
     5.36785221E-04    2     1000023   1000023   # BR(H -> ~chi_20 ~chi_20)
     3.39204698E-06    2     1000025   1000025   # BR(H -> ~chi_30 ~chi_30)
     2.54800988E-05    2     1000022   1000023   # BR(H -> ~chi_10 ~chi_20)
     7.51878112E-02    2     1000022   1000025   # BR(H -> ~chi_10 ~chi_30)
     3.01475856E-04    2     1000022   1000035   # BR(H -> ~chi_10 ~chi_40)
     8.24736671E-02    2     1000023   1000025   # BR(H -> ~chi_20 ~chi_30)
     2.14548585E-03    2     1000023   1000035   # BR(H -> ~chi_20 ~chi_40)
     4.37514789E-07    2     2000002  -2000002   # BR(H -> ~u_R    ~u_R*  )
     4.37514789E-07    2     2000004  -2000004   # BR(H -> ~c_R    ~c_R*  )
     3.05055645E-07    2     2000011  -2000011   # BR(H -> ~e_R-   ~e_R+  )
     3.05055645E-07    2     2000013  -2000013   # BR(H -> ~mu_R-  ~mu_R+ )
#
#         PDG            Width
DECAY        36     3.71248022E+01   # A decays
#          BR         NDA      ID1       ID2
     4.34498402E-01    2           5        -5   # BR(A -> b       bb     )
     7.79633127E-02    2         -15        15   # BR(A -> tau+    tau-   )
     2.76019713E-04    2         -13        13   # BR(A -> mu+     mu-    )
     1.68407128E-04    2           3        -3   # BR(A -> s       sb     )
     5.07453003E-08    2           4        -4   # BR(A -> c       cb     )
     4.97988549E-03    2           6        -6   # BR(A -> t       tb     )
     3.07212727E-05    2          21        21   # BR(A -> g       g      )
     3.65259828E-09    2          22        22   # BR(A -> gam     gam    )
     2.35869544E-08    2          23        22   # BR(A -> Z       gam    )
     3.03944848E-06    2          23        25   # BR(A -> Z       h      )
     5.27700168E-03    2     1000024  -1000024   # BR(A -> ~chi_1+ ~chi_1-)
     3.24421232E-05    2     1000037  -1000037   # BR(A -> ~chi_2+ ~chi_2-)
     1.57379880E-01    2     1000024  -1000037   # BR(A -> ~chi_1+ ~chi_2-)
     1.57379880E-01    2     1000037  -1000024   # BR(A -> ~chi_2+ ~chi_1-)
     1.13308184E-03    2     1000022   1000022   # BR(A -> ~chi_10 ~chi_10)
     6.70136593E-04    2     1000023   1000023   # BR(A -> ~chi_20 ~chi_20)
     1.61120034E-05    2     1000025   1000025   # BR(A -> ~chi_30 ~chi_30)
     7.09551525E-05    2     1000022   1000023   # BR(A -> ~chi_10 ~chi_20)
     8.39030758E-02    2     1000022   1000025   # BR(A -> ~chi_10 ~chi_30)
     2.27986287E-03    2     1000022   1000035   # BR(A -> ~chi_10 ~chi_40)
     7.36836714E-02    2     1000023   1000025   # BR(A -> ~chi_20 ~chi_30)
     2.54035266E-04    2     1000023   1000035   # BR(A -> ~chi_20 ~chi_40)
#
#         PDG            Width
DECAY        37     3.63455049E+01   # H+ decays
#          BR         NDA      ID1       ID2
     7.12220257E-04    2           4        -5   # BR(H+ -> c       bb     )
     7.96903727E-02    2         -15        16   # BR(H+ -> tau+    nu_tau )
     2.82134161E-04    2         -13        14   # BR(H+ -> mu+     nu_mu  )
     7.12218967E-06    2           2        -5   # BR(H+ -> u       bb     )
     8.60219085E-06    2           2        -3   # BR(H+ -> u       sb     )
     1.69366912E-04    2           4        -3   # BR(H+ -> c       sb     )
     4.27717244E-01    2           6        -5   # BR(H+ -> t       bb     )
     3.11401265E-06    2          24        25   # BR(H+ -> W+      h      )
     5.44978527E-13    2          24        36   # BR(H+ -> W+      A      )
     2.68173617E-04    2     1000024   1000022   # BR(H+ -> ~chi_1+ ~chi_10)
     7.26247579E-04    2     1000024   1000023   # BR(H+ -> ~chi_1+ ~chi_20)
     1.62528635E-01    2     1000024   1000025   # BR(H+ -> ~chi_1+ ~chi_30)
     2.56450491E-03    2     1000024   1000035   # BR(H+ -> ~chi_1+ ~chi_40)
     1.64739540E-01    2     1000037   1000022   # BR(H+ -> ~chi_2+ ~chi_10)
     1.60582722E-01    2     1000037   1000023   # BR(H+ -> ~chi_2+ ~chi_20)
     2.13716342E-10    2     1000037   1000025   # BR(H+ -> ~chi_2+ ~chi_30)
