#
#                              ======================
#                              | THE SUSYHIT OUTPUT |
#                              ======================
#
#
#              ------------------------------------------------------
#              |     This is the output of the SUSY-HIT package     |
#              |  created by A.Djouadi, M.Muehlleitner and M.Spira. |
#              |  In case of problems with SUSY-HIT email to        |
#              |           margarete.muehlleitner@cern.ch           |
#              |           michael.spira@psi.ch                     |
#              |           abdelhak.djouadi@cern.ch                 |
#              ------------------------------------------------------
#
#              ------------------------------------------------------
#              |  SUSY Les Houches Accord - MSSM Spectrum + Decays  |
#              |              based on the decay programs           |
#              |                                                    |
#              |                     SDECAY 1.3b                    |
#              |                                                    |
#              |  Authors: M.Muhlleitner, A.Djouadi and Y.Mambrini  |
#              |  Ref.:    Comput.Phys.Commun.168(2005)46           |
#              |           [hep-ph/0311167]                         |
#              |                                                    |
#              |                     HDECAY 3.4                     |
#              |                                                    |
#              |  By: A.Djouadi,J.Kalinowski,M.Muhlleitner,M.Spira  |
#              |  Ref.:    Comput.Phys.Commun.108(1998)56           |
#              |           [hep-ph/9704448]                         |
#              |                                                    |
#              |                                                    |
#              |  If not stated otherwise all DRbar couplings and   |
#              |  soft SUSY breaking masses are given at the scale  |
#              |  Q=  0.36447050E+04
#              |                                                    |
#              ------------------------------------------------------
#
#
BLOCK DCINFO  # Decay Program information
     1   SDECAY/HDECAY # decay calculator
     2   1.3b  /3.4    # version number
#
BLOCK SPINFO  # Spectrum calculator information
     1     SOFTSUSY    # spectrum calculator               
     2     3.4.0       # version number                    
#
BLOCK MODSEL  # Model selection
     1     0   #  nonUniversal                                     
#
BLOCK SMINPUTS  # Standard Model inputs
         1     1.27908970E+02   # alpha_em^-1(M_Z)^MSbar
         2     1.16637870E-05   # G_F [GeV^-2]
         3     1.18400000E-01   # alpha_S(M_Z)^MSbar
         4     9.11876000E+01   # M_Z pole mass
         5     4.18000000E+00   # mb(mb)^MSbar
         6     1.73200000E+02   # mt pole mass
         7     1.77700000E+00   # mtau pole mass
#
BLOCK MINPAR  # Input parameters - minimal models
         3     1.72100000E+01   # tanb                
#
BLOCK EXTPAR  # Input parameters - non-minimal models
         0    -1.00000000E+00   # Set                 
         1    -3.74869000E+03   # M_1(MX)             
         2     1.79853000E+03   # M_2(MX)             
         3     3.15793000E+03   # M_3(MX)             
        11     3.06479000E+03   # At(MX)              
        12     1.47130000E+03   # Ab(MX)              
        13    -3.95525000E+03   # Atau(MX)            
        23    -2.30250000E+02   # mu(MX)              
        26     1.40748000E+03   # mA(pole)            
        31     1.36313000E+03   # meL(MX)             
        32     1.36313000E+03   # mmuL(MX)            
        33     9.50310000E+02   # mtauL(MX)           
        34     1.29612000E+03   # meR(MX)             
        35     1.29612000E+03   # mmuR(MX)            
        36     1.70482000E+03   # mtauR(MX)           
        41     2.11640000E+03   # mqL1(MX)            
        42     2.11640000E+03   # mqL2(MX)            
        43     3.85269000E+03   # mqL3(MX)            
        44     7.15360000E+02   # muR(MX)             
        45     7.15360000E+02   # mcR(MX)             
        46     3.44509000E+03   # mtR(MX)             
        47     1.06268000E+03   # mdR(MX)             
        48     1.06268000E+03   # msR(MX)             
        49     4.04740000E+02   # mbR(MX)             
#
BLOCK MASS  # Mass Spectrum
# PDG code           mass       particle
        24     8.03913250E+01   # W+
        25     1.24626394E+02   # h
        35     1.40753402E+03   # H
        36     1.40747994E+03   # A
        37     1.41013549E+03   # H+
         5     4.81876030E+00   # b-quark pole mass calculated from mb(mb)_Msbar
   1000001     2.29012733E+03   # ~d_L
   2000001     1.29046595E+03   # ~d_R
   1000002     2.28886562E+03   # ~u_L
   2000002     1.01127630E+03   # ~u_R
   1000003     2.29012733E+03   # ~s_L
   2000003     1.29046595E+03   # ~s_R
   1000004     2.28886562E+03   # ~c_L
   2000004     1.01127630E+03   # ~c_R
   1000005     7.84112075E+02   # ~b_1
   2000005     3.92252873E+03   # ~b_2
   1000006     3.49397744E+03   # ~t_1
   2000006     3.93049890E+03   # ~t_2
   1000011     1.39835031E+03   # ~e_L
   2000011     1.31788380E+03   # ~e_R
   1000012     1.39580140E+03   # ~nu_eL
   1000013     1.39835031E+03   # ~mu_L
   2000013     1.31788380E+03   # ~mu_R
   1000014     1.39580140E+03   # ~nu_muL
   1000015     9.92023548E+02   # ~tau_1
   2000015     1.71705789E+03   # ~tau_2
   1000016     9.88574104E+02   # ~nu_tauL
   1000021     3.25432143E+03   # ~g
   1000022     2.40721783E+02   # ~chi_10
   1000023    -2.43387376E+02   # ~chi_20
   1000025     1.81418868E+03   # ~chi_30
   1000035    -3.67366192E+03   # ~chi_40
   1000024     2.42405254E+02   # ~chi_1+
   1000037     1.81435802E+03   # ~chi_2+
#
BLOCK NMIX  # Neutralino Mixing Matrix
  1  1     7.40274698E-03   # N_11
  1  2     3.26818825E-02   # N_12
  1  3     7.09006752E-01   # N_13
  1  4     7.04405082E-01   # N_14
  2  1     9.59800594E-03   # N_21
  2  2     2.85803107E-02   # N_22
  2  3    -7.05193591E-01   # N_23
  2  4     7.08373520E-01   # N_24
  3  1    -3.40523086E-04   # N_31
  3  2     9.99057070E-01   # N_32
  3  3    -3.01960332E-03   # N_33
  3  4    -4.33097753E-02   # N_34
  4  1     9.99926478E-01   # N_41
  4  2    -1.76060646E-04   # N_42
  4  3     1.51893812E-03   # N_43
  4  4    -1.20291382E-02   # N_44
#
BLOCK UMIX  # Chargino Mixing Matrix U
  1  1     4.28440428E-03   # U_11
  1  2     9.99990822E-01   # U_12
  2  1    -9.99990822E-01   # U_21
  2  2     4.28440428E-03   # U_22
#
BLOCK VMIX  # Chargino Mixing Matrix V
  1  1     6.12931958E-02   # V_11
  1  2    -9.98119805E-01   # V_12
  2  1    -9.98119805E-01   # V_21
  2  2    -6.12931958E-02   # V_22
#
BLOCK STOPMIX  # Stop Mixing Matrix
  1  1    -1.17523597E-01   # cos(theta_t)
  1  2     9.93070090E-01   # sin(theta_t)
  2  1    -9.93070090E-01   # -sin(theta_t)
  2  2    -1.17523597E-01   # cos(theta_t)
#
BLOCK SBOTMIX  # Sbottom Mixing Matrix
  1  1    -7.99604562E-04   # cos(theta_b)
  1  2     9.99999680E-01   # sin(theta_b)
  2  1    -9.99999680E-01   # -sin(theta_b)
  2  2    -7.99604562E-04   # cos(theta_b)
#
BLOCK STAUMIX  # Stau Mixing Matrix
  1  1     9.99999997E-01   # cos(theta_tau)
  1  2     7.74596672E-05   # sin(theta_tau)
  2  1    -7.74596672E-05   # -sin(theta_tau)
  2  2     9.99999997E-01   # cos(theta_tau)
#
BLOCK ALPHA  # Higgs mixing
          -6.15622483E-02   # Mixing angle in the neutral Higgs boson sector
#
BLOCK HMIX Q=  3.64470500E+03  # DRbar Higgs Parameters
         1    -2.34191376E+02   # mu(Q)MSSM           
         2     1.64125588E+01   # tan                 
         3     2.42203269E+02   # higgs               
         4     1.84060576E+06   # mA^2(Q)MSSM         
#
BLOCK GAUGE Q=  3.64470500E+03  # The gauge couplings
     1     3.66296087E-01   # gprime(Q) DRbar
     2     6.39602603E-01   # g(Q) DRbar
     3     1.00801139E+00   # g3(Q) DRbar
#
BLOCK AU Q=  3.64470500E+03  # The trilinear couplings
  1  1     0.00000000E+00   # A_u(Q) DRbar
  2  2     0.00000000E+00   # A_c(Q) DRbar
  3  3     3.06479002E+03   # A_t(Q) DRbar
#
BLOCK AD Q=  3.64470500E+03  # The trilinear couplings
  1  1     0.00000000E+00   # A_d(Q) DRbar
  2  2     0.00000000E+00   # A_s(Q) DRbar
  3  3     1.47130001E+03   # A_b(Q) DRbar
#
BLOCK AE Q=  3.64470500E+03  # The trilinear couplings
  1  1     0.00000000E+00   # A_e(Q) DRbar
  2  2     0.00000000E+00   # A_mu(Q) DRbar
  3  3    -3.95525000E+03   # A_tau(Q) DRbar
#
BLOCK Yu Q=  3.64470500E+03  # The Yukawa couplings
  1  1     0.00000000E+00   # y_u(Q) DRbar
  2  2     0.00000000E+00   # y_c(Q) DRbar
  3  3     8.25154281E-01   # y_t(Q) DRbar
#
BLOCK Yd Q=  3.64470500E+03  # The Yukawa couplings
  1  1     0.00000000E+00   # y_d(Q) DRbar
  2  2     0.00000000E+00   # y_s(Q) DRbar
  3  3     2.23474802E-01   # y_b(Q) DRbar
#
BLOCK Ye Q=  3.64470500E+03  # The Yukawa couplings
  1  1     0.00000000E+00   # y_e(Q) DRbar
  2  2     0.00000000E+00   # y_mu(Q) DRbar
  3  3     1.65576584E-01   # y_tau(Q) DRbar
#
BLOCK MSOFT Q=  3.64470500E+03  # The soft SUSY breaking masses at the scale Q
         1    -3.74869000E+03   # M_1(Q)              
         2     1.79853000E+03   # M_2(Q)              
         3     3.15793000E+03   # M_3(Q)              
        21     1.85744300E+06   # mH1^2(Q)            
        22     2.22372987E+05   # mH2^2(Q)            
        31     1.36313000E+03   # meL(Q)              
        32     1.36313000E+03   # mmuL(Q)             
        33     9.50310000E+02   # mtauL(Q)            
        34     1.29612000E+03   # meR(Q)              
        35     1.29612000E+03   # mmuR(Q)             
        36     1.70482000E+03   # mtauR(Q)            
        41     2.11639998E+03   # mqL1(Q)             
        42     2.11639998E+03   # mqL2(Q)             
        43     3.85268999E+03   # mqL3(Q)             
        44     7.15359944E+02   # muR(Q)              
        45     7.15359944E+02   # mcR(Q)              
        46     3.44508998E+03   # mtR(Q)              
        47     1.06267996E+03   # mdR(Q)              
        48     1.06267996E+03   # msR(Q)              
        49     4.04739902E+02   # mbR(Q)              
#
Block HiggsBoundsInputHiggsCouplingsFermions
# ScalarNormEffCoupSq PseudoSNormEffCoupSq NP   IP1 IP2 IP2
    1.02339215E+00    0.00000000E+00        3  25   5   5  # h0-b-b eff. coupling^2, normalised to SM
    2.69348694E+02    0.00000000E+00        3  35   5   5  # H0-b-b eff. coupling^2, normalised to SM
    0.00000000E+00    2.69372086E+02        3  36   5   5  # A0-b-b eff. coupling^2, normalised to SM
#
    9.99913160E-01    0.00000000E+00        3  25   6   6  # h0-t-t eff. coupling^2, normalised to SM
    3.79917669E-03    0.00000000E+00        3  35   6   6  # H0-t-t eff. coupling^2, normalised to SM
    0.00000000E+00    3.71233714E-03        3  36   6   6  # A0-t-t eff. coupling^2, normalised to SM
#
    1.02339215E+00    0.00000000E+00        3  25  15  15  # h0-tau-tau eff. coupling^2, normalised to SM
    2.69348694E+02    0.00000000E+00        3  35  15  15  # H0-tau-tau eff. coupling^2, normalised to SM
    0.00000000E+00    2.69372086E+02        3  36  15  15  # A0-tau-tau eff. coupling^2, normalised to SM
#
Block HiggsBoundsInputHiggsCouplingsBosons
    9.99999498E-01        3  25  24  24  # h0-W-W eff. coupling^2, normalised to SM
    5.02008332E-07        3  35  24  24  # H0-W-W eff. coupling^2, normalised to SM
    0.00000000E+00        3  36  24  24  # A0-W-W eff. coupling^2, normalised to SM
#
    9.99999498E-01        3  25  23  23  # h0-Z-Z eff. coupling^2, normalised to SM
    5.02008332E-07        3  35  23  23  # H0-Z-Z eff. coupling^2, normalised to SM
    0.00000000E+00        3  36  23  23  # A0-Z-Z eff. coupling^2, normalised to SM
#
    8.88046466E-01        3  25  21  21  # h0-g-g eff. coupling^2, normalised to SM
    8.50582859E-10        3  35  21  21  # H0-g-g eff. coupling^2, normalised to SM
    2.22822798E-08        3  36  21  21  # A0-g-g eff. coupling^2, normalised to SM
#
    0.00000000E+00        3  25  25  23  # h0-h0-Z eff. coupling^2, normalised to SM
    0.00000000E+00        3  35  25  23  # H0-h0-Z eff. coupling^2, normalised to SM
    5.02008332E-07        3  36  25  23  # A0-h0-Z eff. coupling^2, normalised to SM
    0.00000000E+00        3  35  35  23  # H0-H0-Z eff. coupling^2, normalised to SM
    9.99999498E-01        3  36  35  23  # A0-H0-Z eff. coupling^2, normalised to SM
    0.00000000E+00        3  36  36  23  # A0-A0-Z eff. coupling^2, normalised to SM
#
    0.00000000E+00        4  25  21  21  23  # h0-g-g-Z eff. coupling^2, normalised to SM
    0.00000000E+00        4  35  21  21  23  # H0-g-g-Z eff. coupling^2, normalised to SM
    0.00000000E+00        4  36  21  21  23  # A0-g-g-Z eff. coupling^2, normalised to SM
#
#
#
#                             =================
#                             |The decay table|
#                             =================
#
# - The QCD corrections to the decays gluino -> squark  + quark
#                                     squark -> gaugino + quark_prime
#                                     squark -> squark_prime + Higgs
#                                     squark -> gluino  + quark
#   are included.
#
# - The multi-body decays for the inos, stops and sbottoms are included.
#
# - The loop induced decays for the gluino, neutralinos and stops
#   are included.
#
# - The SUSY decays of the top quark are included.
#
#
#         PDG            Width
DECAY         6     1.44069601E+00   # top decays
#          BR         NDA      ID1       ID2
     1.00000000E+00    2           5        24   # BR(t ->  b    W+)
#
#         PDG            Width
DECAY   1000021     3.34513343E+02   # gluino decays
#          BR         NDA      ID1       ID2
     2.57044876E-02    2     1000001        -1   # BR(~g -> ~d_L  db)
     2.57044876E-02    2    -1000001         1   # BR(~g -> ~d_L* d )
     7.16488879E-02    2     2000001        -1   # BR(~g -> ~d_R  db)
     7.16488879E-02    2    -2000001         1   # BR(~g -> ~d_R* d )
     2.57600755E-02    2     1000002        -2   # BR(~g -> ~u_L  ub)
     2.57600755E-02    2    -1000002         2   # BR(~g -> ~u_L* u )
     8.23377661E-02    2     2000002        -2   # BR(~g -> ~u_R  ub)
     8.23377661E-02    2    -2000002         2   # BR(~g -> ~u_R* u )
     2.57044876E-02    2     1000003        -3   # BR(~g -> ~s_L  sb)
     2.57044876E-02    2    -1000003         3   # BR(~g -> ~s_L* s )
     7.16488879E-02    2     2000003        -3   # BR(~g -> ~s_R  sb)
     7.16488879E-02    2    -2000003         3   # BR(~g -> ~s_R* s )
     2.57600520E-02    2     1000004        -4   # BR(~g -> ~c_L  cb)
     2.57600520E-02    2    -1000004         4   # BR(~g -> ~c_L* c )
     8.23377615E-02    2     2000004        -4   # BR(~g -> ~c_R  cb)
     8.23377615E-02    2    -2000004         4   # BR(~g -> ~c_R* c )
     8.90975940E-02    2     1000005        -5   # BR(~g -> ~b_1  bb)
     8.90975940E-02    2    -1000005         5   # BR(~g -> ~b_1* b )
#
#         PDG            Width
DECAY   1000006     9.46566746E+01   # stop1 decays
#          BR         NDA      ID1       ID2
     2.43675322E-01    2     1000022         6   # BR(~t_1 -> ~chi_10 t )
     2.45795051E-01    2     1000023         6   # BR(~t_1 -> ~chi_20 t )
     3.07438135E-03    2     1000025         6   # BR(~t_1 -> ~chi_30 t )
     4.81551203E-01    2     1000024         5   # BR(~t_1 -> ~chi_1+ b )
     6.14509433E-03    2     1000037         5   # BR(~t_1 -> ~chi_2+ b )
     1.97546757E-02    2     1000021         6   # BR(~t_1 -> ~g      t )
     2.13097353E-06    2     1000005        37   # BR(~t_1 -> ~b_1    H+)
     2.14180763E-06    2     1000005        24   # BR(~t_1 -> ~b_1    W+)
#
#         PDG            Width
DECAY   2000006     1.13904495E+02   # stop2 decays
#          BR         NDA      ID1       ID2
     2.30279257E-01    2     1000022         6   # BR(~t_2 -> ~chi_10 t )
     2.33291975E-01    2     1000023         6   # BR(~t_2 -> ~chi_20 t )
     8.46888575E-02    2     1000025         6   # BR(~t_2 -> ~chi_30 t )
     3.22353202E-05    2     1000035         6   # BR(~t_2 -> ~chi_40 t )
     4.61094107E-02    2     1000024         5   # BR(~t_2 -> ~chi_1+ b )
     1.67669648E-01    2     1000037         5   # BR(~t_2 -> ~chi_2+ b )
     1.86291436E-01    2     1000021         6   # BR(~t_2 -> ~g      t )
     2.72011168E-02    2     1000006        25   # BR(~t_2 -> ~t_1    h )
     3.87921341E-03    2     1000005        37   # BR(~t_2 -> ~b_1    H+)
     2.03697449E-02    2     1000006        23   # BR(~t_2 -> ~t_1    Z )
     1.87106008E-04    2     1000005        24   # BR(~t_2 -> ~b_1    W+)
#
#         PDG            Width
DECAY   1000005     1.20011677E+00   # sbottom1 decays
#          BR         NDA      ID1       ID2
     2.67718954E-01    2     1000022         5   # BR(~b_1 -> ~chi_10 b )
     2.63561526E-01    2     1000023         5   # BR(~b_1 -> ~chi_20 b )
     4.68719520E-01    2    -1000024         6   # BR(~b_1 -> ~chi_1- t )
#
#         PDG            Width
DECAY   2000005     1.11342996E+02   # sbottom2 decays
#          BR         NDA      ID1       ID2
     1.76000569E-02    2     1000022         5   # BR(~b_2 -> ~chi_10 b )
     1.73765242E-02    2     1000023         5   # BR(~b_2 -> ~chi_20 b )
     8.84305576E-02    2     1000025         5   # BR(~b_2 -> ~chi_30 b )
     7.90027523E-05    2     1000035         5   # BR(~b_2 -> ~chi_40 b )
     4.69922727E-01    2    -1000024         6   # BR(~b_2 -> ~chi_1- t )
     1.78586040E-01    2    -1000037         6   # BR(~b_2 -> ~chi_2- t )
     1.84480170E-01    2     1000021         5   # BR(~b_2 -> ~g      b )
     1.14612071E-04    2     1000005        25   # BR(~b_2 -> ~b_1    h )
     1.96928050E-03    2     1000005        35   # BR(~b_2 -> ~b_1    H )
     1.96989645E-03    2     1000005        36   # BR(~b_2 -> ~b_1    A )
     9.94646856E-05    2     1000005        23   # BR(~b_2 -> ~b_1    Z )
     3.93716669E-02    2     1000006       -24   # BR(~b_2 -> ~t_1    W-)
#
#         PDG            Width
DECAY   1000002     3.99651324E+00   # sup_L decays
#          BR         NDA      ID1       ID2
     2.63584228E-03    2     1000022         2   # BR(~u_L -> ~chi_10 u)
     2.09620166E-03    2     1000023         2   # BR(~u_L -> ~chi_20 u)
     3.26593930E-01    2     1000025         2   # BR(~u_L -> ~chi_30 u)
     1.70317538E-02    2     1000024         1   # BR(~u_L -> ~chi_1+ d)
     6.51642273E-01    2     1000037         1   # BR(~u_L -> ~chi_2+ d)
#
#         PDG            Width
DECAY   2000002     3.53515244E-04   # sup_R decays
#           BR         NDA      ID1       ID2
     3.43472871E-01    2     1000022         2   # BR(~u_R -> ~chi_10 u)
     5.75854256E-01    2     1000023         2   # BR(~u_R -> ~chi_20 u)
#           BR         NDA      ID1       ID2       ID3
     2.64729744E-03    3        2       -5        1000005   # BR(~u_R -> u  bb  ~b_1)
     3.44652747E-02    3        2       5        -1000005   # BR(~u_R -> u  b  ~b_1*)
     2.87484066E-10    3        2       -15        1000015   # BR(~u_R -> u  tau+  ~tau_1-)
     2.04344795E-11    3        2       15        -1000015   # BR(~u_R -> u  tau-  ~tau_1+)
     6.75586142E-10    3        2       -16        1000016   # BR(~u_R -> u  nu_taub  ~nu_tau1)
     5.19440117E-11    3        2       16        -1000016   # BR(~u_R -> u  nu_tau  ~nu_tau1*)
     8.03557992E-03    3        2       23        1000022   # BR(~u_R -> u  Z  ~chi_10)
     3.02391486E-03    3        2       25        1000022   # BR(~u_R -> u  h  ~chi_10)
     4.71040507E-03    3        2       23        1000023   # BR(~u_R -> u  Z  ~chi_20)
     6.35220131E-03    3        2       25        1000023   # BR(~u_R -> u  h  ~chi_20)
     9.41486981E-04    3        2       -24        1000024   # BR(~u_R -> u  W-  ~chi_1+)
     2.04967116E-02    3        2       24        -1000024   # BR(~u_R -> u  W+  ~chi_1-)
#
#         PDG            Width
DECAY   1000001     3.95178313E+00   # sdown_L decays
#          BR         NDA      ID1       ID2
     2.24326326E-03    2     1000022         1   # BR(~d_L -> ~chi_10 d)
     1.64072617E-03    2     1000023         1   # BR(~d_L -> ~chi_20 d)
     3.31763164E-01    2     1000025         1   # BR(~d_L -> ~chi_30 d)
     8.42052769E-05    2    -1000024         2   # BR(~d_L -> ~chi_1- u)
     6.64268642E-01    2    -1000037         2   # BR(~d_L -> ~chi_2- u)
#
#         PDG            Width
DECAY   2000001     5.75041630E-04   # sdown_R decays
#           BR         NDA      ID1       ID2
     6.96984575E-02    2     1000022         1   # BR(~d_R -> ~chi_10 d)
     1.16979265E-01    2     1000023         1   # BR(~d_R -> ~chi_20 d)
#           BR         NDA      ID1       ID2       ID3
     4.87912501E-03    3        1       -2        2000002   # BR(~d_R -> d  ub  ~u_R)
     3.86093786E-02    3        1       2        -2000002   # BR(~d_R -> d  u  ~u_R*)
     4.95111980E-03    3        1       -4        2000004   # BR(~d_R -> d  cb  ~c_R)
     3.85485134E-02    3        1       4        -2000004   # BR(~d_R -> d  c  ~c_R*)
     6.55987289E-02    3        1       -5        1000005   # BR(~d_R -> d  bb  ~b_1)
     6.43814257E-01    3        1       5        -1000005   # BR(~d_R -> d  b  ~b_1*)
     2.35513384E-05    3        1       -15        1000015   # BR(~d_R -> d  tau+  ~tau_1-)
     2.21131816E-06    3        1       15        -1000015   # BR(~d_R -> d  tau-  ~tau_1+)
     2.44556207E-05    3        1       -16        1000016   # BR(~d_R -> d  nu_taub  ~nu_tau1)
     2.47025594E-06    3        1       16        -1000016   # BR(~d_R -> d  nu_tau  ~nu_tau1*)
     2.73771483E-03    3        1       23        1000022   # BR(~d_R -> d  Z  ~chi_10)
     1.26674307E-03    3        1       25        1000022   # BR(~d_R -> d  h  ~chi_10)
     1.31752200E-03    3        1       23        1000023   # BR(~d_R -> d  Z  ~chi_20)
     2.67511067E-03    3        1       25        1000023   # BR(~d_R -> d  h  ~chi_20)
     4.91286170E-04    3        1       -24        1000024   # BR(~d_R -> d  W-  ~chi_1+)
     8.38008893E-03    3        1       24        -1000024   # BR(~d_R -> d  W+  ~chi_1-)
#
#         PDG            Width
DECAY   1000004     3.93535605E+00   # scharm_L decays
#          BR         NDA      ID1       ID2
     2.69078003E-03    2     1000022         4   # BR(~c_L -> ~chi_10 c)
     2.13985716E-03    2     1000023         4   # BR(~c_L -> ~chi_20 c)
     3.26443089E-01    2     1000025         4   # BR(~c_L -> ~chi_30 c)
     1.73865773E-02    2     1000024         3   # BR(~c_L -> ~chi_1+ s)
     6.51339696E-01    2     1000037         3   # BR(~c_L -> ~chi_2+ s)
#
#         PDG            Width
DECAY   2000004     3.41713049E-04   # scharm_R decays
#           BR         NDA      ID1       ID2
     3.42428354E-01    2     1000022         4   # BR(~c_R -> ~chi_10 c)
     5.74094412E-01    2     1000023         4   # BR(~c_R -> ~chi_20 c)
#           BR         NDA      ID1       ID2       ID3
     2.72509347E-03    3        4       -5        1000005   # BR(~c_R -> c  bb  ~b_1)
     3.56205302E-02    3        4       5        -1000005   # BR(~c_R -> c  b  ~b_1*)
     2.90805400E-10    3        4       -15        1000015   # BR(~c_R -> c  tau+  ~tau_1-)
     2.07103592E-11    3        4       15        -1000015   # BR(~c_R -> c  tau-  ~tau_1+)
     6.83526721E-10    3        4       -16        1000016   # BR(~c_R -> c  nu_taub  ~nu_tau1)
     5.28279503E-11    3        4       16        -1000016   # BR(~c_R -> c  nu_tau  ~nu_tau1*)
     8.29701999E-03    3        4       23        1000022   # BR(~c_R -> c  Z  ~chi_10)
     3.11986915E-03    3        4       25        1000022   # BR(~c_R -> c  h  ~chi_10)
     4.91435725E-03    3        4       23        1000023   # BR(~c_R -> c  Z  ~chi_20)
     6.56837661E-03    3        4       25        1000023   # BR(~c_R -> c  h  ~chi_20)
     9.77603872E-04    3        4       -24        1000024   # BR(~c_R -> c  W-  ~chi_1+)
     2.12543829E-02    3        4       24        -1000024   # BR(~c_R -> c  W+  ~chi_1-)
#
#         PDG            Width
DECAY   1000003     3.89015170E+00   # sstrange_L decays
#          BR         NDA      ID1       ID2
     2.29078090E-03    2     1000022         3   # BR(~s_L -> ~chi_10 s)
     1.67545343E-03    2     1000023         3   # BR(~s_L -> ~chi_20 s)
     3.31738449E-01    2     1000025         3   # BR(~s_L -> ~chi_30 s)
     8.59880186E-05    2    -1000024         4   # BR(~s_L -> ~chi_1- c)
     6.64209329E-01    2    -1000037         4   # BR(~s_L -> ~chi_2- c)
#
#         PDG            Width
DECAY   2000003     5.73961537E-04   # sstrange_R decays
#           BR         NDA      ID1       ID2
     6.80878130E-02    2     1000022         3   # BR(~s_R -> ~chi_10 s)
     1.14274147E-01    2     1000023         3   # BR(~s_R -> ~chi_20 s)
#           BR         NDA      ID1       ID2       ID3
     4.87576226E-03    3        3       -2        2000002   # BR(~s_R -> s  ub  ~u_R)
     3.86820345E-02    3        3       2        -2000002   # BR(~s_R -> s  u  ~u_R*)
     4.96043692E-03    3        3       -4        2000004   # BR(~s_R -> s  cb  ~c_R)
     3.97988341E-02    3        3       4        -2000004   # BR(~s_R -> s  c  ~c_R*)
     6.56524829E-02    3        3       -5        1000005   # BR(~s_R -> s  bb  ~b_1)
     6.46715809E-01    3        3       5        -1000005   # BR(~s_R -> s  b  ~b_1*)
     2.39110099E-05    3        3       -15        1000015   # BR(~s_R -> s  tau+  ~tau_1-)
     2.18533807E-06    3        3       15        -1000015   # BR(~s_R -> s  tau-  ~tau_1+)
     2.45016418E-05    3        3       -16        1000016   # BR(~s_R -> s  nu_taub  ~nu_tau1)
     2.46497354E-06    3        3       16        -1000016   # BR(~s_R -> s  nu_tau  ~nu_tau1*)
     2.74286672E-03    3        3       23        1000022   # BR(~s_R -> s  Z  ~chi_10)
     1.26912685E-03    3        3       25        1000022   # BR(~s_R -> s  h  ~chi_10)
     1.31998392E-03    3        3       23        1000023   # BR(~s_R -> s  Z  ~chi_20)
     2.68014475E-03    3        3       25        1000023   # BR(~s_R -> s  h  ~chi_20)
     4.91635731E-04    3        3       -24        1000024   # BR(~s_R -> s  W-  ~chi_1+)
     8.39585876E-03    3        3       24        -1000024   # BR(~s_R -> s  W+  ~chi_1-)
#
#         PDG            Width
DECAY   1000011     1.37141253E-02   # selectron_L decays
#          BR         NDA      ID1       ID2
     5.32592527E-01    2     1000022        11   # BR(~e_L -> ~chi_10 e-)
     4.53076437E-01    2     1000023        11   # BR(~e_L -> ~chi_20 e-)
     1.43310355E-02    2    -1000024        12   # BR(~e_L -> ~chi_1- nu_e)
#
#         PDG            Width
DECAY   2000011     1.06295390E-03   # selectron_R decays
#           BR         NDA      ID1       ID2
     3.38921594E-01    2     1000022        11   # BR(~e_R -> ~chi_10 e-)
     5.68862851E-01    2     1000023        11   # BR(~e_R -> ~chi_20 e-)
#           BR         NDA      ID1       ID2       ID3
     1.46365708E-10    3        11       -1        2000001   # BR(~e_R- -> e-  db  ~d_R)
     1.13438598E-09    3        11       1        -2000001   # BR(~e_R- -> e-  d  ~d_R*)
     6.80640997E-05    3        11       -2        2000002   # BR(~e_R- -> e-  ub  ~u_R)
     6.76906122E-04    3        11       2        -2000002   # BR(~e_R- -> e-  u  ~u_R*)
     1.44963954E-10    3        11       -3        2000003   # BR(~e_R- -> e-  sb  ~s_R)
     1.16100990E-09    3        11       3        -2000003   # BR(~e_R- -> e-  s  ~s_R*)
     6.81769926E-05    3        11       -4        2000004   # BR(~e_R- -> e-  cb  ~c_R)
     6.79211020E-04    3        11       4        -2000004   # BR(~e_R- -> e-  c  ~c_R*)
     1.88662933E-04    3        11       -5        1000005   # BR(~e_R- -> e-  bb  ~b_1)
     2.29925306E-03    3        11       5        -1000005   # BR(~e_R- -> e-  b  ~b_1*)
     1.69499355E-04    3        11       -15        1000015   # BR(~e_R- -> e-  tau+  ~tau_1-)
     1.61465140E-05    3        11       15        -1000015   # BR(~e_R- -> e-  tau-  ~tau_1+)
     1.76103593E-04    3        11       -16        1000016   # BR(~e_R- -> e-  nu_taub  ~nu_tau1)
     1.80722796E-05    3        11       16        -1000016   # BR(~e_R- -> e-  nu_tau  ~nu_tau1*)
     1.37268418E-02    3        11       23        1000022   # BR(~e_R- -> e-  Z  ~chi_10)
     6.63199036E-03    3        11       25        1000022   # BR(~e_R- -> e-  h  ~chi_10)
     6.45079718E-03    3        11       23        1000023   # BR(~e_R- -> e-  Z  ~chi_20)
     1.40711653E-02    3        11       25        1000023   # BR(~e_R- -> e-  h  ~chi_20)
     2.65383100E-03    3        11       -24        1000024   # BR(~e_R- -> e-  W-  ~chi_1+)
     4.43208310E-02    3        11       24        -1000024   # BR(~e_R- -> e-  W+  ~chi_1-)
#
#         PDG            Width
DECAY   1000013     1.37141251E-02   # smuon_L decays
#          BR         NDA      ID1       ID2
     5.32592527E-01    2     1000022        13   # BR(~mu_L -> ~chi_10 mu-)
     4.53076437E-01    2     1000023        13   # BR(~mu_L -> ~chi_20 mu-)
     1.43310357E-02    2    -1000024        14   # BR(~mu_L -> ~chi_1- nu_mu)
#
#         PDG            Width
DECAY   2000013     1.06289173E-03   # smuon_R decays
#           BR         NDA      ID1       ID2
     3.38941414E-01    2     1000022        13   # BR(~mu_R -> ~chi_10 mu-)
     5.68896117E-01    2     1000023        13   # BR(~mu_R -> ~chi_20 mu-)
#           BR         NDA      ID1       ID2       ID3
     1.44586693E-10    3        13       -1        2000001   # BR(~mu_R- -> mu-  db  ~d_R)
     1.14959969E-09    3        13       1        -2000001   # BR(~mu_R- -> mu-  d  ~d_R*)
     6.80680809E-05    3        13       -2        2000002   # BR(~mu_R- -> mu-  ub  ~u_R)
     6.77783054E-04    3        13       2        -2000002   # BR(~mu_R- -> mu-  u  ~u_R*)
     1.43758763E-10    3        13       -3        2000003   # BR(~mu_R- -> mu-  sb  ~s_R)
     1.15806716E-09    3        13       3        -2000003   # BR(~mu_R- -> mu-  s  ~s_R*)
     6.81809805E-05    3        13       -4        2000004   # BR(~mu_R- -> mu-  cb  ~c_R)
     6.69710736E-04    3        13       4        -2000004   # BR(~mu_R- -> mu-  c  ~c_R*)
     1.88523436E-04    3        13       -5        1000005   # BR(~mu_R- -> mu-  bb  ~b_1)
     2.29938755E-03    3        13       5        -1000005   # BR(~mu_R- -> mu-  b  ~b_1*)
     1.69509270E-04    3        13       -15        1000015   # BR(~mu_R- -> mu-  tau+  ~tau_1-)
     1.63845475E-05    3        13       15        -1000015   # BR(~mu_R- -> mu-  tau-  ~tau_1+)
     1.76113893E-04    3        13       -16        1000016   # BR(~mu_R- -> mu-  nu_taub  ~nu_tau1)
     1.80733367E-05    3        13       16        -1000016   # BR(~mu_R- -> mu-  nu_tau  ~nu_tau1*)
     1.37276447E-02    3        13       23        1000022   # BR(~mu_R- -> mu-  Z  ~chi_10)
     6.57498768E-03    3        13       25        1000022   # BR(~mu_R- -> mu-  h  ~chi_10)
     6.45117450E-03    3        13       23        1000023   # BR(~mu_R- -> mu-  Z  ~chi_20)
     1.40719884E-02    3        13       25        1000023   # BR(~mu_R- -> mu-  h  ~chi_20)
     2.65398623E-03    3        13       -24        1000024   # BR(~mu_R- -> mu-  W-  ~chi_1+)
     4.43309500E-02    3        13       24        -1000024   # BR(~mu_R- -> mu-  W+  ~chi_1-)
#
#         PDG            Width
DECAY   1000015     4.87815678E-01   # stau_1 decays
#          BR         NDA      ID1       ID2
     5.03944969E-01    2     1000022        15   # BR(~tau_1 -> ~chi_10  tau-)
     4.95788929E-01    2     1000023        15   # BR(~tau_1 -> ~chi_20  tau-)
     2.66101584E-04    2    -1000024        16   # BR(~tau_1 -> ~chi_1-  nu_tau)
#
#         PDG            Width
DECAY   2000015     1.80047970E+00   # stau_2 decays
#          BR         NDA      ID1       ID2
     2.51561970E-01    2     1000022        15   # BR(~tau_2 -> ~chi_10  tau-)
     2.48817305E-01    2     1000023        15   # BR(~tau_2 -> ~chi_20  tau-)
     4.99610712E-01    2    -1000024        16   # BR(~tau_2 -> ~chi_1-  nu_tau)
     3.11185178E-06    2     1000016       -24   # BR(~tau_2 -> ~nu_tauL W-)
     5.32178052E-06    2     1000015        25   # BR(~tau_2 -> ~tau_1   h)
     1.57991763E-06    2     1000015        23   # BR(~tau_2 -> ~tau_1   Z)
#
#         PDG            Width
DECAY   1000012     4.73129194E-02   # snu_eL decays
#          BR         NDA      ID1       ID2
     9.14260532E-02    2     1000022        12   # BR(~nu_eL -> ~chi_10 nu_e)
     6.01384127E-02    2     1000023        12   # BR(~nu_eL -> ~chi_20 nu_e)
     8.48435534E-01    2     1000024        11   # BR(~nu_eL -> ~chi_1+ e-)
#
#         PDG            Width
DECAY   1000014     4.73129189E-02   # snu_muL decays
#          BR         NDA      ID1       ID2
     9.14260542E-02    2     1000022        14   # BR(~nu_muL -> ~chi_10 nu_mu)
     6.01384133E-02    2     1000023        14   # BR(~nu_muL -> ~chi_20 nu_mu)
     8.48435533E-01    2     1000024        13   # BR(~nu_muL -> ~chi_1+ mu-)
#
#         PDG            Width
DECAY   1000016     5.07966322E-01   # snu_tauL decays
#          BR         NDA      ID1       ID2
     5.66936454E-03    2     1000022        16   # BR(~nu_tauL -> ~chi_10 nu_tau)
     3.72382664E-03    2     1000023        16   # BR(~nu_tauL -> ~chi_20 nu_tau)
     9.90606809E-01    2     1000024        15   # BR(~nu_tauL -> ~chi_1+ tau-)
#
#         PDG            Width
DECAY   1000024     9.02029942E-12   # chargino1+ decays
#           BR         NDA      ID1       ID2       ID3
     5.99999111E-01    3     1000022         2        -1   # BR(~chi_1+ -> ~chi_10 u    db)
     2.00000444E-01    3     1000022       -11        12   # BR(~chi_1+ -> ~chi_10 e+   nu_e)
     2.00000444E-01    3     1000022       -13        14   # BR(~chi_1+ -> ~chi_10 mu+  nu_mu)
#
#         PDG            Width
DECAY   1000037     2.79385877E+01   # chargino2+ decays
#          BR         NDA      ID1       ID2
     2.66358074E-07    2    -1000005         6   # BR(~chi_2+ -> ~b_1*    t )
     4.38605584E-02    2     1000012       -11   # BR(~chi_2+ -> ~nu_eL   e+  )
     4.38605584E-02    2     1000014       -13   # BR(~chi_2+ -> ~nu_muL mu+ )
     1.30158715E-01    2     1000016       -15   # BR(~chi_2+ -> ~nu_tau1 tau+)
     4.35596684E-02    2    -1000011        12   # BR(~chi_2+ -> ~e_L+    nu_e)
     4.35596684E-02    2    -1000013        14   # BR(~chi_2+ -> ~mu_L+   nu_mu)
     1.29876241E-01    2    -1000015        16   # BR(~chi_2+ -> ~tau_1+  nu_tau)
     3.06441174E-09    2    -2000015        16   # BR(~chi_2+ -> ~tau_2+  nu_tau)
     1.23724782E-01    2     1000024        23   # BR(~chi_2+ -> ~chi_1+  Z )
     1.19513073E-01    2     1000022        24   # BR(~chi_2+ -> ~chi_10  W+)
     1.20841623E-01    2     1000023        24   # BR(~chi_2+ -> ~chi_20  W+)
     1.26098183E-01    2     1000024        25   # BR(~chi_2+ -> ~chi_1+  h )
     1.88322665E-02    2     1000024        35   # BR(~chi_2+ -> ~chi_1+  H )
     1.88360443E-02    2     1000024        36   # BR(~chi_2+ -> ~chi_1+  A )
     1.87794429E-02    2     1000022        37   # BR(~chi_2+ -> ~chi_10  H+)
     1.84989078E-02    2     1000023        37   # BR(~chi_2+ -> ~chi_20  H+)
#
#         PDG            Width
DECAY   1000022     0.00000000E+00   # neutralino1 decays
#
#         PDG            Width
DECAY   1000023     1.26477547E-10   # neutralino2 decays
#          BR         NDA      ID1       ID2
     2.39199741E-01    2     1000022        22   # BR(~chi_20 -> ~chi_10 gam)
#           BR         NDA      ID1       ID2       ID3
     1.25494269E-01    3     1000022        -2         2   # BR(~chi_20 -> ~chi_10 ub      u)
     1.62952630E-01    3     1000022        -1         1   # BR(~chi_20 -> ~chi_10 db      d)
     1.62952630E-01    3     1000022        -3         3   # BR(~chi_20 -> ~chi_10 sb      s)
     3.74697892E-02    3     1000022       -11        11   # BR(~chi_20 -> ~chi_10 e+      e-)
     3.74697892E-02    3     1000022       -13        13   # BR(~chi_20 -> ~chi_10 mu+     mu-)
     7.49296179E-02    3     1000022       -12        12   # BR(~chi_20 -> ~chi_10 nu_eb   nu_e)
     7.49296179E-02    3     1000022       -14        14   # BR(~chi_20 -> ~chi_10 nu_mub  nu_mu)
     7.49299627E-02    3     1000022       -16        16   # BR(~chi_20 -> ~chi_10 nu_taub nu_tau)
     2.90158353E-03    3     1000024        -2         1   # BR(~chi_20 -> ~chi_1+ ub      d)
     2.90158353E-03    3    -1000024        -1         2   # BR(~chi_20 -> ~chi_1- db      u)
     9.67196626E-04    3     1000024       -12        11   # BR(~chi_20 -> ~chi_1+ nu_eb   e-)
     9.67196626E-04    3    -1000024        12       -11   # BR(~chi_20 -> ~chi_1- nu_e    e+)
     9.67196626E-04    3     1000024       -14        13   # BR(~chi_20 -> ~chi_1+ nu_mub  mu-)
     9.67196626E-04    3    -1000024        14       -13   # BR(~chi_20 -> ~chi_1- nu_mu   mu+)
#
#         PDG            Width
DECAY   1000025     2.79275475E+01   # neutralino3 decays
#          BR         NDA      ID1       ID2
     5.31119014E-02    2     1000022        23   # BR(~chi_30 -> ~chi_10   Z )
     7.06677285E-02    2     1000023        23   # BR(~chi_30 -> ~chi_20   Z )
     1.20515350E-01    2     1000024       -24   # BR(~chi_30 -> ~chi_1+   W-)
     1.20515350E-01    2    -1000024        24   # BR(~chi_30 -> ~chi_1-   W+)
     7.14461178E-02    2     1000022        25   # BR(~chi_30 -> ~chi_10   h )
     1.62110633E-02    2     1000022        35   # BR(~chi_30 -> ~chi_10   H )
     2.80625673E-03    2     1000022        36   # BR(~chi_30 -> ~chi_10   A )
     5.39538892E-02    2     1000023        25   # BR(~chi_30 -> ~chi_20   h )
     2.70410000E-03    2     1000023        35   # BR(~chi_30 -> ~chi_20   H )
     1.60291995E-02    2     1000023        36   # BR(~chi_30 -> ~chi_20   A )
     1.85816471E-02    2     1000024       -37   # BR(~chi_30 -> ~chi_1+   H-)
     1.85816471E-02    2    -1000024        37   # BR(~chi_30 -> ~chi_1-   H+)
     1.29089116E-08    2     2000002        -2   # BR(~chi_30 -> ~u_R      ub)
     1.29089116E-08    2    -2000002         2   # BR(~chi_30 -> ~u_R*     u )
     1.66868442E-09    2     2000001        -1   # BR(~chi_30 -> ~d_R      db)
     1.66868442E-09    2    -2000001         1   # BR(~chi_30 -> ~d_R*     d )
     1.29088987E-08    2     2000004        -4   # BR(~chi_30 -> ~c_R      cb)
     1.29088987E-08    2    -2000004         4   # BR(~chi_30 -> ~c_R*     c )
     1.66868442E-09    2     2000003        -3   # BR(~chi_30 -> ~s _R      sb)
     1.66868442E-09    2    -2000003         3   # BR(~chi_30 -> ~s _R*     s )
     1.30635858E-07    2     1000005        -5   # BR(~chi_30 -> ~b_1      bb)
     1.30635858E-07    2    -1000005         5   # BR(~chi_30 -> ~b_1*     b )
     2.17253812E-02    2     1000011       -11   # BR(~chi_30 -> ~e_L-     e+)
     2.17253812E-02    2    -1000011        11   # BR(~chi_30 -> ~e_L+     e-)
     4.48506111E-09    2     2000011       -11   # BR(~chi_30 -> ~e_R-     e+)
     4.48506111E-09    2    -2000011        11   # BR(~chi_30 -> ~e_R+     e-)
     2.17253812E-02    2     1000013       -13   # BR(~chi_30 -> ~mu_L-    mu+)
     2.17253812E-02    2    -1000013        13   # BR(~chi_30 -> ~mu_L+    mu-)
     4.48506111E-09    2     2000013       -13   # BR(~chi_30 -> ~mu_R-    mu+)
     4.48506111E-09    2    -2000013        13   # BR(~chi_30 -> ~mu_R+    mu-)
     6.48012508E-02    2     1000015       -15   # BR(~chi_30 -> ~tau_1-   tau+)
     6.48012508E-02    2    -1000015        15   # BR(~chi_30 -> ~tau_1+   tau-)
     1.75689784E-09    2     2000015       -15   # BR(~chi_30 -> ~tau_2-   tau+)
     1.75689784E-09    2    -2000015        15   # BR(~chi_30 -> ~tau_2+   tau-)
     2.19747981E-02    2     1000012       -12   # BR(~chi_30 -> ~nu_eL    nu_eb)
     2.19747981E-02    2    -1000012        12   # BR(~chi_30 -> ~nu_eL*   nu_e )
     2.19747981E-02    2     1000014       -14   # BR(~chi_30 -> ~nu_muL   nu_mub)
     2.19747981E-02    2    -1000014        14   # BR(~chi_30 -> ~nu_muL*  nu_mu )
     6.52360948E-02    2     1000016       -16   # BR(~chi_30 -> ~nu_tau1  nu_taub)
     6.52360948E-02    2    -1000016        16   # BR(~chi_30 -> ~nu_tau1* nu_tau )
#
#         PDG            Width
DECAY   1000035     1.41548011E+02   # neutralino4 decays
#          BR         NDA      ID1       ID2
     1.02453525E-02    2     1000022        23   # BR(~chi_40 -> ~chi_10   Z )
     6.23575197E-03    2     1000023        23   # BR(~chi_40 -> ~chi_20   Z )
     1.35472340E-05    2     1000025        23   # BR(~chi_40 -> ~chi_30   Z )
     1.59796150E-02    2     1000024       -24   # BR(~chi_40 -> ~chi_1+   W-)
     1.59796150E-02    2    -1000024        24   # BR(~chi_40 -> ~chi_1-   W+)
     1.44685253E-05    2     1000037       -24   # BR(~chi_40 -> ~chi_2+   W-)
     1.44685253E-05    2    -1000037        24   # BR(~chi_40 -> ~chi_2-   W+)
     6.54748099E-03    2     1000022        25   # BR(~chi_40 -> ~chi_10   h )
     6.01549357E-03    2     1000022        35   # BR(~chi_40 -> ~chi_10   H )
     6.41431483E-03    2     1000022        36   # BR(~chi_40 -> ~chi_10   A )
     1.10348394E-02    2     1000023        25   # BR(~chi_40 -> ~chi_20   h )
     6.33777107E-03    2     1000023        35   # BR(~chi_40 -> ~chi_20   H )
     5.94128557E-03    2     1000023        36   # BR(~chi_40 -> ~chi_20   A )
     1.60372960E-06    2     1000025        25   # BR(~chi_40 -> ~chi_30   h )
     4.47690075E-08    2     1000025        35   # BR(~chi_40 -> ~chi_30   H )
     3.19150459E-07    2     1000025        36   # BR(~chi_40 -> ~chi_30   A )
     1.23238152E-02    2     1000024       -37   # BR(~chi_40 -> ~chi_1+   H-)
     1.23238152E-02    2    -1000024        37   # BR(~chi_40 -> ~chi_1-   H+)
     3.63760013E-07    2     1000037       -37   # BR(~chi_40 -> ~chi_2+   H-)
     3.63760013E-07    2    -1000037        37   # BR(~chi_40 -> ~chi_2-   H+)
     2.08250837E-03    2     1000002        -2   # BR(~chi_40 -> ~u_L      ub)
     2.08250837E-03    2    -1000002         2   # BR(~chi_40 -> ~u_L*     u )
     7.54029660E-02    2     2000002        -2   # BR(~chi_40 -> ~u_R      ub)
     7.54029660E-02    2    -2000002         2   # BR(~chi_40 -> ~u_R*     u )
     2.08732074E-03    2     1000001        -1   # BR(~chi_40 -> ~d_L      db)
     2.08732074E-03    2    -1000001         1   # BR(~chi_40 -> ~d_L*     d )
     1.69829592E-02    2     2000001        -1   # BR(~chi_40 -> ~d_R      db)
     1.69829592E-02    2    -2000001         1   # BR(~chi_40 -> ~d_R*     d )
     2.08250752E-03    2     1000004        -4   # BR(~chi_40 -> ~c_L      cb)
     2.08250752E-03    2    -1000004         4   # BR(~chi_40 -> ~c_L*     c )
     7.54029633E-02    2     2000004        -4   # BR(~chi_40 -> ~c_R      cb)
     7.54029633E-02    2    -2000004         4   # BR(~chi_40 -> ~c_R*     c )
     2.08732074E-03    2     1000003        -3   # BR(~chi_40 -> ~s _L      sb)
     2.08732074E-03    2    -1000003         3   # BR(~chi_40 -> ~s _L*     s )
     1.69829592E-02    2     2000003        -3   # BR(~chi_40 -> ~s _R      sb)
     1.69829592E-02    2    -2000003         3   # BR(~chi_40 -> ~s _R*     s )
     1.99786186E-04    2     1000006        -6   # BR(~chi_40 -> ~t_1      tb)
     1.99786186E-04    2    -1000006         6   # BR(~chi_40 -> ~t_1*     t )
     2.10329572E-02    2     1000005        -5   # BR(~chi_40 -> ~b_1      bb)
     2.10329572E-02    2    -1000005         5   # BR(~chi_40 -> ~b_1*     b )
     1.26544939E-02    2     1000011       -11   # BR(~chi_40 -> ~e_L-     e+)
     1.26544939E-02    2    -1000011        11   # BR(~chi_40 -> ~e_L+     e-)
     5.25857878E-02    2     2000011       -11   # BR(~chi_40 -> ~e_R-     e+)
     5.25857878E-02    2    -2000011        11   # BR(~chi_40 -> ~e_R+     e-)
     1.26544939E-02    2     1000013       -13   # BR(~chi_40 -> ~mu_L-    mu+)
     1.26544939E-02    2    -1000013        13   # BR(~chi_40 -> ~mu_L+    mu-)
     5.25857878E-02    2     2000013       -13   # BR(~chi_40 -> ~mu_R-    mu+)
     5.25857878E-02    2    -2000013        13   # BR(~chi_40 -> ~mu_R+    mu-)
     1.48742562E-02    2     1000015       -15   # BR(~chi_40 -> ~tau_1-   tau+)
     1.48742562E-02    2    -1000015        15   # BR(~chi_40 -> ~tau_1+   tau-)
     4.23085717E-02    2     2000015       -15   # BR(~chi_40 -> ~tau_2-   tau+)
     4.23085717E-02    2    -2000015        15   # BR(~chi_40 -> ~tau_2+   tau-)
     1.26857091E-02    2     1000012       -12   # BR(~chi_40 -> ~nu_eL    nu_eb)
     1.26857091E-02    2    -1000012        12   # BR(~chi_40 -> ~nu_eL*   nu_e )
     1.26857091E-02    2     1000014       -14   # BR(~chi_40 -> ~nu_muL   nu_mub)
     1.26857091E-02    2    -1000014        14   # BR(~chi_40 -> ~nu_muL*  nu_mu )
     1.49087772E-02    2     1000016       -16   # BR(~chi_40 -> ~nu_tau1  nu_taub)
     1.49087772E-02    2    -1000016        16   # BR(~chi_40 -> ~nu_tau1* nu_tau )
#
#         PDG            Width
DECAY        25     3.98555870E-03   # h decays
#          BR         NDA      ID1       ID2
     6.00888135E-01    2           5        -5   # BR(h -> b       bb     )
     6.62557501E-02    2         -15        15   # BR(h -> tau+    tau-   )
     2.34510575E-04    2         -13        13   # BR(h -> mu+     mu-    )
     2.56147577E-04    2           3        -3   # BR(h -> s       sb     )
     2.17068647E-02    2           4        -4   # BR(h -> c       cb     )
     7.93159817E-02    2          21        21   # BR(h -> g       g      )
     2.32951954E-03    2          22        22   # BR(h -> gam     gam    )
     1.51553963E-03    2          22        23   # BR(h -> Z       gam    )
     2.02381705E-01    2          24       -24   # BR(h -> W+      W-     )
     2.51158460E-02    2          23        23   # BR(h -> Z       Z      )
#
#         PDG            Width
DECAY        35     5.90537476E+00   # H decays
#          BR         NDA      ID1       ID2
     8.16691709E-01    2           5        -5   # BR(H -> b       bb     )
     1.35757099E-01    2         -15        15   # BR(H -> tau+    tau-   )
     4.77826908E-04    2         -13        13   # BR(H -> mu+     mu-    )
     3.41660168E-04    2           3        -3   # BR(H -> s       sb     )
     4.12944517E-07    2           4        -4   # BR(H -> c       cb     )
     3.87923220E-02    2           6        -6   # BR(H -> t       tb     )
     3.91162171E-05    2          21        21   # BR(H -> g       g      )
     6.24342689E-09    2          22        22   # BR(H -> gam     gam    )
     4.07835323E-08    2          23        22   # BR(H -> Z       gam    )
     7.49697963E-05    2          24       -24   # BR(H -> W+      W-     )
     3.72315067E-05    2          23        23   # BR(H -> Z       Z      )
     2.89863919E-04    2          25        25   # BR(H -> h       h      )
     6.31542435E-03    2     1000024  -1000024   # BR(H -> ~chi_1+ ~chi_1-)
     7.80416373E-04    2     1000022   1000022   # BR(H -> ~chi_10 ~chi_10)
     4.00151786E-04    2     1000023   1000023   # BR(H -> ~chi_20 ~chi_20)
     1.74921501E-06    2     1000022   1000023   # BR(H -> ~chi_10 ~chi_20)
#
#         PDG            Width
DECAY        36     5.91525513E+00   # A decays
#          BR         NDA      ID1       ID2
     8.15459598E-01    2           5        -5   # BR(A -> b       bb     )
     1.35537651E-01    2         -15        15   # BR(A -> tau+    tau-   )
     4.77051571E-04    2         -13        13   # BR(A -> mu+     mu-    )
     3.41197386E-04    2           3        -3   # BR(A -> s       sb     )
     4.06511604E-07    2           4        -4   # BR(A -> c       cb     )
     3.95756829E-02    2           6        -6   # BR(A -> t       tb     )
     1.99794483E-04    2          21        21   # BR(A -> g       g      )
     8.90214625E-08    2          22        22   # BR(A -> gam     gam    )
     1.40123317E-07    2          23        22   # BR(A -> Z       gam    )
     7.48655304E-05    2          23        25   # BR(A -> Z       h      )
     7.03256327E-03    2     1000024  -1000024   # BR(A -> ~chi_1+ ~chi_1-)
     6.91499820E-04    2     1000022   1000022   # BR(A -> ~chi_10 ~chi_10)
     5.80703475E-04    2     1000023   1000023   # BR(A -> ~chi_20 ~chi_20)
     2.87569666E-05    2     1000022   1000023   # BR(A -> ~chi_10 ~chi_20)
#
#         PDG            Width
DECAY        37     5.86160854E+00   # H+ decays
#          BR         NDA      ID1       ID2
     1.38973785E-03    2           4        -5   # BR(H+ -> c       bb     )
     1.37036184E-01    2         -15        16   # BR(H+ -> tau+    nu_tau )
     4.82325951E-04    2         -13        14   # BR(H+ -> mu+     nu_mu  )
     1.38973030E-05    2           2        -5   # BR(H+ -> u       bb     )
     1.72027029E-05    2           2        -3   # BR(H+ -> u       sb     )
     3.38994320E-04    2           4        -3   # BR(H+ -> c       sb     )
     8.58406136E-01    2           6        -5   # BR(H+ -> t       bb     )
     7.62083047E-05    2          24        25   # BR(H+ -> W+      h      )
     2.95903269E-11    2          24        36   # BR(H+ -> W+      A      )
     9.48226479E-04    2     1000024   1000022   # BR(H+ -> ~chi_1+ ~chi_10)
     1.29108672E-03    2     1000024   1000023   # BR(H+ -> ~chi_1+ ~chi_20)
