#
#                              ======================
#                              | THE SUSYHIT OUTPUT |
#                              ======================
#
#
#              ------------------------------------------------------
#              |     This is the output of the SUSY-HIT package     |
#              |  created by A.Djouadi, M.Muehlleitner and M.Spira. |
#              |  In case of problems with SUSY-HIT email to        |
#              |           margarete.muehlleitner@cern.ch           |
#              |           michael.spira@psi.ch                     |
#              |           abdelhak.djouadi@cern.ch                 |
#              ------------------------------------------------------
#
#              ------------------------------------------------------
#              |  SUSY Les Houches Accord - MSSM Spectrum + Decays  |
#              |              based on the decay programs           |
#              |                                                    |
#              |                     SDECAY 1.3b                    |
#              |                                                    |
#              |  Authors: M.Muhlleitner, A.Djouadi and Y.Mambrini  |
#              |  Ref.:    Comput.Phys.Commun.168(2005)46           |
#              |           [hep-ph/0311167]                         |
#              |                                                    |
#              |                     HDECAY 3.4                     |
#              |                                                    |
#              |  By: A.Djouadi,J.Kalinowski,M.Muhlleitner,M.Spira  |
#              |  Ref.:    Comput.Phys.Commun.108(1998)56           |
#              |           [hep-ph/9704448]                         |
#              |                                                    |
#              |                                                    |
#              |  If not stated otherwise all DRbar couplings and   |
#              |  soft SUSY breaking masses are given at the scale  |
#              |  Q=  0.26221770E+04
#              |                                                    |
#              ------------------------------------------------------
#
#
BLOCK DCINFO  # Decay Program information
     1   SDECAY/HDECAY # decay calculator
     2   1.3b  /3.4    # version number
#
BLOCK SPINFO  # Spectrum calculator information
     1     SOFTSUSY    # spectrum calculator               
     2     3.4.0       # version number                    
#
BLOCK MODSEL  # Model selection
     1     0   #  nonUniversal                                     
#
BLOCK SMINPUTS  # Standard Model inputs
         1     1.27908970E+02   # alpha_em^-1(M_Z)^MSbar
         2     1.16637870E-05   # G_F [GeV^-2]
         3     1.18400000E-01   # alpha_S(M_Z)^MSbar
         4     9.11876000E+01   # M_Z pole mass
         5     4.18000000E+00   # mb(mb)^MSbar
         6     1.73200000E+02   # mt pole mass
         7     1.77700000E+00   # mtau pole mass
#
BLOCK MINPAR  # Input parameters - minimal models
         3     3.46300000E+01   # tanb                
#
BLOCK EXTPAR  # Input parameters - non-minimal models
         0    -1.00000000E+00   # Set                 
         1    -1.29938000E+03   # M_1(MX)             
         2    -3.67636000E+03   # M_2(MX)             
         3     1.16231000E+03   # M_3(MX)             
        11    -3.44792000E+03   # At(MX)              
        12     1.51812000E+03   # Ab(MX)              
        13    -3.28490000E+03   # Atau(MX)            
        23     2.93900000E+02   # mu(MX)              
        26     3.33350000E+03   # mA(pole)            
        31     1.14481000E+03   # meL(MX)             
        32     1.14481000E+03   # mmuL(MX)            
        33     3.54864000E+03   # mtauL(MX)           
        34     7.76290000E+02   # meR(MX)             
        35     7.76290000E+02   # mmuR(MX)            
        36     1.32482000E+03   # mtauR(MX)           
        41     2.98038000E+03   # mqL1(MX)            
        42     2.98038000E+03   # mqL2(MX)            
        43     3.47247000E+03   # mqL3(MX)            
        44     3.51619000E+03   # muR(MX)             
        45     3.51619000E+03   # mcR(MX)             
        46     1.97894000E+03   # mtR(MX)             
        47     3.87443000E+03   # mdR(MX)             
        48     3.87443000E+03   # msR(MX)             
        49     3.92045000E+03   # mbR(MX)             
#
BLOCK MASS  # Mass Spectrum
# PDG code           mass       particle
        24     8.03956540E+01   # W+
        25     1.25161301E+02   # h
        35     3.33350441E+03   # H
        36     3.33349991E+03   # A
        37     3.33488115E+03   # H+
         5     4.81876030E+00   # b-quark pole mass calculated from mb(mb)_Msbar
   1000001     3.03520985E+03   # ~d_L
   2000001     3.91201805E+03   # ~d_R
   1000002     3.03430592E+03   # ~u_L
   2000002     3.55156919E+03   # ~u_R
   1000003     3.03520985E+03   # ~s_L
   2000003     3.91201805E+03   # ~s_R
   1000004     3.03430592E+03   # ~c_L
   2000004     3.55156919E+03   # ~c_R
   1000005     3.49256921E+03   # ~b_1
   2000005     3.94894636E+03   # ~b_2
   1000006     1.96924912E+03   # ~t_1
   2000006     3.49909128E+03   # ~t_2
   1000011     1.16943514E+03   # ~e_L
   2000011     7.95843894E+02   # ~e_R
   1000012     1.16644988E+03   # ~nu_eL
   1000013     1.16943514E+03   # ~mu_L
   2000013     7.95843894E+02   # ~mu_R
   1000014     1.16644988E+03   # ~nu_muL
   1000015     1.33124387E+03   # ~tau_1
   2000015     3.56389236E+03   # ~tau_2
   1000016     3.56267769E+03   # ~nu_tauL
   1000021     1.38602147E+03   # ~g
   1000022    -3.07748693E+02   # ~chi_10
   1000023     3.10746343E+02   # ~chi_20
   1000025    -1.28339486E+03   # ~chi_30
   1000035    -3.66191065E+03   # ~chi_40
   1000024     3.09689413E+02   # ~chi_1+
   1000037     3.66207592E+03   # ~chi_2+
#
BLOCK NMIX  # Neutralino Mixing Matrix
  1  1     3.13342470E-02   # N_11
  1  2    -1.56675424E-02   # N_12
  1  3     7.08673698E-01   # N_13
  1  4     7.04666079E-01   # N_14
  2  1     2.04371444E-02   # N_21
  2  2    -1.42076548E-02   # N_22
  2  3    -7.05492509E-01   # N_23
  2  4     7.08280160E-01   # N_24
  3  1     9.99299893E-01   # N_31
  3  2     1.24201695E-03   # N_32
  3  3    -7.79245879E-03   # N_33
  3  4    -3.65712790E-02   # N_34
  4  1    -4.59956110E-04   # N_41
  4  2     9.99775539E-01   # N_42
  4  3     1.08970408E-03   # N_43
  4  4     2.11535560E-02   # N_44
#
BLOCK UMIX  # Chargino Mixing Matrix U
  1  1    -1.54231193E-03   # U_11
  1  2     9.99998811E-01   # U_12
  2  1    -9.99998811E-01   # U_21
  2  2    -1.54231193E-03   # U_22
#
BLOCK VMIX  # Chargino Mixing Matrix V
  1  1     2.99127953E-02   # V_11
  1  2     9.99552512E-01   # V_12
  2  1     9.99552512E-01   # V_21
  2  2    -2.99127953E-02   # V_22
#
BLOCK STOPMIX  # Stop Mixing Matrix
  1  1     6.06716576E-02   # cos(theta_t)
  1  2     9.98157778E-01   # sin(theta_t)
  2  1    -9.98157778E-01   # -sin(theta_t)
  2  2     6.06716576E-02   # cos(theta_t)
#
BLOCK SBOTMIX  # Sbottom Mixing Matrix
  1  1     9.99983277E-01   # cos(theta_b)
  1  2     5.78322750E-03   # sin(theta_b)
  2  1    -5.78322750E-03   # -sin(theta_b)
  2  2     9.99983277E-01   # cos(theta_b)
#
BLOCK STAUMIX  # Stau Mixing Matrix
  1  1     2.13565352E-03   # cos(theta_tau)
  1  2     9.99997719E-01   # sin(theta_tau)
  2  1    -9.99997719E-01   # -sin(theta_tau)
  2  2     2.13565352E-03   # cos(theta_tau)
#
BLOCK ALPHA  # Higgs mixing
          -2.98085691E-02   # Mixing angle in the neutral Higgs boson sector
#
BLOCK HMIX Q=  2.62217700E+03  # DRbar Higgs Parameters
         1     2.99593594E+02   # mu(Q)MSSM           
         2     3.36031401E+01   # tan                 
         3     2.43177963E+02   # higgs               
         4     1.09838408E+07   # mA^2(Q)MSSM         
#
BLOCK GAUGE Q=  2.62217700E+03  # The gauge couplings
     1     3.65028068E-01   # gprime(Q) DRbar
     2     6.36499416E-01   # g(Q) DRbar
     3     1.02481954E+00   # g3(Q) DRbar
#
BLOCK AU Q=  2.62217700E+03  # The trilinear couplings
  1  1     0.00000000E+00   # A_u(Q) DRbar
  2  2     0.00000000E+00   # A_c(Q) DRbar
  3  3    -3.44791999E+03   # A_t(Q) DRbar
#
BLOCK AD Q=  2.62217700E+03  # The trilinear couplings
  1  1     0.00000000E+00   # A_d(Q) DRbar
  2  2     0.00000000E+00   # A_s(Q) DRbar
  3  3     1.51812000E+03   # A_b(Q) DRbar
#
BLOCK AE Q=  2.62217700E+03  # The trilinear couplings
  1  1     0.00000000E+00   # A_e(Q) DRbar
  2  2     0.00000000E+00   # A_mu(Q) DRbar
  3  3    -3.28490000E+03   # A_tau(Q) DRbar
#
BLOCK Yu Q=  2.62217700E+03  # The Yukawa couplings
  1  1     0.00000000E+00   # y_u(Q) DRbar
  2  2     0.00000000E+00   # y_c(Q) DRbar
  3  3     8.24953095E-01   # y_t(Q) DRbar
#
BLOCK Yd Q=  2.62217700E+03  # The Yukawa couplings
  1  1     0.00000000E+00   # y_d(Q) DRbar
  2  2     0.00000000E+00   # y_s(Q) DRbar
  3  3     4.48175920E-01   # y_b(Q) DRbar
#
BLOCK Ye Q=  2.62217700E+03  # The Yukawa couplings
  1  1     0.00000000E+00   # y_e(Q) DRbar
  2  2     0.00000000E+00   # y_mu(Q) DRbar
  3  3     3.38559534E-01   # y_tau(Q) DRbar
#
BLOCK MSOFT Q=  2.62217700E+03  # The soft SUSY breaking masses at the scale Q
         1    -1.29938000E+03   # M_1(Q)              
         2    -3.67636000E+03   # M_2(Q)              
         3     1.16231000E+03   # M_3(Q)              
        21     1.10040981E+07   # mH1^2(Q)            
        22     6.46279240E+03   # mH2^2(Q)            
        31     1.14481000E+03   # meL(Q)              
        32     1.14481000E+03   # mmuL(Q)             
        33     3.54864000E+03   # mtauL(Q)            
        34     7.76290000E+02   # meR(Q)              
        35     7.76290000E+02   # mmuR(Q)             
        36     1.32482000E+03   # mtauR(Q)            
        41     2.98038000E+03   # mqL1(Q)             
        42     2.98038000E+03   # mqL2(Q)             
        43     3.47247000E+03   # mqL3(Q)             
        44     3.51619000E+03   # muR(Q)              
        45     3.51619000E+03   # mcR(Q)              
        46     1.97893999E+03   # mtR(Q)              
        47     3.87443000E+03   # mdR(Q)              
        48     3.87443000E+03   # msR(Q)              
        49     3.92045000E+03   # mbR(Q)              
#
Block HiggsBoundsInputHiggsCouplingsFermions
# ScalarNormEffCoupSq PseudoSNormEffCoupSq NP   IP1 IP2 IP2
    1.00391696E+00    0.00000000E+00        3  25   5   5  # h0-b-b eff. coupling^2, normalised to SM
    1.12916711E+03    0.00000000E+00        3  35   5   5  # H0-b-b eff. coupling^2, normalised to SM
    0.00000000E+00    1.12917102E+03        3  36   5   5  # A0-b-b eff. coupling^2, normalised to SM
#
    9.99996531E-01    0.00000000E+00        3  25   6   6  # h0-t-t eff. coupling^2, normalised to SM
    8.89074321E-04    0.00000000E+00        3  35   6   6  # H0-t-t eff. coupling^2, normalised to SM
    0.00000000E+00    8.85605438E-04        3  36   6   6  # A0-t-t eff. coupling^2, normalised to SM
#
    1.00391696E+00    0.00000000E+00        3  25  15  15  # h0-tau-tau eff. coupling^2, normalised to SM
    1.12916711E+03    0.00000000E+00        3  35  15  15  # H0-tau-tau eff. coupling^2, normalised to SM
    0.00000000E+00    1.12917102E+03        3  36  15  15  # A0-tau-tau eff. coupling^2, normalised to SM
#
Block HiggsBoundsInputHiggsCouplingsBosons
    9.99999997E-01        3  25  24  24  # h0-W-W eff. coupling^2, normalised to SM
    3.39024027E-09        3  35  24  24  # H0-W-W eff. coupling^2, normalised to SM
    0.00000000E+00        3  36  24  24  # A0-W-W eff. coupling^2, normalised to SM
#
    9.99999997E-01        3  25  23  23  # h0-Z-Z eff. coupling^2, normalised to SM
    3.39024027E-09        3  35  23  23  # H0-Z-Z eff. coupling^2, normalised to SM
    0.00000000E+00        3  36  23  23  # A0-Z-Z eff. coupling^2, normalised to SM
#
    8.90324365E-01        3  25  21  21  # h0-g-g eff. coupling^2, normalised to SM
    1.43823872E-13        3  35  21  21  # H0-g-g eff. coupling^2, normalised to SM
    1.01689575E-12        3  36  21  21  # A0-g-g eff. coupling^2, normalised to SM
#
    0.00000000E+00        3  25  25  23  # h0-h0-Z eff. coupling^2, normalised to SM
    0.00000000E+00        3  35  25  23  # H0-h0-Z eff. coupling^2, normalised to SM
    3.39024027E-09        3  36  25  23  # A0-h0-Z eff. coupling^2, normalised to SM
    0.00000000E+00        3  35  35  23  # H0-H0-Z eff. coupling^2, normalised to SM
    9.99999997E-01        3  36  35  23  # A0-H0-Z eff. coupling^2, normalised to SM
    0.00000000E+00        3  36  36  23  # A0-A0-Z eff. coupling^2, normalised to SM
#
    0.00000000E+00        4  25  21  21  23  # h0-g-g-Z eff. coupling^2, normalised to SM
    0.00000000E+00        4  35  21  21  23  # H0-g-g-Z eff. coupling^2, normalised to SM
    0.00000000E+00        4  36  21  21  23  # A0-g-g-Z eff. coupling^2, normalised to SM
#
#
#
#                             =================
#                             |The decay table|
#                             =================
#
# - The QCD corrections to the decays gluino -> squark  + quark
#                                     squark -> gaugino + quark_prime
#                                     squark -> squark_prime + Higgs
#                                     squark -> gluino  + quark
#   are included.
#
# - The multi-body decays for the inos, stops and sbottoms are included.
#
# - The loop induced decays for the gluino, neutralinos and stops
#   are included.
#
# - The SUSY decays of the top quark are included.
#
#
#         PDG            Width
DECAY         6     1.42655839E+00   # top decays
#          BR         NDA      ID1       ID2
     1.00000000E+00    2           5        24   # BR(t ->  b    W+)
#
#         PDG            Width
DECAY   1000021     6.25958202E-03   # gluino decays
#          BR         NDA      ID1       ID2
     8.86558834E-03    2     1000022        21   # BR(~g -> ~chi_10 g)
     8.48631717E-03    2     1000023        21   # BR(~g -> ~chi_20 g)
     2.10581517E-06    2     1000025        21   # BR(~g -> ~chi_30 g)
#           BR         NDA      ID1       ID2       ID3
     6.62103280E-06    3     1000022         1        -1   # BR(~g -> ~chi_10 d  db)
     8.22173205E-06    3     1000023         1        -1   # BR(~g -> ~chi_20 d  db)
     3.37196283E-08    3     1000025         1        -1   # BR(~g -> ~chi_30 d  db)
     4.88707333E-06    3     1000022         2        -2   # BR(~g -> ~chi_10 u  ub)
     5.41587725E-06    3     1000023         2        -2   # BR(~g -> ~chi_20 u  ub)
     1.31254535E-07    3     1000025         2        -2   # BR(~g -> ~chi_30 u  ub)
     6.62103280E-06    3     1000022         3        -3   # BR(~g -> ~chi_10 s  sb)
     8.22173205E-06    3     1000023         3        -3   # BR(~g -> ~chi_20 s  sb)
     3.37196283E-08    3     1000025         3        -3   # BR(~g -> ~chi_30 s  sb)
     4.88707333E-06    3     1000022         4        -4   # BR(~g -> ~chi_10 c  cb)
     5.41587725E-06    3     1000023         4        -4   # BR(~g -> ~chi_20 c  cb)
     1.31254535E-07    3     1000025         4        -4   # BR(~g -> ~chi_30 c  cb)
     1.16107825E-02    3     1000022         5        -5   # BR(~g -> ~chi_10 b  bb)
     1.14444667E-02    3     1000023         5        -5   # BR(~g -> ~chi_20 b  bb)
     2.55021433E-08    3     1000025         5        -5   # BR(~g -> ~chi_30 b  bb)
     2.07868044E-01    3     1000022         6        -6   # BR(~g -> ~chi_10 t  tb)
     2.24463532E-01    3     1000023         6        -6   # BR(~g -> ~chi_20 t  tb)
     1.58357978E-05    3     1000024         1        -2   # BR(~g -> ~chi_1+ d  ub)
     1.58357978E-05    3    -1000024         2        -1   # BR(~g -> ~chi_1- u  db)
     1.58357978E-05    3     1000024         3        -4   # BR(~g -> ~chi_1+ s  cb)
     1.58357978E-05    3    -1000024         4        -3   # BR(~g -> ~chi_1- c  sb)
     2.63572587E-01    3     1000024         5        -6   # BR(~g -> ~chi_1+ b  tb)
     2.63572587E-01    3    -1000024         6        -5   # BR(~g -> ~chi_1- t  bb)
#
#         PDG            Width
DECAY   1000006     7.85868481E+01   # stop1 decays
#          BR         NDA      ID1       ID2
     1.57672647E-01    2     1000022         6   # BR(~t_1 -> ~chi_10 t )
     1.58397070E-01    2     1000023         6   # BR(~t_1 -> ~chi_20 t )
     1.93715431E-02    2     1000025         6   # BR(~t_1 -> ~chi_30 t )
     3.20644996E-01    2     1000024         5   # BR(~t_1 -> ~chi_1+ b )
     3.43913744E-01    2     1000021         6   # BR(~t_1 -> ~g      t )
#
#         PDG            Width
DECAY   2000006     2.29301611E+02   # stop2 decays
#          BR         NDA      ID1       ID2
     1.00708917E-01    2     1000022         6   # BR(~t_2 -> ~chi_10 t )
     1.01884547E-01    2     1000023         6   # BR(~t_2 -> ~chi_20 t )
     1.76154141E-03    2     1000025         6   # BR(~t_2 -> ~chi_30 t )
     6.12341040E-02    2     1000024         5   # BR(~t_2 -> ~chi_1+ b )
     5.96809987E-01    2     1000021         6   # BR(~t_2 -> ~g      t )
     6.76184792E-02    2     1000006        25   # BR(~t_2 -> ~t_1    h )
     6.99824251E-02    2     1000006        23   # BR(~t_2 -> ~t_1    Z )
#
#         PDG            Width
DECAY   1000005     2.29415780E+02   # sbottom1 decays
#          BR         NDA      ID1       ID2
     3.01248788E-02    2     1000022         5   # BR(~b_1 -> ~chi_10 b )
     2.98082388E-02    2     1000023         5   # BR(~b_1 -> ~chi_20 b )
     1.65378623E-03    2     1000025         5   # BR(~b_1 -> ~chi_30 b )
     2.01675275E-01    2    -1000024         6   # BR(~b_1 -> ~chi_1- t )
     6.02103145E-01    2     1000021         5   # BR(~b_1 -> ~g      b )
     1.34634676E-01    2     1000006       -24   # BR(~b_1 -> ~t_1    W-)
#
#         PDG            Width
DECAY   2000005     2.02156893E+02   # sbottom2 decays
#          BR         NDA      ID1       ID2
     3.87175095E-02    2     1000022         5   # BR(~b_2 -> ~chi_10 b )
     3.83928195E-02    2     1000023         5   # BR(~b_2 -> ~chi_20 b )
     9.19807960E-03    2     1000025         5   # BR(~b_2 -> ~chi_30 b )
     7.28402606E-08    2     1000035         5   # BR(~b_2 -> ~chi_40 b )
     7.68165416E-02    2    -1000024         6   # BR(~b_2 -> ~chi_1- t )
     1.18993929E-07    2    -1000037         6   # BR(~b_2 -> ~chi_2- t )
     8.36739345E-01    2     1000021         5   # BR(~b_2 -> ~g      b )
     3.39715338E-05    2     1000005        25   # BR(~b_2 -> ~b_1    h )
     3.18710184E-05    2     1000005        23   # BR(~b_2 -> ~b_1    Z )
     9.88962520E-06    2     1000006       -24   # BR(~b_2 -> ~t_1    W-)
     5.97804851E-05    2     2000006       -24   # BR(~b_2 -> ~t_2    W-)
#
#         PDG            Width
DECAY   1000002     1.32102076E+02   # sup_L decays
#          BR         NDA      ID1       ID2
     8.20166917E-06    2     1000022         2   # BR(~u_L -> ~chi_10 u)
     9.28841352E-06    2     1000023         2   # BR(~u_L -> ~chi_20 u)
     2.23467611E-03    2     1000025         2   # BR(~u_L -> ~chi_30 u)
     1.56676678E-04    2     1000024         1   # BR(~u_L -> ~chi_1+ d)
     9.97591157E-01    2     1000021         2   # BR(~u_L -> ~g      u)
#
#         PDG            Width
DECAY   2000002     1.83132579E+02   # sup_R decays
#          BR         NDA      ID1       ID2
     4.27654532E-05    2     1000022         2   # BR(~u_R -> ~chi_10 u)
     1.81873606E-05    2     1000023         2   # BR(~u_R -> ~chi_20 u)
     3.34290199E-02    2     1000025         2   # BR(~u_R -> ~chi_30 u)
     9.66510027E-01    2     1000021         2   # BR(~u_R -> ~g      u)
#
#         PDG            Width
DECAY   1000001     1.32161590E+02   # sdown_L decays
#          BR         NDA      ID1       ID2
     4.10705338E-05    2     1000022         1   # BR(~d_L -> ~chi_10 d)
     2.87206162E-05    2     1000023         1   # BR(~d_L -> ~chi_20 d)
     2.17754307E-03    2     1000025         1   # BR(~d_L -> ~chi_30 d)
     4.16462391E-07    2    -1000024         2   # BR(~d_L -> ~chi_1- u)
     9.97752249E-01    2     1000021         1   # BR(~d_L -> ~g      d)
#
#         PDG            Width
DECAY   2000001     2.09252205E+02   # sdown_R decays
#          BR         NDA      ID1       ID2
     1.03427959E-05    2     1000022         1   # BR(~d_R -> ~chi_10 d)
     4.39882399E-06    2     1000023         1   # BR(~d_R -> ~chi_20 d)
     8.49045408E-03    2     1000025         1   # BR(~d_R -> ~chi_30 d)
     3.64286683E-11    2     1000035         1   # BR(~d_R -> ~chi_40 d)
     9.91494804E-01    2     1000021         1   # BR(~d_R -> ~g      d)
#
#         PDG            Width
DECAY   1000004     1.06202373E+02   # scharm_L decays
#          BR         NDA      ID1       ID2
     1.05625989E-05    2     1000022         4   # BR(~c_L -> ~chi_10 c)
     1.19620369E-05    2     1000023         4   # BR(~c_L -> ~chi_20 c)
     2.86979861E-03    2     1000025         4   # BR(~c_L -> ~chi_30 c)
     2.01776193E-04    2     1000024         3   # BR(~c_L -> ~chi_1+ s)
     9.96905901E-01    2     1000021         4   # BR(~c_L -> ~g      c)
#
#         PDG            Width
DECAY   2000004     1.48527980E+02   # scharm_R decays
#          BR         NDA      ID1       ID2
     5.44921814E-05    2     1000022         4   # BR(~c_R -> ~chi_10 c)
     2.31743440E-05    2     1000023         4   # BR(~c_R -> ~chi_20 c)
     4.25296627E-02    2     1000025         4   # BR(~c_R -> ~chi_30 c)
     9.57392671E-01    2     1000021         4   # BR(~c_R -> ~g      c)
#
#         PDG            Width
DECAY   1000003     1.06245397E+02   # sstrange_L decays
#          BR         NDA      ID1       ID2
     5.28952948E-05    2     1000022         3   # BR(~s_L -> ~chi_10 s)
     3.69892482E-05    2     1000023         3   # BR(~s_L -> ~chi_20 s)
     2.79655407E-03    2     1000025         3   # BR(~s_L -> ~chi_30 s)
     5.36363426E-07    2    -1000024         4   # BR(~s_L -> ~chi_1- c)
     9.97113025E-01    2     1000021         3   # BR(~s_L -> ~g      s)
#
#         PDG            Width
DECAY   2000003     1.68517092E+02   # sstrange_R decays
#          BR         NDA      ID1       ID2
     1.32609164E-05    2     1000022         3   # BR(~s_R -> ~chi_10 s)
     5.63987593E-06    2     1000023         3   # BR(~s_R -> ~chi_20 s)
     1.08745710E-02    2     1000025         3   # BR(~s_R -> ~chi_30 s)
     4.43253258E-11    2     1000035         3   # BR(~s_R -> ~chi_40 s)
     9.89106528E-01    2     1000021         3   # BR(~s_R -> ~g      s)
#
#         PDG            Width
DECAY   1000011     6.62086193E-05   # selectron_L decays
#          BR         NDA      ID1       ID2
     3.26885238E-01    2     1000022        11   # BR(~e_L -> ~chi_10 e-)
     3.80310634E-01    2     1000023        11   # BR(~e_L -> ~chi_20 e-)
     2.92804127E-01    2    -1000024        12   # BR(~e_L -> ~chi_1- nu_e)
#
#         PDG            Width
DECAY   2000011     4.35155966E-03   # selectron_R decays
#           BR         NDA      ID1       ID2
     6.88571750E-01    2     1000022        11   # BR(~e_R -> ~chi_10 e-)
     2.90908435E-01    2     1000023        11   # BR(~e_R -> ~chi_20 e-)
#           BR         NDA      ID1       ID2       ID3
     8.68355324E-04    3        11       23        1000022   # BR(~e_R- -> e-  Z  ~chi_10)
     3.59503287E-03    3        11       25        1000022   # BR(~e_R- -> e-  h  ~chi_10)
     3.48771502E-03    3        11       23        1000023   # BR(~e_R- -> e-  Z  ~chi_20)
     9.16567923E-04    3        11       25        1000023   # BR(~e_R- -> e-  h  ~chi_20)
     1.72122195E-03    3        11       -24        1000024   # BR(~e_R- -> e-  W-  ~chi_1+)
     9.93092210E-03    3        11       24        -1000024   # BR(~e_R- -> e-  W+  ~chi_1-)
#
#         PDG            Width
DECAY   1000013     6.62086184E-05   # smuon_L decays
#          BR         NDA      ID1       ID2
     3.26885237E-01    2     1000022        13   # BR(~mu_L -> ~chi_10 mu-)
     3.80310632E-01    2     1000023        13   # BR(~mu_L -> ~chi_20 mu-)
     2.92804131E-01    2    -1000024        14   # BR(~mu_L -> ~chi_1- nu_mu)
#
#         PDG            Width
DECAY   2000013     4.35164595E-03   # smuon_R decays
#           BR         NDA      ID1       ID2
     6.88558064E-01    2     1000022        13   # BR(~mu_R -> ~chi_10 mu-)
     2.90902650E-01    2     1000023        13   # BR(~mu_R -> ~chi_20 mu-)
#           BR         NDA      ID1       ID2       ID3
     8.68223206E-04    3        13       23        1000022   # BR(~mu_R- -> mu-  Z  ~chi_10)
     3.59335299E-03    3        13       25        1000022   # BR(~mu_R- -> mu-  h  ~chi_10)
     3.48626708E-03    3        13       23        1000023   # BR(~mu_R- -> mu-  Z  ~chi_20)
     9.16549748E-04    3        13       25        1000023   # BR(~mu_R- -> mu-  h  ~chi_20)
     1.72256661E-03    3        13       -24        1000024   # BR(~mu_R- -> mu-  W-  ~chi_1+)
     9.95232620E-03    3        13       24        -1000024   # BR(~mu_R- -> mu-  W+  ~chi_1-)
#
#         PDG            Width
DECAY   1000015     5.47697283E+00   # stau_1 decays
#          BR         NDA      ID1       ID2
     2.50627350E-01    2     1000022        15   # BR(~tau_1 -> ~chi_10  tau-)
     2.47067132E-01    2     1000023        15   # BR(~tau_1 -> ~chi_20  tau-)
     6.40558336E-03    2     1000025        15   # BR(~tau_1 -> ~chi_30  tau-)
     4.95899934E-01    2    -1000024        16   # BR(~tau_1 -> ~chi_1-  nu_tau)
#
#         PDG            Width
DECAY   2000015     1.16790826E+01   # stau_2 decays
#          BR         NDA      ID1       ID2
     3.44189833E-01    2     1000022        15   # BR(~tau_2 -> ~chi_10  tau-)
     3.41171378E-01    2     1000023        15   # BR(~tau_2 -> ~chi_20  tau-)
     3.07308006E-01    2     1000025        15   # BR(~tau_2 -> ~chi_30  tau-)
     3.99973884E-07    2    -1000024        16   # BR(~tau_2 -> ~chi_1-  nu_tau)
     3.71458683E-03    2     1000015        25   # BR(~tau_2 -> ~tau_1   h)
     3.61579613E-03    2     1000015        23   # BR(~tau_2 -> ~tau_1   Z)
#
#         PDG            Width
DECAY   1000012     1.45995883E-02   # snu_eL decays
#          BR         NDA      ID1       ID2
     3.15356164E-01    2     1000022        12   # BR(~nu_eL -> ~chi_10 nu_e)
     1.86820989E-01    2     1000023        12   # BR(~nu_eL -> ~chi_20 nu_e)
     4.97822847E-01    2     1000024        11   # BR(~nu_eL -> ~chi_1+ e-)
#
#         PDG            Width
DECAY   1000014     1.45995881E-02   # snu_muL decays
#          BR         NDA      ID1       ID2
     3.15356167E-01    2     1000022        14   # BR(~nu_muL -> ~chi_10 nu_mu)
     1.86820990E-01    2     1000023        14   # BR(~nu_muL -> ~chi_20 nu_mu)
     4.97822842E-01    2     1000024        13   # BR(~nu_muL -> ~chi_1+ mu-)
#
#         PDG            Width
DECAY   1000016     1.16899451E+01   # snu_tauL decays
#          BR         NDA      ID1       ID2
     1.36899754E-03    2     1000022        16   # BR(~nu_tauL -> ~chi_10 nu_tau)
     8.13152945E-04    2     1000023        16   # BR(~nu_tauL -> ~chi_20 nu_tau)
     3.04154376E-01    2     1000025        16   # BR(~nu_tauL -> ~chi_30 nu_tau)
     6.86673885E-01    2     1000024        15   # BR(~nu_tauL -> ~chi_1+ tau-)
     6.98958828E-03    2    -1000015       -24   # BR(~nu_tauL -> ~tau_1+ W-)
#
#         PDG            Width
DECAY   1000024     1.79961328E-11   # chargino1+ decays
#           BR         NDA      ID1       ID2       ID3
     5.99875638E-01    3     1000022         2        -1   # BR(~chi_1+ -> ~chi_10 u    db)
     1.99959517E-01    3     1000022       -11        12   # BR(~chi_1+ -> ~chi_10 e+   nu_e)
     1.99959517E-01    3     1000022       -13        14   # BR(~chi_1+ -> ~chi_10 mu+  nu_mu)
     2.05328348E-04    3     1000022       -15        16   # BR(~chi_1+ -> ~chi_10 tau+ nu_tau)
#
#         PDG            Width
DECAY   1000037     9.33847912E+01   # chargino2+ decays
#          BR         NDA      ID1       ID2
     4.59854499E-02    2     1000002        -1   # BR(~chi_2+ -> ~u_L     db)
     4.59082302E-02    2    -1000001         2   # BR(~chi_2+ -> ~d_L*    u )
     4.59854422E-02    2     1000004        -3   # BR(~chi_2+ -> ~c_L     sb)
     4.59081058E-02    2    -1000003         4   # BR(~chi_2+ -> ~s_L*     c )
     2.36415716E-03    2     1000006        -5   # BR(~chi_2+ -> ~t_1     bb)
     3.55653760E-03    2     2000006        -5   # BR(~chi_2+ -> ~t_2     bb)
     1.27478617E-01    2     1000012       -11   # BR(~chi_2+ -> ~nu_eL   e+  )
     1.27478617E-01    2     1000014       -13   # BR(~chi_2+ -> ~nu_muL mu+ )
     4.52687283E-04    2     1000016       -15   # BR(~chi_2+ -> ~nu_tau1 tau+)
     1.27444853E-01    2    -1000011        12   # BR(~chi_2+ -> ~e_L+    nu_e)
     1.27444853E-01    2    -1000013        14   # BR(~chi_2+ -> ~mu_L+   nu_mu)
     2.05910108E-07    2    -1000015        16   # BR(~chi_2+ -> ~tau_1+  nu_tau)
     4.42289007E-04    2    -2000015        16   # BR(~chi_2+ -> ~tau_2+  nu_tau)
     7.42804294E-02    2     1000024        23   # BR(~chi_2+ -> ~chi_1+  Z )
     7.13953215E-02    2     1000022        24   # BR(~chi_2+ -> ~chi_10  W+)
     7.21668626E-02    2     1000023        24   # BR(~chi_2+ -> ~chi_20  W+)
     3.84859846E-04    2     1000025        24   # BR(~chi_2+ -> ~chi_30  W+)
     7.79661180E-02    2     1000024        25   # BR(~chi_2+ -> ~chi_1+  h )
     8.51831840E-04    2     1000024        35   # BR(~chi_2+ -> ~chi_1+  H )
     8.52006999E-04    2     1000024        36   # BR(~chi_2+ -> ~chi_1+  A )
     8.62833242E-04    2     1000022        37   # BR(~chi_2+ -> ~chi_10  H+)
     7.89690998E-04    2     1000023        37   # BR(~chi_2+ -> ~chi_20  H+)
#
#         PDG            Width
DECAY   1000022     0.00000000E+00   # neutralino1 decays
#
#         PDG            Width
DECAY   1000023     2.07008950E-10   # neutralino2 decays
#          BR         NDA      ID1       ID2
     1.79489798E-01    2     1000022        22   # BR(~chi_20 -> ~chi_10 gam)
#           BR         NDA      ID1       ID2       ID3
     1.35630969E-01    3     1000022        -2         2   # BR(~chi_20 -> ~chi_10 ub      u)
     1.76151942E-01    3     1000022        -1         1   # BR(~chi_20 -> ~chi_10 db      d)
     1.76151942E-01    3     1000022        -3         3   # BR(~chi_20 -> ~chi_10 sb      s)
     4.05284919E-02    3     1000022       -11        11   # BR(~chi_20 -> ~chi_10 e+      e-)
     4.05284919E-02    3     1000022       -13        13   # BR(~chi_20 -> ~chi_10 mu+     mu-)
     8.10511140E-02    3     1000022       -12        12   # BR(~chi_20 -> ~chi_10 nu_eb   nu_e)
     8.10511140E-02    3     1000022       -14        14   # BR(~chi_20 -> ~chi_10 nu_mub  nu_mu)
     8.10504845E-02    3     1000022       -16        16   # BR(~chi_20 -> ~chi_10 nu_taub nu_tau)
     2.50969228E-03    3     1000024        -2         1   # BR(~chi_20 -> ~chi_1+ ub      d)
     2.50969228E-03    3    -1000024        -1         2   # BR(~chi_20 -> ~chi_1- db      u)
     8.36567248E-04    3     1000024       -12        11   # BR(~chi_20 -> ~chi_1+ nu_eb   e-)
     8.36567248E-04    3    -1000024        12       -11   # BR(~chi_20 -> ~chi_1- nu_e    e+)
     8.36567248E-04    3     1000024       -14        13   # BR(~chi_20 -> ~chi_1+ nu_mub  mu-)
     8.36567248E-04    3    -1000024        14       -13   # BR(~chi_20 -> ~chi_1- nu_mu   mu+)
#
#         PDG            Width
DECAY   1000025     8.47066256E+00   # neutralino3 decays
#          BR         NDA      ID1       ID2
     2.78060775E-02    2     1000022        23   # BR(~chi_30 -> ~chi_10   Z )
     6.55496996E-02    2     1000023        23   # BR(~chi_30 -> ~chi_20   Z )
     9.07913706E-02    2     1000024       -24   # BR(~chi_30 -> ~chi_1+   W-)
     9.07913706E-02    2    -1000024        24   # BR(~chi_30 -> ~chi_1-   W+)
     6.59205358E-02    2     1000022        25   # BR(~chi_30 -> ~chi_10   h )
     2.77643339E-02    2     1000023        25   # BR(~chi_30 -> ~chi_20   h )
     2.90024122E-03    2     1000011       -11   # BR(~chi_30 -> ~e_L-     e+)
     2.90024122E-03    2    -1000011        11   # BR(~chi_30 -> ~e_L+     e-)
     1.51923460E-01    2     2000011       -11   # BR(~chi_30 -> ~e_R-     e+)
     1.51923460E-01    2    -2000011        11   # BR(~chi_30 -> ~e_R+     e-)
     2.90024122E-03    2     1000013       -13   # BR(~chi_30 -> ~mu_L-    mu+)
     2.90024122E-03    2    -1000013        13   # BR(~chi_30 -> ~mu_L+    mu-)
     1.51923460E-01    2     2000013       -13   # BR(~chi_30 -> ~mu_R-    mu+)
     1.51923460E-01    2    -2000013        13   # BR(~chi_30 -> ~mu_R+    mu-)
     3.02045180E-03    2     1000012       -12   # BR(~chi_30 -> ~nu_eL    nu_eb)
     3.02045180E-03    2    -1000012        12   # BR(~chi_30 -> ~nu_eL*   nu_e )
     3.02045180E-03    2     1000014       -14   # BR(~chi_30 -> ~nu_muL   nu_mub)
     3.02045180E-03    2    -1000014        14   # BR(~chi_30 -> ~nu_muL*  nu_mu )
#
#         PDG            Width
DECAY   1000035     9.33923662E+01   # neutralino4 decays
#          BR         NDA      ID1       ID2
     3.31227515E-02    2     1000022        23   # BR(~chi_40 -> ~chi_10   Z )
     4.10942271E-02    2     1000023        23   # BR(~chi_40 -> ~chi_20   Z )
     6.70103989E-05    2     1000025        23   # BR(~chi_40 -> ~chi_30   Z )
     7.19455030E-02    2     1000024       -24   # BR(~chi_40 -> ~chi_1+   W-)
     7.19455030E-02    2    -1000024        24   # BR(~chi_40 -> ~chi_1-   W+)
     4.28540268E-02    2     1000022        25   # BR(~chi_40 -> ~chi_10   h )
     8.69899952E-04    2     1000022        35   # BR(~chi_40 -> ~chi_10   H )
     2.29865599E-05    2     1000022        36   # BR(~chi_40 -> ~chi_10   A )
     3.47698004E-02    2     1000023        25   # BR(~chi_40 -> ~chi_20   h )
     1.80248497E-05    2     1000023        35   # BR(~chi_40 -> ~chi_20   H )
     8.03683280E-04    2     1000023        36   # BR(~chi_40 -> ~chi_20   A )
     2.95347228E-04    2     1000025        25   # BR(~chi_40 -> ~chi_30   h )
     8.12099911E-04    2     1000024       -37   # BR(~chi_40 -> ~chi_1+   H-)
     8.12099911E-04    2    -1000024        37   # BR(~chi_40 -> ~chi_1-   H+)
     2.29870839E-02    2     1000002        -2   # BR(~chi_40 -> ~u_L      ub)
     2.29870839E-02    2    -1000002         2   # BR(~chi_40 -> ~u_L*     u )
     1.08746282E-10    2     2000002        -2   # BR(~chi_40 -> ~u_R      ub)
     1.08746282E-10    2    -2000002         2   # BR(~chi_40 -> ~u_R*     u )
     2.29360545E-02    2     1000001        -1   # BR(~chi_40 -> ~d_L      db)
     2.29360545E-02    2    -1000001         1   # BR(~chi_40 -> ~d_L*     d )
     2.29870218E-02    2     1000004        -4   # BR(~chi_40 -> ~c_L      cb)
     2.29870218E-02    2    -1000004         4   # BR(~chi_40 -> ~c_L*     c )
     1.08735751E-10    2     2000004        -4   # BR(~chi_40 -> ~c_R      cb)
     1.08735751E-10    2    -2000004         4   # BR(~chi_40 -> ~c_R*     c )
     2.29360545E-02    2     1000003        -3   # BR(~chi_40 -> ~s _L      sb)
     2.29360545E-02    2    -1000003         3   # BR(~chi_40 -> ~s _L*     s )
     1.17141983E-03    2     1000006        -6   # BR(~chi_40 -> ~t_1      tb)
     1.17141983E-03    2    -1000006         6   # BR(~chi_40 -> ~t_1*     t )
     1.93355768E-03    2     1000005        -5   # BR(~chi_40 -> ~b_1      bb)
     1.93355768E-03    2    -1000005         5   # BR(~chi_40 -> ~b_1*     b )
     6.36510278E-02    2     1000011       -11   # BR(~chi_40 -> ~e_L-     e+)
     6.36510278E-02    2    -1000011        11   # BR(~chi_40 -> ~e_L+     e-)
     1.99611586E-08    2     2000011       -11   # BR(~chi_40 -> ~e_R-     e+)
     1.99611586E-08    2    -2000011        11   # BR(~chi_40 -> ~e_R+     e-)
     6.36510278E-02    2     1000013       -13   # BR(~chi_40 -> ~mu_L-    mu+)
     6.36510278E-02    2    -1000013        13   # BR(~chi_40 -> ~mu_L+    mu-)
     1.99611586E-08    2     2000013       -13   # BR(~chi_40 -> ~mu_R-    mu+)
     1.99611586E-08    2    -2000013        13   # BR(~chi_40 -> ~mu_R+    mu-)
     1.19238812E-07    2     1000015       -15   # BR(~chi_40 -> ~tau_1-   tau+)
     1.19238812E-07    2    -1000015        15   # BR(~chi_40 -> ~tau_1+   tau-)
     2.20159453E-04    2     2000015       -15   # BR(~chi_40 -> ~tau_2-   tau+)
     2.20159453E-04    2    -2000015        15   # BR(~chi_40 -> ~tau_2+   tau-)
     6.37920549E-02    2     1000012       -12   # BR(~chi_40 -> ~nu_eL    nu_eb)
     6.37920549E-02    2    -1000012        12   # BR(~chi_40 -> ~nu_eL*   nu_e )
     6.37920549E-02    2     1000014       -14   # BR(~chi_40 -> ~nu_muL   nu_mub)
     6.37920549E-02    2    -1000014        14   # BR(~chi_40 -> ~nu_muL*  nu_mu )
     2.25841536E-04    2     1000016       -16   # BR(~chi_40 -> ~nu_tau1  nu_taub)
     2.25841536E-04    2    -1000016        16   # BR(~chi_40 -> ~nu_tau1* nu_tau )
#
#         PDG            Width
DECAY        25     4.08205582E-03   # h decays
#          BR         NDA      ID1       ID2
     5.96575262E-01    2           5        -5   # BR(h -> b       bb     )
     6.37188866E-02    2         -15        15   # BR(h -> tau+    tau-   )
     2.25552697E-04    2         -13        13   # BR(h -> mu+     mu-    )
     2.46112378E-04    2           3        -3   # BR(h -> s       sb     )
     2.12684981E-02    2           4        -4   # BR(h -> c       cb     )
     7.85312465E-02    2          21        21   # BR(h -> g       g      )
     2.31649014E-03    2          22        22   # BR(h -> gam     gam    )
     1.55270713E-03    2          22        23   # BR(h -> Z       gam    )
     2.09343596E-01    2          24       -24   # BR(h -> W+      W-     )
     2.62216482E-02    2          23        23   # BR(h -> Z       Z      )
#
#         PDG            Width
DECAY        35     5.34276658E+01   # H decays
#          BR         NDA      ID1       ID2
     7.94294163E-01    2           5        -5   # BR(H -> b       bb     )
     1.48629780E-01    2         -15        15   # BR(H -> tau+    tau-   )
     5.39755830E-04    2         -13        13   # BR(H -> mu+     mu-    )
     3.09637964E-04    2           3        -3   # BR(H -> s       sb     )
     2.24493703E-08    2           4        -4   # BR(H -> c       cb     )
     2.21081918E-03    2           6        -6   # BR(H -> t       tb     )
     9.60469045E-06    2          21        21   # BR(H -> g       g      )
     1.97581392E-09    2          22        22   # BR(H -> gam     gam    )
     5.38970044E-09    2          23        22   # BR(H -> Z       gam    )
     7.55913646E-07    2          24       -24   # BR(H -> W+      W-     )
     3.77212319E-07    2          23        23   # BR(H -> Z       Z      )
     3.01820085E-06    2          25        25   # BR(H -> h       h      )
     4.50316888E-04    2     1000024  -1000024   # BR(H -> ~chi_1+ ~chi_1-)
     2.81301200E-04    2     1000022   1000022   # BR(H -> ~chi_10 ~chi_10)
     1.48544528E-04    2     1000023   1000023   # BR(H -> ~chi_20 ~chi_20)
     3.08681188E-06    2     1000025   1000025   # BR(H -> ~chi_30 ~chi_30)
     3.85438850E-06    2     1000022   1000023   # BR(H -> ~chi_10 ~chi_20)
     2.59752053E-02    2     1000022   1000025   # BR(H -> ~chi_10 ~chi_30)
     2.71379596E-02    2     1000023   1000025   # BR(H -> ~chi_20 ~chi_30)
     9.89329371E-08    2     1000011  -1000011   # BR(H -> ~e_L-   ~e_L+  )
     7.86716966E-08    2     2000011  -2000011   # BR(H -> ~e_R-   ~e_R+  )
     9.89329371E-08    2     1000013  -1000013   # BR(H -> ~mu_L-  ~mu_L+ )
     7.86716966E-08    2     2000013  -2000013   # BR(H -> ~mu_R-  ~mu_R+ )
     7.89308308E-07    2     1000015  -1000015   # BR(H -> ~tau_1- ~tau_1+)
     3.22421924E-07    2     1000012  -1000012   # BR(H -> ~nu_eL  ~nu_eL*   )
     3.22421924E-07    2     1000014  -1000014   # BR(H -> ~nu_muL ~nu_muL*  )
#
#         PDG            Width
DECAY        36     5.34307811E+01   # A decays
#          BR         NDA      ID1       ID2
     7.94271183E-01    2           5        -5   # BR(A -> b       bb     )
     1.48621593E-01    2         -15        15   # BR(A -> tau+    tau-   )
     5.39725464E-04    2         -13        13   # BR(A -> mu+     mu-    )
     3.09639882E-04    2           3        -3   # BR(A -> s       sb     )
     2.25678486E-08    2           4        -4   # BR(A -> c       cb     )
     2.21740933E-03    2           6        -6   # BR(A -> t       tb     )
     2.55374976E-05    2          21        21   # BR(A -> g       g      )
     7.50087521E-09    2          22        22   # BR(A -> gam     gam    )
     1.98681326E-08    2          23        22   # BR(A -> Z       gam    )
     7.66315407E-07    2          23        25   # BR(A -> Z       h      )
     4.63537668E-04    2     1000024  -1000024   # BR(A -> ~chi_1+ ~chi_1-)
     2.58668108E-04    2     1000022   1000022   # BR(A -> ~chi_10 ~chi_10)
     1.73446514E-04    2     1000023   1000023   # BR(A -> ~chi_20 ~chi_20)
     4.31869862E-06    2     1000025   1000025   # BR(A -> ~chi_30 ~chi_30)
     9.88181168E-06    2     1000022   1000023   # BR(A -> ~chi_10 ~chi_20)
     2.73268773E-02    2     1000022   1000025   # BR(A -> ~chi_10 ~chi_30)
     2.57773649E-02    2     1000023   1000025   # BR(A -> ~chi_20 ~chi_30)
#
#         PDG            Width
DECAY        37     5.23377869E+01   # H+ decays
#          BR         NDA      ID1       ID2
     1.32774107E-03    2           4        -5   # BR(H+ -> c       bb     )
     1.51788195E-01    2         -15        16   # BR(H+ -> tau+    nu_tau )
     5.51225106E-04    2         -13        14   # BR(H+ -> mu+     nu_mu  )
     1.32773976E-05    2           2        -5   # BR(H+ -> u       bb     )
     1.58182407E-05    2           2        -3   # BR(H+ -> u       sb     )
     3.11373109E-04    2           4        -3   # BR(H+ -> c       sb     )
     7.91216130E-01    2           6        -5   # BR(H+ -> t       bb     )
     7.83689086E-07    2          24        25   # BR(H+ -> W+      h      )
     1.26381729E-13    2          24        36   # BR(H+ -> W+      A      )
     2.03001949E-06    2     1000024   1000022   # BR(H+ -> ~chi_1+ ~chi_10)
     6.15604862E-06    2     1000024   1000023   # BR(H+ -> ~chi_1+ ~chi_20)
     5.47664776E-02    2     1000024   1000025   # BR(H+ -> ~chi_1+ ~chi_30)
     3.96463225E-07    2    -1000011   1000012   # BR(H+ -> ~e_L+   ~nu_eL )
     3.96463225E-07    2    -1000013   1000014   # BR(H+ -> ~mu_L+  ~nu_muL)
