#
#                              ======================
#                              | THE SUSYHIT OUTPUT |
#                              ======================
#
#
#              ------------------------------------------------------
#              |     This is the output of the SUSY-HIT package     |
#              |  created by A.Djouadi, M.Muehlleitner and M.Spira. |
#              |  In case of problems with SUSY-HIT email to        |
#              |           margarete.muehlleitner@cern.ch           |
#              |           michael.spira@psi.ch                     |
#              |           abdelhak.djouadi@cern.ch                 |
#              ------------------------------------------------------
#
#              ------------------------------------------------------
#              |  SUSY Les Houches Accord - MSSM Spectrum + Decays  |
#              |              based on the decay programs           |
#              |                                                    |
#              |                     SDECAY 1.3b                    |
#              |                                                    |
#              |  Authors: M.Muhlleitner, A.Djouadi and Y.Mambrini  |
#              |  Ref.:    Comput.Phys.Commun.168(2005)46           |
#              |           [hep-ph/0311167]                         |
#              |                                                    |
#              |                     HDECAY 3.4                     |
#              |                                                    |
#              |  By: A.Djouadi,J.Kalinowski,M.Muhlleitner,M.Spira  |
#              |  Ref.:    Comput.Phys.Commun.108(1998)56           |
#              |           [hep-ph/9704448]                         |
#              |                                                    |
#              |                                                    |
#              |  If not stated otherwise all DRbar couplings and   |
#              |  soft SUSY breaking masses are given at the scale  |
#              |  Q=  0.34942910E+04
#              |                                                    |
#              ------------------------------------------------------
#
#
BLOCK DCINFO  # Decay Program information
     1   SDECAY/HDECAY # decay calculator
     2   1.3b  /3.4    # version number
#
BLOCK SPINFO  # Spectrum calculator information
     1     SOFTSUSY    # spectrum calculator               
     2     3.4.0       # version number                    
#
BLOCK MODSEL  # Model selection
     1     0   #  nonUniversal                                     
#
BLOCK SMINPUTS  # Standard Model inputs
         1     1.27908970E+02   # alpha_em^-1(M_Z)^MSbar
         2     1.16637870E-05   # G_F [GeV^-2]
         3     1.18400000E-01   # alpha_S(M_Z)^MSbar
         4     9.11876000E+01   # M_Z pole mass
         5     4.18000000E+00   # mb(mb)^MSbar
         6     1.73200000E+02   # mt pole mass
         7     1.77700000E+00   # mtau pole mass
#
BLOCK MINPAR  # Input parameters - minimal models
         3     5.67900000E+01   # tanb                
#
BLOCK EXTPAR  # Input parameters - non-minimal models
         0    -1.00000000E+00   # Set                 
         1     7.48300000E+01   # M_1(MX)             
         2     3.35725000E+03   # M_2(MX)             
         3     3.65868000E+03   # M_3(MX)             
        11     3.33257000E+03   # At(MX)              
        12    -2.06391000E+03   # Ab(MX)              
        13    -2.08162000E+03   # Atau(MX)            
        23    -1.07330000E+02   # mu(MX)              
        26     9.79700000E+02   # mA(pole)            
        31     1.37447000E+03   # meL(MX)             
        32     1.37447000E+03   # mmuL(MX)            
        33     1.15613000E+03   # mtauL(MX)           
        34     8.86370000E+02   # meR(MX)             
        35     8.86370000E+02   # mmuR(MX)            
        36     2.73088000E+03   # mtauR(MX)           
        41     1.36211000E+03   # mqL1(MX)            
        42     1.36211000E+03   # mqL2(MX)            
        43     3.62028000E+03   # mqL3(MX)            
        44     7.37860000E+02   # muR(MX)             
        45     7.37860000E+02   # mcR(MX)             
        46     3.37020000E+03   # mtR(MX)             
        47     3.42436000E+03   # mdR(MX)             
        48     3.42436000E+03   # msR(MX)             
        49     3.71899000E+03   # mbR(MX)             
#
BLOCK MASS  # Mass Spectrum
# PDG code           mass       particle
        24     8.03855459E+01   # W+
        25     1.24901062E+02   # h
        35     9.79708257E+02   # H
        36     9.79699966E+02   # A
        37     9.83897945E+02   # H+
         5     4.81876030E+00   # b-quark pole mass calculated from mb(mb)_Msbar
   1000001     1.59121336E+03   # ~d_L
   2000001     3.54715024E+03   # ~d_R
   1000002     1.58929960E+03   # ~u_L
   2000002     1.01222343E+03   # ~u_R
   1000003     1.59121336E+03   # ~s_L
   2000003     3.54715024E+03   # ~s_R
   1000004     1.58929960E+03   # ~c_L
   2000004     1.01222343E+03   # ~c_R
   1000005     3.70194618E+03   # ~b_1
   2000005     3.78712115E+03   # ~b_2
   1000006     3.42114199E+03   # ~t_1
   2000006     3.71660427E+03   # ~t_2
   1000011     1.42332159E+03   # ~e_L
   2000011     8.76130142E+02   # ~e_R
   1000012     1.42083175E+03   # ~nu_eL
   1000013     1.42332159E+03   # ~mu_L
   2000013     8.76130142E+02   # ~mu_R
   1000014     1.42083175E+03   # ~nu_muL
   1000015     1.18869466E+03   # ~tau_1
   2000015     2.69802129E+03   # ~tau_2
   1000016     1.18578925E+03   # ~nu_tauL
   1000021     3.75286216E+03   # ~g
   1000022     6.12906895E+01   # ~chi_10
   1000023    -1.21395038E+02   # ~chi_20
   1000025     1.31544357E+02   # ~chi_30
   1000035     3.31636201E+03   # ~chi_40
   1000024     1.15541508E+02   # ~chi_1+
   1000037     3.31652646E+03   # ~chi_2+
#
BLOCK NMIX  # Neutralino Mixing Matrix
  1  1     8.57390188E-01   # N_11
  1  2    -5.42764801E-03   # N_12
  1  3    -4.56641758E-01   # N_13
  1  4    -2.37341340E-01   # N_14
  2  1    -1.64237552E-01   # N_21
  2  2     1.64705079E-02   # N_22
  2  3    -6.79916816E-01   # N_23
  2  4     7.14470344E-01   # N_24
  3  1     4.87758089E-01   # N_31
  3  2     1.58514536E-02   # N_32
  3  3     5.73751939E-01   # N_33
  3  4     6.57760968E-01   # N_34
  4  1    -3.73089655E-04   # N_41
  4  2     9.99723959E-01   # N_42
  4  3    -3.74821123E-04   # N_43
  4  4    -2.34888460E-02   # N_44
#
BLOCK UMIX  # Chargino Mixing Matrix U
  1  1     5.33479842E-04   # U_11
  1  2     9.99999858E-01   # U_12
  2  1    -9.99999858E-01   # U_21
  2  2     5.33479842E-04   # U_22
#
BLOCK VMIX  # Chargino Mixing Matrix V
  1  1     3.32424089E-02   # V_11
  1  2    -9.99447318E-01   # V_12
  2  1    -9.99447318E-01   # V_21
  2  2    -3.32424089E-02   # V_22
#
BLOCK STOPMIX  # Stop Mixing Matrix
  1  1    -2.06893251E-01   # cos(theta_t)
  1  2     9.78363523E-01   # sin(theta_t)
  2  1    -9.78363523E-01   # -sin(theta_t)
  2  2    -2.06893251E-01   # cos(theta_t)
#
BLOCK SBOTMIX  # Sbottom Mixing Matrix
  1  1     9.99895147E-01   # cos(theta_b)
  1  2    -1.44808496E-02   # sin(theta_b)
  2  1     1.44808496E-02   # -sin(theta_b)
  2  2     9.99895147E-01   # cos(theta_b)
#
BLOCK STAUMIX  # Stau Mixing Matrix
  1  1     9.99999218E-01   # cos(theta_tau)
  1  2    -1.25059961E-03   # sin(theta_tau)
  2  1     1.25059961E-03   # -sin(theta_tau)
  2  2     9.99999218E-01   # cos(theta_tau)
#
BLOCK ALPHA  # Higgs mixing
          -1.80122271E-02   # Mixing angle in the neutral Higgs boson sector
#
BLOCK HMIX Q=  3.49429100E+03  # DRbar Higgs Parameters
         1    -1.11229776E+02   # mu(Q)MSSM           
         2     5.68582631E+01   # tan                 
         3     2.42658445E+02   # higgs               
         4     8.37473332E+05   # mA^2(Q)MSSM         
#
BLOCK GAUGE Q=  3.49429100E+03  # The gauge couplings
     1     3.66249348E-01   # gprime(Q) DRbar
     2     6.39033670E-01   # g(Q) DRbar
     3     1.00456238E+00   # g3(Q) DRbar
#
BLOCK AU Q=  3.49429100E+03  # The trilinear couplings
  1  1     0.00000000E+00   # A_u(Q) DRbar
  2  2     0.00000000E+00   # A_c(Q) DRbar
  3  3     3.33257003E+03   # A_t(Q) DRbar
#
BLOCK AD Q=  3.49429100E+03  # The trilinear couplings
  1  1     0.00000000E+00   # A_d(Q) DRbar
  2  2     0.00000000E+00   # A_s(Q) DRbar
  3  3    -2.06390997E+03   # A_b(Q) DRbar
#
BLOCK AE Q=  3.49429100E+03  # The trilinear couplings
  1  1     0.00000000E+00   # A_e(Q) DRbar
  2  2     0.00000000E+00   # A_mu(Q) DRbar
  3  3    -2.08161999E+03   # A_tau(Q) DRbar
#
BLOCK Yu Q=  3.49429100E+03  # The Yukawa couplings
  1  1     0.00000000E+00   # y_u(Q) DRbar
  2  2     0.00000000E+00   # y_c(Q) DRbar
  3  3     8.24540867E-01   # y_t(Q) DRbar
#
BLOCK Yd Q=  3.49429100E+03  # The Yukawa couplings
  1  1     0.00000000E+00   # y_d(Q) DRbar
  2  2     0.00000000E+00   # y_s(Q) DRbar
  3  3     7.72234954E-01   # y_b(Q) DRbar
#
BLOCK Ye Q=  3.49429100E+03  # The Yukawa couplings
  1  1     0.00000000E+00   # y_e(Q) DRbar
  2  2     0.00000000E+00   # y_mu(Q) DRbar
  3  3     5.75799000E-01   # y_tau(Q) DRbar
#
BLOCK MSOFT Q=  3.49429100E+03  # The soft SUSY breaking masses at the scale Q
         1     7.48300000E+01   # M_1(Q)              
         2     3.35725000E+03   # M_2(Q)              
         3     3.65868000E+03   # M_3(Q)              
        21     1.21346276E+06   # mH1^2(Q)            
        22     2.15076990E+05   # mH2^2(Q)            
        31     1.37447000E+03   # meL(Q)              
        32     1.37447000E+03   # mmuL(Q)             
        33     1.15613000E+03   # mtauL(Q)            
        34     8.86370000E+02   # meR(Q)              
        35     8.86370000E+02   # mmuR(Q)             
        36     2.73088000E+03   # mtauR(Q)            
        41     1.36210996E+03   # mqL1(Q)             
        42     1.36210996E+03   # mqL2(Q)             
        43     3.62027997E+03   # mqL3(Q)             
        44     7.37859932E+02   # muR(Q)              
        45     7.37859932E+02   # mcR(Q)              
        46     3.37019997E+03   # mtR(Q)              
        47     3.42435999E+03   # mdR(Q)              
        48     3.42435999E+03   # msR(Q)              
        49     3.71898996E+03   # mbR(Q)              
#
Block HiggsBoundsInputHiggsCouplingsFermions
# ScalarNormEffCoupSq PseudoSNormEffCoupSq NP   IP1 IP2 IP2
    1.04908180E+00    0.00000000E+00        3  25   5   5  # h0-b-b eff. coupling^2, normalised to SM
    3.23281300E+03    0.00000000E+00        3  35   5   5  # H0-b-b eff. coupling^2, normalised to SM
    0.00000000E+00    3.23286208E+03        3  36   5   5  # A0-b-b eff. coupling^2, normalised to SM
#
    9.99984818E-01    0.00000000E+00        3  25   6   6  # h0-t-t eff. coupling^2, normalised to SM
    3.24505586E-04    0.00000000E+00        3  35   6   6  # H0-t-t eff. coupling^2, normalised to SM
    0.00000000E+00    3.09323434E-04        3  36   6   6  # A0-t-t eff. coupling^2, normalised to SM
#
    1.04908180E+00    0.00000000E+00        3  25  15  15  # h0-tau-tau eff. coupling^2, normalised to SM
    3.23281300E+03    0.00000000E+00        3  35  15  15  # H0-tau-tau eff. coupling^2, normalised to SM
    0.00000000E+00    3.23286208E+03        3  36  15  15  # A0-tau-tau eff. coupling^2, normalised to SM
#
Block HiggsBoundsInputHiggsCouplingsBosons
    9.99999818E-01        3  25  24  24  # h0-W-W eff. coupling^2, normalised to SM
    1.81857039E-07        3  35  24  24  # H0-W-W eff. coupling^2, normalised to SM
    0.00000000E+00        3  36  24  24  # A0-W-W eff. coupling^2, normalised to SM
#
    9.99999818E-01        3  25  23  23  # h0-Z-Z eff. coupling^2, normalised to SM
    1.81857039E-07        3  35  23  23  # H0-Z-Z eff. coupling^2, normalised to SM
    0.00000000E+00        3  36  23  23  # A0-Z-Z eff. coupling^2, normalised to SM
#
    8.84329651E-01        3  25  21  21  # h0-g-g eff. coupling^2, normalised to SM
    4.46358204E-03        3  35  21  21  # H0-g-g eff. coupling^2, normalised to SM
    6.67877776E-03        3  36  21  21  # A0-g-g eff. coupling^2, normalised to SM
#
    0.00000000E+00        3  25  25  23  # h0-h0-Z eff. coupling^2, normalised to SM
    0.00000000E+00        3  35  25  23  # H0-h0-Z eff. coupling^2, normalised to SM
    1.81857039E-07        3  36  25  23  # A0-h0-Z eff. coupling^2, normalised to SM
    0.00000000E+00        3  35  35  23  # H0-H0-Z eff. coupling^2, normalised to SM
    9.99999818E-01        3  36  35  23  # A0-H0-Z eff. coupling^2, normalised to SM
    0.00000000E+00        3  36  36  23  # A0-A0-Z eff. coupling^2, normalised to SM
#
    0.00000000E+00        4  25  21  21  23  # h0-g-g-Z eff. coupling^2, normalised to SM
    0.00000000E+00        4  35  21  21  23  # H0-g-g-Z eff. coupling^2, normalised to SM
    0.00000000E+00        4  36  21  21  23  # A0-g-g-Z eff. coupling^2, normalised to SM
#
#
#
#                             =================
#                             |The decay table|
#                             =================
#
# - The QCD corrections to the decays gluino -> squark  + quark
#                                     squark -> gaugino + quark_prime
#                                     squark -> squark_prime + Higgs
#                                     squark -> gluino  + quark
#   are included.
#
# - The multi-body decays for the inos, stops and sbottoms are included.
#
# - The loop induced decays for the gluino, neutralinos and stops
#   are included.
#
# - The SUSY decays of the top quark are included.
#
#
#         PDG            Width
DECAY         6     1.43839221E+00   # top decays
#          BR         NDA      ID1       ID2
     1.00000000E+00    2           5        24   # BR(t ->  b    W+)
#
#         PDG            Width
DECAY   1000021     3.30651941E+02   # gluino decays
#          BR         NDA      ID1       ID2
     7.53170833E-02    2     1000001        -1   # BR(~g -> ~d_L  db)
     7.53170833E-02    2    -1000001         1   # BR(~g -> ~d_L* d )
     1.27275309E-03    2     2000001        -1   # BR(~g -> ~d_R  db)
     1.27275309E-03    2    -2000001         1   # BR(~g -> ~d_R* d )
     7.53964731E-02    2     1000002        -2   # BR(~g -> ~u_L  ub)
     7.53964731E-02    2    -1000002         2   # BR(~g -> ~u_L* u )
     9.62549429E-02    2     2000002        -2   # BR(~g -> ~u_R  ub)
     9.62549429E-02    2    -2000002         2   # BR(~g -> ~u_R* u )
     7.53170833E-02    2     1000003        -3   # BR(~g -> ~s_L  sb)
     7.53170833E-02    2    -1000003         3   # BR(~g -> ~s_L* s )
     1.27275309E-03    2     2000003        -3   # BR(~g -> ~s_R  sb)
     1.27275309E-03    2    -2000003         3   # BR(~g -> ~s_R* s )
     7.53964657E-02    2     1000004        -4   # BR(~g -> ~c_L  cb)
     7.53964657E-02    2    -1000004         4   # BR(~g -> ~c_L* c )
     9.62549399E-02    2     2000004        -4   # BR(~g -> ~c_R  cb)
     9.62549399E-02    2    -2000004         4   # BR(~g -> ~c_R* c )
     8.99520628E-05    2     1000005        -5   # BR(~g -> ~b_1  bb)
     8.99520628E-05    2    -1000005         5   # BR(~g -> ~b_1* b )
     3.42755345E-03    2     1000006        -6   # BR(~g -> ~t_1  tb)
     3.42755345E-03    2    -1000006         6   # BR(~g -> ~t_1* t )
#
#         PDG            Width
DECAY   1000006     9.88332080E+01   # stop1 decays
#          BR         NDA      ID1       ID2
     7.15105064E-02    2     1000022         6   # BR(~t_1 -> ~chi_10 t )
     2.30942076E-01    2     1000023         6   # BR(~t_1 -> ~chi_20 t )
     2.38186341E-01    2     1000025         6   # BR(~t_1 -> ~chi_30 t )
     4.59298041E-01    2     1000024         5   # BR(~t_1 -> ~chi_1+ b )
     6.30346383E-05    2     1000037         5   # BR(~t_1 -> ~chi_2+ b )
#
#         PDG            Width
DECAY   2000006     1.02061690E+02   # stop2 decays
#          BR         NDA      ID1       ID2
     4.66870288E-02    2     1000022         6   # BR(~t_2 -> ~chi_10 t )
     2.58804161E-01    2     1000023         6   # BR(~t_2 -> ~chi_20 t )
     1.94980361E-01    2     1000025         6   # BR(~t_2 -> ~chi_30 t )
     5.33753271E-03    2     1000035         6   # BR(~t_2 -> ~chi_40 t )
     4.39207744E-01    2     1000024         5   # BR(~t_2 -> ~chi_1+ b )
     1.15245056E-02    2     1000037         5   # BR(~t_2 -> ~chi_2+ b )
     2.29816126E-02    2     1000006        25   # BR(~t_2 -> ~t_1    h )
     2.04770535E-02    2     1000006        23   # BR(~t_2 -> ~t_1    Z )
#
#         PDG            Width
DECAY   1000005     9.94769630E+01   # sbottom1 decays
#          BR         NDA      ID1       ID2
     9.80401338E-02    2     1000022         5   # BR(~b_1 -> ~chi_10 b )
     2.03447968E-01    2     1000023         5   # BR(~b_1 -> ~chi_20 b )
     1.44744519E-01    2     1000025         5   # BR(~b_1 -> ~chi_30 b )
     5.89002232E-03    2     1000035         5   # BR(~b_1 -> ~chi_40 b )
     4.99558725E-01    2    -1000024         6   # BR(~b_1 -> ~chi_1- t )
     1.08029605E-02    2    -1000037         6   # BR(~b_1 -> ~chi_2- t )
     3.75156711E-02    2     1000006       -24   # BR(~b_1 -> ~t_1    W-)
#
#         PDG            Width
DECAY   2000005     9.18205394E+01   # sbottom2 decays
#          BR         NDA      ID1       ID2
     1.18072712E-01    2     1000022         5   # BR(~b_2 -> ~chi_10 b )
     2.27026800E-01    2     1000023         5   # BR(~b_2 -> ~chi_20 b )
     1.67742517E-01    2     1000025         5   # BR(~b_2 -> ~chi_30 b )
     2.08144895E-06    2     1000035         5   # BR(~b_2 -> ~chi_40 b )
     4.86420697E-01    2    -1000024         6   # BR(~b_2 -> ~chi_1- t )
     3.95221912E-06    2    -1000037         6   # BR(~b_2 -> ~chi_2- t )
     7.11957997E-04    2     1000021         5   # BR(~b_2 -> ~g      b )
     1.92829461E-05    2     1000006       -24   # BR(~b_2 -> ~t_1    W-)
#
#         PDG            Width
DECAY   1000002     2.57938893E-01   # sup_L decays
#          BR         NDA      ID1       ID2
     6.38793674E-01    2     1000022         2   # BR(~u_L -> ~chi_10 u)
     5.61239723E-03    2     1000023         2   # BR(~u_L -> ~chi_20 u)
     2.99707949E-01    2     1000025         2   # BR(~u_L -> ~chi_30 u)
     5.58859796E-02    2     1000024         1   # BR(~u_L -> ~chi_1+ d)
#
#         PDG            Width
DECAY   2000002     2.46911335E+00   # sup_R decays
#          BR         NDA      ID1       ID2
     7.40076968E-01    2     1000022         2   # BR(~u_R -> ~chi_10 u)
     2.65885032E-02    2     1000023         2   # BR(~u_R -> ~chi_20 u)
     2.33334529E-01    2     1000025         2   # BR(~u_R -> ~chi_30 u)
#
#         PDG            Width
DECAY   1000001     2.42218159E-01   # sdown_L decays
#          BR         NDA      ID1       ID2
     7.77598259E-01    2     1000022         1   # BR(~d_L -> ~chi_10 d)
     6.16532612E-02    2     1000023         1   # BR(~d_L -> ~chi_20 d)
     1.60733134E-01    2     1000025         1   # BR(~d_L -> ~chi_30 d)
     1.53451851E-05    2    -1000024         2   # BR(~d_L -> ~chi_1- u)
#
#         PDG            Width
DECAY   2000001     2.03938273E+00   # sdown_R decays
#          BR         NDA      ID1       ID2
     7.35452299E-01    2     1000022         1   # BR(~d_R -> ~chi_10 d)
     2.69484494E-02    2     1000023         1   # BR(~d_R -> ~chi_20 d)
     2.37599249E-01    2     1000025         1   # BR(~d_R -> ~chi_30 d)
     2.35777180E-09    2     1000035         1   # BR(~d_R -> ~chi_40 d)
#
#         PDG            Width
DECAY   1000004     2.52677702E-01   # scharm_L decays
#          BR         NDA      ID1       ID2
     6.38916783E-01    2     1000022         4   # BR(~c_L -> ~chi_10 c)
     5.61079224E-03    2     1000023         4   # BR(~c_L -> ~chi_20 c)
     2.99599870E-01    2     1000025         4   # BR(~c_L -> ~chi_30 c)
     5.58725546E-02    2     1000024         3   # BR(~c_L -> ~chi_1+ s)
#
#         PDG            Width
DECAY   2000004     2.36717907E+00   # scharm_R decays
#          BR         NDA      ID1       ID2
     7.40188130E-01    2     1000022         4   # BR(~c_R -> ~chi_10 c)
     2.65788870E-02    2     1000023         4   # BR(~c_R -> ~chi_20 c)
     2.33232983E-01    2     1000025         4   # BR(~c_R -> ~chi_30 c)
#
#         PDG            Width
DECAY   1000003     2.37309718E-01   # sstrange_L decays
#          BR         NDA      ID1       ID2
     7.77690328E-01    2     1000022         3   # BR(~s_L -> ~chi_10 s)
     6.16310627E-02    2     1000023         3   # BR(~s_L -> ~chi_20 s)
     1.60663269E-01    2     1000025         3   # BR(~s_L -> ~chi_30 s)
     1.53403166E-05    2    -1000024         4   # BR(~s_L -> ~chi_1- c)
#
#         PDG            Width
DECAY   2000003     2.10110889E+00   # sstrange_R decays
#          BR         NDA      ID1       ID2
     7.35529388E-01    2     1000022         3   # BR(~s_R -> ~chi_10 s)
     2.69419724E-02    2     1000023         3   # BR(~s_R -> ~chi_20 s)
     2.37528637E-01    2     1000025         3   # BR(~s_R -> ~chi_30 s)
     2.20866879E-09    2     1000035         3   # BR(~s_R -> ~chi_40 s)
#
#         PDG            Width
DECAY   1000011     1.89065957E+00   # selectron_L decays
#          BR         NDA      ID1       ID2
     7.19517229E-01    2     1000022        11   # BR(~e_L -> ~chi_10 e-)
     1.81751868E-02    2     1000023        11   # BR(~e_L -> ~chi_20 e-)
     2.62305867E-01    2     1000025        11   # BR(~e_L -> ~chi_30 e-)
     1.71775260E-06    2    -1000024        12   # BR(~e_L -> ~chi_1- nu_e)
#
#         PDG            Width
DECAY   2000011     4.58813462E+00   # selectron_R decays
#          BR         NDA      ID1       ID2
     7.41894512E-01    2     1000022        11   # BR(~e_R -> ~chi_10 e-)
     2.64456109E-02    2     1000023        11   # BR(~e_R -> ~chi_20 e-)
     2.31659877E-01    2     1000025        11   # BR(~e_R -> ~chi_30 e-)
#
#         PDG            Width
DECAY   1000013     1.89065955E+00   # smuon_L decays
#          BR         NDA      ID1       ID2
     7.19517229E-01    2     1000022        13   # BR(~mu_L -> ~chi_10 mu-)
     1.81751868E-02    2     1000023        13   # BR(~mu_L -> ~chi_20 mu-)
     2.62305867E-01    2     1000025        13   # BR(~mu_L -> ~chi_30 mu-)
     1.71775262E-06    2    -1000024        14   # BR(~mu_L -> ~chi_1- nu_mu)
#
#         PDG            Width
DECAY   2000013     4.58813448E+00   # smuon_R decays
#          BR         NDA      ID1       ID2
     7.41894512E-01    2     1000022        13   # BR(~mu_R -> ~chi_10 mu-)
     2.64456109E-02    2     1000023        13   # BR(~mu_R -> ~chi_20 mu-)
     2.31659877E-01    2     1000025        13   # BR(~mu_R -> ~chi_30 mu-)
#
#         PDG            Width
DECAY   1000015     9.26776541E+00   # stau_1 decays
#          BR         NDA      ID1       ID2
     2.98190189E-01    2     1000022        15   # BR(~tau_1 -> ~chi_10  tau-)
     3.85908131E-01    2     1000023        15   # BR(~tau_1 -> ~chi_20  tau-)
     3.15898862E-01    2     1000025        15   # BR(~tau_1 -> ~chi_30  tau-)
     2.81848097E-06    2    -1000024        16   # BR(~tau_1 -> ~chi_1-  nu_tau)
#
#         PDG            Width
DECAY   2000015     6.24361426E+01   # stau_2 decays
#          BR         NDA      ID1       ID2
     2.28619336E-01    2     1000022        15   # BR(~tau_2 -> ~chi_10  tau-)
     1.37470974E-01    2     1000023        15   # BR(~tau_2 -> ~chi_20  tau-)
     1.48065766E-01    2     1000025        15   # BR(~tau_2 -> ~chi_30  tau-)
     2.83978471E-01    2    -1000024        16   # BR(~tau_2 -> ~chi_1-  nu_tau)
     1.00722487E-01    2     1000016       -37   # BR(~tau_2 -> ~nu_tauL H-)
     1.61645280E-04    2     1000016       -24   # BR(~tau_2 -> ~nu_tauL W-)
     8.54063699E-05    2     1000015        25   # BR(~tau_2 -> ~tau_1   h)
     5.04068820E-02    2     1000015        35   # BR(~tau_2 -> ~tau_1   H)
     5.04060045E-02    2     1000015        36   # BR(~tau_2 -> ~tau_1   A)
     8.30273918E-05    2     1000015        23   # BR(~tau_2 -> ~tau_1   Z)
#
#         PDG            Width
DECAY   1000012     1.89594870E+00   # snu_eL decays
#          BR         NDA      ID1       ID2
     7.48601086E-01    2     1000022        12   # BR(~nu_eL -> ~chi_10 nu_e)
     3.66952513E-02    2     1000023        12   # BR(~nu_eL -> ~chi_20 nu_e)
     2.08064463E-01    2     1000025        12   # BR(~nu_eL -> ~chi_30 nu_e)
     6.63919953E-03    2     1000024        11   # BR(~nu_eL -> ~chi_1+ e-)
#
#         PDG            Width
DECAY   1000014     1.89594870E+00   # snu_muL decays
#          BR         NDA      ID1       ID2
     7.48601086E-01    2     1000022        14   # BR(~nu_muL -> ~chi_10 nu_mu)
     3.66952513E-02    2     1000023        14   # BR(~nu_muL -> ~chi_20 nu_mu)
     2.08064463E-01    2     1000025        14   # BR(~nu_muL -> ~chi_30 nu_mu)
     6.63919946E-03    2     1000024        13   # BR(~nu_muL -> ~chi_1+ mu-)
#
#         PDG            Width
DECAY   1000016     9.25110673E+00   # snu_tauL decays
#          BR         NDA      ID1       ID2
     1.27832814E-01    2     1000022        16   # BR(~nu_tauL -> ~chi_10 nu_tau)
     6.23620075E-03    2     1000023        16   # BR(~nu_tauL -> ~chi_20 nu_tau)
     3.53197334E-02    2     1000025        16   # BR(~nu_tauL -> ~chi_30 nu_tau)
     8.30611252E-01    2     1000024        15   # BR(~nu_tauL -> ~chi_1+ tau-)
#
#         PDG            Width
DECAY   1000024     1.18087798E-04   # chargino1+ decays
#           BR         NDA      ID1       ID2       ID3
     3.33464542E-01    3     1000022         2        -1   # BR(~chi_1+ -> ~chi_10 u    db)
     3.33464542E-01    3     1000022         4        -3   # BR(~chi_1+ -> ~chi_10 c    sb)
     1.11155063E-01    3     1000022       -11        12   # BR(~chi_1+ -> ~chi_10 e+   nu_e)
     1.11155063E-01    3     1000022       -13        14   # BR(~chi_1+ -> ~chi_10 mu+  nu_mu)
     1.10760789E-01    3     1000022       -15        16   # BR(~chi_1+ -> ~chi_10 tau+ nu_tau)
#
#         PDG            Width
DECAY   1000037     1.98947260E+02   # chargino2+ decays
#          BR         NDA      ID1       ID2
     1.18543305E-01    2     1000002        -1   # BR(~chi_2+ -> ~u_L     db)
     1.18505465E-01    2    -1000001         2   # BR(~chi_2+ -> ~d_L*    u )
     1.18543304E-01    2     1000004        -3   # BR(~chi_2+ -> ~c_L     sb)
     1.18505443E-01    2    -1000003         4   # BR(~chi_2+ -> ~s_L*     c )
     4.50908402E-02    2     1000012       -11   # BR(~chi_2+ -> ~nu_eL   e+  )
     4.50908402E-02    2     1000014       -13   # BR(~chi_2+ -> ~nu_muL mu+ )
     5.14530739E-02    2     1000016       -15   # BR(~chi_2+ -> ~nu_tau1 tau+)
     4.50695488E-02    2    -1000011        12   # BR(~chi_2+ -> ~e_L+    nu_e)
     4.50695488E-02    2    -1000013        14   # BR(~chi_2+ -> ~mu_L+   nu_mu)
     5.14357121E-02    2    -1000015        16   # BR(~chi_2+ -> ~tau_1+  nu_tau)
     2.32161986E-08    2    -2000015        16   # BR(~chi_2+ -> ~tau_2+  nu_tau)
     3.27276175E-02    2     1000024        23   # BR(~chi_2+ -> ~chi_1+  Z )
     3.18305580E-03    2     1000022        24   # BR(~chi_2+ -> ~chi_10  W+)
     3.21338081E-02    2     1000023        24   # BR(~chi_2+ -> ~chi_20  W+)
     2.80610871E-02    2     1000025        24   # BR(~chi_2+ -> ~chi_30  W+)
     3.36399949E-02    2     1000024        25   # BR(~chi_2+ -> ~chi_1+  h )
     2.82457051E-02    2     1000024        35   # BR(~chi_2+ -> ~chi_1+  H )
     2.82441897E-02    2     1000024        36   # BR(~chi_2+ -> ~chi_1+  A )
     1.17394701E-02    2     1000022        37   # BR(~chi_2+ -> ~chi_10  H+)
     2.61090347E-02    2     1000023        37   # BR(~chi_2+ -> ~chi_20  H+)
     1.86089334E-02    2     1000025        37   # BR(~chi_2+ -> ~chi_30  H+)
#
#         PDG            Width
DECAY   1000022     0.00000000E+00   # neutralino1 decays
#
#         PDG            Width
DECAY   1000023     1.11993057E-04   # neutralino2 decays
#          BR         NDA      ID1       ID2
     1.23232830E-03    2     1000022        22   # BR(~chi_20 -> ~chi_10 gam)
#           BR         NDA      ID1       ID2       ID3
     1.17476616E-01    3     1000022        -2         2   # BR(~chi_20 -> ~chi_10 ub      u)
     1.52380416E-01    3     1000022        -1         1   # BR(~chi_20 -> ~chi_10 db      d)
     1.17476616E-01    3     1000022        -4         4   # BR(~chi_20 -> ~chi_10 cb      c)
     1.52380416E-01    3     1000022        -3         3   # BR(~chi_20 -> ~chi_10 sb      s)
     1.43686072E-01    3     1000022        -5         5   # BR(~chi_20 -> ~chi_10 bb      b)
     3.48519087E-02    3     1000022       -11        11   # BR(~chi_20 -> ~chi_10 e+      e-)
     3.48519087E-02    3     1000022       -13        13   # BR(~chi_20 -> ~chi_10 mu+     mu-)
     3.50923797E-02    3     1000022       -15        15   # BR(~chi_20 -> ~chi_10 tau+    tau-)
     7.01411211E-02    3     1000022       -12        12   # BR(~chi_20 -> ~chi_10 nu_eb   nu_e)
     7.01411211E-02    3     1000022       -14        14   # BR(~chi_20 -> ~chi_10 nu_mub  nu_mu)
     7.01597614E-02    3     1000022       -16        16   # BR(~chi_20 -> ~chi_10 nu_taub nu_tau)
     2.24439968E-05    3     1000024        -2         1   # BR(~chi_20 -> ~chi_1+ ub      d)
     2.24439968E-05    3    -1000024        -1         2   # BR(~chi_20 -> ~chi_1- db      u)
     2.24439968E-05    3     1000024        -4         3   # BR(~chi_20 -> ~chi_1+ cb      s)
     2.24439968E-05    3    -1000024        -3         4   # BR(~chi_20 -> ~chi_1- sb      c)
     7.48144035E-06    3     1000024       -12        11   # BR(~chi_20 -> ~chi_1+ nu_eb   e-)
     7.48144035E-06    3    -1000024        12       -11   # BR(~chi_20 -> ~chi_1- nu_e    e+)
     7.48144035E-06    3     1000024       -14        13   # BR(~chi_20 -> ~chi_1+ nu_mub  mu-)
     7.48144035E-06    3    -1000024        14       -13   # BR(~chi_20 -> ~chi_1- nu_mu   mu+)
     4.81712450E-06    3     1000024       -16        15   # BR(~chi_20 -> ~chi_1+ nu_taub tau-)
     4.81712450E-06    3    -1000024        16       -15   # BR(~chi_20 -> ~chi_1- nu_tau  tau+)
#
#         PDG            Width
DECAY   1000025     4.83971997E-05   # neutralino3 decays
#          BR         NDA      ID1       ID2
     2.95750694E-03    2     1000022        22   # BR(~chi_30 -> ~chi_10 gam)
     7.22544544E-06    2     1000023        22   # BR(~chi_30 -> ~chi_20 gam)
#           BR         NDA      ID1       ID2       ID3
     1.14045936E-01    3     1000022        -2         2   # BR(~chi_30 -> ~chi_10 ub      u)
     1.46299287E-01    3     1000022        -1         1   # BR(~chi_30 -> ~chi_10 db      d)
     1.14045936E-01    3     1000022        -4         4   # BR(~chi_30 -> ~chi_10 cb      c)
     1.46299287E-01    3     1000022        -3         3   # BR(~chi_30 -> ~chi_10 sb      s)
     1.40663402E-01    3     1000022        -5         5   # BR(~chi_30 -> ~chi_10 bb      b)
     3.16739116E-02    3     1000022       -11        11   # BR(~chi_30 -> ~chi_10 e+      e-)
     3.16739116E-02    3     1000022       -13        13   # BR(~chi_30 -> ~chi_10 mu+     mu-)
     3.38818392E-02    3     1000022       -15        15   # BR(~chi_30 -> ~chi_10 tau+    tau-)
     6.76717048E-02    3     1000022       -12        12   # BR(~chi_30 -> ~chi_10 nu_eb   nu_e)
     6.76717048E-02    3     1000022       -14        14   # BR(~chi_30 -> ~chi_10 nu_mub  nu_mu)
     6.78210340E-02    3     1000022       -16        16   # BR(~chi_30 -> ~chi_10 nu_taub nu_tau)
     1.76380534E-04    3     1000023        -2         2   # BR(~chi_30 -> ~chi_20 ub      u)
     2.29154728E-04    3     1000023        -1         1   # BR(~chi_30 -> ~chi_20 db      d)
     1.76380534E-04    3     1000023        -4         4   # BR(~chi_30 -> ~chi_20 cb      c)
     2.29154728E-04    3     1000023        -3         3   # BR(~chi_30 -> ~chi_20 sb      s)
     2.25751900E-06    3     1000023        -5         5   # BR(~chi_30 -> ~chi_20 bb      b)
     5.28232473E-05    3     1000023       -11        11   # BR(~chi_30 -> ~chi_20 e+      e-)
     5.28232473E-05    3     1000023       -13        13   # BR(~chi_30 -> ~chi_20 mu+     mu-)
     4.42436663E-05    3     1000023       -15        15   # BR(~chi_30 -> ~chi_20 tau+    tau-)
     1.05381959E-04    3     1000023       -12        12   # BR(~chi_30 -> ~chi_20 nu_eb   nu_e)
     1.05381959E-04    3     1000023       -14        14   # BR(~chi_30 -> ~chi_20 nu_mub  nu_mu)
     1.05372148E-04    3     1000023       -16        16   # BR(~chi_30 -> ~chi_20 nu_taub nu_tau)
     5.70463516E-03    3     1000024        -2         1   # BR(~chi_30 -> ~chi_1+ ub      d)
     5.70463516E-03    3    -1000024        -1         2   # BR(~chi_30 -> ~chi_1- db      u)
     5.70463516E-03    3     1000024        -4         3   # BR(~chi_30 -> ~chi_1+ cb      s)
     5.70463516E-03    3    -1000024        -3         4   # BR(~chi_30 -> ~chi_1- sb      c)
     1.90144960E-03    3     1000024       -12        11   # BR(~chi_30 -> ~chi_1+ nu_eb   e-)
     1.90144960E-03    3    -1000024        12       -11   # BR(~chi_30 -> ~chi_1- nu_e    e+)
     1.90144960E-03    3     1000024       -14        13   # BR(~chi_30 -> ~chi_1+ nu_mub  mu-)
     1.90144960E-03    3    -1000024        14       -13   # BR(~chi_30 -> ~chi_1- nu_mu   mu+)
     1.79180938E-03    3     1000024       -16        15   # BR(~chi_30 -> ~chi_1+ nu_taub tau-)
     1.79180938E-03    3    -1000024        16       -15   # BR(~chi_30 -> ~chi_1- nu_tau  tau+)
#
#         PDG            Width
DECAY   1000035     1.98950980E+02   # neutralino4 decays
#          BR         NDA      ID1       ID2
     1.73546400E-03    2     1000022        23   # BR(~chi_40 -> ~chi_10   Z )
     1.71950297E-02    2     1000023        23   # BR(~chi_40 -> ~chi_20   Z )
     1.37451875E-02    2     1000025        23   # BR(~chi_40 -> ~chi_30   Z )
     3.17772353E-02    2     1000024       -24   # BR(~chi_40 -> ~chi_1+   W-)
     3.17772353E-02    2    -1000024        24   # BR(~chi_40 -> ~chi_1-   W+)
     1.65461246E-03    2     1000022        25   # BR(~chi_40 -> ~chi_10   h )
     6.22048216E-03    2     1000022        35   # BR(~chi_40 -> ~chi_10   H )
     5.53813744E-03    2     1000022        36   # BR(~chi_40 -> ~chi_10   A )
     1.63985131E-02    2     1000023        25   # BR(~chi_40 -> ~chi_20   h )
     1.15390520E-02    2     1000023        35   # BR(~chi_40 -> ~chi_20   H )
     1.45975597E-02    2     1000023        36   # BR(~chi_40 -> ~chi_20   A )
     1.55596535E-02    2     1000025        25   # BR(~chi_40 -> ~chi_30   h )
     1.05106369E-02    2     1000025        35   # BR(~chi_40 -> ~chi_30   H )
     8.13407091E-03    2     1000025        36   # BR(~chi_40 -> ~chi_30   A )
     2.81988539E-02    2     1000024       -37   # BR(~chi_40 -> ~chi_1+   H-)
     2.81988539E-02    2    -1000024        37   # BR(~chi_40 -> ~chi_1-   H+)
     5.92887385E-02    2     1000002        -2   # BR(~chi_40 -> ~u_L      ub)
     5.92887385E-02    2    -1000002         2   # BR(~chi_40 -> ~u_L*     u )
     6.66427341E-09    2     2000002        -2   # BR(~chi_40 -> ~u_R      ub)
     6.66427341E-09    2    -2000002         2   # BR(~chi_40 -> ~u_R*     u )
     5.92212085E-02    2     1000001        -1   # BR(~chi_40 -> ~d_L      db)
     5.92212085E-02    2    -1000001         1   # BR(~chi_40 -> ~d_L*     d )
     5.92887276E-02    2     1000004        -4   # BR(~chi_40 -> ~c_L      cb)
     5.92887276E-02    2    -1000004         4   # BR(~chi_40 -> ~c_L*     c )
     6.66427305E-09    2     2000004        -4   # BR(~chi_40 -> ~c_R      cb)
     6.66427305E-09    2    -2000004         4   # BR(~chi_40 -> ~c_R*     c )
     5.92212085E-02    2     1000003        -3   # BR(~chi_40 -> ~s _L      sb)
     5.92212085E-02    2    -1000003         3   # BR(~chi_40 -> ~s _L*     s )
     2.25101628E-02    2     1000011       -11   # BR(~chi_40 -> ~e_L-     e+)
     2.25101628E-02    2    -1000011        11   # BR(~chi_40 -> ~e_L+     e-)
     5.35778285E-09    2     2000011       -11   # BR(~chi_40 -> ~e_R-     e+)
     5.35778285E-09    2    -2000011        11   # BR(~chi_40 -> ~e_R+     e-)
     2.25101628E-02    2     1000013       -13   # BR(~chi_40 -> ~mu_L-    mu+)
     2.25101628E-02    2    -1000013        13   # BR(~chi_40 -> ~mu_L+    mu-)
     5.35778285E-09    2     2000013       -13   # BR(~chi_40 -> ~mu_R-    mu+)
     5.35778285E-09    2    -2000013        13   # BR(~chi_40 -> ~mu_R+    mu-)
     2.56902010E-02    2     1000015       -15   # BR(~chi_40 -> ~tau_1-   tau+)
     2.56902010E-02    2    -1000015        15   # BR(~chi_40 -> ~tau_1+   tau-)
     1.22816124E-08    2     2000015       -15   # BR(~chi_40 -> ~tau_2-   tau+)
     1.22816124E-08    2    -2000015        15   # BR(~chi_40 -> ~tau_2+   tau-)
     2.25650064E-02    2     1000012       -12   # BR(~chi_40 -> ~nu_eL    nu_eb)
     2.25650064E-02    2    -1000012        12   # BR(~chi_40 -> ~nu_eL*   nu_e )
     2.25650064E-02    2     1000014       -14   # BR(~chi_40 -> ~nu_muL   nu_mub)
     2.25650064E-02    2    -1000014        14   # BR(~chi_40 -> ~nu_muL*  nu_mu )
     2.57492524E-02    2     1000016       -16   # BR(~chi_40 -> ~nu_tau1  nu_taub)
     2.57492524E-02    2    -1000016        16   # BR(~chi_40 -> ~nu_tau1* nu_tau )
#
#         PDG            Width
DECAY        25     4.20202877E-03   # h decays
#          BR         NDA      ID1       ID2
     5.92246563E-01    2           5        -5   # BR(h -> b       bb     )
     6.45878831E-02    2         -15        15   # BR(h -> tau+    tau-   )
     2.28615050E-04    2         -13        13   # BR(h -> mu+     mu-    )
     2.49549531E-04    2           3        -3   # BR(h -> s       sb     )
     2.06265186E-02    2           4        -4   # BR(h -> c       cb     )
     7.55639468E-02    2          21        21   # BR(h -> g       g      )
     2.23254747E-03    2          22        22   # BR(h -> gam     gam    )
     1.47314552E-03    2          22        23   # BR(h -> Z       gam    )
     1.97972712E-01    2          24       -24   # BR(h -> W+      W-     )
     2.46580854E-02    2          23        23   # BR(h -> Z       Z      )
     2.01604340E-02    2     1000022   1000022   # BR(h -> ~chi_10 ~chi_10)
#
#         PDG            Width
DECAY        35     5.11523411E+01   # H decays
#          BR         NDA      ID1       ID2
     8.44600410E-01    2           5        -5   # BR(H -> b       bb     )
     1.31745947E-01    2         -15        15   # BR(H -> tau+    tau-   )
     4.65547960E-04    2         -13        13   # BR(H -> mu+     mu-    )
     3.48971707E-04    2           3        -3   # BR(H -> s       sb     )
     2.99222670E-09    2           4        -4   # BR(H -> c       cb     )
     2.61413545E-04    2           6        -6   # BR(H -> t       tb     )
     9.09945569E-05    2          21        21   # BR(H -> g       g      )
     2.43779612E-08    2          22        22   # BR(H -> gam     gam    )
     3.19543892E-08    2          23        22   # BR(H -> Z       gam    )
     1.03481199E-06    2          24       -24   # BR(H -> W+      W-     )
     5.10756157E-07    2          23        23   # BR(H -> Z       Z      )
     3.83968893E-06    2          25        25   # BR(H -> h       h      )
     1.64792365E-04    2     1000024  -1000024   # BR(H -> ~chi_1+ ~chi_1-)
     7.27313308E-03    2     1000022   1000022   # BR(H -> ~chi_10 ~chi_10)
     7.16550700E-04    2     1000023   1000023   # BR(H -> ~chi_20 ~chi_20)
     2.99689031E-03    2     1000025   1000025   # BR(H -> ~chi_30 ~chi_30)
     5.43612038E-03    2     1000022   1000023   # BR(H -> ~chi_10 ~chi_20)
     1.92918891E-03    2     1000022   1000025   # BR(H -> ~chi_10 ~chi_30)
     3.96459513E-03    2     1000023   1000025   # BR(H -> ~chi_20 ~chi_30)
#
#         PDG            Width
DECAY        36     5.11564143E+01   # A decays
#          BR         NDA      ID1       ID2
     8.44568299E-01    2           5        -5   # BR(A -> b       bb     )
     1.31738050E-01    2         -15        15   # BR(A -> tau+    tau-   )
     4.65513952E-04    2         -13        13   # BR(A -> mu+     mu-    )
     3.48954364E-04    2           3        -3   # BR(A -> s       sb     )
     2.87805016E-09    2           4        -4   # BR(A -> c       cb     )
     2.75692730E-04    2           6        -6   # BR(A -> t       tb     )
     1.11297606E-04    2          21        21   # BR(A -> g       g      )
     2.50940550E-08    2          22        22   # BR(A -> gam     gam    )
     4.10413969E-08    2          23        22   # BR(A -> Z       gam    )
     1.01609194E-06    2          23        25   # BR(A -> Z       h      )
     1.74288611E-04    2     1000024  -1000024   # BR(A -> ~chi_1+ ~chi_1-)
     7.11985792E-03    2     1000022   1000022   # BR(A -> ~chi_10 ~chi_10)
     8.22710276E-04    2     1000023   1000023   # BR(A -> ~chi_20 ~chi_20)
     2.97643390E-03    2     1000025   1000025   # BR(A -> ~chi_30 ~chi_30)
     5.78994444E-03    2     1000022   1000023   # BR(A -> ~chi_10 ~chi_20)
     1.78141306E-03    2     1000022   1000025   # BR(A -> ~chi_10 ~chi_30)
     3.82645975E-03    2     1000023   1000025   # BR(A -> ~chi_20 ~chi_30)
#
#         PDG            Width
DECAY        37     5.00971525E+01   # H+ decays
#          BR         NDA      ID1       ID2
     1.44075593E-03    2           4        -5   # BR(H+ -> c       bb     )
     1.35099975E-01    2         -15        16   # BR(H+ -> tau+    nu_tau )
     4.77393737E-04    2         -13        14   # BR(H+ -> mu+     nu_mu  )
     1.44074177E-05    2           2        -5   # BR(H+ -> u       bb     )
     1.78171415E-05    2           2        -3   # BR(H+ -> u       sb     )
     3.50697561E-04    2           4        -3   # BR(H+ -> c       sb     )
     8.39671531E-01    2           6        -5   # BR(H+ -> t       bb     )
     1.05808824E-06    2          24        25   # BR(H+ -> W+      h      )
     3.40904922E-11    2          24        36   # BR(H+ -> W+      A      )
     1.65628340E-02    2     1000024   1000022   # BR(H+ -> ~chi_1+ ~chi_10)
     3.96160850E-04    2     1000024   1000023   # BR(H+ -> ~chi_1+ ~chi_20)
     5.96736938E-03    2     1000024   1000025   # BR(H+ -> ~chi_1+ ~chi_30)
