#
#                              ======================
#                              | THE SUSYHIT OUTPUT |
#                              ======================
#
#
#              ------------------------------------------------------
#              |     This is the output of the SUSY-HIT package     |
#              |  created by A.Djouadi, M.Muehlleitner and M.Spira. |
#              |  In case of problems with SUSY-HIT email to        |
#              |           margarete.muehlleitner@cern.ch           |
#              |           michael.spira@psi.ch                     |
#              |           abdelhak.djouadi@cern.ch                 |
#              ------------------------------------------------------
#
#              ------------------------------------------------------
#              |  SUSY Les Houches Accord - MSSM Spectrum + Decays  |
#              |              based on the decay programs           |
#              |                                                    |
#              |                     SDECAY 1.3b                    |
#              |                                                    |
#              |  Authors: M.Muhlleitner, A.Djouadi and Y.Mambrini  |
#              |  Ref.:    Comput.Phys.Commun.168(2005)46           |
#              |           [hep-ph/0311167]                         |
#              |                                                    |
#              |                     HDECAY 3.4                     |
#              |                                                    |
#              |  By: A.Djouadi,J.Kalinowski,M.Muhlleitner,M.Spira  |
#              |  Ref.:    Comput.Phys.Commun.108(1998)56           |
#              |           [hep-ph/9704448]                         |
#              |                                                    |
#              |                                                    |
#              |  If not stated otherwise all DRbar couplings and   |
#              |  soft SUSY breaking masses are given at the scale  |
#              |  Q=  0.14478000E+04
#              |                                                    |
#              ------------------------------------------------------
#
#
BLOCK DCINFO  # Decay Program information
     1   SDECAY/HDECAY # decay calculator
     2   1.3b  /3.4    # version number
#
BLOCK SPINFO  # Spectrum calculator information
     1     SOFTSUSY    # spectrum calculator               
     2     3.4.0       # version number                    
#
BLOCK MODSEL  # Model selection
     1     0   #  nonUniversal                                     
#
BLOCK SMINPUTS  # Standard Model inputs
         1     1.27908970E+02   # alpha_em^-1(M_Z)^MSbar
         2     1.16637870E-05   # G_F [GeV^-2]
         3     1.18400000E-01   # alpha_S(M_Z)^MSbar
         4     9.11876000E+01   # M_Z pole mass
         5     4.18000000E+00   # mb(mb)^MSbar
         6     1.73200000E+02   # mt pole mass
         7     1.77700000E+00   # mtau pole mass
#
BLOCK MINPAR  # Input parameters - minimal models
         3     2.29100000E+01   # tanb                
#
BLOCK EXTPAR  # Input parameters - non-minimal models
         0    -1.00000000E+00   # Set                 
         1     7.31460000E+02   # M_1(MX)             
         2     1.67286000E+03   # M_2(MX)             
         3     1.11986000E+03   # M_3(MX)             
        11     3.26780000E+03   # At(MX)              
        12    -1.76313000E+03   # Ab(MX)              
        13    -2.72811000E+03   # Atau(MX)            
        23    -1.12237000E+03   # mu(MX)              
        26     9.28840000E+02   # mA(pole)            
        31     3.87518000E+03   # meL(MX)             
        32     3.87518000E+03   # mmuL(MX)            
        33     3.34043000E+03   # mtauL(MX)           
        34     2.22699000E+03   # meR(MX)             
        35     2.22699000E+03   # mmuR(MX)            
        36     1.75371000E+03   # mtauR(MX)           
        41     3.12244000E+03   # mqL1(MX)            
        42     3.12244000E+03   # mqL2(MX)            
        43     5.78700000E+02   # mqL3(MX)            
        44     7.73010000E+02   # muR(MX)             
        45     7.73010000E+02   # mcR(MX)             
        46     3.61476000E+03   # mtR(MX)             
        47     3.14611000E+03   # mdR(MX)             
        48     3.14611000E+03   # msR(MX)             
        49     2.93215000E+03   # mbR(MX)             
#
BLOCK MASS  # Mass Spectrum
# PDG code           mass       particle
        24     8.04194769E+01   # W+
        25     1.27313617E+02   # h
        35     9.28838884E+02   # H
        36     9.28840008E+02   # A
        37     9.32313958E+02   # H+
         5     4.81876030E+00   # b-quark pole mass calculated from mb(mb)_Msbar
   1000001     3.15328601E+03   # ~d_L
   2000001     3.17167387E+03   # ~d_R
   1000002     3.15240969E+03   # ~u_L
   2000002     8.48212592E+02   # ~u_R
   1000003     3.15328601E+03   # ~s_L
   2000003     3.17167387E+03   # ~s_R
   1000004     3.15240969E+03   # ~c_L
   2000004     8.48212592E+02   # ~c_R
   1000005     7.54883910E+02   # ~b_1
   2000005     2.95337459E+03   # ~b_2
   1000006     7.54567435E+02   # ~t_1
   2000006     3.64135882E+03   # ~t_2
   1000011     3.88265967E+03   # ~e_L
   2000011     2.22364504E+03   # ~e_R
   1000012     3.88151678E+03   # ~nu_eL
   1000013     3.88265967E+03   # ~mu_L
   2000013     2.22364504E+03   # ~mu_R
   1000014     3.88151678E+03   # ~nu_muL
   1000015     1.75080491E+03   # ~tau_1
   2000015     3.34693672E+03   # ~tau_2
   1000016     3.34563635E+03   # ~nu_tauL
   1000021     1.25836660E+03   # ~g
   1000022     7.28916399E+02   # ~chi_10
   1000023     1.14197362E+03   # ~chi_20
   1000025    -1.14641169E+03   # ~chi_30
   1000035     1.71167174E+03   # ~chi_40
   1000024     1.14126990E+03   # ~chi_1+
   1000037     1.71183658E+03   # ~chi_2+
#
BLOCK NMIX  # Neutralino Mixing Matrix
  1  1     9.97506943E-01   # N_11
  1  2    -2.69798543E-03   # N_12
  1  3    -6.02482743E-02   # N_13
  1  4    -3.66437519E-02   # N_14
  2  1     6.84826216E-02   # N_21
  2  2     9.76439704E-02   # N_22
  2  3     7.03098247E-01   # N_23
  2  4     7.01019715E-01   # N_24
  3  1    -1.66325280E-02   # N_31
  3  2     2.13472993E-02   # N_32
  3  3    -7.06474659E-01   # N_33
  3  4     7.07220763E-01   # N_34
  4  1    -3.65893205E-03   # N_41
  4  2     9.94988778E-01   # N_42
  4  3    -5.40051592E-02   # N_43
  4  4    -8.40677481E-02   # N_44
#
BLOCK UMIX  # Chargino Mixing Matrix U
  1  1     7.49059427E-02   # U_11
  1  2     9.97190604E-01   # U_12
  2  1    -9.97190604E-01   # U_21
  2  2     7.49059427E-02   # U_22
#
BLOCK VMIX  # Chargino Mixing Matrix V
  1  1     1.16722907E-01   # V_11
  1  2    -9.93164520E-01   # V_12
  2  1    -9.93164520E-01   # V_21
  2  2    -1.16722907E-01   # V_22
#
BLOCK STOPMIX  # Stop Mixing Matrix
  1  1     9.99268650E-01   # cos(theta_t)
  1  2    -3.82382678E-02   # sin(theta_t)
  2  1     3.82382678E-02   # -sin(theta_t)
  2  2     9.99268650E-01   # cos(theta_t)
#
BLOCK SBOTMIX  # Sbottom Mixing Matrix
  1  1     9.99972403E-01   # cos(theta_b)
  1  2    -7.42921519E-03   # sin(theta_b)
  2  1     7.42921519E-03   # -sin(theta_b)
  2  2     9.99972403E-01   # cos(theta_b)
#
BLOCK STAUMIX  # Stau Mixing Matrix
  1  1    -4.83116912E-03   # cos(theta_tau)
  1  2     9.99988330E-01   # sin(theta_tau)
  2  1    -9.99988330E-01   # -sin(theta_tau)
  2  2    -4.83116912E-03   # cos(theta_tau)
#
BLOCK ALPHA  # Higgs mixing
          -4.60812341E-02   # Mixing angle in the neutral Higgs boson sector
#
BLOCK HMIX Q=  1.44780000E+03  # DRbar Higgs Parameters
         1    -1.14052835E+03   # mu(Q)MSSM           
         2     2.21342917E+01   # tan                 
         3     2.43471123E+02   # higgs               
         4     2.00333519E+06   # mA^2(Q)MSSM         
#
BLOCK GAUGE Q=  1.44780000E+03  # The gauge couplings
     1     3.62713074E-01   # gprime(Q) DRbar
     2     6.36893017E-01   # g(Q) DRbar
     3     1.04587105E+00   # g3(Q) DRbar
#
BLOCK AU Q=  1.44780000E+03  # The trilinear couplings
  1  1     0.00000000E+00   # A_u(Q) DRbar
  2  2     0.00000000E+00   # A_c(Q) DRbar
  3  3     3.26780000E+03   # A_t(Q) DRbar
#
BLOCK AD Q=  1.44780000E+03  # The trilinear couplings
  1  1     0.00000000E+00   # A_d(Q) DRbar
  2  2     0.00000000E+00   # A_s(Q) DRbar
  3  3    -1.76313000E+03   # A_b(Q) DRbar
#
BLOCK AE Q=  1.44780000E+03  # The trilinear couplings
  1  1     0.00000000E+00   # A_e(Q) DRbar
  2  2     0.00000000E+00   # A_mu(Q) DRbar
  3  3    -2.72811000E+03   # A_tau(Q) DRbar
#
BLOCK Yu Q=  1.44780000E+03  # The Yukawa couplings
  1  1     0.00000000E+00   # y_u(Q) DRbar
  2  2     0.00000000E+00   # y_c(Q) DRbar
  3  3     8.65185358E-01   # y_t(Q) DRbar
#
BLOCK Yd Q=  1.44780000E+03  # The Yukawa couplings
  1  1     0.00000000E+00   # y_d(Q) DRbar
  2  2     0.00000000E+00   # y_s(Q) DRbar
  3  3     3.41678042E-01   # y_b(Q) DRbar
#
BLOCK Ye Q=  1.44780000E+03  # The Yukawa couplings
  1  1     0.00000000E+00   # y_e(Q) DRbar
  2  2     0.00000000E+00   # y_mu(Q) DRbar
  3  3     2.21473676E-01   # y_tau(Q) DRbar
#
BLOCK MSOFT Q=  1.44780000E+03  # The soft SUSY breaking masses at the scale Q
         1     7.31460000E+02   # M_1(Q)              
         2     1.67286000E+03   # M_2(Q)              
         3     1.11986000E+03   # M_3(Q)              
        21    -4.97242243E+05   # mH1^2(Q)            
        22    -1.61635814E+06   # mH2^2(Q)            
        31     3.87518000E+03   # meL(Q)              
        32     3.87518000E+03   # mmuL(Q)             
        33     3.34043000E+03   # mtauL(Q)            
        34     2.22699000E+03   # meR(Q)              
        35     2.22699000E+03   # mmuR(Q)             
        36     1.75371000E+03   # mtauR(Q)            
        41     3.12244000E+03   # mqL1(Q)             
        42     3.12244000E+03   # mqL2(Q)             
        43     5.78699996E+02   # mqL3(Q)             
        44     7.73009998E+02   # muR(Q)              
        45     7.73009998E+02   # mcR(Q)              
        46     3.61476000E+03   # mtR(Q)              
        47     3.14611000E+03   # mdR(Q)              
        48     3.14611000E+03   # msR(Q)              
        49     2.93215000E+03   # mbR(Q)              
#
Block HiggsBoundsInputHiggsCouplingsFermions
# ScalarNormEffCoupSq PseudoSNormEffCoupSq NP   IP1 IP2 IP2
    1.04173577E+00    0.00000000E+00        3  25   5   5  # h0-b-b eff. coupling^2, normalised to SM
    4.89885133E+02    0.00000000E+00        3  35   5   5  # H0-b-b eff. coupling^2, normalised to SM
    0.00000000E+00    4.89926869E+02        3  36   5   5  # A0-b-b eff. coupling^2, normalised to SM
#
    9.99914812E-01    0.00000000E+00        3  25   6   6  # h0-t-t eff. coupling^2, normalised to SM
    2.12630872E-03    0.00000000E+00        3  35   6   6  # H0-t-t eff. coupling^2, normalised to SM
    0.00000000E+00    2.04112096E-03        3  36   6   6  # A0-t-t eff. coupling^2, normalised to SM
#
    1.04173577E+00    0.00000000E+00        3  25  15  15  # h0-tau-tau eff. coupling^2, normalised to SM
    4.89885133E+02    0.00000000E+00        3  35  15  15  # H0-tau-tau eff. coupling^2, normalised to SM
    0.00000000E+00    4.89926869E+02        3  36  15  15  # A0-tau-tau eff. coupling^2, normalised to SM
#
Block HiggsBoundsInputHiggsCouplingsBosons
    9.99999129E-01        3  25  24  24  # h0-W-W eff. coupling^2, normalised to SM
    8.70802801E-07        3  35  24  24  # H0-W-W eff. coupling^2, normalised to SM
    0.00000000E+00        3  36  24  24  # A0-W-W eff. coupling^2, normalised to SM
#
    9.99999129E-01        3  25  23  23  # h0-Z-Z eff. coupling^2, normalised to SM
    8.70802801E-07        3  35  23  23  # H0-Z-Z eff. coupling^2, normalised to SM
    0.00000000E+00        3  36  23  23  # A0-Z-Z eff. coupling^2, normalised to SM
#
    8.94317833E-01        3  25  21  21  # h0-g-g eff. coupling^2, normalised to SM
    1.01703651E-04        3  35  21  21  # H0-g-g eff. coupling^2, normalised to SM
    4.49723864E-04        3  36  21  21  # A0-g-g eff. coupling^2, normalised to SM
#
    0.00000000E+00        3  25  25  23  # h0-h0-Z eff. coupling^2, normalised to SM
    0.00000000E+00        3  35  25  23  # H0-h0-Z eff. coupling^2, normalised to SM
    8.70802801E-07        3  36  25  23  # A0-h0-Z eff. coupling^2, normalised to SM
    0.00000000E+00        3  35  35  23  # H0-H0-Z eff. coupling^2, normalised to SM
    9.99999129E-01        3  36  35  23  # A0-H0-Z eff. coupling^2, normalised to SM
    0.00000000E+00        3  36  36  23  # A0-A0-Z eff. coupling^2, normalised to SM
#
    0.00000000E+00        4  25  21  21  23  # h0-g-g-Z eff. coupling^2, normalised to SM
    0.00000000E+00        4  35  21  21  23  # H0-g-g-Z eff. coupling^2, normalised to SM
    0.00000000E+00        4  36  21  21  23  # A0-g-g-Z eff. coupling^2, normalised to SM
#
#
#
#                             =================
#                             |The decay table|
#                             =================
#
# - The QCD corrections to the decays gluino -> squark  + quark
#                                     squark -> gaugino + quark_prime
#                                     squark -> squark_prime + Higgs
#                                     squark -> gluino  + quark
#   are included.
#
# - The multi-body decays for the inos, stops and sbottoms are included.
#
# - The loop induced decays for the gluino, neutralinos and stops
#   are included.
#
# - The SUSY decays of the top quark are included.
#
#
#         PDG            Width
DECAY         6     1.42726717E+00   # top decays
#          BR         NDA      ID1       ID2
     1.00000000E+00    2           5        24   # BR(t ->  b    W+)
#
#         PDG            Width
DECAY   1000021     3.61431474E+01   # gluino decays
#          BR         NDA      ID1       ID2
     8.73751512E-02    2     2000002        -2   # BR(~g -> ~u_R  ub)
     8.73751512E-02    2    -2000002         2   # BR(~g -> ~u_R* u )
     8.73745946E-02    2     2000004        -4   # BR(~g -> ~c_R  cb)
     8.73745946E-02    2    -2000004         4   # BR(~g -> ~c_R* c )
     1.63071258E-01    2     1000005        -5   # BR(~g -> ~b_1  bb)
     1.63071258E-01    2    -1000005         5   # BR(~g -> ~b_1* b )
     1.62178996E-01    2     1000006        -6   # BR(~g -> ~t_1  tb)
     1.62178996E-01    2    -1000006         6   # BR(~g -> ~t_1* t )
#
#         PDG            Width
DECAY   1000006     1.00122800E-08   # stop1 decays
#           BR         NDA      ID1       ID2
     9.92197921E-01    2     1000022         4   # BR(~t_1 -> ~chi_10 c )
     7.64954495E-03    2     1000022         2   # BR(~t_1 -> ~chi_10 u )
#           BR         NDA      ID1       ID2       ID3       ID4
     4.86842158E-05    4        4       -3        1000022      5   # BR(~t_1 -> c  sb  ~chi_10  b)
     5.28501001E-05    4        2       -1        1000022      5   # BR(~t_1 -> u  db  ~chi_10  b)
     1.76603131E-05    4        -11       12        1000022      5   # BR(~t_1 -> e+  nu_e  ~chi_10  b)
     1.76603131E-05    4        -13       14        1000022      5   # BR(~t_1 -> mu+  nu_mu  ~chi_10  b)
     1.56787465E-05    4        -15       16        1000022      5   # BR(~t_1 -> tau+  nu_tau  ~chi_10  b)
#
#         PDG            Width
DECAY   2000006     3.45754609E+02   # stop2 decays
#          BR         NDA      ID1       ID2
     2.25626340E-02    2     1000022         6   # BR(~t_2 -> ~chi_10 t )
     6.26120197E-02    2     1000023         6   # BR(~t_2 -> ~chi_20 t )
     6.36245364E-02    2     1000025         6   # BR(~t_2 -> ~chi_30 t )
     3.88643280E-04    2     1000035         6   # BR(~t_2 -> ~chi_40 t )
     1.26479914E-01    2     1000024         5   # BR(~t_2 -> ~chi_1+ b )
     7.48629719E-04    2     1000037         5   # BR(~t_2 -> ~chi_2+ b )
     4.72483946E-01    2     1000021         6   # BR(~t_2 -> ~g      t )
     6.17943183E-02    2     1000006        25   # BR(~t_2 -> ~t_1    h )
     5.09207973E-03    2     1000006        35   # BR(~t_2 -> ~t_1    H )
     5.15342935E-03    2     1000006        36   # BR(~t_2 -> ~t_1    A )
     1.02860507E-02    2     1000005        37   # BR(~t_2 -> ~b_1    H+)
     5.73057966E-02    2     1000006        23   # BR(~t_2 -> ~t_1    Z )
     1.11467726E-01    2     1000005        24   # BR(~t_2 -> ~b_1    W+)
     2.75868689E-07    2     2000005        24   # BR(~t_2 -> ~b_2    W+)
#
#         PDG            Width
DECAY   1000005     5.84964223E-04   # sbottom1 decays
#          BR         NDA      ID1       ID2
     1.00000000E+00    2     1000022         5   # BR(~b_1 -> ~chi_10 b )
#
#         PDG            Width
DECAY   2000005     1.31936505E+02   # sbottom2 decays
#          BR         NDA      ID1       ID2
     1.15618728E-02    2     1000022         5   # BR(~b_2 -> ~chi_10 b )
     1.86009015E-02    2     1000023         5   # BR(~b_2 -> ~chi_20 b )
     1.87374549E-02    2     1000025         5   # BR(~b_2 -> ~chi_30 b )
     9.32910185E-05    2     1000035         5   # BR(~b_2 -> ~chi_40 b )
     3.70640637E-02    2    -1000024         6   # BR(~b_2 -> ~chi_1- t )
     1.78620559E-04    2    -1000037         6   # BR(~b_2 -> ~chi_2- t )
     8.70179696E-01    2     1000021         5   # BR(~b_2 -> ~g      b )
     3.11482085E-03    2     1000005        25   # BR(~b_2 -> ~b_1    h )
     8.03996009E-03    2     1000005        35   # BR(~b_2 -> ~b_1    H )
     8.03242615E-03    2     1000005        36   # BR(~b_2 -> ~b_1    A )
     1.61116350E-02    2     1000006       -37   # BR(~b_2 -> ~t_1    H-)
     2.81733711E-03    2     1000005        23   # BR(~b_2 -> ~b_1    Z )
     5.46792051E-03    2     1000006       -24   # BR(~b_2 -> ~t_1    W-)
#
#         PDG            Width
DECAY   1000002     1.77991888E+02   # sup_L decays
#          BR         NDA      ID1       ID2
     2.15736567E-03    2     1000022         2   # BR(~u_L -> ~chi_10 u)
     6.39001393E-04    2     1000023         2   # BR(~u_L -> ~chi_20 u)
     1.72299450E-05    2     1000025         2   # BR(~u_L -> ~chi_30 u)
     3.40673210E-02    2     1000035         2   # BR(~u_L -> ~chi_40 u)
     1.42280898E-03    2     1000024         1   # BR(~u_L -> ~chi_1+ d)
     6.79690288E-02    2     1000037         1   # BR(~u_L -> ~chi_2+ d)
     8.93727244E-01    2     1000021         2   # BR(~u_L -> ~g      u)
#
#         PDG            Width
DECAY   2000002     1.38526058E-01   # sup_R decays
#          BR         NDA      ID1       ID2
     1.00000000E+00    2     1000022         2   # BR(~u_R -> ~chi_10 u)
#
#         PDG            Width
DECAY   1000001     1.78027522E+02   # sdown_L decays
#          BR         NDA      ID1       ID2
     2.28422247E-03    2     1000022         1   # BR(~d_L -> ~chi_10 d)
     3.74057848E-04    2     1000023         1   # BR(~d_L -> ~chi_20 d)
     3.12775259E-05    2     1000025         1   # BR(~d_L -> ~chi_30 d)
     3.41810414E-02    2     1000035         1   # BR(~d_L -> ~chi_40 d)
     5.86103133E-04    2    -1000024         2   # BR(~d_L -> ~chi_1- u)
     6.85582433E-02    2    -1000037         2   # BR(~d_L -> ~chi_2- u)
     8.93985054E-01    2     1000021         1   # BR(~d_L -> ~g      d)
#
#         PDG            Width
DECAY   2000001     1.62383270E+02   # sdown_R decays
#          BR         NDA      ID1       ID2
     9.80770619E-03    2     1000022         1   # BR(~d_R -> ~chi_10 d)
     3.90587604E-05    2     1000023         1   # BR(~d_R -> ~chi_20 d)
     2.29863332E-06    2     1000025         1   # BR(~d_R -> ~chi_30 d)
     7.40796314E-08    2     1000035         1   # BR(~d_R -> ~chi_40 d)
     9.90150862E-01    2     1000021         1   # BR(~d_R -> ~g      d)
#
#         PDG            Width
DECAY   1000004     1.48790409E+02   # scharm_L decays
#          BR         NDA      ID1       ID2
     2.66865340E-03    2     1000022         4   # BR(~c_L -> ~chi_10 c)
     7.89897094E-04    2     1000023         4   # BR(~c_L -> ~chi_20 c)
     2.12984931E-05    2     1000025         4   # BR(~c_L -> ~chi_30 c)
     4.20272759E-02    2     1000035         4   # BR(~c_L -> ~chi_40 c)
     1.75879886E-03    2     1000024         3   # BR(~c_L -> ~chi_1+ s)
     8.38502386E-02    2     1000037         3   # BR(~c_L -> ~chi_2+ s)
     8.68883838E-01    2     1000021         4   # BR(~c_L -> ~g      c)
#
#         PDG            Width
DECAY   2000004     1.34267240E-01   # scharm_R decays
#          BR         NDA      ID1       ID2
     1.00000000E+00    2     1000022         4   # BR(~c_R -> ~chi_10 c)
#
#         PDG            Width
DECAY   1000003     1.48809959E+02   # sstrange_L decays
#          BR         NDA      ID1       ID2
     2.82576470E-03    2     1000022         3   # BR(~s_L -> ~chi_10 s)
     4.62420573E-04    2     1000023         3   # BR(~s_L -> ~chi_20 s)
     3.86658043E-05    2     1000025         3   # BR(~s_L -> ~chi_30 s)
     4.21706050E-02    2     1000035         3   # BR(~s_L -> ~chi_40 s)
     7.24557471E-04    2    -1000024         4   # BR(~s_L -> ~chi_1- c)
     8.45830791E-02    2    -1000037         4   # BR(~s_L -> ~chi_2- c)
     8.69194907E-01    2     1000021         3   # BR(~s_L -> ~g      s)
#
#         PDG            Width
DECAY   2000003     1.32323274E+02   # sstrange_R decays
#          BR         NDA      ID1       ID2
     1.24450160E-02    2     1000022         3   # BR(~s_R -> ~chi_10 s)
     4.95286065E-05    2     1000023         3   # BR(~s_R -> ~chi_20 s)
     2.91476643E-06    2     1000025         3   # BR(~s_R -> ~chi_30 s)
     9.37546530E-08    2     1000035         3   # BR(~s_R -> ~chi_40 s)
     9.87502447E-01    2     1000021         3   # BR(~s_R -> ~g      s)
#
#         PDG            Width
DECAY   1000011     3.52994510E+01   # selectron_L decays
#          BR         NDA      ID1       ID2
     1.32044080E-01    2     1000022        11   # BR(~e_L -> ~chi_10 e-)
     6.91500657E-03    2     1000023        11   # BR(~e_L -> ~chi_20 e-)
     5.21472751E-05    2     1000025        11   # BR(~e_L -> ~chi_30 e-)
     2.83990489E-01    2     1000035        11   # BR(~e_L -> ~chi_40 e-)
     4.15688876E-03    2    -1000024        12   # BR(~e_L -> ~chi_1- nu_e)
     5.72841389E-01    2    -1000037        12   # BR(~e_L -> ~chi_2- nu_e)
#
#         PDG            Width
DECAY   2000011     9.25801583E+00   # selectron_R decays
#          BR         NDA      ID1       ID2
     9.96613369E-01    2     1000022        11   # BR(~e_R -> ~chi_10 e-)
     3.19634415E-03    2     1000023        11   # BR(~e_R -> ~chi_20 e-)
     1.87492019E-04    2     1000025        11   # BR(~e_R -> ~chi_30 e-)
     2.79469851E-06    2     1000035        11   # BR(~e_R -> ~chi_40 e-)
#
#         PDG            Width
DECAY   1000013     3.52994509E+01   # smuon_L decays
#          BR         NDA      ID1       ID2
     1.32044080E-01    2     1000022        13   # BR(~mu_L -> ~chi_10 mu-)
     6.91500656E-03    2     1000023        13   # BR(~mu_L -> ~chi_20 mu-)
     5.21472750E-05    2     1000025        13   # BR(~mu_L -> ~chi_30 mu-)
     2.83990488E-01    2     1000035        13   # BR(~mu_L -> ~chi_40 mu-)
     4.15688877E-03    2    -1000024        14   # BR(~mu_L -> ~chi_1- nu_mu)
     5.72841389E-01    2    -1000037        14   # BR(~mu_L -> ~chi_2- nu_mu)
#
#         PDG            Width
DECAY   2000013     9.25801578E+00   # smuon_R decays
#          BR         NDA      ID1       ID2
     9.96613369E-01    2     1000022        13   # BR(~mu_R -> ~chi_10 mu-)
     3.19634414E-03    2     1000023        13   # BR(~mu_R -> ~chi_20 mu-)
     1.87492018E-04    2     1000025        13   # BR(~mu_R -> ~chi_30 mu-)
     2.79469845E-06    2     1000035        13   # BR(~mu_R -> ~chi_40 mu-)
#
#         PDG            Width
DECAY   1000015     7.37220129E+00   # stau_1 decays
#          BR         NDA      ID1       ID2
     8.46024615E-01    2     1000022        15   # BR(~tau_1 -> ~chi_10  tau-)
     3.97678495E-02    2     1000023        15   # BR(~tau_1 -> ~chi_20  tau-)
     3.78332542E-02    2     1000025        15   # BR(~tau_1 -> ~chi_30  tau-)
     9.01486938E-07    2     1000035        15   # BR(~tau_1 -> ~chi_40  tau-)
     7.63717064E-02    2    -1000024        16   # BR(~tau_1 -> ~chi_1-  nu_tau)
     1.67374496E-06    2    -1000037        16   # BR(~tau_1 -> ~chi_2-  nu_tau)
#
#         PDG            Width
DECAY   2000015     3.02031995E+01   # stau_2 decays
#          BR         NDA      ID1       ID2
     1.29987659E-01    2     1000022        15   # BR(~tau_2 -> ~chi_10  tau-)
     4.81973083E-02    2     1000023        15   # BR(~tau_2 -> ~chi_20  tau-)
     4.21363838E-02    2     1000025        15   # BR(~tau_2 -> ~chi_30  tau-)
     2.40595248E-01    2     1000035        15   # BR(~tau_2 -> ~chi_40  tau-)
     3.74514632E-03    2    -1000024        16   # BR(~tau_2 -> ~chi_1-  nu_tau)
     4.84956334E-01    2    -1000037        16   # BR(~tau_2 -> ~chi_2-  nu_tau)
     3.58913508E-03    2     1000015        25   # BR(~tau_2 -> ~tau_1   h)
     2.16285609E-02    2     1000015        35   # BR(~tau_2 -> ~tau_1   H)
     2.16158472E-02    2     1000015        36   # BR(~tau_2 -> ~tau_1   A)
     3.54837694E-03    2     1000015        23   # BR(~tau_2 -> ~tau_1   Z)
#
#         PDG            Width
DECAY   1000012     3.53119869E+01   # snu_eL decays
#          BR         NDA      ID1       ID2
     1.34483367E-01    2     1000022        12   # BR(~nu_eL -> ~chi_10 nu_e)
     1.27263577E-03    2     1000023        12   # BR(~nu_eL -> ~chi_20 nu_e)
     3.50983318E-04    2     1000025        12   # BR(~nu_eL -> ~chi_30 nu_e)
     2.86112243E-01    2     1000035        12   # BR(~nu_eL -> ~chi_40 nu_e)
     1.00859684E-02    2     1000024        11   # BR(~nu_eL -> ~chi_1+ e-)
     5.67694802E-01    2     1000037        11   # BR(~nu_eL -> ~chi_2+ e-)
#
#         PDG            Width
DECAY   1000014     3.53119869E+01   # snu_muL decays
#          BR         NDA      ID1       ID2
     1.34483368E-01    2     1000022        14   # BR(~nu_muL -> ~chi_10 nu_mu)
     1.27263577E-03    2     1000023        14   # BR(~nu_muL -> ~chi_20 nu_mu)
     3.50983318E-04    2     1000025        14   # BR(~nu_muL -> ~chi_30 nu_mu)
     2.86112244E-01    2     1000035        14   # BR(~nu_muL -> ~chi_40 nu_mu)
     1.00859684E-02    2     1000024        13   # BR(~nu_muL -> ~chi_1+ mu-)
     5.67694801E-01    2     1000037        13   # BR(~nu_muL -> ~chi_2+ mu-)
#
#         PDG            Width
DECAY   1000016     3.02057893E+01   # snu_tauL decays
#          BR         NDA      ID1       ID2
     1.32105778E-01    2     1000022        16   # BR(~nu_tauL -> ~chi_10 nu_tau)
     1.19965760E-03    2     1000023        16   # BR(~nu_tauL -> ~chi_20 nu_tau)
     3.30665134E-04    2     1000025        16   # BR(~nu_tauL -> ~chi_30 nu_tau)
     2.42149943E-01    2     1000035        16   # BR(~nu_tauL -> ~chi_40 nu_tau)
     9.34516521E-02    2     1000024        15   # BR(~nu_tauL -> ~chi_1+ tau-)
     4.80756690E-01    2     1000037        15   # BR(~nu_tauL -> ~chi_2+ tau-)
     4.31220501E-02    2    -1000015       -37   # BR(~nu_tauL -> ~tau_1+ H-)
     6.88356494E-03    2    -1000015       -24   # BR(~nu_tauL -> ~tau_1+ W-)
#
#         PDG            Width
DECAY   1000024     9.56685159E+00   # chargino1+ decays
#          BR         NDA      ID1       ID2
     1.32188838E-01    2     1000006        -5   # BR(~chi_1+ -> ~t_1     bb)
     8.19915015E-01    2    -1000005         6   # BR(~chi_1+ -> ~b_1*    t )
     4.78961473E-02    2     1000022        24   # BR(~chi_1+ -> ~chi_10  W+)
#
#         PDG            Width
DECAY   1000037     3.60675981E+01   # chargino2+ decays
#          BR         NDA      ID1       ID2
     3.72638286E-01    2     1000006        -5   # BR(~chi_2+ -> ~t_1     bb)
     3.48331077E-01    2    -1000005         6   # BR(~chi_2+ -> ~b_1*    t )
     7.04210870E-02    2     1000024        23   # BR(~chi_2+ -> ~chi_1+  Z )
     1.74629842E-05    2     1000022        24   # BR(~chi_2+ -> ~chi_10  W+)
     7.43249839E-02    2     1000023        24   # BR(~chi_2+ -> ~chi_20  W+)
     6.84295628E-02    2     1000025        24   # BR(~chi_2+ -> ~chi_30  W+)
     6.58018328E-02    2     1000024        25   # BR(~chi_2+ -> ~chi_1+  h )
     3.57071951E-05    2     1000022        37   # BR(~chi_2+ -> ~chi_10  H+)
#
#         PDG            Width
DECAY   1000022     0.00000000E+00   # neutralino1 decays
#
#         PDG            Width
DECAY   1000023     9.56543848E+00   # neutralino2 decays
#          BR         NDA      ID1       ID2
     3.08621270E-03    2     1000022        23   # BR(~chi_20 -> ~chi_10   Z )
     5.31423699E-02    2     1000022        25   # BR(~chi_20 -> ~chi_10   h )
     3.90241844E-04    2     2000002        -2   # BR(~chi_20 -> ~u_R      ub)
     3.90241844E-04    2    -2000002         2   # BR(~chi_20 -> ~u_R*     u )
     3.90237612E-04    2     2000004        -4   # BR(~chi_20 -> ~c_R      cb)
     3.90237612E-04    2    -2000004         4   # BR(~chi_20 -> ~c_R*     c )
     4.04506525E-01    2     1000006        -6   # BR(~chi_20 -> ~t_1      tb)
     4.04506525E-01    2    -1000006         6   # BR(~chi_20 -> ~t_1*     t )
     6.65987044E-02    2     1000005        -5   # BR(~chi_20 -> ~b_1      bb)
     6.65987044E-02    2    -1000005         5   # BR(~chi_20 -> ~b_1*     b )
#
#         PDG            Width
DECAY   1000025     9.58520031E+00   # neutralino3 decays
#          BR         NDA      ID1       ID2
     4.66982557E-02    2     1000022        23   # BR(~chi_30 -> ~chi_10   Z )
     2.93775442E-03    2     1000022        25   # BR(~chi_30 -> ~chi_10   h )
     2.34863676E-05    2     2000002        -2   # BR(~chi_30 -> ~u_R      ub)
     2.34863676E-05    2    -2000002         2   # BR(~chi_30 -> ~u_R*     u )
     2.34861213E-05    2     2000004        -4   # BR(~chi_30 -> ~c_R      cb)
     2.34861213E-05    2    -2000004         4   # BR(~chi_30 -> ~c_R*     c )
     4.08412485E-01    2     1000006        -6   # BR(~chi_30 -> ~t_1      tb)
     4.08412485E-01    2    -1000006         6   # BR(~chi_30 -> ~t_1*     t )
     6.67225377E-02    2     1000005        -5   # BR(~chi_30 -> ~b_1      bb)
     6.67225377E-02    2    -1000005         5   # BR(~chi_30 -> ~b_1*     b )
#
#         PDG            Width
DECAY   1000035     3.57466804E+01   # neutralino4 decays
#          BR         NDA      ID1       ID2
     7.49503356E-07    2     1000022        23   # BR(~chi_40 -> ~chi_10   Z )
     3.50623915E-03    2     1000023        23   # BR(~chi_40 -> ~chi_20   Z )
     6.93193793E-02    2     1000025        23   # BR(~chi_40 -> ~chi_30   Z )
     6.70445907E-02    2     1000024       -24   # BR(~chi_40 -> ~chi_1+   W-)
     6.70445907E-02    2    -1000024        24   # BR(~chi_40 -> ~chi_1-   W+)
     2.59447164E-05    2     1000022        25   # BR(~chi_40 -> ~chi_10   h )
     3.41844609E-05    2     1000022        35   # BR(~chi_40 -> ~chi_10   H )
     7.42986621E-07    2     1000022        36   # BR(~chi_40 -> ~chi_10   A )
     6.32896049E-02    2     1000023        25   # BR(~chi_40 -> ~chi_20   h )
     2.89449594E-03    2     1000025        25   # BR(~chi_40 -> ~chi_30   h )
     1.22375175E-06    2     2000002        -2   # BR(~chi_40 -> ~u_R      ub)
     1.22375175E-06    2    -2000002         2   # BR(~chi_40 -> ~u_R*     u )
     1.22375079E-06    2     2000004        -4   # BR(~chi_40 -> ~c_R      cb)
     1.22375079E-06    2    -2000004         4   # BR(~chi_40 -> ~c_R*     c )
     1.76703895E-01    2     1000006        -6   # BR(~chi_40 -> ~t_1      tb)
     1.76703895E-01    2    -1000006         6   # BR(~chi_40 -> ~t_1*     t )
     1.86713397E-01    2     1000005        -5   # BR(~chi_40 -> ~b_1      bb)
     1.86713397E-01    2    -1000005         5   # BR(~chi_40 -> ~b_1*     b )
#
#         PDG            Width
DECAY        25     4.26407622E-03   # h decays
#          BR         NDA      ID1       ID2
     5.46737330E-01    2           5        -5   # BR(h -> b       bb     )
     6.44273971E-02    2         -15        15   # BR(h -> tau+    tau-   )
     2.28014673E-04    2         -13        13   # BR(h -> mu+     mu-    )
     2.48170558E-04    2           3        -3   # BR(h -> s       sb     )
     2.06396805E-02    2           4        -4   # BR(h -> c       cb     )
     7.92603952E-02    2          21        21   # BR(h -> g       g      )
     2.38250731E-03    2          22        22   # BR(h -> gam     gam    )
     1.79347313E-03    2          22        23   # BR(h -> Z       gam    )
     2.51637180E-01    2          24       -24   # BR(h -> W+      W-     )
     3.26458517E-02    2          23        23   # BR(h -> Z       Z      )
#
#         PDG            Width
DECAY        35     9.09290547E+00   # H decays
#          BR         NDA      ID1       ID2
     8.82984097E-01    2           5        -5   # BR(H -> b       bb     )
     1.07055488E-01    2         -15        15   # BR(H -> tau+    tau-   )
     3.76499264E-04    2         -13        13   # BR(H -> mu+     mu-    )
     2.95939918E-04    2           3        -3   # BR(H -> s       sb     )
     1.05431011E-07    2           4        -4   # BR(H -> c       cb     )
     9.05365355E-03    2           6        -6   # BR(H -> t       tb     )
     7.53033606E-05    2          21        21   # BR(H -> g       g      )
     3.77776068E-08    2          22        22   # BR(H -> gam     gam    )
     3.34841095E-08    2          23        22   # BR(H -> Z       gam    )
     2.36428147E-05    2          24       -24   # BR(H -> W+      W-     )
     1.16542775E-05    2          23        23   # BR(H -> Z       Z      )
     1.23546070E-04    2          25        25   # BR(H -> h       h      )
#
#         PDG            Width
DECAY        36     9.09993980E+00   # A decays
#          BR         NDA      ID1       ID2
     8.82425787E-01    2           5        -5   # BR(A -> b       bb     )
     1.06983400E-01    2         -15        15   # BR(A -> tau+    tau-   )
     3.76240335E-04    2         -13        13   # BR(A -> mu+     mu-    )
     2.95778976E-04    2           3        -3   # BR(A -> s       sb     )
     1.02052790E-07    2           4        -4   # BR(A -> c       cb     )
     9.73719935E-03    2           6        -6   # BR(A -> t       tb     )
     1.58228051E-04    2          21        21   # BR(A -> g       g      )
     1.40128376E-07    2          22        22   # BR(A -> gam     gam    )
     7.18656826E-08    2          23        22   # BR(A -> Z       gam    )
     2.30524464E-05    2          23        25   # BR(A -> Z       h      )
#
#         PDG            Width
DECAY        37     9.39803535E+00   # H+ decays
#          BR         NDA      ID1       ID2
     1.52302523E-03    2           4        -5   # BR(H+ -> c       bb     )
     1.03977444E-01    2         -15        16   # BR(H+ -> tau+    nu_tau )
     3.65668938E-04    2         -13        14   # BR(H+ -> mu+     nu_mu  )
     1.52300850E-05    2           2        -5   # BR(H+ -> u       bb     )
     1.43094769E-05    2           2        -3   # BR(H+ -> u       sb     )
     2.81748051E-04    2           4        -3   # BR(H+ -> c       sb     )
     8.93799832E-01    2           6        -5   # BR(H+ -> t       bb     )
     2.27421601E-05    2          24        25   # BR(H+ -> W+      h      )
     7.05447466E-11    2          24        36   # BR(H+ -> W+      A      )
