#
#                              ======================
#                              | THE SUSYHIT OUTPUT |
#                              ======================
#
#
#              ------------------------------------------------------
#              |     This is the output of the SUSY-HIT package     |
#              |  created by A.Djouadi, M.Muehlleitner and M.Spira. |
#              |  In case of problems with SUSY-HIT email to        |
#              |           margarete.muehlleitner@cern.ch           |
#              |           michael.spira@psi.ch                     |
#              |           abdelhak.djouadi@cern.ch                 |
#              ------------------------------------------------------
#
#              ------------------------------------------------------
#              |  SUSY Les Houches Accord - MSSM Spectrum + Decays  |
#              |              based on the decay programs           |
#              |                                                    |
#              |                     SDECAY 1.3b                    |
#              |                                                    |
#              |  Authors: M.Muhlleitner, A.Djouadi and Y.Mambrini  |
#              |  Ref.:    Comput.Phys.Commun.168(2005)46           |
#              |           [hep-ph/0311167]                         |
#              |                                                    |
#              |                     HDECAY 3.4                     |
#              |                                                    |
#              |  By: A.Djouadi,J.Kalinowski,M.Muhlleitner,M.Spira  |
#              |  Ref.:    Comput.Phys.Commun.108(1998)56           |
#              |           [hep-ph/9704448]                         |
#              |                                                    |
#              |                                                    |
#              |  If not stated otherwise all DRbar couplings and   |
#              |  soft SUSY breaking masses are given at the scale  |
#              |  Q=  0.30520000E+04
#              |                                                    |
#              ------------------------------------------------------
#
#
BLOCK DCINFO  # Decay Program information
     1   SDECAY/HDECAY # decay calculator
     2   1.3b  /3.4    # version number
#
BLOCK SPINFO  # Spectrum calculator information
     1     SOFTSUSY    # spectrum calculator               
     2     3.4.0       # version number                    
#
BLOCK MODSEL  # Model selection
     1     0   #  nonUniversal                                     
#
BLOCK SMINPUTS  # Standard Model inputs
         1     1.27908970E+02   # alpha_em^-1(M_Z)^MSbar
         2     1.16637870E-05   # G_F [GeV^-2]
         3     1.18400000E-01   # alpha_S(M_Z)^MSbar
         4     9.11876000E+01   # M_Z pole mass
         5     4.18000000E+00   # mb(mb)^MSbar
         6     1.73200000E+02   # mt pole mass
         7     1.77700000E+00   # mtau pole mass
#
BLOCK MINPAR  # Input parameters - minimal models
         3     2.08900000E+01   # tanb                
#
BLOCK EXTPAR  # Input parameters - non-minimal models
         0    -1.00000000E+00   # Set                 
         1     4.84300000E+02   # M_1(MX)             
         2    -1.22888000E+03   # M_2(MX)             
         3     1.50495000E+03   # M_3(MX)             
        11     3.40122000E+03   # At(MX)              
        12    -7.25240000E+02   # Ab(MX)              
        13    -9.01730000E+02   # Atau(MX)            
        23    -1.91910000E+02   # mu(MX)              
        26     1.32213000E+03   # mA(pole)            
        31     3.34327000E+03   # meL(MX)             
        32     3.34327000E+03   # mmuL(MX)            
        33     1.41743000E+03   # mtauL(MX)           
        34     1.85938000E+03   # meR(MX)             
        35     1.85938000E+03   # mmuR(MX)            
        36     1.47634000E+03   # mtauR(MX)           
        41     2.56517000E+03   # mqL1(MX)            
        42     2.56517000E+03   # mqL2(MX)            
        43     3.85386000E+03   # mqL3(MX)            
        44     1.24323000E+03   # muR(MX)             
        45     1.24323000E+03   # mcR(MX)             
        46     2.41489000E+03   # mtR(MX)             
        47     2.53421000E+03   # mdR(MX)             
        48     2.53421000E+03   # msR(MX)             
        49     6.94500000E+02   # mbR(MX)             
#
BLOCK MASS  # Mass Spectrum
# PDG code           mass       particle
        24     8.03979627E+01   # W+
        25     1.25868815E+02   # h
        35     1.32216884E+03   # H
        36     1.32213000E+03   # A
        37     1.32470756E+03   # H+
         5     4.81876030E+00   # b-quark pole mass calculated from mb(mb)_Msbar
   1000001     2.62330104E+03   # ~d_L
   2000001     2.58475296E+03   # ~d_R
   1000002     2.62225047E+03   # ~u_L
   2000002     1.34595138E+03   # ~u_R
   1000003     2.62330104E+03   # ~s_L
   2000003     2.58475296E+03   # ~s_R
   1000004     2.62225047E+03   # ~c_L
   2000004     1.34595138E+03   # ~c_R
   1000005     8.34047253E+02   # ~b_1
   2000005     3.86943952E+03   # ~b_2
   1000006     2.41177302E+03   # ~t_1
   2000006     3.87471508E+03   # ~t_2
   1000011     3.35201366E+03   # ~e_L
   2000011     1.86141635E+03   # ~e_R
   1000012     3.35075177E+03   # ~nu_eL
   1000013     3.35201366E+03   # ~mu_L
   2000013     1.86141635E+03   # ~mu_R
   1000014     3.35075177E+03   # ~nu_muL
   1000015     1.43179427E+03   # ~tau_1
   2000015     1.47498238E+03   # ~tau_2
   1000016     1.42938973E+03   # ~nu_tauL
   1000021     1.69407050E+03   # ~g
   1000022    -1.99614050E+02   # ~chi_10
   1000023     1.99977723E+02   # ~chi_20
   1000025     4.80789920E+02   # ~chi_30
   1000035    -1.27366864E+03   # ~chi_40
   1000024     2.00273215E+02   # ~chi_1+
   1000037     1.27384120E+03   # ~chi_2+
#
BLOCK NMIX  # Neutralino Mixing Matrix
  1  1     4.81504545E-02   # N_11
  1  2     5.41930904E-02   # N_12
  1  3     7.07825398E-01   # N_13
  1  4    -7.02657704E-01   # N_14
  2  1    -1.06220505E-01   # N_21
  2  2    -3.57413586E-02   # N_22
  2  3     7.05072856E-01   # N_23
  2  4     7.00222841E-01   # N_24
  3  1     9.93174709E-01   # N_31
  3  2    -4.78839412E-03   # N_32
  3  3     4.10699133E-02   # N_33
  3  4     1.09061130E-01   # N_34
  4  1    -1.65368243E-03   # N_41
  4  2     9.97879119E-01   # N_42
  4  3    -1.29898751E-02   # N_43
  4  4     6.37635708E-02   # N_44
#
BLOCK UMIX  # Chargino Mixing Matrix U
  1  1     1.83796469E-02   # U_11
  1  2     9.99831080E-01   # U_12
  2  1    -9.99831080E-01   # U_21
  2  2     1.83796469E-02   # U_22
#
BLOCK VMIX  # Chargino Mixing Matrix V
  1  1    -9.02746798E-02   # V_11
  1  2    -9.95916905E-01   # V_12
  2  1     9.95916905E-01   # V_21
  2  2    -9.02746798E-02   # V_22
#
BLOCK STOPMIX  # Stop Mixing Matrix
  1  1    -5.03068336E-02   # cos(theta_t)
  1  2     9.98733810E-01   # sin(theta_t)
  2  1    -9.98733810E-01   # -sin(theta_t)
  2  2    -5.03068336E-02   # cos(theta_t)
#
BLOCK SBOTMIX  # Sbottom Mixing Matrix
  1  1    -4.96341132E-04   # cos(theta_b)
  1  2     9.99999877E-01   # sin(theta_b)
  2  1    -9.99999877E-01   # -sin(theta_b)
  2  2    -4.96341132E-04   # cos(theta_b)
#
BLOCK STAUMIX  # Stau Mixing Matrix
  1  1     9.99035024E-01   # cos(theta_tau)
  1  2    -4.39206195E-02   # sin(theta_tau)
  2  1     4.39206195E-02   # -sin(theta_tau)
  2  2     9.99035024E-01   # cos(theta_tau)
#
BLOCK ALPHA  # Higgs mixing
          -5.06645327E-02   # Mixing angle in the neutral Higgs boson sector
#
BLOCK HMIX Q=  3.05200000E+03  # DRbar Higgs Parameters
         1    -1.95408955E+02   # mu(Q)MSSM           
         2     1.99905306E+01   # tan                 
         3     2.41720721E+02   # higgs               
         4     1.85623237E+06   # mA^2(Q)MSSM         
#
BLOCK GAUGE Q=  3.05200000E+03  # The gauge couplings
     1     3.65734549E-01   # gprime(Q) DRbar
     2     6.39852079E-01   # g(Q) DRbar
     3     1.02286954E+00   # g3(Q) DRbar
#
BLOCK AU Q=  3.05200000E+03  # The trilinear couplings
  1  1     0.00000000E+00   # A_u(Q) DRbar
  2  2     0.00000000E+00   # A_c(Q) DRbar
  3  3     3.40122001E+03   # A_t(Q) DRbar
#
BLOCK AD Q=  3.05200000E+03  # The trilinear couplings
  1  1     0.00000000E+00   # A_d(Q) DRbar
  2  2     0.00000000E+00   # A_s(Q) DRbar
  3  3    -7.25239996E+02   # A_b(Q) DRbar
#
BLOCK AE Q=  3.05200000E+03  # The trilinear couplings
  1  1     0.00000000E+00   # A_e(Q) DRbar
  2  2     0.00000000E+00   # A_mu(Q) DRbar
  3  3    -9.01729999E+02   # A_tau(Q) DRbar
#
BLOCK Yu Q=  3.05200000E+03  # The Yukawa couplings
  1  1     0.00000000E+00   # y_u(Q) DRbar
  2  2     0.00000000E+00   # y_c(Q) DRbar
  3  3     8.36231186E-01   # y_t(Q) DRbar
#
BLOCK Yd Q=  3.05200000E+03  # The Yukawa couplings
  1  1     0.00000000E+00   # y_d(Q) DRbar
  2  2     0.00000000E+00   # y_s(Q) DRbar
  3  3     2.76076528E-01   # y_b(Q) DRbar
#
BLOCK Ye Q=  3.05200000E+03  # The Yukawa couplings
  1  1     0.00000000E+00   # y_e(Q) DRbar
  2  2     0.00000000E+00   # y_mu(Q) DRbar
  3  3     2.06491981E-01   # y_tau(Q) DRbar
#
BLOCK MSOFT Q=  3.05200000E+03  # The soft SUSY breaking masses at the scale Q
         1     4.84300000E+02   # M_1(Q)              
         2    -1.22888000E+03   # M_2(Q)              
         3     1.50495000E+03   # M_3(Q)              
        21     1.69648621E+06   # mH1^2(Q)            
        22     1.29240337E+05   # mH2^2(Q)            
        31     3.34327000E+03   # meL(Q)              
        32     3.34327000E+03   # mmuL(Q)             
        33     1.41743000E+03   # mtauL(Q)            
        34     1.85938000E+03   # meR(Q)              
        35     1.85938000E+03   # mmuR(Q)             
        36     1.47634000E+03   # mtauR(Q)            
        41     2.56517000E+03   # mqL1(Q)             
        42     2.56517000E+03   # mqL2(Q)             
        43     3.85386000E+03   # mqL3(Q)             
        44     1.24322999E+03   # muR(Q)              
        45     1.24322999E+03   # mcR(Q)              
        46     2.41489000E+03   # mtR(Q)              
        47     2.53421000E+03   # mdR(Q)              
        48     2.53421000E+03   # msR(Q)              
        49     6.94499987E+02   # mbR(Q)              
#
Block HiggsBoundsInputHiggsCouplingsFermions
# ScalarNormEffCoupSq PseudoSNormEffCoupSq NP   IP1 IP2 IP2
    1.02747321E+00    0.00000000E+00        3  25   5   5  # h0-b-b eff. coupling^2, normalised to SM
    3.99593840E+02    0.00000000E+00        3  35   5   5  # H0-b-b eff. coupling^2, normalised to SM
    0.00000000E+00    3.99621314E+02        3  36   5   5  # A0-b-b eff. coupling^2, normalised to SM
#
    9.99931252E-01    0.00000000E+00        3  25   6   6  # h0-t-t eff. coupling^2, normalised to SM
    2.57111713E-03    0.00000000E+00        3  35   6   6  # H0-t-t eff. coupling^2, normalised to SM
    0.00000000E+00    2.50236903E-03        3  36   6   6  # A0-t-t eff. coupling^2, normalised to SM
#
    1.02747321E+00    0.00000000E+00        3  25  15  15  # h0-tau-tau eff. coupling^2, normalised to SM
    3.99593840E+02    0.00000000E+00        3  35  15  15  # H0-tau-tau eff. coupling^2, normalised to SM
    0.00000000E+00    3.99621314E+02        3  36  15  15  # A0-tau-tau eff. coupling^2, normalised to SM
#
Block HiggsBoundsInputHiggsCouplingsBosons
    9.99999534E-01        3  25  24  24  # h0-W-W eff. coupling^2, normalised to SM
    4.65821679E-07        3  35  24  24  # H0-W-W eff. coupling^2, normalised to SM
    0.00000000E+00        3  36  24  24  # A0-W-W eff. coupling^2, normalised to SM
#
    9.99999534E-01        3  25  23  23  # h0-Z-Z eff. coupling^2, normalised to SM
    4.65821679E-07        3  35  23  23  # H0-Z-Z eff. coupling^2, normalised to SM
    0.00000000E+00        3  36  23  23  # A0-Z-Z eff. coupling^2, normalised to SM
#
    8.87616859E-01        3  25  21  21  # h0-g-g eff. coupling^2, normalised to SM
    6.70273508E-09        3  35  21  21  # H0-g-g eff. coupling^2, normalised to SM
    9.96195653E-08        3  36  21  21  # A0-g-g eff. coupling^2, normalised to SM
#
    0.00000000E+00        3  25  25  23  # h0-h0-Z eff. coupling^2, normalised to SM
    0.00000000E+00        3  35  25  23  # H0-h0-Z eff. coupling^2, normalised to SM
    4.65821679E-07        3  36  25  23  # A0-h0-Z eff. coupling^2, normalised to SM
    0.00000000E+00        3  35  35  23  # H0-H0-Z eff. coupling^2, normalised to SM
    9.99999534E-01        3  36  35  23  # A0-H0-Z eff. coupling^2, normalised to SM
    0.00000000E+00        3  36  36  23  # A0-A0-Z eff. coupling^2, normalised to SM
#
    0.00000000E+00        4  25  21  21  23  # h0-g-g-Z eff. coupling^2, normalised to SM
    0.00000000E+00        4  35  21  21  23  # H0-g-g-Z eff. coupling^2, normalised to SM
    0.00000000E+00        4  36  21  21  23  # A0-g-g-Z eff. coupling^2, normalised to SM
#
#
#
#                             =================
#                             |The decay table|
#                             =================
#
# - The QCD corrections to the decays gluino -> squark  + quark
#                                     squark -> gaugino + quark_prime
#                                     squark -> squark_prime + Higgs
#                                     squark -> gluino  + quark
#   are included.
#
# - The multi-body decays for the inos, stops and sbottoms are included.
#
# - The loop induced decays for the gluino, neutralinos and stops
#   are included.
#
# - The SUSY decays of the top quark are included.
#
#
#         PDG            Width
DECAY         6     1.44152299E+00   # top decays
#          BR         NDA      ID1       ID2
     1.00000000E+00    2           5        24   # BR(t ->  b    W+)
#
#         PDG            Width
DECAY   1000021     3.06098764E+01   # gluino decays
#          BR         NDA      ID1       ID2
     7.31589598E-02    2     2000002        -2   # BR(~g -> ~u_R  ub)
     7.31589598E-02    2    -2000002         2   # BR(~g -> ~u_R* u )
     7.31583111E-02    2     2000004        -4   # BR(~g -> ~c_R  cb)
     7.31583111E-02    2    -2000004         4   # BR(~g -> ~c_R* c )
     3.53682729E-01    2     1000005        -5   # BR(~g -> ~b_1  bb)
     3.53682729E-01    2    -1000005         5   # BR(~g -> ~b_1* b )
#
#         PDG            Width
DECAY   1000006     1.03316367E+02   # stop1 decays
#          BR         NDA      ID1       ID2
     1.56864984E-01    2     1000022         6   # BR(~t_1 -> ~chi_10 t )
     1.55669377E-01    2     1000023         6   # BR(~t_1 -> ~chi_20 t )
     5.48365091E-02    2     1000025         6   # BR(~t_1 -> ~chi_30 t )
     2.18708983E-04    2     1000035         6   # BR(~t_1 -> ~chi_40 t )
     3.19173440E-01    2     1000024         5   # BR(~t_1 -> ~chi_1+ b )
     4.53443722E-04    2     1000037         5   # BR(~t_1 -> ~chi_2+ b )
     3.12697696E-01    2     1000021         6   # BR(~t_1 -> ~g      t )
     8.58044695E-05    2     1000005        37   # BR(~t_1 -> ~b_1    H+)
     3.62226018E-08    2     1000005        24   # BR(~t_1 -> ~b_1    W+)
#
#         PDG            Width
DECAY   2000006     2.61625662E+02   # stop2 decays
#          BR         NDA      ID1       ID2
     1.00813194E-01    2     1000022         6   # BR(~t_2 -> ~chi_10 t )
     1.00456195E-01    2     1000023         6   # BR(~t_2 -> ~chi_20 t )
     3.70939863E-03    2     1000025         6   # BR(~t_2 -> ~chi_30 t )
     4.89907726E-02    2     1000035         6   # BR(~t_2 -> ~chi_40 t )
     2.23456458E-02    2     1000024         5   # BR(~t_2 -> ~chi_1+ b )
     9.60825023E-02    2     1000037         5   # BR(~t_2 -> ~chi_2+ b )
     5.37131880E-01    2     1000021         6   # BR(~t_2 -> ~g      t )
     4.81288434E-02    2     1000006        25   # BR(~t_2 -> ~t_1    h )
     9.06178685E-07    2     1000006        35   # BR(~t_2 -> ~t_1    H )
     1.12024088E-06    2     1000006        36   # BR(~t_2 -> ~t_1    A )
     6.49391330E-04    2     1000005        37   # BR(~t_2 -> ~b_1    H+)
     4.16603370E-02    2     1000006        23   # BR(~t_2 -> ~t_1    Z )
     2.98133874E-05    2     1000005        24   # BR(~t_2 -> ~b_1    W+)
#
#         PDG            Width
DECAY   1000005     2.36117771E+00   # sbottom1 decays
#          BR         NDA      ID1       ID2
     2.38975223E-01    2     1000022         5   # BR(~b_1 -> ~chi_10 b )
     2.38754142E-01    2     1000023         5   # BR(~b_1 -> ~chi_20 b )
     9.21189611E-02    2     1000025         5   # BR(~b_1 -> ~chi_30 b )
     4.30151674E-01    2    -1000024         6   # BR(~b_1 -> ~chi_1- t )
#
#         PDG            Width
DECAY   2000005     2.58826619E+02   # sbottom2 decays
#          BR         NDA      ID1       ID2
     1.14187788E-02    2     1000022         5   # BR(~b_2 -> ~chi_10 b )
     1.12229308E-02    2     1000023         5   # BR(~b_2 -> ~chi_20 b )
     2.25934528E-03    2     1000025         5   # BR(~b_2 -> ~chi_30 b )
     4.82342631E-02    2     1000035         5   # BR(~b_2 -> ~chi_40 b )
     2.04368947E-01    2    -1000024         6   # BR(~b_2 -> ~chi_1- t )
     9.83778134E-02    2    -1000037         6   # BR(~b_2 -> ~chi_2- t )
     5.42186111E-01    2     1000021         5   # BR(~b_2 -> ~g      b )
     1.80833956E-05    2     1000005        25   # BR(~b_2 -> ~b_1    h )
     3.36130573E-04    2     1000005        35   # BR(~b_2 -> ~b_1    H )
     3.36040062E-04    2     1000005        36   # BR(~b_2 -> ~b_1    A )
     2.22862223E-06    2     1000006       -37   # BR(~b_2 -> ~t_1    H-)
     1.55029653E-05    2     1000005        23   # BR(~b_2 -> ~b_1    Z )
     8.12238254E-02    2     1000006       -24   # BR(~b_2 -> ~t_1    W-)
#
#         PDG            Width
DECAY   1000002     8.61790169E+01   # sup_L decays
#          BR         NDA      ID1       ID2
     4.71239374E-04    2     1000022         2   # BR(~u_L -> ~chi_10 u)
     3.67751920E-04    2     1000023         2   # BR(~u_L -> ~chi_20 u)
     3.77947834E-03    2     1000025         2   # BR(~u_L -> ~chi_30 u)
     6.94945418E-02    2     1000035         2   # BR(~u_L -> ~chi_40 u)
     1.91268175E-03    2     1000024         1   # BR(~u_L -> ~chi_1+ d)
     1.38507527E-01    2     1000037         1   # BR(~u_L -> ~chi_2+ d)
     7.85466780E-01    2     1000021         2   # BR(~u_L -> ~g      u)
#
#         PDG            Width
DECAY   2000002     2.40675142E+00   # sup_R decays
#          BR         NDA      ID1       ID2
     2.89607897E-03    2     1000022         2   # BR(~u_R -> ~chi_10 u)
     1.40914838E-02    2     1000023         2   # BR(~u_R -> ~chi_20 u)
     9.83012395E-01    2     1000025         2   # BR(~u_R -> ~chi_30 u)
     4.18121545E-08    2     1000035         2   # BR(~u_R -> ~chi_40 u)
#
#         PDG            Width
DECAY   1000001     8.62291335E+01   # sdown_L decays
#          BR         NDA      ID1       ID2
     2.37811670E-04    2     1000022         1   # BR(~d_L -> ~chi_10 d)
     2.82007993E-05    2     1000023         1   # BR(~d_L -> ~chi_20 d)
     4.18166962E-03    2     1000025         1   # BR(~d_L -> ~chi_30 d)
     6.96044048E-02    2     1000035         1   # BR(~d_L -> ~chi_40 d)
     7.92712285E-05    2    -1000024         2   # BR(~d_L -> ~chi_1- u)
     1.39642632E-01    2    -1000037         2   # BR(~d_L -> ~chi_2- u)
     7.86226009E-01    2     1000021         1   # BR(~d_L -> ~g      d)
#
#         PDG            Width
DECAY   2000001     6.53265908E+01   # sdown_R decays
#          BR         NDA      ID1       ID2
     5.13373902E-05    2     1000022         1   # BR(~d_R -> ~chi_10 d)
     2.49822750E-04    2     1000023         1   # BR(~d_R -> ~chi_20 d)
     2.06430078E-02    2     1000025         1   # BR(~d_R -> ~chi_30 d)
     3.54079350E-08    2     1000035         1   # BR(~d_R -> ~chi_40 d)
     9.79055797E-01    2     1000021         1   # BR(~d_R -> ~g      d)
#
#         PDG            Width
DECAY   1000004     6.85658429E+01   # scharm_L decays
#          BR         NDA      ID1       ID2
     6.18168629E-04    2     1000022         4   # BR(~c_L -> ~chi_10 c)
     4.82413120E-04    2     1000023         4   # BR(~c_L -> ~chi_20 c)
     4.94815282E-03    2     1000025         4   # BR(~c_L -> ~chi_30 c)
     9.04866423E-02    2     1000035         4   # BR(~c_L -> ~chi_40 c)
     2.50903191E-03    2     1000024         3   # BR(~c_L -> ~chi_1+ s)
     1.80346180E-01    2     1000037         3   # BR(~c_L -> ~chi_2+ s)
     7.20609412E-01    2     1000021         4   # BR(~c_L -> ~g      c)
#
#         PDG            Width
DECAY   2000004     2.43153674E+00   # scharm_R decays
#          BR         NDA      ID1       ID2
     2.90362437E-03    2     1000022         4   # BR(~c_R -> ~chi_10 c)
     1.41281445E-02    2     1000023         4   # BR(~c_R -> ~chi_20 c)
     9.82968192E-01    2     1000025         4   # BR(~c_R -> ~chi_30 c)
     3.91096727E-08    2     1000035         4   # BR(~c_R -> ~chi_40 c)
#
#         PDG            Width
DECAY   1000003     6.85843218E+01   # sstrange_L decays
#          BR         NDA      ID1       ID2
     3.12053767E-04    2     1000022         3   # BR(~s_L -> ~chi_10 s)
     3.70046632E-05    2     1000023         3   # BR(~s_L -> ~chi_20 s)
     5.47636663E-03    2     1000025         3   # BR(~s_L -> ~chi_30 s)
     9.06578056E-02    2     1000035         3   # BR(~s_L -> ~chi_40 s)
     1.04018231E-04    2    -1000024         4   # BR(~s_L -> ~chi_1- c)
     1.81880207E-01    2    -1000037         4   # BR(~s_L -> ~chi_2- c)
     7.21532544E-01    2     1000021         3   # BR(~s_L -> ~g      s)
#
#         PDG            Width
DECAY   2000003     4.81106707E+01   # sstrange_R decays
#          BR         NDA      ID1       ID2
     7.27833710E-05    2     1000022         3   # BR(~s_R -> ~chi_10 s)
     3.54184133E-04    2     1000023         3   # BR(~s_R -> ~chi_20 s)
     2.92074323E-02    2     1000025         3   # BR(~s_R -> ~chi_30 s)
     4.98122206E-08    2     1000035         3   # BR(~s_R -> ~chi_40 s)
     9.70365550E-01    2     1000021         3   # BR(~s_R -> ~g      s)
#
#         PDG            Width
DECAY   1000011     3.42865863E+01   # selectron_L decays
#          BR         NDA      ID1       ID2
     2.63975881E-03    2     1000022        11   # BR(~e_L -> ~chi_10 e-)
     3.67793484E-03    2     1000023        11   # BR(~e_L -> ~chi_20 e-)
     1.21018438E-01    2     1000025        11   # BR(~e_L -> ~chi_30 e-)
     2.89692561E-01    2     1000035        11   # BR(~e_L -> ~chi_40 e-)
     2.67078549E-04    2    -1000024        12   # BR(~e_L -> ~chi_1- nu_e)
     5.82704229E-01    2    -1000037        12   # BR(~e_L -> ~chi_2- nu_e)
#
#         PDG            Width
DECAY   2000011     8.64334675E+00   # selectron_R decays
#          BR         NDA      ID1       ID2
     2.59661700E-03    2     1000022        11   # BR(~e_R -> ~chi_10 e-)
     1.26353415E-02    2     1000023        11   # BR(~e_R -> ~chi_20 e-)
     9.84767155E-01    2     1000025        11   # BR(~e_R -> ~chi_30 e-)
     8.86470648E-07    2     1000035        11   # BR(~e_R -> ~chi_40 e-)
#
#         PDG            Width
DECAY   1000013     3.42865862E+01   # smuon_L decays
#          BR         NDA      ID1       ID2
     2.63975881E-03    2     1000022        13   # BR(~mu_L -> ~chi_10 mu-)
     3.67793484E-03    2     1000023        13   # BR(~mu_L -> ~chi_20 mu-)
     1.21018438E-01    2     1000025        13   # BR(~mu_L -> ~chi_30 mu-)
     2.89692561E-01    2     1000035        13   # BR(~mu_L -> ~chi_40 mu-)
     2.67078550E-04    2    -1000024        14   # BR(~mu_L -> ~chi_1- nu_mu)
     5.82704229E-01    2    -1000037        14   # BR(~mu_L -> ~chi_2- nu_mu)
#
#         PDG            Width
DECAY   2000013     8.64334668E+00   # smuon_R decays
#          BR         NDA      ID1       ID2
     2.59661700E-03    2     1000022        13   # BR(~mu_R -> ~chi_10 mu-)
     1.26353415E-02    2     1000023        13   # BR(~mu_R -> ~chi_20 mu-)
     9.84767155E-01    2     1000025        13   # BR(~mu_R -> ~chi_30 mu-)
     8.86470634E-07    2     1000035        13   # BR(~mu_R -> ~chi_40 mu-)
#
#         PDG            Width
DECAY   1000015     3.49231606E+00   # stau_1 decays
#          BR         NDA      ID1       ID2
     1.79422620E-01    2     1000022        15   # BR(~tau_1 -> ~chi_10  tau-)
     1.82262863E-01    2     1000023        15   # BR(~tau_1 -> ~chi_20  tau-)
     4.18107371E-01    2     1000025        15   # BR(~tau_1 -> ~chi_30  tau-)
     7.20936095E-02    2     1000035        15   # BR(~tau_1 -> ~chi_40  tau-)
     3.39746917E-03    2    -1000024        16   # BR(~tau_1 -> ~chi_1-  nu_tau)
     1.44716067E-01    2    -1000037        16   # BR(~tau_1 -> ~chi_2-  nu_tau)
#
#         PDG            Width
DECAY   2000015     8.68024014E+00   # stau_2 decays
#          BR         NDA      ID1       ID2
     7.11272969E-02    2     1000022        15   # BR(~tau_2 -> ~chi_10  tau-)
     7.84171611E-02    2     1000023        15   # BR(~tau_2 -> ~chi_20  tau-)
     7.12253971E-01    2     1000025        15   # BR(~tau_2 -> ~chi_30  tau-)
     1.10896078E-04    2     1000035        15   # BR(~tau_2 -> ~chi_40  tau-)
     1.37868635E-01    2    -1000024        16   # BR(~tau_2 -> ~chi_1-  nu_tau)
     2.22039448E-04    2    -1000037        16   # BR(~tau_2 -> ~chi_2-  nu_tau)
#
#         PDG            Width
DECAY   1000012     3.43031637E+01   # snu_eL decays
#          BR         NDA      ID1       ID2
     2.80961528E-04    2     1000022        12   # BR(~nu_eL -> ~chi_10 nu_e)
     2.46334822E-04    2     1000023        12   # BR(~nu_eL -> ~chi_20 nu_e)
     1.25059746E-01    2     1000025        12   # BR(~nu_eL -> ~chi_30 nu_e)
     2.90468469E-01    2     1000035        12   # BR(~nu_eL -> ~chi_40 nu_e)
     6.43755271E-03    2     1000024        11   # BR(~nu_eL -> ~chi_1+ e-)
     5.77506935E-01    2     1000037        11   # BR(~nu_eL -> ~chi_2+ e-)
#
#         PDG            Width
DECAY   1000014     3.43031636E+01   # snu_muL decays
#          BR         NDA      ID1       ID2
     2.80961529E-04    2     1000022        14   # BR(~nu_muL -> ~chi_10 nu_mu)
     2.46334822E-04    2     1000023        14   # BR(~nu_muL -> ~chi_20 nu_mu)
     1.25059747E-01    2     1000025        14   # BR(~nu_muL -> ~chi_30 nu_mu)
     2.90468470E-01    2     1000035        14   # BR(~nu_muL -> ~chi_40 nu_mu)
     6.43755270E-03    2     1000024        13   # BR(~nu_muL -> ~chi_1+ mu-)
     5.77506935E-01    2     1000037        13   # BR(~nu_muL -> ~chi_2+ mu-)
#
#         PDG            Width
DECAY   1000016     3.49953982E+00   # snu_tauL decays
#          BR         NDA      ID1       ID2
     1.13752224E-03    2     1000022        16   # BR(~nu_tauL -> ~chi_10 nu_tau)
     9.97211135E-04    2     1000023        16   # BR(~nu_tauL -> ~chi_20 nu_tau)
     4.28776239E-01    2     1000025        16   # BR(~nu_tauL -> ~chi_30 nu_tau)
     7.04336783E-02    2     1000035        16   # BR(~nu_tauL -> ~chi_40 nu_tau)
     3.58886584E-01    2     1000024        15   # BR(~nu_tauL -> ~chi_1+ tau-)
     1.39768766E-01    2     1000037        15   # BR(~nu_tauL -> ~chi_2+ tau-)
#
#         PDG            Width
DECAY   1000024     5.64151410E-13   # chargino1+ decays
#           BR         NDA      ID1       ID2       ID3
     1.27950830E-01    3     1000022       -11        12   # BR(~chi_1+ -> ~chi_10 e+   nu_e)
     1.12955630E-01    3     1000022       -13        14   # BR(~chi_1+ -> ~chi_10 mu+  nu_mu)
     7.37004740E-01    2     1000022       211             # BR(~chi_1+ -> ~chi_10 pi+)
     2.20250640E-02    3     1000022       211        111   # BR(~chi_1+ -> ~chi_10 pi+ pi0)
     3.18666470E-05    4     1000022       211        111       111 # BR(~chi_1+ -> ~chi_10 pi+ pi0 pi0)
     3.18666470E-05    4     1000022       211        211      -211 # BR(~chi_1+ -> ~chi_10 pi+ pi+ pi-)
#
#         PDG            Width
DECAY   1000037     1.03138175E+01   # chargino2+ decays
#          BR         NDA      ID1       ID2
     2.59290946E-05    2    -1000005         6   # BR(~chi_2+ -> ~b_1*    t )
     2.53791270E-01    2     1000024        23   # BR(~chi_2+ -> ~chi_1+  Z )
     2.46510509E-01    2     1000022        24   # BR(~chi_2+ -> ~chi_10  W+)
     2.45502850E-01    2     1000023        24   # BR(~chi_2+ -> ~chi_20  W+)
     2.61483993E-03    2     1000025        24   # BR(~chi_2+ -> ~chi_30  W+)
     2.51554603E-01    2     1000024        25   # BR(~chi_2+ -> ~chi_1+  h )
#
#         PDG            Width
DECAY   1000022     0.00000000E+00   # neutralino1 decays
#
#         PDG            Width
DECAY   1000023     8.04328378E-14   # neutralino2 decays
#          BR         NDA      ID1       ID2
     9.56386829E-01    2     1000022        22   # BR(~chi_20 -> ~chi_10 gam)
#           BR         NDA      ID1       ID2       ID3
     9.31175624E-03    3     1000022        -2         2   # BR(~chi_20 -> ~chi_10 ub      u)
     1.20875308E-02    3     1000022        -1         1   # BR(~chi_20 -> ~chi_10 db      d)
     2.77713596E-03    3     1000022       -11        11   # BR(~chi_20 -> ~chi_10 e+      e-)
     2.77713596E-03    3     1000022       -13        13   # BR(~chi_20 -> ~chi_10 mu+     mu-)
     5.55321026E-03    3     1000022       -12        12   # BR(~chi_20 -> ~chi_10 nu_eb   nu_e)
     5.55321026E-03    3     1000022       -14        14   # BR(~chi_20 -> ~chi_10 nu_mub  nu_mu)
     5.55319109E-03    3     1000022       -16        16   # BR(~chi_20 -> ~chi_10 nu_taub nu_tau)
#
#         PDG            Width
DECAY   1000025     9.81803097E-01   # neutralino3 decays
#          BR         NDA      ID1       ID2
     2.02419876E-01    2     1000022        23   # BR(~chi_30 -> ~chi_10   Z )
     5.21125560E-02    2     1000023        23   # BR(~chi_30 -> ~chi_20   Z )
     2.54998016E-01    2     1000024       -24   # BR(~chi_30 -> ~chi_1+   W-)
     2.54998016E-01    2    -1000024        24   # BR(~chi_30 -> ~chi_1-   W+)
     3.58426818E-02    2     1000022        25   # BR(~chi_30 -> ~chi_10   h )
     1.99628854E-01    2     1000023        25   # BR(~chi_30 -> ~chi_20   h )
#
#         PDG            Width
DECAY   1000035     1.03106261E+01   # neutralino4 decays
#          BR         NDA      ID1       ID2
     7.70004807E-02    2     1000022        23   # BR(~chi_40 -> ~chi_10   Z )
     1.74000194E-01    2     1000023        23   # BR(~chi_40 -> ~chi_20   Z )
     2.26515422E-03    2     1000025        23   # BR(~chi_40 -> ~chi_30   Z )
     2.48494002E-01    2     1000024       -24   # BR(~chi_40 -> ~chi_1+   W-)
     2.48494002E-01    2    -1000024        24   # BR(~chi_40 -> ~chi_1-   W+)
     1.74213476E-01    2     1000022        25   # BR(~chi_40 -> ~chi_10   h )
     7.51135143E-02    2     1000023        25   # BR(~chi_40 -> ~chi_20   h )
     3.91857452E-04    2     1000025        25   # BR(~chi_40 -> ~chi_30   h )
     1.36598920E-05    2     1000005        -5   # BR(~chi_40 -> ~b_1      bb)
     1.36598920E-05    2    -1000005         5   # BR(~chi_40 -> ~b_1*     b )
#
#         PDG            Width
DECAY        25     4.18730297E-03   # h decays
#          BR         NDA      ID1       ID2
     5.84960159E-01    2           5        -5   # BR(h -> b       bb     )
     6.39199558E-02    2         -15        15   # BR(h -> tau+    tau-   )
     2.26277892E-04    2         -13        13   # BR(h -> mu+     mu-    )
     2.46673787E-04    2           3        -3   # BR(h -> s       sb     )
     2.08266212E-02    2           4        -4   # BR(h -> c       cb     )
     7.77301935E-02    2          21        21   # BR(h -> g       g      )
     2.31992967E-03    2          22        22   # BR(h -> gam     gam    )
     1.61146788E-03    2          22        23   # BR(h -> Z       gam    )
     2.20256679E-01    2          24       -24   # BR(h -> W+      W-     )
     2.79020431E-02    2          23        23   # BR(h -> Z       Z      )
#
#         PDG            Width
DECAY        35     9.29152926E+00   # H decays
#          BR         NDA      ID1       ID2
     7.37063671E-01    2           5        -5   # BR(H -> b       bb     )
     1.16079649E-01    2         -15        15   # BR(H -> tau+    tau-   )
     4.14272992E-04    2         -13        13   # BR(H -> mu+     mu-    )
     2.99241074E-04    2           3        -3   # BR(H -> s       sb     )
     1.68383160E-07    2           4        -4   # BR(H -> c       cb     )
     1.56842760E-02    2           6        -6   # BR(H -> t       tb     )
     3.51681694E-05    2          21        21   # BR(H -> g       g      )
     2.02359415E-07    2          22        22   # BR(H -> gam     gam    )
     2.37261631E-08    2          23        22   # BR(H -> Z       gam    )
     3.65481156E-05    2          24       -24   # BR(H -> W+      W-     )
     1.81365222E-05    2          23        23   # BR(H -> Z       Z      )
     1.32152181E-04    2          25        25   # BR(H -> h       h      )
     8.31792581E-03    2     1000024  -1000024   # BR(H -> ~chi_1+ ~chi_1-)
     3.80891887E-04    2     1000022   1000022   # BR(H -> ~chi_10 ~chi_10)
     2.54765573E-04    2     1000023   1000023   # BR(H -> ~chi_20 ~chi_20)
     2.43199960E-04    2     1000025   1000025   # BR(H -> ~chi_30 ~chi_30)
     7.12681321E-04    2     1000022   1000023   # BR(H -> ~chi_10 ~chi_20)
     6.21395212E-02    2     1000022   1000025   # BR(H -> ~chi_10 ~chi_30)
     5.81875047E-02    2     1000023   1000025   # BR(H -> ~chi_20 ~chi_30)
#
#         PDG            Width
DECAY        36     9.30951528E+00   # A decays
#          BR         NDA      ID1       ID2
     7.35728966E-01    2           5        -5   # BR(A -> b       bb     )
     1.15860842E-01    2         -15        15   # BR(A -> tau+    tau-   )
     4.13488985E-04    2         -13        13   # BR(A -> mu+     mu-    )
     2.98729028E-04    2           3        -3   # BR(A -> s       sb     )
     1.65058714E-07    2           4        -4   # BR(A -> c       cb     )
     1.60397918E-02    2           6        -6   # BR(A -> t       tb     )
     1.35270907E-04    2          21        21   # BR(A -> g       g      )
     4.24607410E-07    2          22        22   # BR(A -> gam     gam    )
     8.19987258E-08    2          23        22   # BR(A -> Z       gam    )
     3.63875302E-05    2          23        25   # BR(A -> Z       h      )
     9.52234657E-03    2     1000024  -1000024   # BR(A -> ~chi_1+ ~chi_1-)
     5.11039320E-04    2     1000022   1000022   # BR(A -> ~chi_10 ~chi_10)
     2.29117942E-04    2     1000023   1000023   # BR(A -> ~chi_20 ~chi_20)
     3.00962582E-04    2     1000025   1000025   # BR(A -> ~chi_30 ~chi_30)
     6.27742515E-04    2     1000022   1000023   # BR(A -> ~chi_10 ~chi_20)
     5.84743927E-02    2     1000022   1000025   # BR(A -> ~chi_10 ~chi_30)
     6.18202512E-02    2     1000023   1000025   # BR(A -> ~chi_20 ~chi_30)
#
#         PDG            Width
DECAY        37     9.14950542E+00   # H+ decays
#          BR         NDA      ID1       ID2
     1.25053442E-03    2           4        -5   # BR(H+ -> c       bb     )
     1.18116886E-01    2         -15        16   # BR(H+ -> tau+    nu_tau )
     4.21540446E-04    2         -13        14   # BR(H+ -> mu+     nu_mu  )
     1.25052716E-05    2           2        -5   # BR(H+ -> u       bb     )
     1.51840723E-05    2           2        -3   # BR(H+ -> u       sb     )
     2.99029292E-04    2           4        -3   # BR(H+ -> c       sb     )
     7.52220161E-01    2           6        -5   # BR(H+ -> t       bb     )
     3.73688872E-05    2          24        25   # BR(H+ -> W+      h      )
     1.63299146E-11    2          24        36   # BR(H+ -> W+      A      )
     2.11053309E-03    2     1000024   1000022   # BR(H+ -> ~chi_1+ ~chi_10)
     6.85442304E-03    2     1000024   1000023   # BR(H+ -> ~chi_1+ ~chi_20)
     1.18661834E-01    2     1000024   1000025   # BR(H+ -> ~chi_1+ ~chi_30)
