#
#                              ======================
#                              | THE SUSYHIT OUTPUT |
#                              ======================
#
#
#              ------------------------------------------------------
#              |     This is the output of the SUSY-HIT package     |
#              |  created by A.Djouadi, M.Muehlleitner and M.Spira. |
#              |  In case of problems with SUSY-HIT email to        |
#              |           margarete.muehlleitner@cern.ch           |
#              |           michael.spira@psi.ch                     |
#              |           abdelhak.djouadi@cern.ch                 |
#              ------------------------------------------------------
#
#              ------------------------------------------------------
#              |  SUSY Les Houches Accord - MSSM Spectrum + Decays  |
#              |              based on the decay programs           |
#              |                                                    |
#              |                     SDECAY 1.3b                    |
#              |                                                    |
#              |  Authors: M.Muhlleitner, A.Djouadi and Y.Mambrini  |
#              |  Ref.:    Comput.Phys.Commun.168(2005)46           |
#              |           [hep-ph/0311167]                         |
#              |                                                    |
#              |                     HDECAY 3.4                     |
#              |                                                    |
#              |  By: A.Djouadi,J.Kalinowski,M.Muhlleitner,M.Spira  |
#              |  Ref.:    Comput.Phys.Commun.108(1998)56           |
#              |           [hep-ph/9704448]                         |
#              |                                                    |
#              |                                                    |
#              |  If not stated otherwise all DRbar couplings and   |
#              |  soft SUSY breaking masses are given at the scale  |
#              |  Q=  0.17661620E+04
#              |                                                    |
#              ------------------------------------------------------
#
#
BLOCK DCINFO  # Decay Program information
     1   SDECAY/HDECAY # decay calculator
     2   1.3b  /3.4    # version number
#
BLOCK SPINFO  # Spectrum calculator information
     1     SOFTSUSY    # spectrum calculator               
     2     3.4.0       # version number                    
#
BLOCK MODSEL  # Model selection
     1     0   #  nonUniversal                                     
#
BLOCK SMINPUTS  # Standard Model inputs
         1     1.27908970E+02   # alpha_em^-1(M_Z)^MSbar
         2     1.16637870E-05   # G_F [GeV^-2]
         3     1.18400000E-01   # alpha_S(M_Z)^MSbar
         4     9.11876000E+01   # M_Z pole mass
         5     4.18000000E+00   # mb(mb)^MSbar
         6     1.73200000E+02   # mt pole mass
         7     1.77700000E+00   # mtau pole mass
#
BLOCK MINPAR  # Input parameters - minimal models
         3     5.00800000E+01   # tanb                
#
BLOCK EXTPAR  # Input parameters - non-minimal models
         0    -1.00000000E+00   # Set                 
         1     3.26578000E+03   # M_1(MX)             
         2     2.57340000E+02   # M_2(MX)             
         3     1.40394000E+03   # M_3(MX)             
        11     2.02191000E+03   # At(MX)              
        12    -8.62120000E+02   # Ab(MX)              
        13     3.41822000E+03   # Atau(MX)            
        23    -5.50020000E+02   # mu(MX)              
        26     2.03044000E+03   # mA(pole)            
        31     1.30191000E+03   # meL(MX)             
        32     1.30191000E+03   # mmuL(MX)            
        33     2.62759000E+03   # mtauL(MX)           
        34     3.06313000E+03   # meR(MX)             
        35     3.06313000E+03   # mmuR(MX)            
        36     3.36213000E+03   # mtauR(MX)           
        41     1.80727000E+03   # mqL1(MX)            
        42     1.80727000E+03   # mqL2(MX)            
        43     1.29357000E+03   # mqL3(MX)            
        44     3.59928000E+03   # muR(MX)             
        45     3.59928000E+03   # mcR(MX)             
        46     2.40472000E+03   # mtR(MX)             
        47     2.27532000E+03   # mdR(MX)             
        48     2.27532000E+03   # msR(MX)             
        49     3.24230000E+02   # mbR(MX)             
#
BLOCK MASS  # Mass Spectrum
# PDG code           mass       particle
        24     8.03816423E+01   # W+
        25     1.24526136E+02   # h
        35     2.03050788E+03   # H
        36     2.03044000E+03   # A
        37     2.03197137E+03   # H+
         5     4.81876030E+00   # b-quark pole mass calculated from mb(mb)_Msbar
   1000001     1.85559777E+03   # ~d_L
   2000001     2.30997419E+03   # ~d_R
   1000002     1.85403280E+03   # ~u_L
   2000002     3.63288480E+03   # ~u_R
   1000003     1.85559777E+03   # ~s_L
   2000003     2.30997419E+03   # ~s_R
   1000004     1.85403280E+03   # ~c_L
   2000004     3.63288480E+03   # ~c_R
   1000005     3.97355167E+02   # ~b_1
   2000005     1.33239730E+03   # ~b_2
   1000006     1.32977719E+03   # ~t_1
   2000006     2.41445492E+03   # ~t_2
   1000011     1.30808561E+03   # ~e_L
   2000011     3.06529165E+03   # ~e_R
   1000012     1.30530599E+03   # ~nu_eL
   1000013     1.30808561E+03   # ~mu_L
   2000013     3.06529165E+03   # ~mu_R
   1000014     1.30530599E+03   # ~nu_muL
   1000015     2.63534262E+03   # ~tau_1
   2000015     3.35947168E+03   # ~tau_2
   1000016     2.63394998E+03   # ~nu_tauL
   1000021     1.55037555E+03   # ~g
   1000022     2.67427663E+02   # ~chi_10
   1000023    -5.76679771E+02   # ~chi_20
   1000025     5.82569603E+02   # ~chi_30
   1000035     3.25669687E+03   # ~chi_40
   1000024     2.67685618E+02   # ~chi_1+
   1000037     5.86069946E+02   # ~chi_2+
#
BLOCK NMIX  # Neutralino Mixing Matrix
  1  1    -1.10186951E-03   # N_11
  1  2     9.81987501E-01   # N_12
  1  3     1.72568273E-01   # N_13
  1  4     7.69384538E-02   # N_14
  2  1    -8.02760473E-03   # N_21
  2  2     6.80964603E-02   # N_22
  2  3    -7.03105072E-01   # N_23
  2  4     7.07772342E-01   # N_24
  3  1    -1.13591703E-02   # N_31
  3  2    -1.76247784E-01   # N_32
  3  3     6.89824453E-01   # N_33
  3  4     7.02103919E-01   # N_34
  4  1     9.99902652E-01   # N_41
  4  2    -3.73391384E-04   # N_42
  4  3     2.38196343E-03   # N_43
  4  4     1.37431486E-02   # N_44
#
BLOCK UMIX  # Chargino Mixing Matrix U
  1  1     9.70561830E-01   # U_11
  1  2     2.40852101E-01   # U_12
  2  1    -2.40852101E-01   # U_21
  2  2     9.70561830E-01   # U_22
#
BLOCK VMIX  # Chargino Mixing Matrix V
  1  1     9.94241084E-01   # V_11
  1  2    -1.07166541E-01   # V_12
  2  1    -1.07166541E-01   # V_21
  2  2    -9.94241084E-01   # V_22
#
BLOCK STOPMIX  # Stop Mixing Matrix
  1  1     9.97705177E-01   # cos(theta_t)
  1  2    -6.77080482E-02   # sin(theta_t)
  2  1     6.77080482E-02   # -sin(theta_t)
  2  2     9.97705177E-01   # cos(theta_t)
#
BLOCK SBOTMIX  # Sbottom Mixing Matrix
  1  1    -6.13700300E-02   # cos(theta_b)
  1  2     9.98115083E-01   # sin(theta_b)
  2  1    -9.98115083E-01   # -sin(theta_b)
  2  2    -6.13700300E-02   # cos(theta_b)
#
BLOCK STAUMIX  # Stau Mixing Matrix
  1  1     9.99916064E-01   # cos(theta_tau)
  1  2    -1.29562709E-02   # sin(theta_tau)
  2  1     1.29562709E-02   # -sin(theta_tau)
  2  2     9.99916064E-01   # cos(theta_tau)
#
BLOCK ALPHA  # Higgs mixing
          -1.95882113E-02   # Mixing angle in the neutral Higgs boson sector
#
BLOCK HMIX Q=  1.76616200E+03  # DRbar Higgs Parameters
         1    -5.81031747E+02   # mu(Q)MSSM           
         2     5.12173054E+01   # tan                 
         3     2.42337953E+02   # higgs               
         4     5.28497630E+06   # mA^2(Q)MSSM         
#
BLOCK GAUGE Q=  1.76616200E+03  # The gauge couplings
     1     3.63284797E-01   # gprime(Q) DRbar
     2     6.42581987E-01   # g(Q) DRbar
     3     1.03763527E+00   # g3(Q) DRbar
#
BLOCK AU Q=  1.76616200E+03  # The trilinear couplings
  1  1     0.00000000E+00   # A_u(Q) DRbar
  2  2     0.00000000E+00   # A_c(Q) DRbar
  3  3     2.02191000E+03   # A_t(Q) DRbar
#
BLOCK AD Q=  1.76616200E+03  # The trilinear couplings
  1  1     0.00000000E+00   # A_d(Q) DRbar
  2  2     0.00000000E+00   # A_s(Q) DRbar
  3  3    -8.62119993E+02   # A_b(Q) DRbar
#
BLOCK AE Q=  1.76616200E+03  # The trilinear couplings
  1  1     0.00000000E+00   # A_e(Q) DRbar
  2  2     0.00000000E+00   # A_mu(Q) DRbar
  3  3     3.41822000E+03   # A_tau(Q) DRbar
#
BLOCK Yu Q=  1.76616200E+03  # The Yukawa couplings
  1  1     0.00000000E+00   # y_u(Q) DRbar
  2  2     0.00000000E+00   # y_c(Q) DRbar
  3  3     8.55419341E-01   # y_t(Q) DRbar
#
BLOCK Yd Q=  1.76616200E+03  # The Yukawa couplings
  1  1     0.00000000E+00   # y_d(Q) DRbar
  2  2     0.00000000E+00   # y_s(Q) DRbar
  3  3     1.03458300E+00   # y_b(Q) DRbar
#
BLOCK Ye Q=  1.76616200E+03  # The Yukawa couplings
  1  1     0.00000000E+00   # y_e(Q) DRbar
  2  2     0.00000000E+00   # y_mu(Q) DRbar
  3  3     5.18707302E-01   # y_tau(Q) DRbar
#
BLOCK MSOFT Q=  1.76616200E+03  # The soft SUSY breaking masses at the scale Q
         1     3.26578000E+03   # M_1(Q)              
         2     2.57340000E+02   # M_2(Q)              
         3     1.40394000E+03   # M_3(Q)              
        21     4.04204769E+06   # mH1^2(Q)            
        22    -2.77554318E+05   # mH2^2(Q)            
        31     1.30191000E+03   # meL(Q)              
        32     1.30191000E+03   # mmuL(Q)             
        33     2.62759000E+03   # mtauL(Q)            
        34     3.06313000E+03   # meR(Q)              
        35     3.06313000E+03   # mmuR(Q)             
        36     3.36213000E+03   # mtauR(Q)            
        41     1.80727000E+03   # mqL1(Q)             
        42     1.80727000E+03   # mqL2(Q)             
        43     1.29356999E+03   # mqL3(Q)             
        44     3.59928000E+03   # muR(Q)              
        45     3.59928000E+03   # mcR(Q)              
        46     2.40472000E+03   # mtR(Q)              
        47     2.27532000E+03   # mdR(Q)              
        48     2.27532000E+03   # msR(Q)              
        49     3.24229953E+02   # mbR(Q)              
#
Block HiggsBoundsInputHiggsCouplingsFermions
# ScalarNormEffCoupSq PseudoSNormEffCoupSq NP   IP1 IP2 IP2
    1.00677632E+00    0.00000000E+00        3  25   5   5  # h0-b-b eff. coupling^2, normalised to SM
    2.62320560E+03    0.00000000E+00        3  35   5   5  # H0-b-b eff. coupling^2, normalised to SM
    0.00000000E+00    2.62321237E+03        3  36   5   5  # A0-b-b eff. coupling^2, normalised to SM
#
    9.99997417E-01    0.00000000E+00        3  25   6   6  # h0-t-t eff. coupling^2, normalised to SM
    3.83795201E-04    0.00000000E+00        3  35   6   6  # H0-t-t eff. coupling^2, normalised to SM
    0.00000000E+00    3.81211987E-04        3  36   6   6  # A0-t-t eff. coupling^2, normalised to SM
#
    1.00677632E+00    0.00000000E+00        3  25  15  15  # h0-tau-tau eff. coupling^2, normalised to SM
    2.62320560E+03    0.00000000E+00        3  35  15  15  # H0-tau-tau eff. coupling^2, normalised to SM
    0.00000000E+00    2.62321237E+03        3  36  15  15  # A0-tau-tau eff. coupling^2, normalised to SM
#
Block HiggsBoundsInputHiggsCouplingsBosons
    9.99999996E-01        3  25  24  24  # h0-W-W eff. coupling^2, normalised to SM
    4.36141350E-09        3  35  24  24  # H0-W-W eff. coupling^2, normalised to SM
    0.00000000E+00        3  36  24  24  # A0-W-W eff. coupling^2, normalised to SM
#
    9.99999996E-01        3  25  23  23  # h0-Z-Z eff. coupling^2, normalised to SM
    4.36141350E-09        3  35  23  23  # H0-Z-Z eff. coupling^2, normalised to SM
    0.00000000E+00        3  36  23  23  # A0-Z-Z eff. coupling^2, normalised to SM
#
    8.61602532E-01        3  25  21  21  # h0-g-g eff. coupling^2, normalised to SM
    8.25614175E-10        3  35  21  21  # H0-g-g eff. coupling^2, normalised to SM
    7.03437209E-10        3  36  21  21  # A0-g-g eff. coupling^2, normalised to SM
#
    0.00000000E+00        3  25  25  23  # h0-h0-Z eff. coupling^2, normalised to SM
    0.00000000E+00        3  35  25  23  # H0-h0-Z eff. coupling^2, normalised to SM
    4.36141350E-09        3  36  25  23  # A0-h0-Z eff. coupling^2, normalised to SM
    0.00000000E+00        3  35  35  23  # H0-H0-Z eff. coupling^2, normalised to SM
    9.99999996E-01        3  36  35  23  # A0-H0-Z eff. coupling^2, normalised to SM
    0.00000000E+00        3  36  36  23  # A0-A0-Z eff. coupling^2, normalised to SM
#
    0.00000000E+00        4  25  21  21  23  # h0-g-g-Z eff. coupling^2, normalised to SM
    0.00000000E+00        4  35  21  21  23  # H0-g-g-Z eff. coupling^2, normalised to SM
    0.00000000E+00        4  36  21  21  23  # A0-g-g-Z eff. coupling^2, normalised to SM
#
#
#
#                             =================
#                             |The decay table|
#                             =================
#
# - The QCD corrections to the decays gluino -> squark  + quark
#                                     squark -> gaugino + quark_prime
#                                     squark -> squark_prime + Higgs
#                                     squark -> gluino  + quark
#   are included.
#
# - The multi-body decays for the inos, stops and sbottoms are included.
#
# - The loop induced decays for the gluino, neutralinos and stops
#   are included.
#
# - The SUSY decays of the top quark are included.
#
#
#         PDG            Width
DECAY         6     1.45458657E+00   # top decays
#          BR         NDA      ID1       ID2
     1.00000000E+00    2           5        24   # BR(t ->  b    W+)
#
#         PDG            Width
DECAY   1000021     3.33288909E+01   # gluino decays
#          BR         NDA      ID1       ID2
     4.39377250E-01    2     1000005        -5   # BR(~g -> ~b_1  bb)
     4.39377250E-01    2    -1000005         5   # BR(~g -> ~b_1* b )
     3.50594108E-02    2     2000005        -5   # BR(~g -> ~b_2  bb)
     3.50594108E-02    2    -2000005         5   # BR(~g -> ~b_2* b )
     2.55633388E-02    2     1000006        -6   # BR(~g -> ~t_1  tb)
     2.55633388E-02    2    -1000006         6   # BR(~g -> ~t_1* t )
#
#         PDG            Width
DECAY   1000006     4.99382931E+01   # stop1 decays
#          BR         NDA      ID1       ID2
     9.17507290E-02    2     1000022         6   # BR(~t_1 -> ~chi_10 t )
     1.20268757E-01    2     1000023         6   # BR(~t_1 -> ~chi_20 t )
     1.29432668E-01    2     1000025         6   # BR(~t_1 -> ~chi_30 t )
     2.24676977E-01    2     1000024         5   # BR(~t_1 -> ~chi_1+ b )
     3.50323508E-01    2     1000037         5   # BR(~t_1 -> ~chi_2+ b )
     8.35473622E-02    2     1000005        24   # BR(~t_1 -> ~b_1    W+)
#
#         PDG            Width
DECAY   2000006     1.38713105E+02   # stop2 decays
#          BR         NDA      ID1       ID2
     3.07508777E-03    2     1000022         6   # BR(~t_2 -> ~chi_10 t )
     1.12976245E-01    2     1000023         6   # BR(~t_2 -> ~chi_20 t )
     1.07025303E-01    2     1000025         6   # BR(~t_2 -> ~chi_30 t )
     6.22805217E-03    2     1000024         5   # BR(~t_2 -> ~chi_1+ b )
     2.19848063E-01    2     1000037         5   # BR(~t_2 -> ~chi_2+ b )
     3.40261327E-01    2     1000021         6   # BR(~t_2 -> ~g      t )
     6.09109622E-02    2     1000006        25   # BR(~t_2 -> ~t_1    h )
     5.04427942E-02    2     1000006        23   # BR(~t_2 -> ~t_1    Z )
     1.02196051E-03    2     1000005        24   # BR(~t_2 -> ~b_1    W+)
     9.82102059E-02    2     2000005        24   # BR(~t_2 -> ~b_2    W+)
#
#         PDG            Width
DECAY   1000005     1.00507358E-01   # sbottom1 decays
#          BR         NDA      ID1       ID2
     1.00000000E+00    2     1000022         5   # BR(~b_1 -> ~chi_10 b )
#
#         PDG            Width
DECAY   2000005     5.03031837E+01   # sbottom2 decays
#          BR         NDA      ID1       ID2
     1.07143905E-01    2     1000022         5   # BR(~b_2 -> ~chi_10 b )
     1.85660898E-01    2     1000023         5   # BR(~b_2 -> ~chi_20 b )
     1.79816944E-01    2     1000025         5   # BR(~b_2 -> ~chi_30 b )
     1.73438958E-01    2    -1000024         6   # BR(~b_2 -> ~chi_1- t )
     2.66720929E-01    2    -1000037         6   # BR(~b_2 -> ~chi_2- t )
     4.45319386E-02    2     1000005        25   # BR(~b_2 -> ~b_1    h )
     4.26864268E-02    2     1000005        23   # BR(~b_2 -> ~b_1    Z )
#
#         PDG            Width
DECAY   1000002     3.29686983E+01   # sup_L decays
#          BR         NDA      ID1       ID2
     2.03038739E-01    2     1000022         2   # BR(~u_L -> ~chi_10 u)
     7.97331209E-04    2     1000023         2   # BR(~u_L -> ~chi_20 u)
     5.69840301E-03    2     1000025         2   # BR(~u_L -> ~chi_30 u)
     4.16418255E-01    2     1000024         1   # BR(~u_L -> ~chi_1+ d)
     4.10239592E-03    2     1000037         1   # BR(~u_L -> ~chi_2+ d)
     3.69944875E-01    2     1000021         2   # BR(~u_L -> ~g      u)
#
#         PDG            Width
DECAY   2000002     1.77082200E+02   # sup_R decays
#          BR         NDA      ID1       ID2
     5.55265101E-08    2     1000022         2   # BR(~u_R -> ~chi_10 u)
     2.83353991E-06    2     1000023         2   # BR(~u_R -> ~chi_20 u)
     5.66754928E-06    2     1000025         2   # BR(~u_R -> ~chi_30 u)
     1.85344676E-03    2     1000035         2   # BR(~u_R -> ~chi_40 u)
     9.98137997E-01    2     1000021         2   # BR(~u_R -> ~g      u)
#
#         PDG            Width
DECAY   1000001     3.29952934E+01   # sdown_L decays
#          BR         NDA      ID1       ID2
     2.03235150E-01    2     1000022         1   # BR(~d_L -> ~chi_10 d)
     8.71796079E-04    2     1000023         1   # BR(~d_L -> ~chi_20 d)
     5.43042480E-03    2     1000025         1   # BR(~d_L -> ~chi_30 d)
     3.96867377E-01    2    -1000024         2   # BR(~d_L -> ~chi_1- u)
     2.07301751E-02    2    -1000037         2   # BR(~d_L -> ~chi_2- u)
     3.72865077E-01    2     1000021         1   # BR(~d_L -> ~g      d)
#
#         PDG            Width
DECAY   2000001     5.07390841E+01   # sdown_R decays
#          BR         NDA      ID1       ID2
     3.00285684E-08    2     1000022         1   # BR(~d_R -> ~chi_10 d)
     1.44322385E-06    2     1000023         1   # BR(~d_R -> ~chi_20 d)
     2.88195961E-06    2     1000025         1   # BR(~d_R -> ~chi_30 d)
     9.99995645E-01    2     1000021         1   # BR(~d_R -> ~g      d)
#
#         PDG            Width
DECAY   1000004     3.14161661E+01   # scharm_L decays
#          BR         NDA      ID1       ID2
     2.24020093E-01    2     1000022         4   # BR(~c_L -> ~chi_10 c)
     8.76749186E-04    2     1000023         4   # BR(~c_L -> ~chi_20 c)
     6.26558021E-03    2     1000025         4   # BR(~c_L -> ~chi_30 c)
     4.59448839E-01    2     1000024         3   # BR(~c_L -> ~chi_1+ s)
     4.51054978E-03    2     1000037         3   # BR(~c_L -> ~chi_2+ s)
     3.04878188E-01    2     1000021         4   # BR(~c_L -> ~g      c)
#
#         PDG            Width
DECAY   2000004     1.39136068E+02   # scharm_R decays
#          BR         NDA      ID1       ID2
     7.31854316E-08    2     1000022         4   # BR(~c_R -> ~chi_10 c)
     3.73154477E-06    2     1000023         4   # BR(~c_R -> ~chi_20 c)
     7.46360802E-06    2     1000025         4   # BR(~c_R -> ~chi_30 c)
     2.34954833E-03    2     1000035         4   # BR(~c_R -> ~chi_40 c)
     9.97639183E-01    2     1000021         4   # BR(~c_R -> ~g      c)
#
#         PDG            Width
DECAY   1000003     3.14137872E+01   # sstrange_L decays
#          BR         NDA      ID1       ID2
     2.24432330E-01    2     1000022         3   # BR(~s_L -> ~chi_10 s)
     9.59469553E-04    2     1000023         3   # BR(~s_L -> ~chi_20 s)
     5.97615221E-03    2     1000025         3   # BR(~s_L -> ~chi_30 s)
     4.38258508E-01    2    -1000024         4   # BR(~s_L -> ~chi_1- c)
     2.28125285E-02    2    -1000037         4   # BR(~s_L -> ~chi_2- c)
     3.07561012E-01    2     1000021         3   # BR(~s_L -> ~g      s)
#
#         PDG            Width
DECAY   2000003     3.98465862E+01   # sstrange_R decays
#          BR         NDA      ID1       ID2
     3.99731246E-08    2     1000022         3   # BR(~s_R -> ~chi_10 s)
     1.91648606E-06    2     1000023         3   # BR(~s_R -> ~chi_20 s)
     3.82684454E-06    2     1000025         3   # BR(~s_R -> ~chi_30 s)
     9.99994217E-01    2     1000021         3   # BR(~s_R -> ~g      s)
#
#         PDG            Width
DECAY   1000011     1.45703972E+01   # selectron_L decays
#          BR         NDA      ID1       ID2
     3.26060528E-01    2     1000022        11   # BR(~e_L -> ~chi_10 e-)
     9.66829259E-04    2     1000023        11   # BR(~e_L -> ~chi_20 e-)
     7.90731600E-03    2     1000025        11   # BR(~e_L -> ~chi_30 e-)
     6.37735760E-01    2    -1000024        12   # BR(~e_L -> ~chi_1- nu_e)
     2.73295666E-02    2    -1000037        12   # BR(~e_L -> ~chi_2- nu_e)
#
#         PDG            Width
DECAY   2000011     1.49790678E-02   # selectron_R decays
#           BR         NDA      ID1       ID2
     1.28488838E-03    2     1000022        11   # BR(~e_R -> ~chi_10 e-)
#           BR         NDA      ID1       ID2       ID3
     3.26368774E-03    3        11       -1        1000001   # BR(~e_R- -> e-  db  ~d_L)
     2.11234774E-03    3        11       1        -1000001   # BR(~e_R- -> e-  d  ~d_L*)
     1.70431167E-03    3        11       -1        2000001   # BR(~e_R- -> e-  db  ~d_R)
     2.35915884E-03    3        11       1        -2000001   # BR(~e_R- -> e-  d  ~d_R*)
     3.30661432E-03    3        11       -2        1000002   # BR(~e_R- -> e-  ub  ~u_L)
     2.08971616E-03    3        11       2        -1000002   # BR(~e_R- -> e-  u  ~u_L*)
     3.31762969E-03    3        11       -3        1000003   # BR(~e_R- -> e-  sb  ~s_L)
     2.10520444E-03    3        11       3        -1000003   # BR(~e_R- -> e-  s  ~s_L*)
     1.69917116E-03    3        11       -3        2000003   # BR(~e_R- -> e-  sb  ~s_R)
     2.40422171E-03    3        11       3        -2000003   # BR(~e_R- -> e-  s  ~s_R*)
     3.30033889E-03    3        11       -4        1000004   # BR(~e_R- -> e-  cb  ~c_L)
     2.09679270E-03    3        11       4        -1000004   # BR(~e_R- -> e-  c  ~c_L*)
     1.13465005E-01    3        11       -5        1000005   # BR(~e_R- -> e-  bb  ~b_1)
     2.01113984E-01    3        11       5        -1000005   # BR(~e_R- -> e-  b  ~b_1*)
     1.12009641E-02    3        11       -5        2000005   # BR(~e_R- -> e-  bb  ~b_2)
     6.36354689E-03    3        11       5        -2000005   # BR(~e_R- -> e-  b  ~b_2*)
     1.40876591E-02    3        11       -6        1000006   # BR(~e_R- -> e-  tb  ~t_1)
     8.72150404E-03    3        11       6        -1000006   # BR(~e_R- -> e-  t  ~t_1*)
     3.13784547E-03    3        11       -6        2000006   # BR(~e_R- -> e-  tb  ~t_2)
     4.13757391E-03    3        11       6        -2000006   # BR(~e_R- -> e-  t  ~t_2*)
     3.37944929E-02    3        11       -11        1000011   # BR(~e_R- -> e-  e+  ~e_L-)
     1.81379778E-02    3        11       11        -1000011   # BR(~e_R- -> e-  e-  ~e_L+)
     3.39500434E-02    3        11       -12        1000012   # BR(~e_R- -> e-  nu_eb  ~nu_eL)
     1.84884670E-02    3        11       12        -1000012   # BR(~e_R- -> e-  nu_e  ~nu_eL*)
     3.40134652E-02    3        11       -13        1000013   # BR(~e_R- -> e-  mu+  ~mu_L-)
     1.80465169E-02    3        11       13        -1000013   # BR(~e_R- -> e-  mu-  ~mu_L+)
     3.43612840E-02    3        11       -14        1000014   # BR(~e_R- -> e-  nu_mub  ~nu_muL)
     1.83803161E-02    3        11       14        -1000014   # BR(~e_R- -> e-  nu_mu  ~nu_muL*)
     1.98930938E-04    3        11       -15        1000015   # BR(~e_R- -> e-  tau+  ~tau_1-)
     1.54962915E-04    3        11       15        -1000015   # BR(~e_R- -> e-  tau-  ~tau_1+)
     2.00927057E-04    3        11       -16        1000016   # BR(~e_R- -> e-  nu_taub  ~nu_tau1)
     1.59222192E-04    3        11       16        -1000016   # BR(~e_R- -> e-  nu_tau  ~nu_tau1*)
     9.32100730E-03    3        11       23        1000022   # BR(~e_R- -> e-  Z  ~chi_10)
     1.38660164E-02    3        11       25        1000022   # BR(~e_R- -> e-  h  ~chi_10)
     1.64202475E-04    3        11       35        1000022   # BR(~e_R- -> e-  H  ~chi_10)
     5.92520185E-05    3        11       36        1000022   # BR(~e_R- -> e-  A  ~chi_10)
     5.70416005E-02    3        11       23        1000023   # BR(~e_R- -> e-  Z  ~chi_20)
     2.18832043E-02    3        11       25        1000023   # BR(~e_R- -> e-  h  ~chi_20)
     1.94952052E-04    3        11       35        1000023   # BR(~e_R- -> e-  H  ~chi_20)
     1.75164439E-03    3        11       36        1000023   # BR(~e_R- -> e-  A  ~chi_20)
     2.09926282E-02    3        11       23        1000025   # BR(~e_R- -> e-  Z  ~chi_30)
     5.60862674E-02    3        11       25        1000025   # BR(~e_R- -> e-  h  ~chi_30)
     1.64763257E-03    3        11       35        1000025   # BR(~e_R- -> e-  H  ~chi_30)
     1.80899109E-04    3        11       36        1000025   # BR(~e_R- -> e-  A  ~chi_30)
     2.49615000E-02    3        11       -24        1000024   # BR(~e_R- -> e-  W-  ~chi_1+)
     2.55943831E-02    3        11       24        -1000024   # BR(~e_R- -> e-  W+  ~chi_1-)
     2.55603357E-04    3        11       -37        1000024   # BR(~e_R- -> e-  H-  ~chi_1+)
     1.73502119E-04    3        11       37        -1000024   # BR(~e_R- -> e-  H+  ~chi_1-)
     4.49927867E-02    3        11       -24        1000037   # BR(~e_R- -> e-  W-  ~chi_2+)
     1.14172659E-01    3        11       24        -1000037   # BR(~e_R- -> e-  W+  ~chi_2-)
     1.99384905E-03    3        11       -37        1000037   # BR(~e_R- -> e-  H-  ~chi_2+)
     1.50763721E-03    3        11       37        -1000037   # BR(~e_R- -> e-  H+  ~chi_2-)
#
#         PDG            Width
DECAY   1000013     1.45703972E+01   # smuon_L decays
#          BR         NDA      ID1       ID2
     3.26060525E-01    2     1000022        13   # BR(~mu_L -> ~chi_10 mu-)
     9.66829244E-04    2     1000023        13   # BR(~mu_L -> ~chi_20 mu-)
     7.90731587E-03    2     1000025        13   # BR(~mu_L -> ~chi_30 mu-)
     6.37735763E-01    2    -1000024        14   # BR(~mu_L -> ~chi_1- nu_mu)
     2.73295667E-02    2    -1000037        14   # BR(~mu_L -> ~chi_2- nu_mu)
#
#         PDG            Width
DECAY   2000013     1.49811218E-02   # smuon_R decays
#           BR         NDA      ID1       ID2
     1.28471221E-03    2     1000022        13   # BR(~mu_R -> ~chi_10 mu-)
#           BR         NDA      ID1       ID2       ID3
     3.25783347E-03    3        13       -1        1000001   # BR(~mu_R- -> mu-  db  ~d_L)
     2.11205812E-03    3        13       1        -1000001   # BR(~mu_R- -> mu-  d  ~d_L*)
     1.70674802E-03    3        13       -1        2000001   # BR(~mu_R- -> mu-  db  ~d_R)
     2.35883537E-03    3        13       1        -2000001   # BR(~mu_R- -> mu-  d  ~d_R*)
     3.30616096E-03    3        13       -2        1000002   # BR(~mu_R- -> mu-  ub  ~u_L)
     2.09376844E-03    3        13       2        -1000002   # BR(~mu_R- -> mu-  u  ~u_L*)
     3.31717482E-03    3        13       -3        1000003   # BR(~mu_R- -> mu-  sb  ~s_L)
     2.10671807E-03    3        13       3        -1000003   # BR(~mu_R- -> mu-  s  ~s_L*)
     1.69893820E-03    3        13       -3        2000003   # BR(~mu_R- -> mu-  sb  ~s_R)
     2.40389208E-03    3        13       3        -2000003   # BR(~mu_R- -> mu-  s  ~s_R*)
     3.30509294E-03    3        13       -4        1000004   # BR(~mu_R- -> mu-  cb  ~c_L)
     2.09650521E-03    3        13       4        -1000004   # BR(~mu_R- -> mu-  c  ~c_L*)
     1.13449448E-01    3        13       -5        1000005   # BR(~mu_R- -> mu-  bb  ~b_1)
     2.01086410E-01    3        13       5        -1000005   # BR(~mu_R- -> mu-  b  ~b_1*)
     1.11980933E-02    3        13       -5        2000005   # BR(~mu_R- -> mu-  bb  ~b_2)
     6.36267438E-03    3        13       5        -2000005   # BR(~mu_R- -> mu-  b  ~b_2*)
     1.40857275E-02    3        13       -6        1000006   # BR(~mu_R- -> mu-  tb  ~t_1)
     8.72030826E-03    3        13       6        -1000006   # BR(~mu_R- -> mu-  t  ~t_1*)
     3.13734849E-03    3        13       -6        2000006   # BR(~mu_R- -> mu-  tb  ~t_2)
     4.13693987E-03    3        13       6        -2000006   # BR(~mu_R- -> mu-  t  ~t_2*)
     3.38539401E-02    3        13       -11        1000011   # BR(~mu_R- -> mu-  e+  ~e_L-)
     1.80440426E-02    3        13       11        -1000011   # BR(~mu_R- -> mu-  e-  ~e_L+)
     3.39453885E-02    3        13       -12        1000012   # BR(~mu_R- -> mu-  nu_eb  ~nu_eL)
     1.84859320E-02    3        13       12        -1000012   # BR(~mu_R- -> mu-  nu_e  ~nu_eL*)
     3.40201493E-02    3        13       -13        1000013   # BR(~mu_R- -> mu-  mu+  ~mu_L-)
     1.81348235E-02    3        13       13        -1000013   # BR(~mu_R- -> mu-  mu-  ~mu_L+)
     3.43565727E-02    3        13       -14        1000014   # BR(~mu_R- -> mu-  nu_mub  ~nu_muL)
     1.83777960E-02    3        13       14        -1000014   # BR(~mu_R- -> mu-  nu_mu  ~nu_muL*)
     1.98903662E-04    3        13       -15        1000015   # BR(~mu_R- -> mu-  tau+  ~tau_1-)
     1.54948343E-04    3        13       15        -1000015   # BR(~mu_R- -> mu-  tau-  ~tau_1+)
     2.01006309E-04    3        13       -16        1000016   # BR(~mu_R- -> mu-  nu_taub  ~nu_tau1)
     1.59106910E-04    3        13       16        -1000016   # BR(~mu_R- -> mu-  nu_tau  ~nu_tau1*)
     9.31972933E-03    3        13       23        1000022   # BR(~mu_R- -> mu-  Z  ~chi_10)
     1.38641153E-02    3        13       25        1000022   # BR(~mu_R- -> mu-  h  ~chi_10)
     1.64179962E-04    3        13       35        1000022   # BR(~mu_R- -> mu-  H  ~chi_10)
     5.92799398E-05    3        13       36        1000022   # BR(~mu_R- -> mu-  A  ~chi_10)
     5.70337796E-02    3        13       23        1000023   # BR(~mu_R- -> mu-  Z  ~chi_20)
     2.18802040E-02    3        13       25        1000023   # BR(~mu_R- -> mu-  h  ~chi_20)
     1.94931998E-04    3        13       35        1000023   # BR(~mu_R- -> mu-  H  ~chi_20)
     1.75140422E-03    3        13       36        1000023   # BR(~mu_R- -> mu-  A  ~chi_20)
     2.09897499E-02    3        13       23        1000025   # BR(~mu_R- -> mu-  Z  ~chi_30)
     5.61299755E-02    3        13       25        1000025   # BR(~mu_R- -> mu-  h  ~chi_30)
     1.64740667E-03    3        13       35        1000025   # BR(~mu_R- -> mu-  H  ~chi_30)
     1.80880981E-04    3        13       36        1000025   # BR(~mu_R- -> mu-  A  ~chi_30)
     2.49580775E-02    3        13       -24        1000024   # BR(~mu_R- -> mu-  W-  ~chi_1+)
     2.55908739E-02    3        13       24        -1000024   # BR(~mu_R- -> mu-  W+  ~chi_1-)
     2.55568311E-04    3        13       -37        1000024   # BR(~mu_R- -> mu-  H-  ~chi_1+)
     1.73478330E-04    3        13       37        -1000024   # BR(~mu_R- -> mu-  H+  ~chi_1-)
     4.49866177E-02    3        13       -24        1000037   # BR(~mu_R- -> mu-  W-  ~chi_2+)
     1.14157005E-01    3        13       24        -1000037   # BR(~mu_R- -> mu-  W+  ~chi_2-)
     1.99731371E-03    3        13       -37        1000037   # BR(~mu_R- -> mu-  H-  ~chi_2+)
     1.50743050E-03    3        13       37        -1000037   # BR(~mu_R- -> mu-  H+  ~chi_2-)
#
#         PDG            Width
DECAY   1000015     4.45007957E+01   # stau_1 decays
#          BR         NDA      ID1       ID2
     2.39869916E-01    2     1000022        15   # BR(~tau_1 -> ~chi_10  tau-)
     1.42620594E-01    2     1000023        15   # BR(~tau_1 -> ~chi_20  tau-)
     1.43019201E-01    2     1000025        15   # BR(~tau_1 -> ~chi_30  tau-)
     4.51100589E-01    2    -1000024        16   # BR(~tau_1 -> ~chi_1-  nu_tau)
     2.33897002E-02    2    -1000037        16   # BR(~tau_1 -> ~chi_2-  nu_tau)
#
#         PDG            Width
DECAY   2000015     3.44362464E+01   # stau_2 decays
#          BR         NDA      ID1       ID2
     1.34345251E-02    2     1000022        15   # BR(~tau_2 -> ~chi_10  tau-)
     2.43763272E-01    2     1000023        15   # BR(~tau_2 -> ~chi_20  tau-)
     2.35139571E-01    2     1000025        15   # BR(~tau_2 -> ~chi_30  tau-)
     1.85901247E-03    2     1000035        15   # BR(~tau_2 -> ~chi_40  tau-)
     2.61602960E-02    2    -1000024        16   # BR(~tau_2 -> ~chi_1-  nu_tau)
     4.66027421E-01    2    -1000037        16   # BR(~tau_2 -> ~chi_2-  nu_tau)
     6.59458593E-03    2     1000016       -24   # BR(~tau_2 -> ~nu_tauL W-)
     3.67647990E-03    2     1000015        25   # BR(~tau_2 -> ~tau_1   h)
     3.34483739E-03    2     1000015        23   # BR(~tau_2 -> ~tau_1   Z)
#
#         PDG            Width
DECAY   1000012     1.46736471E+01   # snu_eL decays
#          BR         NDA      ID1       ID2
     3.23778627E-01    2     1000022        12   # BR(~nu_eL -> ~chi_10 nu_e)
     1.24857571E-03    2     1000023        12   # BR(~nu_eL -> ~chi_20 nu_e)
     6.75766096E-03    2     1000025        12   # BR(~nu_eL -> ~chi_30 nu_e)
     6.62865439E-01    2     1000024        11   # BR(~nu_eL -> ~chi_1+ e-)
     5.34969727E-03    2     1000037        11   # BR(~nu_eL -> ~chi_2+ e-)
#
#         PDG            Width
DECAY   1000014     1.46736470E+01   # snu_muL decays
#          BR         NDA      ID1       ID2
     3.23778630E-01    2     1000022        14   # BR(~nu_muL -> ~chi_10 nu_mu)
     1.24857572E-03    2     1000023        14   # BR(~nu_muL -> ~chi_20 nu_mu)
     6.75766103E-03    2     1000025        14   # BR(~nu_muL -> ~chi_30 nu_mu)
     6.62865436E-01    2     1000024        13   # BR(~nu_muL -> ~chi_1+ mu-)
     5.34969721E-03    2     1000037        13   # BR(~nu_muL -> ~chi_2+ mu-)
#
#         PDG            Width
DECAY   1000016     4.45381043E+01   # snu_tauL decays
#          BR         NDA      ID1       ID2
     2.29718212E-01    2     1000022        16   # BR(~nu_tauL -> ~chi_10 nu_tau)
     1.16159977E-03    2     1000023        16   # BR(~nu_tauL -> ~chi_20 nu_tau)
     6.33687842E-03    2     1000025        16   # BR(~nu_tauL -> ~chi_30 nu_tau)
     4.88369089E-01    2     1000024        15   # BR(~nu_tauL -> ~chi_1+ tau-)
     2.74414220E-01    2     1000037        15   # BR(~nu_tauL -> ~chi_2+ tau-)
#
#         PDG            Width
DECAY   1000024     2.25586980E-14   # chargino1+ decays
#           BR         NDA      ID1       ID2       ID3
     2.95841260E-02    3     1000022       -11        12   # BR(~chi_1+ -> ~chi_10 e+   nu_e)
     1.31977950E-02    3     1000022       -13        14   # BR(~chi_1+ -> ~chi_10 mu+  nu_mu)
     9.57218080E-01    2     1000022       211             # BR(~chi_1+ -> ~chi_10 pi+)
#
#         PDG            Width
DECAY   1000037     5.36558777E+00   # chargino2+ decays
#          BR         NDA      ID1       ID2
     4.69153034E-01    2    -1000005         6   # BR(~chi_2+ -> ~b_1*    t )
     1.83820117E-01    2     1000024        23   # BR(~chi_2+ -> ~chi_1+  Z )
     1.84168727E-01    2     1000022        24   # BR(~chi_2+ -> ~chi_10  W+)
     1.62858123E-01    2     1000024        25   # BR(~chi_2+ -> ~chi_1+  h )
#
#         PDG            Width
DECAY   1000022     0.00000000E+00   # neutralino1 decays
#
#         PDG            Width
DECAY   1000023     7.88275511E+00   # neutralino2 decays
#          BR         NDA      ID1       ID2
     1.05184488E-01    2     1000022        23   # BR(~chi_20 -> ~chi_10   Z )
     1.22821849E-01    2     1000024       -24   # BR(~chi_20 -> ~chi_1+   W-)
     1.22821849E-01    2    -1000024        24   # BR(~chi_20 -> ~chi_1-   W+)
     1.31221275E-02    2     1000022        25   # BR(~chi_20 -> ~chi_10   h )
     3.18024843E-01    2     1000005        -5   # BR(~chi_20 -> ~b_1      bb)
     3.18024843E-01    2    -1000005         5   # BR(~chi_20 -> ~b_1*     b )
#
#         PDG            Width
DECAY   1000025     7.96649166E+00   # neutralino3 decays
#          BR         NDA      ID1       ID2
     1.84676253E-02    2     1000022        23   # BR(~chi_30 -> ~chi_10   Z )
     1.28942661E-01    2     1000024       -24   # BR(~chi_30 -> ~chi_1+   W-)
     1.28942661E-01    2    -1000024        24   # BR(~chi_30 -> ~chi_1-   W+)
     9.89254981E-02    2     1000022        25   # BR(~chi_30 -> ~chi_10   h )
     3.12360777E-01    2     1000005        -5   # BR(~chi_30 -> ~b_1      bb)
     3.12360777E-01    2    -1000005         5   # BR(~chi_30 -> ~b_1*     b )
#
#         PDG            Width
DECAY   1000035     4.19145273E+01   # neutralino4 decays
#          BR         NDA      ID1       ID2
     1.09983866E-04    2     1000022        23   # BR(~chi_40 -> ~chi_10   Z )
     3.17048596E-02    2     1000023        23   # BR(~chi_40 -> ~chi_20   Z )
     1.56285103E-02    2     1000025        23   # BR(~chi_40 -> ~chi_30   Z )
     2.31506561E-04    2     1000024       -24   # BR(~chi_40 -> ~chi_1+   W-)
     2.31506561E-04    2    -1000024        24   # BR(~chi_40 -> ~chi_1-   W+)
     4.60723237E-02    2     1000037       -24   # BR(~chi_40 -> ~chi_2+   W-)
     4.60723237E-02    2    -1000037        24   # BR(~chi_40 -> ~chi_2-   W+)
     1.46616242E-04    2     1000022        25   # BR(~chi_40 -> ~chi_10   h )
     6.83150370E-04    2     1000022        35   # BR(~chi_40 -> ~chi_10   H )
     3.86685790E-04    2     1000022        36   # BR(~chi_40 -> ~chi_10   A )
     1.72805069E-02    2     1000023        25   # BR(~chi_40 -> ~chi_20   h )
     3.75418809E-03    2     1000023        35   # BR(~chi_40 -> ~chi_20   H )
     1.40331350E-02    2     1000023        36   # BR(~chi_40 -> ~chi_20   A )
     3.28588718E-02    2     1000025        25   # BR(~chi_40 -> ~chi_30   h )
     1.35512360E-02    2     1000025        35   # BR(~chi_40 -> ~chi_30   H )
     3.56818536E-03    2     1000025        36   # BR(~chi_40 -> ~chi_30   A )
     1.03704039E-03    2     1000024       -37   # BR(~chi_40 -> ~chi_1+   H-)
     1.03704039E-03    2    -1000024        37   # BR(~chi_40 -> ~chi_1-   H+)
     1.68592775E-02    2     1000037       -37   # BR(~chi_40 -> ~chi_2+   H-)
     1.68592775E-02    2    -1000037        37   # BR(~chi_40 -> ~chi_2-   H+)
     7.50271480E-03    2     1000002        -2   # BR(~chi_40 -> ~u_L      ub)
     7.50271480E-03    2    -1000002         2   # BR(~chi_40 -> ~u_L*     u )
     7.55027550E-03    2     1000001        -1   # BR(~chi_40 -> ~d_L      db)
     7.55027550E-03    2    -1000001         1   # BR(~chi_40 -> ~d_L*     d )
     1.63840967E-02    2     2000001        -1   # BR(~chi_40 -> ~d_R      db)
     1.63840967E-02    2    -2000001         1   # BR(~chi_40 -> ~d_R*     d )
     7.50271215E-03    2     1000004        -4   # BR(~chi_40 -> ~c_L      cb)
     7.50271215E-03    2    -1000004         4   # BR(~chi_40 -> ~c_L*     c )
     7.55027550E-03    2     1000003        -3   # BR(~chi_40 -> ~s _L      sb)
     7.55027550E-03    2    -1000003         3   # BR(~chi_40 -> ~s _L*     s )
     1.63840967E-02    2     2000003        -3   # BR(~chi_40 -> ~s _R      sb)
     1.63840967E-02    2    -2000003         3   # BR(~chi_40 -> ~s _R*     s )
     1.46343218E-02    2     1000006        -6   # BR(~chi_40 -> ~t_1      tb)
     1.46343218E-02    2    -1000006         6   # BR(~chi_40 -> ~t_1*     t )
     5.26358084E-02    2     2000006        -6   # BR(~chi_40 -> ~t_2      tb)
     5.26358084E-02    2    -2000006         6   # BR(~chi_40 -> ~t_2*     t )
     6.56251601E-02    2     1000005        -5   # BR(~chi_40 -> ~b_1      bb)
     6.56251601E-02    2    -1000005         5   # BR(~chi_40 -> ~b_1*     b )
     1.21100458E-02    2     2000005        -5   # BR(~chi_40 -> ~b_2      bb)
     1.21100458E-02    2    -2000005         5   # BR(~chi_40 -> ~b_2*     b )
     3.58179014E-02    2     1000011       -11   # BR(~chi_40 -> ~e_L-     e+)
     3.58179014E-02    2    -1000011        11   # BR(~chi_40 -> ~e_L+     e-)
     2.65496262E-03    2     2000011       -11   # BR(~chi_40 -> ~e_R-     e+)
     2.65496262E-03    2    -2000011        11   # BR(~chi_40 -> ~e_R+     e-)
     3.58179014E-02    2     1000013       -13   # BR(~chi_40 -> ~mu_L-    mu+)
     3.58179014E-02    2    -1000013        13   # BR(~chi_40 -> ~mu_L+    mu-)
     2.65496262E-03    2     2000013       -13   # BR(~chi_40 -> ~mu_R-    mu+)
     2.65496262E-03    2    -2000013        13   # BR(~chi_40 -> ~mu_R+    mu-)
     6.07086832E-03    2     1000015       -15   # BR(~chi_40 -> ~tau_1-   tau+)
     6.07086832E-03    2    -1000015        15   # BR(~chi_40 -> ~tau_1+   tau-)
     3.59713420E-02    2     1000012       -12   # BR(~chi_40 -> ~nu_eL    nu_eb)
     3.59713420E-02    2    -1000012        12   # BR(~chi_40 -> ~nu_eL*   nu_e )
     3.59713420E-02    2     1000014       -14   # BR(~chi_40 -> ~nu_muL   nu_mub)
     3.59713420E-02    2    -1000014        14   # BR(~chi_40 -> ~nu_muL*  nu_mu )
     6.10809947E-03    2     1000016       -16   # BR(~chi_40 -> ~nu_tau1  nu_taub)
     6.10809947E-03    2    -1000016        16   # BR(~chi_40 -> ~nu_tau1* nu_tau )
#
#         PDG            Width
DECAY        25     3.53602343E-03   # h decays
#          BR         NDA      ID1       ID2
     5.55559553E-01    2           5        -5   # BR(h -> b       bb     )
     7.33943948E-02    2         -15        15   # BR(h -> tau+    tau-   )
     2.59814029E-04    2         -13        13   # BR(h -> mu+     mu-    )
     2.84005099E-04    2           3        -3   # BR(h -> s       sb     )
     2.44527220E-02    2           4        -4   # BR(h -> c       cb     )
     8.78485148E-02    2          21        21   # BR(h -> g       g      )
     2.61877371E-03    2          22        22   # BR(h -> gam     gam    )
     1.69218066E-03    2          22        23   # BR(h -> Z       gam    )
     2.25936702E-01    2          24       -24   # BR(h -> W+      W-     )
     2.79533391E-02    2          23        23   # BR(h -> Z       Z      )
#
#         PDG            Width
DECAY        35     2.42149326E+02   # H decays
#          BR         NDA      ID1       ID2
     7.97380178E-01    2           5        -5   # BR(H -> b       bb     )
     4.63937277E-02    2         -15        15   # BR(H -> tau+    tau-   )
     1.68224207E-04    2         -13        13   # BR(H -> mu+     mu-    )
     1.34375769E-04    2           3        -3   # BR(H -> s       sb     )
     1.39281980E-09    2           4        -4   # BR(H -> c       cb     )
     1.34977342E-04    2           6        -6   # BR(H -> t       tb     )
     1.45145898E-05    2          21        21   # BR(H -> g       g      )
     2.54106875E-08    2          22        22   # BR(H -> gam     gam    )
     4.66021688E-09    2          23        22   # BR(H -> Z       gam    )
     4.81934127E-08    2          24       -24   # BR(H -> W+      W-     )
     2.40065106E-08    2          23        23   # BR(H -> Z       Z      )
     2.30667701E-08    2          25        25   # BR(H -> h       h      )
     3.72150715E-03    2     1000024  -1000024   # BR(H -> ~chi_1+ ~chi_1-)
     4.57358397E-04    2     1000037  -1000037   # BR(H -> ~chi_2+ ~chi_2-)
     2.66787887E-02    2     1000024  -1000037   # BR(H -> ~chi_1+ ~chi_2-)
     2.66787887E-02    2     1000037  -1000024   # BR(H -> ~chi_2+ ~chi_1-)
     1.86714464E-03    2     1000022   1000022   # BR(H -> ~chi_10 ~chi_10)
     9.86773285E-05    2     1000023   1000023   # BR(H -> ~chi_20 ~chi_20)
     5.59752024E-04    2     1000025   1000025   # BR(H -> ~chi_30 ~chi_30)
     1.37864777E-02    2     1000022   1000023   # BR(H -> ~chi_10 ~chi_20)
     1.15160780E-02    2     1000022   1000025   # BR(H -> ~chi_10 ~chi_30)
     8.25808961E-04    2     1000023   1000025   # BR(H -> ~chi_20 ~chi_30)
     1.05112239E-03    2     1000005  -1000005   # BR(H -> ~b_1    ~b_1*  )
     3.42661860E-02    2     1000005  -2000005   # BR(H -> ~b_1    ~b_2*  )
     3.42661860E-02    2     2000005  -1000005   # BR(H -> ~b_2    ~b_1*  )
#
#         PDG            Width
DECAY        36     2.42179297E+02   # A decays
#          BR         NDA      ID1       ID2
     7.97386413E-01    2           5        -5   # BR(A -> b       bb     )
     4.63866965E-02    2         -15        15   # BR(A -> tau+    tau-   )
     1.68198193E-04    2         -13        13   # BR(A -> mu+     mu-    )
     1.34359201E-04    2           3        -3   # BR(A -> s       sb     )
     1.39597159E-09    2           4        -4   # BR(A -> c       cb     )
     1.36775606E-04    2           6        -6   # BR(A -> t       tb     )
     1.33933906E-05    2          21        21   # BR(A -> g       g      )
     2.16948765E-09    2          22        22   # BR(A -> gam     gam    )
     7.64287610E-09    2          23        22   # BR(A -> Z       gam    )
     4.86155526E-08    2          23        25   # BR(A -> Z       h      )
     3.86532158E-03    2     1000024  -1000024   # BR(A -> ~chi_1+ ~chi_1-)
     5.72718618E-04    2     1000037  -1000037   # BR(A -> ~chi_2+ ~chi_2-)
     2.65445252E-02    2     1000024  -1000037   # BR(A -> ~chi_1+ ~chi_2-)
     2.65445252E-02    2     1000037  -1000024   # BR(A -> ~chi_2+ ~chi_1-)
     1.93727708E-03    2     1000022   1000022   # BR(A -> ~chi_10 ~chi_10)
     1.57590824E-04    2     1000023   1000023   # BR(A -> ~chi_20 ~chi_20)
     7.70526195E-04    2     1000025   1000025   # BR(A -> ~chi_30 ~chi_30)
     1.26557120E-02    2     1000022   1000023   # BR(A -> ~chi_10 ~chi_20)
     1.25559921E-02    2     1000022   1000025   # BR(A -> ~chi_10 ~chi_30)
     5.74693382E-04    2     1000023   1000025   # BR(A -> ~chi_20 ~chi_30)
     3.47976110E-02    2     1000005  -2000005   # BR(A -> ~b_1    ~b_2*  )
     3.47976110E-02    2    -1000005   2000005   # BR(A -> ~b_1*   ~b_2   )
#
#         PDG            Width
DECAY        37     2.62068732E+02   # H+ decays
#          BR         NDA      ID1       ID2
     1.34542153E-03    2           4        -5   # BR(H+ -> c       bb     )
     4.28985562E-02    2         -15        16   # BR(H+ -> tau+    nu_tau )
     1.55550193E-04    2         -13        14   # BR(H+ -> mu+     nu_mu  )
     1.34541820E-05    2           2        -5   # BR(H+ -> u       bb     )
     6.20590174E-06    2           2        -3   # BR(H+ -> u       sb     )
     1.22152188E-04    2           4        -3   # BR(H+ -> c       sb     )
     7.97581638E-01    2           6        -5   # BR(H+ -> t       bb     )
     4.50903410E-08    2          24        25   # BR(H+ -> W+      h      )
     4.22605416E-14    2          24        36   # BR(H+ -> W+      A      )
     7.46487660E-09    2     1000024   1000022   # BR(H+ -> ~chi_1+ ~chi_10)
     2.55485008E-02    2     1000024   1000023   # BR(H+ -> ~chi_1+ ~chi_20)
     2.59899272E-02    2     1000024   1000025   # BR(H+ -> ~chi_1+ ~chi_30)
     2.70216908E-02    2     1000037   1000022   # BR(H+ -> ~chi_2+ ~chi_10)
     7.05770828E-04    2     1000037   1000023   # BR(H+ -> ~chi_2+ ~chi_20)
     7.62940682E-05    2     1000037   1000025   # BR(H+ -> ~chi_2+ ~chi_30)
     7.85347854E-02    2     1000006  -1000005   # BR(H+ -> ~t_1    ~b_1*  )
