#
#                              ======================
#                              | THE SUSYHIT OUTPUT |
#                              ======================
#
#
#              ------------------------------------------------------
#              |     This is the output of the SUSY-HIT package     |
#              |  created by A.Djouadi, M.Muehlleitner and M.Spira. |
#              |  In case of problems with SUSY-HIT email to        |
#              |           margarete.muehlleitner@cern.ch           |
#              |           michael.spira@psi.ch                     |
#              |           abdelhak.djouadi@cern.ch                 |
#              ------------------------------------------------------
#
#              ------------------------------------------------------
#              |  SUSY Les Houches Accord - MSSM Spectrum + Decays  |
#              |              based on the decay programs           |
#              |                                                    |
#              |                     SDECAY 1.3b                    |
#              |                                                    |
#              |  Authors: M.Muhlleitner, A.Djouadi and Y.Mambrini  |
#              |  Ref.:    Comput.Phys.Commun.168(2005)46           |
#              |           [hep-ph/0311167]                         |
#              |                                                    |
#              |                     HDECAY 3.4                     |
#              |                                                    |
#              |  By: A.Djouadi,J.Kalinowski,M.Muhlleitner,M.Spira  |
#              |  Ref.:    Comput.Phys.Commun.108(1998)56           |
#              |           [hep-ph/9704448]                         |
#              |                                                    |
#              |                                                    |
#              |  If not stated otherwise all DRbar couplings and   |
#              |  soft SUSY breaking masses are given at the scale  |
#              |  Q=  0.27766890E+04
#              |                                                    |
#              ------------------------------------------------------
#
#
BLOCK DCINFO  # Decay Program information
     1   SDECAY/HDECAY # decay calculator
     2   1.3b  /3.4    # version number
#
BLOCK SPINFO  # Spectrum calculator information
     1     SOFTSUSY    # spectrum calculator               
     2     3.4.0       # version number                    
#
BLOCK MODSEL  # Model selection
     1     0   #  nonUniversal                                     
#
BLOCK SMINPUTS  # Standard Model inputs
         1     1.27908970E+02   # alpha_em^-1(M_Z)^MSbar
         2     1.16637870E-05   # G_F [GeV^-2]
         3     1.18400000E-01   # alpha_S(M_Z)^MSbar
         4     9.11876000E+01   # M_Z pole mass
         5     4.18000000E+00   # mb(mb)^MSbar
         6     1.73200000E+02   # mt pole mass
         7     1.77700000E+00   # mtau pole mass
#
BLOCK MINPAR  # Input parameters - minimal models
         3     1.73600000E+01   # tanb                
#
BLOCK EXTPAR  # Input parameters - non-minimal models
         0    -1.00000000E+00   # Set                 
         1    -1.10969000E+03   # M_1(MX)             
         2    -5.74940000E+02   # M_2(MX)             
         3     1.59784000E+03   # M_3(MX)             
        11     2.61608000E+03   # At(MX)              
        12    -5.79920000E+02   # Ab(MX)              
        13    -1.67125000E+03   # Atau(MX)            
        23    -1.04652000E+03   # mu(MX)              
        26     3.43469000E+03   # mA(pole)            
        31     2.52101000E+03   # meL(MX)             
        32     2.52101000E+03   # mmuL(MX)            
        33     3.00260000E+03   # mtauL(MX)           
        34     2.07004000E+03   # meR(MX)             
        35     2.07004000E+03   # mmuR(MX)            
        36     1.94716000E+03   # mtauR(MX)           
        41     7.48340000E+02   # mqL1(MX)            
        42     7.48340000E+02   # mqL2(MX)            
        43     2.98880000E+03   # mqL3(MX)            
        44     3.97464000E+03   # muR(MX)             
        45     3.97464000E+03   # mcR(MX)             
        46     2.57653000E+03   # mtR(MX)             
        47     3.28403000E+03   # mdR(MX)             
        48     3.28403000E+03   # msR(MX)             
        49     1.65682000E+03   # mbR(MX)             
#
BLOCK MASS  # Mass Spectrum
# PDG code           mass       particle
        24     8.03899722E+01   # W+
        25     1.24063026E+02   # h
        35     3.43470388E+03   # H
        36     3.43469001E+03   # A
        37     3.43578498E+03   # H+
         5     4.81876030E+00   # b-quark pole mass calculated from mb(mb)_Msbar
   1000001     8.98084599E+02   # ~d_L
   2000001     3.32758987E+03   # ~d_R
   1000002     8.94638837E+02   # ~u_L
   2000002     4.01649593E+03   # ~u_R
   1000003     8.98084599E+02   # ~s_L
   2000003     3.32758987E+03   # ~s_R
   1000004     8.94638837E+02   # ~c_L
   2000004     4.01649593E+03   # ~c_R
   1000005     1.73695800E+03   # ~b_1
   2000005     3.00909366E+03   # ~b_2
   1000006     2.57294437E+03   # ~t_1
   2000006     3.02049649E+03   # ~t_2
   1000011     2.52618551E+03   # ~e_L
   2000011     2.07628924E+03   # ~e_R
   1000012     2.52463275E+03   # ~nu_eL
   1000013     2.52618551E+03   # ~mu_L
   2000013     2.07628924E+03   # ~mu_R
   1000014     2.52463275E+03   # ~nu_muL
   1000015     1.95180017E+03   # ~tau_1
   2000015     3.00758313E+03   # ~tau_2
   1000016     3.00619719E+03   # ~nu_tauL
   1000021     1.76524822E+03   # ~g
   1000022    -5.89590810E+02   # ~chi_10
   1000023    -1.05826664E+03   # ~chi_20
   1000025     1.07938570E+03   # ~chi_30
   1000035    -1.12696647E+03   # ~chi_40
   1000024     5.89792522E+02   # ~chi_1+
   1000037     1.08614976E+03   # ~chi_2+
#
BLOCK NMIX  # Neutralino Mixing Matrix
  1  1    -5.86571317E-03   # N_11
  1  2     9.92507270E-01   # N_12
  1  3     1.05380530E-01   # N_13
  1  4    -6.15618005E-02   # N_14
  2  1    -5.83374573E-01   # N_21
  2  2    -9.94951915E-02   # N_22
  2  3     5.73965063E-01   # N_23
  2  4    -5.65984912E-01   # N_24
  3  1     1.34846059E-02   # N_31
  3  2    -3.09944569E-02   # N_32
  3  3     7.05950710E-01   # N_33
  3  4     7.07453959E-01   # N_34
  4  1     8.12070112E-01   # N_41
  4  2    -6.37916026E-02   # N_42
  4  3     4.01363483E-01   # N_43
  4  4    -4.18784097E-01   # N_44
#
BLOCK UMIX  # Chargino Mixing Matrix U
  1  1     9.88986721E-01   # U_11
  1  2     1.48004277E-01   # U_12
  2  1    -1.48004277E-01   # U_21
  2  2     9.88986721E-01   # U_22
#
BLOCK VMIX  # Chargino Mixing Matrix V
  1  1    -9.96253292E-01   # V_11
  1  2    -8.64833997E-02   # V_12
  2  1     8.64833997E-02   # V_21
  2  2    -9.96253292E-01   # V_22
#
BLOCK STOPMIX  # Stop Mixing Matrix
  1  1    -1.42952336E-01   # cos(theta_t)
  1  2     9.89729574E-01   # sin(theta_t)
  2  1    -9.89729574E-01   # -sin(theta_t)
  2  2    -1.42952336E-01   # cos(theta_t)
#
BLOCK SBOTMIX  # Sbottom Mixing Matrix
  1  1    -6.90760984E-03   # cos(theta_b)
  1  2     9.99976142E-01   # sin(theta_b)
  2  1    -9.99976142E-01   # -sin(theta_b)
  2  2    -6.90760984E-03   # cos(theta_b)
#
BLOCK STAUMIX  # Stau Mixing Matrix
  1  1    -5.54868055E-03   # cos(theta_tau)
  1  2     9.99984606E-01   # sin(theta_tau)
  2  1    -9.99984606E-01   # -sin(theta_tau)
  2  2    -5.54868055E-03   # cos(theta_tau)
#
BLOCK ALPHA  # Higgs mixing
          -6.02618595E-02   # Mixing angle in the neutral Higgs boson sector
#
BLOCK HMIX Q=  2.77668900E+03  # DRbar Higgs Parameters
         1    -1.06440704E+03   # mu(Q)MSSM           
         2     1.66049590E+01   # tan                 
         3     2.42160295E+02   # higgs               
         4     1.20743752E+07   # mA^2(Q)MSSM         
#
BLOCK GAUGE Q=  2.77668900E+03  # The gauge couplings
     1     3.64657345E-01   # gprime(Q) DRbar
     2     6.40751532E-01   # g(Q) DRbar
     3     1.02469500E+00   # g3(Q) DRbar
#
BLOCK AU Q=  2.77668900E+03  # The trilinear couplings
  1  1     0.00000000E+00   # A_u(Q) DRbar
  2  2     0.00000000E+00   # A_c(Q) DRbar
  3  3     2.61608001E+03   # A_t(Q) DRbar
#
BLOCK AD Q=  2.77668900E+03  # The trilinear couplings
  1  1     0.00000000E+00   # A_d(Q) DRbar
  2  2     0.00000000E+00   # A_s(Q) DRbar
  3  3    -5.79919997E+02   # A_b(Q) DRbar
#
BLOCK AE Q=  2.77668900E+03  # The trilinear couplings
  1  1     0.00000000E+00   # A_e(Q) DRbar
  2  2     0.00000000E+00   # A_mu(Q) DRbar
  3  3    -1.67125000E+03   # A_tau(Q) DRbar
#
BLOCK Yu Q=  2.77668900E+03  # The Yukawa couplings
  1  1     0.00000000E+00   # y_u(Q) DRbar
  2  2     0.00000000E+00   # y_c(Q) DRbar
  3  3     8.37155112E-01   # y_t(Q) DRbar
#
BLOCK Yd Q=  2.77668900E+03  # The Yukawa couplings
  1  1     0.00000000E+00   # y_d(Q) DRbar
  2  2     0.00000000E+00   # y_s(Q) DRbar
  3  3     2.43958115E-01   # y_b(Q) DRbar
#
BLOCK Ye Q=  2.77668900E+03  # The Yukawa couplings
  1  1     0.00000000E+00   # y_e(Q) DRbar
  2  2     0.00000000E+00   # y_mu(Q) DRbar
  3  3     1.71757625E-01   # y_tau(Q) DRbar
#
BLOCK MSOFT Q=  2.77668900E+03  # The soft SUSY breaking masses at the scale Q
         1    -1.10969000E+03   # M_1(Q)              
         2    -5.74940000E+02   # M_2(Q)              
         3     1.59784000E+03   # M_3(Q)              
        21     1.06297386E+07   # mH1^2(Q)            
        22    -9.34929452E+05   # mH2^2(Q)            
        31     2.52101000E+03   # meL(Q)              
        32     2.52101000E+03   # mmuL(Q)             
        33     3.00260000E+03   # mtauL(Q)            
        34     2.07004000E+03   # meR(Q)              
        35     2.07004000E+03   # mmuR(Q)             
        36     1.94716000E+03   # mtauR(Q)            
        41     7.48339990E+02   # mqL1(Q)             
        42     7.48339990E+02   # mqL2(Q)             
        43     2.98880000E+03   # mqL3(Q)             
        44     3.97464000E+03   # muR(Q)              
        45     3.97464000E+03   # mcR(Q)              
        46     2.57653000E+03   # mtR(Q)              
        47     3.28403000E+03   # mdR(Q)              
        48     3.28403000E+03   # msR(Q)              
        49     1.65682000E+03   # mbR(Q)              
#
Block HiggsBoundsInputHiggsCouplingsFermions
# ScalarNormEffCoupSq PseudoSNormEffCoupSq NP   IP1 IP2 IP2
    1.00370745E+00    0.00000000E+00        3  25   5   5  # h0-b-b eff. coupling^2, normalised to SM
    2.75720956E+02    0.00000000E+00        3  35   5   5  # H0-b-b eff. coupling^2, normalised to SM
    0.00000000E+00    2.75724663E+02        3  36   5   5  # A0-b-b eff. coupling^2, normalised to SM
#
    9.99986554E-01    0.00000000E+00        3  25   6   6  # h0-t-t eff. coupling^2, normalised to SM
    3.64025271E-03    0.00000000E+00        3  35   6   6  # H0-t-t eff. coupling^2, normalised to SM
    0.00000000E+00    3.62680649E-03        3  36   6   6  # A0-t-t eff. coupling^2, normalised to SM
#
    1.00370745E+00    0.00000000E+00        3  25  15  15  # h0-tau-tau eff. coupling^2, normalised to SM
    2.75720956E+02    0.00000000E+00        3  35  15  15  # H0-tau-tau eff. coupling^2, normalised to SM
    0.00000000E+00    2.75724663E+02        3  36  15  15  # A0-tau-tau eff. coupling^2, normalised to SM
#
Block HiggsBoundsInputHiggsCouplingsBosons
    9.99999988E-01        3  25  24  24  # h0-W-W eff. coupling^2, normalised to SM
    1.24398373E-08        3  35  24  24  # H0-W-W eff. coupling^2, normalised to SM
    0.00000000E+00        3  36  24  24  # A0-W-W eff. coupling^2, normalised to SM
#
    9.99999988E-01        3  25  23  23  # h0-Z-Z eff. coupling^2, normalised to SM
    1.24398373E-08        3  35  23  23  # H0-Z-Z eff. coupling^2, normalised to SM
    0.00000000E+00        3  36  23  23  # A0-Z-Z eff. coupling^2, normalised to SM
#
    8.93530784E-01        3  25  21  21  # h0-g-g eff. coupling^2, normalised to SM
    2.98564228E-15        3  35  21  21  # H0-g-g eff. coupling^2, normalised to SM
    3.77392295E-13        3  36  21  21  # A0-g-g eff. coupling^2, normalised to SM
#
    0.00000000E+00        3  25  25  23  # h0-h0-Z eff. coupling^2, normalised to SM
    0.00000000E+00        3  35  25  23  # H0-h0-Z eff. coupling^2, normalised to SM
    1.24398373E-08        3  36  25  23  # A0-h0-Z eff. coupling^2, normalised to SM
    0.00000000E+00        3  35  35  23  # H0-H0-Z eff. coupling^2, normalised to SM
    9.99999988E-01        3  36  35  23  # A0-H0-Z eff. coupling^2, normalised to SM
    0.00000000E+00        3  36  36  23  # A0-A0-Z eff. coupling^2, normalised to SM
#
    0.00000000E+00        4  25  21  21  23  # h0-g-g-Z eff. coupling^2, normalised to SM
    0.00000000E+00        4  35  21  21  23  # H0-g-g-Z eff. coupling^2, normalised to SM
    0.00000000E+00        4  36  21  21  23  # A0-g-g-Z eff. coupling^2, normalised to SM
#
#
#
#                             =================
#                             |The decay table|
#                             =================
#
# - The QCD corrections to the decays gluino -> squark  + quark
#                                     squark -> gaugino + quark_prime
#                                     squark -> squark_prime + Higgs
#                                     squark -> gluino  + quark
#   are included.
#
# - The multi-body decays for the inos, stops and sbottoms are included.
#
# - The loop induced decays for the gluino, neutralinos and stops
#   are included.
#
# - The SUSY decays of the top quark are included.
#
#
#         PDG            Width
DECAY         6     1.44593729E+00   # top decays
#          BR         NDA      ID1       ID2
     1.00000000E+00    2           5        24   # BR(t ->  b    W+)
#
#         PDG            Width
DECAY   1000021     7.47713258E+01   # gluino decays
#          BR         NDA      ID1       ID2
     1.24595968E-01    2     1000001        -1   # BR(~g -> ~d_L  db)
     1.24595968E-01    2    -1000001         1   # BR(~g -> ~d_L* d )
     1.25263368E-01    2     1000002        -2   # BR(~g -> ~u_L  ub)
     1.25263368E-01    2    -1000002         2   # BR(~g -> ~u_L* u )
     1.24595968E-01    2     1000003        -3   # BR(~g -> ~s_L  sb)
     1.24595968E-01    2    -1000003         3   # BR(~g -> ~s_L* s )
     1.25263264E-01    2     1000004        -4   # BR(~g -> ~c_L  cb)
     1.25263264E-01    2    -1000004         4   # BR(~g -> ~c_L* c )
     2.81431694E-04    2     1000005        -5   # BR(~g -> ~b_1  bb)
     2.81431694E-04    2    -1000005         5   # BR(~g -> ~b_1* b )
#
#         PDG            Width
DECAY   1000006     8.95751830E+01   # stop1 decays
#          BR         NDA      ID1       ID2
     6.75043188E-03    2     1000022         6   # BR(~t_1 -> ~chi_10 t )
     1.01980087E-01    2     1000023         6   # BR(~t_1 -> ~chi_20 t )
     1.38185694E-01    2     1000025         6   # BR(~t_1 -> ~chi_30 t )
     6.89619409E-02    2     1000035         6   # BR(~t_1 -> ~chi_40 t )
     1.36267790E-02    2     1000024         5   # BR(~t_1 -> ~chi_1+ b )
     2.58348792E-01    2     1000037         5   # BR(~t_1 -> ~chi_2+ b )
     4.12127656E-01    2     1000021         6   # BR(~t_1 -> ~g      t )
     1.86189914E-05    2     1000005        24   # BR(~t_1 -> ~b_1    W+)
#
#         PDG            Width
DECAY   2000006     1.50424903E+02   # stop2 decays
#          BR         NDA      ID1       ID2
     7.07119562E-02    2     1000022         6   # BR(~t_2 -> ~chi_10 t )
     6.90791487E-02    2     1000023         6   # BR(~t_2 -> ~chi_20 t )
     1.03664808E-01    2     1000025         6   # BR(~t_2 -> ~chi_30 t )
     4.40513515E-02    2     1000035         6   # BR(~t_2 -> ~chi_40 t )
     1.43195015E-01    2     1000024         5   # BR(~t_2 -> ~chi_1+ b )
     2.64781308E-02    2     1000037         5   # BR(~t_2 -> ~chi_2+ b )
     4.91419353E-01    2     1000021         6   # BR(~t_2 -> ~g      t )
     2.66853342E-02    2     1000006        25   # BR(~t_2 -> ~t_1    h )
     2.31027211E-02    2     1000006        23   # BR(~t_2 -> ~t_1    Z )
     1.61218097E-03    2     1000005        24   # BR(~t_2 -> ~b_1    W+)
#
#         PDG            Width
DECAY   1000005     1.88786646E+00   # sbottom1 decays
#          BR         NDA      ID1       ID2
     1.19174855E-02    2     1000022         5   # BR(~b_1 -> ~chi_10 b )
     2.15037152E-01    2     1000023         5   # BR(~b_1 -> ~chi_20 b )
     2.04289940E-01    2     1000025         5   # BR(~b_1 -> ~chi_30 b )
     1.77473950E-01    2     1000035         5   # BR(~b_1 -> ~chi_40 b )
     2.28458375E-02    2    -1000024         6   # BR(~b_1 -> ~chi_1- t )
     3.68435635E-01    2    -1000037         6   # BR(~b_1 -> ~chi_2- t )
#
#         PDG            Width
DECAY   2000005     1.47429946E+02   # sbottom2 decays
#          BR         NDA      ID1       ID2
     7.62751930E-02    2     1000022         5   # BR(~b_2 -> ~chi_10 b )
     6.05776399E-03    2     1000023         5   # BR(~b_2 -> ~chi_20 b )
     9.22546333E-03    2     1000025         5   # BR(~b_2 -> ~chi_30 b )
     5.90637523E-03    2     1000035         5   # BR(~b_2 -> ~chi_40 b )
     1.50714784E-01    2    -1000024         6   # BR(~b_2 -> ~chi_1- t )
     2.16946025E-01    2    -1000037         6   # BR(~b_2 -> ~chi_2- t )
     4.89065652E-01    2     1000021         5   # BR(~b_2 -> ~g      b )
     9.32946988E-04    2     1000005        25   # BR(~b_2 -> ~b_1    h )
     8.42891104E-04    2     1000005        23   # BR(~b_2 -> ~b_1    Z )
     4.40329056E-02    2     1000006       -24   # BR(~b_2 -> ~t_1    W-)
#
#         PDG            Width
DECAY   1000002     3.54532016E+00   # sup_L decays
#          BR         NDA      ID1       ID2
     3.31394490E-01    2     1000022         2   # BR(~u_L -> ~chi_10 u)
     6.68605510E-01    2     1000024         1   # BR(~u_L -> ~chi_1+ d)
#
#         PDG            Width
DECAY   2000002     2.05508505E+02   # sup_R decays
#          BR         NDA      ID1       ID2
     1.46363594E-06    2     1000022         2   # BR(~u_R -> ~chi_10 u)
     1.31068714E-02    2     1000023         2   # BR(~u_R -> ~chi_20 u)
     6.96113408E-06    2     1000025         2   # BR(~u_R -> ~chi_30 u)
     2.48949564E-02    2     1000035         2   # BR(~u_R -> ~chi_40 u)
     9.61989747E-01    2     1000021         2   # BR(~u_R -> ~g      u)
#
#         PDG            Width
DECAY   1000001     3.57027409E+00   # sdown_L decays
#          BR         NDA      ID1       ID2
     3.35642712E-01    2     1000022         1   # BR(~d_L -> ~chi_10 d)
     6.64357288E-01    2    -1000024         2   # BR(~d_L -> ~chi_1- u)
#
#         PDG            Width
DECAY   2000001     1.31411851E+02   # sdown_R decays
#          BR         NDA      ID1       ID2
     4.63346721E-07    2     1000022         1   # BR(~d_R -> ~chi_10 d)
     3.95314246E-03    2     1000023         1   # BR(~d_R -> ~chi_20 d)
     2.09318035E-06    2     1000025         1   # BR(~d_R -> ~chi_30 d)
     7.43253026E-03    2     1000035         1   # BR(~d_R -> ~chi_40 d)
     9.88611771E-01    2     1000021         1   # BR(~d_R -> ~g      d)
#
#         PDG            Width
DECAY   1000004     3.46749821E+00   # scharm_L decays
#          BR         NDA      ID1       ID2
     3.31392722E-01    2     1000022         4   # BR(~c_L -> ~chi_10 c)
     6.68607278E-01    2     1000024         3   # BR(~c_L -> ~chi_1+ s)
#
#         PDG            Width
DECAY   2000004     1.53721628E+02   # scharm_R decays
#          BR         NDA      ID1       ID2
     2.02386035E-06    2     1000022         4   # BR(~c_R -> ~chi_10 c)
     1.81075884E-02    2     1000023         4   # BR(~c_R -> ~chi_20 c)
     9.61670226E-06    2     1000025         4   # BR(~c_R -> ~chi_30 c)
     3.43892689E-02    2     1000035         4   # BR(~c_R -> ~chi_40 c)
     9.47491502E-01    2     1000021         4   # BR(~c_R -> ~g      c)
#
#         PDG            Width
DECAY   1000003     3.49295722E+00   # sstrange_L decays
#          BR         NDA      ID1       ID2
     3.35648198E-01    2     1000022         3   # BR(~s_L -> ~chi_10 s)
     6.64351802E-01    2    -1000024         4   # BR(~s_L -> ~chi_1- c)
#
#         PDG            Width
DECAY   2000003     9.72622231E+01   # sstrange_R decays
#          BR         NDA      ID1       ID2
     6.49246223E-07    2     1000022         3   # BR(~s_R -> ~chi_10 s)
     5.53032351E-03    2     1000023         3   # BR(~s_R -> ~chi_20 s)
     2.92808237E-06    2     1000025         3   # BR(~s_R -> ~chi_30 s)
     1.03954049E-02    2     1000035         3   # BR(~s_R -> ~chi_40 s)
     9.84070694E-01    2     1000021         3   # BR(~s_R -> ~g      s)
#
#         PDG            Width
DECAY   1000011     2.97264613E+01   # selectron_L decays
#          BR         NDA      ID1       ID2
     3.03592876E-01    2     1000022        11   # BR(~e_L -> ~chi_10 e-)
     4.39288056E-02    2     1000023        11   # BR(~e_L -> ~chi_20 e-)
     1.26116504E-04    2     1000025        11   # BR(~e_L -> ~chi_30 e-)
     3.53353190E-02    2     1000035        11   # BR(~e_L -> ~chi_40 e-)
     6.06914085E-01    2    -1000024        12   # BR(~e_L -> ~chi_1- nu_e)
     1.01027987E-02    2    -1000037        12   # BR(~e_L -> ~chi_2- nu_e)
#
#         PDG            Width
DECAY   2000011     5.65450965E+00   # selectron_R decays
#          BR         NDA      ID1       ID2
     5.64989247E-05    2     1000022        11   # BR(~e_R -> ~chi_10 e-)
     3.62270880E-01    2     1000023        11   # BR(~e_R -> ~chi_20 e-)
     1.88121692E-04    2     1000025        11   # BR(~e_R -> ~chi_30 e-)
     6.37484499E-01    2     1000035        11   # BR(~e_R -> ~chi_40 e-)
#
#         PDG            Width
DECAY   1000013     2.97264613E+01   # smuon_L decays
#          BR         NDA      ID1       ID2
     3.03592875E-01    2     1000022        13   # BR(~mu_L -> ~chi_10 mu-)
     4.39288054E-02    2     1000023        13   # BR(~mu_L -> ~chi_20 mu-)
     1.26116503E-04    2     1000025        13   # BR(~mu_L -> ~chi_30 mu-)
     3.53353188E-02    2     1000035        13   # BR(~mu_L -> ~chi_40 mu-)
     6.06914085E-01    2    -1000024        14   # BR(~mu_L -> ~chi_1- nu_mu)
     1.01027987E-02    2    -1000037        14   # BR(~mu_L -> ~chi_2- nu_mu)
#
#         PDG            Width
DECAY   2000013     5.65450959E+00   # smuon_R decays
#          BR         NDA      ID1       ID2
     5.64989249E-05    2     1000022        13   # BR(~mu_R -> ~chi_10 mu-)
     3.62270880E-01    2     1000023        13   # BR(~mu_R -> ~chi_20 mu-)
     1.88121693E-04    2     1000025        13   # BR(~mu_R -> ~chi_30 mu-)
     6.37484499E-01    2     1000035        13   # BR(~mu_R -> ~chi_40 mu-)
#
#         PDG            Width
DECAY   1000015     5.89396980E+00   # stau_1 decays
#          BR         NDA      ID1       ID2
     2.35843958E-03    2     1000022        15   # BR(~tau_1 -> ~chi_10  tau-)
     3.29241900E-01    2     1000023        15   # BR(~tau_1 -> ~chi_20  tau-)
     4.67447447E-02    2     1000025        15   # BR(~tau_1 -> ~chi_30  tau-)
     5.27074126E-01    2     1000035        15   # BR(~tau_1 -> ~chi_40  tau-)
     4.55494809E-03    2    -1000024        16   # BR(~tau_1 -> ~chi_1-  nu_tau)
     9.00258423E-02    2    -1000037        16   # BR(~tau_1 -> ~chi_2-  nu_tau)
#
#         PDG            Width
DECAY   2000015     3.83778060E+01   # stau_2 decays
#          BR         NDA      ID1       ID2
     2.89874568E-01    2     1000022        15   # BR(~tau_2 -> ~chi_10  tau-)
     5.72659544E-02    2     1000023        15   # BR(~tau_2 -> ~chi_20  tau-)
     1.75557795E-02    2     1000025        15   # BR(~tau_2 -> ~chi_30  tau-)
     4.32033448E-02    2     1000035        15   # BR(~tau_2 -> ~chi_40  tau-)
     5.78574822E-01    2    -1000024        16   # BR(~tau_2 -> ~chi_1-  nu_tau)
     1.08141260E-02    2    -1000037        16   # BR(~tau_2 -> ~chi_2-  nu_tau)
     1.35130825E-03    2     1000015        25   # BR(~tau_2 -> ~tau_1   h)
     1.36009742E-03    2     1000015        23   # BR(~tau_2 -> ~tau_1   Z)
#
#         PDG            Width
DECAY   1000012     2.97538522E+01   # snu_eL decays
#          BR         NDA      ID1       ID2
     3.07189160E-01    2     1000022        12   # BR(~nu_eL -> ~chi_10 nu_e)
     1.27283775E-02    2     1000023        12   # BR(~nu_eL -> ~chi_20 nu_e)
     3.46033520E-04    2     1000025        12   # BR(~nu_eL -> ~chi_30 nu_e)
     6.14610808E-02    2     1000035        12   # BR(~nu_eL -> ~chi_40 nu_e)
     6.14833044E-01    2     1000024        11   # BR(~nu_eL -> ~chi_1+ e-)
     3.44230418E-03    2     1000037        11   # BR(~nu_eL -> ~chi_2+ e-)
#
#         PDG            Width
DECAY   1000014     2.97538521E+01   # snu_muL decays
#          BR         NDA      ID1       ID2
     3.07189160E-01    2     1000022        14   # BR(~nu_muL -> ~chi_10 nu_mu)
     1.27283775E-02    2     1000023        14   # BR(~nu_muL -> ~chi_20 nu_mu)
     3.46033521E-04    2     1000025        14   # BR(~nu_muL -> ~chi_30 nu_mu)
     6.14610810E-02    2     1000035        14   # BR(~nu_muL -> ~chi_40 nu_mu)
     6.14833043E-01    2     1000024        13   # BR(~nu_muL -> ~chi_1+ mu-)
     3.44230417E-03    2     1000037        13   # BR(~nu_muL -> ~chi_2+ mu-)
#
#         PDG            Width
DECAY   1000016     3.83997243E+01   # snu_tauL decays
#          BR         NDA      ID1       ID2
     2.93145262E-01    2     1000022        16   # BR(~nu_tauL -> ~chi_10 nu_tau)
     1.32656884E-02    2     1000023        16   # BR(~nu_tauL -> ~chi_20 nu_tau)
     3.62746992E-04    2     1000025        16   # BR(~nu_tauL -> ~chi_30 nu_tau)
     6.53295632E-02    2     1000035        16   # BR(~nu_tauL -> ~chi_40 nu_tau)
     5.87657421E-01    2     1000024        15   # BR(~nu_tauL -> ~chi_1+ tau-)
     3.75991185E-02    2     1000037        15   # BR(~nu_tauL -> ~chi_2+ tau-)
     2.64020046E-03    2    -1000015       -24   # BR(~nu_tauL -> ~tau_1+ W-)
#
#         PDG            Width
DECAY   1000024     9.11744950E-15   # chargino1+ decays
#           BR         NDA      ID1       ID2       ID3
     2.14147650E-02    3     1000022       -11        12   # BR(~chi_1+ -> ~chi_10 e+   nu_e)
     5.49458410E-03    3     1000022       -13        14   # BR(~chi_1+ -> ~chi_10 mu+  nu_mu)
     9.73090650E-01    2     1000022       211             # BR(~chi_1+ -> ~chi_10 pi+)
#
#         PDG            Width
DECAY   1000037     6.09846654E+00   # chargino2+ decays
#          BR         NDA      ID1       ID2
     1.73484036E-03    2     1000002        -1   # BR(~chi_2+ -> ~u_L     db)
     4.91931694E-03    2    -1000001         2   # BR(~chi_2+ -> ~d_L*    u )
     1.73483735E-03    2     1000004        -3   # BR(~chi_2+ -> ~c_L     sb)
     4.91917511E-03    2    -1000003         4   # BR(~chi_2+ -> ~s_L*     c )
     3.31540833E-01    2     1000024        23   # BR(~chi_2+ -> ~chi_1+  Z )
     3.23318630E-01    2     1000022        24   # BR(~chi_2+ -> ~chi_10  W+)
     3.31832368E-01    2     1000024        25   # BR(~chi_2+ -> ~chi_1+  h )
#
#         PDG            Width
DECAY   1000022     0.00000000E+00   # neutralino1 decays
#
#         PDG            Width
DECAY   1000023     4.14649112E+00   # neutralino2 decays
#          BR         NDA      ID1       ID2
     2.10450389E-02    2     1000022        23   # BR(~chi_20 -> ~chi_10   Z )
     3.21390439E-01    2     1000024       -24   # BR(~chi_20 -> ~chi_1+   W-)
     3.21390439E-01    2    -1000024        24   # BR(~chi_20 -> ~chi_1-   W+)
     3.12874742E-01    2     1000022        25   # BR(~chi_20 -> ~chi_10   h )
     5.80914873E-03    2     1000002        -2   # BR(~chi_20 -> ~u_L      ub)
     5.80914873E-03    2    -1000002         2   # BR(~chi_20 -> ~u_L*     u )
     1.57992397E-05    2     1000001        -1   # BR(~chi_20 -> ~d_L      db)
     1.57992397E-05    2    -1000001         1   # BR(~chi_20 -> ~d_L*     d )
     5.80892310E-03    2     1000004        -4   # BR(~chi_20 -> ~c_L      cb)
     5.80892310E-03    2    -1000004         4   # BR(~chi_20 -> ~c_L*     c )
     1.57992397E-05    2     1000003        -3   # BR(~chi_20 -> ~s _L      sb)
     1.57992397E-05    2    -1000003         3   # BR(~chi_20 -> ~s _L*     s )
#
#         PDG            Width
DECAY   1000025     5.91364223E+00   # neutralino3 decays
#          BR         NDA      ID1       ID2
     3.16486831E-01    2     1000022        23   # BR(~chi_30 -> ~chi_10   Z )
     3.30627517E-01    2     1000024       -24   # BR(~chi_30 -> ~chi_1+   W-)
     3.30627517E-01    2    -1000024        24   # BR(~chi_30 -> ~chi_1-   W+)
     2.14024244E-02    2     1000022        25   # BR(~chi_30 -> ~chi_10   h )
     9.11824287E-05    2     1000002        -2   # BR(~chi_30 -> ~u_L      ub)
     9.11824287E-05    2    -1000002         2   # BR(~chi_30 -> ~u_L*     u )
     1.22746413E-04    2     1000001        -1   # BR(~chi_30 -> ~d_L      db)
     1.22746413E-04    2    -1000001         1   # BR(~chi_30 -> ~d_L*     d )
     9.11796990E-05    2     1000004        -4   # BR(~chi_30 -> ~c_L      cb)
     9.11796990E-05    2    -1000004         4   # BR(~chi_30 -> ~c_L*     c )
     1.22746413E-04    2     1000003        -3   # BR(~chi_30 -> ~s _L      sb)
     1.22746413E-04    2    -1000003         3   # BR(~chi_30 -> ~s _L*     s )
#
#         PDG            Width
DECAY   1000035     2.14475311E+00   # neutralino4 decays
#          BR         NDA      ID1       ID2
     2.35290694E-02    2     1000022        23   # BR(~chi_40 -> ~chi_10   Z )
     2.96381135E-01    2     1000024       -24   # BR(~chi_40 -> ~chi_1+   W-)
     2.96381135E-01    2    -1000024        24   # BR(~chi_40 -> ~chi_1-   W+)
     2.85861889E-01    2     1000022        25   # BR(~chi_40 -> ~chi_10   h )
     3.66468969E-03    2     1000002        -2   # BR(~chi_40 -> ~u_L      ub)
     3.66468969E-03    2    -1000002         2   # BR(~chi_40 -> ~u_L*     u )
     2.07970369E-02    2     1000001        -1   # BR(~chi_40 -> ~d_L      db)
     2.07970369E-02    2    -1000001         1   # BR(~chi_40 -> ~d_L*     d )
     3.66462307E-03    2     1000004        -4   # BR(~chi_40 -> ~c_L      cb)
     3.66462307E-03    2    -1000004         4   # BR(~chi_40 -> ~c_L*     c )
     2.07970369E-02    2     1000003        -3   # BR(~chi_40 -> ~s _L      sb)
     2.07970369E-02    2    -1000003         3   # BR(~chi_40 -> ~s _L*     s )
#
#         PDG            Width
DECAY        25     3.78932649E-03   # h decays
#          BR         NDA      ID1       ID2
     5.97518278E-01    2           5        -5   # BR(h -> b       bb     )
     6.80192484E-02    2         -15        15   # BR(h -> tau+    tau-   )
     2.40766233E-04    2         -13        13   # BR(h -> mu+     mu-    )
     2.63287217E-04    2           3        -3   # BR(h -> s       sb     )
     2.27497621E-02    2           4        -4   # BR(h -> c       cb     )
     8.25645731E-02    2          21        21   # BR(h -> g       g      )
     2.41150183E-03    2          22        22   # BR(h -> gam     gam    )
     1.51429755E-03    2          22        23   # BR(h -> Z       gam    )
     2.00120581E-01    2          24       -24   # BR(h -> W+      W-     )
     2.45977048E-02    2          23        23   # BR(h -> Z       Z      )
#
#         PDG            Width
DECAY        35     5.03000762E+01   # H decays
#          BR         NDA      ID1       ID2
     2.34079178E-01    2           5        -5   # BR(H -> b       bb     )
     3.85143869E-02    2         -15        15   # BR(H -> tau+    tau-   )
     1.35771492E-04    2         -13        13   # BR(H -> mu+     mu-    )
     9.76780110E-05    2           3        -3   # BR(H -> s       sb     )
     1.00202765E-07    2           4        -4   # BR(H -> c       cb     )
     9.87298168E-03    2           6        -6   # BR(H -> t       tb     )
     1.66331332E-06    2          21        21   # BR(H -> g       g      )
     8.22769861E-08    2          22        22   # BR(H -> gam     gam    )
     3.46316823E-09    2          23        22   # BR(H -> Z       gam    )
     3.22337038E-06    2          24       -24   # BR(H -> W+      W-     )
     1.60860991E-06    2          23        23   # BR(H -> Z       Z      )
     1.21207989E-05    2          25        25   # BR(H -> h       h      )
     9.68007272E-03    2     1000024  -1000024   # BR(H -> ~chi_1+ ~chi_1-)
     1.57531170E-03    2     1000037  -1000037   # BR(H -> ~chi_2+ ~chi_2-)
     2.15952483E-01    2     1000024  -1000037   # BR(H -> ~chi_1+ ~chi_2-)
     2.15952483E-01    2     1000037  -1000024   # BR(H -> ~chi_2+ ~chi_1-)
     4.89957928E-03    2     1000022   1000022   # BR(H -> ~chi_10 ~chi_10)
     3.72237449E-03    2     1000023   1000023   # BR(H -> ~chi_20 ~chi_20)
     2.22269744E-04    2     1000025   1000025   # BR(H -> ~chi_30 ~chi_30)
     8.71897991E-03    2     1000035   1000035   # BR(H -> ~chi_40 ~chi_40)
     6.03610328E-02    2     1000022   1000023   # BR(H -> ~chi_10 ~chi_20)
     1.34463375E-01    2     1000022   1000025   # BR(H -> ~chi_10 ~chi_30)
     1.94153402E-02    2     1000022   1000035   # BR(H -> ~chi_10 ~chi_40)
     4.34639994E-03    2     1000023   1000025   # BR(H -> ~chi_20 ~chi_30)
     4.73741615E-03    2     1000023   1000035   # BR(H -> ~chi_20 ~chi_40)
     3.32222631E-02    2     1000025   1000035   # BR(H -> ~chi_30 ~chi_40)
     2.39777974E-06    2     1000002  -1000002   # BR(H -> ~u_L    ~u_L*  )
     2.39777974E-06    2     1000004  -1000004   # BR(H -> ~c_L    ~c_L*  )
     3.51311405E-06    2     1000001  -1000001   # BR(H -> ~d_L    ~d_L*  )
     3.51311405E-06    2     1000003  -1000003   # BR(H -> ~s_L    ~s_L*  )
#
#         PDG            Width
DECAY        36     5.02968709E+01   # A decays
#          BR         NDA      ID1       ID2
     2.34118532E-01    2           5        -5   # BR(A -> b       bb     )
     3.85172484E-02    2         -15        15   # BR(A -> tau+    tau-   )
     1.35781437E-04    2         -13        13   # BR(A -> mu+     mu-    )
     9.77099778E-05    2           3        -3   # BR(A -> s       sb     )
     1.00765118E-07    2           4        -4   # BR(A -> c       cb     )
     9.90140950E-03    2           6        -6   # BR(A -> t       tb     )
     1.87013161E-05    2          21        21   # BR(A -> g       g      )
     1.18868069E-07    2          22        22   # BR(A -> gam     gam    )
     1.90573412E-08    2          23        22   # BR(A -> Z       gam    )
     3.26887153E-06    2          23        25   # BR(A -> Z       h      )
     1.26236017E-02    2     1000024  -1000024   # BR(A -> ~chi_1+ ~chi_1-)
     3.98510988E-03    2     1000037  -1000037   # BR(A -> ~chi_2+ ~chi_2-)
     2.13268792E-01    2     1000024  -1000037   # BR(A -> ~chi_1+ ~chi_2-)
     2.13268792E-01    2     1000037  -1000024   # BR(A -> ~chi_2+ ~chi_1-)
     6.39521941E-03    2     1000022   1000022   # BR(A -> ~chi_10 ~chi_10)
     7.61473643E-03    2     1000023   1000023   # BR(A -> ~chi_20 ~chi_20)
     2.88482788E-04    2     1000025   1000025   # BR(A -> ~chi_30 ~chi_30)
     1.97020736E-02    2     1000035   1000035   # BR(A -> ~chi_40 ~chi_40)
     9.72804712E-02    2     1000022   1000023   # BR(A -> ~chi_10 ~chi_20)
     8.21418121E-02    2     1000022   1000025   # BR(A -> ~chi_10 ~chi_30)
     3.30324175E-02    2     1000022   1000035   # BR(A -> ~chi_10 ~chi_40)
     1.92562852E-03    2     1000023   1000025   # BR(A -> ~chi_20 ~chi_30)
     1.00355989E-02    2     1000023   1000035   # BR(A -> ~chi_20 ~chi_40)
     1.56443736E-02    2     1000025   1000035   # BR(A -> ~chi_30 ~chi_40)
#
#         PDG            Width
DECAY        37     5.06870779E+01   # H+ decays
#          BR         NDA      ID1       ID2
     4.03897275E-04    2           4        -5   # BR(H+ -> c       bb     )
     3.82329137E-02    2         -15        16   # BR(H+ -> tau+    nu_tau )
     1.34779097E-04    2         -13        14   # BR(H+ -> mu+     nu_mu  )
     4.03896750E-06    2           2        -5   # BR(H+ -> u       bb     )
     4.85129200E-06    2           2        -3   # BR(H+ -> u       sb     )
     9.55840699E-05    2           4        -3   # BR(H+ -> c       sb     )
     2.49689085E-01    2           6        -5   # BR(H+ -> t       bb     )
     3.24835837E-06    2          24        25   # BR(H+ -> W+      h      )
     4.08607275E-14    2          24        36   # BR(H+ -> W+      A      )
     2.36161019E-07    2     1000024   1000022   # BR(H+ -> ~chi_1+ ~chi_10)
     1.65500422E-01    2     1000024   1000023   # BR(H+ -> ~chi_1+ ~chi_20)
     2.16099567E-01    2     1000024   1000025   # BR(H+ -> ~chi_1+ ~chi_30)
     5.54264162E-02    2     1000024   1000035   # BR(H+ -> ~chi_1+ ~chi_40)
     2.19652733E-01    2     1000037   1000022   # BR(H+ -> ~chi_2+ ~chi_10)
     1.54519055E-02    2     1000037   1000023   # BR(H+ -> ~chi_2+ ~chi_20)
     2.83214427E-03    2     1000037   1000025   # BR(H+ -> ~chi_2+ ~chi_30)
     3.64565750E-02    2     1000037   1000035   # BR(H+ -> ~chi_2+ ~chi_40)
     5.80162632E-06    2     1000002  -1000001   # BR(H+ -> ~u_L    ~d_L*  )
     5.80162632E-06    2     1000004  -1000003   # BR(H+ -> ~c_L    ~s_L*  )
