#
#                              ======================
#                              | THE SUSYHIT OUTPUT |
#                              ======================
#
#
#              ------------------------------------------------------
#              |     This is the output of the SUSY-HIT package     |
#              |  created by A.Djouadi, M.Muehlleitner and M.Spira. |
#              |  In case of problems with SUSY-HIT email to        |
#              |           margarete.muehlleitner@cern.ch           |
#              |           michael.spira@psi.ch                     |
#              |           abdelhak.djouadi@cern.ch                 |
#              ------------------------------------------------------
#
#              ------------------------------------------------------
#              |  SUSY Les Houches Accord - MSSM Spectrum + Decays  |
#              |              based on the decay programs           |
#              |                                                    |
#              |                     SDECAY 1.3b                    |
#              |                                                    |
#              |  Authors: M.Muhlleitner, A.Djouadi and Y.Mambrini  |
#              |  Ref.:    Comput.Phys.Commun.168(2005)46           |
#              |           [hep-ph/0311167]                         |
#              |                                                    |
#              |                     HDECAY 3.4                     |
#              |                                                    |
#              |  By: A.Djouadi,J.Kalinowski,M.Muhlleitner,M.Spira  |
#              |  Ref.:    Comput.Phys.Commun.108(1998)56           |
#              |           [hep-ph/9704448]                         |
#              |                                                    |
#              |                                                    |
#              |  If not stated otherwise all DRbar couplings and   |
#              |  soft SUSY breaking masses are given at the scale  |
#              |  Q=  0.17469300E+04
#              |                                                    |
#              ------------------------------------------------------
#
#
BLOCK DCINFO  # Decay Program information
     1   SDECAY/HDECAY # decay calculator
     2   1.3b  /3.4    # version number
#
BLOCK SPINFO  # Spectrum calculator information
     1     SOFTSUSY    # spectrum calculator               
     2     3.4.0       # version number                    
#
BLOCK MODSEL  # Model selection
     1     0   #  nonUniversal                                     
#
BLOCK SMINPUTS  # Standard Model inputs
         1     1.27908970E+02   # alpha_em^-1(M_Z)^MSbar
         2     1.16637870E-05   # G_F [GeV^-2]
         3     1.18400000E-01   # alpha_S(M_Z)^MSbar
         4     9.11876000E+01   # M_Z pole mass
         5     4.18000000E+00   # mb(mb)^MSbar
         6     1.73200000E+02   # mt pole mass
         7     1.77700000E+00   # mtau pole mass
#
BLOCK MINPAR  # Input parameters - minimal models
         3     2.31700000E+01   # tanb                
#
BLOCK EXTPAR  # Input parameters - non-minimal models
         0    -1.00000000E+00   # Set                 
         1    -6.73480000E+02   # M_1(MX)             
         2     3.08179000E+03   # M_2(MX)             
         3     2.40381000E+03   # M_3(MX)             
        11    -3.22670000E+03   # At(MX)              
        12    -1.66299000E+03   # Ab(MX)              
        13    -2.60906000E+03   # Atau(MX)            
        23     2.83786000E+03   # mu(MX)              
        26     2.22216000E+03   # mA(pole)            
        31     3.08103000E+03   # meL(MX)             
        32     3.08103000E+03   # mmuL(MX)            
        33     2.60851000E+03   # mtauL(MX)           
        34     1.62935000E+03   # meR(MX)             
        35     1.62935000E+03   # mmuR(MX)            
        36     2.37508000E+03   # mtauR(MX)           
        41     1.28893000E+03   # mqL1(MX)            
        42     1.28893000E+03   # mqL2(MX)            
        43     1.90695000E+03   # mqL3(MX)            
        44     6.08630000E+02   # muR(MX)             
        45     6.08630000E+02   # mcR(MX)             
        46     1.60999000E+03   # mtR(MX)             
        47     1.64202000E+03   # mdR(MX)             
        48     1.64202000E+03   # msR(MX)             
        49     2.34730000E+03   # mbR(MX)             
#
BLOCK MASS  # Mass Spectrum
# PDG code           mass       particle
        24     8.03938716E+01   # W+
        25     1.26116149E+02   # h
        35     2.22177782E+03   # H
        36     2.22216000E+03   # A
        37     2.22333662E+03   # H+
         5     4.81876030E+00   # b-quark pole mass calculated from mb(mb)_Msbar
   1000001     1.36413215E+03   # ~d_L
   2000001     1.70827917E+03   # ~d_R
   1000002     1.36196960E+03   # ~u_L
   2000002     6.98730365E+02   # ~u_R
   1000003     1.36413215E+03   # ~s_L
   2000003     1.70827917E+03   # ~s_R
   1000004     1.36196960E+03   # ~c_L
   2000004     6.98730365E+02   # ~c_R
   1000005     1.94381908E+03   # ~b_1
   2000005     2.40370948E+03   # ~b_2
   1000006     1.58737217E+03   # ~t_1
   2000006     1.99627319E+03   # ~t_2
   1000011     3.09225543E+03   # ~e_L
   2000011     1.62863809E+03   # ~e_R
   1000012     3.09093851E+03   # ~nu_eL
   1000013     3.09225543E+03   # ~mu_L
   2000013     1.62863809E+03   # ~mu_R
   1000014     3.09093851E+03   # ~nu_muL
   1000015     2.37137960E+03   # ~tau_1
   2000015     2.62150776E+03   # ~tau_2
   1000016     2.61762089E+03   # ~nu_tauL
   1000021     2.40233092E+03   # ~g
   1000022    -6.67076920E+02   # ~chi_10
   1000023     2.83421896E+03   # ~chi_20
   1000025    -2.85050767E+03   # ~chi_30
   1000035     3.06214315E+03   # ~chi_40
   1000024     2.83460876E+03   # ~chi_1+
   1000037     3.06232059E+03   # ~chi_2+
#
BLOCK NMIX  # Neutralino Mixing Matrix
  1  1     9.99863270E-01   # N_11
  1  2     3.57801856E-05   # N_12
  1  3     1.62730184E-02   # N_13
  1  4     2.93755767E-03   # N_14
  2  1     9.09194153E-03   # N_21
  2  2     2.74730266E-01   # N_22
  2  3    -6.81646227E-01   # N_23
  2  4     6.78084832E-01   # N_24
  3  1    -1.35822963E-02   # N_31
  3  2     8.86519661E-03   # N_32
  3  3     7.06862317E-01   # N_33
  3  4     7.07165182E-01   # N_34
  4  1    -2.50987635E-03   # N_41
  4  2     9.61480467E-01   # N_42
  4  3     1.88253220E-01   # N_43
  4  4    -2.00274157E-01   # N_44
#
BLOCK UMIX  # Chargino Mixing Matrix U
  1  1    -2.58094790E-01   # U_11
  1  2     9.66119599E-01   # U_12
  2  1    -9.66119599E-01   # U_21
  2  2    -2.58094790E-01   # U_22
#
BLOCK VMIX  # Chargino Mixing Matrix V
  1  1    -2.75285473E-01   # V_11
  1  2     9.61362527E-01   # V_12
  2  1    -9.61362527E-01   # V_21
  2  2    -2.75285473E-01   # V_22
#
BLOCK STOPMIX  # Stop Mixing Matrix
  1  1     3.52728042E-01   # cos(theta_t)
  1  2     9.35725883E-01   # sin(theta_t)
  2  1    -9.35725883E-01   # -sin(theta_t)
  2  2     3.52728042E-01   # cos(theta_t)
#
BLOCK SBOTMIX  # Sbottom Mixing Matrix
  1  1     9.97801797E-01   # cos(theta_b)
  1  2     6.62689513E-02   # sin(theta_b)
  2  1    -6.62689513E-02   # -sin(theta_b)
  2  2     9.97801797E-01   # cos(theta_b)
#
BLOCK STAUMIX  # Stau Mixing Matrix
  1  1     1.00354847E-01   # cos(theta_tau)
  1  2     9.94951710E-01   # sin(theta_tau)
  2  1    -9.94951710E-01   # -sin(theta_tau)
  2  2     1.00354847E-01   # cos(theta_tau)
#
BLOCK ALPHA  # Higgs mixing
          -4.48169027E-02   # Mixing angle in the neutral Higgs boson sector
#
BLOCK HMIX Q=  1.74693000E+03  # DRbar Higgs Parameters
         1     2.87078759E+03   # mu(Q)MSSM           
         2     2.23606159E+01   # tan                 
         3     2.43923414E+02   # higgs               
         4     3.37485463E+06   # mA^2(Q)MSSM         
#
BLOCK GAUGE Q=  1.74693000E+03  # The gauge couplings
     1     3.63237748E-01   # gprime(Q) DRbar
     2     6.34470712E-01   # g(Q) DRbar
     3     1.03062795E+00   # g3(Q) DRbar
#
BLOCK AU Q=  1.74693000E+03  # The trilinear couplings
  1  1     0.00000000E+00   # A_u(Q) DRbar
  2  2     0.00000000E+00   # A_c(Q) DRbar
  3  3    -3.22669999E+03   # A_t(Q) DRbar
#
BLOCK AD Q=  1.74693000E+03  # The trilinear couplings
  1  1     0.00000000E+00   # A_d(Q) DRbar
  2  2     0.00000000E+00   # A_s(Q) DRbar
  3  3    -1.66299000E+03   # A_b(Q) DRbar
#
BLOCK AE Q=  1.74693000E+03  # The trilinear couplings
  1  1     0.00000000E+00   # A_e(Q) DRbar
  2  2     0.00000000E+00   # A_mu(Q) DRbar
  3  3    -2.60906000E+03   # A_tau(Q) DRbar
#
BLOCK Yu Q=  1.74693000E+03  # The Yukawa couplings
  1  1     0.00000000E+00   # y_u(Q) DRbar
  2  2     0.00000000E+00   # y_c(Q) DRbar
  3  3     8.24065875E-01   # y_t(Q) DRbar
#
BLOCK Yd Q=  1.74693000E+03  # The Yukawa couplings
  1  1     0.00000000E+00   # y_d(Q) DRbar
  2  2     0.00000000E+00   # y_s(Q) DRbar
  3  3     2.69985080E-01   # y_b(Q) DRbar
#
BLOCK Ye Q=  1.74693000E+03  # The Yukawa couplings
  1  1     0.00000000E+00   # y_e(Q) DRbar
  2  2     0.00000000E+00   # y_mu(Q) DRbar
  3  3     2.40525068E-01   # y_tau(Q) DRbar
#
BLOCK MSOFT Q=  1.74693000E+03  # The soft SUSY breaking masses at the scale Q
         1    -6.73480000E+02   # M_1(Q)              
         2     3.08179000E+03   # M_2(Q)              
         3     2.40381000E+03   # M_3(Q)              
        21    -3.27117873E+06   # mH1^2(Q)            
        22    -8.08792689E+06   # mH2^2(Q)            
        31     3.08103000E+03   # meL(Q)              
        32     3.08103000E+03   # mmuL(Q)             
        33     2.60851000E+03   # mtauL(Q)            
        34     1.62935000E+03   # meR(Q)              
        35     1.62935000E+03   # mmuR(Q)             
        36     2.37508000E+03   # mtauR(Q)            
        41     1.28892999E+03   # mqL1(Q)             
        42     1.28892999E+03   # mqL2(Q)             
        43     1.90694999E+03   # mqL3(Q)             
        44     6.08629988E+02   # muR(Q)              
        45     6.08629988E+02   # mcR(Q)              
        46     1.60998999E+03   # mtR(Q)              
        47     1.64202000E+03   # mdR(Q)              
        48     1.64202000E+03   # msR(Q)              
        49     2.34730000E+03   # mbR(Q)              
#
Block HiggsBoundsInputHiggsCouplingsFermions
# ScalarNormEffCoupSq PseudoSNormEffCoupSq NP   IP1 IP2 IP2
    1.00560666E+00    0.00000000E+00        3  25   5   5  # h0-b-b eff. coupling^2, normalised to SM
    4.99991537E+02    0.00000000E+00        3  35   5   5  # H0-b-b eff. coupling^2, normalised to SM
    0.00000000E+00    4.99997143E+02        3  36   5   5  # A0-b-b eff. coupling^2, normalised to SM
#
    9.99988787E-01    0.00000000E+00        3  25   6   6  # h0-t-t eff. coupling^2, normalised to SM
    2.01122481E-03    0.00000000E+00        3  35   6   6  # H0-t-t eff. coupling^2, normalised to SM
    0.00000000E+00    2.00001143E-03        3  36   6   6  # A0-t-t eff. coupling^2, normalised to SM
#
    1.00560666E+00    0.00000000E+00        3  25  15  15  # h0-tau-tau eff. coupling^2, normalised to SM
    4.99991537E+02    0.00000000E+00        3  35  15  15  # H0-tau-tau eff. coupling^2, normalised to SM
    0.00000000E+00    4.99997143E+02        3  36  15  15  # A0-tau-tau eff. coupling^2, normalised to SM
#
Block HiggsBoundsInputHiggsCouplingsBosons
    9.99999984E-01        3  25  24  24  # h0-W-W eff. coupling^2, normalised to SM
    1.56735797E-08        3  35  24  24  # H0-W-W eff. coupling^2, normalised to SM
    0.00000000E+00        3  36  24  24  # A0-W-W eff. coupling^2, normalised to SM
#
    9.99999984E-01        3  25  23  23  # h0-Z-Z eff. coupling^2, normalised to SM
    1.56735797E-08        3  35  23  23  # H0-Z-Z eff. coupling^2, normalised to SM
    0.00000000E+00        3  36  23  23  # A0-Z-Z eff. coupling^2, normalised to SM
#
    8.74373393E-01        3  25  21  21  # h0-g-g eff. coupling^2, normalised to SM
    7.48788665E-12        3  35  21  21  # H0-g-g eff. coupling^2, normalised to SM
    3.22211185E-11        3  36  21  21  # A0-g-g eff. coupling^2, normalised to SM
#
    0.00000000E+00        3  25  25  23  # h0-h0-Z eff. coupling^2, normalised to SM
    0.00000000E+00        3  35  25  23  # H0-h0-Z eff. coupling^2, normalised to SM
    1.56735797E-08        3  36  25  23  # A0-h0-Z eff. coupling^2, normalised to SM
    0.00000000E+00        3  35  35  23  # H0-H0-Z eff. coupling^2, normalised to SM
    9.99999984E-01        3  36  35  23  # A0-H0-Z eff. coupling^2, normalised to SM
    0.00000000E+00        3  36  36  23  # A0-A0-Z eff. coupling^2, normalised to SM
#
    0.00000000E+00        4  25  21  21  23  # h0-g-g-Z eff. coupling^2, normalised to SM
    0.00000000E+00        4  35  21  21  23  # H0-g-g-Z eff. coupling^2, normalised to SM
    0.00000000E+00        4  36  21  21  23  # A0-g-g-Z eff. coupling^2, normalised to SM
#
#
#
#                             =================
#                             |The decay table|
#                             =================
#
# - The QCD corrections to the decays gluino -> squark  + quark
#                                     squark -> gaugino + quark_prime
#                                     squark -> squark_prime + Higgs
#                                     squark -> gluino  + quark
#   are included.
#
# - The multi-body decays for the inos, stops and sbottoms are included.
#
# - The loop induced decays for the gluino, neutralinos and stops
#   are included.
#
# - The SUSY decays of the top quark are included.
#
#
#         PDG            Width
DECAY         6     1.41755764E+00   # top decays
#          BR         NDA      ID1       ID2
     1.00000000E+00    2           5        24   # BR(t ->  b    W+)
#
#         PDG            Width
DECAY   1000021     2.18364306E+02   # gluino decays
#          BR         NDA      ID1       ID2
     5.09540391E-02    2     1000001        -1   # BR(~g -> ~d_L  db)
     5.09540391E-02    2    -1000001         1   # BR(~g -> ~d_L* d )
     2.71235446E-02    2     2000001        -1   # BR(~g -> ~d_R  db)
     2.71235446E-02    2    -2000001         1   # BR(~g -> ~d_R* d )
     5.11077943E-02    2     1000002        -2   # BR(~g -> ~u_L  ub)
     5.11077943E-02    2    -1000002         2   # BR(~g -> ~u_L* u )
     9.30050247E-02    2     2000002        -2   # BR(~g -> ~u_R  ub)
     9.30050247E-02    2    -2000002         2   # BR(~g -> ~u_R* u )
     5.09540391E-02    2     1000003        -3   # BR(~g -> ~s_L  sb)
     5.09540391E-02    2    -1000003         3   # BR(~g -> ~s_L* s )
     2.71235446E-02    2     2000003        -3   # BR(~g -> ~s_R  sb)
     2.71235446E-02    2    -2000003         3   # BR(~g -> ~s_R* s )
     5.11077611E-02    2     1000004        -4   # BR(~g -> ~c_L  cb)
     5.11077611E-02    2    -1000004         4   # BR(~g -> ~c_L* c )
     9.30050160E-02    2     2000004        -4   # BR(~g -> ~c_R  cb)
     9.30050160E-02    2    -2000004         4   # BR(~g -> ~c_R* c )
     1.33679419E-02    2     1000005        -5   # BR(~g -> ~b_1  bb)
     1.33679419E-02    2    -1000005         5   # BR(~g -> ~b_1* b )
     2.93866603E-02    2     1000006        -6   # BR(~g -> ~t_1  tb)
     2.93866603E-02    2    -1000006         6   # BR(~g -> ~t_1* t )
     1.28646344E-02    2     2000006        -6   # BR(~g -> ~t_2  tb)
     1.28646344E-02    2    -2000006         6   # BR(~g -> ~t_2* t )
#
#         PDG            Width
DECAY   1000006     2.08330610E+00   # stop1 decays
#          BR         NDA      ID1       ID2
     1.00000000E+00    2     1000022         6   # BR(~t_1 -> ~chi_10 t )
#
#         PDG            Width
DECAY   2000006     2.09829119E+01   # stop2 decays
#          BR         NDA      ID1       ID2
     3.32707240E-02    2     1000022         6   # BR(~t_2 -> ~chi_10 t )
     3.59195333E-01    2     1000006        25   # BR(~t_2 -> ~t_1    h )
     6.07533943E-01    2     1000006        23   # BR(~t_2 -> ~t_1    Z )
#
#         PDG            Width
DECAY   1000005     1.94807082E+01   # sbottom1 decays
#          BR         NDA      ID1       ID2
     1.17354262E-02    2     1000022         5   # BR(~b_1 -> ~chi_10 b )
     9.88264574E-01    2     1000006       -24   # BR(~b_1 -> ~t_1    W-)
#
#         PDG            Width
DECAY   2000005     4.56067871E+00   # sbottom2 decays
#          BR         NDA      ID1       ID2
     2.59800643E-01    2     1000022         5   # BR(~b_2 -> ~chi_10 b )
     1.88117367E-01    2     1000005        25   # BR(~b_2 -> ~b_1    h )
     1.65977919E-01    2     1000005        23   # BR(~b_2 -> ~b_1    Z )
     1.82041207E-01    2     1000006       -24   # BR(~b_2 -> ~t_1    W-)
     2.04062864E-01    2     2000006       -24   # BR(~b_2 -> ~t_2    W-)
#
#         PDG            Width
DECAY   1000002     1.16105009E-01   # sup_L decays
#          BR         NDA      ID1       ID2
     1.00000000E+00    2     1000022         2   # BR(~u_L -> ~chi_10 u)
#
#         PDG            Width
DECAY   2000002     1.42265670E-02   # sup_R decays
#          BR         NDA      ID1       ID2
     1.00000000E+00    2     1000022         2   # BR(~u_R -> ~chi_10 u)
#
#         PDG            Width
DECAY   1000001     1.16423367E-01   # sdown_L decays
#          BR         NDA      ID1       ID2
     1.00000000E+00    2     1000022         1   # BR(~d_L -> ~chi_10 d)
#
#         PDG            Width
DECAY   2000001     7.13667944E-01   # sdown_R decays
#          BR         NDA      ID1       ID2
     1.00000000E+00    2     1000022         1   # BR(~d_R -> ~chi_10 d)
#
#         PDG            Width
DECAY   1000004     1.14762195E-01   # scharm_L decays
#          BR         NDA      ID1       ID2
     1.00000000E+00    2     1000022         4   # BR(~c_L -> ~chi_10 c)
#
#         PDG            Width
DECAY   2000004     1.27637103E-02   # scharm_R decays
#          BR         NDA      ID1       ID2
     1.00000000E+00    2     1000022         4   # BR(~c_R -> ~chi_10 c)
#
#         PDG            Width
DECAY   1000003     1.15088579E-01   # sstrange_L decays
#          BR         NDA      ID1       ID2
     1.00000000E+00    2     1000022         3   # BR(~s_L -> ~chi_10 s)
#
#         PDG            Width
DECAY   2000003     7.15536706E-01   # sstrange_R decays
#          BR         NDA      ID1       ID2
     1.00000000E+00    2     1000022         3   # BR(~s_R -> ~chi_10 s)
#
#         PDG            Width
DECAY   1000011     3.76868735E+00   # selectron_L decays
#          BR         NDA      ID1       ID2
     9.78836808E-01    2     1000022        11   # BR(~e_L -> ~chi_10 e-)
     6.58533572E-03    2     1000023        11   # BR(~e_L -> ~chi_20 e-)
     8.79981689E-08    2     1000025        11   # BR(~e_L -> ~chi_30 e-)
     1.13748978E-03    2     1000035        11   # BR(~e_L -> ~chi_40 e-)
     1.11633517E-02    2    -1000024        12   # BR(~e_L -> ~chi_1- nu_e)
     2.27692675E-03    2    -1000037        12   # BR(~e_L -> ~chi_2- nu_e)
#
#         PDG            Width
DECAY   2000011     5.92024034E+00   # selectron_R decays
#          BR         NDA      ID1       ID2
     1.00000000E+00    2     1000022        11   # BR(~e_R -> ~chi_10 e-)
#
#         PDG            Width
DECAY   1000013     3.76868731E+00   # smuon_L decays
#          BR         NDA      ID1       ID2
     9.78836816E-01    2     1000022        13   # BR(~mu_L -> ~chi_10 mu-)
     6.58533519E-03    2     1000023        13   # BR(~mu_L -> ~chi_20 mu-)
     8.79981607E-08    2     1000025        13   # BR(~mu_L -> ~chi_30 mu-)
     1.13748272E-03    2     1000035        13   # BR(~mu_L -> ~chi_40 mu-)
     1.11633518E-02    2    -1000024        14   # BR(~mu_L -> ~chi_1- nu_mu)
     2.27692677E-03    2    -1000037        14   # BR(~mu_L -> ~chi_2- nu_mu)
#
#         PDG            Width
DECAY   2000013     5.92024027E+00   # smuon_R decays
#          BR         NDA      ID1       ID2
     1.00000000E+00    2     1000022        13   # BR(~mu_R -> ~chi_10 mu-)
#
#         PDG            Width
DECAY   1000015     1.04825649E+01   # stau_1 decays
#          BR         NDA      ID1       ID2
     1.00000000E+00    2     1000022        15   # BR(~tau_1 -> ~chi_10  tau-)
#
#         PDG            Width
DECAY   2000015     3.66447780E+00   # stau_2 decays
#          BR         NDA      ID1       ID2
     8.43735765E-01    2     1000022        15   # BR(~tau_2 -> ~chi_10  tau-)
     8.03747172E-02    2     1000015        25   # BR(~tau_2 -> ~tau_1   h)
     7.58895181E-02    2     1000015        23   # BR(~tau_2 -> ~tau_1   Z)
#
#         PDG            Width
DECAY   1000012     3.76813105E+00   # snu_eL decays
#          BR         NDA      ID1       ID2
     9.78238363E-01    2     1000022        12   # BR(~nu_eL -> ~chi_10 nu_e)
     6.04842456E-03    2     1000023        12   # BR(~nu_eL -> ~chi_20 nu_e)
     2.03355808E-05    2     1000025        12   # BR(~nu_eL -> ~chi_30 nu_e)
     1.04745325E-03    2     1000035        12   # BR(~nu_eL -> ~chi_40 nu_e)
     1.25828135E-02    2     1000024        11   # BR(~nu_eL -> ~chi_1+ e-)
     2.06261002E-03    2     1000037        11   # BR(~nu_eL -> ~chi_2+ e-)
#
#         PDG            Width
DECAY   1000014     3.76813099E+00   # snu_muL decays
#          BR         NDA      ID1       ID2
     9.78238378E-01    2     1000022        14   # BR(~nu_muL -> ~chi_10 nu_mu)
     6.04842465E-03    2     1000023        14   # BR(~nu_muL -> ~chi_20 nu_mu)
     2.03355812E-05    2     1000025        14   # BR(~nu_muL -> ~chi_30 nu_mu)
     1.04745327E-03    2     1000035        14   # BR(~nu_muL -> ~chi_40 nu_mu)
     1.25828125E-02    2     1000024        13   # BR(~nu_muL -> ~chi_1+ mu-)
     2.06259587E-03    2     1000037        13   # BR(~nu_muL -> ~chi_2+ mu-)
#
#         PDG            Width
DECAY   1000016     3.54701207E+00   # snu_tauL decays
#          BR         NDA      ID1       ID2
     8.46502909E-01    2     1000022        16   # BR(~nu_tauL -> ~chi_10 nu_tau)
     1.53497091E-01    2    -1000015       -24   # BR(~nu_tauL -> ~tau_1+ W-)
#
#         PDG            Width
DECAY   1000024     5.21240031E+01   # chargino1+ decays
#          BR         NDA      ID1       ID2
     2.80778566E-02    2     1000002        -1   # BR(~chi_1+ -> ~u_L     db)
     2.46341230E-02    2    -1000001         2   # BR(~chi_1+ -> ~d_L*    u )
     2.80778561E-02    2     1000004        -3   # BR(~chi_1+ -> ~c_L     sb)
     2.46341166E-02    2    -1000003         4   # BR(~chi_1+ -> ~s_L*     c )
     4.99946967E-01    2     1000006        -5   # BR(~chi_1+ -> ~t_1     bb)
     2.99505714E-02    2     2000006        -5   # BR(~chi_1+ -> ~t_2     bb)
     3.25031087E-01    2    -1000005         6   # BR(~chi_1+ -> ~b_1*    t )
     6.37980626E-03    2    -2000005         6   # BR(~chi_1+ -> ~b_2*    t )
     9.99099295E-04    2     1000016       -15   # BR(~chi_1+ -> ~nu_tau1 tau+)
     2.98820202E-03    2    -1000015        16   # BR(~chi_1+ -> ~tau_1+  nu_tau)
     2.20767296E-04    2    -2000015        16   # BR(~chi_1+ -> ~tau_2+  nu_tau)
     2.90595470E-02    2     1000022        24   # BR(~chi_1+ -> ~chi_10  W+)
#
#         PDG            Width
DECAY   1000037     1.16368405E+02   # chargino2+ decays
#          BR         NDA      ID1       ID2
     1.80356777E-01    2     1000002        -1   # BR(~chi_2+ -> ~u_L     db)
     1.81864175E-01    2    -1000001         2   # BR(~chi_2+ -> ~d_L*    u )
     1.80356775E-01    2     1000004        -3   # BR(~chi_2+ -> ~c_L     sb)
     1.81864143E-01    2    -1000003         4   # BR(~chi_2+ -> ~s_L*     c )
     2.56937957E-04    2     1000006        -5   # BR(~chi_2+ -> ~t_1     bb)
     1.10959596E-01    2     2000006        -5   # BR(~chi_2+ -> ~t_2     bb)
     1.02246917E-01    2    -1000005         6   # BR(~chi_2+ -> ~b_1*    t )
     1.28182330E-03    2    -2000005         6   # BR(~chi_2+ -> ~b_2*    t )
     7.13226177E-03    2     1000016       -15   # BR(~chi_2+ -> ~nu_tau1 tau+)
     2.62024499E-09    2    -1000015        16   # BR(~chi_2+ -> ~tau_1+  nu_tau)
     7.09283633E-03    2    -2000015        16   # BR(~chi_2+ -> ~tau_2+  nu_tau)
     1.17910788E-02    2     1000024        23   # BR(~chi_2+ -> ~chi_1+  Z )
     1.23055240E-03    2     1000022        24   # BR(~chi_2+ -> ~chi_10  W+)
     1.38162163E-02    2     1000023        24   # BR(~chi_2+ -> ~chi_20  W+)
     1.02750883E-02    2     1000025        24   # BR(~chi_2+ -> ~chi_30  W+)
     9.33995895E-03    2     1000024        25   # BR(~chi_2+ -> ~chi_1+  h )
     1.34859584E-04    2     1000022        37   # BR(~chi_2+ -> ~chi_10  H+)
#
#         PDG            Width
DECAY   1000022     0.00000000E+00   # neutralino1 decays
#
#         PDG            Width
DECAY   1000023     5.30484356E+01   # neutralino2 decays
#          BR         NDA      ID1       ID2
     1.97655752E-02    2     1000022        23   # BR(~chi_20 -> ~chi_10   Z )
     9.61671648E-03    2     1000022        25   # BR(~chi_20 -> ~chi_10   h )
     1.39085687E-02    2     1000002        -2   # BR(~chi_20 -> ~u_L      ub)
     1.39085687E-02    2    -1000002         2   # BR(~chi_20 -> ~u_L*     u )
     1.30017949E-05    2     2000002        -2   # BR(~chi_20 -> ~u_R      ub)
     1.30017949E-05    2    -2000002         2   # BR(~chi_20 -> ~u_R*     u )
     1.35360550E-02    2     1000001        -1   # BR(~chi_20 -> ~d_L      db)
     1.35360550E-02    2    -1000001         1   # BR(~chi_20 -> ~d_L*     d )
     1.50923599E-06    2     2000001        -1   # BR(~chi_20 -> ~d_R      db)
     1.50923599E-06    2    -2000001         1   # BR(~chi_20 -> ~d_R*     d )
     1.39085651E-02    2     1000004        -4   # BR(~chi_20 -> ~c_L      cb)
     1.39085651E-02    2    -1000004         4   # BR(~chi_20 -> ~c_L*     c )
     1.30017943E-05    2     2000004        -4   # BR(~chi_20 -> ~c_R      cb)
     1.30017943E-05    2    -2000004         4   # BR(~chi_20 -> ~c_R*     c )
     1.35360550E-02    2     1000003        -3   # BR(~chi_20 -> ~s _L      sb)
     1.35360550E-02    2    -1000003         3   # BR(~chi_20 -> ~s _L*     s )
     1.50923599E-06    2     2000003        -3   # BR(~chi_20 -> ~s _R      sb)
     1.50923599E-06    2    -2000003         3   # BR(~chi_20 -> ~s _R*     s )
     2.97185787E-01    2     1000006        -6   # BR(~chi_20 -> ~t_1      tb)
     2.97185787E-01    2    -1000006         6   # BR(~chi_20 -> ~t_1*     t )
     1.03941979E-01    2     2000006        -6   # BR(~chi_20 -> ~t_2      tb)
     1.03941979E-01    2    -2000006         6   # BR(~chi_20 -> ~t_2*     t )
     2.32831440E-02    2     1000005        -5   # BR(~chi_20 -> ~b_1      bb)
     2.32831440E-02    2    -1000005         5   # BR(~chi_20 -> ~b_1*     b )
     3.88658213E-03    2     2000005        -5   # BR(~chi_20 -> ~b_2      bb)
     3.88658213E-03    2    -2000005         5   # BR(~chi_20 -> ~b_2*     b )
     5.20081293E-06    2     2000011       -11   # BR(~chi_20 -> ~e_R-     e+)
     5.20081293E-06    2    -2000011        11   # BR(~chi_20 -> ~e_R+     e-)
     5.20081293E-06    2     2000013       -13   # BR(~chi_20 -> ~mu_R-    mu+)
     5.20081293E-06    2    -2000013        13   # BR(~chi_20 -> ~mu_R+    mu-)
     1.48392404E-03    2     1000015       -15   # BR(~chi_20 -> ~tau_1-   tau+)
     1.48392404E-03    2    -1000015        15   # BR(~chi_20 -> ~tau_1+   tau-)
     4.30846075E-04    2     2000015       -15   # BR(~chi_20 -> ~tau_2-   tau+)
     4.30846075E-04    2    -2000015        15   # BR(~chi_20 -> ~tau_2+   tau-)
     1.67924574E-04    2     1000016       -16   # BR(~chi_20 -> ~nu_tau1  nu_taub)
     1.67924574E-04    2    -1000016        16   # BR(~chi_20 -> ~nu_tau1* nu_tau )
#
#         PDG            Width
DECAY   1000025     4.55672101E+01   # neutralino3 decays
#          BR         NDA      ID1       ID2
     1.22116381E-02    2     1000022        23   # BR(~chi_30 -> ~chi_10   Z )
     2.67928827E-02    2     1000022        25   # BR(~chi_30 -> ~chi_10   h )
     8.44228233E-06    2     1000002        -2   # BR(~chi_30 -> ~u_L      ub)
     8.44228233E-06    2    -1000002         2   # BR(~chi_30 -> ~u_L*     u )
     3.40259601E-05    2     2000002        -2   # BR(~chi_30 -> ~u_R      ub)
     3.40259601E-05    2    -2000002         2   # BR(~chi_30 -> ~u_R*     u )
     2.81078222E-05    2     1000001        -1   # BR(~chi_30 -> ~d_L      db)
     2.81078222E-05    2    -1000001         1   # BR(~chi_30 -> ~d_L*     d )
     3.99475202E-06    2     2000001        -1   # BR(~chi_30 -> ~d_R      db)
     3.99475202E-06    2    -2000001         1   # BR(~chi_30 -> ~d_R*     d )
     8.44228020E-06    2     1000004        -4   # BR(~chi_30 -> ~c_L      cb)
     8.44228020E-06    2    -1000004         4   # BR(~chi_30 -> ~c_L*     c )
     3.40259585E-05    2     2000004        -4   # BR(~chi_30 -> ~c_R      cb)
     3.40259585E-05    2    -2000004         4   # BR(~chi_30 -> ~c_R*     c )
     2.81078222E-05    2     1000003        -3   # BR(~chi_30 -> ~s _L      sb)
     2.81078222E-05    2    -1000003         3   # BR(~chi_30 -> ~s _L*     s )
     3.99475202E-06    2     2000003        -3   # BR(~chi_30 -> ~s _R      sb)
     3.99475202E-06    2    -2000003         3   # BR(~chi_30 -> ~s _R*     s )
     2.67281391E-01    2     1000006        -6   # BR(~chi_30 -> ~t_1      tb)
     2.67281391E-01    2    -1000006         6   # BR(~chi_30 -> ~t_1*     t )
     1.85835793E-01    2     2000006        -6   # BR(~chi_30 -> ~t_2      tb)
     1.85835793E-01    2    -2000006         6   # BR(~chi_30 -> ~t_2*     t )
     1.93626688E-02    2     1000005        -5   # BR(~chi_30 -> ~b_1      bb)
     1.93626688E-02    2    -1000005         5   # BR(~chi_30 -> ~b_1*     b )
     5.71567367E-03    2     2000005        -5   # BR(~chi_30 -> ~b_2      bb)
     5.71567367E-03    2    -2000005         5   # BR(~chi_30 -> ~b_2*     b )
     1.37429356E-05    2     2000011       -11   # BR(~chi_30 -> ~e_R-     e+)
     1.37429356E-05    2    -2000011        11   # BR(~chi_30 -> ~e_R+     e-)
     1.37429356E-05    2     2000013       -13   # BR(~chi_30 -> ~mu_R-    mu+)
     1.37429356E-05    2    -2000013        13   # BR(~chi_30 -> ~mu_R+    mu-)
     1.69247434E-03    2     1000015       -15   # BR(~chi_30 -> ~tau_1-   tau+)
     1.69247434E-03    2    -1000015        15   # BR(~chi_30 -> ~tau_1+   tau-)
     4.32259419E-04    2     2000015       -15   # BR(~chi_30 -> ~tau_2-   tau+)
     4.32259419E-04    2    -2000015        15   # BR(~chi_30 -> ~tau_2+   tau-)
     8.51936103E-07    2     1000016       -16   # BR(~chi_30 -> ~nu_tau1  nu_taub)
     8.51936103E-07    2    -1000016        16   # BR(~chi_30 -> ~nu_tau1* nu_tau )
#
#         PDG            Width
DECAY   1000035     1.15695062E+02   # neutralino4 decays
#          BR         NDA      ID1       ID2
     9.13286761E-04    2     1000022        23   # BR(~chi_40 -> ~chi_10   Z )
     1.58106614E-05    2     1000023        23   # BR(~chi_40 -> ~chi_20   Z )
     1.04601822E-02    2     1000025        23   # BR(~chi_40 -> ~chi_30   Z )
     1.13738160E-02    2     1000024       -24   # BR(~chi_40 -> ~chi_1+   W-)
     1.13738160E-02    2    -1000024        24   # BR(~chi_40 -> ~chi_1-   W+)
     4.53485520E-04    2     1000022        25   # BR(~chi_40 -> ~chi_10   h )
     9.71686864E-06    2     1000022        35   # BR(~chi_40 -> ~chi_10   H )
     1.36778498E-04    2     1000022        36   # BR(~chi_40 -> ~chi_10   A )
     9.17103401E-03    2     1000023        25   # BR(~chi_40 -> ~chi_20   h )
     7.30529739E-06    2     1000025        25   # BR(~chi_40 -> ~chi_30   h )
     9.06246144E-02    2     1000002        -2   # BR(~chi_40 -> ~u_L      ub)
     9.06246144E-02    2    -1000002         2   # BR(~chi_40 -> ~u_L*     u )
     5.00645972E-07    2     2000002        -2   # BR(~chi_40 -> ~u_R      ub)
     5.00645972E-07    2    -2000002         2   # BR(~chi_40 -> ~u_R*     u )
     9.06648103E-02    2     1000001        -1   # BR(~chi_40 -> ~d_L      db)
     9.06648103E-02    2    -1000001         1   # BR(~chi_40 -> ~d_L*     d )
     6.66391259E-08    2     2000001        -1   # BR(~chi_40 -> ~d_R      db)
     6.66391259E-08    2    -2000001         1   # BR(~chi_40 -> ~d_R*     d )
     9.06245986E-02    2     1000004        -4   # BR(~chi_40 -> ~c_L      cb)
     9.06245986E-02    2    -1000004         4   # BR(~chi_40 -> ~c_L*     c )
     5.00645955E-07    2     2000004        -4   # BR(~chi_40 -> ~c_R      cb)
     5.00645955E-07    2    -2000004         4   # BR(~chi_40 -> ~c_R*     c )
     9.06648103E-02    2     1000003        -3   # BR(~chi_40 -> ~s _L      sb)
     9.06648103E-02    2    -1000003         3   # BR(~chi_40 -> ~s _L*     s )
     6.66391259E-08    2     2000003        -3   # BR(~chi_40 -> ~s _R      sb)
     6.66391259E-08    2    -2000003         3   # BR(~chi_40 -> ~s _R*     s )
     1.40740147E-03    2     1000006        -6   # BR(~chi_40 -> ~t_1      tb)
     1.40740147E-03    2    -1000006         6   # BR(~chi_40 -> ~t_1*     t )
     5.41479084E-02    2     2000006        -6   # BR(~chi_40 -> ~t_2      tb)
     5.41479084E-02    2    -2000006         6   # BR(~chi_40 -> ~t_2*     t )
     5.20530594E-02    2     1000005        -5   # BR(~chi_40 -> ~b_1      bb)
     5.20530594E-02    2    -1000005         5   # BR(~chi_40 -> ~b_1*     b )
     7.33011707E-04    2     2000005        -5   # BR(~chi_40 -> ~b_2      bb)
     7.33011707E-04    2    -2000005         5   # BR(~chi_40 -> ~b_2*     b )
     2.25068272E-07    2     2000011       -11   # BR(~chi_40 -> ~e_R-     e+)
     2.25068272E-07    2    -2000011        11   # BR(~chi_40 -> ~e_R+     e-)
     2.25068272E-07    2     2000013       -13   # BR(~chi_40 -> ~mu_R-    mu+)
     2.25068272E-07    2    -2000013        13   # BR(~chi_40 -> ~mu_R+    mu-)
     5.90882891E-07    2     1000015       -15   # BR(~chi_40 -> ~tau_1-   tau+)
     5.90882891E-07    2    -1000015        15   # BR(~chi_40 -> ~tau_1+   tau-)
     3.55771699E-03    2     2000015       -15   # BR(~chi_40 -> ~tau_2-   tau+)
     3.55771699E-03    2    -2000015        15   # BR(~chi_40 -> ~tau_2+   tau-)
     3.56227704E-03    2     1000016       -16   # BR(~chi_40 -> ~nu_tau1  nu_taub)
     3.56227704E-03    2    -1000016        16   # BR(~chi_40 -> ~nu_tau1* nu_tau )
#
#         PDG            Width
DECAY        25     4.92598068E-03   # h decays
#          BR         NDA      ID1       ID2
     6.42396860E-01    2           5        -5   # BR(h -> b       bb     )
     5.32823220E-02    2         -15        15   # BR(h -> tau+    tau-   )
     1.88598286E-04    2         -13        13   # BR(h -> mu+     mu-    )
     2.05221593E-04    2           3        -3   # BR(h -> s       sb     )
     1.77325100E-02    2           4        -4   # BR(h -> c       cb     )
     6.59626508E-02    2          21        21   # BR(h -> g       g      )
     1.99036260E-03    2          22        22   # BR(h -> gam     gam    )
     1.39952642E-03    2          22        23   # BR(h -> Z       gam    )
     1.92393499E-01    2          24       -24   # BR(h -> W+      W-     )
     2.44484488E-02    2          23        23   # BR(h -> Z       Z      )
#
#         PDG            Width
DECAY        35     1.46634727E+01   # H decays
#          BR         NDA      ID1       ID2
     8.41562119E-01    2           5        -5   # BR(H -> b       bb     )
     1.44940375E-01    2         -15        15   # BR(H -> tau+    tau-   )
     5.14961782E-04    2         -13        13   # BR(H -> mu+     mu-    )
     1.85052346E-04    2           3        -3   # BR(H -> s       sb     )
     1.30249359E-07    2           4        -4   # BR(H -> c       cb     )
     1.26781009E-02    2           6        -6   # BR(H -> t       tb     )
     3.77512955E-05    2          21        21   # BR(H -> g       g      )
     5.36523570E-08    2          22        22   # BR(H -> gam     gam    )
     1.06768904E-08    2          23        22   # BR(H -> Z       gam    )
     3.75286449E-06    2          24       -24   # BR(H -> W+      W-     )
     1.87027820E-06    2          23        23   # BR(H -> Z       Z      )
     2.29713956E-05    2          25        25   # BR(H -> h       h      )
     5.05606230E-05    2     1000022   1000022   # BR(H -> ~chi_10 ~chi_10)
     1.14460166E-06    2     2000002  -2000002   # BR(H -> ~u_R    ~u_R*  )
     1.14460166E-06    2     2000004  -2000004   # BR(H -> ~c_R    ~c_R*  )
#
#         PDG            Width
DECAY        36     1.46693700E+01   # A decays
#          BR         NDA      ID1       ID2
     8.41417102E-01    2           5        -5   # BR(A -> b       bb     )
     1.44909091E-01    2         -15        15   # BR(A -> tau+    tau-   )
     5.14849302E-04    2         -13        13   # BR(A -> mu+     mu-    )
     1.85034348E-04    2           3        -3   # BR(A -> s       sb     )
     1.30684152E-07    2           4        -4   # BR(A -> c       cb     )
     1.28149798E-02    2           6        -6   # BR(A -> t       tb     )
     7.83518039E-05    2          21        21   # BR(A -> g       g      )
     6.35608402E-08    2          22        22   # BR(A -> gam     gam    )
     5.87673564E-08    2          23        22   # BR(A -> Z       gam    )
     3.79093991E-06    2          23        25   # BR(A -> Z       h      )
     7.65480712E-05    2     1000022   1000022   # BR(A -> ~chi_10 ~chi_10)
#
#         PDG            Width
DECAY        37     1.11889353E+01   # H+ decays
#          BR         NDA      ID1       ID2
     1.33388193E-03    2           4        -5   # BR(H+ -> c       bb     )
     1.90085166E-01    2         -15        16   # BR(H+ -> tau+    nu_tau )
     6.75355938E-04    2         -13        14   # BR(H+ -> mu+     nu_mu  )
     1.33387888E-05    2           2        -5   # BR(H+ -> u       bb     )
     1.21255384E-05    2           2        -3   # BR(H+ -> u       sb     )
     2.38831581E-04    2           4        -3   # BR(H+ -> c       sb     )
     8.07636316E-01    2           6        -5   # BR(H+ -> t       bb     )
     4.98379000E-06    2          24        25   # BR(H+ -> W+      h      )
     2.65125033E-13    2          24        36   # BR(H+ -> W+      A      )
