#
#                              ======================
#                              | THE SUSYHIT OUTPUT |
#                              ======================
#
#
#              ------------------------------------------------------
#              |     This is the output of the SUSY-HIT package     |
#              |  created by A.Djouadi, M.Muehlleitner and M.Spira. |
#              |  In case of problems with SUSY-HIT email to        |
#              |           margarete.muehlleitner@cern.ch           |
#              |           michael.spira@psi.ch                     |
#              |           abdelhak.djouadi@cern.ch                 |
#              ------------------------------------------------------
#
#              ------------------------------------------------------
#              |  SUSY Les Houches Accord - MSSM Spectrum + Decays  |
#              |              based on the decay programs           |
#              |                                                    |
#              |                     SDECAY 1.3b                    |
#              |                                                    |
#              |  Authors: M.Muhlleitner, A.Djouadi and Y.Mambrini  |
#              |  Ref.:    Comput.Phys.Commun.168(2005)46           |
#              |           [hep-ph/0311167]                         |
#              |                                                    |
#              |                     HDECAY 3.4                     |
#              |                                                    |
#              |  By: A.Djouadi,J.Kalinowski,M.Muhlleitner,M.Spira  |
#              |  Ref.:    Comput.Phys.Commun.108(1998)56           |
#              |           [hep-ph/9704448]                         |
#              |                                                    |
#              |                                                    |
#              |  If not stated otherwise all DRbar couplings and   |
#              |  soft SUSY breaking masses are given at the scale  |
#              |  Q=  0.91187600E+02
#              |                                                    |
#              ------------------------------------------------------
#
#
BLOCK DCINFO  # Decay Program information
     1   SDECAY/HDECAY # decay calculator
     2   1.3b  /3.4    # version number
#
BLOCK SPINFO  # Spectrum calculator information
     1   SuSpect     # RGE +Spectrum calculator            
     2   2.41         # version number                     
#
BLOCK MODSEL  # Model selection
     1     0   # #general MSSM low scale                           
#
BLOCK SMINPUTS  # Standard Model inputs
         1     1.27934000E+02   # alpha_em^-1(M_Z)^MSbar
         2     1.16639000E-05   # G_F [GeV^-2]
         3     1.17200000E-01   # alpha_S(M_Z)^MSbar
         4     9.11870000E+01   # M_Z pole mass
         5     4.25000000E+00   # mb(mb)^MSbar
         6     1.75000000E+02   # mt pole mass
         7     1.77700000E+00   # mtau pole mass
#
BLOCK MINPAR  # Input parameters - minimal models
#
BLOCK EXTPAR  # Input parameters - non-minimal models
         0     9.11876000E+01   # EWSB                
         1     2.34000000E+02   # M_1                 
         2     2.50000000E+03   # M_2                 
         3     2.50000000E+03   # M_3                 
        11     0.00000000E+00   # A_t                 
        12     0.00000000E+00   # A_b                 
        13     0.00000000E+00   # A_tau               
        14     0.00000000E+00   # A_u                 
        15     0.00000000E+00   # A_d                 
        16     0.00000000E+00   # A_e                 
        23    -2.00000000E+02   # mu(EWSB)            
        25     1.50000000E+00   # tanbeta(in)         
        26     2.00000000E+03   # MA_pole             
        31     2.50000000E+03   # M_eL                
        32     2.50000000E+03   # M_muL               
        33     2.50000000E+03   # M_tauL              
        34     2.50000000E+03   # M_eR                
        35     2.50000000E+03   # M_muR               
        36     2.50000000E+03   # M_tauR              
        41     1.50000000E+03   # M_q1L               
        42     1.50000000E+03   # M_q2L               
        43     1.50000000E+03   # M_q3L               
        44     2.50000000E+03   # M_uR                
        45     2.50000000E+03   # M_cR                
        46     2.50000000E+03   # M_tR                
        47     1.50000000E+03   # M_dR                
        48     1.50000000E+03   # M_sR                
        49     1.52500000E+03   # M_bR                
#
BLOCK MASS  # Mass Spectrum
# PDG code           mass       particle
        24     8.05458455E+01   # W+
        25     1.26000000E+02   # h
        35     2.00406107E+03   # H
        36     2.00000000E+03   # A
        37     2.00205876E+03   # H+
         5     4.87877839E+00   # b-quark pole mass calculated from mb(mb)_Msbar
   1000001     1.50044944E+03   # ~d_L
   2000001     1.50008469E+03   # ~d_R
   1000002     1.49963515E+03   # ~u_L
   2000002     2.49989836E+03   # ~u_R
   1000003     1.50044944E+03   # ~s_L
   2000003     1.50008469E+03   # ~s_R
   1000004     1.49963515E+03   # ~c_L
   2000004     2.49989836E+03   # ~c_R
   1000005     1.50044892E+03   # ~b_1
   2000005     1.52508870E+03   # ~b_2
   1000006     1.50781710E+03   # ~t_1
   2000006     2.50485894E+03   # ~t_2
   1000011     2.50016806E+03   # ~e_L
   2000011     2.50015245E+03   # ~e_R
   1000012     2.49967946E+03   # ~nu_eL
   1000013     2.50016806E+03   # ~mu_L
   2000013     2.50015245E+03   # ~mu_R
   1000014     2.49967946E+03   # ~nu_muL
   1000015     2.50005403E+03   # ~tau_1
   2000015     2.50026773E+03   # ~tau_2
   1000016     2.49967946E+03   # ~nu_tauL
   1000021     2.50000000E+03   # ~g
   1000022     1.98046802E+02   # ~chi_10
   1000023    -2.06586082E+02   # ~chi_20
   1000025     2.40172408E+02   # ~chi_30
   1000035     2.50236687E+03   # ~chi_40
   1000024     2.02153876E+02   # ~chi_1+
   1000037     2.50236629E+03   # ~chi_2+
   1000039     6.06000000E-09   # ~gravitino
#
BLOCK NMIX  # Neutralino Mixing Matrix
  1  1     2.08308761E-01   # N_11
  1  2    -5.82436870E-03   # N_12
  1  3    -7.08337477E-01   # N_13
  1  4    -6.74412007E-01   # N_14
  2  1     9.86212325E-02   # N_21
  2  2    -2.87395284E-02   # N_22
  2  3     7.01083781E-01   # N_23
  2  4    -7.05641144E-01   # N_24
  3  1     9.73078092E-01   # N_31
  3  2     4.75803147E-03   # N_32
  3  3     8.05899053E-02   # N_33
  3  4     2.15874165E-01   # N_34
  4  1     5.82598574E-04   # N_41
  4  2    -9.99558641E-01   # N_42
  4  3    -1.56466551E-02   # N_43
  4  4     2.52460966E-02   # N_44
#
BLOCK UMIX  # Chargino Mixing Matrix U
  1  1    -2.21149908E-02   # U_11
  1  2     9.99755434E-01   # U_12
  2  1     9.99755434E-01   # U_21
  2  2     2.21149908E-02   # U_22
#
BLOCK VMIX  # Chargino Mixing Matrix V
  1  1     3.56995759E-02   # V_11
  1  2    -9.99362567E-01   # V_12
  2  1     9.99362567E-01   # V_21
  2  2     3.56995759E-02   # V_22
#
BLOCK STOPMIX  # Stop Mixing Matrix
  1  1     9.99986274E-01   # cos(theta_t)
  1  2    -5.23944764E-03   # sin(theta_t)
  2  1     5.23944764E-03   # -sin(theta_t)
  2  2     9.99986274E-01   # cos(theta_t)
#
BLOCK SBOTMIX  # Sbottom Mixing Matrix
  1  1     9.99939617E-01   # cos(theta_b)
  1  2    -1.09891926E-02   # sin(theta_b)
  2  1     1.09891926E-02   # -sin(theta_b)
  2  2     9.99939617E-01   # cos(theta_b)
#
BLOCK STAUMIX  # Stau Mixing Matrix
  1  1    -6.80791293E-01   # cos(theta_tau)
  1  2     7.32477450E-01   # sin(theta_tau)
  2  1    -7.32477450E-01   # -sin(theta_tau)
  2  2    -6.80791293E-01   # cos(theta_tau)
#
BLOCK ALPHA  # Higgs mixing
          -5.89883720E-01   # Mixing angle in the neutral Higgs boson sector
#
BLOCK HMIX Q=  9.11876000E+01  # DRbar Higgs Parameters
         1    -2.00000000E+02   # mu(Q)               
         2     1.49999979E+00   # tanbeta(Q)          
         3     2.51692352E+02   # vev(Q)              
         4     3.98567205E+06   # MA^2(Q)             
#
BLOCK GAUGE Q=  9.11876000E+01  # The gauge couplings
     1     3.53754807E-01   # gprime(Q) DRbar
     2     6.33290003E-01   # g(Q) DRbar
     3     1.09412380E+00   # g3(Q) DRbar
#
BLOCK AU Q=  9.11876000E+01  # The trilinear couplings
  1  1     0.00000000E+00   # A_u(Q) DRbar
  2  2     0.00000000E+00   # A_c(Q) DRbar
  3  3     0.00000000E+00   # A_t(Q) DRbar
#
BLOCK AD Q=  9.11876000E+01  # The trilinear couplings
  1  1     0.00000000E+00   # A_d(Q) DRbar
  2  2     0.00000000E+00   # A_s(Q) DRbar
  3  3     0.00000000E+00   # A_b(Q) DRbar
#
BLOCK AE Q=  9.11876000E+01  # The trilinear couplings
  1  1     0.00000000E+00   # A_e(Q) DRbar
  2  2     0.00000000E+00   # A_mu(Q) DRbar
  3  3     0.00000000E+00   # A_tau(Q) DRbar
#
BLOCK Yu Q=  9.11876000E+01  # The Yukawa couplings
  1  1     0.00000000E+00   # y_u(Q) DRbar
  2  2     0.00000000E+00   # y_c(Q) DRbar
  3  3     1.06167187E+00   # y_t(Q) DRbar
#
BLOCK Yd Q=  9.11876000E+01  # The Yukawa couplings
  1  1     0.00000000E+00   # y_d(Q) DRbar
  2  2     0.00000000E+00   # y_s(Q) DRbar
  3  3     2.76594038E-02   # y_b(Q) DRbar
#
BLOCK Ye Q=  9.11876000E+01  # The Yukawa couplings
  1  1     0.00000000E+00   # y_e(Q) DRbar
  2  2     0.00000000E+00   # y_mu(Q) DRbar
  3  3     1.79920288E-02   # y_tau(Q) DRbar
#
BLOCK MSOFT Q=  9.11876000E+01  # The soft SUSY breaking masses at the scale Q
         1     2.34000000E+02   # M_1                 
         2     2.50000000E+03   # M_2                 
         3     2.50000000E+03   # M_3                 
        14     0.00000000E+00   # A_u                 
        15     0.00000000E+00   # A_d                 
        16     0.00000000E+00   # A_e                 
        21     2.83035879E+06   # M^2_Hd              
        22     4.95510304E+05   # M^2_Hu              
        31     2.50000000E+03   # M_eL                
        32     2.50000000E+03   # M_muL               
        33     2.50000000E+03   # M_tauL              
        34     2.50000000E+03   # M_eR                
        35     2.50000000E+03   # M_muR               
        36     2.50000000E+03   # M_tauR              
        41     1.50000000E+03   # M_q1L               
        42     1.50000000E+03   # M_q2L               
        43     1.50000000E+03   # M_q3L               
        44     2.50000000E+03   # M_uR                
        45     2.50000000E+03   # M_cR                
        46     2.50000000E+03   # M_tR                
        47     1.50000000E+03   # M_dR                
        48     1.50000000E+03   # M_sR                
        49     1.52500000E+03   # M_bR                
#
#
#
#                             =================
#                             |The decay table|
#                             =================
#
# - The QCD corrections to the decays gluino -> squark  + quark
#                                     squark -> gaugino + quark_prime
#                                     squark -> squark_prime + Higgs
#                                     squark -> gluino  + quark
#   are included.
#
# - The multi-body decays for the inos, stops and sbottoms are included.
#
# - The loop induced decays for the gluino, neutralinos and stops
#   are included.
#
# - The SUSY decays of the top quark are included.
#
# - Possible decays of the NLSP in GMSB models are included.
#
#
#         PDG            Width
DECAY         6     1.45728302E+00   # top decays
#          BR         NDA      ID1       ID2
     1.00000000E+00    2           5        24   # BR(t ->  b    W+)
#
#         PDG            Width
DECAY   1000021     1.26852184E+02   # gluino decays
#          BR         NDA      ID1       ID2
     5.58480261E-02    2     1000001        -1   # BR(~g -> ~d_L  db)
     5.58480261E-02    2    -1000001         1   # BR(~g -> ~d_L* d )
     5.58786019E-02    2     2000001        -1   # BR(~g -> ~d_R  db)
     5.58786019E-02    2    -2000001         1   # BR(~g -> ~d_R* d )
     5.59162866E-02    2     1000002        -2   # BR(~g -> ~u_L  ub)
     5.59162866E-02    2    -1000002         2   # BR(~g -> ~u_L* u )
     9.02053690E-10    2     2000002        -2   # BR(~g -> ~u_R  ub)
     9.02053690E-10    2    -2000002         2   # BR(~g -> ~u_R* u )
     5.58480261E-02    2     1000003        -3   # BR(~g -> ~s_L  sb)
     5.58480261E-02    2    -1000003         3   # BR(~g -> ~s_L* s )
     5.58786019E-02    2     2000003        -3   # BR(~g -> ~s_R  sb)
     5.58786019E-02    2    -2000003         3   # BR(~g -> ~s_R* s )
     5.59162866E-02    2     1000004        -4   # BR(~g -> ~c_L  cb)
     5.59162866E-02    2    -1000004         4   # BR(~g -> ~c_L* c )
     9.02053690E-10    2     2000004        -4   # BR(~g -> ~c_R  cb)
     9.02053690E-10    2    -2000004         4   # BR(~g -> ~c_R* c )
     5.56042330E-02    2     1000005        -5   # BR(~g -> ~b_1  bb)
     5.56042330E-02    2    -1000005         5   # BR(~g -> ~b_1* b )
     5.34841353E-02    2     2000005        -5   # BR(~g -> ~b_2  bb)
     5.34841353E-02    2    -2000005         5   # BR(~g -> ~b_2* b )
     5.56257885E-02    2     1000006        -6   # BR(~g -> ~t_1  tb)
     5.56257885E-02    2    -1000006         6   # BR(~g -> ~t_1* t )
     2.41347743E-08    2     1000039        21   # BR(~g -> ~G g)
#
#         PDG            Width
DECAY   1000006     2.38968090E+01   # stop1 decays
#          BR         NDA      ID1       ID2
     4.52112163E-01    2     1000022         6   # BR(~t_1 -> ~chi_10 t )
     4.91593556E-01    2     1000023         6   # BR(~t_1 -> ~chi_20 t )
     5.61339751E-02    2     1000025         6   # BR(~t_1 -> ~chi_30 t )
     1.60305357E-04    2     1000024         5   # BR(~t_1 -> ~chi_1+ b )
#
#         PDG            Width
DECAY   2000006     8.53725399E+01   # stop2 decays
#          BR         NDA      ID1       ID2
     2.14541952E-01    2     1000022         6   # BR(~t_2 -> ~chi_10 t )
     2.32956950E-01    2     1000023         6   # BR(~t_2 -> ~chi_20 t )
     7.81068498E-02    2     1000025         6   # BR(~t_2 -> ~chi_30 t )
     4.67345224E-01    2     1000024         5   # BR(~t_2 -> ~chi_1+ b )
     3.53035497E-03    2     1000006        25   # BR(~t_2 -> ~t_1    h )
     6.83335639E-04    2     1000006        23   # BR(~t_2 -> ~t_1    Z )
     2.83495020E-03    2     1000005        24   # BR(~t_2 -> ~b_1    W+)
     3.84126669E-07    2     2000005        24   # BR(~t_2 -> ~b_2    W+)
#
#         PDG            Width
DECAY   1000005     2.38242091E+01   # sbottom1 decays
#          BR         NDA      ID1       ID2
     9.52558590E-04    2     1000022         5   # BR(~b_1 -> ~chi_10 b )
     8.01860344E-04    2     1000023         5   # BR(~b_1 -> ~chi_20 b )
     7.43384489E-03    2     1000025         5   # BR(~b_1 -> ~chi_30 b )
     9.90811736E-01    2    -1000024         6   # BR(~b_1 -> ~chi_1- t )
#
#         PDG            Width
DECAY   2000005     8.70249449E-01   # sbottom2 decays
#          BR         NDA      ID1       ID2
     4.73987897E-02    2     1000022         5   # BR(~b_2 -> ~chi_10 b )
     2.07988031E-02    2     1000023         5   # BR(~b_2 -> ~chi_20 b )
     8.77763407E-01    2     1000025         5   # BR(~b_2 -> ~chi_30 b )
     5.40390000E-02    2    -1000024         6   # BR(~b_2 -> ~chi_1- t )
#
#         PDG            Width
DECAY   1000002     2.20811572E-01   # sup_L decays
#          BR         NDA      ID1       ID2
     2.87269010E-02    2     1000022         2   # BR(~u_L -> ~chi_10 u)
     2.83910016E-03    2     1000023         2   # BR(~u_L -> ~chi_20 u)
     9.01127754E-01    2     1000025         2   # BR(~u_L -> ~chi_30 u)
     6.73062447E-02    2     1000024         1   # BR(~u_L -> ~chi_1+ d)
#
#         PDG            Width
DECAY   2000002     5.20778796E+00   # sup_R decays
#          BR         NDA      ID1       ID2
     4.35815602E-02    2     1000022         2   # BR(~u_R -> ~chi_10 u)
     9.76028961E-03    2     1000023         2   # BR(~u_R -> ~chi_20 u)
     9.46658150E-01    2     1000025         2   # BR(~u_R -> ~chi_30 u)
#
#         PDG            Width
DECAY   1000001     2.09491179E-01   # sdown_L decays
#          BR         NDA      ID1       ID2
     5.54916240E-02    2     1000022         1   # BR(~d_L -> ~chi_10 d)
     6.16993012E-02    2     1000023         1   # BR(~d_L -> ~chi_20 d)
     8.55569858E-01    2     1000025         1   # BR(~d_L -> ~chi_30 d)
     2.72392164E-02    2    -1000024         2   # BR(~d_L -> ~chi_1- u)
#
#         PDG            Width
DECAY   2000001     7.98937607E-01   # sdown_R decays
#          BR         NDA      ID1       ID2
     4.39861799E-02    2     1000022         1   # BR(~d_R -> ~chi_10 d)
     9.83314516E-03    2     1000023         1   # BR(~d_R -> ~chi_20 d)
     9.46180675E-01    2     1000025         1   # BR(~d_R -> ~chi_30 d)
#
#         PDG            Width
DECAY   1000004     2.20811572E-01   # scharm_L decays
#          BR         NDA      ID1       ID2
     2.87269010E-02    2     1000022         4   # BR(~c_L -> ~chi_10 c)
     2.83910016E-03    2     1000023         4   # BR(~c_L -> ~chi_20 c)
     9.01127754E-01    2     1000025         4   # BR(~c_L -> ~chi_30 c)
     6.73062447E-02    2     1000024         3   # BR(~c_L -> ~chi_1+ s)
#
#         PDG            Width
DECAY   2000004     5.20778796E+00   # scharm_R decays
#          BR         NDA      ID1       ID2
     4.35815602E-02    2     1000022         4   # BR(~c_R -> ~chi_10 c)
     9.76028961E-03    2     1000023         4   # BR(~c_R -> ~chi_20 c)
     9.46658150E-01    2     1000025         4   # BR(~c_R -> ~chi_30 c)
#
#         PDG            Width
DECAY   1000003     2.09491179E-01   # sstrange_L decays
#          BR         NDA      ID1       ID2
     5.54916240E-02    2     1000022         3   # BR(~s_L -> ~chi_10 s)
     6.16993012E-02    2     1000023         3   # BR(~s_L -> ~chi_20 s)
     8.55569858E-01    2     1000025         3   # BR(~s_L -> ~chi_30 s)
     2.72392164E-02    2    -1000024         4   # BR(~s_L -> ~chi_1- c)
#
#         PDG            Width
DECAY   2000003     7.98937607E-01   # sstrange_R decays
#          BR         NDA      ID1       ID2
     4.39861799E-02    2     1000022         3   # BR(~s_R -> ~chi_10 s)
     9.83314516E-03    2     1000023         3   # BR(~s_R -> ~chi_20 s)
     9.46180675E-01    2     1000025         3   # BR(~s_R -> ~chi_30 s)
#
#         PDG            Width
DECAY   1000011     3.08045803E+00   # selectron_L decays
#          BR         NDA      ID1       ID2
     3.90664553E-02    2     1000022        11   # BR(~e_L -> ~chi_10 e-)
     2.21755529E-03    2     1000023        11   # BR(~e_L -> ~chi_20 e-)
     9.55590158E-01    2     1000025        11   # BR(~e_L -> ~chi_30 e-)
     3.12583187E-03    2    -1000024        12   # BR(~e_L -> ~chi_1- nu_e)
#
#         PDG            Width
DECAY   2000011     1.22239486E+01   # selectron_R decays
#          BR         NDA      ID1       ID2
     4.36382634E-02    2     1000022        11   # BR(~e_R -> ~chi_10 e-)
     9.77034586E-03    2     1000023        11   # BR(~e_R -> ~chi_20 e-)
     9.46591391E-01    2     1000025        11   # BR(~e_R -> ~chi_30 e-)
#
#         PDG            Width
DECAY   1000013     3.08045803E+00   # smuon_L decays
#          BR         NDA      ID1       ID2
     3.90664553E-02    2     1000022        13   # BR(~mu_L -> ~chi_10 mu-)
     2.21755529E-03    2     1000023        13   # BR(~mu_L -> ~chi_20 mu-)
     9.55590158E-01    2     1000025        13   # BR(~mu_L -> ~chi_30 mu-)
     3.12583187E-03    2    -1000024        14   # BR(~mu_L -> ~chi_1- nu_mu)
#
#         PDG            Width
DECAY   2000013     1.22239486E+01   # smuon_R decays
#          BR         NDA      ID1       ID2
     4.36382634E-02    2     1000022        13   # BR(~mu_R -> ~chi_10 mu-)
     9.77034586E-03    2     1000023        13   # BR(~mu_R -> ~chi_20 mu-)
     9.46591391E-01    2     1000025        13   # BR(~mu_R -> ~chi_30 mu-)
#
#         PDG            Width
DECAY   1000015     7.99101722E+00   # stau_1 decays
#          BR         NDA      ID1       ID2
     4.80628411E-02    2     1000022        15   # BR(~tau_1 -> ~chi_10  tau-)
     6.49283298E-03    2     1000023        15   # BR(~tau_1 -> ~chi_20  tau-)
     9.45362510E-01    2     1000025        15   # BR(~tau_1 -> ~chi_30  tau-)
     8.14329497E-05    2    -1000024        16   # BR(~tau_1 -> ~chi_1-  nu_tau)
     3.83165205E-07    2     1000039        15   # BR(~tau_1 -> ~G       tau-)
#
#         PDG            Width
DECAY   2000015     7.36104746E+00   # stau_2 decays
#          BR         NDA      ID1       ID2
     3.88073698E-02    2     1000022        15   # BR(~tau_2 -> ~chi_10  tau-)
     1.22263919E-02    2     1000023        15   # BR(~tau_2 -> ~chi_20  tau-)
     9.45588610E-01    2     1000025        15   # BR(~tau_2 -> ~chi_30  tau-)
     3.37762869E-03    2    -1000024        16   # BR(~tau_2 -> ~chi_1-  nu_tau)
#
#         PDG            Width
DECAY   1000012     3.08301596E+00   # snu_eL decays
#          BR         NDA      ID1       ID2
     4.76850783E-02    2     1000022        12   # BR(~nu_eL -> ~chi_10 nu_e)
     2.24208236E-02    2     1000023        12   # BR(~nu_eL -> ~chi_20 nu_e)
     9.21756980E-01    2     1000025        12   # BR(~nu_eL -> ~chi_30 nu_e)
     8.13711791E-03    2     1000024        11   # BR(~nu_eL -> ~chi_1+ e-)
#
#         PDG            Width
DECAY   1000014     3.08301596E+00   # snu_muL decays
#          BR         NDA      ID1       ID2
     4.76850783E-02    2     1000022        14   # BR(~nu_muL -> ~chi_10 nu_mu)
     2.24208236E-02    2     1000023        14   # BR(~nu_muL -> ~chi_20 nu_mu)
     9.21756980E-01    2     1000025        14   # BR(~nu_muL -> ~chi_30 nu_mu)
     8.13711791E-03    2     1000024        13   # BR(~nu_muL -> ~chi_1+ mu-)
#
#         PDG            Width
DECAY   1000016     3.09890099E+00   # snu_tauL decays
#          BR         NDA      ID1       ID2
     4.74406436E-02    2     1000022        16   # BR(~nu_tauL -> ~chi_10 nu_tau)
     2.23058940E-02    2     1000023        16   # BR(~nu_tauL -> ~chi_20 nu_tau)
     9.17032035E-01    2     1000025        16   # BR(~nu_tauL -> ~chi_30 nu_tau)
     1.32214271E-02    2     1000024        15   # BR(~nu_tauL -> ~chi_1+ tau-)
#
#         PDG            Width
DECAY   1000024     1.17485725E-09   # chargino1+ decays
#          BR         NDA      ID1       ID2
     2.29354009E-03    2     1000039        24   # BR(~chi_1+ -> ~G       W+)
#           BR         NDA      ID1       ID2       ID3
     3.56122109E-01    3     1000022         2        -1   # BR(~chi_1+ -> ~chi_10 u    db)
     3.56122109E-01    3     1000022         4        -3   # BR(~chi_1+ -> ~chi_10 c    sb)
     1.18708978E-01    3     1000022       -11        12   # BR(~chi_1+ -> ~chi_10 e+   nu_e)
     1.18708978E-01    3     1000022       -13        14   # BR(~chi_1+ -> ~chi_10 mu+  nu_mu)
     4.80442859E-02    3     1000022       -15        16   # BR(~chi_1+ -> ~chi_10 tau+ nu_tau)
#
#         PDG            Width
DECAY   1000037     1.01487487E+02   # chargino2+ decays
#          BR         NDA      ID1       ID2
     1.25780042E-01    2     1000002        -1   # BR(~chi_2+ -> ~u_L     db)
     1.25738589E-01    2    -1000001         2   # BR(~chi_2+ -> ~d_L*    u )
     1.25780042E-01    2     1000004        -3   # BR(~chi_2+ -> ~c_L     sb)
     1.25738589E-01    2    -1000003         4   # BR(~chi_2+ -> ~s_L*    c )
     1.49982288E-01    2     1000006        -5   # BR(~chi_2+ -> ~t_1     bb)
     1.47937158E-01    2    -1000005         6   # BR(~chi_2+ -> ~b_1*    t )
     9.26245752E-05    2    -2000005         6   # BR(~chi_2+ -> ~b_2*    t )
     4.52545356E-07    2     1000012       -11   # BR(~chi_2+ -> ~nu_eL   e+  )
     4.52545356E-07    2     1000014       -13   # BR(~chi_2+ -> ~nu_muL  mu+ )
     3.39231853E-07    2     1000016       -15   # BR(~chi_2+ -> ~nu_tau1 tau+)
     3.03217475E-07    2    -1000011        12   # BR(~chi_2+ -> ~e_L+    nu_e)
     3.03217475E-07    2    -1000013        14   # BR(~chi_2+ -> ~mu_L+   nu_mu)
     1.55695691E-07    2    -1000015        16   # BR(~chi_2+ -> ~tau_1+  nu_tau)
     1.48097960E-07    2    -2000015        16   # BR(~chi_2+ -> ~tau_2+  nu_tau)
     4.19960652E-02    2     1000024        23   # BR(~chi_2+ -> ~chi_1+  Z )
     3.83216067E-02    2     1000022        24   # BR(~chi_2+ -> ~chi_10  W+)
     4.04553629E-02    2     1000023        24   # BR(~chi_2+ -> ~chi_20  W+)
     3.38829666E-03    2     1000025        24   # BR(~chi_2+ -> ~chi_30  W+)
     4.15178541E-02    2     1000024        25   # BR(~chi_2+ -> ~chi_1+  h )
     8.28421725E-03    2     1000024        35   # BR(~chi_2+ -> ~chi_1+  H )
     8.37012030E-03    2     1000024        36   # BR(~chi_2+ -> ~chi_1+  A )
     8.05848734E-03    2     1000022        37   # BR(~chi_2+ -> ~chi_10  H+)
     8.23894360E-03    2     1000023        37   # BR(~chi_2+ -> ~chi_20  H+)
     3.17528420E-04    2     1000025        37   # BR(~chi_2+ -> ~chi_30  H+)
     3.01759786E-08    2     1000039        24   # BR(~chi_2+ -> ~G       W+)
     1.85784204E-13    2     1000039        37   # BR(~chi_2+ -> ~G       H+)
#
#         PDG            Width
DECAY   1000022     9.46287030E-13   # neutralino1 decays
#          BR         NDA      ID1       ID2
     3.23485520E-01    2     1000039        22   # BR(~chi_10 -> ~G        gam)
     9.93591848E-02    2     1000039        23   # BR(~chi_10 -> ~G        Z)
     5.77155296E-01    2     1000039        25   # BR(~chi_10 -> ~G        h)
#
#         PDG            Width
DECAY   1000023     3.77059501E-08   # neutralino2 decays
#          BR         NDA      ID1       ID2
     2.39771645E-02    2     1000022        22   # BR(~chi_20 -> ~chi_10 gam)
#          BR         NDA      ID1       ID2
     1.62558259E-06    2     1000039        22   # BR(~chi_20 -> ~G        gam)
     6.33320118E-05    2     1000039        23   # BR(~chi_20 -> ~G        Z)
     9.38541695E-07    2     1000039        25   # BR(~chi_20 -> ~G        h)
#           BR         NDA      ID1       ID2       ID3
     1.23022340E-01    3     1000022        -2         2   # BR(~chi_20 -> ~chi_10 ub      u)
     1.59099724E-01    3     1000022        -1         1   # BR(~chi_20 -> ~chi_10 db      d)
     1.23022340E-01    3     1000022        -4         4   # BR(~chi_20 -> ~chi_10 cb      c)
     1.59099724E-01    3     1000022        -3         3   # BR(~chi_20 -> ~chi_10 sb      s)
     3.62510777E-02    3     1000022       -11        11   # BR(~chi_20 -> ~chi_10 e+      e-)
     3.62510777E-02    3     1000022       -13        13   # BR(~chi_20 -> ~chi_10 mu+     mu-)
     2.73832415E-02    3     1000022       -15        15   # BR(~chi_20 -> ~chi_10 tau+    tau-)
     7.23362684E-02    3     1000022       -12        12   # BR(~chi_20 -> ~chi_10 nu_eb   nu_e)
     7.23362684E-02    3     1000022       -14        14   # BR(~chi_20 -> ~chi_10 nu_mub  nu_mu)
     7.23362684E-02    3     1000022       -16        16   # BR(~chi_20 -> ~chi_10 nu_taub nu_tau)
     1.68082560E-02    3     1000024        -2         1   # BR(~chi_20 -> ~chi_1+ ub      d)
     1.68082560E-02    3    -1000024        -1         2   # BR(~chi_20 -> ~chi_1- db      u)
     1.68082560E-02    3     1000024        -4         3   # BR(~chi_20 -> ~chi_1+ cb      s)
     1.68082560E-02    3    -1000024        -3         4   # BR(~chi_20 -> ~chi_1- sb      c)
     5.60274318E-03    3     1000024       -12        11   # BR(~chi_20 -> ~chi_1+ nu_eb   e-)
     5.60274318E-03    3    -1000024        12       -11   # BR(~chi_20 -> ~chi_1- nu_e    e+)
     5.60274318E-03    3     1000024       -14        13   # BR(~chi_20 -> ~chi_1+ nu_mub  mu-)
     5.60274318E-03    3    -1000024        14       -13   # BR(~chi_20 -> ~chi_1- nu_mu   mu+)
     2.58730648E-03    3     1000024       -16        15   # BR(~chi_20 -> ~chi_1+ nu_taub tau-)
     2.58730648E-03    3    -1000024        16       -15   # BR(~chi_20 -> ~chi_1- nu_tau  tau+)
#
#         PDG            Width
DECAY   1000025     1.87611959E-05   # neutralino3 decays
#          BR         NDA      ID1       ID2
     1.12301903E-01    2     1000022        22   # BR(~chi_30 -> ~chi_10 gam)
     3.17599523E-03    2     1000023        22   # BR(~chi_30 -> ~chi_20 gam)
#          BR         NDA      ID1       ID2
     9.68983296E-07    2     1000039        22   # BR(~chi_30 -> ~G        gam)
     1.65045166E-07    2     1000039        23   # BR(~chi_30 -> ~G        Z)
     9.26241878E-09    2     1000039        25   # BR(~chi_30 -> ~G        h)
#           BR         NDA      ID1       ID2       ID3
     1.79390346E-02    3     1000022        -2         2   # BR(~chi_30 -> ~chi_10 ub      u)
     2.32608520E-02    3     1000022        -1         1   # BR(~chi_30 -> ~chi_10 db      d)
     1.79390346E-02    3     1000022        -4         4   # BR(~chi_30 -> ~chi_10 cb      c)
     2.32608520E-02    3     1000022        -3         3   # BR(~chi_30 -> ~chi_10 sb      s)
     2.00546591E-02    3     1000022        -5         5   # BR(~chi_30 -> ~chi_10 bb      b)
     5.32874144E-03    3     1000022       -11        11   # BR(~chi_30 -> ~chi_10 e+      e-)
     5.32874144E-03    3     1000022       -13        13   # BR(~chi_30 -> ~chi_10 mu+     mu-)
     5.19497851E-03    3     1000022       -15        15   # BR(~chi_30 -> ~chi_10 tau+    tau-)
     1.05517779E-02    3     1000022       -12        12   # BR(~chi_30 -> ~chi_10 nu_eb   nu_e)
     1.05517779E-02    3     1000022       -14        14   # BR(~chi_30 -> ~chi_10 nu_mub  nu_mu)
     1.05517779E-02    3     1000022       -16        16   # BR(~chi_30 -> ~chi_10 nu_taub nu_tau)
     9.94719336E-03    3     1000023        -2         2   # BR(~chi_30 -> ~chi_20 ub      u)
     1.28716980E-02    3     1000023        -1         1   # BR(~chi_30 -> ~chi_20 db      d)
     9.94719336E-03    3     1000023        -4         4   # BR(~chi_30 -> ~chi_20 cb      c)
     1.28716980E-02    3     1000023        -3         3   # BR(~chi_30 -> ~chi_20 sb      s)
     1.06685383E-02    3     1000023        -5         5   # BR(~chi_30 -> ~chi_20 bb      b)
     2.93553374E-03    3     1000023       -11        11   # BR(~chi_30 -> ~chi_20 e+      e-)
     2.93553374E-03    3     1000023       -13        13   # BR(~chi_30 -> ~chi_20 mu+     mu-)
     2.88382498E-03    3     1000023       -15        15   # BR(~chi_30 -> ~chi_20 tau+    tau-)
     5.84761132E-03    3     1000023       -12        12   # BR(~chi_30 -> ~chi_20 nu_eb   nu_e)
     5.84761132E-03    3     1000023       -14        14   # BR(~chi_30 -> ~chi_20 nu_mub  nu_mu)
     5.84761132E-03    3     1000023       -16        16   # BR(~chi_30 -> ~chi_20 nu_taub nu_tau)
     1.08793774E-01    3     1000024        -2         1   # BR(~chi_30 -> ~chi_1+ ub      d)
     1.08793774E-01    3    -1000024        -1         2   # BR(~chi_30 -> ~chi_1- db      u)
     1.08793774E-01    3     1000024        -4         3   # BR(~chi_30 -> ~chi_1+ cb      s)
     1.08793774E-01    3    -1000024        -3         4   # BR(~chi_30 -> ~chi_1- sb      c)
     3.62563680E-02    3     1000024       -12        11   # BR(~chi_30 -> ~chi_1+ nu_eb   e-)
     3.62563680E-02    3    -1000024        12       -11   # BR(~chi_30 -> ~chi_1- nu_e    e+)
     3.62563680E-02    3     1000024       -14        13   # BR(~chi_30 -> ~chi_1+ nu_mub  mu-)
     3.62563680E-02    3    -1000024        14       -13   # BR(~chi_30 -> ~chi_1- nu_mu   mu+)
     3.58770579E-02    3     1000024       -16        15   # BR(~chi_30 -> ~chi_1+ nu_taub tau-)
     3.58770579E-02    3    -1000024        16       -15   # BR(~chi_30 -> ~chi_1- nu_tau  tau+)
#
#         PDG            Width
DECAY   1000035     1.01487009E+02   # neutralino4 decays
#          BR         NDA      ID1       ID2
     3.77039693E-02    2     1000022        23   # BR(~chi_40 -> ~chi_10   Z )
     2.22920605E-03    2     1000023        23   # BR(~chi_40 -> ~chi_20   Z )
     2.13030305E-03    2     1000025        23   # BR(~chi_40 -> ~chi_30   Z )
     4.10144967E-02    2     1000024       -24   # BR(~chi_40 -> ~chi_1+   W-)
     4.10144967E-02    2    -1000024        24   # BR(~chi_40 -> ~chi_1-   W+)
     1.50082246E-03    2     1000022        25   # BR(~chi_40 -> ~chi_10   h )
     7.85364635E-03    2     1000022        35   # BR(~chi_40 -> ~chi_10   H )
     1.62975555E-04    2     1000022        36   # BR(~chi_40 -> ~chi_10   A )
     3.87694060E-02    2     1000023        25   # BR(~chi_40 -> ~chi_20   h )
     1.16125353E-04    2     1000023        35   # BR(~chi_40 -> ~chi_20   H )
     8.15456713E-03    2     1000023        36   # BR(~chi_40 -> ~chi_20   A )
     1.32026053E-03    2     1000025        25   # BR(~chi_40 -> ~chi_30   h )
     3.03998391E-04    2     1000025        35   # BR(~chi_40 -> ~chi_30   H )
     1.25740479E-05    2     1000025        36   # BR(~chi_40 -> ~chi_30   A )
     8.33295810E-03    2     1000024       -37   # BR(~chi_40 -> ~chi_1+   H-)
     8.33295810E-03    2    -1000024        37   # BR(~chi_40 -> ~chi_1-   H+)
     6.52715101E-02    2     1000002        -2   # BR(~chi_40 -> ~u_L      ub)
     6.52715101E-02    2    -1000002         2   # BR(~chi_40 -> ~u_L*     u )
     9.01820378E-12    2     2000002        -2   # BR(~chi_40 -> ~u_R      ub)
     9.01820378E-12    2    -2000002         2   # BR(~chi_40 -> ~u_R*     u )
     6.52332183E-02    2     1000001        -1   # BR(~chi_40 -> ~d_L      db)
     6.52332183E-02    2    -1000001         1   # BR(~chi_40 -> ~d_L*     d )
     3.07406050E-09    2     2000001        -1   # BR(~chi_40 -> ~d_R      db)
     3.07406050E-09    2    -2000001         1   # BR(~chi_40 -> ~d_R*     d )
     6.52715101E-02    2     1000004        -4   # BR(~chi_40 -> ~c_L      cb)
     6.52715101E-02    2    -1000004         4   # BR(~chi_40 -> ~c_L*     c )
     9.01820378E-12    2     2000004        -4   # BR(~chi_40 -> ~c_R      cb)
     9.01820378E-12    2    -2000004         4   # BR(~chi_40 -> ~c_R*     c )
     6.52332183E-02    2     1000003        -3   # BR(~chi_40 -> ~s_L      sb)
     6.52332183E-02    2    -1000003         3   # BR(~chi_40 -> ~s_L*     s )
     3.07406050E-09    2     2000003        -3   # BR(~chi_40 -> ~s_R      sb)
     3.07406050E-09    2    -2000003         3   # BR(~chi_40 -> ~s_R*     s )
     7.33951851E-02    2     1000006        -6   # BR(~chi_40 -> ~t_1      tb)
     7.33951851E-02    2    -1000006         6   # BR(~chi_40 -> ~t_1*     t )
     7.55597149E-02    2     1000005        -5   # BR(~chi_40 -> ~b_1      bb)
     7.55597149E-02    2    -1000005         5   # BR(~chi_40 -> ~b_1*     b )
     4.78165605E-05    2     2000005        -5   # BR(~chi_40 -> ~b_2      bb)
     4.78165605E-05    2    -2000005         5   # BR(~chi_40 -> ~b_2*     b )
     1.51530964E-07    2     1000011       -11   # BR(~chi_40 -> ~e_L-     e+)
     1.51530964E-07    2    -1000011        11   # BR(~chi_40 -> ~e_L+     e-)
     6.52090404E-14    2     2000011       -11   # BR(~chi_40 -> ~e_R-     e+)
     6.52090404E-14    2    -2000011        11   # BR(~chi_40 -> ~e_R+     e-)
     1.51530964E-07    2     1000013       -13   # BR(~chi_40 -> ~mu_L-    mu+)
     1.51530964E-07    2    -1000013        13   # BR(~chi_40 -> ~mu_L+    mu-)
     6.52090404E-14    2     2000013       -13   # BR(~chi_40 -> ~mu_R-    mu+)
     6.52090404E-14    2    -2000013        13   # BR(~chi_40 -> ~mu_R+    mu-)
     4.97129408E-08    2     1000015       -15   # BR(~chi_40 -> ~tau_1-   tau+)
     4.97129408E-08    2    -1000015        15   # BR(~chi_40 -> ~tau_1+   tau-)
     3.94094432E-08    2     2000015       -15   # BR(~chi_40 -> ~tau_2-   tau+)
     3.94094432E-08    2    -2000015        15   # BR(~chi_40 -> ~tau_2+   tau-)
     2.26607664E-07    2     1000012       -12   # BR(~chi_40 -> ~nu_eL    nu_eb)
     2.26607664E-07    2    -1000012        12   # BR(~chi_40 -> ~nu_eL*   nu_e )
     2.26607664E-07    2     1000014       -14   # BR(~chi_40 -> ~nu_muL   nu_mub)
     2.26607664E-07    2    -1000014        14   # BR(~chi_40 -> ~nu_muL*  nu_mu )
     2.26607664E-07    2     1000016       -16   # BR(~chi_40 -> ~nu_tau1  nu_taub)
     2.26607664E-07    2    -1000016        16   # BR(~chi_40 -> ~nu_tau1* nu_tau )
     7.18704414E-09    2     1000039        22   # BR(~chi_40 -> ~G        gam)
     2.29870443E-08    2     1000039        23   # BR(~chi_40 -> ~G        Z)
     2.26077271E-12    2     1000039        25   # BR(~chi_40 -> ~G        h)
     1.83343711E-13    2     1000039        35   # BR(~chi_40 -> ~G        H)
     2.50412046E-16    2     1000039        36   # BR(~chi_40 -> ~G        A)
#
#         PDG            Width
DECAY        25     4.21047040E-03   # h decays
#          BR         NDA      ID1       ID2
     6.00853954E-01    2           5        -5   # BR(h -> b       bb     )
     6.22961235E-02    2         -15        15   # BR(h -> tau+    tau-   )
     2.20501118E-04    2         -13        13   # BR(h -> mu+     mu-    )
     4.66553504E-04    2           3        -3   # BR(h -> s       sb     )
     2.01554306E-02    2           4        -4   # BR(h -> c       cb     )
     6.70403295E-02    2          21        21   # BR(h -> g       g      )
     2.28217634E-03    2          22        22   # BR(h -> gam     gam    )
     1.63020143E-03    2          22        23   # BR(h -> Z       gam    )
     2.16921132E-01    2          24       -24   # BR(h -> W+      W-     )
     2.81335976E-02    2          23        23   # BR(h -> Z       Z      )
#
#         PDG            Width
DECAY        35     4.09942902E+01   # H decays
#          BR         NDA      ID1       ID2
     1.36885638E-03    2           5        -5   # BR(H -> b       bb     )
     2.27389417E-04    2         -15        15   # BR(H -> tau+    tau-   )
     8.03906245E-07    2         -13        13   # BR(H -> mu+     mu-    )
     1.02948787E-06    2           3        -3   # BR(H -> s       sb     )
     9.27809477E-06    2           4        -4   # BR(H -> c       cb     )
     9.41725657E-01    2           6        -6   # BR(H -> t       tb     )
     7.52703009E-04    2          21        21   # BR(H -> g       g      )
     2.48347401E-06    2          22        22   # BR(H -> gam     gam    )
     1.10732861E-06    2          23        22   # BR(H -> Z       gam    )
     2.25782488E-04    2          24       -24   # BR(H -> W+      W-     )
     1.12583474E-04    2          23        23   # BR(H -> Z       Z      )
     7.67050078E-04    2          25        25   # BR(H -> h       h      )
     1.12184325E-23    2          36        36   # BR(H -> A       A      )
     2.90776486E-11    2          23        36   # BR(H -> Z       A      )
     2.06454067E-12    2          24       -37   # BR(H -> W+      H-     )
     2.06454067E-12    2         -24        37   # BR(H -> W-      H+     )
     1.17956182E-04    2     1000024  -1000024   # BR(H -> ~chi_1+ ~chi_1-)
     4.93388666E-03    2     1000022   1000022   # BR(H -> ~chi_10 ~chi_10)
     9.26505114E-05    2     1000023   1000023   # BR(H -> ~chi_20 ~chi_20)
     3.48999320E-03    2     1000025   1000025   # BR(H -> ~chi_30 ~chi_30)
     6.39845149E-04    2     1000022   1000023   # BR(H -> ~chi_10 ~chi_20)
     4.29670615E-02    2     1000022   1000025   # BR(H -> ~chi_10 ~chi_30)
     2.56388240E-03    2     1000023   1000025   # BR(H -> ~chi_20 ~chi_30)
#
#         PDG            Width
DECAY        36     4.15204481E+01   # A decays
#          BR         NDA      ID1       ID2
     1.36880439E-03    2           5        -5   # BR(A -> b       bb     )
     2.24617431E-04    2         -15        15   # BR(A -> tau+    tau-   )
     7.94103760E-07    2         -13        13   # BR(A -> mu+     mu-    )
     1.04711387E-06    2           3        -3   # BR(A -> s       sb     )
     9.17612105E-06    2           4        -4   # BR(A -> c       cb     )
     9.42596413E-01    2           6        -6   # BR(A -> t       tb     )
     8.98952484E-04    2          21        21   # BR(A -> g       g      )
     3.15446637E-06    2          22        22   # BR(A -> gam     gam    )
     1.28992522E-06    2          23        22   # BR(A -> Z       gam    )
     2.19681092E-04    2          23        25   # BR(A -> Z       h      )
     7.07179815E-04    2     1000024  -1000024   # BR(A -> ~chi_1+ ~chi_1-)
     2.52389160E-04    2     1000022   1000022   # BR(A -> ~chi_10 ~chi_10)
     2.50706507E-03    2     1000023   1000023   # BR(A -> ~chi_20 ~chi_20)
     2.89454200E-04    2     1000025   1000025   # BR(A -> ~chi_30 ~chi_30)
     1.77492941E-03    2     1000022   1000023   # BR(A -> ~chi_10 ~chi_20)
     2.70432388E-03    2     1000022   1000025   # BR(A -> ~chi_10 ~chi_30)
     4.64407283E-02    2     1000023   1000025   # BR(A -> ~chi_20 ~chi_30)
#
#         PDG            Width
DECAY        37     4.06893259E+01   # H+ decays
#          BR         NDA      ID1       ID2
     2.20016785E-06    2           4        -5   # BR(H+ -> c       bb     )
     2.29441418E-04    2         -15        16   # BR(H+ -> tau+    nu_tau )
     8.11158294E-07    2         -13        14   # BR(H+ -> mu+     nu_mu  )
     1.39891074E-08    2           2        -5   # BR(H+ -> u       bb     )
     5.02427259E-08    2           2        -3   # BR(H+ -> u       sb     )
     1.00110529E-05    2           4        -3   # BR(H+ -> c       sb     )
     9.44372066E-01    2           6        -5   # BR(H+ -> t       bb     )
     2.25181824E-04    2          24        25   # BR(H+ -> W+      h      )
     1.19508687E-12    2          24        36   # BR(H+ -> W+      A      )
     2.09691322E-03    2     1000024   1000022   # BR(H+ -> ~chi_1+ ~chi_10)
     5.15400223E-04    2     1000024   1000023   # BR(H+ -> ~chi_1+ ~chi_20)
     5.25479111E-02    2     1000024   1000025   # BR(H+ -> ~chi_1+ ~chi_30)
