#
#                              ======================
#                              | THE SUSYHIT OUTPUT |
#                              ======================
#
#
#              ------------------------------------------------------
#              |     This is the output of the SUSY-HIT package     |
#              |  created by A.Djouadi, M.Muehlleitner and M.Spira. |
#              |  In case of problems with SUSY-HIT email to        |
#              |           margarete.muehlleitner@cern.ch           |
#              |           michael.spira@psi.ch                     |
#              |           abdelhak.djouadi@cern.ch                 |
#              ------------------------------------------------------
#
#              ------------------------------------------------------
#              |  SUSY Les Houches Accord - MSSM Spectrum + Decays  |
#              |              based on the decay programs           |
#              |                                                    |
#              |                     SDECAY 1.3b                    |
#              |                                                    |
#              |  Authors: M.Muhlleitner, A.Djouadi and Y.Mambrini  |
#              |  Ref.:    Comput.Phys.Commun.168(2005)46           |
#              |           [hep-ph/0311167]                         |
#              |                                                    |
#              |                     HDECAY 3.4                     |
#              |                                                    |
#              |  By: A.Djouadi,J.Kalinowski,M.Muhlleitner,M.Spira  |
#              |  Ref.:    Comput.Phys.Commun.108(1998)56           |
#              |           [hep-ph/9704448]                         |
#              |                                                    |
#              |                                                    |
#              |  If not stated otherwise all DRbar couplings and   |
#              |  soft SUSY breaking masses are given at the scale  |
#              |  Q=  0.30006178E+04
#              |                                                    |
#              ------------------------------------------------------
#
#
BLOCK DCINFO  # Decay Program information
     1   SDECAY/HDECAY # decay calculator
     2   1.3b  /3.4    # version number
#
BLOCK SPINFO  # Spectrum calculator information
     1   SuSpect     # RGE +Spectrum calculator            
     2   2.41        # version number                      
#
BLOCK MODSEL  # Model selection
     1     0   # #general MSSM low scale                           
#
BLOCK SMINPUTS  # Standard Model inputs
         1     1.27934000E+02   # alpha_em^-1(M_Z)^MSbar
         2     1.16639000E-05   # G_F [GeV^-2]
         3     1.17200000E-01   # alpha_S(M_Z)^MSbar
         4     9.11870000E+01   # M_Z pole mass
         5     4.25000000E+00   # mb(mb)^MSbar
         6     1.72500000E+02   # mt pole mass
         7     1.77710000E+00   # mtau pole mass
#
BLOCK MINPAR  # Input parameters - minimal models
#
BLOCK EXTPAR  # Input parameters - non-minimal models
         0     3.00061781E+03   # EWSB                
         1     5.00000000E+01   # M_1                 
         2     2.00000000E+02   # M_2                 
         3     3.00000000E+03   # M_3                 
        11     3.62433900E+03   # A_t                 
        12     3.40000000E+03   # A_b                 
        13     3.40000000E+03   # A_tau               
        14     3.40000000E+03   # A_u                 
        15     3.40000000E+03   # A_d                 
        16     3.40000000E+03   # A_e                 
        23     1.50000000E+02   # mu(EWSB)            
        25     1.00000000E+01   # tanbeta(in)         
        26     1.00000000E+03   # MA_pole             
        31     3.00000000E+03   # M_eL                
        32     3.00000000E+03   # M_muL               
        33     3.00000000E+03   # M_tauL              
        34     3.00000000E+03   # M_eR                
        35     3.00000000E+03   # M_muR               
        36     3.00000000E+03   # M_tauR              
        41     3.00000000E+03   # M_q1L               
        42     3.00000000E+03   # M_q2L               
        43     3.00000000E+03   # M_q3L               
        44     3.00000000E+03   # M_uR                
        45     3.00000000E+03   # M_cR                
        46     3.00000000E+03   # M_tR                
        47     3.00000000E+03   # M_dR                
        48     3.00000000E+03   # M_sR                
        49     3.00000000E+03   # M_bR                
#
BLOCK MASS  # Mass Spectrum
# PDG code           mass       particle
        24     8.04810561E+01   # W+
        25     1.25499522E+02   # h
        35     1.00023110E+03   # H
        36     1.00000000E+03   # A
        37     1.00354324E+03   # H+
         5     4.87877839E+00   # b-quark pole mass calculated from mb(mb)_Msbar
   1000001     3.10133776E+03   # ~d_L
   2000001     3.10091460E+03   # ~d_R
   1000002     3.10038963E+03   # ~u_L
   2000002     3.10060948E+03   # ~u_R
   1000003     3.10133776E+03   # ~s_L
   2000003     3.10091460E+03   # ~s_R
   1000004     3.10038963E+03   # ~c_L
   2000004     3.10060948E+03   # ~c_R
   1000005     3.10033531E+03   # ~b_1
   2000005     3.10191862E+03   # ~b_2
   1000006     2.97286680E+03   # ~t_1
   2000006     3.13871016E+03   # ~t_2
   1000011     3.00033231E+03   # ~e_L
   2000011     3.00031535E+03   # ~e_R
   1000012     2.99935223E+03   # ~nu_eL
   1000013     3.00033231E+03   # ~mu_L
   2000013     3.00031535E+03   # ~mu_R
   1000014     2.99935223E+03   # ~nu_muL
   1000015     2.99974913E+03   # ~tau_1
   2000015     3.00089944E+03   # ~tau_2
   1000016     2.99935223E+03   # ~nu_tauL
   1000021     3.18423912E+03   # ~g
   1000022     4.20959930E+01   # ~chi_10
   1000023     1.28613033E+02   # ~chi_20
   1000025    -1.64378720E+02   # ~chi_30
   1000035     2.58750718E+02   # ~chi_40
   1000024     1.23453336E+02   # ~chi_1+
   1000037     2.58833593E+02   # ~chi_2+
#
BLOCK NMIX  # Neutralino Mixing Matrix
  1  1     9.32091134E-01   # N_11
  1  2    -7.01671435E-02   # N_12
  1  3     3.33508274E-01   # N_13
  1  4    -1.22698495E-01   # N_14
  2  1     3.21996364E-01   # N_21
  2  2     5.16351807E-01   # N_22
  2  3    -6.00383957E-01   # N_23
  2  4     5.18881737E-01   # N_24
  3  1     1.33359346E-01   # N_31
  3  2    -1.32335184E-01   # N_32
  3  3    -6.66109196E-01   # N_33
  3  4    -7.21804145E-01   # N_34
  4  1     9.86901383E-02   # N_41
  4  2    -8.43175416E-01   # N_42
  4  3    -2.90877765E-01   # N_43
  4  4     4.41254575E-01   # N_44
#
BLOCK UMIX  # Chargino Mixing Matrix U
  1  1    -4.08050010E-01   # U_11
  1  2     9.12959577E-01   # U_12
  2  1     9.12959577E-01   # U_21
  2  2     4.08050010E-01   # U_22
#
BLOCK VMIX  # Chargino Mixing Matrix V
  1  1    -6.27673758E-01   # V_11
  1  2     7.78476495E-01   # V_12
  2  1     7.78476495E-01   # V_21
  2  2     6.27673758E-01   # V_22
#
BLOCK STOPMIX  # Stop Mixing Matrix
  1  1    -5.63383762E-01   # cos(theta_t)
  1  2     8.26195338E-01   # sin(theta_t)
  2  1    -8.26195338E-01   # -sin(theta_t)
  2  2    -5.63383762E-01   # cos(theta_t)
#
BLOCK SBOTMIX  # Sbottom Mixing Matrix
  1  1    -6.05283731E-01   # cos(theta_b)
  1  2     7.96009802E-01   # sin(theta_b)
  2  1    -7.96009802E-01   # -sin(theta_b)
  2  2    -6.05283731E-01   # cos(theta_b)
#
BLOCK STAUMIX  # Stau Mixing Matrix
  1  1    -7.01876127E-01   # cos(theta_tau)
  1  2     7.12299026E-01   # sin(theta_tau)
  2  1    -7.12299026E-01   # -sin(theta_tau)
  2  2    -7.01876127E-01   # cos(theta_tau)
#
BLOCK ALPHA  # Higgs mixing
          -1.07375071E-01   # Mixing angle in the neutral Higgs boson sector
#
BLOCK HMIX Q=  3.00061781E+03  # DRbar Higgs Parameters
         1     1.50000000E+02   # mu(Q)               
         2     9.50685534E+00   # tanbeta(Q)          
         3     2.41021169E+02   # vev(Q)              
         4     9.96748861E+05   # MA^2(Q)             
#
BLOCK GAUGE Q=  3.00061781E+03  # The gauge couplings
     1     3.65166514E-01   # gprime(Q) DRbar
     2     6.43723268E-01   # g(Q) DRbar
     3     1.00573009E+00   # g3(Q) DRbar
#
BLOCK AU Q=  3.00061781E+03  # The trilinear couplings
  1  1     3.40000000E+03   # A_u(Q) DRbar
  2  2     3.40000000E+03   # A_c(Q) DRbar
  3  3     3.62433900E+03   # A_t(Q) DRbar
#
BLOCK AD Q=  3.00061781E+03  # The trilinear couplings
  1  1     3.40000000E+03   # A_d(Q) DRbar
  2  2     3.40000000E+03   # A_s(Q) DRbar
  3  3     3.40000000E+03   # A_b(Q) DRbar
#
BLOCK AE Q=  3.00061781E+03  # The trilinear couplings
  1  1     3.40000000E+03   # A_e(Q) DRbar
  2  2     3.40000000E+03   # A_mu(Q) DRbar
  3  3     3.40000000E+03   # A_tau(Q) DRbar
#
BLOCK Yu Q=  3.00061781E+03  # The Yukawa couplings
  1  1     0.00000000E+00   # y_u(Q) DRbar
  2  2     0.00000000E+00   # y_c(Q) DRbar
  3  3     8.42388848E-01   # y_t(Q) DRbar
#
BLOCK Yd Q=  3.00061781E+03  # The Yukawa couplings
  1  1     0.00000000E+00   # y_d(Q) DRbar
  2  2     0.00000000E+00   # y_s(Q) DRbar
  3  3     1.34520342E-01   # y_b(Q) DRbar
#
BLOCK Ye Q=  3.00061781E+03  # The Yukawa couplings
  1  1     0.00000000E+00   # y_e(Q) DRbar
  2  2     0.00000000E+00   # y_mu(Q) DRbar
  3  3     9.81084488E-02   # y_tau(Q) DRbar
#
BLOCK MSOFT Q=  3.00061781E+03  # The soft SUSY breaking masses at the scale Q
         1     5.00000000E+01   # M_1                 
         2     2.00000000E+02   # M_2                 
         3     3.00000000E+03   # M_3                 
        14     3.40000000E+03   # A_u                 
        15     3.40000000E+03   # A_d                 
        16     3.40000000E+03   # A_e                 
        21     9.76908929E+05   # M^2_Hd              
        22     2.18169650E+05   # M^2_Hu              
        31     3.00000000E+03   # M_eL                
        32     3.00000000E+03   # M_muL               
        33     3.00000000E+03   # M_tauL              
        34     3.00000000E+03   # M_eR                
        35     3.00000000E+03   # M_muR               
        36     3.00000000E+03   # M_tauR              
        41     3.00000000E+03   # M_q1L               
        42     3.00000000E+03   # M_q2L               
        43     3.00000000E+03   # M_q3L               
        44     3.00000000E+03   # M_uR                
        45     3.00000000E+03   # M_cR                
        46     3.00000000E+03   # M_tR                
        47     3.00000000E+03   # M_dR                
        48     3.00000000E+03   # M_sR                
        49     3.00000000E+03   # M_bR                
#
#
#
#                             =================
#                             |The decay table|
#                             =================
#
# - The QCD corrections to the decays gluino -> squark  + quark
#                                     squark -> gaugino + quark_prime
#                                     squark -> squark_prime + Higgs
#                                     squark -> gluino  + quark
#   are included.
#
# - The multi-body decays for the inos, stops and sbottoms are included.
#
# - The loop induced decays for the gluino, neutralinos and stops
#   are included.
#
# - The SUSY decays of the top quark are included.
#
#
#         PDG            Width
DECAY         6     1.43476448E+00   # top decays
#          BR         NDA      ID1       ID2
     1.00000000E+00    2           5        24   # BR(t ->  b    W+)
#
#         PDG            Width
DECAY   1000021     2.69766665E+00   # gluino decays
#          BR         NDA      ID1       ID2
     3.06399441E-02    2     1000001        -1   # BR(~g -> ~d_L  db)
     3.06399441E-02    2    -1000001         1   # BR(~g -> ~d_L* d )
     3.09493706E-02    2     2000001        -1   # BR(~g -> ~d_R  db)
     3.09493706E-02    2    -2000001         1   # BR(~g -> ~d_R* d )
     3.13353449E-02    2     1000002        -2   # BR(~g -> ~u_L  ub)
     3.13353449E-02    2    -1000002         2   # BR(~g -> ~u_L* u )
     3.11734212E-02    2     2000002        -2   # BR(~g -> ~u_R  ub)
     3.11734212E-02    2    -2000002         2   # BR(~g -> ~u_R* u )
     3.06399441E-02    2     1000003        -3   # BR(~g -> ~s_L  sb)
     3.06399441E-02    2    -1000003         3   # BR(~g -> ~s_L* s )
     3.09493706E-02    2     2000003        -3   # BR(~g -> ~s_R  sb)
     3.09493706E-02    2    -2000003         3   # BR(~g -> ~s_R* s )
     3.13353449E-02    2     1000004        -4   # BR(~g -> ~c_L  cb)
     3.13353449E-02    2    -1000004         4   # BR(~g -> ~c_L* c )
     3.11734212E-02    2     2000004        -4   # BR(~g -> ~c_R  cb)
     3.11734212E-02    2    -2000004         4   # BR(~g -> ~c_R* c )
     3.28074135E-02    2     1000005        -5   # BR(~g -> ~b_1  bb)
     3.28074135E-02    2    -1000005         5   # BR(~g -> ~b_1* b )
     2.87440219E-02    2     2000005        -5   # BR(~g -> ~b_2  bb)
     2.87440219E-02    2    -2000005         5   # BR(~g -> ~b_2* b )
     1.90252403E-01    2     1000006        -6   # BR(~g -> ~t_1  tb)
     1.90252403E-01    2    -1000006         6   # BR(~g -> ~t_1* t )
#
#         PDG            Width
DECAY   1000006     8.47112969E+01   # stop1 decays
#          BR         NDA      ID1       ID2
     3.82976361E-02    2     1000022         6   # BR(~t_1 -> ~chi_10 t )
     1.08485529E-01    2     1000023         6   # BR(~t_1 -> ~chi_20 t )
     2.14456495E-01    2     1000025         6   # BR(~t_1 -> ~chi_30 t )
     2.17518537E-01    2     1000035         6   # BR(~t_1 -> ~chi_40 t )
     7.38381009E-02    2     1000024         5   # BR(~t_1 -> ~chi_1+ b )
     3.47403702E-01    2     1000037         5   # BR(~t_1 -> ~chi_2+ b )
#
#         PDG            Width
DECAY   2000006     8.59545061E+01   # stop2 decays
#          BR         NDA      ID1       ID2
     4.87712746E-02    2     1000022         6   # BR(~t_2 -> ~chi_10 t )
     2.11872499E-01    2     1000023         6   # BR(~t_2 -> ~chi_20 t )
     2.98824687E-01    2     1000025         6   # BR(~t_2 -> ~chi_30 t )
     6.68160190E-02    2     1000035         6   # BR(~t_2 -> ~chi_40 t )
     3.50773820E-01    2     1000024         5   # BR(~t_2 -> ~chi_1+ b )
     1.18861517E-02    2     1000037         5   # BR(~t_2 -> ~chi_2+ b )
     3.10234710E-03    2     1000006        25   # BR(~t_2 -> ~t_1    h )
     7.95320126E-03    2     1000006        23   # BR(~t_2 -> ~t_1    Z )
#
#         PDG            Width
DECAY   1000005     3.00342165E+01   # sbottom1 decays
#          BR         NDA      ID1       ID2
     2.30433105E-02    2     1000022         5   # BR(~b_1 -> ~chi_10 b )
     2.29068327E-02    2     1000023         5   # BR(~b_1 -> ~chi_20 b )
     3.60675222E-02    2     1000025         5   # BR(~b_1 -> ~chi_30 b )
     1.36312471E-01    2     1000035         5   # BR(~b_1 -> ~chi_40 b )
     2.96832544E-01    2    -1000024         6   # BR(~b_1 -> ~chi_1- t )
     4.85837602E-01    2    -1000037         6   # BR(~b_1 -> ~chi_2- t )
    -1.00028267E-03    2     1000006       -24   # BR(~b_1 -> ~t_1    W-)
#
#         PDG            Width
DECAY   2000005     5.42615223E+01   # sbottom2 decays
#          BR         NDA      ID1       ID2
     3.37941590E-02    2     1000022         5   # BR(~b_2 -> ~chi_10 b )
     5.21761110E-02    2     1000023         5   # BR(~b_2 -> ~chi_20 b )
     3.90298545E-03    2     1000025         5   # BR(~b_2 -> ~chi_30 b )
     9.51809219E-02    2     1000035         5   # BR(~b_2 -> ~chi_40 b )
     3.98569336E-01    2    -1000024         6   # BR(~b_2 -> ~chi_1- t )
     4.17491015E-01    2    -1000037         6   # BR(~b_2 -> ~chi_2- t )
    -1.11452913E-03    2     1000006       -24   # BR(~b_2 -> ~t_1    W-)
#
#         PDG            Width
DECAY   1000002     3.71581254E+01   # sup_L decays
#          BR         NDA      ID1       ID2
     3.73859233E-03    2     1000022         2   # BR(~u_L -> ~chi_10 u)
     1.10419539E-01    2     1000023         2   # BR(~u_L -> ~chi_20 u)
     3.79500383E-03    2     1000025         2   # BR(~u_L -> ~chi_30 u)
     2.23103284E-01    2     1000035         2   # BR(~u_L -> ~chi_40 u)
     2.61178009E-01    2     1000024         1   # BR(~u_L -> ~chi_1+ d)
     3.97765572E-01    2     1000037         1   # BR(~u_L -> ~chi_2+ d)
#
#         PDG            Width
DECAY   2000002     7.05929352E+00   # sup_R decays
#          BR         NDA      ID1       ID2
     8.69189758E-01    2     1000022         2   # BR(~u_R -> ~chi_10 u)
     1.03470593E-01    2     1000023         2   # BR(~u_R -> ~chi_20 u)
     1.77138338E-02    2     1000025         2   # BR(~u_R -> ~chi_30 u)
     9.62581487E-03    2     1000035         2   # BR(~u_R -> ~chi_40 u)
#
#         PDG            Width
DECAY   1000001     3.71059467E+01   # sdown_L decays
#          BR         NDA      ID1       ID2
     2.02060473E-02    2     1000022         1   # BR(~d_L -> ~chi_10 d)
     6.88601839E-02    2     1000023         1   # BR(~d_L -> ~chi_20 d)
     8.22352114E-03    2     1000025         1   # BR(~d_L -> ~chi_30 d)
     2.44165858E-01    2     1000035         1   # BR(~d_L -> ~chi_40 d)
     1.10564962E-01    2    -1000024         2   # BR(~d_L -> ~chi_1- u)
     5.47979428E-01    2    -1000037         2   # BR(~d_L -> ~chi_2- u)
#
#         PDG            Width
DECAY   2000001     1.76496881E+00   # sdown_R decays
#          BR         NDA      ID1       ID2
     8.69189665E-01    2     1000022         1   # BR(~d_R -> ~chi_10 d)
     1.03470645E-01    2     1000023         1   # BR(~d_R -> ~chi_20 d)
     1.77138504E-02    2     1000025         1   # BR(~d_R -> ~chi_30 d)
     9.62583985E-03    2     1000035         1   # BR(~d_R -> ~chi_40 d)
#
#         PDG            Width
DECAY   1000004     3.71581254E+01   # scharm_L decays
#          BR         NDA      ID1       ID2
     3.73859233E-03    2     1000022         4   # BR(~c_L -> ~chi_10 c)
     1.10419539E-01    2     1000023         4   # BR(~c_L -> ~chi_20 c)
     3.79500383E-03    2     1000025         4   # BR(~c_L -> ~chi_30 c)
     2.23103284E-01    2     1000035         4   # BR(~c_L -> ~chi_40 c)
     2.61178009E-01    2     1000024         3   # BR(~c_L -> ~chi_1+ s)
     3.97765572E-01    2     1000037         3   # BR(~c_L -> ~chi_2+ s)
#
#         PDG            Width
DECAY   2000004     7.05929352E+00   # scharm_R decays
#          BR         NDA      ID1       ID2
     8.69189758E-01    2     1000022         4   # BR(~c_R -> ~chi_10 c)
     1.03470593E-01    2     1000023         4   # BR(~c_R -> ~chi_20 c)
     1.77138338E-02    2     1000025         4   # BR(~c_R -> ~chi_30 c)
     9.62581487E-03    2     1000035         4   # BR(~c_R -> ~chi_40 c)
#
#         PDG            Width
DECAY   1000003     3.71059467E+01   # sstrange_L decays
#          BR         NDA      ID1       ID2
     2.02060473E-02    2     1000022         3   # BR(~s_L -> ~chi_10 s)
     6.88601839E-02    2     1000023         3   # BR(~s_L -> ~chi_20 s)
     8.22352114E-03    2     1000025         3   # BR(~s_L -> ~chi_30 s)
     2.44165858E-01    2     1000035         3   # BR(~s_L -> ~chi_40 s)
     1.10564962E-01    2    -1000024         4   # BR(~s_L -> ~chi_1- c)
     5.47979428E-01    2    -1000037         4   # BR(~s_L -> ~chi_2- c)
#
#         PDG            Width
DECAY   2000003     1.76496881E+00   # sstrange_R decays
#          BR         NDA      ID1       ID2
     8.69189665E-01    2     1000022         3   # BR(~s_R -> ~chi_10 s)
     1.03470645E-01    2     1000023         3   # BR(~s_R -> ~chi_20 s)
     1.77138504E-02    2     1000025         3   # BR(~s_R -> ~chi_30 s)
     9.62583985E-03    2     1000035         3   # BR(~s_R -> ~chi_40 s)
#
#         PDG            Width
DECAY   1000011     4.06243480E+01   # selectron_L decays
#          BR         NDA      ID1       ID2
     6.39949253E-02    2     1000022        11   # BR(~e_L -> ~chi_10 e-)
     1.48201513E-01    2     1000023        11   # BR(~e_L -> ~chi_20 e-)
     9.72283350E-04    2     1000025        11   # BR(~e_L -> ~chi_30 e-)
     1.85847943E-01    2     1000035        11   # BR(~e_L -> ~chi_40 e-)
     1.01033756E-01    2    -1000024        12   # BR(~e_L -> ~chi_1- nu_e)
     4.99949579E-01    2    -1000037        12   # BR(~e_L -> ~chi_2- nu_e)
#
#         PDG            Width
DECAY   2000011     1.59032496E+01   # selectron_R decays
#          BR         NDA      ID1       ID2
     8.69298259E-01    2     1000022        11   # BR(~e_R -> ~chi_10 e-)
     1.03401648E-01    2     1000023        11   # BR(~e_R -> ~chi_20 e-)
     1.76953382E-02    2     1000025        11   # BR(~e_R -> ~chi_30 e-)
     9.60475443E-03    2     1000035        11   # BR(~e_R -> ~chi_40 e-)
#
#         PDG            Width
DECAY   1000013     4.06243480E+01   # smuon_L decays
#          BR         NDA      ID1       ID2
     6.39949253E-02    2     1000022        13   # BR(~mu_L -> ~chi_10 mu-)
     1.48201513E-01    2     1000023        13   # BR(~mu_L -> ~chi_20 mu-)
     9.72283350E-04    2     1000025        13   # BR(~mu_L -> ~chi_30 mu-)
     1.85847943E-01    2     1000035        13   # BR(~mu_L -> ~chi_40 mu-)
     1.01033756E-01    2    -1000024        14   # BR(~mu_L -> ~chi_1- nu_mu)
     4.99949579E-01    2    -1000037        14   # BR(~mu_L -> ~chi_2- nu_mu)
#
#         PDG            Width
DECAY   2000013     1.59032496E+01   # smuon_R decays
#          BR         NDA      ID1       ID2
     8.69298259E-01    2     1000022        13   # BR(~mu_R -> ~chi_10 mu-)
     1.03401648E-01    2     1000023        13   # BR(~mu_R -> ~chi_20 mu-)
     1.76953382E-02    2     1000025        13   # BR(~mu_R -> ~chi_30 mu-)
     9.60475443E-03    2     1000035        13   # BR(~mu_R -> ~chi_40 mu-)
#
#         PDG            Width
DECAY   1000015     2.89107796E+01   # stau_1 decays
#          BR         NDA      ID1       ID2
     2.70662197E-01    2     1000022        15   # BR(~tau_1 -> ~chi_10  tau-)
     1.20153277E-01    2     1000023        15   # BR(~tau_1 -> ~chi_20  tau-)
     2.70649217E-02    2     1000025        15   # BR(~tau_1 -> ~chi_30  tau-)
     1.56715249E-01    2     1000035        15   # BR(~tau_1 -> ~chi_40  tau-)
     2.99026214E-02    2    -1000024        16   # BR(~tau_1 -> ~chi_1-  nu_tau)
     3.95501734E-01    2    -1000037        16   # BR(~tau_1 -> ~chi_2-  nu_tau)
#
#         PDG            Width
DECAY   2000015     2.93312905E+01   # stau_2 decays
#          BR         NDA      ID1       ID2
     2.97542250E-01    2     1000022        15   # BR(~tau_2 -> ~chi_10  tau-)
     1.56968984E-01    2     1000023        15   # BR(~tau_2 -> ~chi_20  tau-)
     1.53538169E-03    2     1000025        15   # BR(~tau_2 -> ~chi_30  tau-)
     1.11402697E-01    2     1000035        15   # BR(~tau_2 -> ~chi_40  tau-)
     1.26748872E-01    2    -1000024        16   # BR(~tau_2 -> ~chi_1-  nu_tau)
     3.05801816E-01    2    -1000037        16   # BR(~tau_2 -> ~chi_2-  nu_tau)
#
#         PDG            Width
DECAY   1000012     4.06540259E+01   # snu_eL decays
#          BR         NDA      ID1       ID2
     1.09039633E-01    2     1000022        12   # BR(~nu_eL -> ~chi_10 nu_e)
     3.37377270E-02    2     1000023        12   # BR(~nu_eL -> ~chi_20 nu_e)
     1.30761244E-02    2     1000025        12   # BR(~nu_eL -> ~chi_30 nu_e)
     2.42218647E-01    2     1000035        12   # BR(~nu_eL -> ~chi_40 nu_e)
     2.38807328E-01    2     1000024        11   # BR(~nu_eL -> ~chi_1+ e-)
     3.63120540E-01    2     1000037        11   # BR(~nu_eL -> ~chi_2+ e-)
#
#         PDG            Width
DECAY   1000014     4.06540259E+01   # snu_muL decays
#          BR         NDA      ID1       ID2
     1.09039633E-01    2     1000022        14   # BR(~nu_muL -> ~chi_10 nu_mu)
     3.37377270E-02    2     1000023        14   # BR(~nu_muL -> ~chi_20 nu_mu)
     1.30761244E-02    2     1000025        14   # BR(~nu_muL -> ~chi_30 nu_mu)
     2.42218647E-01    2     1000035        14   # BR(~nu_muL -> ~chi_40 nu_mu)
     2.38807328E-01    2     1000024        13   # BR(~nu_muL -> ~chi_1+ mu-)
     3.63120540E-01    2     1000037        13   # BR(~nu_muL -> ~chi_2+ mu-)
#
#         PDG            Width
DECAY   1000016     4.12253430E+01   # snu_tauL decays
#          BR         NDA      ID1       ID2
     1.07528519E-01    2     1000022        16   # BR(~nu_tauL -> ~chi_10 nu_tau)
     3.32701763E-02    2     1000023        16   # BR(~nu_tauL -> ~chi_20 nu_tau)
     1.28949103E-02    2     1000025        16   # BR(~nu_tauL -> ~chi_30 nu_tau)
     2.38861885E-01    2     1000035        16   # BR(~nu_tauL -> ~chi_40 nu_tau)
     2.47065315E-01    2     1000024        15   # BR(~nu_tauL -> ~chi_1+ tau-)
     3.60379195E-01    2     1000037        15   # BR(~nu_tauL -> ~chi_2+ tau-)
#
#         PDG            Width
DECAY   1000024     2.30137877E-03   # chargino1+ decays
#          BR         NDA      ID1       ID2
     1.00000000E+00    2     1000022        24   # BR(~chi_1+ -> ~chi_10  W+)
#
#         PDG            Width
DECAY   1000037     6.51745291E-01   # chargino2+ decays
#          BR         NDA      ID1       ID2
     3.42885914E-01    2     1000024        23   # BR(~chi_2+ -> ~chi_1+  Z )
     1.57092865E-02    2     1000022        24   # BR(~chi_2+ -> ~chi_10  W+)
     4.87221360E-01    2     1000023        24   # BR(~chi_2+ -> ~chi_20  W+)
     9.63697654E-02    2     1000025        24   # BR(~chi_2+ -> ~chi_30  W+)
     5.78136743E-02    2     1000024        25   # BR(~chi_2+ -> ~chi_1+  h )
#
#         PDG            Width
DECAY   1000022     0.00000000E+00   # neutralino1 decays
#
#         PDG            Width
DECAY   1000023     4.24174258E-04   # neutralino2 decays
#          BR         NDA      ID1       ID2
     2.58325136E-04    2     1000022        22   # BR(~chi_20 -> ~chi_10 gam)
#           BR         NDA      ID1       ID2       ID3
     1.17238748E-01    3     1000022        -2         2   # BR(~chi_20 -> ~chi_10 ub      u)
     1.51986019E-01    3     1000022        -1         1   # BR(~chi_20 -> ~chi_10 db      d)
     1.17238748E-01    3     1000022        -4         4   # BR(~chi_20 -> ~chi_10 cb      c)
     1.51986019E-01    3     1000022        -3         3   # BR(~chi_20 -> ~chi_10 sb      s)
     1.48719382E-01    3     1000022        -5         5   # BR(~chi_20 -> ~chi_10 bb      b)
     3.47162978E-02    3     1000022       -11        11   # BR(~chi_20 -> ~chi_10 e+      e-)
     3.47162978E-02    3     1000022       -13        13   # BR(~chi_20 -> ~chi_10 mu+     mu-)
     3.45898088E-02    3     1000022       -15        15   # BR(~chi_20 -> ~chi_10 tau+    tau-)
     6.95074592E-02    3     1000022       -12        12   # BR(~chi_20 -> ~chi_10 nu_eb   nu_e)
     6.95074592E-02    3     1000022       -14        14   # BR(~chi_20 -> ~chi_10 nu_mub  nu_mu)
     6.95074592E-02    3     1000022       -16        16   # BR(~chi_20 -> ~chi_10 nu_taub nu_tau)
     4.89880027E-06    3     1000024        -2         1   # BR(~chi_20 -> ~chi_1+ ub      d)
     4.89880027E-06    3    -1000024        -1         2   # BR(~chi_20 -> ~chi_1- db      u)
     4.89880027E-06    3     1000024        -4         3   # BR(~chi_20 -> ~chi_1+ cb      s)
     4.89880027E-06    3    -1000024        -3         4   # BR(~chi_20 -> ~chi_1- sb      c)
     1.63290887E-06    3     1000024       -12        11   # BR(~chi_20 -> ~chi_1+ nu_eb   e-)
     1.63290887E-06    3    -1000024        12       -11   # BR(~chi_20 -> ~chi_1- nu_e    e+)
     1.63290887E-06    3     1000024       -14        13   # BR(~chi_20 -> ~chi_1+ nu_mub  mu-)
     1.63290887E-06    3    -1000024        14       -13   # BR(~chi_20 -> ~chi_1- nu_mu   mu+)
     9.25628754E-07    3     1000024       -16        15   # BR(~chi_20 -> ~chi_1+ nu_taub tau-)
     9.25628754E-07    3    -1000024        16       -15   # BR(~chi_20 -> ~chi_1- nu_tau  tau+)
#
#         PDG            Width
DECAY   1000025     4.22810815E-02   # neutralino3 decays
#          BR         NDA      ID1       ID2
     1.00000000E+00    2     1000022        23   # BR(~chi_30 -> ~chi_10   Z )
#
#         PDG            Width
DECAY   1000035     7.20799194E-01   # neutralino4 decays
#          BR         NDA      ID1       ID2
     1.41947720E-02    2     1000022        23   # BR(~chi_40 -> ~chi_10   Z )
     1.28744253E-02    2     1000023        23   # BR(~chi_40 -> ~chi_20   Z )
     7.99718508E-03    2     1000025        23   # BR(~chi_40 -> ~chi_30   Z )
     4.58036749E-01    2     1000024       -24   # BR(~chi_40 -> ~chi_1+   W-)
     4.58036749E-01    2    -1000024        24   # BR(~chi_40 -> ~chi_1-   W+)
     1.16103176E-02    2     1000022        25   # BR(~chi_40 -> ~chi_10   h )
     3.72498029E-02    2     1000023        25   # BR(~chi_40 -> ~chi_20   h )
#
#         PDG            Width
DECAY        25     7.73663982E-03   # h decays
#          BR         NDA      ID1       ID2
     3.38776038E-01    2           5        -5   # BR(h -> b       bb     )
     3.52451580E-02    2         -15        15   # BR(h -> tau+    tau-   )
     1.24739657E-04    2         -13        13   # BR(h -> mu+     mu-    )
     2.63995210E-04    2           3        -3   # BR(h -> s       sb     )
     1.09552922E-02    2           4        -4   # BR(h -> c       cb     )
     3.58224987E-02    2          21        21   # BR(h -> g       g      )
     1.28754162E-03    2          22        22   # BR(h -> gam     gam    )
     8.46871169E-04    2          22        23   # BR(h -> Z       gam    )
     1.12891420E-01    2          24       -24   # BR(h -> W+      W-     )
     1.43959459E-02    2          23        23   # BR(h -> Z       Z      )
     4.49390500E-01    2     1000022   1000022   # BR(h -> ~chi_10 ~chi_10)
#
#         PDG            Width
DECAY        35     1.41411064E+01   # H decays
#          BR         NDA      ID1       ID2
     8.64622285E-02    2           5        -5   # BR(H -> b       bb     )
     1.32430238E-02    2         -15        15   # BR(H -> tau+    tau-   )
     4.68144142E-05    2         -13        13   # BR(H -> mu+     mu-    )
     6.70574467E-05    2           3        -3   # BR(H -> s       sb     )
     3.85590420E-07    2           4        -4   # BR(H -> c       cb     )
     3.44994706E-02    2           6        -6   # BR(H -> t       tb     )
     3.94875534E-05    2          21        21   # BR(H -> g       g      )
     9.84206795E-07    2          22        22   # BR(H -> gam     gam    )
     4.65113435E-08    2          23        22   # BR(H -> Z       gam    )
     1.47906166E-04    2          24       -24   # BR(H -> W+      W-     )
     7.31427987E-05    2          23        23   # BR(H -> Z       Z      )
     5.37453136E-04    2          25        25   # BR(H -> h       h      )
    -3.18933613E-23    2          36        36   # BR(H -> A       A      )
     5.05812977E-17    2          23        36   # BR(H -> Z       A      )
     1.57049375E-01    2     1000024  -1000024   # BR(H -> ~chi_1+ ~chi_1-)
     2.43857711E-02    2     1000037  -1000037   # BR(H -> ~chi_2+ ~chi_2-)
     1.72352550E-01    2     1000024  -1000037   # BR(H -> ~chi_1+ ~chi_2-)
     1.72352550E-01    2     1000037  -1000024   # BR(H -> ~chi_2+ ~chi_1-)
     1.93745709E-02    2     1000022   1000022   # BR(H -> ~chi_10 ~chi_10)
     1.89103625E-02    2     1000023   1000023   # BR(H -> ~chi_20 ~chi_20)
     1.14627502E-02    2     1000025   1000025   # BR(H -> ~chi_30 ~chi_30)
     1.76966640E-02    2     1000035   1000035   # BR(H -> ~chi_40 ~chi_40)
     4.97259760E-02    2     1000022   1000023   # BR(H -> ~chi_10 ~chi_20)
     3.61206165E-02    2     1000022   1000025   # BR(H -> ~chi_10 ~chi_30)
     5.58912037E-03    2     1000022   1000035   # BR(H -> ~chi_10 ~chi_40)
     6.02967170E-03    2     1000023   1000025   # BR(H -> ~chi_20 ~chi_30)
     3.76574754E-02    2     1000023   1000035   # BR(H -> ~chi_20 ~chi_40)
     1.36174546E-01    2     1000025   1000035   # BR(H -> ~chi_30 ~chi_40)
#
#         PDG            Width
DECAY        36     1.41504887E+01   # A decays
#          BR         NDA      ID1       ID2
     8.64627077E-02    2           5        -5   # BR(A -> b       bb     )
     1.32386058E-02    2         -15        15   # BR(A -> tau+    tau-   )
     4.67982074E-05    2         -13        13   # BR(A -> mu+     mu-    )
     6.70856785E-05    2           3        -3   # BR(A -> s       sb     )
     3.70401411E-07    2           4        -4   # BR(A -> c       cb     )
     3.61142668E-02    2           6        -6   # BR(A -> t       tb     )
     1.01041463E-04    2          21        21   # BR(A -> g       g      )
     2.04165762E-07    2          22        22   # BR(A -> gam     gam    )
     9.21590923E-08    2          23        22   # BR(A -> Z       gam    )
     1.42616430E-04    2          23        25   # BR(A -> Z       h      )
     2.11798807E-01    2     1000024  -1000024   # BR(A -> ~chi_1+ ~chi_1-)
     7.26238804E-02    2     1000037  -1000037   # BR(A -> ~chi_2+ ~chi_2-)
     1.20632748E-01    2     1000024  -1000037   # BR(A -> ~chi_1+ ~chi_2-)
     1.20632748E-01    2     1000037  -1000024   # BR(A -> ~chi_2+ ~chi_1-)
     2.28188868E-02    2     1000022   1000022   # BR(A -> ~chi_10 ~chi_10)
     2.92934397E-02    2     1000023   1000023   # BR(A -> ~chi_20 ~chi_20)
     8.08554213E-03    2     1000025   1000025   # BR(A -> ~chi_30 ~chi_30)
     4.64173229E-02    2     1000035   1000035   # BR(A -> ~chi_40 ~chi_40)
     6.96787343E-02    2     1000022   1000023   # BR(A -> ~chi_10 ~chi_20)
     1.92519175E-02    2     1000022   1000025   # BR(A -> ~chi_10 ~chi_30)
     3.74403437E-03    2     1000022   1000035   # BR(A -> ~chi_10 ~chi_40)
     1.28315017E-03    2     1000023   1000025   # BR(A -> ~chi_20 ~chi_30)
     5.90755162E-02    2     1000023   1000035   # BR(A -> ~chi_20 ~chi_40)
     7.84894836E-02    2     1000025   1000035   # BR(A -> ~chi_30 ~chi_40)
#
#         PDG            Width
DECAY        37     1.40240490E+01   # H+ decays
#          BR         NDA      ID1       ID2
     1.38002498E-04    2           4        -5   # BR(H+ -> c       bb     )
     1.34052950E-02    2         -15        16   # BR(H+ -> tau+    nu_tau )
     4.73874486E-05    2         -13        14   # BR(H+ -> mu+     nu_mu  )
     8.83204067E-07    2           2        -5   # BR(H+ -> u       bb     )
     3.23545122E-06    2           2        -3   # BR(H+ -> u       sb     )
     6.69036836E-05    2           4        -3   # BR(H+ -> c       sb     )
     1.19885100E-01    2           6        -5   # BR(H+ -> t       bb     )
     1.46359243E-04    2          24        25   # BR(H+ -> W+      h      )
     5.21996191E-11    2          24        36   # BR(H+ -> W+      A      )
     9.91781736E-02    2     1000024   1000022   # BR(H+ -> ~chi_1+ ~chi_10)
     2.24131878E-02    2     1000024   1000023   # BR(H+ -> ~chi_1+ ~chi_20)
     5.52135637E-02    2     1000024   1000025   # BR(H+ -> ~chi_1+ ~chi_30)
     2.06510454E-01    2     1000024   1000035   # BR(H+ -> ~chi_1+ ~chi_40)
     1.72048760E-02    2     1000037   1000022   # BR(H+ -> ~chi_2+ ~chi_10)
     2.88217717E-01    2     1000037   1000023   # BR(H+ -> ~chi_2+ ~chi_20)
     1.76945954E-01    2     1000037   1000025   # BR(H+ -> ~chi_2+ ~chi_30)
     6.22907566E-04    2     1000037   1000035   # BR(H+ -> ~chi_2+ ~chi_40)
