#
#                              ======================
#                              | THE SUSYHIT OUTPUT |
#                              ======================
#
#
#              ------------------------------------------------------
#              |     This is the output of the SUSY-HIT package     |
#              |  created by A.Djouadi, M.Muehlleitner and M.Spira. |
#              |  In case of problems with SUSY-HIT email to        |
#              |           margarete.muehlleitner@cern.ch           |
#              |           michael.spira@psi.ch                     |
#              |           abdelhak.djouadi@cern.ch                 |
#              ------------------------------------------------------
#
#              ------------------------------------------------------
#              |  SUSY Les Houches Accord - MSSM Spectrum + Decays  |
#              |              based on the decay programs           |
#              |                                                    |
#              |                     SDECAY 1.3b                    |
#              |                                                    |
#              |  Authors: M.Muhlleitner, A.Djouadi and Y.Mambrini  |
#              |  Ref.:    Comput.Phys.Commun.168(2005)46           |
#              |           [hep-ph/0311167]                         |
#              |                                                    |
#              |                     HDECAY 3.4                     |
#              |                                                    |
#              |  By: A.Djouadi,J.Kalinowski,M.Muhlleitner,M.Spira  |
#              |  Ref.:    Comput.Phys.Commun.108(1998)56           |
#              |           [hep-ph/9704448]                         |
#              |                                                    |
#              |                                                    |
#              |  If not stated otherwise all DRbar couplings and   |
#              |  soft SUSY breaking masses are given at the scale  |
#              |  Q=  0.12696910E+04
#              |                                                    |
#              ------------------------------------------------------
#
#
BLOCK DCINFO  # Decay Program information
     1   SDECAY/HDECAY # decay calculator
     2   1.3b  /3.4    # version number
#
BLOCK SPINFO  # Spectrum calculator information
     1     SOFTSUSY    # spectrum calculator               
     2     3.4.0       # version number                    
#
BLOCK MODSEL  # Model selection
     1     0   #  nonUniversal                                     
#
BLOCK SMINPUTS  # Standard Model inputs
         1     1.27908970E+02   # alpha_em^-1(M_Z)^MSbar
         2     1.16637870E-05   # G_F [GeV^-2]
         3     1.18400000E-01   # alpha_S(M_Z)^MSbar
         4     9.11876000E+01   # M_Z pole mass
         5     4.18000000E+00   # mb(mb)^MSbar
         6     1.73200000E+02   # mt pole mass
         7     1.77700000E+00   # mtau pole mass
#
BLOCK MINPAR  # Input parameters - minimal models
         3     2.50400000E+01   # tanb                
#
BLOCK EXTPAR  # Input parameters - non-minimal models
         0    -1.00000000E+00   # Set                 
         1    -7.05540000E+02   # M_1(MX)             
         2     1.52336000E+03   # M_2(MX)             
         3     9.83310000E+02   # M_3(MX)             
        11    -3.22585000E+03   # At(MX)              
        12     1.03827000E+03   # Ab(MX)              
        13     8.63840000E+02   # Atau(MX)            
        23    -2.37142000E+03   # mu(MX)              
        26     3.82512000E+03   # mA(pole)            
        31     2.24148000E+03   # meL(MX)             
        32     2.24148000E+03   # mmuL(MX)            
        33     3.15599000E+03   # mtauL(MX)           
        34     2.49577000E+03   # meR(MX)             
        35     2.49577000E+03   # mmuR(MX)            
        36     3.71689000E+03   # mtauR(MX)           
        41     2.44198000E+03   # mqL1(MX)            
        42     2.44198000E+03   # mqL2(MX)            
        43     6.23930000E+02   # mqL3(MX)            
        44     1.59442000E+03   # muR(MX)             
        45     1.59442000E+03   # mcR(MX)             
        46     2.61918000E+03   # mtR(MX)             
        47     3.05881000E+03   # mdR(MX)             
        48     3.05881000E+03   # msR(MX)             
        49     2.72172000E+03   # mbR(MX)             
#
BLOCK MASS  # Mass Spectrum
# PDG code           mass       particle
        24     8.03933483E+01   # W+
        25     1.27513682E+02   # h
        35     3.82546216E+03   # H
        36     3.82512001E+03   # A
        37     3.82574338E+03   # H+
         5     4.81876030E+00   # b-quark pole mass calculated from mb(mb)_Msbar
   1000001     2.46968906E+03   # ~d_L
   2000001     3.08490034E+03   # ~d_R
   1000002     2.46854804E+03   # ~u_L
   2000002     1.61791238E+03   # ~u_R
   1000003     2.46968906E+03   # ~s_L
   2000003     3.08490034E+03   # ~s_R
   1000004     2.46854804E+03   # ~c_L
   2000004     1.61791238E+03   # ~c_R
   1000005     7.60191072E+02   # ~b_1
   2000005     2.74953340E+03   # ~b_2
   1000006     7.51107688E+02   # ~t_1
   2000006     2.64306308E+03   # ~t_2
   1000011     2.24594813E+03   # ~e_L
   2000011     2.50059075E+03   # ~e_R
   1000012     2.24423805E+03   # ~nu_eL
   1000013     2.24594813E+03   # ~mu_L
   2000013     2.50059075E+03   # ~mu_R
   1000014     2.24423805E+03   # ~nu_muL
   1000015     3.16126955E+03   # ~tau_1
   2000015     3.72354539E+03   # ~tau_2
   1000016     3.16038358E+03   # ~nu_tauL
   1000021     1.12235031E+03   # ~g
   1000022    -7.09180210E+02   # ~chi_10
   1000023     1.55169283E+03   # ~chi_20
   1000025    -2.40697841E+03   # ~chi_30
   1000035     2.40902232E+03   # ~chi_40
   1000024     1.55185809E+03   # ~chi_1+
   1000037     2.40987305E+03   # ~chi_2+
#
BLOCK NMIX  # Neutralino Mixing Matrix
  1  1     9.99781678E-01   # N_11
  1  2     2.13426600E-04   # N_12
  1  3    -1.98813541E-02   # N_13
  1  4     6.42508891E-03   # N_14
  2  1     6.82160980E-04   # N_21
  2  2     9.97786120E-01   # N_22
  2  3     5.64013026E-02   # N_23
  2  4     3.52319050E-02   # N_24
  3  1    -1.85997888E-02   # N_31
  3  2     1.49859253E-02   # N_32
  3  3    -7.06635516E-01   # N_33
  3  4     7.07174460E-01   # N_34
  4  1     9.49621353E-03   # N_41
  4  2    -6.47937953E-02   # N_42
  4  3     7.05046007E-01   # N_43
  4  4     7.06131513E-01   # N_44
#
BLOCK UMIX  # Chargino Mixing Matrix U
  1  1     9.96892470E-01   # U_11
  1  2     7.87743870E-02   # U_12
  2  1    -7.87743870E-02   # U_21
  2  2     9.96892470E-01   # U_22
#
BLOCK VMIX  # Chargino Mixing Matrix V
  1  1     9.98781943E-01   # V_11
  1  2    -4.93419825E-02   # V_12
  2  1    -4.93419825E-02   # V_21
  2  2    -9.98781943E-01   # V_22
#
BLOCK STOPMIX  # Stop Mixing Matrix
  1  1     9.97354245E-01   # cos(theta_t)
  1  2     7.26946352E-02   # sin(theta_t)
  2  1    -7.26946352E-02   # -sin(theta_t)
  2  2     9.97354245E-01   # cos(theta_t)
#
BLOCK SBOTMIX  # Sbottom Mixing Matrix
  1  1     9.99746541E-01   # cos(theta_b)
  1  2    -2.25134129E-02   # sin(theta_b)
  2  1     2.25134129E-02   # -sin(theta_b)
  2  2     9.99746541E-01   # cos(theta_b)
#
BLOCK STAUMIX  # Stau Mixing Matrix
  1  1     9.99655707E-01   # cos(theta_tau)
  1  2    -2.62386635E-02   # sin(theta_tau)
  2  1     2.62386635E-02   # -sin(theta_tau)
  2  2     9.99655707E-01   # cos(theta_tau)
#
BLOCK ALPHA  # Higgs mixing
          -4.11808422E-02   # Mixing angle in the neutral Higgs boson sector
#
BLOCK HMIX Q=  1.26969100E+03  # DRbar Higgs Parameters
         1    -2.40392902E+03   # mu(Q)MSSM           
         2     2.43270990E+01   # tan                 
         3     2.43850483E+02   # higgs               
         4     1.36697622E+07   # mA^2(Q)MSSM         
#
BLOCK GAUGE Q=  1.26969100E+03  # The gauge couplings
     1     3.62017067E-01   # gprime(Q) DRbar
     2     6.36507740E-01   # g(Q) DRbar
     3     1.05015997E+00   # g3(Q) DRbar
#
BLOCK AU Q=  1.26969100E+03  # The trilinear couplings
  1  1     0.00000000E+00   # A_u(Q) DRbar
  2  2     0.00000000E+00   # A_c(Q) DRbar
  3  3    -3.22585000E+03   # A_t(Q) DRbar
#
BLOCK AD Q=  1.26969100E+03  # The trilinear couplings
  1  1     0.00000000E+00   # A_d(Q) DRbar
  2  2     0.00000000E+00   # A_s(Q) DRbar
  3  3     1.03827000E+03   # A_b(Q) DRbar
#
BLOCK AE Q=  1.26969100E+03  # The trilinear couplings
  1  1     0.00000000E+00   # A_e(Q) DRbar
  2  2     0.00000000E+00   # A_mu(Q) DRbar
  3  3     8.63840000E+02   # A_tau(Q) DRbar
#
BLOCK Yu Q=  1.26969100E+03  # The Yukawa couplings
  1  1     0.00000000E+00   # y_u(Q) DRbar
  2  2     0.00000000E+00   # y_c(Q) DRbar
  3  3     8.41329811E-01   # y_t(Q) DRbar
#
BLOCK Yd Q=  1.26969100E+03  # The Yukawa couplings
  1  1     0.00000000E+00   # y_d(Q) DRbar
  2  2     0.00000000E+00   # y_s(Q) DRbar
  3  3     3.83619070E-01   # y_b(Q) DRbar
#
BLOCK Ye Q=  1.26969100E+03  # The Yukawa couplings
  1  1     0.00000000E+00   # y_e(Q) DRbar
  2  2     0.00000000E+00   # y_mu(Q) DRbar
  3  3     2.40971796E-01   # y_tau(Q) DRbar
#
BLOCK MSOFT Q=  1.26969100E+03  # The soft SUSY breaking masses at the scale Q
         1    -7.05540000E+02   # M_1(Q)              
         2     1.52336000E+03   # M_2(Q)              
         3     9.83310000E+02   # M_3(Q)              
        21     8.81195736E+06   # mH1^2(Q)            
        22    -5.87666938E+06   # mH2^2(Q)            
        31     2.24148000E+03   # meL(Q)              
        32     2.24148000E+03   # mmuL(Q)             
        33     3.15599000E+03   # mtauL(Q)            
        34     2.49577000E+03   # meR(Q)              
        35     2.49577000E+03   # mmuR(Q)             
        36     3.71689000E+03   # mtauR(Q)            
        41     2.44198000E+03   # mqL1(Q)             
        42     2.44198000E+03   # mqL2(Q)             
        43     6.23929996E+02   # mqL3(Q)             
        44     1.59442000E+03   # muR(Q)              
        45     1.59442000E+03   # mcR(Q)              
        46     2.61918000E+03   # mtR(Q)              
        47     3.05881000E+03   # mdR(Q)              
        48     3.05881000E+03   # msR(Q)              
        49     2.72172000E+03   # mbR(Q)              
#
Block HiggsBoundsInputHiggsCouplingsFermions
# ScalarNormEffCoupSq PseudoSNormEffCoupSq NP   IP1 IP2 IP2
    1.00475182E+00    0.00000000E+00        3  25   5   5  # h0-b-b eff. coupling^2, normalised to SM
    5.91802994E+02    0.00000000E+00        3  35   5   5  # H0-b-b eff. coupling^2, normalised to SM
    0.00000000E+00    5.91807746E+02        3  36   5   5  # A0-b-b eff. coupling^2, normalised to SM
#
    9.99991971E-01    0.00000000E+00        3  25   6   6  # h0-t-t eff. coupling^2, normalised to SM
    1.69776727E-03    0.00000000E+00        3  35   6   6  # H0-t-t eff. coupling^2, normalised to SM
    0.00000000E+00    1.68973794E-03        3  36   6   6  # A0-t-t eff. coupling^2, normalised to SM
#
    1.00475182E+00    0.00000000E+00        3  25  15  15  # h0-tau-tau eff. coupling^2, normalised to SM
    5.91802994E+02    0.00000000E+00        3  35  15  15  # H0-tau-tau eff. coupling^2, normalised to SM
    0.00000000E+00    5.91807746E+02        3  36  15  15  # A0-tau-tau eff. coupling^2, normalised to SM
#
Block HiggsBoundsInputHiggsCouplingsBosons
    9.99999990E-01        3  25  24  24  # h0-W-W eff. coupling^2, normalised to SM
    9.51594008E-09        3  35  24  24  # H0-W-W eff. coupling^2, normalised to SM
    0.00000000E+00        3  36  24  24  # A0-W-W eff. coupling^2, normalised to SM
#
    9.99999990E-01        3  25  23  23  # h0-Z-Z eff. coupling^2, normalised to SM
    9.51594008E-09        3  35  23  23  # H0-Z-Z eff. coupling^2, normalised to SM
    0.00000000E+00        3  36  23  23  # A0-Z-Z eff. coupling^2, normalised to SM
#
    8.72077636E-01        3  25  21  21  # h0-g-g eff. coupling^2, normalised to SM
    9.47176229E-14        3  35  21  21  # H0-g-g eff. coupling^2, normalised to SM
    1.67820574E-13        3  36  21  21  # A0-g-g eff. coupling^2, normalised to SM
#
    0.00000000E+00        3  25  25  23  # h0-h0-Z eff. coupling^2, normalised to SM
    0.00000000E+00        3  35  25  23  # H0-h0-Z eff. coupling^2, normalised to SM
    9.51594008E-09        3  36  25  23  # A0-h0-Z eff. coupling^2, normalised to SM
    0.00000000E+00        3  35  35  23  # H0-H0-Z eff. coupling^2, normalised to SM
    9.99999990E-01        3  36  35  23  # A0-H0-Z eff. coupling^2, normalised to SM
    0.00000000E+00        3  36  36  23  # A0-A0-Z eff. coupling^2, normalised to SM
#
    0.00000000E+00        4  25  21  21  23  # h0-g-g-Z eff. coupling^2, normalised to SM
    0.00000000E+00        4  35  21  21  23  # H0-g-g-Z eff. coupling^2, normalised to SM
    0.00000000E+00        4  36  21  21  23  # A0-g-g-Z eff. coupling^2, normalised to SM
#
#
#
#                             =================
#                             |The decay table|
#                             =================
#
# - The QCD corrections to the decays gluino -> squark  + quark
#                                     squark -> gaugino + quark_prime
#                                     squark -> squark_prime + Higgs
#                                     squark -> gluino  + quark
#   are included.
#
# - The multi-body decays for the inos, stops and sbottoms are included.
#
# - The loop induced decays for the gluino, neutralinos and stops
#   are included.
#
# - The SUSY decays of the top quark are included.
#
#
#         PDG            Width
DECAY         6     1.42669784E+00   # top decays
#          BR         NDA      ID1       ID2
     1.00000000E+00    2           5        24   # BR(t ->  b    W+)
#
#         PDG            Width
DECAY   1000021     1.42229982E+01   # gluino decays
#          BR         NDA      ID1       ID2
     2.65417116E-01    2     1000005        -5   # BR(~g -> ~b_1  bb)
     2.65417116E-01    2    -1000005         5   # BR(~g -> ~b_1* b )
     2.34582884E-01    2     1000006        -6   # BR(~g -> ~t_1  tb)
     2.34582884E-01    2    -1000006         6   # BR(~g -> ~t_1* t )
#
#         PDG            Width
DECAY   1000006     1.52971781E-07   # stop1 decays
#           BR         NDA      ID1       ID2
     9.92272362E-01    2     1000022         4   # BR(~t_1 -> ~chi_10 c )
     7.65011884E-03    2     1000022         2   # BR(~t_1 -> ~chi_10 u )
#           BR         NDA      ID1       ID2       ID3       ID4
     2.53563107E-05    4        4       -3        1000022      5   # BR(~t_1 -> c  sb  ~chi_10  b)
     2.62270596E-05    4        2       -1        1000022      5   # BR(~t_1 -> u  db  ~chi_10  b)
     8.67088031E-06    4        -11       12        1000022      5   # BR(~t_1 -> e+  nu_e  ~chi_10  b)
     8.88791381E-06    4        -13       14        1000022      5   # BR(~t_1 -> mu+  nu_mu  ~chi_10  b)
     8.37670841E-06    4        -15       16        1000022      5   # BR(~t_1 -> tau+  nu_tau  ~chi_10  b)
#
#         PDG            Width
DECAY   2000006     2.02678507E+02   # stop2 decays
#          BR         NDA      ID1       ID2
     2.56854188E-02    2     1000022         6   # BR(~t_2 -> ~chi_10 t )
     1.47246445E-06    2     1000023         6   # BR(~t_2 -> ~chi_20 t )
     1.60902773E-03    2     1000025         6   # BR(~t_2 -> ~chi_30 t )
     1.92642419E-03    2     1000035         6   # BR(~t_2 -> ~chi_40 t )
     3.12381080E-06    2     1000024         5   # BR(~t_2 -> ~chi_1+ b )
     5.21015449E-03    2     1000037         5   # BR(~t_2 -> ~chi_2+ b )
     5.01075550E-01    2     1000021         6   # BR(~t_2 -> ~g      t )
     1.14999806E-01    2     1000006        25   # BR(~t_2 -> ~t_1    h )
     1.18753326E-01    2     1000006        23   # BR(~t_2 -> ~t_1    Z )
     2.30735696E-01    2     1000005        24   # BR(~t_2 -> ~b_1    W+)
#
#         PDG            Width
DECAY   1000005     1.83314812E-03   # sbottom1 decays
#          BR         NDA      ID1       ID2
     1.00000000E+00    2     1000022         5   # BR(~b_1 -> ~chi_10 b )
#
#         PDG            Width
DECAY   2000005     1.24688511E+02   # sbottom2 decays
#          BR         NDA      ID1       ID2
     1.11117672E-02    2     1000022         5   # BR(~b_2 -> ~chi_10 b )
     2.71157779E-05    2     1000023         5   # BR(~b_2 -> ~chi_20 b )
     1.76489930E-03    2     1000025         5   # BR(~b_2 -> ~chi_30 b )
     1.74020645E-03    2     1000035         5   # BR(~b_2 -> ~chi_40 b )
     5.15899183E-05    2    -1000024         6   # BR(~b_2 -> ~chi_1- t )
     3.07620134E-03    2    -1000037         6   # BR(~b_2 -> ~chi_2- t )
     8.96093931E-01    2     1000021         5   # BR(~b_2 -> ~g      b )
     2.34905945E-02    2     1000005        25   # BR(~b_2 -> ~b_1    h )
     2.12481315E-02    2     1000005        23   # BR(~b_2 -> ~b_1    Z )
     4.13955286E-02    2     1000006       -24   # BR(~b_2 -> ~t_1    W-)
     3.43615907E-08    2     2000006       -24   # BR(~b_2 -> ~t_2    W-)
#
#         PDG            Width
DECAY   1000002     1.21147680E+02   # sup_L decays
#          BR         NDA      ID1       ID2
     2.40393971E-03    2     1000022         2   # BR(~u_L -> ~chi_10 u)
     2.90656957E-02    2     1000023         2   # BR(~u_L -> ~chi_20 u)
     2.78904618E-08    2     1000025         2   # BR(~u_L -> ~chi_30 u)
     7.89605271E-07    2     1000035         2   # BR(~u_L -> ~chi_40 u)
     5.82163342E-02    2     1000024         1   # BR(~u_L -> ~chi_1+ d)
     9.42358257E-07    2     1000037         1   # BR(~u_L -> ~chi_2+ d)
     9.10312271E-01    2     1000021         2   # BR(~u_L -> ~g      u)
#
#         PDG            Width
DECAY   2000002     3.32615047E+01   # sup_R decays
#          BR         NDA      ID1       ID2
     7.06486320E-02    2     1000022         2   # BR(~u_R -> ~chi_10 u)
     3.52464844E-10    2     1000023         2   # BR(~u_R -> ~chi_20 u)
     9.29351368E-01    2     1000021         2   # BR(~u_R -> ~g      u)
#
#         PDG            Width
DECAY   1000001     1.21239890E+02   # sdown_L decays
#          BR         NDA      ID1       ID2
     2.39282987E-03    2     1000022         1   # BR(~d_L -> ~chi_10 d)
     2.90767249E-02    2     1000023         1   # BR(~d_L -> ~chi_20 d)
     7.53164882E-08    2     1000025         1   # BR(~d_L -> ~chi_30 d)
     9.14293083E-07    2     1000035         1   # BR(~d_L -> ~chi_40 d)
     5.80483972E-02    2    -1000024         2   # BR(~d_L -> ~chi_1- u)
     2.48987902E-06    2    -1000037         2   # BR(~d_L -> ~chi_2- u)
     9.10478569E-01    2     1000021         1   # BR(~d_L -> ~g      d)
#
#         PDG            Width
DECAY   2000001     1.66413017E+02   # sdown_R decays
#          BR         NDA      ID1       ID2
     9.31825098E-03    2     1000022         1   # BR(~d_R -> ~chi_10 d)
     2.70254801E-09    2     1000023         1   # BR(~d_R -> ~chi_20 d)
     5.57876523E-07    2     1000025         1   # BR(~d_R -> ~chi_30 d)
     1.44661944E-07    2     1000035         1   # BR(~d_R -> ~chi_40 d)
     9.90681044E-01    2     1000021         1   # BR(~d_R -> ~g      d)
#
#         PDG            Width
DECAY   1000004     1.02074875E+02   # scharm_L decays
#          BR         NDA      ID1       ID2
     2.95397166E-03    2     1000022         4   # BR(~c_L -> ~chi_10 c)
     3.55104420E-02    2     1000023         4   # BR(~c_L -> ~chi_20 c)
     3.10480875E-08    2     1000025         4   # BR(~c_L -> ~chi_30 c)
     8.77627828E-07    2     1000035         4   # BR(~c_L -> ~chi_40 c)
     7.11246287E-02    2     1000024         3   # BR(~c_L -> ~chi_1+ s)
     1.04708367E-06    2     1000037         3   # BR(~c_L -> ~chi_2+ s)
     8.90409002E-01    2     1000021         4   # BR(~c_L -> ~g      c)
#
#         PDG            Width
DECAY   2000004     2.79216446E+01   # scharm_R decays
#          BR         NDA      ID1       ID2
     8.76069230E-02    2     1000022         4   # BR(~c_R -> ~chi_10 c)
     4.01660756E-10    2     1000023         4   # BR(~c_R -> ~chi_20 c)
     9.12393077E-01    2     1000021         4   # BR(~c_R -> ~g      c)
#
#         PDG            Width
DECAY   1000003     1.02148629E+02   # sstrange_L decays
#          BR         NDA      ID1       ID2
     2.94042346E-03    2     1000022         3   # BR(~s_L -> ~chi_10 s)
     3.55257218E-02    2     1000023         3   # BR(~s_L -> ~chi_20 s)
     8.39443702E-08    2     1000025         3   # BR(~s_L -> ~chi_30 s)
     1.01749361E-06    2     1000035         3   # BR(~s_L -> ~chi_40 s)
     7.09227929E-02    2    -1000024         4   # BR(~s_L -> ~chi_1- c)
     2.76814826E-06    2    -1000037         4   # BR(~s_L -> ~chi_2- c)
     8.90607192E-01    2     1000021         3   # BR(~s_L -> ~g      s)
#
#         PDG            Width
DECAY   2000003     1.37473201E+02   # sstrange_R decays
#          BR         NDA      ID1       ID2
     1.16586498E-02    2     1000022         3   # BR(~s_R -> ~chi_10 s)
     3.37604221E-09    2     1000023         3   # BR(~s_R -> ~chi_20 s)
     6.88416919E-07    2     1000025         3   # BR(~s_R -> ~chi_30 s)
     1.78499472E-07    2     1000035         3   # BR(~s_R -> ~chi_40 s)
     9.88340480E-01    2     1000021         3   # BR(~s_R -> ~g      s)
#
#         PDG            Width
DECAY   1000011     9.75044383E+00   # selectron_L decays
#          BR         NDA      ID1       ID2
     2.43467083E-01    2     1000022        11   # BR(~e_L -> ~chi_10 e-)
     2.52675297E-01    2     1000023        11   # BR(~e_L -> ~chi_20 e-)
     5.03857620E-01    2    -1000024        12   # BR(~e_L -> ~chi_1- nu_e)
#
#         PDG            Width
DECAY   2000011     1.10214908E+01   # selectron_R decays
#          BR         NDA      ID1       ID2
     9.99997031E-01    2     1000022        11   # BR(~e_R -> ~chi_10 e-)
     2.08191226E-07    2     1000023        11   # BR(~e_R -> ~chi_20 e-)
     2.20935300E-06    2     1000025        11   # BR(~e_R -> ~chi_30 e-)
     5.51489233E-07    2     1000035        11   # BR(~e_R -> ~chi_40 e-)
#
#         PDG            Width
DECAY   1000013     9.75044378E+00   # smuon_L decays
#          BR         NDA      ID1       ID2
     2.43467083E-01    2     1000022        13   # BR(~mu_L -> ~chi_10 mu-)
     2.52675295E-01    2     1000023        13   # BR(~mu_L -> ~chi_20 mu-)
     5.03857623E-01    2    -1000024        14   # BR(~mu_L -> ~chi_1- nu_mu)
#
#         PDG            Width
DECAY   2000013     1.10214908E+01   # smuon_R decays
#          BR         NDA      ID1       ID2
     9.99997031E-01    2     1000022        13   # BR(~mu_R -> ~chi_10 mu-)
     2.08191225E-07    2     1000023        13   # BR(~mu_R -> ~chi_20 mu-)
     2.20935155E-06    2     1000025        13   # BR(~mu_R -> ~chi_30 mu-)
     5.51488854E-07    2     1000035        13   # BR(~mu_R -> ~chi_40 mu-)
#
#         PDG            Width
DECAY   1000015     2.63251555E+01   # stau_1 decays
#          BR         NDA      ID1       ID2
     1.41717071E-01    2     1000022        15   # BR(~tau_1 -> ~chi_10  tau-)
     2.78343410E-01    2     1000023        15   # BR(~tau_1 -> ~chi_20  tau-)
     1.21928021E-02    2     1000025        15   # BR(~tau_1 -> ~chi_30  tau-)
     1.22983781E-02    2     1000035        15   # BR(~tau_1 -> ~chi_40  tau-)
     5.54643427E-01    2    -1000024        16   # BR(~tau_1 -> ~chi_1-  nu_tau)
     8.04912208E-04    2    -1000037        16   # BR(~tau_1 -> ~chi_2-  nu_tau)
#
#         PDG            Width
DECAY   2000015     2.18934086E+01   # stau_2 decays
#          BR         NDA      ID1       ID2
     8.22776619E-01    2     1000022        15   # BR(~tau_2 -> ~chi_10  tau-)
     8.62152413E-06    2     1000023        15   # BR(~tau_2 -> ~chi_20  tau-)
     3.34744102E-02    2     1000025        15   # BR(~tau_2 -> ~chi_30  tau-)
     3.33625806E-02    2     1000035        15   # BR(~tau_2 -> ~chi_40  tau-)
     1.25059707E-05    2    -1000024        16   # BR(~tau_2 -> ~chi_1-  nu_tau)
     6.66195482E-02    2    -1000037        16   # BR(~tau_2 -> ~chi_2-  nu_tau)
     2.14523395E-02    2     1000016       -24   # BR(~tau_2 -> ~nu_tauL W-)
     1.14147753E-02    2     1000015        25   # BR(~tau_2 -> ~tau_1   h)
     1.08785994E-02    2     1000015        23   # BR(~tau_2 -> ~tau_1   Z)
#
#         PDG            Width
DECAY   1000012     9.73290499E+00   # snu_eL decays
#          BR         NDA      ID1       ID2
     2.43272303E-01    2     1000022        12   # BR(~nu_eL -> ~chi_10 nu_e)
     2.51842052E-01    2     1000023        12   # BR(~nu_eL -> ~chi_20 nu_e)
     5.04885646E-01    2     1000024        11   # BR(~nu_eL -> ~chi_1+ e-)
#
#         PDG            Width
DECAY   1000014     9.73290491E+00   # snu_muL decays
#          BR         NDA      ID1       ID2
     2.43272305E-01    2     1000022        14   # BR(~nu_muL -> ~chi_10 nu_mu)
     2.51842054E-01    2     1000023        14   # BR(~nu_muL -> ~chi_20 nu_mu)
     5.04885641E-01    2     1000024        13   # BR(~nu_muL -> ~chi_1+ mu-)
#
#         PDG            Width
DECAY   1000016     2.63155317E+01   # snu_tauL decays
#          BR         NDA      ID1       ID2
     1.41024214E-01    2     1000022        16   # BR(~nu_tauL -> ~chi_10 nu_tau)
     2.77321073E-01    2     1000023        16   # BR(~nu_tauL -> ~chi_20 nu_tau)
     5.57842821E-05    2     1000025        16   # BR(~nu_tauL -> ~chi_30 nu_tau)
     4.18602103E-04    2     1000035        16   # BR(~nu_tauL -> ~chi_40 nu_tau)
     5.56626350E-01    2     1000024        15   # BR(~nu_tauL -> ~chi_1+ tau-)
     2.45539767E-02    2     1000037        15   # BR(~nu_tauL -> ~chi_2+ tau-)
#
#         PDG            Width
DECAY   1000024     2.21560017E+01   # chargino1+ decays
#          BR         NDA      ID1       ID2
     4.98138512E-01    2     1000006        -5   # BR(~chi_1+ -> ~t_1     bb)
     5.01810313E-01    2    -1000005         6   # BR(~chi_1+ -> ~b_1*    t )
     5.11744819E-05    2     1000022        24   # BR(~chi_1+ -> ~chi_10  W+)
#
#         PDG            Width
DECAY   1000037     6.16393547E+01   # chargino2+ decays
#          BR         NDA      ID1       ID2
     1.39100197E-01    2     1000006        -5   # BR(~chi_2+ -> ~t_1     bb)
     6.57973446E-01    2    -1000005         6   # BR(~chi_2+ -> ~b_1*    t )
     6.75892855E-06    2     1000012       -11   # BR(~chi_2+ -> ~nu_eL   e+  )
     6.75892855E-06    2     1000014       -13   # BR(~chi_2+ -> ~nu_muL mu+ )
     1.68857190E-05    2    -1000011        12   # BR(~chi_2+ -> ~e_L+    nu_e)
     1.68857190E-05    2    -1000013        14   # BR(~chi_2+ -> ~mu_L+   nu_mu)
     6.18470482E-02    2     1000024        23   # BR(~chi_2+ -> ~chi_1+  Z )
     2.34197067E-02    2     1000022        24   # BR(~chi_2+ -> ~chi_10  W+)
     5.90199570E-02    2     1000023        24   # BR(~chi_2+ -> ~chi_20  W+)
     5.85923555E-02    2     1000024        25   # BR(~chi_2+ -> ~chi_1+  h )
#
#         PDG            Width
DECAY   1000022     0.00000000E+00   # neutralino1 decays
#
#         PDG            Width
DECAY   1000023     2.21604342E+01   # neutralino2 decays
#          BR         NDA      ID1       ID2
     4.78911492E-05    2     1000022        23   # BR(~chi_20 -> ~chi_10   Z )
     4.17491812E-06    2     1000022        25   # BR(~chi_20 -> ~chi_10   h )
     2.55865106E-01    2     1000006        -6   # BR(~chi_20 -> ~t_1      tb)
     2.55865106E-01    2    -1000006         6   # BR(~chi_20 -> ~t_1*     t )
     2.44108861E-01    2     1000005        -5   # BR(~chi_20 -> ~b_1      bb)
     2.44108861E-01    2    -1000005         5   # BR(~chi_20 -> ~b_1*     b )
#
#         PDG            Width
DECAY   1000025     6.18874327E+01   # neutralino3 decays
#          BR         NDA      ID1       ID2
     4.98722110E-03    2     1000022        23   # BR(~chi_30 -> ~chi_10   Z )
     5.95300442E-02    2     1000023        23   # BR(~chi_30 -> ~chi_20   Z )
     6.00803789E-02    2     1000024       -24   # BR(~chi_30 -> ~chi_1+   W-)
     6.00803789E-02    2    -1000024        24   # BR(~chi_30 -> ~chi_1-   W+)
     2.08447016E-02    2     1000022        25   # BR(~chi_30 -> ~chi_10   h )
     3.01554779E-03    2     1000023        25   # BR(~chi_30 -> ~chi_20   h )
     1.36807996E-05    2     2000002        -2   # BR(~chi_30 -> ~u_R      ub)
     1.36807996E-05    2    -2000002         2   # BR(~chi_30 -> ~u_R*     u )
     1.36807809E-05    2     2000004        -4   # BR(~chi_30 -> ~c_R      cb)
     1.36807809E-05    2    -2000004         4   # BR(~chi_30 -> ~c_R*     c )
     3.26652413E-01    2     1000006        -6   # BR(~chi_30 -> ~t_1      tb)
     3.26652413E-01    2    -1000006         6   # BR(~chi_30 -> ~t_1*     t )
     6.90492893E-02    2     1000005        -5   # BR(~chi_30 -> ~b_1      bb)
     6.90492893E-02    2    -1000005         5   # BR(~chi_30 -> ~b_1*     b )
     2.54595865E-08    2     1000011       -11   # BR(~chi_30 -> ~e_L-     e+)
     2.54595865E-08    2    -1000011        11   # BR(~chi_30 -> ~e_L+     e-)
     2.54595865E-08    2     1000013       -13   # BR(~chi_30 -> ~mu_L-    mu+)
     2.54595865E-08    2    -1000013        13   # BR(~chi_30 -> ~mu_L+    mu-)
     8.74302812E-07    2     1000012       -12   # BR(~chi_30 -> ~nu_eL    nu_eb)
     8.74302812E-07    2    -1000012        12   # BR(~chi_30 -> ~nu_eL*   nu_e )
     8.74302812E-07    2     1000014       -14   # BR(~chi_30 -> ~nu_muL   nu_mub)
     8.74302812E-07    2    -1000014        14   # BR(~chi_30 -> ~nu_muL*  nu_mu )
#
#         PDG            Width
DECAY   1000035     6.28888049E+01   # neutralino4 decays
#          BR         NDA      ID1       ID2
     1.86436857E-02    2     1000022        23   # BR(~chi_40 -> ~chi_10   Z )
     3.21600471E-03    2     1000023        23   # BR(~chi_40 -> ~chi_20   Z )
     6.16671520E-02    2     1000024       -24   # BR(~chi_40 -> ~chi_1+   W-)
     6.16671520E-02    2    -1000024        24   # BR(~chi_40 -> ~chi_1-   W+)
     5.15582548E-03    2     1000022        25   # BR(~chi_40 -> ~chi_10   h )
     5.45032334E-02    2     1000023        25   # BR(~chi_40 -> ~chi_20   h )
     3.52204901E-06    2     2000002        -2   # BR(~chi_40 -> ~u_R      ub)
     3.52204901E-06    2    -2000002         2   # BR(~chi_40 -> ~u_R*     u )
     3.52204424E-06    2     2000004        -4   # BR(~chi_40 -> ~c_R      cb)
     3.52204424E-06    2    -2000004         4   # BR(~chi_40 -> ~c_R*     c )
     3.29217163E-01    2     1000006        -6   # BR(~chi_40 -> ~t_1      tb)
     3.29217163E-01    2    -1000006         6   # BR(~chi_40 -> ~t_1*     t )
     6.83266701E-02    2     1000005        -5   # BR(~chi_40 -> ~b_1      bb)
     6.83266701E-02    2    -1000005         5   # BR(~chi_40 -> ~b_1*     b )
     4.65857687E-06    2     1000011       -11   # BR(~chi_40 -> ~e_L-     e+)
     4.65857687E-06    2    -1000011        11   # BR(~chi_40 -> ~e_L+     e-)
     4.65857687E-06    2     1000013       -13   # BR(~chi_40 -> ~mu_L-    mu+)
     4.65857687E-06    2    -1000013        13   # BR(~chi_40 -> ~mu_L+    mu-)
     6.63954026E-06    2     1000012       -12   # BR(~chi_40 -> ~nu_eL    nu_eb)
     6.63954026E-06    2    -1000012        12   # BR(~chi_40 -> ~nu_eL*   nu_e )
     6.63954026E-06    2     1000014       -14   # BR(~chi_40 -> ~nu_muL   nu_mub)
     6.63954026E-06    2    -1000014        14   # BR(~chi_40 -> ~nu_muL*  nu_mu )
#
#         PDG            Width
DECAY        25     3.85581988E-03   # h decays
#          BR         NDA      ID1       ID2
     4.93920802E-01    2           5        -5   # BR(h -> b       bb     )
     6.87912301E-02    2         -15        15   # BR(h -> tau+    tau-   )
     2.43495479E-04    2         -13        13   # BR(h -> mu+     mu-    )
     2.64870090E-04    2           3        -3   # BR(h -> s       sb     )
     2.28556033E-02    2           4        -4   # BR(h -> c       cb     )
     8.69607970E-02    2          21        21   # BR(h -> g       g      )
     2.66382864E-03    2          22        22   # BR(h -> gam     gam    )
     2.01547115E-03    2          22        23   # BR(h -> Z       gam    )
     2.85308809E-01    2          24       -24   # BR(h -> W+      W-     )
     3.69750934E-02    2          23        23   # BR(h -> Z       Z      )
#
#         PDG            Width
DECAY        35     6.80524407E+01   # H decays
#          BR         NDA      ID1       ID2
     4.29908223E-01    2           5        -5   # BR(H -> b       bb     )
     7.24011075E-02    2         -15        15   # BR(H -> tau+    tau-   )
     2.60907635E-04    2         -13        13   # BR(H -> mu+     mu-    )
     1.87793407E-04    2           3        -3   # BR(H -> s       sb     )
     3.79364180E-08    2           4        -4   # BR(H -> c       cb     )
     3.74370736E-03    2           6        -6   # BR(H -> t       tb     )
     1.06662705E-05    2          21        21   # BR(H -> g       g      )
     8.27915498E-09    2          22        22   # BR(H -> gam     gam    )
     1.48750118E-09    2          23        22   # BR(H -> Z       gam    )
     2.51967637E-06    2          24       -24   # BR(H -> W+      W-     )
     1.25767562E-06    2          23        23   # BR(H -> Z       Z      )
     6.14480083E-06    2          25        25   # BR(H -> h       h      )
     6.19496754E-04    2     1000024  -1000024   # BR(H -> ~chi_1+ ~chi_1-)
     4.20033301E-05    2     1000022   1000022   # BR(H -> ~chi_10 ~chi_10)
     3.16892413E-04    2     1000023   1000023   # BR(H -> ~chi_20 ~chi_20)
     4.54810465E-04    2     1000022   1000023   # BR(H -> ~chi_10 ~chi_20)
     5.45429074E-03    2     1000022   1000025   # BR(H -> ~chi_10 ~chi_30)
     1.51871918E-02    2     1000022   1000035   # BR(H -> ~chi_10 ~chi_40)
     8.30559482E-08    2     2000002  -2000002   # BR(H -> ~u_R    ~u_R*  )
     8.30559482E-08    2     2000004  -2000004   # BR(H -> ~c_R    ~c_R*  )
     8.92371447E-03    2     1000006  -1000006   # BR(H -> ~t_1    ~t_1*  )
     2.22344376E-01    2     1000006  -2000006   # BR(H -> ~t_1    ~t_2*  )
     2.22344376E-01    2     2000006  -1000006   # BR(H -> ~t_2    ~t_1*  )
     3.91953291E-05    2     1000005  -1000005   # BR(H -> ~b_1    ~b_1*  )
     8.87555600E-03    2     1000005  -2000005   # BR(H -> ~b_1    ~b_2*  )
     8.87555600E-03    2     2000005  -1000005   # BR(H -> ~b_2    ~b_1*  )
#
#         PDG            Width
DECAY        36     6.82033371E+01   # A decays
#          BR         NDA      ID1       ID2
     4.28929508E-01    2           5        -5   # BR(A -> b       bb     )
     7.22350908E-02    2         -15        15   # BR(A -> tau+    tau-   )
     2.60309127E-04    2         -13        13   # BR(A -> mu+     mu-    )
     1.87386876E-04    2           3        -3   # BR(A -> s       sb     )
     3.80207100E-08    2           4        -4   # BR(A -> c       cb     )
     3.73676698E-03    2           6        -6   # BR(A -> t       tb     )
     1.41613824E-05    2          21        21   # BR(A -> g       g      )
     3.85566561E-08    2          22        22   # BR(A -> gam     gam    )
     1.29180862E-08    2          23        22   # BR(A -> Z       gam    )
     2.54961261E-06    2          23        25   # BR(A -> Z       h      )
     1.63140975E-03    2     1000024  -1000024   # BR(A -> ~chi_1+ ~chi_1-)
     5.12403646E-05    2     1000022   1000022   # BR(A -> ~chi_10 ~chi_10)
     8.34247799E-04    2     1000023   1000023   # BR(A -> ~chi_20 ~chi_20)
     2.97826679E-04    2     1000022   1000023   # BR(A -> ~chi_10 ~chi_20)
     1.53143176E-02    2     1000022   1000025   # BR(A -> ~chi_10 ~chi_30)
     5.36504965E-03    2     1000022   1000035   # BR(A -> ~chi_10 ~chi_40)
     2.26691141E-01    2     1000006  -2000006   # BR(A -> ~t_1    ~t_2*  )
     2.26691141E-01    2    -1000006   2000006   # BR(A -> ~t_1*   ~t_2   )
     8.87888175E-03    2     1000005  -2000005   # BR(A -> ~b_1    ~b_2*  )
     8.87888175E-03    2    -1000005   2000005   # BR(A -> ~b_1*   ~b_2   )
#
#         PDG            Width
DECAY        37     8.43565456E+01   # H+ decays
#          BR         NDA      ID1       ID2
     7.08662004E-04    2           4        -5   # BR(H+ -> c       bb     )
     5.84125050E-02    2         -15        16   # BR(H+ -> tau+    nu_tau )
     2.10497530E-04    2         -13        14   # BR(H+ -> mu+     nu_mu  )
     7.08661435E-06    2           2        -5   # BR(H+ -> u       bb     )
     7.58237595E-06    2           2        -3   # BR(H+ -> u       sb     )
     1.49273677E-04    2           4        -3   # BR(H+ -> c       sb     )
     4.24215891E-01    2           6        -5   # BR(H+ -> t       bb     )
     2.06319161E-06    2          24        25   # BR(H+ -> W+      h      )
     1.46838142E-15    2          24        36   # BR(H+ -> W+      A      )
     5.99023695E-04    2     1000024   1000022   # BR(H+ -> ~chi_1+ ~chi_10)
     5.79114373E-08    2     1000024   1000023   # BR(H+ -> ~chi_1+ ~chi_20)
     1.65818644E-02    2     1000037   1000022   # BR(H+ -> ~chi_2+ ~chi_10)
     6.18198894E-03    2     1000006  -1000005   # BR(H+ -> ~t_1    ~b_1*  )
     2.44763571E-02    2     1000006  -2000005   # BR(H+ -> ~t_1    ~b_2*  )
     4.68447147E-01    2     2000006  -1000005   # BR(H+ -> ~t_2    ~b_1*  )
