#
#                              ======================
#                              | THE SUSYHIT OUTPUT |
#                              ======================
#
#
#              ------------------------------------------------------
#              |     This is the output of the SUSY-HIT package     |
#              |  created by A.Djouadi, M.Muehlleitner and M.Spira. |
#              |  In case of problems with SUSY-HIT email to        |
#              |           margarete.muehlleitner@cern.ch           |
#              |           michael.spira@psi.ch                     |
#              |           abdelhak.djouadi@cern.ch                 |
#              ------------------------------------------------------
#
#              ------------------------------------------------------
#              |  SUSY Les Houches Accord - MSSM Spectrum + Decays  |
#              |              based on the decay programs           |
#              |                                                    |
#              |                     SDECAY 1.3b                    |
#              |                                                    |
#              |  Authors: M.Muhlleitner, A.Djouadi and Y.Mambrini  |
#              |  Ref.:    Comput.Phys.Commun.168(2005)46           |
#              |           [hep-ph/0311167]                         |
#              |                                                    |
#              |                     HDECAY 3.4                     |
#              |                                                    |
#              |  By: A.Djouadi,J.Kalinowski,M.Muhlleitner,M.Spira  |
#              |  Ref.:    Comput.Phys.Commun.108(1998)56           |
#              |           [hep-ph/9704448]                         |
#              |                                                    |
#              |                                                    |
#              |  If not stated otherwise all DRbar couplings and   |
#              |  soft SUSY breaking masses are given at the scale  |
#              |  Q=  0.24958350E+04
#              |                                                    |
#              ------------------------------------------------------
#
#
BLOCK DCINFO  # Decay Program information
     1   SDECAY/HDECAY # decay calculator
     2   1.3b  /3.4    # version number
#
BLOCK SPINFO  # Spectrum calculator information
     1     SOFTSUSY    # spectrum calculator               
     2     3.4.0       # version number                    
#
BLOCK MODSEL  # Model selection
     1     0   #  nonUniversal                                     
#
BLOCK SMINPUTS  # Standard Model inputs
         1     1.27908970E+02   # alpha_em^-1(M_Z)^MSbar
         2     1.16637870E-05   # G_F [GeV^-2]
         3     1.18400000E-01   # alpha_S(M_Z)^MSbar
         4     9.11876000E+01   # M_Z pole mass
         5     4.18000000E+00   # mb(mb)^MSbar
         6     1.73200000E+02   # mt pole mass
         7     1.77700000E+00   # mtau pole mass
#
BLOCK MINPAR  # Input parameters - minimal models
         3     9.61000000E+00   # tanb                
#
BLOCK EXTPAR  # Input parameters - non-minimal models
         0    -1.00000000E+00   # Set                 
         1     1.13560000E+02   # M_1(MX)             
         2     4.69250000E+02   # M_2(MX)             
         3     3.48675000E+03   # M_3(MX)             
        11     4.04611000E+03   # At(MX)              
        12    -3.73840000E+02   # Ab(MX)              
        13     2.71518000E+03   # Atau(MX)            
        23    -3.76014000E+03   # mu(MX)              
        26     3.92451000E+03   # mA(pole)            
        31     9.28000000E+01   # meL(MX)             
        32     9.28000000E+01   # mmuL(MX)            
        33     1.00068000E+03   # mtauL(MX)           
        34     1.48490000E+03   # meR(MX)             
        35     1.48490000E+03   # mmuR(MX)            
        36     3.53122000E+03   # mtauR(MX)           
        41     9.20750000E+02   # mqL1(MX)            
        42     9.20750000E+02   # mqL2(MX)            
        43     3.58154000E+03   # mqL3(MX)            
        44     1.41501000E+03   # muR(MX)             
        45     1.41501000E+03   # mcR(MX)             
        46     1.74167000E+03   # mtR(MX)             
        47     3.05438000E+03   # mdR(MX)             
        48     3.05438000E+03   # msR(MX)             
        49     9.13570000E+02   # mbR(MX)             
#
BLOCK MASS  # Mass Spectrum
# PDG code           mass       particle
        24     8.03943314E+01   # W+
        25     1.27059219E+02   # h
        35     3.92437049E+03   # H
        36     3.92450994E+03   # A
        37     3.92545005E+03   # H+
         5     4.81876030E+00   # b-quark pole mass calculated from mb(mb)_Msbar
   1000001     1.03609040E+03   # ~d_L
   2000001     3.14084177E+03   # ~d_R
   1000002     1.03324549E+03   # ~u_L
   2000002     1.51388486E+03   # ~u_R
   1000003     1.03609040E+03   # ~s_L
   2000003     3.14084177E+03   # ~s_R
   1000004     1.03324549E+03   # ~c_L
   2000004     1.51388486E+03   # ~c_R
   1000005     1.02341834E+03   # ~b_1
   2000005     3.64202266E+03   # ~b_2
   1000006     1.83822023E+03   # ~t_1
   2000006     3.65004834E+03   # ~t_2
   1000011     1.38952081E+02   # ~e_L
   2000011     1.48571770E+03   # ~e_R
   1000012     1.16002216E+02   # ~nu_eL
   1000013     1.38952081E+02   # ~mu_L
   2000013     1.48571770E+03   # ~mu_R
   1000014     1.16002216E+02   # ~nu_muL
   1000015     1.00618120E+03   # ~tau_1
   2000015     3.53354492E+03   # ~tau_2
   1000016     1.00315514E+03   # ~nu_tauL
   1000021     3.50696402E+03   # ~g
   1000022     1.12473186E+02   # ~chi_10
   1000023     4.88686551E+02   # ~chi_20
   1000025    -3.80367689E+03   # ~chi_30
   1000035     3.80396130E+03   # ~chi_40
   1000024     4.88851565E+02   # ~chi_1+
   1000037     3.80471648E+03   # ~chi_2+
#
BLOCK NMIX  # Neutralino Mixing Matrix
  1  1     9.99930415E-01   # N_11
  1  2    -1.92383224E-05   # N_12
  1  3    -1.17542309E-02   # N_13
  1  4     1.00187854E-03   # N_14
  2  1     2.51758193E-04   # N_21
  2  2     9.99804150E-01   # N_22
  2  3     1.97886336E-02   # N_23
  2  4     9.38718596E-05   # N_24
  3  1    -9.01831167E-03   # N_31
  3  2     1.39280167E-02   # N_32
  3  3    -7.06940833E-01   # N_33
  3  4     7.07078029E-01   # N_34
  4  1     7.60083855E-03   # N_41
  4  2    -1.40595945E-02   # N_42
  4  3     7.06898088E-01   # N_43
  4  4     7.07134817E-01   # N_44
#
BLOCK UMIX  # Chargino Mixing Matrix U
  1  1     9.99606577E-01   # U_11
  1  2     2.80480221E-02   # U_12
  2  1    -2.80480221E-02   # U_21
  2  2     9.99606577E-01   # U_22
#
BLOCK VMIX  # Chargino Mixing Matrix V
  1  1     9.99999987E-01   # V_11
  1  2    -1.63639407E-04   # V_12
  2  1    -1.63639407E-04   # V_21
  2  2    -9.99999987E-01   # V_22
#
BLOCK STOPMIX  # Stop Mixing Matrix
  1  1    -6.51513522E-02   # cos(theta_t)
  1  2     9.97875394E-01   # sin(theta_t)
  2  1    -9.97875394E-01   # -sin(theta_t)
  2  2    -6.51513522E-02   # cos(theta_t)
#
BLOCK SBOTMIX  # Sbottom Mixing Matrix
  1  1    -7.63555988E-03   # cos(theta_b)
  1  2     9.99970849E-01   # sin(theta_b)
  2  1    -9.99970849E-01   # -sin(theta_b)
  2  2    -7.63555988E-03   # cos(theta_b)
#
BLOCK STAUMIX  # Stau Mixing Matrix
  1  1     9.99983693E-01   # cos(theta_tau)
  1  2    -5.71084355E-03   # sin(theta_tau)
  2  1     5.71084355E-03   # -sin(theta_tau)
  2  2     9.99983693E-01   # cos(theta_tau)
#
BLOCK ALPHA  # Higgs mixing
          -1.08735615E-01   # Mixing angle in the neutral Higgs boson sector
#
BLOCK HMIX Q=  2.49583500E+03  # DRbar Higgs Parameters
         1    -3.81602240E+03   # mu(Q)MSSM           
         2     9.17163346E+00   # tan                 
         3     2.43446184E+02   # higgs               
         4     1.56614134E+07   # mA^2(Q)MSSM         
#
BLOCK GAUGE Q=  2.49583500E+03  # The gauge couplings
     1     3.64422254E-01   # gprime(Q) DRbar
     2     6.39936230E-01   # g(Q) DRbar
     3     1.01417793E+00   # g3(Q) DRbar
#
BLOCK AU Q=  2.49583500E+03  # The trilinear couplings
  1  1     0.00000000E+00   # A_u(Q) DRbar
  2  2     0.00000000E+00   # A_c(Q) DRbar
  3  3     4.04611001E+03   # A_t(Q) DRbar
#
BLOCK AD Q=  2.49583500E+03  # The trilinear couplings
  1  1     0.00000000E+00   # A_d(Q) DRbar
  2  2     0.00000000E+00   # A_s(Q) DRbar
  3  3    -3.73839995E+02   # A_b(Q) DRbar
#
BLOCK AE Q=  2.49583500E+03  # The trilinear couplings
  1  1     0.00000000E+00   # A_e(Q) DRbar
  2  2     0.00000000E+00   # A_mu(Q) DRbar
  3  3     2.71518000E+03   # A_tau(Q) DRbar
#
BLOCK Yu Q=  2.49583500E+03  # The Yukawa couplings
  1  1     0.00000000E+00   # y_u(Q) DRbar
  2  2     0.00000000E+00   # y_c(Q) DRbar
  3  3     8.41305924E-01   # y_t(Q) DRbar
#
BLOCK Yd Q=  2.49583500E+03  # The Yukawa couplings
  1  1     0.00000000E+00   # y_d(Q) DRbar
  2  2     0.00000000E+00   # y_s(Q) DRbar
  3  3     1.41799750E-01   # y_b(Q) DRbar
#
BLOCK Ye Q=  2.49583500E+03  # The Yukawa couplings
  1  1     0.00000000E+00   # y_e(Q) DRbar
  2  2     0.00000000E+00   # y_mu(Q) DRbar
  3  3     9.33117364E-02   # y_tau(Q) DRbar
#
BLOCK MSOFT Q=  2.49583500E+03  # The soft SUSY breaking masses at the scale Q
         1     1.13560000E+02   # M_1(Q)              
         2     4.69250000E+02   # M_2(Q)              
         3     3.48675000E+03   # M_3(Q)              
        21     5.76148253E+05   # mH1^2(Q)            
        22    -1.43174194E+07   # mH2^2(Q)            
        31     9.27999974E+01   # meL(Q)              
        32     9.27999974E+01   # mmuL(Q)             
        33     1.00068000E+03   # mtauL(Q)            
        34     1.48490000E+03   # meR(Q)              
        35     1.48490000E+03   # mmuR(Q)             
        36     3.53122000E+03   # mtauR(Q)            
        41     9.20749972E+02   # mqL1(Q)             
        42     9.20749972E+02   # mqL2(Q)             
        43     3.58153999E+03   # mqL3(Q)             
        44     1.41500998E+03   # muR(Q)              
        45     1.41500998E+03   # mcR(Q)              
        46     1.74166998E+03   # mtR(Q)              
        47     3.05437999E+03   # mdR(Q)              
        48     3.05437999E+03   # msR(Q)              
        49     9.13569972E+02   # mbR(Q)              
#
Block HiggsBoundsInputHiggsCouplingsFermions
# ScalarNormEffCoupSq PseudoSNormEffCoupSq NP   IP1 IP2 IP2
    1.00243712E+00    0.00000000E+00        3  25   5   5  # h0-b-b eff. coupling^2, normalised to SM
    8.41164232E+01    0.00000000E+00        3  35   5   5  # H0-b-b eff. coupling^2, normalised to SM
    0.00000000E+00    8.41188603E+01        3  36   5   5  # A0-b-b eff. coupling^2, normalised to SM
#
    9.99971028E-01    0.00000000E+00        3  25   6   6  # h0-t-t eff. coupling^2, normalised to SM
    1.19169127E-02    0.00000000E+00        3  35   6   6  # H0-t-t eff. coupling^2, normalised to SM
    0.00000000E+00    1.18879404E-02        3  36   6   6  # A0-t-t eff. coupling^2, normalised to SM
#
    1.00243712E+00    0.00000000E+00        3  25  15  15  # h0-tau-tau eff. coupling^2, normalised to SM
    8.41164232E+01    0.00000000E+00        3  35  15  15  # H0-tau-tau eff. coupling^2, normalised to SM
    0.00000000E+00    8.41188603E+01        3  36  15  15  # A0-tau-tau eff. coupling^2, normalised to SM
#
Block HiggsBoundsInputHiggsCouplingsBosons
    9.99999982E-01        3  25  24  24  # h0-W-W eff. coupling^2, normalised to SM
    1.76309721E-08        3  35  24  24  # H0-W-W eff. coupling^2, normalised to SM
    0.00000000E+00        3  36  24  24  # A0-W-W eff. coupling^2, normalised to SM
#
    9.99999982E-01        3  25  23  23  # h0-Z-Z eff. coupling^2, normalised to SM
    1.76309721E-08        3  35  23  23  # H0-Z-Z eff. coupling^2, normalised to SM
    0.00000000E+00        3  36  23  23  # A0-Z-Z eff. coupling^2, normalised to SM
#
    8.85592585E-01        3  25  21  21  # h0-g-g eff. coupling^2, normalised to SM
    2.81155678E-13        3  35  21  21  # H0-g-g eff. coupling^2, normalised to SM
    3.04633117E-13        3  36  21  21  # A0-g-g eff. coupling^2, normalised to SM
#
    0.00000000E+00        3  25  25  23  # h0-h0-Z eff. coupling^2, normalised to SM
    0.00000000E+00        3  35  25  23  # H0-h0-Z eff. coupling^2, normalised to SM
    1.76309721E-08        3  36  25  23  # A0-h0-Z eff. coupling^2, normalised to SM
    0.00000000E+00        3  35  35  23  # H0-H0-Z eff. coupling^2, normalised to SM
    9.99999982E-01        3  36  35  23  # A0-H0-Z eff. coupling^2, normalised to SM
    0.00000000E+00        3  36  36  23  # A0-A0-Z eff. coupling^2, normalised to SM
#
    0.00000000E+00        4  25  21  21  23  # h0-g-g-Z eff. coupling^2, normalised to SM
    0.00000000E+00        4  35  21  21  23  # H0-g-g-Z eff. coupling^2, normalised to SM
    0.00000000E+00        4  36  21  21  23  # A0-g-g-Z eff. coupling^2, normalised to SM
#
#
#
#                             =================
#                             |The decay table|
#                             =================
#
# - The QCD corrections to the decays gluino -> squark  + quark
#                                     squark -> gaugino + quark_prime
#                                     squark -> squark_prime + Higgs
#                                     squark -> gluino  + quark
#   are included.
#
# - The multi-body decays for the inos, stops and sbottoms are included.
#
# - The loop induced decays for the gluino, neutralinos and stops
#   are included.
#
# - The SUSY decays of the top quark are included.
#
#
#         PDG            Width
DECAY         6     1.44206477E+00   # top decays
#          BR         NDA      ID1       ID2
     1.00000000E+00    2           5        24   # BR(t ->  b    W+)
#
#         PDG            Width
DECAY   1000021     4.32809161E+02   # gluino decays
#          BR         NDA      ID1       ID2
     6.82356117E-02    2     1000001        -1   # BR(~g -> ~d_L  db)
     6.82356117E-02    2    -1000001         1   # BR(~g -> ~d_L* d )
     3.20791637E-03    2     2000001        -1   # BR(~g -> ~d_R  db)
     3.20791637E-03    2    -2000001         1   # BR(~g -> ~d_R* d )
     6.83072023E-02    2     1000002        -2   # BR(~g -> ~u_L  ub)
     6.83072023E-02    2    -1000002         2   # BR(~g -> ~u_L* u )
     5.42272451E-02    2     2000002        -2   # BR(~g -> ~u_R  ub)
     5.42272451E-02    2    -2000002         2   # BR(~g -> ~u_R* u )
     6.82356117E-02    2     1000003        -3   # BR(~g -> ~s_L  sb)
     6.82356117E-02    2    -1000003         3   # BR(~g -> ~s_L* s )
     3.20791637E-03    2     2000003        -3   # BR(~g -> ~s_R  sb)
     3.20791637E-03    2    -2000003         3   # BR(~g -> ~s_R* s )
     6.83071993E-02    2     1000004        -4   # BR(~g -> ~c_L  cb)
     6.83071993E-02    2    -1000004         4   # BR(~g -> ~c_L* c )
     5.42272387E-02    2     2000004        -4   # BR(~g -> ~c_R  cb)
     5.42272387E-02    2    -2000004         4   # BR(~g -> ~c_R* c )
     6.83489052E-02    2     1000005        -5   # BR(~g -> ~b_1  bb)
     6.83489052E-02    2    -1000005         5   # BR(~g -> ~b_1* b )
     4.36951533E-02    2     1000006        -6   # BR(~g -> ~t_1  tb)
     4.36951533E-02    2    -1000006         6   # BR(~g -> ~t_1* t )
#
#         PDG            Width
DECAY   1000006     4.27237825E+00   # stop1 decays
#          BR         NDA      ID1       ID2
     9.80905563E-01    2     1000022         6   # BR(~t_1 -> ~chi_10 t )
     6.25612048E-03    2     1000023         6   # BR(~t_1 -> ~chi_20 t )
     1.27649830E-02    2     1000024         5   # BR(~t_1 -> ~chi_1+ b )
     7.33334407E-05    2     1000005        24   # BR(~t_1 -> ~b_1    W+)
#
#         PDG            Width
DECAY   2000006     1.00122829E+02   # stop2 decays
#          BR         NDA      ID1       ID2
     5.64138034E-03    2     1000022         6   # BR(~t_2 -> ~chi_10 t )
     1.41915572E-01    2     1000023         6   # BR(~t_2 -> ~chi_20 t )
     0.00000000E+00    2     1000025         6   # BR(~t_2 -> ~chi_30 t )
     2.85252497E-01    2     1000024         5   # BR(~t_2 -> ~chi_1+ b )
     2.77606143E-01    2     1000006        25   # BR(~t_2 -> ~t_1    h )
     2.75709219E-01    2     1000006        23   # BR(~t_2 -> ~t_1    Z )
     1.38751893E-02    2     1000005        24   # BR(~t_2 -> ~b_1    W+)
#
#         PDG            Width
DECAY   1000005     5.87848879E-01   # sbottom1 decays
#          BR         NDA      ID1       ID2
     9.97724979E-01    2     1000022         5   # BR(~b_1 -> ~chi_10 b )
     8.08862273E-04    2     1000023         5   # BR(~b_1 -> ~chi_20 b )
     1.46615848E-03    2    -1000024         6   # BR(~b_1 -> ~chi_1- t )
#
#         PDG            Width
DECAY   2000005     9.90730034E+01   # sbottom2 decays
#          BR         NDA      ID1       ID2
     5.38400834E-03    2     1000022         5   # BR(~b_2 -> ~chi_10 b )
     1.44317513E-01    2     1000023         5   # BR(~b_2 -> ~chi_20 b )
     2.87176526E-01    2    -1000024         6   # BR(~b_2 -> ~chi_1- t )
     1.06272916E-02    2     1000021         5   # BR(~b_2 -> ~g      b )
     7.17151773E-03    2     1000005        25   # BR(~b_2 -> ~b_1    h )
     7.18749169E-03    2     1000005        23   # BR(~b_2 -> ~b_1    Z )
     5.38135652E-01    2     1000006       -24   # BR(~b_2 -> ~t_1    W-)
#
#         PDG            Width
DECAY   1000002     8.08385709E+00   # sup_L decays
#          BR         NDA      ID1       ID2
     1.90420431E-02    2     1000022         2   # BR(~u_L -> ~chi_10 u)
     3.27005884E-01    2     1000023         2   # BR(~u_L -> ~chi_20 u)
     6.53952072E-01    2     1000024         1   # BR(~u_L -> ~chi_1+ d)
#
#         PDG            Width
DECAY   2000002     3.58788053E+00   # sup_R decays
#          BR         NDA      ID1       ID2
     9.99999948E-01    2     1000022         2   # BR(~u_R -> ~chi_10 u)
     5.15488647E-08    2     1000023         2   # BR(~u_R -> ~chi_20 u)
#
#         PDG            Width
DECAY   1000001     8.12554039E+00   # sdown_L decays
#          BR         NDA      ID1       ID2
     1.90042002E-02    2     1000022         1   # BR(~d_L -> ~chi_10 d)
     3.27147801E-01    2     1000023         1   # BR(~d_L -> ~chi_20 d)
     6.53847999E-01    2    -1000024         2   # BR(~d_L -> ~chi_1- u)
#
#         PDG            Width
DECAY   2000001     1.79505176E+00   # sdown_R decays
#          BR         NDA      ID1       ID2
     9.99999939E-01    2     1000022         1   # BR(~d_R -> ~chi_10 d)
     6.06363897E-08    2     1000023         1   # BR(~d_R -> ~chi_20 d)
#
#         PDG            Width
DECAY   1000004     7.75493497E+00   # scharm_L decays
#          BR         NDA      ID1       ID2
     1.90892369E-02    2     1000022         4   # BR(~c_L -> ~chi_10 c)
     3.26988941E-01    2     1000023         4   # BR(~c_L -> ~chi_20 c)
     6.53921822E-01    2     1000024         3   # BR(~c_L -> ~chi_1+ s)
#
#         PDG            Width
DECAY   2000004     3.51569943E+00   # scharm_R decays
#          BR         NDA      ID1       ID2
     9.99999949E-01    2     1000022         4   # BR(~c_R -> ~chi_10 c)
     5.14346123E-08    2     1000023         4   # BR(~c_R -> ~chi_20 c)
#
#         PDG            Width
DECAY   1000003     7.79600612E+00   # sstrange_L decays
#          BR         NDA      ID1       ID2
     1.90512735E-02    2     1000022         3   # BR(~s_L -> ~chi_10 s)
     3.27133566E-01    2     1000023         3   # BR(~s_L -> ~chi_20 s)
     6.53815161E-01    2    -1000024         4   # BR(~s_L -> ~chi_1- c)
#
#         PDG            Width
DECAY   2000003     1.83907103E+00   # sstrange_R decays
#          BR         NDA      ID1       ID2
     9.99999939E-01    2     1000022         3   # BR(~s_R -> ~chi_10 s)
     6.05140491E-08    2     1000023         3   # BR(~s_R -> ~chi_20 s)
#
#         PDG            Width
DECAY   1000011     2.18193862E-02   # selectron_L decays
#          BR         NDA      ID1       ID2
     1.00000000E+00    2     1000022        11   # BR(~e_L -> ~chi_10 e-)
#
#         PDG            Width
DECAY   2000011     7.75985583E+00   # selectron_R decays
#          BR         NDA      ID1       ID2
     9.99999949E-01    2     1000022        11   # BR(~e_R -> ~chi_10 e-)
     5.09992993E-08    2     1000023        11   # BR(~e_R -> ~chi_20 e-)
#
#         PDG            Width
DECAY   1000013     2.18191740E-02   # smuon_L decays
#          BR         NDA      ID1       ID2
     1.00000000E+00    2     1000022        13   # BR(~mu_L -> ~chi_10 mu-)
#
#         PDG            Width
DECAY   2000013     7.75985575E+00   # smuon_R decays
#          BR         NDA      ID1       ID2
     9.99999949E-01    2     1000022        13   # BR(~mu_R -> ~chi_10 mu-)
     5.09992992E-08    2     1000023        13   # BR(~mu_R -> ~chi_20 mu-)
#
#         PDG            Width
DECAY   1000015     8.46956946E+00   # stau_1 decays
#          BR         NDA      ID1       ID2
     1.53030018E-01    2     1000022        15   # BR(~tau_1 -> ~chi_10  tau-)
     2.82534783E-01    2     1000023        15   # BR(~tau_1 -> ~chi_20  tau-)
     5.64435199E-01    2    -1000024        16   # BR(~tau_1 -> ~chi_1-  nu_tau)
#
#         PDG            Width
DECAY   2000015     2.00710817E+01   # stau_2 decays
#          BR         NDA      ID1       ID2
     9.28228366E-01    2     1000022        15   # BR(~tau_2 -> ~chi_10  tau-)
     1.89952885E-06    2     1000023        15   # BR(~tau_2 -> ~chi_20  tau-)
     3.61642555E-06    2    -1000024        16   # BR(~tau_2 -> ~chi_1-  nu_tau)
     3.50461684E-02    2     1000016       -24   # BR(~tau_2 -> ~nu_tauL W-)
     1.87221159E-02    2     1000015        25   # BR(~tau_2 -> ~tau_1   h)
     1.79978335E-02    2     1000015        23   # BR(~tau_2 -> ~tau_1   Z)
#
#         PDG            Width
DECAY   1000012     5.50135379E-04   # snu_eL decays
#          BR         NDA      ID1       ID2
     1.00000000E+00    2     1000022        12   # BR(~nu_eL -> ~chi_10 nu_e)
#
#         PDG            Width
DECAY   1000014     5.50135379E-04   # snu_muL decays
#          BR         NDA      ID1       ID2
     1.00000000E+00    2     1000022        14   # BR(~nu_muL -> ~chi_10 nu_mu)
#
#         PDG            Width
DECAY   1000016     8.41954840E+00   # snu_tauL decays
#          BR         NDA      ID1       ID2
     1.53451132E-01    2     1000022        16   # BR(~nu_tauL -> ~chi_10 nu_tau)
     2.82129797E-01    2     1000023        16   # BR(~nu_tauL -> ~chi_20 nu_tau)
     5.64419071E-01    2     1000024        15   # BR(~nu_tauL -> ~chi_1+ tau-)
#
#         PDG            Width
DECAY   1000024     6.90935247E+00   # chargino1+ decays
#          BR         NDA      ID1       ID2
     2.56668596E-01    2     1000012       -11   # BR(~chi_1+ -> ~nu_eL   e+  )
     2.56668596E-01    2     1000014       -13   # BR(~chi_1+ -> ~nu_muL  mu+ )
     2.43331117E-01    2    -1000011        12   # BR(~chi_1+ -> ~e_L+    nu_e)
     2.43331117E-01    2    -1000013        14   # BR(~chi_1+ -> ~mu_L+   nu_mu)
     5.74688780E-07    2     1000022        24   # BR(~chi_1+ -> ~chi_10  W+)
#
#         PDG            Width
DECAY   1000037     7.23273647E+01   # chargino2+ decays
#          BR         NDA      ID1       ID2
     1.41151840E-08    2     1000002        -1   # BR(~chi_2+ -> ~u_L     db)
     4.14323502E-04    2    -1000001         2   # BR(~chi_2+ -> ~d_L*    u )
     1.41151840E-08    2     1000004        -3   # BR(~chi_2+ -> ~c_L     sb)
     4.14323488E-04    2    -1000003         4   # BR(~chi_2+ -> ~s_L*     c )
     6.50278801E-01    2     1000006        -5   # BR(~chi_2+ -> ~t_1     bb)
     2.24044311E-04    2     2000006        -5   # BR(~chi_2+ -> ~t_2     bb)
     2.73729573E-02    2    -1000005         6   # BR(~chi_2+ -> ~b_1*    t )
     5.72744856E-09    2     1000012       -11   # BR(~chi_2+ -> ~nu_eL   e+  )
     5.72744856E-09    2     1000014       -13   # BR(~chi_2+ -> ~nu_muL mu+ )
     3.94156660E-03    2     1000016       -15   # BR(~chi_2+ -> ~nu_tau1 tau+)
     1.68127363E-04    2    -1000011        12   # BR(~chi_2+ -> ~e_L+    nu_e)
     1.68127363E-04    2    -1000013        14   # BR(~chi_2+ -> ~mu_L+   nu_mu)
     1.37290329E-04    2    -1000015        16   # BR(~chi_2+ -> ~tau_1+  nu_tau)
     8.62136138E-05    2    -2000015        16   # BR(~chi_2+ -> ~tau_2+  nu_tau)
     9.23584171E-02    2     1000024        23   # BR(~chi_2+ -> ~chi_1+  Z )
     3.32782420E-02    2     1000022        24   # BR(~chi_2+ -> ~chi_10  W+)
     9.02018774E-02    2     1000023        24   # BR(~chi_2+ -> ~chi_20  W+)
     1.00955649E-01    2     1000024        25   # BR(~chi_2+ -> ~chi_1+  h )
#
#         PDG            Width
DECAY   1000022     0.00000000E+00   # neutralino1 decays
#
#         PDG            Width
DECAY   1000023     6.90623627E+00   # neutralino2 decays
#          BR         NDA      ID1       ID2
     2.63938293E-07    2     1000022        23   # BR(~chi_20 -> ~chi_10   Z )
     2.14878602E-06    2     1000022        25   # BR(~chi_20 -> ~chi_10   h )
     1.21747929E-01    2     1000011       -11   # BR(~chi_20 -> ~e_L-     e+)
     1.21747929E-01    2    -1000011        11   # BR(~chi_20 -> ~e_L+     e-)
     1.21747929E-01    2     1000013       -13   # BR(~chi_20 -> ~mu_L-    mu+)
     1.21747929E-01    2    -1000013        13   # BR(~chi_20 -> ~mu_L+    mu-)
     1.28251468E-01    2     1000012       -12   # BR(~chi_20 -> ~nu_eL    nu_eb)
     1.28251468E-01    2    -1000012        12   # BR(~chi_20 -> ~nu_eL*   nu_e )
     1.28251468E-01    2     1000014       -14   # BR(~chi_20 -> ~nu_muL   nu_mub)
     1.28251468E-01    2    -1000014        14   # BR(~chi_20 -> ~nu_muL*  nu_mu )
#
#         PDG            Width
DECAY   1000025     7.22876280E+01   # neutralino3 decays
#          BR         NDA      ID1       ID2
     1.42290399E-02    2     1000022        23   # BR(~chi_30 -> ~chi_10   Z )
     4.63902859E-02    2     1000023        23   # BR(~chi_30 -> ~chi_20   Z )
     8.95888889E-02    2     1000024       -24   # BR(~chi_30 -> ~chi_1+   W-)
     8.95888889E-02    2    -1000024        24   # BR(~chi_30 -> ~chi_1-   W+)
     1.98252167E-02    2     1000022        25   # BR(~chi_30 -> ~chi_10   h )
     4.84944385E-02    2     1000023        25   # BR(~chi_30 -> ~chi_20   h )
     3.93400606E-05    2     1000002        -2   # BR(~chi_30 -> ~u_L      ub)
     3.93400606E-05    2    -1000002         2   # BR(~chi_30 -> ~u_L*     u )
     1.02299496E-05    2     2000002        -2   # BR(~chi_30 -> ~u_R      ub)
     1.02299496E-05    2    -2000002         2   # BR(~chi_30 -> ~u_R*     u )
     6.44256129E-05    2     1000001        -1   # BR(~chi_30 -> ~d_L      db)
     6.44256129E-05    2    -1000001         1   # BR(~chi_30 -> ~d_L*     d )
     3.76129232E-07    2     2000001        -1   # BR(~chi_30 -> ~d_R      db)
     3.76129232E-07    2    -2000001         1   # BR(~chi_30 -> ~d_R*     d )
     3.93400593E-05    2     1000004        -4   # BR(~chi_30 -> ~c_L      cb)
     3.93400593E-05    2    -1000004         4   # BR(~chi_30 -> ~c_L*     c )
     1.02299488E-05    2     2000004        -4   # BR(~chi_30 -> ~c_R      cb)
     1.02299488E-05    2    -2000004         4   # BR(~chi_30 -> ~c_R*     c )
     6.44256129E-05    2     1000003        -3   # BR(~chi_30 -> ~s _L      sb)
     6.44256129E-05    2    -1000003         3   # BR(~chi_30 -> ~s _L*     s )
     3.76129232E-07    2     2000003        -3   # BR(~chi_30 -> ~s _R      sb)
     3.76129232E-07    2    -2000003         3   # BR(~chi_30 -> ~s _R*     s )
     3.29880442E-01    2     1000006        -6   # BR(~chi_30 -> ~t_1      tb)
     3.29880442E-01    2    -1000006         6   # BR(~chi_30 -> ~t_1*     t )
     1.35618821E-02    2     1000005        -5   # BR(~chi_30 -> ~b_1      bb)
     1.35618821E-02    2    -1000005         5   # BR(~chi_30 -> ~b_1*     b )
     1.09327403E-04    2     2000005        -5   # BR(~chi_30 -> ~b_2      bb)
     1.09327403E-04    2    -2000005         5   # BR(~chi_30 -> ~b_2*     b )
     8.26298916E-06    2     1000011       -11   # BR(~chi_30 -> ~e_L-     e+)
     8.26298916E-06    2    -1000011        11   # BR(~chi_30 -> ~e_L+     e-)
     8.11968314E-06    2     2000011       -11   # BR(~chi_30 -> ~e_R-     e+)
     8.11968314E-06    2    -2000011        11   # BR(~chi_30 -> ~e_R+     e-)
     8.26298916E-06    2     1000013       -13   # BR(~chi_30 -> ~mu_L-    mu+)
     8.26298916E-06    2    -1000013        13   # BR(~chi_30 -> ~mu_L+    mu-)
     8.11968314E-06    2     2000013       -13   # BR(~chi_30 -> ~mu_R-    mu+)
     8.11968314E-06    2    -2000013        13   # BR(~chi_30 -> ~mu_R+    mu-)
     1.97401296E-03    2     1000015       -15   # BR(~chi_30 -> ~tau_1-   tau+)
     1.97401296E-03    2    -1000015        15   # BR(~chi_30 -> ~tau_1+   tau-)
     4.29751497E-05    2     2000015       -15   # BR(~chi_30 -> ~tau_2-   tau+)
     4.29751497E-05    2    -2000015        15   # BR(~chi_30 -> ~tau_2+   tau-)
     3.88764637E-05    2     1000012       -12   # BR(~chi_30 -> ~nu_eL    nu_eb)
     3.88764637E-05    2    -1000012        12   # BR(~chi_30 -> ~nu_eL*   nu_e )
     3.88764637E-05    2     1000014       -14   # BR(~chi_30 -> ~nu_muL   nu_mub)
     3.88764637E-05    2    -1000014        14   # BR(~chi_30 -> ~nu_muL*  nu_mu )
     3.37191266E-05    2     1000016       -16   # BR(~chi_30 -> ~nu_tau1  nu_taub)
     3.37191266E-05    2    -1000016        16   # BR(~chi_30 -> ~nu_tau1* nu_tau )
#
#         PDG            Width
DECAY   1000035     7.12348521E+01   # neutralino4 decays
#          BR         NDA      ID1       ID2
     2.03305356E-02    2     1000022        23   # BR(~chi_40 -> ~chi_10   Z )
     4.62382385E-02    2     1000023        23   # BR(~chi_40 -> ~chi_20   Z )
     9.05146591E-02    2     1000024       -24   # BR(~chi_40 -> ~chi_1+   W-)
     9.05146591E-02    2    -1000024        24   # BR(~chi_40 -> ~chi_1-   W+)
     1.46207236E-02    2     1000022        25   # BR(~chi_40 -> ~chi_10   h )
     5.32836608E-02    2     1000023        25   # BR(~chi_40 -> ~chi_20   h )
     4.25870576E-05    2     1000002        -2   # BR(~chi_40 -> ~u_L      ub)
     4.25870576E-05    2    -1000002         2   # BR(~chi_40 -> ~u_L*     u )
     7.37519102E-06    2     2000002        -2   # BR(~chi_40 -> ~u_R      ub)
     7.37519102E-06    2    -2000002         2   # BR(~chi_40 -> ~u_R*     u )
     6.42395184E-05    2     1000001        -1   # BR(~chi_40 -> ~d_L      db)
     6.42395184E-05    2    -1000001         1   # BR(~chi_40 -> ~d_L*     d )
     2.71322822E-07    2     2000001        -1   # BR(~chi_40 -> ~d_R      db)
     2.71322822E-07    2    -2000001         1   # BR(~chi_40 -> ~d_R*     d )
     4.25870562E-05    2     1000004        -4   # BR(~chi_40 -> ~c_L      cb)
     4.25870562E-05    2    -1000004         4   # BR(~chi_40 -> ~c_L*     c )
     7.37519041E-06    2     2000004        -4   # BR(~chi_40 -> ~c_R      cb)
     7.37519041E-06    2    -2000004         4   # BR(~chi_40 -> ~c_R*     c )
     6.42395184E-05    2     1000003        -3   # BR(~chi_40 -> ~s _L      sb)
     6.42395184E-05    2    -1000003         3   # BR(~chi_40 -> ~s _L*     s )
     2.71322822E-07    2     2000003        -3   # BR(~chi_40 -> ~s _R      sb)
     2.71322822E-07    2    -2000003         3   # BR(~chi_40 -> ~s _R*     s )
     3.25958233E-01    2     1000006        -6   # BR(~chi_40 -> ~t_1      tb)
     3.25958233E-01    2    -1000006         6   # BR(~chi_40 -> ~t_1*     t )
     1.37626795E-02    2     1000005        -5   # BR(~chi_40 -> ~b_1      bb)
     1.37626795E-02    2    -1000005         5   # BR(~chi_40 -> ~b_1*     b )
     1.12343479E-04    2     2000005        -5   # BR(~chi_40 -> ~b_2      bb)
     1.12343479E-04    2    -2000005         5   # BR(~chi_40 -> ~b_2*     b )
     1.02720617E-05    2     1000011       -11   # BR(~chi_40 -> ~e_L-     e+)
     1.02720617E-05    2    -1000011        11   # BR(~chi_40 -> ~e_L+     e-)
     5.85381399E-06    2     2000011       -11   # BR(~chi_40 -> ~e_R-     e+)
     5.85381399E-06    2    -2000011        11   # BR(~chi_40 -> ~e_R+     e-)
     1.02720617E-05    2     1000013       -13   # BR(~chi_40 -> ~mu_L-    mu+)
     1.02720617E-05    2    -1000013        13   # BR(~chi_40 -> ~mu_L+    mu-)
     5.85381399E-06    2     2000013       -13   # BR(~chi_40 -> ~mu_R-    mu+)
     5.85381399E-06    2    -2000013        13   # BR(~chi_40 -> ~mu_R+    mu-)
     2.00534606E-03    2     1000015       -15   # BR(~chi_40 -> ~tau_1-   tau+)
     2.00534606E-03    2    -1000015        15   # BR(~chi_40 -> ~tau_1+   tau-)
     4.37094272E-05    2     2000015       -15   # BR(~chi_40 -> ~tau_2-   tau+)
     4.37094272E-05    2    -2000015        15   # BR(~chi_40 -> ~tau_2+   tau-)
     3.67069931E-05    2     1000012       -12   # BR(~chi_40 -> ~nu_eL    nu_eb)
     3.67069931E-05    2    -1000012        12   # BR(~chi_40 -> ~nu_eL*   nu_e )
     3.67069931E-05    2     1000014       -14   # BR(~chi_40 -> ~nu_muL   nu_mub)
     3.67069931E-05    2    -1000014        14   # BR(~chi_40 -> ~nu_muL*  nu_mu )
     3.18381600E-05    2     1000016       -16   # BR(~chi_40 -> ~nu_tau1  nu_taub)
     3.18381600E-05    2    -1000016        16   # BR(~chi_40 -> ~nu_tau1* nu_tau )
#
#         PDG            Width
DECAY        25     4.04276343E-03   # h decays
#          BR         NDA      ID1       ID2
     5.32911981E-01    2           5        -5   # BR(h -> b       bb     )
     6.52190148E-02    2         -15        15   # BR(h -> tau+    tau-   )
     2.30849772E-04    2         -13        13   # BR(h -> mu+     mu-    )
     2.51288577E-04    2           3        -3   # BR(h -> s       sb     )
     2.17358199E-02    2           4        -4   # BR(h -> c       cb     )
     8.26973938E-02    2          21        21   # BR(h -> g       g      )
     2.43162971E-03    2          22        22   # BR(h -> gam     gam    )
     1.84965997E-03    2          22        23   # BR(h -> Z       gam    )
     2.59273704E-01    2          24       -24   # BR(h -> W+      W-     )
     3.33986593E-02    2          23        23   # BR(h -> Z       Z      )
#
#         PDG            Width
DECAY        35     7.95366885E+00   # H decays
#          BR         NDA      ID1       ID2
     6.12658598E-01    2           5        -5   # BR(H -> b       bb     )
     8.75765578E-02    2         -15        15   # BR(H -> tau+    tau-   )
     3.17815063E-04    2         -13        13   # BR(H -> mu+     mu-    )
     2.58196258E-04    2           3        -3   # BR(H -> s       sb     )
     2.32955296E-06    2           4        -4   # BR(H -> c       cb     )
     2.29961617E-01    2           6        -6   # BR(H -> t       tb     )
     1.73687476E-04    2          21        21   # BR(H -> g       g      )
     6.71884936E-07    2          22        22   # BR(H -> gam     gam    )
     1.23447585E-07    2          23        22   # BR(H -> Z       gam    )
     4.31284251E-05    2          24       -24   # BR(H -> W+      W-     )
     2.15280511E-05    2          23        23   # BR(H -> Z       Z      )
     1.86586531E-04    2          25        25   # BR(H -> h       h      )
     2.95982992E-03    2     1000024  -1000024   # BR(H -> ~chi_1+ ~chi_1-)
     1.59927121E-04    2     1000022   1000022   # BR(H -> ~chi_10 ~chi_10)
     1.47208422E-03    2     1000023   1000023   # BR(H -> ~chi_20 ~chi_20)
     9.82583791E-04    2     1000022   1000023   # BR(H -> ~chi_10 ~chi_20)
     5.94479283E-04    2     1000022   1000025   # BR(H -> ~chi_10 ~chi_30)
     3.17217809E-05    2     1000022   1000035   # BR(H -> ~chi_10 ~chi_40)
     4.26073563E-05    2     1000002  -1000002   # BR(H -> ~u_L    ~u_L*  )
     5.68863469E-06    2     2000002  -2000002   # BR(H -> ~u_R    ~u_R*  )
     4.26073563E-05    2     1000004  -1000004   # BR(H -> ~c_L    ~c_L*  )
     5.68863469E-06    2     2000004  -2000004   # BR(H -> ~c_R    ~c_R*  )
     6.22336148E-02    2     1000006  -1000006   # BR(H -> ~t_1    ~t_1*  )
     6.24383214E-05    2     1000001  -1000001   # BR(H -> ~d_L    ~d_L*  )
     6.24383214E-05    2     1000003  -1000003   # BR(H -> ~s_L    ~s_L*  )
     6.26182980E-07    2     1000005  -1000005   # BR(H -> ~b_1    ~b_1*  )
     1.03688363E-05    2     1000011  -1000011   # BR(H -> ~e_L-   ~e_L+  )
     4.38061078E-06    2     2000011  -2000011   # BR(H -> ~e_R-   ~e_R+  )
     1.03688363E-05    2     1000013  -1000013   # BR(H -> ~mu_L-  ~mu_L+ )
     4.38061078E-06    2     2000013  -2000013   # BR(H -> ~mu_R-  ~mu_R+ )
     1.67954055E-05    2     1000015  -1000015   # BR(H -> ~tau_1- ~tau_1+)
     3.37407167E-05    2     1000012  -1000012   # BR(H -> ~nu_eL  ~nu_eL*   )
     3.37407167E-05    2     1000014  -1000014   # BR(H -> ~nu_muL ~nu_muL*  )
     2.90487843E-05    2     1000016  -1000016   # BR(H -> ~nu_tauL ~nu_tauL*)
#
#         PDG            Width
DECAY        36     7.46298786E+00   # A decays
#          BR         NDA      ID1       ID2
     6.53159706E-01    2           5        -5   # BR(A -> b       bb     )
     9.33406669E-02    2         -15        15   # BR(A -> tau+    tau-   )
     3.38732595E-04    2         -13        13   # BR(A -> mu+     mu-    )
     2.75416831E-04    2           3        -3   # BR(A -> s       sb     )
     2.49979150E-06    2           4        -4   # BR(A -> c       cb     )
     2.45694904E-01    2           6        -6   # BR(A -> t       tb     )
     1.92707343E-04    2          21        21   # BR(A -> g       g      )
     2.91632483E-07    2          22        22   # BR(A -> gam     gam    )
     2.48938024E-07    2          23        22   # BR(A -> Z       gam    )
     4.66371863E-05    2          23        25   # BR(A -> Z       h      )
     3.35485940E-03    2     1000024  -1000024   # BR(A -> ~chi_1+ ~chi_1-)
     1.77496180E-04    2     1000022   1000022   # BR(A -> ~chi_10 ~chi_10)
     1.66927186E-03    2     1000023   1000023   # BR(A -> ~chi_20 ~chi_20)
     1.08249456E-03    2     1000022   1000023   # BR(A -> ~chi_10 ~chi_20)
     3.65733630E-05    2     1000022   1000025   # BR(A -> ~chi_10 ~chi_30)
     6.27493841E-04    2     1000022   1000035   # BR(A -> ~chi_10 ~chi_40)
#
#         PDG            Width
DECAY        37     7.89248589E+00   # H+ decays
#          BR         NDA      ID1       ID2
     1.12657180E-03    2           4        -5   # BR(H+ -> c       bb     )
     8.82823414E-02    2         -15        16   # BR(H+ -> tau+    nu_tau )
     3.20375968E-04    2         -13        14   # BR(H+ -> mu+     nu_mu  )
     1.12656721E-05    2           2        -5   # BR(H+ -> u       bb     )
     1.30298865E-05    2           2        -3   # BR(H+ -> u       sb     )
     2.58735506E-04    2           4        -3   # BR(H+ -> c       sb     )
     8.98322626E-01    2           6        -5   # BR(H+ -> t       bb     )
     4.41470285E-05    2          24        25   # BR(H+ -> W+      h      )
     1.22433391E-13    2          24        36   # BR(H+ -> W+      A      )
     2.01834257E-03    2     1000024   1000022   # BR(H+ -> ~chi_1+ ~chi_10)
     1.01255323E-08    2     1000024   1000023   # BR(H+ -> ~chi_1+ ~chi_20)
     6.33950058E-04    2     1000037   1000022   # BR(H+ -> ~chi_2+ ~chi_10)
     4.10099804E-05    2    -1000011   1000012   # BR(H+ -> ~e_L+   ~nu_eL )
     4.10099804E-05    2    -1000013   1000014   # BR(H+ -> ~mu_L+  ~nu_muL)
     4.53017060E-05    2    -1000015   1000016   # BR(H+ -> ~tau_1+ ~nu_tauL)
     1.04769724E-04    2     1000002  -1000001   # BR(H+ -> ~u_L    ~d_L*  )
     1.04769724E-04    2     1000004  -1000003   # BR(H+ -> ~c_L    ~s_L*  )
     8.63174305E-03    2     1000006  -1000005   # BR(H+ -> ~t_1    ~b_1*  )
