#
#                          ======================
#                          |    SPICE OUTPUT    |
#                          ======================
#
#          ------------------------------------------------------
#          |         Output in LesHouches Accord Format         |
#          ------------------------------------------------------
#
#          ------------------------------------------------------
#          |    Created by G. Engelhard, J. Feng, I. Galon,     |
#          |  D. Sanford, and F. Yu.  For problems with SPICE   |
#          |  send e-mail to                                    |
#          |          spice@hep.ps.uci.edu                      |
#          |                                                    |
#          |    If you use SPICE, please cite                   |
#          |      arXiv:0904.1415v1 [hep-ph]                    |
#          |                                                    |
#          |    If your model involves flavor-violating slepton |
#          |      3-body decays of sleptons, please cite        |
#          |      arXiv:0904.1416v1 [hep-ph]                    |
#          |                                                    |
#          |    We reprint the original SOFTSUSY and SUSYHIT    |
#          |  headers below.                                    |
#          ------------------------------------------------------
#
#
#
#                          ======================
#                          |   SOFTSUSY HEADER  |
#                          ======================
#
# SOFTSUSY3.0.2
# B.C. Allanach, Comput. Phys. Commun. 143 (2002) 305-331, hep-ph/0104145
#
#
#
#                          ======================
#                          |   SUSYHIT HEADER   |
#                          ======================
#
#
#          ------------------------------------------------------
#          |     This is the output of the SUSY-HIT package     |
#          |  created by A.Djouadi, M.Muehlleitner and M.Spira. |
#          |  In case of problems with SUSY-HIT email to        |
#          |           margarete.muehlleitner@cern.ch           |
#          |           michael.spira@psi.ch                     |
#          |           abdelhak.djouadi@cern.ch                 |
#          ------------------------------------------------------
#
#          ------------------------------------------------------
#          |  SUSY Les Houches Accord - MSSM Spectrum + Decays  |
#          |              based on the decay programs           |
#          |                                                    |
#          |                     SDECAY 1.3                     |
#          |                                                    |
#          |  Authors: M.Muhlleitner, A.Djouadi and Y.Mambrini  |
#          |  Ref.:    Comput.Phys.Commun.168(2005)46           |
#          |           [hep-ph/0311167]                         |
#          |                                                    |
#          |                     HDECAY 3.302                   |
#          |                                                    |
#          |  By: A.Djouadi,J.Kalinowski,M.Muhlleitner,M.Spira  |
#          |  Ref.:    Comput.Phys.Commun.108(1998)56           |
#          |           [hep-ph/9704448]                         |
#          |                                                    |
#          |                                                    |
#          |  If not stated otherwise all DRbar couplings and   |
#          |  soft SUSY breaking masses are given at the scale  |
#          |  Q=  0.97084150E+03                                |
#          |                                                    |
#          ------------------------------------------------------
#
#
BLOCK DCINFO  # Decay Program information
     1   SDECAY/HDECAY # decay calculator
     2   1.3b  /3.4    # version number
BLOCK SPINFO  # Spectrum calculator information
     1    SOFTSUSY    # spectrum calculator                
     2    3.3.5       # version number                     
BLOCK MODSEL  # Model selection
     1     2   #  gmsb                                             
BLOCK SMINPUTS  # Standard Model inputs
         1     1.27916000E+02   # alpha_em^-1(M_Z)^MSbar
         2     1.16637000E-05   # G_F [GeV^-2]
         3     1.18400000E-01   # alpha_S(M_Z)^MSbar
         4     9.11876000E+01   # M_Z pole mass
         5     4.18000000E+00   # mb(mb)^MSbar
         6     1.73500000E+02   # mt pole mass
         7     1.77699000E+00   # mtau pole mass
BLOCK MINPAR  # Input parameters - minimal models
         1     1.00000000E+05   # lambda              
         2     2.50000000E+05   # M_mess              
         3     4.00000000E+01   # tanb                
         4     1.00000000E+00   # sign(mu)            
         5     3.00000000E+00   # N5                  
         6     5.00000000E+03   # cgrav               
BLOCK MASS  # Mass Spectrum
# PDG code           mass       particle
        24     8.03886535e+01
         5     4.93386190e+00   # b-quark pole mass calculated from mb(mb)_Msbar
         6     1.73500000e+02
        25     1.17709413e+02
        35     7.53412849e+02
        36     7.53350555e+02
        37     7.57919232e+02
   1000001     2.08457553e+03
   1000002     2.08320936e+03
   1000003     2.08456353e+03
   1000004     2.08319612e+03
   1000005     1.93302424e+03
   1000006     1.84869397e+03
   2000001     1.99371608e+03
   2000002     2.00034378e+03
   2000003     1.99368812e+03
   2000004     2.00034191e+03
   2000005     1.98309493e+03
   2000006     1.98242908e+03
   1000015     2.67631653e+02
   1000016     6.30077399e+02
   2000013     3.16611974e+02
   1000014     6.36024486e+02
   2000011     3.16720574e+02
   1000012     6.36041801e+02
   1000011     6.37237685e+02
   2000012     0.00000000e+00
   1000013     6.41194434e+02
   2000014     0.00000000e+00
   2000015     6.41268340e+02
   2000016     0.00000000e+00
   1000021     2.15469036e+03
   1000022     4.17479102e+02
   1000023     6.73042945e+02
   1000025    -6.94782833e+02
   1000035     8.34411008e+02
   1000024     6.71702166e+02
   1000037     8.34198539e+02
   1000039     2.96250000e-05
#
BLOCK NMIX  # Neutralino Mixing Matrix
  1  1     9.92383494E-01   # N_11
  1  2    -1.33223980E-02   # N_12
  1  3     1.03982142E-01   # N_13
  1  4    -6.46933431E-02   # N_14
  2  1    -1.15906418E-01   # N_21
  2  2    -3.75167351E-01   # N_22
  2  3     6.58996677E-01   # N_23
  2  4    -6.41512698E-01   # N_24
  3  1    -2.72273025E-02   # N_31
  3  2     3.61732339E-02   # N_32
  3  3     7.04892134E-01   # N_33
  3  4     7.07868103E-01   # N_34
  4  1    -3.16129261E-02   # N_41
  4  2     9.26155208E-01   # N_42
  4  3     2.40911133E-01   # N_43
  4  4    -2.88442332E-01   # N_44
BLOCK UMIX  # Chargino Mixing Matrix U
  1  1    -3.38116460E-01   # U_11
  1  2     9.41104277E-01   # U_12
  2  1    -9.41104277E-01   # U_21
  2  2    -3.38116460E-01   # U_22
BLOCK VMIX  # Chargino Mixing Matrix V
  1  1    -4.03804453E-01   # V_11
  1  2     9.14845322E-01   # V_12
  2  1    -9.14845322E-01   # V_21
  2  2    -4.03804453E-01   # V_22
BLOCK STOPMIX  # Stop Mixing Matrix
  1  1     1.86844849E-01   # cos(theta_t)
  1  2     9.82389435E-01   # sin(theta_t)
  2  1    -9.82389435E-01   # -sin(theta_t)
  2  2     1.86844849E-01   # cos(theta_t)
BLOCK SBOTMIX  # Sbottom Mixing Matrix
  1  1     2.91162124E-01   # cos(theta_b)
  1  2     9.56673726E-01   # sin(theta_b)
  2  1    -9.56673726E-01   # -sin(theta_b)
  2  2     2.91162124E-01   # cos(theta_b)
BLOCK STAUMIX  # Stau Mixing Matrix
  1  1     1.55310568E-01   # cos(theta_tau)
  1  2     9.87865693E-01   # sin(theta_tau)
  2  1    -9.87865693E-01   # -sin(theta_tau)
  2  2     1.55310568E-01   # cos(theta_tau)
BLOCK ALPHA  # Higgs mixing
          -2.65922832E-02   # Mixing angle in the neutral Higgs boson sector
BLOCK HMIX Q=  1.86804690E+03  # DRbar Higgs Parameters
         1     6.85799485E+02   # mu(Q)MSSM           
         2     3.90598031E+01   # tan                 
         3     2.42974667E+02   # higgs               
         4     8.95133367E+05   # mA^2(Q)MSSM         
BLOCK GAUGE Q=  1.86804690E+03  # The gauge couplings
     1     3.64428943E-01   # gprime(Q) DRbar
     2     6.40346221E-01   # g(Q) DRbar
     3     1.02942327E+00   # g3(Q) DRbar
BLOCK Yu Q=  1.86804690E+03  # The Yukawa couplings
  1  1     7.06269459E-06   # y_u(Q) DRbar
  2  2     3.21533788E-03   # y_c(Q) DRbar
  3  3     8.37642326E-01   # y_t(Q) DRbar
BLOCK Yd Q=  1.86804690E+03  # The Yukawa couplings
  1  1     5.49450092E-04   # y_d(Q) DRbar
  2  2     1.20301801E-02   # y_s(Q) DRbar
  3  3     4.98604711E-01   # y_b(Q) DRbar
BLOCK Ye Q=  1.86804690E+03  # The Yukawa couplings
  1  1     1.12313998E-04   # y_e(Q) DRbar
  2  2     2.32236966E-02   # y_mu(Q) DRbar
  3  3     4.31217499E-01   # y_tau(Q) DRbar
BLOCK MSOFT Q=  1.86804690E+03  # The soft SUSY breaking masses at the scale Q
         1     4.29574469E+02   # M_1(Q)              
         2     7.92987727E+02   # M_2(Q)              
         3     2.05903817E+03   # M_3(Q)              
        21     1.00606013E+05   # mH1^2(Q)            
        22    -4.01348309E+05   # mH2^2(Q)            
#         PDG            Width
DECAY         6     1.45292762e+00
#          BR         NDA      ID1       ID2       ID3
     1.00000000e+00    2           5        24
#         PDG            Width
DECAY        25     5.93092616e+19
#          BR         NDA      ID1       ID2       ID3
     9.44387677e-01    2          22        22
     5.56123227e-02    2          22        23
#         PDG            Width
DECAY        35     7.55417282e+30
#          BR         NDA      ID1       ID2       ID3
     2.32571951e-09    2          22        22
     2.04968821e-09    2          23        22
     9.99999996e-01    2          25        25
#         PDG            Width
DECAY        36     1.53155621e+01
#          BR         NDA      ID1       ID2       ID3
     8.41427575e-01    2           5        -5
     1.55525242e-01    2         -15        15
     5.49849334e-04    2         -13        13
     7.64549588e-04    2           3        -3
     1.48467939e-08    2           4        -4
     1.52876560e-03    2           6        -6
     1.95766965e-04    2          21        21
     1.23104097e-07    2          22        22
     6.70444250e-08    2          23        22
     8.04681398e-06    2          23        25
#         PDG            Width
DECAY        37     1.41060972e+01
#          BR         NDA      ID1       ID2       ID3
     1.37317840e-03    2           4        -5
     1.69884136e-01    2         -15        16
     6.00614186e-04    2         -13        14
     8.78819645e-06    2           2        -5
     3.97171497e-05    2           2        -3
     8.16899790e-04    2           4        -3
     8.27267661e-01    2           6        -5
     9.00487301e-06    2          24        25
#         PDG            Width
DECAY   1000001     1.71695899e+01
#          BR         NDA      ID1       ID2       ID3
     1.72433189e-02    2     1000022         1
     4.60038834e-02    2     1000023         1
     6.20358074e-04    2     1000025         1
     2.80263708e-01    2     1000035         1
     8.44074029e-02    2    -1000024         2
     5.71461329e-01    2    -1000037         2
#         PDG            Width
DECAY   1000002     1.53046386e+01
#          BR         NDA      ID1       ID2       ID3
     1.35007795e-02    2     1000022         2
     5.90326212e-02    2     1000023         2
     3.53201779e-04    2     1000025         2
     2.70340177e-01    2     1000035         2
     1.22188894e-01    2     1000024         1
     5.34584326e-01    2     1000037         1
#         PDG            Width
DECAY   1000003     1.71695899e+01
#          BR         NDA      ID1       ID2       ID3
     1.72433189e-02    2     1000022         3
     4.60038834e-02    2     1000023         3
     6.20358074e-04    2     1000025         3
     2.80263708e-01    2     1000035         3
     8.44074029e-02    2    -1000024         4
     5.71461329e-01    2    -1000037         4
#         PDG            Width
DECAY   1000004     1.53046386e+01
#          BR         NDA      ID1       ID2       ID3
     1.35007795e-02    2     1000022         4
     5.90326212e-02    2     1000023         4
     3.53201779e-04    2     1000025         4
     2.70340177e-01    2     1000035         4
     1.22188894e-01    2     1000024         3
     5.34584326e-01    2     1000037         3
#         PDG            Width
DECAY   1000005     1.81823246e+01
#          BR         NDA      ID1       ID2       ID3
     7.29761929e-02    2     1000022         5
     2.26704689e-01    2     1000023         5
     1.94953419e-01    2     1000025         5
     1.38882526e-03    2     1000035         5
     4.89498057e-01    2    -1000024         6
     1.44788167e-02    2    -1000037         6
#         PDG            Width
DECAY   1000006     4.62898481e+01
#          BR         NDA      ID1       ID2       ID3
     9.01187228e-02    2     1000022         6
     2.07325932e-01    2     1000023         6
     2.34997151e-01    2     1000025         6
     1.07888121e-02    2     1000035         6
     4.35594646e-01    2     1000024         5
     2.11747362e-02    2     1000037         5
#         PDG            Width
DECAY   2000001     1.10201718e+00
#          BR         NDA      ID1       ID2       ID3
     9.86695151e-01    2     1000022         1
     1.18745210e-02    2     1000023         1
     6.46092591e-04    2     1000025         1
     7.84235784e-04    2     1000035         1
#         PDG            Width
DECAY   2000002     4.22489239e+00
#          BR         NDA      ID1       ID2       ID3
     9.86864984e-01    2     1000022         2
     1.17321909e-02    2     1000023         2
     6.37445132e-04    2     1000025         2
     7.65380321e-04    2     1000035         2
#         PDG            Width
DECAY   2000003     1.10201718e+00
#          BR         NDA      ID1       ID2       ID3
     9.86695151e-01    2     1000022         3
     1.18745210e-02    2     1000023         3
     6.46092591e-04    2     1000025         3
     7.84235784e-04    2     1000035         3
#         PDG            Width
DECAY   2000004     4.22489239e+00
#          BR         NDA      ID1       ID2       ID3
     9.86864984e-01    2     1000022         4
     1.17321909e-02    2     1000023         4
     6.37445132e-04    2     1000025         4
     7.65380321e-04    2     1000035         4
#         PDG            Width
DECAY   2000005     4.53067179e+01
#          BR         NDA      ID1       ID2       ID3
     4.25863238e-03    2     1000022         5
     7.52371590e-02    2     1000023         5
     8.98894111e-02    2     1000025         5
     1.29328098e-01    2     1000035         5
     3.76842821e-01    2    -1000024         6
     3.24420713e-01    2    -1000037         6
     2.31652358e-05    2     1000006       -24
#         PDG            Width
DECAY   2000006     4.74657483e+01
#          BR         NDA      ID1       ID2       ID3
     6.47437310e-03    2     1000022         6
     1.89122995e-01    2     1000023         6
     2.22181440e-01    2     1000025         6
     1.68785987e-01    2     1000035         6
     1.44118240e-01    2     1000024         5
     2.69316964e-01    2     1000037         5
#         PDG            Width
DECAY   1000016     2.19068207e+00
#          BR         NDA      ID1       ID2       ID3
     1.23381305e-01    2     1000022        16
     8.76618695e-01    2     1000015        24
#         PDG            Width
DECAY   2000013     3.94669827e-07
#          BR         NDA      ID1       ID2       ID3
     3.29291685e-01    3     1000015        13       -15
     3.04493774e-05    3     1000015        14       -16
     6.70677866e-01    3    -1000015        13        15
#         PDG            Width
DECAY   1000014     2.85666662e-01
#          BR         NDA      ID1       ID2       ID3
     9.83128275e-01    2     1000022        14
     1.68717250e-02    2     2000013        24
#         PDG            Width
DECAY   2000011     3.99085646e-07
#          BR         NDA      ID1       ID2       ID3
     3.29369098e-01    3     1000015        11       -15
     7.11958503e-10    3     1000015        12       -16
     6.70630901e-01    3    -1000015        11        15
     6.13193973e-19    3     2000013        11       -13
     1.06945975e-18    3    -2000013        11        13
#         PDG            Width
DECAY   1000012     2.80877883e-01
#          BR         NDA      ID1       ID2       ID3
     9.99999599e-01    2     1000022        12
     4.00996560e-07    2     2000011        24
#         PDG            Width
DECAY   1000011     2.04605927e+00
#          BR         NDA      ID1       ID2       ID3
     1.32114315e-01    2     1000022        15
     3.83858394e-01    2     1000015        25
     4.84027291e-01    2     1000015        23
#         PDG            Width
DECAY   1000013     2.69238573e-01
#          BR         NDA      ID1       ID2       ID3
     9.80455039e-01    2     1000022        13
     1.02252158e-02    2     2000013        25
     9.31974566e-03    2     2000013        23
#         PDG            Width
DECAY   2000015     2.64055027e-01
#          BR         NDA      ID1       ID2       ID3
     9.99999534e-01    2     1000022        11
     2.43873048e-07    2     2000011        25
     2.22192082e-07    2     2000011        23
#         PDG            Width
DECAY   1000021     1.06205813e+01
#          BR         NDA      ID1       ID2       ID3
     4.54581182e-02    2     1000001        -1
     4.54581182e-02    2    -1000001         1
     7.96913869e-03    2     2000001        -1
     7.96913869e-03    2    -2000001         1
     1.35316667e-01    2     1000002        -2
     1.35316667e-01    2    -1000002         2
     3.70857726e-02    2     2000002        -2
     3.70857726e-02    2    -2000002         2
     4.54581182e-02    2     1000003        -3
     4.54581182e-02    2    -1000003         3
     7.96913869e-03    2     2000003        -3
     7.96913869e-03    2    -2000003         3
     1.35316667e-01    2     1000004        -4
     1.35316667e-01    2    -1000004         4
     3.70857726e-02    2     2000004        -4
     3.70857726e-02    2    -2000004         4
     3.98016303e-02    2     1000005        -5
     3.98016303e-02    2    -1000005         5
     8.53897710e-03    2     2000005        -5
     8.53897710e-03    2    -2000005         5
#         PDG            Width
DECAY   1000022     1.53988635e+00
#          BR         NDA      ID1       ID2       ID3
     2.45581205e-01    2     1000015       -15
     2.45581205e-01    2    -1000015        15
     1.27328014e-01    2     2000013       -13
     1.27328014e-01    2    -2000013        13
     1.27090781e-01    2     2000011       -11
     1.27090781e-01    2    -2000011        11
#         PDG            Width
DECAY   1000023     1.35076743e+00
#          BR         NDA      ID1       ID2       ID3
     3.41968918e-01    2     1000015       -15
     3.41968918e-01    2    -1000015        15
     1.15481194e-02    2     2000013       -13
     1.15481194e-02    2    -2000013        13
     1.07204192e-02    2     2000011       -11
     1.07204192e-02    2    -2000011        11
     5.95239584e-03    2     1000011       -15
     5.95239584e-03    2    -1000011        15
     1.69740305e-03    2     1000013       -13
     1.69740305e-03    2    -1000013        13
     1.68067285e-03    2     2000015       -11
     1.68067285e-03    2    -2000015        11
     1.48419060e-03    2     1000016       -16
     1.48419060e-03    2    -1000016        16
     1.11183586e-03    2     1000014       -14
     1.11183586e-03    2    -1000014        14
     1.11082536e-03    2     1000012       -12
     1.11082536e-03    2    -1000012        12
     1.44540406e-02    2     1000022        23
     2.30996400e-01    2     1000022        25
#         PDG            Width
DECAY   1000025     1.30481278e+00
#          BR         NDA      ID1       ID2       ID3
     3.46823028e-01    2     1000015       -15
     3.46823028e-01    2    -1000015        15
     1.52396578e-03    2     2000013       -13
     1.52396578e-03    2    -2000013        13
     6.54552517e-04    2     2000011       -11
     6.54552517e-04    2    -2000011        11
     1.27838739e-02    2     1000011       -15
     1.27838739e-02    2    -1000011        15
     4.22971557e-05    2     1000013       -13
     4.22971557e-05    2    -1000013        13
     1.01867505e-05    2     2000015       -11
     1.01867505e-05    2    -2000015        11
     9.14281458e-05    2     1000016       -16
     9.14281458e-05    2    -1000016        16
     7.60725165e-05    2     1000014       -14
     7.60725165e-05    2    -1000014        14
     7.60296660e-05    2     1000012       -12
     7.60296660e-05    2    -1000012        12
     2.62670852e-01    2     1000022        23
     1.31662791e-02    2     1000022        25
#         PDG            Width
DECAY   1000035     5.12870848e+00
#          BR         NDA      ID1       ID2       ID3
     1.95672918e-03    2     1000015       -15
     1.95672918e-03    2    -1000015        15
     3.17439986e-04    2     2000013       -13
     3.17439986e-04    2    -2000013        13
     3.14722270e-04    2     2000011       -11
     3.14722270e-04    2    -2000011        11
     5.29946775e-02    2     1000011       -15
     5.29946775e-02    2    -1000011        15
     4.59046763e-02    2     1000013       -13
     4.59046763e-02    2    -1000013        13
     4.58585891e-02    2     2000015       -11
     4.58585891e-02    2    -2000015        11
     5.46363955e-02    2     1000016       -16
     5.46363955e-02    2    -1000016        16
     5.19214529e-02    2     1000014       -14
     5.19214529e-02    2    -1000014        14
     5.19136123e-02    2     1000012       -12
     5.19136123e-02    2    -1000012        12
     6.71148862e-04    2     1000022        23
     1.45656111e-03    2     1000023        23
     6.47840922e-02    2     1000025        23
     1.21481198e-01    2     1000024       -24
     1.21481198e-01    2    -1000024        24
     6.03694654e-03    2     1000022        25
     7.22739109e-02    2     1000023        25
     1.78354009e-04    2     1000025        25
#         PDG            Width
DECAY   1000024     1.23005798e+00
#          BR         NDA      ID1       ID2       ID3
     1.88495988e-02    2     1000016       -15
     3.91340731e-03    2     1000014       -13
     3.88001423e-03    2     1000012       -11
     7.25811310e-01    2    -1000015        16
     1.85592795e-03    2    -2000013        14
     4.33928782e-08    2    -2000011        12
     1.23581426e-03    2    -1000011        16
     2.00299665e-03    2    -1000013        14
     1.99723727e-03    2    -2000015        12
     2.40453650e-01    2     1000022        24
#         PDG            Width
DECAY   1000037     5.15154075e+00
#          BR         NDA      ID1       ID2       ID3
     1.07787195e-01    2     1000016       -15
     9.69194044e-02    2     1000014       -13
     9.68889254e-02    2     1000012       -11
     3.29754352e-03    2    -1000015        16
     7.60146756e-06    2    -2000013        14
     1.77880856e-10    2    -2000011        12
     1.06690227e-01    2    -1000011        16
     9.79657960e-02    2    -1000013        14
     9.78857077e-02    2    -2000015        12
     1.08623615e-01    2     1000024        23
     5.50031288e-03    2     1000022        24
     1.27466798e-01    2     1000023        24
     7.88516246e-02    2     1000025        24
     7.21152485e-02    2     1000024        25
