#
#                              ======================
#                              | THE SUSYHIT OUTPUT |
#                              ======================
#
#
#              ------------------------------------------------------
#              |     This is the output of the SUSY-HIT package     |
#              |  created by A.Djouadi, M.Muehlleitner and M.Spira. |
#              |  In case of problems with SUSY-HIT email to        |
#              |           margarete.muehlleitner@cern.ch           |
#              |           michael.spira@psi.ch                     |
#              |           abdelhak.djouadi@cern.ch                 |
#              ------------------------------------------------------
#
#              ------------------------------------------------------
#              |  SUSY Les Houches Accord - MSSM Spectrum + Decays  |
#              |              based on the decay programs           |
#              |                                                    |
#              |                     SDECAY 1.3b                    |
#              |                                                    |
#              |  Authors: M.Muhlleitner, A.Djouadi and Y.Mambrini  |
#              |  Ref.:    Comput.Phys.Commun.168(2005)46           |
#              |           [hep-ph/0311167]                         |
#              |                                                    |
#              |                     HDECAY 3.4                     |
#              |                                                    |
#              |  By: A.Djouadi,J.Kalinowski,M.Muhlleitner,M.Spira  |
#              |  Ref.:    Comput.Phys.Commun.108(1998)56           |
#              |           [hep-ph/9704448]                         |
#              |                                                    |
#              |                                                    |
#              |  If not stated otherwise all DRbar couplings and   |
#              |  soft SUSY breaking masses are given at the scale  |
#              |  Q=  0.36975350E+04
#              |                                                    |
#              ------------------------------------------------------
#
#
BLOCK DCINFO  # Decay Program information
     1   SDECAY/HDECAY # decay calculator
     2   1.3b  /3.4    # version number
#
BLOCK SPINFO  # Spectrum calculator information
     1     SOFTSUSY    # spectrum calculator               
     2     3.4.0       # version number                    
#
BLOCK MODSEL  # Model selection
     1     0   #  nonUniversal                                     
#
BLOCK SMINPUTS  # Standard Model inputs
         1     1.27908970E+02   # alpha_em^-1(M_Z)^MSbar
         2     1.16637870E-05   # G_F [GeV^-2]
         3     1.18400000E-01   # alpha_S(M_Z)^MSbar
         4     9.11876000E+01   # M_Z pole mass
         5     4.18000000E+00   # mb(mb)^MSbar
         6     1.73200000E+02   # mt pole mass
         7     1.77700000E+00   # mtau pole mass
#
BLOCK MINPAR  # Input parameters - minimal models
         3     2.30300000E+01   # tanb                
#
BLOCK EXTPAR  # Input parameters - non-minimal models
         0    -1.00000000E+00   # Set                 
         1     1.56678000E+03   # M_1(MX)             
         2     5.89030000E+02   # M_2(MX)             
         3     1.87964000E+03   # M_3(MX)             
        11     3.56214000E+03   # At(MX)              
        12     2.92863000E+03   # Ab(MX)              
        13     2.69293000E+03   # Atau(MX)            
        23    -4.85290000E+02   # mu(MX)              
        26     1.37274000E+03   # mA(pole)            
        31     1.07865000E+03   # meL(MX)             
        32     1.07865000E+03   # mmuL(MX)            
        33     1.56701000E+03   # mtauL(MX)           
        34     1.66651000E+03   # meR(MX)             
        35     1.66651000E+03   # mmuR(MX)            
        36     2.80017000E+03   # mtauR(MX)           
        41     2.76997000E+03   # mqL1(MX)            
        42     2.76997000E+03   # mqL2(MX)            
        43     3.43570000E+03   # mqL3(MX)            
        44     5.55930000E+02   # muR(MX)             
        45     5.55930000E+02   # mcR(MX)             
        46     3.97680000E+03   # mtR(MX)             
        47     3.35099000E+03   # mdR(MX)             
        48     3.35099000E+03   # msR(MX)             
        49     2.25877000E+03   # mbR(MX)             
#
BLOCK MASS  # Mass Spectrum
# PDG code           mass       particle
        24     8.03876393E+01   # W+
        25     1.26631876E+02   # h
        35     1.37277065E+03   # H
        36     1.37273997E+03   # A
        37     1.37506852E+03   # H+
         5     4.81876030E+00   # b-quark pole mass calculated from mb(mb)_Msbar
   1000001     2.84349171E+03   # ~d_L
   2000001     3.40740805E+03   # ~d_R
   1000002     2.84253559E+03   # ~u_L
   2000002     8.13270111E+02   # ~u_R
   1000003     2.84349171E+03   # ~s_L
   2000003     3.40740805E+03   # ~s_R
   1000004     2.84253559E+03   # ~c_L
   2000004     8.13270111E+02   # ~c_R
   1000005     2.33268490E+03   # ~b_1
   2000005     3.45771997E+03   # ~b_2
   1000006     3.45147315E+03   # ~t_1
   2000006     3.96432363E+03   # ~t_2
   1000011     1.09857254E+03   # ~e_L
   2000011     1.66382669E+03   # ~e_R
   1000012     1.09540317E+03   # ~nu_eL
   1000013     1.09857254E+03   # ~mu_L
   2000013     1.66382669E+03   # ~mu_R
   1000014     1.09540317E+03   # ~nu_muL
   1000015     1.57809552E+03   # ~tau_1
   2000015     2.79203919E+03   # ~tau_2
   1000016     1.57583379E+03   # ~nu_tauL
   1000021     2.10305770E+03   # ~g
   1000022     4.84509306E+02   # ~chi_10
   1000023    -5.09382909E+02   # ~chi_20
   1000025     6.39301930E+02   # ~chi_30
   1000035     1.53045290E+03   # ~chi_40
   1000024     4.88064617E+02   # ~chi_1+
   1000037     6.40131222E+02   # ~chi_2+
#
BLOCK NMIX  # Neutralino Mixing Matrix
  1  1    -2.54988206E-02   # N_11
  1  2     3.64745799E-01   # N_12
  1  3     6.73663172E-01   # N_13
  1  4     6.42252476E-01   # N_14
  2  1    -1.57576425E-02   # N_21
  2  2     5.20444830E-02   # N_22
  2  3    -7.03934948E-01   # N_23
  2  4     7.08179820E-01   # N_24
  3  1     1.37906022E-02   # N_31
  3  2     9.29647556E-01   # N_32
  3  3    -2.24875602E-01   # N_33
  3  4    -2.91541087E-01   # N_34
  4  1     9.99455515E-01   # N_41
  4  2    -2.70118436E-03   # N_42
  4  3     9.19143567E-03   # N_43
  4  4     3.15736436E-02   # N_44
#
BLOCK UMIX  # Chargino Mixing Matrix U
  1  1     3.25635223E-01   # U_11
  1  2     9.45495479E-01   # U_12
  2  1    -9.45495479E-01   # U_21
  2  2     3.25635223E-01   # U_22
#
BLOCK VMIX  # Chargino Mixing Matrix V
  1  1     4.21954811E-01   # V_11
  1  2    -9.06616864E-01   # V_12
  2  1    -9.06616864E-01   # V_21
  2  2    -4.21954811E-01   # V_22
#
BLOCK STOPMIX  # Stop Mixing Matrix
  1  1     9.92442919E-01   # cos(theta_t)
  1  2    -1.22707182E-01   # sin(theta_t)
  2  1     1.22707182E-01   # -sin(theta_t)
  2  2     9.92442919E-01   # cos(theta_t)
#
BLOCK SBOTMIX  # Sbottom Mixing Matrix
  1  1    -4.93054445E-03   # cos(theta_b)
  1  2     9.99987845E-01   # sin(theta_b)
  2  1    -9.99987845E-01   # -sin(theta_b)
  2  2    -4.93054445E-03   # cos(theta_b)
#
BLOCK STAUMIX  # Stau Mixing Matrix
  1  1     9.99990062E-01   # cos(theta_tau)
  1  2    -4.45823970E-03   # sin(theta_tau)
  2  1     4.45823970E-03   # -sin(theta_tau)
  2  2     9.99990062E-01   # cos(theta_tau)
#
BLOCK ALPHA  # Higgs mixing
          -4.58610476E-02   # Mixing angle in the neutral Higgs boson sector
#
BLOCK HMIX Q=  3.69753500E+03  # DRbar Higgs Parameters
         1    -4.94825428E+02   # mu(Q)MSSM           
         2     2.20424906E+01   # tan                 
         3     2.41167340E+02   # higgs               
         4     1.65681219E+06   # mA^2(Q)MSSM         
#
BLOCK GAUGE Q=  3.69753500E+03  # The gauge couplings
     1     3.66186834E-01   # gprime(Q) DRbar
     2     6.41248290E-01   # g(Q) DRbar
     3     1.01414606E+00   # g3(Q) DRbar
#
BLOCK AU Q=  3.69753500E+03  # The trilinear couplings
  1  1     0.00000000E+00   # A_u(Q) DRbar
  2  2     0.00000000E+00   # A_c(Q) DRbar
  3  3     3.56214002E+03   # A_t(Q) DRbar
#
BLOCK AD Q=  3.69753500E+03  # The trilinear couplings
  1  1     0.00000000E+00   # A_d(Q) DRbar
  2  2     0.00000000E+00   # A_s(Q) DRbar
  3  3     2.92863001E+03   # A_b(Q) DRbar
#
BLOCK AE Q=  3.69753500E+03  # The trilinear couplings
  1  1     0.00000000E+00   # A_e(Q) DRbar
  2  2     0.00000000E+00   # A_mu(Q) DRbar
  3  3     2.69293000E+03   # A_tau(Q) DRbar
#
BLOCK Yu Q=  3.69753500E+03  # The Yukawa couplings
  1  1     0.00000000E+00   # y_u(Q) DRbar
  2  2     0.00000000E+00   # y_c(Q) DRbar
  3  3     8.28342997E-01   # y_t(Q) DRbar
#
BLOCK Yd Q=  3.69753500E+03  # The Yukawa couplings
  1  1     0.00000000E+00   # y_d(Q) DRbar
  2  2     0.00000000E+00   # y_s(Q) DRbar
  3  3     3.07473521E-01   # y_b(Q) DRbar
#
BLOCK Ye Q=  3.69753500E+03  # The Yukawa couplings
  1  1     0.00000000E+00   # y_e(Q) DRbar
  2  2     0.00000000E+00   # y_mu(Q) DRbar
  3  3     2.22426959E-01   # y_tau(Q) DRbar
#
BLOCK MSOFT Q=  3.69753500E+03  # The soft SUSY breaking masses at the scale Q
         1     1.56678000E+03   # M_1(Q)              
         2     5.89030000E+02   # M_2(Q)              
         3     1.87964000E+03   # M_3(Q)              
        21     1.66038092E+06   # mH1^2(Q)            
        22     9.54961115E+04   # mH2^2(Q)            
        31     1.07865000E+03   # meL(Q)              
        32     1.07865000E+03   # mmuL(Q)             
        33     1.56701000E+03   # mtauL(Q)            
        34     1.66651000E+03   # meR(Q)              
        35     1.66651000E+03   # mmuR(Q)             
        36     2.80017000E+03   # mtauR(Q)            
        41     2.76996999E+03   # mqL1(Q)             
        42     2.76996999E+03   # mqL2(Q)             
        43     3.43569999E+03   # mqL3(Q)             
        44     5.55929972E+02   # muR(Q)              
        45     5.55929972E+02   # mcR(Q)              
        46     3.97679999E+03   # mtR(Q)              
        47     3.35099000E+03   # mdR(Q)              
        48     3.35099000E+03   # msR(Q)              
        49     2.25876999E+03   # mbR(Q)              
#
Block HiggsBoundsInputHiggsCouplingsFermions
# ScalarNormEffCoupSq PseudoSNormEffCoupSq NP   IP1 IP2 IP2
    1.02328758E+00    0.00000000E+00        3  25   5   5  # h0-b-b eff. coupling^2, normalised to SM
    4.85848104E+02    0.00000000E+00        3  35   5   5  # H0-b-b eff. coupling^2, normalised to SM
    0.00000000E+00    4.85871392E+02        3  36   5   5  # A0-b-b eff. coupling^2, normalised to SM
#
    9.99952070E-01    0.00000000E+00        3  25   6   6  # h0-t-t eff. coupling^2, normalised to SM
    2.10608732E-03    0.00000000E+00        3  35   6   6  # H0-t-t eff. coupling^2, normalised to SM
    0.00000000E+00    2.05815781E-03        3  36   6   6  # A0-t-t eff. coupling^2, normalised to SM
#
    1.02328758E+00    0.00000000E+00        3  25  15  15  # h0-tau-tau eff. coupling^2, normalised to SM
    4.85848104E+02    0.00000000E+00        3  35  15  15  # H0-tau-tau eff. coupling^2, normalised to SM
    0.00000000E+00    4.85871392E+02        3  36  15  15  # A0-tau-tau eff. coupling^2, normalised to SM
#
Block HiggsBoundsInputHiggsCouplingsBosons
    9.99999724E-01        3  25  24  24  # h0-W-W eff. coupling^2, normalised to SM
    2.75844603E-07        3  35  24  24  # H0-W-W eff. coupling^2, normalised to SM
    0.00000000E+00        3  36  24  24  # A0-W-W eff. coupling^2, normalised to SM
#
    9.99999724E-01        3  25  23  23  # h0-Z-Z eff. coupling^2, normalised to SM
    2.75844603E-07        3  35  23  23  # H0-Z-Z eff. coupling^2, normalised to SM
    0.00000000E+00        3  36  23  23  # A0-Z-Z eff. coupling^2, normalised to SM
#
    8.83961465E-01        3  25  21  21  # h0-g-g eff. coupling^2, normalised to SM
    4.00823931E-09        3  35  21  21  # H0-g-g eff. coupling^2, normalised to SM
    4.70320202E-08        3  36  21  21  # A0-g-g eff. coupling^2, normalised to SM
#
    0.00000000E+00        3  25  25  23  # h0-h0-Z eff. coupling^2, normalised to SM
    0.00000000E+00        3  35  25  23  # H0-h0-Z eff. coupling^2, normalised to SM
    2.75844603E-07        3  36  25  23  # A0-h0-Z eff. coupling^2, normalised to SM
    0.00000000E+00        3  35  35  23  # H0-H0-Z eff. coupling^2, normalised to SM
    9.99999724E-01        3  36  35  23  # A0-H0-Z eff. coupling^2, normalised to SM
    0.00000000E+00        3  36  36  23  # A0-A0-Z eff. coupling^2, normalised to SM
#
    0.00000000E+00        4  25  21  21  23  # h0-g-g-Z eff. coupling^2, normalised to SM
    0.00000000E+00        4  35  21  21  23  # H0-g-g-Z eff. coupling^2, normalised to SM
    0.00000000E+00        4  36  21  21  23  # A0-g-g-Z eff. coupling^2, normalised to SM
#
#
#
#                             =================
#                             |The decay table|
#                             =================
#
# - The QCD corrections to the decays gluino -> squark  + quark
#                                     squark -> gaugino + quark_prime
#                                     squark -> squark_prime + Higgs
#                                     squark -> gluino  + quark
#   are included.
#
# - The multi-body decays for the inos, stops and sbottoms are included.
#
# - The loop induced decays for the gluino, neutralinos and stops
#   are included.
#
# - The SUSY decays of the top quark are included.
#
#
#         PDG            Width
DECAY         6     1.44828506E+00   # top decays
#          BR         NDA      ID1       ID2
     1.00000000E+00    2           5        24   # BR(t ->  b    W+)
#
#         PDG            Width
DECAY   1000021     6.05958069E+01   # gluino decays
#          BR         NDA      ID1       ID2
     2.50000031E-01    2     2000002        -2   # BR(~g -> ~u_R  ub)
     2.50000031E-01    2    -2000002         2   # BR(~g -> ~u_R* u )
     2.49999969E-01    2     2000004        -4   # BR(~g -> ~c_R  cb)
     2.49999969E-01    2    -2000004         4   # BR(~g -> ~c_R* c )
#
#         PDG            Width
DECAY   1000006     1.62787129E+02   # stop1 decays
#          BR         NDA      ID1       ID2
     1.15123427E-01    2     1000022         6   # BR(~t_1 -> ~chi_10 t )
     1.36421411E-01    2     1000023         6   # BR(~t_1 -> ~chi_20 t )
     1.02916504E-01    2     1000025         6   # BR(~t_1 -> ~chi_30 t )
     2.87397592E-03    2     1000035         6   # BR(~t_1 -> ~chi_40 t )
     4.63416236E-02    2     1000024         5   # BR(~t_1 -> ~chi_1+ b )
     1.54969500E-01    2     1000037         5   # BR(~t_1 -> ~chi_2+ b )
     4.40744852E-01    2     1000021         6   # BR(~t_1 -> ~g      t )
     6.08706105E-04    2     1000005        24   # BR(~t_1 -> ~b_1    W+)
#
#         PDG            Width
DECAY   2000006     2.40708672E+02   # stop2 decays
#          BR         NDA      ID1       ID2
     9.65603152E-02    2     1000022         6   # BR(~t_2 -> ~chi_10 t )
     1.10214046E-01    2     1000023         6   # BR(~t_2 -> ~chi_20 t )
     1.12260221E-02    2     1000025         6   # BR(~t_2 -> ~chi_30 t )
     2.77050381E-02    2     1000035         6   # BR(~t_2 -> ~chi_40 t )
     1.93018285E-01    2     1000024         5   # BR(~t_2 -> ~chi_1+ b )
     2.36438848E-02    2     1000037         5   # BR(~t_2 -> ~chi_2+ b )
     4.67829876E-01    2     1000021         6   # BR(~t_2 -> ~g      t )
     2.02036578E-02    2     1000006        25   # BR(~t_2 -> ~t_1    h )
     1.69772057E-04    2     1000005        37   # BR(~t_2 -> ~b_1    H+)
     1.69043832E-02    2     1000006        23   # BR(~t_2 -> ~t_1    Z )
     1.66913020E-05    2     1000005        24   # BR(~t_2 -> ~b_1    W+)
     3.25080288E-02    2     2000005        24   # BR(~t_2 -> ~b_2    W+)
#
#         PDG            Width
DECAY   1000005     1.28278998E+01   # sbottom1 decays
#          BR         NDA      ID1       ID2
     1.43346301E-01    2     1000022         5   # BR(~b_1 -> ~chi_10 b )
     1.53530951E-01    2     1000023         5   # BR(~b_1 -> ~chi_20 b )
     1.39450336E-02    2     1000025         5   # BR(~b_1 -> ~chi_30 b )
     3.49253486E-02    2     1000035         5   # BR(~b_1 -> ~chi_40 b )
     2.77970809E-01    2    -1000024         6   # BR(~b_1 -> ~chi_1- t )
     2.87738817E-02    2    -1000037         6   # BR(~b_1 -> ~chi_2- t )
     3.47507675E-01    2     1000021         5   # BR(~b_1 -> ~g      b )
#
#         PDG            Width
DECAY   2000005     1.66222358E+02   # sbottom2 decays
#          BR         NDA      ID1       ID2
     2.81068547E-02    2     1000022         5   # BR(~b_2 -> ~chi_10 b )
     1.88265715E-02    2     1000023         5   # BR(~b_2 -> ~chi_20 b )
     7.01474491E-02    2     1000025         5   # BR(~b_2 -> ~chi_30 b )
     2.05200795E-03    2     1000035         5   # BR(~b_2 -> ~chi_40 b )
     2.38240004E-01    2    -1000024         6   # BR(~b_2 -> ~chi_1- t )
     1.91372204E-01    2    -1000037         6   # BR(~b_2 -> ~chi_2- t )
     4.50589850E-01    2     1000021         5   # BR(~b_2 -> ~g      b )
     3.49326633E-04    2     1000005        25   # BR(~b_2 -> ~b_1    h )
     3.15731350E-04    2     1000005        23   # BR(~b_2 -> ~b_1    Z )
#
#         PDG            Width
DECAY   1000002     7.50799121E+01   # sup_L decays
#          BR         NDA      ID1       ID2
     1.80911082E-02    2     1000022         2   # BR(~u_L -> ~chi_10 u)
     3.33918907E-04    2     1000023         2   # BR(~u_L -> ~chi_20 u)
     1.16190475E-01    2     1000025         2   # BR(~u_L -> ~chi_30 u)
     2.64944812E-03    2     1000035         2   # BR(~u_L -> ~chi_40 u)
     4.96946869E-02    2     1000024         1   # BR(~u_L -> ~chi_1+ d)
     2.19707270E-01    2     1000037         1   # BR(~u_L -> ~chi_2+ d)
     5.93333093E-01    2     1000021         2   # BR(~u_L -> ~g      u)
#
#         PDG            Width
DECAY   2000002     7.77199117E-04   # sup_R decays
#           BR         NDA      ID1       ID2
     6.92992163E-01    2     1000022         2   # BR(~u_R -> ~chi_10 u)
     2.35100517E-01    2     1000023         2   # BR(~u_R -> ~chi_20 u)
     7.19073206E-02    2     1000025         2   # BR(~u_R -> ~chi_30 u)
#
#         PDG            Width
DECAY   1000001     7.51106222E+01   # sdown_L decays
#          BR         NDA      ID1       ID2
     1.90797705E-02    2     1000022         1   # BR(~d_L -> ~chi_10 d)
     4.20593520E-04    2     1000023         1   # BR(~d_L -> ~chi_20 d)
     1.14886331E-01    2     1000025         1   # BR(~d_L -> ~chi_30 d)
     2.80562342E-03    2     1000035         1   # BR(~d_L -> ~chi_40 d)
     2.95958493E-02    2    -1000024         2   # BR(~d_L -> ~chi_1- u)
     2.38956568E-01    2    -1000037         2   # BR(~d_L -> ~chi_2- u)
     5.94255265E-01    2     1000021         1   # BR(~d_L -> ~g      d)
#
#         PDG            Width
DECAY   2000001     1.01139389E+02   # sdown_R decays
#          BR         NDA      ID1       ID2
     1.19825078E-05    2     1000022         1   # BR(~d_R -> ~chi_10 d)
     4.55671990E-06    2     1000023         1   # BR(~d_R -> ~chi_20 d)
     3.40096368E-06    2     1000025         1   # BR(~d_R -> ~chi_30 d)
     1.22796180E-02    2     1000035         1   # BR(~d_R -> ~chi_40 d)
     9.87700442E-01    2     1000021         1   # BR(~d_R -> ~g      d)
#
#         PDG            Width
DECAY   1000004     6.36581011E+01   # scharm_L decays
#          BR         NDA      ID1       ID2
     2.23018069E-02    2     1000022         4   # BR(~c_L -> ~chi_10 c)
     4.11569867E-04    2     1000023         4   # BR(~c_L -> ~chi_20 c)
     1.43088536E-01    2     1000025         4   # BR(~c_L -> ~chi_30 c)
     3.23948744E-03    2     1000035         4   # BR(~c_L -> ~chi_40 c)
     6.12596809E-02    2     1000024         3   # BR(~c_L -> ~chi_1+ s)
     2.70568176E-01    2     1000037         3   # BR(~c_L -> ~chi_2+ s)
     4.99130743E-01    2     1000021         4   # BR(~c_L -> ~g      c)
#
#         PDG            Width
DECAY   2000004     7.52137061E-04   # scharm_R decays
#           BR         NDA      ID1       ID2
     6.93710386E-01    2     1000022         4   # BR(~c_R -> ~chi_10 c)
     2.35111826E-01    2     1000023         4   # BR(~c_R -> ~chi_20 c)
     7.11777876E-02    2     1000025         4   # BR(~c_R -> ~chi_30 c)
#
#         PDG            Width
DECAY   1000003     6.36594840E+01   # sstrange_L decays
#          BR         NDA      ID1       ID2
     2.35294995E-02    2     1000022         3   # BR(~s_L -> ~chi_10 s)
     5.18596809E-04    2     1000023         3   # BR(~s_L -> ~chi_20 s)
     1.41536216E-01    2     1000025         3   # BR(~s_L -> ~chi_30 s)
     3.43177204E-03    2     1000035         3   # BR(~s_L -> ~chi_40 s)
     3.64972232E-02    2    -1000024         4   # BR(~s_L -> ~chi_1- c)
     2.94385029E-01    2    -1000037         4   # BR(~s_L -> ~chi_2- c)
     5.00101664E-01    2     1000021         3   # BR(~s_L -> ~g      s)
#
#         PDG            Width
DECAY   2000003     7.25391340E+01   # sstrange_R decays
#          BR         NDA      ID1       ID2
     1.73809387E-05    2     1000022         3   # BR(~s_R -> ~chi_10 s)
     6.60884934E-06    2     1000023         3   # BR(~s_R -> ~chi_20 s)
     4.92963057E-06    2     1000025         3   # BR(~s_R -> ~chi_30 s)
     1.77251827E-02    2     1000035         3   # BR(~s_R -> ~chi_40 s)
     9.82245898E-01    2     1000021         3   # BR(~s_R -> ~g      s)
#
#         PDG            Width
DECAY   1000011     6.20855251E+00   # selectron_L decays
#          BR         NDA      ID1       ID2
     5.75841648E-02    2     1000022        11   # BR(~e_L -> ~chi_10 e-)
     8.26419352E-04    2     1000023        11   # BR(~e_L -> ~chi_20 e-)
     2.78236264E-01    2     1000025        11   # BR(~e_L -> ~chi_30 e-)
     9.88795791E-02    2    -1000024        12   # BR(~e_L -> ~chi_1- nu_e)
     5.64473573E-01    2    -1000037        12   # BR(~e_L -> ~chi_2- nu_e)
#
#         PDG            Width
DECAY   2000011     2.17888723E-01   # selectron_R decays
#           BR         NDA      ID1       ID2
     2.21877149E-02    2     1000022        11   # BR(~e_R -> ~chi_10 e-)
     8.30879170E-03    2     1000023        11   # BR(~e_R -> ~chi_20 e-)
     5.62929933E-03    2     1000025        11   # BR(~e_R -> ~chi_30 e-)
     9.63874194E-01    2     1000035        11   # BR(~e_R -> ~chi_40 e-)
#
#         PDG            Width
DECAY   1000013     6.20855243E+00   # smuon_L decays
#          BR         NDA      ID1       ID2
     5.75841640E-02    2     1000022        13   # BR(~mu_L -> ~chi_10 mu-)
     8.26419338E-04    2     1000023        13   # BR(~mu_L -> ~chi_20 mu-)
     2.78236256E-01    2     1000025        13   # BR(~mu_L -> ~chi_30 mu-)
     9.88795804E-02    2    -1000024        14   # BR(~mu_L -> ~chi_1- nu_mu)
     5.64473580E-01    2    -1000037        14   # BR(~mu_L -> ~chi_2- nu_mu)
#
#         PDG            Width
DECAY   2000013     2.17888651E-01   # smuon_R decays
#           BR         NDA      ID1       ID2
     2.21877219E-02    2     1000022        13   # BR(~mu_R -> ~chi_10 mu-)
     8.30879435E-03    2     1000023        13   # BR(~mu_R -> ~chi_20 mu-)
     5.62930110E-03    2     1000025        13   # BR(~mu_R -> ~chi_30 mu-)
     9.63874183E-01    2     1000035        13   # BR(~mu_R -> ~chi_40 mu-)
#
#         PDG            Width
DECAY   1000015     1.50582506E+01   # stau_1 decays
#          BR         NDA      ID1       ID2
     8.19795236E-02    2     1000022        15   # BR(~tau_1 -> ~chi_10  tau-)
     4.15973805E-02    2     1000023        15   # BR(~tau_1 -> ~chi_20  tau-)
     2.66549633E-01    2     1000025        15   # BR(~tau_1 -> ~chi_30  tau-)
     4.88790167E-04    2     1000035        15   # BR(~tau_1 -> ~chi_40  tau-)
     7.50169203E-02    2    -1000024        16   # BR(~tau_1 -> ~chi_1-  nu_tau)
     5.34367752E-01    2    -1000037        16   # BR(~tau_1 -> ~chi_2-  nu_tau)
#
#         PDG            Width
DECAY   2000015     1.26124156E+01   # stau_2 decays
#          BR         NDA      ID1       ID2
     9.27915175E-02    2     1000022        15   # BR(~tau_2 -> ~chi_10  tau-)
     1.01335617E-01    2     1000023        15   # BR(~tau_2 -> ~chi_20  tau-)
     1.08470568E-02    2     1000025        15   # BR(~tau_2 -> ~chi_30  tau-)
     5.77348192E-01    2     1000035        15   # BR(~tau_2 -> ~chi_40  tau-)
     1.81438526E-01    2    -1000024        16   # BR(~tau_2 -> ~chi_1-  nu_tau)
     2.23154876E-02    2    -1000037        16   # BR(~tau_2 -> ~chi_2-  nu_tau)
     6.82175139E-03    2     1000016       -24   # BR(~tau_2 -> ~nu_tauL W-)
     3.60808827E-03    2     1000015        25   # BR(~tau_2 -> ~tau_1   h)
     3.49376288E-03    2     1000015        23   # BR(~tau_2 -> ~tau_1   Z)
#
#         PDG            Width
DECAY   1000012     6.30127474E+00   # snu_eL decays
#          BR         NDA      ID1       ID2
     6.61883333E-02    2     1000022        12   # BR(~nu_eL -> ~chi_10 nu_e)
     1.62754329E-03    2     1000023        12   # BR(~nu_eL -> ~chi_20 nu_e)
     2.62677818E-01    2     1000025        12   # BR(~nu_eL -> ~chi_30 nu_e)
     1.62646320E-01    2     1000024        11   # BR(~nu_eL -> ~chi_1+ e-)
     5.06859985E-01    2     1000037        11   # BR(~nu_eL -> ~chi_2+ e-)
#
#         PDG            Width
DECAY   1000014     6.30127458E+00   # snu_muL decays
#          BR         NDA      ID1       ID2
     6.61883351E-02    2     1000022        14   # BR(~nu_muL -> ~chi_10 nu_mu)
     1.62754334E-03    2     1000023        14   # BR(~nu_muL -> ~chi_20 nu_mu)
     2.62677825E-01    2     1000025        14   # BR(~nu_muL -> ~chi_30 nu_mu)
     1.62646319E-01    2     1000024        13   # BR(~nu_muL -> ~chi_1+ mu-)
     5.06859977E-01    2     1000037        13   # BR(~nu_muL -> ~chi_2+ mu-)
#
#         PDG            Width
DECAY   1000016     1.51203194E+01   # snu_tauL decays
#          BR         NDA      ID1       ID2
     5.02839005E-02    2     1000022        16   # BR(~nu_tauL -> ~chi_10 nu_tau)
     1.27384122E-03    2     1000023        16   # BR(~nu_tauL -> ~chi_20 nu_tau)
     2.52786329E-01    2     1000025        16   # BR(~nu_tauL -> ~chi_30 nu_tau)
     4.51721291E-04    2     1000035        16   # BR(~nu_tauL -> ~chi_40 nu_tau)
     1.99171762E-01    2     1000024        15   # BR(~nu_tauL -> ~chi_1+ tau-)
     4.96032446E-01    2     1000037        15   # BR(~nu_tauL -> ~chi_2+ tau-)
#
#         PDG            Width
DECAY   1000024     8.17605044E-10   # chargino1+ decays
#           BR         NDA      ID1       ID2       ID3
     3.61629833E-01    3     1000022         2        -1   # BR(~chi_1+ -> ~chi_10 u    db)
     3.61629833E-01    3     1000022         4        -3   # BR(~chi_1+ -> ~chi_10 c    sb)
     1.20713827E-01    3     1000022       -11        12   # BR(~chi_1+ -> ~chi_10 e+   nu_e)
     1.20713827E-01    3     1000022       -13        14   # BR(~chi_1+ -> ~chi_10 mu+  nu_mu)
     3.53126796E-02    3     1000022       -15        16   # BR(~chi_1+ -> ~chi_10 tau+ nu_tau)
#
#         PDG            Width
DECAY   1000037     1.38143345E+00   # chargino2+ decays
#          BR         NDA      ID1       ID2
     2.88940566E-01    2     1000024        23   # BR(~chi_2+ -> ~chi_1+  Z )
     3.35899565E-01    2     1000022        24   # BR(~chi_2+ -> ~chi_10  W+)
     2.15565659E-01    2     1000023        24   # BR(~chi_2+ -> ~chi_20  W+)
     1.59594210E-01    2     1000024        25   # BR(~chi_2+ -> ~chi_1+  h )
#
#         PDG            Width
DECAY   1000022     0.00000000E+00   # neutralino1 decays
#
#         PDG            Width
DECAY   1000023     1.73994912E-05   # neutralino2 decays
#          BR         NDA      ID1       ID2
     2.16228376E-02    2     1000022        22   # BR(~chi_20 -> ~chi_10 gam)
#           BR         NDA      ID1       ID2       ID3
     5.55476802E-02    3     1000022        -2         2   # BR(~chi_20 -> ~chi_10 ub      u)
     7.20917116E-02    3     1000022        -1         1   # BR(~chi_20 -> ~chi_10 db      d)
     5.55476802E-02    3     1000022        -4         4   # BR(~chi_20 -> ~chi_10 cb      c)
     7.20917116E-02    3     1000022        -3         3   # BR(~chi_20 -> ~chi_10 sb      s)
     5.16800746E-02    3     1000022        -5         5   # BR(~chi_20 -> ~chi_10 bb      b)
     1.65544340E-02    3     1000022       -11        11   # BR(~chi_20 -> ~chi_10 e+      e-)
     1.65544340E-02    3     1000022       -13        13   # BR(~chi_20 -> ~chi_10 mu+     mu-)
     1.60946358E-02    3     1000022       -15        15   # BR(~chi_20 -> ~chi_10 tau+    tau-)
     3.31176988E-02    3     1000022       -12        12   # BR(~chi_20 -> ~chi_10 nu_eb   nu_e)
     3.31176988E-02    3     1000022       -14        14   # BR(~chi_20 -> ~chi_10 nu_mub  nu_mu)
     3.31116009E-02    3     1000022       -16        16   # BR(~chi_20 -> ~chi_10 nu_taub nu_tau)
     8.74670077E-02    3     1000024        -2         1   # BR(~chi_20 -> ~chi_1+ ub      d)
     8.74670077E-02    3    -1000024        -1         2   # BR(~chi_20 -> ~chi_1- db      u)
     8.74670077E-02    3     1000024        -4         3   # BR(~chi_20 -> ~chi_1+ cb      s)
     8.74670077E-02    3    -1000024        -3         4   # BR(~chi_20 -> ~chi_1- sb      c)
     2.91585988E-02    3     1000024       -12        11   # BR(~chi_20 -> ~chi_1+ nu_eb   e-)
     2.91585988E-02    3    -1000024        12       -11   # BR(~chi_20 -> ~chi_1- nu_e    e+)
     2.91585988E-02    3     1000024       -14        13   # BR(~chi_20 -> ~chi_1+ nu_mub  mu-)
     2.91585988E-02    3    -1000024        14       -13   # BR(~chi_20 -> ~chi_1- nu_mu   mu+)
     2.81826878E-02    3     1000024       -16        15   # BR(~chi_20 -> ~chi_1+ nu_taub tau-)
     2.81826878E-02    3    -1000024        16       -15   # BR(~chi_20 -> ~chi_1- nu_tau  tau+)
#
#         PDG            Width
DECAY   1000025     1.40025511E+00   # neutralino3 decays
#          BR         NDA      ID1       ID2
     8.13056827E-03    2     1000022        23   # BR(~chi_30 -> ~chi_10   Z )
     1.43809429E-01    2     1000023        23   # BR(~chi_30 -> ~chi_20   Z )
     3.51843625E-01    2     1000024       -24   # BR(~chi_30 -> ~chi_1+   W-)
     3.51843625E-01    2    -1000024        24   # BR(~chi_30 -> ~chi_1-   W+)
     1.44303702E-01    2     1000022        25   # BR(~chi_30 -> ~chi_10   h )
     6.90516439E-05    2     1000023        25   # BR(~chi_30 -> ~chi_20   h )
#
#         PDG            Width
DECAY   1000035     1.66469101E+01   # neutralino4 decays
#          BR         NDA      ID1       ID2
     1.02356342E-02    2     1000022        23   # BR(~chi_40 -> ~chi_10   Z )
     4.06777542E-02    2     1000023        23   # BR(~chi_40 -> ~chi_20   Z )
     2.03913964E-03    2     1000025        23   # BR(~chi_40 -> ~chi_30   Z )
     3.86573373E-02    2     1000024       -24   # BR(~chi_40 -> ~chi_1+   W-)
     3.86573373E-02    2    -1000024        24   # BR(~chi_40 -> ~chi_1-   W+)
     1.23680667E-02    2     1000037       -24   # BR(~chi_40 -> ~chi_2+   W-)
     1.23680667E-02    2    -1000037        24   # BR(~chi_40 -> ~chi_2-   W+)
     3.31359537E-02    2     1000022        25   # BR(~chi_40 -> ~chi_10   h )
     1.29406768E-02    2     1000023        25   # BR(~chi_40 -> ~chi_20   h )
     1.10651674E-02    2     1000025        25   # BR(~chi_40 -> ~chi_30   h )
     1.68000388E-01    2     2000002        -2   # BR(~chi_40 -> ~u_R      ub)
     1.68000388E-01    2    -2000002         2   # BR(~chi_40 -> ~u_R*     u )
     1.68000186E-01    2     2000004        -4   # BR(~chi_40 -> ~c_R      cb)
     1.68000186E-01    2    -2000004         4   # BR(~chi_40 -> ~c_R*     c )
     1.42562371E-02    2     1000011       -11   # BR(~chi_40 -> ~e_L-     e+)
     1.42562371E-02    2    -1000011        11   # BR(~chi_40 -> ~e_L+     e-)
     1.42562371E-02    2     1000013       -13   # BR(~chi_40 -> ~mu_L-    mu+)
     1.42562371E-02    2    -1000013        13   # BR(~chi_40 -> ~mu_L+    mu-)
     1.47071922E-02    2     1000012       -12   # BR(~chi_40 -> ~nu_eL    nu_eb)
     1.47071922E-02    2    -1000012        12   # BR(~chi_40 -> ~nu_eL*   nu_e )
     1.47071922E-02    2     1000014       -14   # BR(~chi_40 -> ~nu_muL   nu_mub)
     1.47071922E-02    2    -1000014        14   # BR(~chi_40 -> ~nu_muL*  nu_mu )
#
#         PDG            Width
DECAY        25     4.22724756E-03   # h decays
#          BR         NDA      ID1       ID2
     5.65562950E-01    2           5        -5   # BR(h -> b       bb     )
     6.34714008E-02    2         -15        15   # BR(h -> tau+    tau-   )
     2.24689943E-04    2         -13        13   # BR(h -> mu+     mu-    )
     2.44618002E-04    2           3        -3   # BR(h -> s       sb     )
     2.07306511E-02    2           4        -4   # BR(h -> c       cb     )
     7.82284625E-02    2          21        21   # BR(h -> g       g      )
     2.35009876E-03    2          22        22   # BR(h -> gam     gam    )
     1.70496252E-03    2          22        23   # BR(h -> Z       gam    )
     2.37146381E-01    2          24       -24   # BR(h -> W+      W-     )
     3.03357851E-02    2          23        23   # BR(h -> Z       Z      )
#
#         PDG            Width
DECAY        35     1.66987836E+01   # H decays
#          BR         NDA      ID1       ID2
     5.25261010E-01    2           5        -5   # BR(H -> b       bb     )
     8.47650536E-02    2         -15        15   # BR(H -> tau+    tau-   )
     3.03319272E-04    2         -13        13   # BR(H -> mu+     mu-    )
     2.15175317E-04    2           3        -3   # BR(H -> s       sb     )
     7.92446162E-08    2           4        -4   # BR(H -> c       cb     )
     7.42017822E-03    2           6        -6   # BR(H -> t       tb     )
     2.31355285E-05    2          21        21   # BR(H -> g       g      )
     1.62675999E-07    2          22        22   # BR(H -> gam     gam    )
     1.35123596E-08    2          23        22   # BR(H -> Z       gam    )
     1.35010849E-05    2          24       -24   # BR(H -> W+      W-     )
     6.70290387E-06    2          23        23   # BR(H -> Z       Z      )
     5.76788687E-05    2          25        25   # BR(H -> h       h      )
     4.11605851E-02    2     1000024  -1000024   # BR(H -> ~chi_1+ ~chi_1-)
     3.21504695E-03    2     1000037  -1000037   # BR(H -> ~chi_2+ ~chi_2-)
     1.05734951E-01    2     1000024  -1000037   # BR(H -> ~chi_1+ ~chi_2-)
     1.05734951E-01    2     1000037  -1000024   # BR(H -> ~chi_2+ ~chi_1-)
     1.75067845E-02    2     1000022   1000022   # BR(H -> ~chi_10 ~chi_10)
     3.45560826E-04    2     1000023   1000023   # BR(H -> ~chi_20 ~chi_20)
     1.62023046E-03    2     1000025   1000025   # BR(H -> ~chi_30 ~chi_30)
     1.07348809E-02    2     1000022   1000023   # BR(H -> ~chi_10 ~chi_20)
     2.04127602E-02    2     1000022   1000025   # BR(H -> ~chi_10 ~chi_30)
     7.54682391E-02    2     1000023   1000025   # BR(H -> ~chi_20 ~chi_30)
#
#         PDG            Width
DECAY        36     1.66453376E+01   # A decays
#          BR         NDA      ID1       ID2
     5.26996280E-01    2           5        -5   # BR(A -> b       bb     )
     8.50399205E-02    2         -15        15   # BR(A -> tau+    tau-   )
     3.04300724E-04    2         -13        13   # BR(A -> mu+     mu-    )
     2.15903804E-04    2           3        -3   # BR(A -> s       sb     )
     7.84004526E-08    2           4        -4   # BR(A -> c       cb     )
     7.62731346E-03    2           6        -6   # BR(A -> t       tb     )
     7.94853833E-05    2          21        21   # BR(A -> g       g      )
     1.66157732E-07    2          22        22   # BR(A -> gam     gam    )
     4.66781282E-08    2          23        22   # BR(A -> Z       gam    )
     1.35261796E-05    2          23        25   # BR(A -> Z       h      )
     7.29692275E-02    2     1000024  -1000024   # BR(A -> ~chi_1+ ~chi_1-)
     1.93456004E-02    2     1000037  -1000037   # BR(A -> ~chi_2+ ~chi_2-)
     8.07545776E-02    2     1000024  -1000037   # BR(A -> ~chi_1+ ~chi_2-)
     8.07545776E-02    2     1000037  -1000024   # BR(A -> ~chi_2+ ~chi_1-)
     2.94125857E-02    2     1000022   1000022   # BR(A -> ~chi_10 ~chi_10)
     9.27360349E-04    2     1000023   1000023   # BR(A -> ~chi_20 ~chi_20)
     9.68036896E-03    2     1000025   1000025   # BR(A -> ~chi_30 ~chi_30)
     6.57237968E-03    2     1000022   1000023   # BR(A -> ~chi_10 ~chi_20)
     5.20199992E-02    2     1000022   1000025   # BR(A -> ~chi_10 ~chi_30)
     2.72863019E-02    2     1000023   1000025   # BR(A -> ~chi_20 ~chi_30)
#
#         PDG            Width
DECAY        37     1.66872715E+01   # H+ decays
#          BR         NDA      ID1       ID2
     8.99967775E-04    2           4        -5   # BR(H+ -> c       bb     )
     8.49701113E-02    2         -15        16   # BR(H+ -> tau+    nu_tau )
     3.04050920E-04    2         -13        14   # BR(H+ -> mu+     nu_mu  )
     8.99962968E-06    2           2        -5   # BR(H+ -> u       bb     )
     1.07577814E-05    2           2        -3   # BR(H+ -> u       sb     )
     2.11820543E-04    2           4        -3   # BR(H+ -> c       sb     )
     5.37790842E-01    2           6        -5   # BR(H+ -> t       bb     )
     1.36039254E-05    2          24        25   # BR(H+ -> W+      h      )
     5.38887176E-12    2          24        36   # BR(H+ -> W+      A      )
     9.67312989E-05    2     1000024   1000022   # BR(H+ -> ~chi_1+ ~chi_10)
     2.28666841E-02    2     1000024   1000023   # BR(H+ -> ~chi_1+ ~chi_20)
     1.22112676E-01    2     1000024   1000025   # BR(H+ -> ~chi_1+ ~chi_30)
     1.29825880E-01    2     1000037   1000022   # BR(H+ -> ~chi_2+ ~chi_10)
     1.00886856E-01    2     1000037   1000023   # BR(H+ -> ~chi_2+ ~chi_20)
     1.01841873E-06    2     1000037   1000025   # BR(H+ -> ~chi_2+ ~chi_30)
