#
#                              ======================
#                              | THE SUSYHIT OUTPUT |
#                              ======================
#
#
#              ------------------------------------------------------
#              |     This is the output of the SUSY-HIT package     |
#              |  created by A.Djouadi, M.Muehlleitner and M.Spira. |
#              |  In case of problems with SUSY-HIT email to        |
#              |           margarete.muehlleitner@cern.ch           |
#              |           michael.spira@psi.ch                     |
#              |           abdelhak.djouadi@cern.ch                 |
#              ------------------------------------------------------
#
#              ------------------------------------------------------
#              |  SUSY Les Houches Accord - MSSM Spectrum + Decays  |
#              |              based on the decay programs           |
#              |                                                    |
#              |                     SDECAY 1.3b                    |
#              |                                                    |
#              |  Authors: M.Muhlleitner, A.Djouadi and Y.Mambrini  |
#              |  Ref.:    Comput.Phys.Commun.168(2005)46           |
#              |           [hep-ph/0311167]                         |
#              |                                                    |
#              |                     HDECAY 3.4                     |
#              |                                                    |
#              |  By: A.Djouadi,J.Kalinowski,M.Muhlleitner,M.Spira  |
#              |  Ref.:    Comput.Phys.Commun.108(1998)56           |
#              |           [hep-ph/9704448]                         |
#              |                                                    |
#              |                                                    |
#              |  If not stated otherwise all DRbar couplings and   |
#              |  soft SUSY breaking masses are given at the scale  |
#              |  Q=  0.27716140E+04
#              |                                                    |
#              ------------------------------------------------------
#
#
BLOCK DCINFO  # Decay Program information
     1   SDECAY/HDECAY # decay calculator
     2   1.3b  /3.4    # version number
#
BLOCK SPINFO  # Spectrum calculator information
     1     SOFTSUSY    # spectrum calculator               
     2     3.4.0       # version number                    
#
BLOCK MODSEL  # Model selection
     1     0   #  nonUniversal                                     
#
BLOCK SMINPUTS  # Standard Model inputs
         1     1.27908970E+02   # alpha_em^-1(M_Z)^MSbar
         2     1.16637870E-05   # G_F [GeV^-2]
         3     1.18400000E-01   # alpha_S(M_Z)^MSbar
         4     9.11876000E+01   # M_Z pole mass
         5     4.18000000E+00   # mb(mb)^MSbar
         6     1.73200000E+02   # mt pole mass
         7     1.77700000E+00   # mtau pole mass
#
BLOCK MINPAR  # Input parameters - minimal models
         3     5.38600000E+01   # tanb                
#
BLOCK EXTPAR  # Input parameters - non-minimal models
         0    -1.00000000E+00   # Set                 
         1     3.80557000E+03   # M_1(MX)             
         2     1.17501000E+03   # M_2(MX)             
         3     1.52542000E+03   # M_3(MX)             
        11     2.24719000E+03   # At(MX)              
        12     8.96800000E+02   # Ab(MX)              
        13     3.40365000E+03   # Atau(MX)            
        23     1.57360000E+02   # mu(MX)              
        26     2.01703000E+03   # mA(pole)            
        31     2.34721000E+03   # meL(MX)             
        32     2.34721000E+03   # mmuL(MX)            
        33     3.83294000E+03   # mtauL(MX)           
        34     3.24391000E+03   # meR(MX)             
        35     3.24391000E+03   # mmuR(MX)            
        36     3.77744000E+03   # mtauR(MX)           
        41     3.29955000E+03   # mqL1(MX)            
        42     3.29955000E+03   # mqL2(MX)            
        43     1.93907000E+03   # mqL3(MX)            
        44     1.48885000E+03   # muR(MX)             
        45     1.48885000E+03   # mcR(MX)             
        46     3.95332000E+03   # mtR(MX)             
        47     3.14267000E+03   # mdR(MX)             
        48     3.14267000E+03   # msR(MX)             
        49     2.84187000E+03   # mbR(MX)             
#
BLOCK MASS  # Mass Spectrum
# PDG code           mass       particle
        24     8.03853220E+01   # W+
        25     1.24116149E+02   # h
        35     2.01703195E+03   # H
        36     2.01703000E+03   # A
        37     2.01894485E+03   # H+
         5     4.81876030E+00   # b-quark pole mass calculated from mb(mb)_Msbar
   1000001     3.34788999E+03   # ~d_L
   2000001     3.18514892E+03   # ~d_R
   1000002     3.34706353E+03   # ~u_L
   2000002     1.58006223E+03   # ~u_R
   1000003     3.34788999E+03   # ~s_L
   2000003     3.18514892E+03   # ~s_R
   1000004     3.34706353E+03   # ~c_L
   2000004     1.58006223E+03   # ~c_R
   1000005     1.97314703E+03   # ~b_1
   2000005     2.85268963E+03   # ~b_2
   1000006     1.97560011E+03   # ~t_1
   2000006     3.96129458E+03   # ~t_2
   1000011     2.35859141E+03   # ~e_L
   2000011     3.25274407E+03   # ~e_R
   1000012     2.35690049E+03   # ~nu_eL
   1000013     2.35859141E+03   # ~mu_L
   2000013     3.25274407E+03   # ~mu_R
   1000014     2.35690049E+03   # ~nu_muL
   1000015     3.76830283E+03   # ~tau_1
   2000015     3.83455968E+03   # ~tau_2
   1000016     3.83336873E+03   # ~nu_tauL
   1000021     1.73748541E+03   # ~g
   1000022     1.63633597E+02   # ~chi_10
   1000023    -1.69265185E+02   # ~chi_20
   1000025     1.22139215E+03   # ~chi_30
   1000035     3.76383663E+03   # ~chi_40
   1000024     1.66294846E+02   # ~chi_1+
   1000037     1.22157415E+03   # ~chi_2+
#
BLOCK NMIX  # Neutralino Mixing Matrix
  1  1     8.63403313E-03   # N_11
  1  2    -5.42119400E-02   # N_12
  1  3     7.12696384E-01   # N_13
  1  4    -6.99321373E-01   # N_14
  2  1    -7.73635743E-03   # N_21
  2  2     4.05747756E-02   # N_22
  2  3     7.01398077E-01   # N_23
  2  4     7.11571903E-01   # N_24
  3  1     1.20913199E-03   # N_31
  3  2     9.97704652E-01   # N_32
  3  3     1.02006843E-02   # N_33
  3  4    -6.69321374E-02   # N_34
  4  1     9.99932068E-01   # N_41
  4  2    -4.24416792E-04   # N_42
  4  3    -7.39562175E-04   # N_43
  4  4     1.16246580E-02   # N_44
#
BLOCK UMIX  # Chargino Mixing Matrix U
  1  1    -1.44680375E-02   # U_11
  1  2     9.99895332E-01   # U_12
  2  1    -9.99895332E-01   # U_21
  2  2    -1.44680375E-02   # U_22
#
BLOCK VMIX  # Chargino Mixing Matrix V
  1  1    -9.49228798E-02   # V_11
  1  2     9.95484629E-01   # V_12
  2  1    -9.95484629E-01   # V_21
  2  2    -9.49228798E-02   # V_22
#
BLOCK STOPMIX  # Stop Mixing Matrix
  1  1     9.99708734E-01   # cos(theta_t)
  1  2    -2.41339422E-02   # sin(theta_t)
  2  1     2.41339422E-02   # -sin(theta_t)
  2  2     9.99708734E-01   # cos(theta_t)
#
BLOCK SBOTMIX  # Sbottom Mixing Matrix
  1  1     9.99990844E-01   # cos(theta_b)
  1  2     4.27924248E-03   # sin(theta_b)
  2  1    -4.27924248E-03   # -sin(theta_b)
  2  2     9.99990844E-01   # cos(theta_b)
#
BLOCK STAUMIX  # Stau Mixing Matrix
  1  1     1.89358414E-02   # cos(theta_tau)
  1  2     9.99820701E-01   # sin(theta_tau)
  2  1    -9.99820701E-01   # -sin(theta_tau)
  2  2     1.89358414E-02   # cos(theta_tau)
#
BLOCK ALPHA  # Higgs mixing
          -1.87878789E-02   # Mixing angle in the neutral Higgs boson sector
#
BLOCK HMIX Q=  2.77161400E+03  # DRbar Higgs Parameters
         1     1.62113407E+02   # mu(Q)MSSM           
         2     5.35564459E+01   # tan                 
         3     2.42338908E+02   # higgs               
         4     4.27761720E+06   # mA^2(Q)MSSM         
#
BLOCK GAUGE Q=  2.77161400E+03  # The gauge couplings
     1     3.65049919E-01   # gprime(Q) DRbar
     2     6.40143091E-01   # g(Q) DRbar
     3     1.02237724E+00   # g3(Q) DRbar
#
BLOCK AU Q=  2.77161400E+03  # The trilinear couplings
  1  1     0.00000000E+00   # A_u(Q) DRbar
  2  2     0.00000000E+00   # A_c(Q) DRbar
  3  3     2.24719001E+03   # A_t(Q) DRbar
#
BLOCK AD Q=  2.77161400E+03  # The trilinear couplings
  1  1     0.00000000E+00   # A_d(Q) DRbar
  2  2     0.00000000E+00   # A_s(Q) DRbar
  3  3     8.96800007E+02   # A_b(Q) DRbar
#
BLOCK AE Q=  2.77161400E+03  # The trilinear couplings
  1  1     0.00000000E+00   # A_e(Q) DRbar
  2  2     0.00000000E+00   # A_mu(Q) DRbar
  3  3     3.40365000E+03   # A_tau(Q) DRbar
#
BLOCK Yu Q=  2.77161400E+03  # The Yukawa couplings
  1  1     0.00000000E+00   # y_u(Q) DRbar
  2  2     0.00000000E+00   # y_c(Q) DRbar
  3  3     8.34285662E-01   # y_t(Q) DRbar
#
BLOCK Yd Q=  2.77161400E+03  # The Yukawa couplings
  1  1     0.00000000E+00   # y_d(Q) DRbar
  2  2     0.00000000E+00   # y_s(Q) DRbar
  3  3     7.18566398E-01   # y_b(Q) DRbar
#
BLOCK Ye Q=  2.77161400E+03  # The Yukawa couplings
  1  1     0.00000000E+00   # y_e(Q) DRbar
  2  2     0.00000000E+00   # y_mu(Q) DRbar
  3  3     5.53157360E-01   # y_tau(Q) DRbar
#
BLOCK MSOFT Q=  2.77161400E+03  # The soft SUSY breaking masses at the scale Q
         1     3.80557000E+03   # M_1(Q)              
         2     1.17501000E+03   # M_2(Q)              
         3     1.52542000E+03   # M_3(Q)              
        21     4.28682777E+06   # mH1^2(Q)            
        22     7.08128082E+04   # mH2^2(Q)            
        31     2.34721000E+03   # meL(Q)              
        32     2.34721000E+03   # mmuL(Q)             
        33     3.83294000E+03   # mtauL(Q)            
        34     3.24391000E+03   # meR(Q)              
        35     3.24391000E+03   # mmuR(Q)             
        36     3.77744000E+03   # mtauR(Q)            
        41     3.29955000E+03   # mqL1(Q)             
        42     3.29955000E+03   # mqL2(Q)             
        43     1.93906999E+03   # mqL3(Q)             
        44     1.48885000E+03   # muR(Q)              
        45     1.48885000E+03   # mcR(Q)              
        46     3.95332000E+03   # mtR(Q)              
        47     3.14267000E+03   # mdR(Q)              
        48     3.14267000E+03   # msR(Q)              
        49     2.84187000E+03   # mbR(Q)              
#
Block HiggsBoundsInputHiggsCouplingsFermions
# ScalarNormEffCoupSq PseudoSNormEffCoupSq NP   IP1 IP2 IP2
    1.01269645E+00    0.00000000E+00        3  25   5   5  # h0-b-b eff. coupling^2, normalised to SM
    2.86828020E+03    0.00000000E+00        3  35   5   5  # H0-b-b eff. coupling^2, normalised to SM
    0.00000000E+00    2.86829290E+03        3  36   5   5  # A0-b-b eff. coupling^2, normalised to SM
#
    9.99995574E-01    0.00000000E+00        3  25   6   6  # h0-t-t eff. coupling^2, normalised to SM
    3.53065913E-04    0.00000000E+00        3  35   6   6  # H0-t-t eff. coupling^2, normalised to SM
    0.00000000E+00    3.48639430E-04        3  36   6   6  # A0-t-t eff. coupling^2, normalised to SM
#
    1.01269645E+00    0.00000000E+00        3  25  15  15  # h0-tau-tau eff. coupling^2, normalised to SM
    2.86828020E+03    0.00000000E+00        3  35  15  15  # H0-tau-tau eff. coupling^2, normalised to SM
    0.00000000E+00    2.86829290E+03        3  36  15  15  # A0-tau-tau eff. coupling^2, normalised to SM
#
Block HiggsBoundsInputHiggsCouplingsBosons
    9.99999986E-01        3  25  24  24  # h0-W-W eff. coupling^2, normalised to SM
    1.39616932E-08        3  35  24  24  # H0-W-W eff. coupling^2, normalised to SM
    0.00000000E+00        3  36  24  24  # A0-W-W eff. coupling^2, normalised to SM
#
    9.99999986E-01        3  25  23  23  # h0-Z-Z eff. coupling^2, normalised to SM
    1.39616932E-08        3  35  23  23  # H0-Z-Z eff. coupling^2, normalised to SM
    0.00000000E+00        3  36  23  23  # A0-Z-Z eff. coupling^2, normalised to SM
#
    8.93210258E-01        3  25  21  21  # h0-g-g eff. coupling^2, normalised to SM
    4.38173794E-10        3  35  21  21  # H0-g-g eff. coupling^2, normalised to SM
    8.88882529E-10        3  36  21  21  # A0-g-g eff. coupling^2, normalised to SM
#
    0.00000000E+00        3  25  25  23  # h0-h0-Z eff. coupling^2, normalised to SM
    0.00000000E+00        3  35  25  23  # H0-h0-Z eff. coupling^2, normalised to SM
    1.39616932E-08        3  36  25  23  # A0-h0-Z eff. coupling^2, normalised to SM
    0.00000000E+00        3  35  35  23  # H0-H0-Z eff. coupling^2, normalised to SM
    9.99999986E-01        3  36  35  23  # A0-H0-Z eff. coupling^2, normalised to SM
    0.00000000E+00        3  36  36  23  # A0-A0-Z eff. coupling^2, normalised to SM
#
    0.00000000E+00        4  25  21  21  23  # h0-g-g-Z eff. coupling^2, normalised to SM
    0.00000000E+00        4  35  21  21  23  # H0-g-g-Z eff. coupling^2, normalised to SM
    0.00000000E+00        4  36  21  21  23  # A0-g-g-Z eff. coupling^2, normalised to SM
#
#
#
#                             =================
#                             |The decay table|
#                             =================
#
# - The QCD corrections to the decays gluino -> squark  + quark
#                                     squark -> gaugino + quark_prime
#                                     squark -> squark_prime + Higgs
#                                     squark -> gluino  + quark
#   are included.
#
# - The multi-body decays for the inos, stops and sbottoms are included.
#
# - The loop induced decays for the gluino, neutralinos and stops
#   are included.
#
# - The SUSY decays of the top quark are included.
#
#
#         PDG            Width
DECAY         6     1.44340094E+00   # top decays
#          BR         NDA      ID1       ID2
     1.00000000E+00    2           5        24   # BR(t ->  b    W+)
#
#         PDG            Width
DECAY   1000021     1.86246820E+00   # gluino decays
#          BR         NDA      ID1       ID2
     2.50006803E-01    2     2000002        -2   # BR(~g -> ~u_R  ub)
     2.50006803E-01    2    -2000002         2   # BR(~g -> ~u_R* u )
     2.49993197E-01    2     2000004        -4   # BR(~g -> ~c_R  cb)
     2.49993197E-01    2    -2000004         4   # BR(~g -> ~c_R* c )
#
#         PDG            Width
DECAY   1000006     5.93089913E+01   # stop1 decays
#          BR         NDA      ID1       ID2
     2.18808658E-01    2     1000022         6   # BR(~t_1 -> ~chi_10 t )
     2.26420803E-01    2     1000023         6   # BR(~t_1 -> ~chi_20 t )
     5.27336001E-02    2     1000025         6   # BR(~t_1 -> ~chi_30 t )
     3.38134271E-01    2     1000024         5   # BR(~t_1 -> ~chi_1+ b )
     1.03266660E-01    2     1000037         5   # BR(~t_1 -> ~chi_2+ b )
     6.06360081E-02    2     1000021         6   # BR(~t_1 -> ~g      t )
#
#         PDG            Width
DECAY   2000006     2.73078277E+02   # stop2 decays
#          BR         NDA      ID1       ID2
     9.77219875E-02    2     1000022         6   # BR(~t_2 -> ~chi_10 t )
     1.01137457E-01    2     1000023         6   # BR(~t_2 -> ~chi_20 t )
     4.74309778E-04    2     1000025         6   # BR(~t_2 -> ~chi_30 t )
     1.60953432E-04    2     1000035         6   # BR(~t_2 -> ~chi_40 t )
     1.99027036E-01    2     1000024         5   # BR(~t_2 -> ~chi_1+ b )
     9.61604046E-04    2     1000037         5   # BR(~t_2 -> ~chi_2+ b )
     5.22789444E-01    2     1000021         6   # BR(~t_2 -> ~g      t )
     2.40887081E-02    2     1000006        25   # BR(~t_2 -> ~t_1    h )
     1.81855064E-02    2     1000006        23   # BR(~t_2 -> ~t_1    Z )
     3.54528233E-02    2     1000005        24   # BR(~t_2 -> ~b_1    W+)
     1.69473385E-07    2     2000005        24   # BR(~t_2 -> ~b_2    W+)
#
#         PDG            Width
DECAY   1000005     6.10709438E+01   # sbottom1 decays
#          BR         NDA      ID1       ID2
     1.66736340E-01    2     1000022         5   # BR(~b_1 -> ~chi_10 b )
     1.61047387E-01    2     1000023         5   # BR(~b_1 -> ~chi_20 b )
     4.98672942E-02    2     1000025         5   # BR(~b_1 -> ~chi_30 b )
     4.30170360E-01    2    -1000024         6   # BR(~b_1 -> ~chi_1- t )
     1.01803206E-01    2    -1000037         6   # BR(~b_1 -> ~chi_2- t )
     9.03754139E-02    2     1000021         5   # BR(~b_1 -> ~g      b )
#
#         PDG            Width
DECAY   2000005     1.20657719E+02   # sbottom2 decays
#          BR         NDA      ID1       ID2
     1.22494599E-01    2     1000022         5   # BR(~b_2 -> ~chi_10 b )
     1.18680283E-01    2     1000023         5   # BR(~b_2 -> ~chi_20 b )
     2.69192632E-05    2     1000025         5   # BR(~b_2 -> ~chi_30 b )
     2.39370934E-01    2    -1000024         6   # BR(~b_2 -> ~chi_1- t )
     5.37342377E-05    2    -1000037         6   # BR(~b_2 -> ~chi_2- t )
     5.18742011E-01    2     1000021         5   # BR(~b_2 -> ~g      b )
     1.62880248E-04    2     1000005        25   # BR(~b_2 -> ~b_1    h )
     1.59682390E-04    2     1000005        23   # BR(~b_2 -> ~b_1    Z )
     3.08957640E-04    2     1000006       -24   # BR(~b_2 -> ~t_1    W-)
#
#         PDG            Width
DECAY   1000002     1.58246200E+02   # sup_L decays
#          BR         NDA      ID1       ID2
     2.28376578E-04    2     1000022         2   # BR(~u_L -> ~chi_10 u)
     1.26321372E-04    2     1000023         2   # BR(~u_L -> ~chi_20 u)
     6.23718254E-02    2     1000025         2   # BR(~u_L -> ~chi_30 u)
     1.48892598E-03    2     1000024         1   # BR(~u_L -> ~chi_1+ d)
     1.24120641E-01    2     1000037         1   # BR(~u_L -> ~chi_2+ d)
     8.11663910E-01    2     1000021         2   # BR(~u_L -> ~g      u)
#
#         PDG            Width
DECAY   2000002     5.64665885E-04   # sup_R decays
#           BR         NDA      ID1       ID2
     4.69245954E-01    2     1000022         2   # BR(~u_R -> ~chi_10 u)
     3.76194693E-01    2     1000023         2   # BR(~u_R -> ~chi_20 u)
#           BR         NDA      ID1       ID2       ID3
     1.76493751E-02    3        2       23        1000022   # BR(~u_R -> u  Z  ~chi_10)
     1.99852697E-02    3        2       25        1000022   # BR(~u_R -> u  h  ~chi_10)
     2.46304945E-02    3        2       23        1000023   # BR(~u_R -> u  Z  ~chi_20)
     1.40233370E-02    3        2       25        1000023   # BR(~u_R -> u  h  ~chi_20)
     7.24410684E-07    3        2       23        1000025   # BR(~u_R -> u  Z  ~chi_30)
     9.44877341E-06    3        2       25        1000025   # BR(~u_R -> u  h  ~chi_30)
     4.40933314E-03    3        2       -24        1000024   # BR(~u_R -> u  W-  ~chi_1+)
     7.38277291E-02    3        2       24        -1000024   # BR(~u_R -> u  W+  ~chi_1-)
     1.10785868E-05    3        2       -24        1000037   # BR(~u_R -> u  W-  ~chi_2+)
     1.25630044E-05    3        2       24        -1000037   # BR(~u_R -> u  W+  ~chi_2-)
#
#         PDG            Width
DECAY   1000001     1.58279605E+02   # sdown_L decays
#          BR         NDA      ID1       ID2
     2.57797129E-04    2     1000022         1   # BR(~d_L -> ~chi_10 d)
     1.46044523E-04    2     1000023         1   # BR(~d_L -> ~chi_20 d)
     6.23262058E-02    2     1000025         1   # BR(~d_L -> ~chi_30 d)
     3.45914958E-05    2    -1000024         2   # BR(~d_L -> ~chi_1- u)
     1.25246738E-01    2    -1000037         2   # BR(~d_L -> ~chi_2- u)
     8.11988623E-01    2     1000021         1   # BR(~d_L -> ~g      d)
#
#         PDG            Width
DECAY   2000001     1.13009388E+02   # sdown_R decays
#          BR         NDA      ID1       ID2
     1.18458691E-06    2     1000022         1   # BR(~d_R -> ~chi_10 d)
     9.50747556E-07    2     1000023         1   # BR(~d_R -> ~chi_20 d)
     1.70668308E-08    2     1000025         1   # BR(~d_R -> ~chi_30 d)
     9.99997848E-01    2     1000021         1   # BR(~d_R -> ~g      d)
#
#         PDG            Width
DECAY   1000004     1.29879740E+02   # scharm_L decays
#          BR         NDA      ID1       ID2
     2.88925525E-04    2     1000022         4   # BR(~c_L -> ~chi_10 c)
     1.59808169E-04    2     1000023         4   # BR(~c_L -> ~chi_20 c)
     7.86060334E-02    2     1000025         4   # BR(~c_L -> ~chi_30 c)
     1.88365719E-03    2     1000024         3   # BR(~c_L -> ~chi_1+ s)
     1.56426888E-01    2     1000037         3   # BR(~c_L -> ~chi_2+ s)
     7.62634688E-01    2     1000021         4   # BR(~c_L -> ~g      c)
#
#         PDG            Width
DECAY   2000004     5.77084041E-04   # scharm_R decays
#           BR         NDA      ID1       ID2
     4.70736972E-01    2     1000022         4   # BR(~c_R -> ~chi_10 c)
     3.77367396E-01    2     1000023         4   # BR(~c_R -> ~chi_20 c)
#           BR         NDA      ID1       ID2       ID3
     1.73562242E-02    3        4       23        1000022   # BR(~c_R -> c  Z  ~chi_10)
     1.94772324E-02    3        4       25        1000022   # BR(~c_R -> c  h  ~chi_10)
     2.41004759E-02    3        4       23        1000023   # BR(~c_R -> c  Z  ~chi_20)
     1.38614126E-02    3        4       25        1000023   # BR(~c_R -> c  h  ~chi_20)
     7.10347144E-07    3        4       23        1000025   # BR(~c_R -> c  Z  ~chi_30)
     9.27577202E-06    3        4       25        1000025   # BR(~c_R -> c  h  ~chi_30)
     4.29088283E-03    3        4       -24        1000024   # BR(~c_R -> c  W-  ~chi_1+)
     7.27762285E-02    3        4       24        -1000024   # BR(~c_R -> c  W+  ~chi_1-)
     1.08514524E-05    3        4       -24        1000037   # BR(~c_R -> c  W-  ~chi_2+)
     1.23373711E-05    3        4       24        -1000037   # BR(~c_R -> c  W+  ~chi_2-)
#
#         PDG            Width
DECAY   1000003     1.29892762E+02   # sstrange_L decays
#          BR         NDA      ID1       ID2
     3.26180935E-04    2     1000022         3   # BR(~s_L -> ~chi_10 s)
     1.84779407E-04    2     1000023         3   # BR(~s_L -> ~chi_20 s)
     7.85571111E-02    2     1000025         3   # BR(~s_L -> ~chi_30 s)
     4.37667164E-05    2    -1000024         4   # BR(~s_L -> ~chi_1- c)
     1.57863167E-01    2    -1000037         4   # BR(~s_L -> ~chi_2- c)
     7.63024995E-01    2     1000021         3   # BR(~s_L -> ~g      s)
#
#         PDG            Width
DECAY   2000003     8.71492518E+01   # sstrange_R decays
#          BR         NDA      ID1       ID2
     1.59668838E-06    2     1000022         3   # BR(~s_R -> ~chi_10 s)
     1.28145939E-06    2     1000023         3   # BR(~s_R -> ~chi_20 s)
     2.29027542E-08    2     1000025         3   # BR(~s_R -> ~chi_30 s)
     9.99997099E-01    2     1000021         3   # BR(~s_R -> ~g      s)
#
#         PDG            Width
DECAY   1000011     1.54659323E+01   # selectron_L decays
#          BR         NDA      ID1       ID2
     1.49564043E-03    2     1000022        11   # BR(~e_L -> ~chi_10 e-)
     8.04591001E-04    2     1000023        11   # BR(~e_L -> ~chi_20 e-)
     3.31863362E-01    2     1000025        11   # BR(~e_L -> ~chi_30 e-)
     2.57662681E-04    2    -1000024        12   # BR(~e_L -> ~chi_1- nu_e)
     6.65578744E-01    2    -1000037        12   # BR(~e_L -> ~chi_2- nu_e)
#
#         PDG            Width
DECAY   2000011     9.53623621E-03   # selectron_R decays
#           BR         NDA      ID1       ID2
     1.34141766E-01    2     1000022        11   # BR(~e_R -> ~chi_10 e-)
     1.07660240E-01    2     1000023        11   # BR(~e_R -> ~chi_20 e-)
#           BR         NDA      ID1       ID2       ID3
     1.42131546E-08    3        11       -1        2000001   # BR(~e_R- -> e-  db  ~d_R)
     1.91941554E-08    3        11       1        -2000001   # BR(~e_R- -> e-  d  ~d_R*)
     5.37570577E-02    3        11       -2        2000002   # BR(~e_R- -> e-  ub  ~u_R)
     1.17163625E-01    3        11       2        -2000002   # BR(~e_R- -> e-  u  ~u_R*)
     1.41376532E-08    3        11       -3        2000003   # BR(~e_R- -> e-  sb  ~s_R)
     1.92518302E-08    3        11       3        -2000003   # BR(~e_R- -> e-  s  ~s_R*)
     5.31058574E-02    3        11       -4        2000004   # BR(~e_R- -> e-  cb  ~c_R)
     1.19638396E-01    3        11       4        -2000004   # BR(~e_R- -> e-  c  ~c_R*)
     2.80141970E-03    3        11       -5        1000005   # BR(~e_R- -> e-  bb  ~b_1)
     1.40086715E-03    3        11       5        -1000005   # BR(~e_R- -> e-  b  ~b_1*)
     5.57641390E-05    3        11       -5        2000005   # BR(~e_R- -> e-  bb  ~b_2)
     8.38811018E-05    3        11       5        -2000005   # BR(~e_R- -> e-  b  ~b_2*)
     3.02666580E-03    3        11       -6        1000006   # BR(~e_R- -> e-  tb  ~t_1)
     1.65264363E-03    3        11       6        -1000006   # BR(~e_R- -> e-  t  ~t_1*)
     1.97992159E-03    3        11       -11        1000011   # BR(~e_R- -> e-  e+  ~e_L-)
     1.12664995E-03    3        11       11        -1000011   # BR(~e_R- -> e-  e-  ~e_L+)
     2.01452644E-03    3        11       -12        1000012   # BR(~e_R- -> e-  nu_eb  ~nu_eL)
     1.16670768E-03    3        11       12        -1000012   # BR(~e_R- -> e-  nu_e  ~nu_eL*)
     1.98453558E-03    3        11       -13        1000013   # BR(~e_R- -> e-  mu+  ~mu_L-)
     1.13650708E-03    3        11       13        -1000013   # BR(~e_R- -> e-  mu-  ~mu_L+)
     2.01232432E-03    3        11       -14        1000014   # BR(~e_R- -> e-  nu_mub  ~nu_muL)
     1.14814690E-03    3        11       14        -1000014   # BR(~e_R- -> e-  nu_mu  ~nu_muL*)
     3.73533113E-02    3        11       23        1000022   # BR(~e_R- -> e-  Z  ~chi_10)
     5.20268153E-02    3        11       25        1000022   # BR(~e_R- -> e-  h  ~chi_10)
     3.24939518E-03    3        11       35        1000022   # BR(~e_R- -> e-  H  ~chi_10)
     1.99019819E-03    3        11       36        1000022   # BR(~e_R- -> e-  A  ~chi_10)
     5.52314340E-02    3        11       23        1000023   # BR(~e_R- -> e-  Z  ~chi_20)
     3.82100435E-02    3        11       25        1000023   # BR(~e_R- -> e-  h  ~chi_20)
     1.91605992E-03    3        11       35        1000023   # BR(~e_R- -> e-  H  ~chi_20)
     3.14117639E-03    3        11       36        1000023   # BR(~e_R- -> e-  A  ~chi_20)
     9.83438309E-05    3        11       23        1000025   # BR(~e_R- -> e-  Z  ~chi_30)
     1.11469554E-03    3        11       25        1000025   # BR(~e_R- -> e-  h  ~chi_30)
     4.91000841E-12    3        11       35        1000025   # BR(~e_R- -> e-  H  ~chi_30)
     4.67563923E-14    3        11       36        1000025   # BR(~e_R- -> e-  A  ~chi_30)
     3.88192985E-02    3        11       -24        1000024   # BR(~e_R- -> e-  W-  ~chi_1+)
     1.46808444E-01    3        11       24        -1000024   # BR(~e_R- -> e-  W+  ~chi_1-)
     6.74133889E-03    3        11       -37        1000024   # BR(~e_R- -> e-  H-  ~chi_1+)
     3.50683428E-03    3        11       37        -1000024   # BR(~e_R- -> e-  H+  ~chi_1-)
     1.19963471E-03    3        11       -24        1000037   # BR(~e_R- -> e-  W-  ~chi_2+)
     1.53540660E-03    3        11       24        -1000037   # BR(~e_R- -> e-  W+  ~chi_2-)
     3.38204710E-12    3        11       -37        1000037   # BR(~e_R- -> e-  H-  ~chi_2+)
     2.39297764E-12    3        11       37        -1000037   # BR(~e_R- -> e-  H+  ~chi_2-)
#
#         PDG            Width
DECAY   1000013     1.54659323E+01   # smuon_L decays
#          BR         NDA      ID1       ID2
     1.49564043E-03    2     1000022        13   # BR(~mu_L -> ~chi_10 mu-)
     8.04591000E-04    2     1000023        13   # BR(~mu_L -> ~chi_20 mu-)
     3.31863361E-01    2     1000025        13   # BR(~mu_L -> ~chi_30 mu-)
     2.57662681E-04    2    -1000024        14   # BR(~mu_L -> ~chi_1- nu_mu)
     6.65578745E-01    2    -1000037        14   # BR(~mu_L -> ~chi_2- nu_mu)
#
#         PDG            Width
DECAY   2000013     9.54035073E-03   # smuon_R decays
#           BR         NDA      ID1       ID2
     1.34083914E-01    2     1000022        13   # BR(~mu_R -> ~chi_10 mu-)
     1.07613808E-01    2     1000023        13   # BR(~mu_R -> ~chi_20 mu-)
#           BR         NDA      ID1       ID2       ID3
     1.42374221E-08    3        13       -1        2000001   # BR(~mu_R- -> mu-  db  ~d_R)
     1.92456237E-08    3        13       1        -2000001   # BR(~mu_R- -> mu-  d  ~d_R*)
     5.37338736E-02    3        13       -2        2000002   # BR(~mu_R- -> mu-  ub  ~u_R)
     1.17113095E-01    3        13       2        -2000002   # BR(~mu_R- -> mu-  u  ~u_R*)
     1.41378450E-08    3        13       -3        2000003   # BR(~mu_R- -> mu-  sb  ~s_R)
     1.92739245E-08    3        13       3        -2000003   # BR(~mu_R- -> mu-  s  ~s_R*)
     5.30829541E-02    3        13       -4        2000004   # BR(~mu_R- -> mu-  cb  ~c_R)
     1.19586798E-01    3        13       4        -2000004   # BR(~mu_R- -> mu-  c  ~c_R*)
     2.80021152E-03    3        13       -5        1000005   # BR(~mu_R- -> mu-  bb  ~b_1)
     1.40026299E-03    3        13       5        -1000005   # BR(~mu_R- -> mu-  b  ~b_1*)
     5.51698795E-05    3        13       -5        2000005   # BR(~mu_R- -> mu-  bb  ~b_2)
     8.38449259E-05    3        13       5        -2000005   # BR(~mu_R- -> mu-  b  ~b_2*)
     3.04244580E-03    3        13       -6        1000006   # BR(~mu_R- -> mu-  tb  ~t_1)
     1.65193088E-03    3        13       6        -1000006   # BR(~mu_R- -> mu-  t  ~t_1*)
     1.97015818E-03    3        13       -11        1000011   # BR(~mu_R- -> mu-  e+  ~e_L-)
     1.14985291E-03    3        13       11        -1000011   # BR(~mu_R- -> mu-  e-  ~e_L+)
     2.01365763E-03    3        13       -12        1000012   # BR(~mu_R- -> mu-  nu_eb  ~nu_eL)
     1.16620451E-03    3        13       12        -1000012   # BR(~mu_R- -> mu-  nu_e  ~nu_eL*)
     1.98367969E-03    3        13       -13        1000013   # BR(~mu_R- -> mu-  mu+  ~mu_L-)
     1.13895184E-03    3        13       13        -1000013   # BR(~mu_R- -> mu-  mu-  ~mu_L+)
     2.01145645E-03    3        13       -14        1000014   # BR(~mu_R- -> mu-  nu_mub  ~nu_muL)
     1.14765173E-03    3        13       14        -1000014   # BR(~mu_R- -> mu-  nu_mu  ~nu_muL*)
     3.73372018E-02    3        13       23        1000022   # BR(~mu_R- -> mu-  Z  ~chi_10)
     5.20043774E-02    3        13       25        1000022   # BR(~mu_R- -> mu-  h  ~chi_10)
     3.23625419E-03    3        13       35        1000022   # BR(~mu_R- -> mu-  H  ~chi_10)
     1.98933986E-03    3        13       36        1000022   # BR(~mu_R- -> mu-  A  ~chi_10)
     5.52076140E-02    3        13       23        1000023   # BR(~mu_R- -> mu-  Z  ~chi_20)
     3.81935644E-02    3        13       25        1000023   # BR(~mu_R- -> mu-  h  ~chi_20)
     1.91523357E-03    3        13       35        1000023   # BR(~mu_R- -> mu-  H  ~chi_20)
     3.13982169E-03    3        13       36        1000023   # BR(~mu_R- -> mu-  A  ~chi_20)
     9.84030910E-05    3        13       23        1000025   # BR(~mu_R- -> mu-  Z  ~chi_30)
     1.11421480E-03    3        13       25        1000025   # BR(~mu_R- -> mu-  h  ~chi_30)
     4.89007179E-12    3        13       35        1000025   # BR(~mu_R- -> mu-  H  ~chi_30)
     4.70999456E-14    3        13       36        1000025   # BR(~mu_R- -> mu-  A  ~chi_30)
     3.88025567E-02    3        13       -24        1000024   # BR(~mu_R- -> mu-  W-  ~chi_1+)
     1.47153919E-01    3        13       24        -1000024   # BR(~mu_R- -> mu-  W+  ~chi_1-)
     6.73832670E-03    3        13       -37        1000024   # BR(~mu_R- -> mu-  H-  ~chi_1+)
     3.50532186E-03    3        13       37        -1000024   # BR(~mu_R- -> mu-  H+  ~chi_1-)
     1.19911734E-03    3        13       -24        1000037   # BR(~mu_R- -> mu-  W-  ~chi_2+)
     1.53474442E-03    3        13       24        -1000037   # BR(~mu_R- -> mu-  W+  ~chi_2-)
     3.37629097E-12    3        13       -37        1000037   # BR(~mu_R- -> mu-  H-  ~chi_2+)
     2.39949250E-12    3        13       37        -1000037   # BR(~mu_R- -> mu-  H+  ~chi_2-)
#
#         PDG            Width
DECAY   1000015     4.57101771E+01   # stau_1 decays
#          BR         NDA      ID1       ID2
     2.54624311E-01    2     1000022        15   # BR(~tau_1 -> ~chi_10  tau-)
     2.45424466E-01    2     1000023        15   # BR(~tau_1 -> ~chi_20  tau-)
     1.18728865E-05    2     1000025        15   # BR(~tau_1 -> ~chi_30  tau-)
     2.26782277E-06    2     1000035        15   # BR(~tau_1 -> ~chi_40  tau-)
     4.99914800E-01    2    -1000024        16   # BR(~tau_1 -> ~chi_1-  nu_tau)
     2.22816788E-05    2    -1000037        16   # BR(~tau_1 -> ~chi_2-  nu_tau)
#
#         PDG            Width
DECAY   2000015     6.11272195E+01   # stau_2 decays
#          BR         NDA      ID1       ID2
     1.93377806E-01    2     1000022        15   # BR(~tau_2 -> ~chi_10  tau-)
     1.87833856E-01    2     1000023        15   # BR(~tau_2 -> ~chi_20  tau-)
     2.05843849E-01    2     1000025        15   # BR(~tau_2 -> ~chi_30  tau-)
     1.10760661E-04    2     1000035        15   # BR(~tau_2 -> ~chi_40  tau-)
     1.83071057E-06    2    -1000024        16   # BR(~tau_2 -> ~chi_1-  nu_tau)
     4.12831898E-01    2    -1000037        16   # BR(~tau_2 -> ~chi_2-  nu_tau)
#
#         PDG            Width
DECAY   1000012     1.55184226E+01   # snu_eL decays
#          BR         NDA      ID1       ID2
     2.14412072E-03    2     1000022        12   # BR(~nu_eL -> ~chi_10 nu_e)
     1.23999957E-03    2     1000023        12   # BR(~nu_eL -> ~chi_20 nu_e)
     3.29244724E-01    2     1000025        12   # BR(~nu_eL -> ~chi_30 nu_e)
     1.10454883E-02    2     1000024        11   # BR(~nu_eL -> ~chi_1+ e-)
     6.56325667E-01    2     1000037        11   # BR(~nu_eL -> ~chi_2+ e-)
#
#         PDG            Width
DECAY   1000014     1.55184225E+01   # snu_muL decays
#          BR         NDA      ID1       ID2
     2.14412073E-03    2     1000022        14   # BR(~nu_muL -> ~chi_10 nu_mu)
     1.23999958E-03    2     1000023        14   # BR(~nu_muL -> ~chi_20 nu_mu)
     3.29244726E-01    2     1000025        14   # BR(~nu_muL -> ~chi_30 nu_mu)
     1.10454883E-02    2     1000024        13   # BR(~nu_muL -> ~chi_1+ mu-)
     6.56325666E-01    2     1000037        13   # BR(~nu_muL -> ~chi_2+ mu-)
#
#         PDG            Width
DECAY   1000016     6.11571344E+01   # snu_tauL decays
#          BR         NDA      ID1       ID2
     8.90229040E-04    2     1000022        16   # BR(~nu_tauL -> ~chi_10 nu_tau)
     5.15059788E-04    2     1000023        16   # BR(~nu_tauL -> ~chi_20 nu_tau)
     2.05025861E-01    2     1000025        16   # BR(~nu_tauL -> ~chi_30 nu_tau)
     1.07518058E-04    2     1000035        16   # BR(~nu_tauL -> ~chi_40 nu_tau)
     3.84627472E-01    2     1000024        15   # BR(~nu_tauL -> ~chi_1+ tau-)
     4.08833860E-01    2     1000037        15   # BR(~nu_tauL -> ~chi_2+ tau-)
#
#         PDG            Width
DECAY   1000024     1.43151231E-10   # chargino1+ decays
#           BR         NDA      ID1       ID2       ID3
     3.70797341E-01    3     1000022         2        -1   # BR(~chi_1+ -> ~chi_10 u    db)
     3.70797341E-01    3     1000022         4        -3   # BR(~chi_1+ -> ~chi_10 c    sb)
     1.23599603E-01    3     1000022       -11        12   # BR(~chi_1+ -> ~chi_10 e+   nu_e)
     1.23599603E-01    3     1000022       -13        14   # BR(~chi_1+ -> ~chi_10 mu+  nu_mu)
     1.12061112E-02    3     1000022       -15        16   # BR(~chi_1+ -> ~chi_10 tau+ nu_tau)
#
#         PDG            Width
DECAY   1000037     9.96807758E+00   # chargino2+ decays
#          BR         NDA      ID1       ID2
     2.56211746E-01    2     1000024        23   # BR(~chi_2+ -> ~chi_1+  Z )
     2.45605613E-01    2     1000022        24   # BR(~chi_2+ -> ~chi_10  W+)
     2.53733548E-01    2     1000023        24   # BR(~chi_2+ -> ~chi_20  W+)
     2.44449093E-01    2     1000024        25   # BR(~chi_2+ -> ~chi_1+  h )
#
#         PDG            Width
DECAY   1000022     0.00000000E+00   # neutralino1 decays
#
#         PDG            Width
DECAY   1000023     5.38157733E-09   # neutralino2 decays
#          BR         NDA      ID1       ID2
     5.38848376E-02    2     1000022        22   # BR(~chi_20 -> ~chi_10 gam)
#           BR         NDA      ID1       ID2       ID3
     1.20085084E-01    3     1000022        -2         2   # BR(~chi_20 -> ~chi_10 ub      u)
     1.55829359E-01    3     1000022        -1         1   # BR(~chi_20 -> ~chi_10 db      d)
     1.20085084E-01    3     1000022        -4         4   # BR(~chi_20 -> ~chi_10 cb      c)
     1.55829359E-01    3     1000022        -3         3   # BR(~chi_20 -> ~chi_10 sb      s)
     3.57691905E-02    3     1000022       -11        11   # BR(~chi_20 -> ~chi_10 e+      e-)
     3.57691905E-02    3     1000022       -13        13   # BR(~chi_20 -> ~chi_10 mu+     mu-)
     1.58369090E-02    3     1000022       -15        15   # BR(~chi_20 -> ~chi_10 tau+    tau-)
     7.15148705E-02    3     1000022       -12        12   # BR(~chi_20 -> ~chi_10 nu_eb   nu_e)
     7.15148705E-02    3     1000022       -14        14   # BR(~chi_20 -> ~chi_10 nu_mub  nu_mu)
     7.15146009E-02    3     1000022       -16        16   # BR(~chi_20 -> ~chi_10 nu_taub nu_tau)
     1.69809884E-02    3     1000024        -2         1   # BR(~chi_20 -> ~chi_1+ ub      d)
     1.69809884E-02    3    -1000024        -1         2   # BR(~chi_20 -> ~chi_1- db      u)
     1.69809884E-02    3     1000024        -4         3   # BR(~chi_20 -> ~chi_1+ cb      s)
     1.69809884E-02    3    -1000024        -3         4   # BR(~chi_20 -> ~chi_1- sb      c)
     5.66034458E-03    3     1000024       -12        11   # BR(~chi_20 -> ~chi_1+ nu_eb   e-)
     5.66034458E-03    3    -1000024        12       -11   # BR(~chi_20 -> ~chi_1- nu_e    e+)
     5.66034458E-03    3     1000024       -14        13   # BR(~chi_20 -> ~chi_1+ nu_mub  mu-)
     5.66034458E-03    3    -1000024        14       -13   # BR(~chi_20 -> ~chi_1- nu_mu   mu+)
     9.00657059E-04    3     1000024       -16        15   # BR(~chi_20 -> ~chi_1+ nu_taub tau-)
     9.00657059E-04    3    -1000024        16       -15   # BR(~chi_20 -> ~chi_1- nu_tau  tau+)
#
#         PDG            Width
DECAY   1000025     9.96594912E+00   # neutralino3 decays
#          BR         NDA      ID1       ID2
     8.83182543E-02    2     1000022        23   # BR(~chi_30 -> ~chi_10   Z )
     1.67323952E-01    2     1000023        23   # BR(~chi_30 -> ~chi_20   Z )
     2.52349138E-01    2     1000024       -24   # BR(~chi_30 -> ~chi_1+   W-)
     2.52349138E-01    2    -1000024        24   # BR(~chi_30 -> ~chi_1-   W+)
     1.54472509E-01    2     1000022        25   # BR(~chi_30 -> ~chi_10   h )
     8.51870081E-02    2     1000023        25   # BR(~chi_30 -> ~chi_20   h )
#
#         PDG            Width
DECAY   1000035     6.36804411E+01   # neutralino4 decays
#          BR         NDA      ID1       ID2
     1.56318497E-02    2     1000022        23   # BR(~chi_40 -> ~chi_10   Z )
     2.08853177E-02    2     1000023        23   # BR(~chi_40 -> ~chi_20   Z )
     1.15805913E-04    2     1000025        23   # BR(~chi_40 -> ~chi_30   Z )
     3.49536448E-02    2     1000024       -24   # BR(~chi_40 -> ~chi_1+   W-)
     3.49536448E-02    2    -1000024        24   # BR(~chi_40 -> ~chi_1-   W+)
     6.17299591E-04    2     1000037       -24   # BR(~chi_40 -> ~chi_2+   W-)
     6.17299591E-04    2    -1000037        24   # BR(~chi_40 -> ~chi_2-   W+)
     2.15290586E-02    2     1000022        25   # BR(~chi_40 -> ~chi_10   h )
     1.09115443E-02    2     1000022        35   # BR(~chi_40 -> ~chi_10   H )
     9.19545175E-03    2     1000022        36   # BR(~chi_40 -> ~chi_10   A )
     1.73240994E-02    2     1000023        25   # BR(~chi_40 -> ~chi_20   h )
     8.87893587E-03    2     1000023        35   # BR(~chi_40 -> ~chi_20   H )
     1.05990410E-02    2     1000023        36   # BR(~chi_40 -> ~chi_20   A )
     4.69782042E-04    2     1000025        25   # BR(~chi_40 -> ~chi_30   h )
     2.78226136E-06    2     1000025        35   # BR(~chi_40 -> ~chi_30   H )
     5.68708330E-07    2     1000025        36   # BR(~chi_40 -> ~chi_30   A )
     1.97013733E-02    2     1000024       -37   # BR(~chi_40 -> ~chi_1+   H-)
     1.97013733E-02    2    -1000024        37   # BR(~chi_40 -> ~chi_1-   H+)
     3.35881007E-06    2     1000037       -37   # BR(~chi_40 -> ~chi_2+   H-)
     3.35881007E-06    2    -1000037        37   # BR(~chi_40 -> ~chi_2-   H+)
     5.69995872E-04    2     1000002        -2   # BR(~chi_40 -> ~u_L      ub)
     5.69995872E-04    2    -1000002         2   # BR(~chi_40 -> ~u_L*     u )
     1.37309449E-01    2     2000002        -2   # BR(~chi_40 -> ~u_R      ub)
     1.37309449E-01    2    -2000002         2   # BR(~chi_40 -> ~u_R*     u )
     5.73001942E-04    2     1000001        -1   # BR(~chi_40 -> ~d_L      db)
     5.73001942E-04    2    -1000001         1   # BR(~chi_40 -> ~d_L*     d )
     4.17363601E-03    2     2000001        -1   # BR(~chi_40 -> ~d_R      db)
     4.17363601E-03    2    -2000001         1   # BR(~chi_40 -> ~d_R*     d )
     5.69992157E-04    2     1000004        -4   # BR(~chi_40 -> ~c_L      cb)
     5.69992157E-04    2    -1000004         4   # BR(~chi_40 -> ~c_L*     c )
     1.37309436E-01    2     2000004        -4   # BR(~chi_40 -> ~c_R      cb)
     1.37309436E-01    2    -2000004         4   # BR(~chi_40 -> ~c_R*     c )
     5.73001942E-04    2     1000003        -3   # BR(~chi_40 -> ~s _L      sb)
     5.73001942E-04    2    -1000003         3   # BR(~chi_40 -> ~s _L*     s )
     4.17363601E-03    2     2000003        -3   # BR(~chi_40 -> ~s _R      sb)
     4.17363601E-03    2    -2000003         3   # BR(~chi_40 -> ~s _R*     s )
     7.42596246E-03    2     1000006        -6   # BR(~chi_40 -> ~t_1      tb)
     7.42596246E-03    2    -1000006         6   # BR(~chi_40 -> ~t_1*     t )
     6.89635070E-03    2     1000005        -5   # BR(~chi_40 -> ~b_1      bb)
     6.89635070E-03    2    -1000005         5   # BR(~chi_40 -> ~b_1*     b )
     9.45750486E-03    2     2000005        -5   # BR(~chi_40 -> ~b_2      bb)
     9.45750486E-03    2    -2000005         5   # BR(~chi_40 -> ~b_2*     b )
     1.44252113E-02    2     1000011       -11   # BR(~chi_40 -> ~e_L-     e+)
     1.44252113E-02    2    -1000011        11   # BR(~chi_40 -> ~e_L+     e-)
     1.00398555E-02    2     2000011       -11   # BR(~chi_40 -> ~e_R-     e+)
     1.00398555E-02    2    -2000011        11   # BR(~chi_40 -> ~e_R+     e-)
     1.44252113E-02    2     1000013       -13   # BR(~chi_40 -> ~mu_L-    mu+)
     1.44252113E-02    2    -1000013        13   # BR(~chi_40 -> ~mu_L+    mu-)
     1.00398555E-02    2     2000013       -13   # BR(~chi_40 -> ~mu_R-    mu+)
     1.00398555E-02    2    -2000013        13   # BR(~chi_40 -> ~mu_R+    mu-)
     1.44950520E-02    2     1000012       -12   # BR(~chi_40 -> ~nu_eL    nu_eb)
     1.44950520E-02    2    -1000012        12   # BR(~chi_40 -> ~nu_eL*   nu_e )
     1.44950520E-02    2     1000014       -14   # BR(~chi_40 -> ~nu_muL   nu_mub)
     1.44950520E-02    2    -1000014        14   # BR(~chi_40 -> ~nu_muL*  nu_mu )
#
#         PDG            Width
DECAY        25     4.00339066E-03   # h decays
#          BR         NDA      ID1       ID2
     6.16930527E-01    2           5        -5   # BR(h -> b       bb     )
     6.49841603E-02    2         -15        15   # BR(h -> tau+    tau-   )
     2.30011721E-04    2         -13        13   # BR(h -> mu+     mu-    )
     2.51376449E-04    2           3        -3   # BR(h -> s       sb     )
     2.15409098E-02    2           4        -4   # BR(h -> c       cb     )
     7.82349369E-02    2          21        21   # BR(h -> g       g      )
     2.28515278E-03    2          22        22   # BR(h -> gam     gam    )
     1.44007622E-03    2          22        23   # BR(h -> Z       gam    )
     1.90662472E-01    2          24       -24   # BR(h -> W+      W-     )
     2.34403774E-02    2          23        23   # BR(h -> Z       Z      )
#
#         PDG            Width
DECAY        35     8.73498361E+01   # H decays
#          BR         NDA      ID1       ID2
     7.47128583E-01    2           5        -5   # BR(H -> b       bb     )
     1.35895677E-01    2         -15        15   # BR(H -> tau+    tau-   )
     4.76361812E-04    2         -13        13   # BR(H -> mu+     mu-    )
     3.10756371E-04    2           3        -3   # BR(H -> s       sb     )
     3.53170135E-09    2           4        -4   # BR(H -> c       cb     )
     3.42130837E-04    2           6        -6   # BR(H -> t       tb     )
     2.81941292E-05    2          21        21   # BR(H -> g       g      )
     7.27975723E-09    2          22        22   # BR(H -> gam     gam    )
     1.42371228E-08    2          23        22   # BR(H -> Z       gam    )
     4.19166904E-07    2          24       -24   # BR(H -> W+      W-     )
     2.08791096E-07    2          23        23   # BR(H -> Z       Z      )
     1.33256090E-06    2          25        25   # BR(H -> h       h      )
     1.68270925E-03    2     1000024  -1000024   # BR(H -> ~chi_1+ ~chi_1-)
     3.78321356E-02    2     1000024  -1000037   # BR(H -> ~chi_1+ ~chi_2-)
     3.78321356E-02    2     1000037  -1000024   # BR(H -> ~chi_2+ ~chi_1-)
     3.18674140E-04    2     1000022   1000022   # BR(H -> ~chi_10 ~chi_10)
     1.91636428E-04    2     1000023   1000023   # BR(H -> ~chi_20 ~chi_20)
     1.12021474E-05    2     1000022   1000023   # BR(H -> ~chi_10 ~chi_20)
     1.55567050E-02    2     1000022   1000025   # BR(H -> ~chi_10 ~chi_30)
     2.23911132E-02    2     1000023   1000025   # BR(H -> ~chi_20 ~chi_30)
#
#         PDG            Width
DECAY        36     8.73503864E+01   # A decays
#          BR         NDA      ID1       ID2
     7.47138331E-01    2           5        -5   # BR(A -> b       bb     )
     1.35895716E-01    2         -15        15   # BR(A -> tau+    tau-   )
     4.76360484E-04    2         -13        13   # BR(A -> mu+     mu-    )
     3.10763210E-04    2           3        -3   # BR(A -> s       sb     )
     3.51950934E-09    2           4        -4   # BR(A -> c       cb     )
     3.44813243E-04    2           6        -6   # BR(A -> t       tb     )
     4.01561874E-05    2          21        21   # BR(A -> g       g      )
     4.89188205E-08    2          22        22   # BR(A -> gam     gam    )
     2.27255420E-08    2          23        22   # BR(A -> Z       gam    )
     4.22918067E-07    2          23        25   # BR(A -> Z       h      )
     1.74951261E-03    2     1000024  -1000024   # BR(A -> ~chi_1+ ~chi_1-)
     3.77895190E-02    2     1000024  -1000037   # BR(A -> ~chi_1+ ~chi_2-)
     3.77895190E-02    2     1000037  -1000024   # BR(A -> ~chi_2+ ~chi_1-)
     3.52261932E-04    2     1000022   1000022   # BR(A -> ~chi_10 ~chi_10)
     1.82756565E-04    2     1000023   1000023   # BR(A -> ~chi_20 ~chi_20)
     6.05836731E-06    2     1000022   1000023   # BR(A -> ~chi_10 ~chi_20)
     2.29609971E-02    2     1000022   1000025   # BR(A -> ~chi_10 ~chi_30)
     1.49627375E-02    2     1000023   1000025   # BR(A -> ~chi_20 ~chi_30)
#
#         PDG            Width
DECAY        37     8.45626560E+01   # H+ decays
#          BR         NDA      ID1       ID2
     1.24545151E-03    2           4        -5   # BR(H+ -> c       bb     )
     1.40508980E-01    2         -15        16   # BR(H+ -> tau+    nu_tau )
     4.92531534E-04    2         -13        14   # BR(H+ -> mu+     nu_mu  )
     1.24544839E-05    2           2        -5   # BR(H+ -> u       bb     )
     1.60470757E-05    2           2        -3   # BR(H+ -> u       sb     )
     3.15858558E-04    2           4        -3   # BR(H+ -> c       sb     )
     7.38508316E-01    2           6        -5   # BR(H+ -> t       bb     )
     4.38726226E-07    2          24        25   # BR(H+ -> W+      h      )
     4.00284362E-13    2          24        36   # BR(H+ -> W+      A      )
     1.20685847E-04    2     1000024   1000022   # BR(H+ -> ~chi_1+ ~chi_10)
     2.54083594E-04    2     1000024   1000023   # BR(H+ -> ~chi_1+ ~chi_20)
     3.94418938E-02    2     1000024   1000025   # BR(H+ -> ~chi_1+ ~chi_30)
     4.02609763E-02    2     1000037   1000022   # BR(H+ -> ~chi_2+ ~chi_10)
     3.88222828E-02    2     1000037   1000023   # BR(H+ -> ~chi_2+ ~chi_20)
