#
#                              ======================
#                              | THE SUSYHIT OUTPUT |
#                              ======================
#
#
#              ------------------------------------------------------
#              |     This is the output of the SUSY-HIT package     |
#              |  created by A.Djouadi, M.Muehlleitner and M.Spira. |
#              |  In case of problems with SUSY-HIT email to        |
#              |           margarete.muehlleitner@cern.ch           |
#              |           michael.spira@psi.ch                     |
#              |           abdelhak.djouadi@cern.ch                 |
#              ------------------------------------------------------
#
#              ------------------------------------------------------
#              |  SUSY Les Houches Accord - MSSM Spectrum + Decays  |
#              |              based on the decay programs           |
#              |                                                    |
#              |                     SDECAY 1.3b                    |
#              |                                                    |
#              |  Authors: M.Muhlleitner, A.Djouadi and Y.Mambrini  |
#              |  Ref.:    Comput.Phys.Commun.168(2005)46           |
#              |           [hep-ph/0311167]                         |
#              |                                                    |
#              |                     HDECAY 3.4                     |
#              |                                                    |
#              |  By: A.Djouadi,J.Kalinowski,M.Muhlleitner,M.Spira  |
#              |  Ref.:    Comput.Phys.Commun.108(1998)56           |
#              |           [hep-ph/9704448]                         |
#              |                                                    |
#              |                                                    |
#              |  If not stated otherwise all DRbar couplings and   |
#              |  soft SUSY breaking masses are given at the scale  |
#              |  Q=  0.26087310E+04
#              |                                                    |
#              ------------------------------------------------------
#
#
BLOCK DCINFO  # Decay Program information
     1   SDECAY/HDECAY # decay calculator
     2   1.3b  /3.4    # version number
#
BLOCK SPINFO  # Spectrum calculator information
     1     SOFTSUSY    # spectrum calculator               
     2     3.4.0       # version number                    
#
BLOCK MODSEL  # Model selection
     1     0   #  nonUniversal                                     
#
BLOCK SMINPUTS  # Standard Model inputs
         1     1.27908970E+02   # alpha_em^-1(M_Z)^MSbar
         2     1.16637870E-05   # G_F [GeV^-2]
         3     1.18400000E-01   # alpha_S(M_Z)^MSbar
         4     9.11876000E+01   # M_Z pole mass
         5     4.18000000E+00   # mb(mb)^MSbar
         6     1.73200000E+02   # mt pole mass
         7     1.77700000E+00   # mtau pole mass
#
BLOCK MINPAR  # Input parameters - minimal models
         3     3.90900000E+01   # tanb                
#
BLOCK EXTPAR  # Input parameters - non-minimal models
         0    -1.00000000E+00   # Set                 
         1    -3.37881000E+03   # M_1(MX)             
         2     3.24256000E+03   # M_2(MX)             
         3     1.25059000E+03   # M_3(MX)             
        11     2.79827000E+03   # At(MX)              
        12    -5.83030000E+02   # Ab(MX)              
        13    -3.16608000E+03   # Atau(MX)            
        23    -5.16290000E+02   # mu(MX)              
        26     2.48447000E+03   # mA(pole)            
        31     2.52030000E+03   # meL(MX)             
        32     2.52030000E+03   # mmuL(MX)            
        33     3.59746000E+03   # mtauL(MX)           
        34     2.15647000E+03   # meR(MX)             
        35     2.15647000E+03   # mmuR(MX)            
        36     9.30640000E+02   # mtauR(MX)           
        41     1.97096000E+03   # mqL1(MX)            
        42     1.97096000E+03   # mqL2(MX)            
        43     2.08118000E+03   # mqL3(MX)            
        44     2.76922000E+03   # muR(MX)             
        45     2.76922000E+03   # mcR(MX)             
        46     3.26604000E+03   # mtR(MX)             
        47     7.47780000E+02   # mdR(MX)             
        48     7.47780000E+02   # msR(MX)             
        49     1.71412000E+03   # mbR(MX)             
#
BLOCK MASS  # Mass Spectrum
# PDG code           mass       particle
        24     8.04007396E+01   # W+
        25     1.24265859E+02   # h
        35     2.48447435E+03   # H
        36     2.48447000E+03   # A
        37     2.48616879E+03   # H+
         5     4.81876030E+00   # b-quark pole mass calculated from mb(mb)_Msbar
   1000001     2.04130119E+03   # ~d_L
   2000001     8.60691097E+02   # ~d_R
   1000002     2.03990150E+03   # ~u_L
   2000002     2.80765460E+03   # ~u_R
   1000003     2.04130119E+03   # ~s_L
   2000003     8.60691097E+02   # ~s_R
   1000004     2.03990150E+03   # ~c_L
   2000004     2.80765460E+03   # ~c_R
   1000005     1.74618026E+03   # ~b_1
   2000005     2.11614528E+03   # ~b_2
   1000006     2.11417625E+03   # ~t_1
   2000006     3.25645098E+03   # ~t_2
   1000011     2.54307093E+03   # ~e_L
   2000011     2.17094558E+03   # ~e_R
   1000012     2.54150382E+03   # ~nu_eL
   1000013     2.54307093E+03   # ~mu_L
   2000013     2.17094558E+03   # ~mu_R
   1000014     2.54150382E+03   # ~nu_muL
   1000015     9.44503434E+02   # ~tau_1
   2000015     3.60810055E+03   # ~tau_2
   1000016     3.60688539E+03   # ~nu_tauL
   1000021     1.41488844E+03   # ~g
   1000022     5.40069698E+02   # ~chi_10
   1000023    -5.41179237E+02   # ~chi_20
   1000025     3.20282697E+03   # ~chi_30
   1000035    -3.33430423E+03   # ~chi_40
   1000024     5.40901258E+02   # ~chi_1+
   1000037     3.20299283E+03   # ~chi_2+
#
BLOCK NMIX  # Neutralino Mixing Matrix
  1  1     7.75417919E-03   # N_11
  1  2     1.99573506E-02   # N_12
  1  3     7.07443867E-01   # N_13
  1  4     7.06445152E-01   # N_14
  2  1     1.13645477E-02   # N_21
  2  2     1.51266404E-02   # N_22
  2  3    -7.06756633E-01   # N_23
  2  4     7.07203714E-01   # N_24
  3  1    -1.68736625E-04   # N_31
  3  2     9.99686383E-01   # N_32
  3  3    -3.42852485E-03   # N_33
  3  4    -2.48063057E-02   # N_34
  4  1     9.99905341E-01   # N_41
  4  2    -1.57991549E-04   # N_42
  4  3     2.54598548E-03   # N_43
  4  4    -1.35204182E-02   # N_44
#
BLOCK UMIX  # Chargino Mixing Matrix U
  1  1     4.85076841E-03   # U_11
  1  2     9.99988235E-01   # U_12
  2  1    -9.99988235E-01   # U_21
  2  2     4.85076841E-03   # U_22
#
BLOCK VMIX  # Chargino Mixing Matrix V
  1  1     3.50863900E-02   # V_11
  1  2    -9.99384283E-01   # V_12
  2  1    -9.99384283E-01   # V_21
  2  2    -3.50863900E-02   # V_22
#
BLOCK STOPMIX  # Stop Mixing Matrix
  1  1     9.98145712E-01   # cos(theta_t)
  1  2    -6.08698416E-02   # sin(theta_t)
  2  1     6.08698416E-02   # -sin(theta_t)
  2  2     9.98145712E-01   # cos(theta_t)
#
BLOCK SBOTMIX  # Sbottom Mixing Matrix
  1  1    -3.37317090E-02   # cos(theta_b)
  1  2     9.99430924E-01   # sin(theta_b)
  2  1    -9.99430924E-01   # -sin(theta_b)
  2  2    -3.37317090E-02   # cos(theta_b)
#
BLOCK STAUMIX  # Stau Mixing Matrix
  1  1    -2.44624511E-03   # cos(theta_tau)
  1  2     9.99997008E-01   # sin(theta_tau)
  2  1    -9.99997008E-01   # -sin(theta_tau)
  2  2    -2.44624511E-03   # cos(theta_tau)
#
BLOCK ALPHA  # Higgs mixing
          -2.62468235E-02   # Mixing angle in the neutral Higgs boson sector
#
BLOCK HMIX Q=  2.60873100E+03  # DRbar Higgs Parameters
         1    -5.29626063E+02   # mu(Q)MSSM           
         2     3.82178363E+01   # tan                 
         3     2.43256153E+02   # higgs               
         4     6.13458331E+06   # mA^2(Q)MSSM         
#
BLOCK GAUGE Q=  2.60873100E+03  # The gauge couplings
     1     3.64750904E-01   # gprime(Q) DRbar
     2     6.36800196E-01   # g(Q) DRbar
     3     1.03034782E+00   # g3(Q) DRbar
#
BLOCK AU Q=  2.60873100E+03  # The trilinear couplings
  1  1     0.00000000E+00   # A_u(Q) DRbar
  2  2     0.00000000E+00   # A_c(Q) DRbar
  3  3     2.79827001E+03   # A_t(Q) DRbar
#
BLOCK AD Q=  2.60873100E+03  # The trilinear couplings
  1  1     0.00000000E+00   # A_d(Q) DRbar
  2  2     0.00000000E+00   # A_s(Q) DRbar
  3  3    -5.83029996E+02   # A_b(Q) DRbar
#
BLOCK AE Q=  2.60873100E+03  # The trilinear couplings
  1  1     0.00000000E+00   # A_e(Q) DRbar
  2  2     0.00000000E+00   # A_mu(Q) DRbar
  3  3    -3.16608000E+03   # A_tau(Q) DRbar
#
BLOCK Yu Q=  2.60873100E+03  # The Yukawa couplings
  1  1     0.00000000E+00   # y_u(Q) DRbar
  2  2     0.00000000E+00   # y_c(Q) DRbar
  3  3     8.35050148E-01   # y_t(Q) DRbar
#
BLOCK Yd Q=  2.60873100E+03  # The Yukawa couplings
  1  1     0.00000000E+00   # y_d(Q) DRbar
  2  2     0.00000000E+00   # y_s(Q) DRbar
  3  3     5.58767201E-01   # y_b(Q) DRbar
#
BLOCK Ye Q=  2.60873100E+03  # The Yukawa couplings
  1  1     0.00000000E+00   # y_e(Q) DRbar
  2  2     0.00000000E+00   # y_mu(Q) DRbar
  3  3     3.84920411E-01   # y_tau(Q) DRbar
#
BLOCK MSOFT Q=  2.60873100E+03  # The soft SUSY breaking masses at the scale Q
         1    -3.37881000E+03   # M_1(Q)              
         2     3.24256000E+03   # M_2(Q)              
         3     1.25059000E+03   # M_3(Q)              
        21     5.95774591E+06   # mH1^2(Q)            
        22    -1.93105437E+05   # mH2^2(Q)            
        31     2.52030000E+03   # meL(Q)              
        32     2.52030000E+03   # mmuL(Q)             
        33     3.59746000E+03   # mtauL(Q)            
        34     2.15647000E+03   # meR(Q)              
        35     2.15647000E+03   # mmuR(Q)             
        36     9.30640000E+02   # mtauR(Q)            
        41     1.97096000E+03   # mqL1(Q)             
        42     1.97096000E+03   # mqL2(Q)             
        43     2.08118000E+03   # mqL3(Q)             
        44     2.76922000E+03   # muR(Q)              
        45     2.76922000E+03   # mcR(Q)              
        46     3.26604000E+03   # mtR(Q)              
        47     7.47779994E+02   # mdR(Q)              
        48     7.47779994E+02   # msR(Q)              
        49     1.71412000E+03   # mbR(Q)              
#
Block HiggsBoundsInputHiggsCouplingsFermions
# ScalarNormEffCoupSq PseudoSNormEffCoupSq NP   IP1 IP2 IP2
    1.00666090E+00    0.00000000E+00        3  25   5   5  # h0-b-b eff. coupling^2, normalised to SM
    1.46059635E+03    0.00000000E+00        3  35   5   5  # H0-b-b eff. coupling^2, normalised to SM
    0.00000000E+00    1.46060301E+03        3  36   5   5  # A0-b-b eff. coupling^2, normalised to SM
#
    9.99995440E-01    0.00000000E+00        3  25   6   6  # h0-t-t eff. coupling^2, normalised to SM
    6.89209109E-04    0.00000000E+00        3  35   6   6  # H0-t-t eff. coupling^2, normalised to SM
    0.00000000E+00    6.84648732E-04        3  36   6   6  # A0-t-t eff. coupling^2, normalised to SM
#
    1.00666090E+00    0.00000000E+00        3  25  15  15  # h0-tau-tau eff. coupling^2, normalised to SM
    1.46059635E+03    0.00000000E+00        3  35  15  15  # H0-tau-tau eff. coupling^2, normalised to SM
    0.00000000E+00    1.46060301E+03        3  36  15  15  # A0-tau-tau eff. coupling^2, normalised to SM
#
Block HiggsBoundsInputHiggsCouplingsBosons
    9.99999992E-01        3  25  24  24  # h0-W-W eff. coupling^2, normalised to SM
    7.56888480E-09        3  35  24  24  # H0-W-W eff. coupling^2, normalised to SM
    0.00000000E+00        3  36  24  24  # A0-W-W eff. coupling^2, normalised to SM
#
    9.99999992E-01        3  25  23  23  # h0-Z-Z eff. coupling^2, normalised to SM
    7.56888480E-09        3  35  23  23  # H0-Z-Z eff. coupling^2, normalised to SM
    0.00000000E+00        3  36  23  23  # A0-Z-Z eff. coupling^2, normalised to SM
#
    8.93763244E-01        3  25  21  21  # h0-g-g eff. coupling^2, normalised to SM
    6.55606098E-12        3  35  21  21  # H0-g-g eff. coupling^2, normalised to SM
    2.69496469E-11        3  36  21  21  # A0-g-g eff. coupling^2, normalised to SM
#
    0.00000000E+00        3  25  25  23  # h0-h0-Z eff. coupling^2, normalised to SM
    0.00000000E+00        3  35  25  23  # H0-h0-Z eff. coupling^2, normalised to SM
    7.56888480E-09        3  36  25  23  # A0-h0-Z eff. coupling^2, normalised to SM
    0.00000000E+00        3  35  35  23  # H0-H0-Z eff. coupling^2, normalised to SM
    9.99999992E-01        3  36  35  23  # A0-H0-Z eff. coupling^2, normalised to SM
    0.00000000E+00        3  36  36  23  # A0-A0-Z eff. coupling^2, normalised to SM
#
    0.00000000E+00        4  25  21  21  23  # h0-g-g-Z eff. coupling^2, normalised to SM
    0.00000000E+00        4  35  21  21  23  # H0-g-g-Z eff. coupling^2, normalised to SM
    0.00000000E+00        4  36  21  21  23  # A0-g-g-Z eff. coupling^2, normalised to SM
#
#
#
#                             =================
#                             |The decay table|
#                             =================
#
# - The QCD corrections to the decays gluino -> squark  + quark
#                                     squark -> gaugino + quark_prime
#                                     squark -> squark_prime + Higgs
#                                     squark -> gluino  + quark
#   are included.
#
# - The multi-body decays for the inos, stops and sbottoms are included.
#
# - The loop induced decays for the gluino, neutralinos and stops
#   are included.
#
# - The SUSY decays of the top quark are included.
#
#
#         PDG            Width
DECAY         6     1.42768151E+00   # top decays
#          BR         NDA      ID1       ID2
     1.00000000E+00    2           5        24   # BR(t ->  b    W+)
#
#         PDG            Width
DECAY   1000021     2.19324649E+01   # gluino decays
#          BR         NDA      ID1       ID2
     2.50000000E-01    2     2000001        -1   # BR(~g -> ~d_R  db)
     2.50000000E-01    2    -2000001         1   # BR(~g -> ~d_R* d )
     2.50000000E-01    2     2000003        -3   # BR(~g -> ~s_R  sb)
     2.50000000E-01    2    -2000003         3   # BR(~g -> ~s_R* s )
#
#         PDG            Width
DECAY   1000006     7.06830459E+01   # stop1 decays
#          BR         NDA      ID1       ID2
     1.78670938E-01    2     1000022         6   # BR(~t_1 -> ~chi_10 t )
     1.77563829E-01    2     1000023         6   # BR(~t_1 -> ~chi_20 t )
     1.62056471E-01    2     1000024         5   # BR(~t_1 -> ~chi_1+ b )
     4.78889223E-01    2     1000021         6   # BR(~t_1 -> ~g      t )
     2.81953840E-03    2     1000005        24   # BR(~t_1 -> ~b_1    W+)
#
#         PDG            Width
DECAY   2000006     2.38373022E+02   # stop2 decays
#          BR         NDA      ID1       ID2
     8.88621104E-02    2     1000022         6   # BR(~t_2 -> ~chi_10 t )
     8.93357943E-02    2     1000023         6   # BR(~t_2 -> ~chi_20 t )
     0.00000000E+00    2     1000025         6   # BR(~t_2 -> ~chi_30 t )
     1.79204393E-01    2     1000024         5   # BR(~t_2 -> ~chi_1+ b )
     2.57922183E-08    2     1000037         5   # BR(~t_2 -> ~chi_2+ b )
     5.05467516E-01    2     1000021         6   # BR(~t_2 -> ~g      t )
     3.99664718E-02    2     1000006        25   # BR(~t_2 -> ~t_1    h )
     3.30191920E-02    2     1000006        23   # BR(~t_2 -> ~t_1    Z )
     1.37189058E-04    2     1000005        24   # BR(~t_2 -> ~b_1    W+)
     6.40073076E-02    2     2000005        24   # BR(~t_2 -> ~b_2    W+)
#
#         PDG            Width
DECAY   1000005     2.90653460E+01   # sbottom1 decays
#          BR         NDA      ID1       ID2
     1.52939225E-01    2     1000022         5   # BR(~b_1 -> ~chi_10 b )
     1.52189255E-01    2     1000023         5   # BR(~b_1 -> ~chi_20 b )
     2.96144539E-01    2    -1000024         6   # BR(~b_1 -> ~chi_1- t )
     3.98726980E-01    2     1000021         5   # BR(~b_1 -> ~g      b )
#
#         PDG            Width
DECAY   2000005     7.34019284E+01   # sbottom2 decays
#          BR         NDA      ID1       ID2
     7.82651062E-02    2     1000022         5   # BR(~b_2 -> ~chi_10 b )
     7.82075890E-02    2     1000023         5   # BR(~b_2 -> ~chi_20 b )
     3.43938257E-01    2    -1000024         6   # BR(~b_2 -> ~chi_1- t )
     4.96623340E-01    2     1000021         5   # BR(~b_2 -> ~g      b )
     1.56899879E-03    2     1000005        25   # BR(~b_2 -> ~b_1    h )
     1.39670921E-03    2     1000005        23   # BR(~b_2 -> ~b_1    Z )
#
#         PDG            Width
DECAY   1000002     4.23131817E+01   # sup_L decays
#          BR         NDA      ID1       ID2
     7.41023353E-05    2     1000022         2   # BR(~u_L -> ~chi_10 u)
     4.82079766E-05    2     1000023         2   # BR(~u_L -> ~chi_20 u)
     3.96805969E-04    2     1000024         1   # BR(~u_L -> ~chi_1+ d)
     9.99480884E-01    2     1000021         2   # BR(~u_L -> ~g      u)
#
#         PDG            Width
DECAY   2000002     1.20318905E+02   # sup_R decays
#          BR         NDA      ID1       ID2
     2.95389346E-06    2     1000022         2   # BR(~u_R -> ~chi_10 u)
     6.34296126E-06    2     1000023         2   # BR(~u_R -> ~chi_20 u)
     9.99990703E-01    2     1000021         2   # BR(~u_R -> ~g      u)
#
#         PDG            Width
DECAY   1000001     4.24316777E+01   # sdown_L decays
#          BR         NDA      ID1       ID2
     5.49421561E-05    2     1000022         1   # BR(~d_L -> ~chi_10 d)
     2.70011133E-05    2     1000023         1   # BR(~d_L -> ~chi_20 d)
     7.57011356E-06    2    -1000024         2   # BR(~d_L -> ~chi_1- u)
     9.99910487E-01    2     1000021         1   # BR(~d_L -> ~g      d)
#
#         PDG            Width
DECAY   2000001     3.56737209E-05   # sdown_R decays
#           BR         NDA      ID1       ID2
     3.17369708E-01    2     1000022         1   # BR(~d_R -> ~chi_10 d)
     6.78107010E-01    2     1000023         1   # BR(~d_R -> ~chi_20 d)
#           BR         NDA      ID1       ID2       ID3
     7.17811301E-04    3        1       23        1000022   # BR(~d_R -> d  Z  ~chi_10)
     2.65161574E-04    3        1       25        1000022   # BR(~d_R -> d  h  ~chi_10)
     2.38637848E-04    3        1       23        1000023   # BR(~d_R -> d  Z  ~chi_20)
     7.09654036E-04    3        1       25        1000023   # BR(~d_R -> d  h  ~chi_20)
     1.45146059E-04    3        1       -24        1000024   # BR(~d_R -> d  W-  ~chi_1+)
     2.44687119E-03    3        1       24        -1000024   # BR(~d_R -> d  W+  ~chi_1-)
#
#         PDG            Width
DECAY   1000004     3.09585042E+01   # scharm_L decays
#          BR         NDA      ID1       ID2
     1.05627152E-04    2     1000022         4   # BR(~c_L -> ~chi_10 c)
     6.87160858E-05    2     1000023         4   # BR(~c_L -> ~chi_20 c)
     5.65612931E-04    2     1000024         3   # BR(~c_L -> ~chi_1+ s)
     9.99260044E-01    2     1000021         4   # BR(~c_L -> ~g      c)
#
#         PDG            Width
DECAY   2000004     8.80127390E+01   # scharm_R decays
#          BR         NDA      ID1       ID2
     4.18496463E-06    2     1000022         4   # BR(~c_R -> ~chi_10 c)
     8.98642923E-06    2     1000023         4   # BR(~c_R -> ~chi_20 c)
     9.99986829E-01    2     1000021         4   # BR(~c_R -> ~g      c)
#
#         PDG            Width
DECAY   1000003     3.10396670E+01   # sstrange_L decays
#          BR         NDA      ID1       ID2
     7.83285979E-05    2     1000022         3   # BR(~s_L -> ~chi_10 s)
     3.84939225E-05    2     1000023         3   # BR(~s_L -> ~chi_20 s)
     1.07922899E-05    2    -1000024         4   # BR(~s_L -> ~chi_1- c)
     9.99872385E-01    2     1000021         3   # BR(~s_L -> ~g      s)
#
#         PDG            Width
DECAY   2000003     3.52532783E-05   # sstrange_R decays
#           BR         NDA      ID1       ID2
     3.17361013E-01    2     1000022         3   # BR(~s_R -> ~chi_10 s)
     6.78051862E-01    2     1000023         3   # BR(~s_R -> ~chi_20 s)
#           BR         NDA      ID1       ID2       ID3
     7.26372163E-04    3        3       23        1000022   # BR(~s_R -> s  Z  ~chi_10)
     2.69643008E-04    3        3       25        1000022   # BR(~s_R -> s  h  ~chi_10)
     2.41481088E-04    3        3       23        1000023   # BR(~s_R -> s  Z  ~chi_20)
     7.23223519E-04    3        3       25        1000023   # BR(~s_R -> s  h  ~chi_20)
     1.46636008E-04    3        3       -24        1000024   # BR(~s_R -> s  W-  ~chi_1+)
     2.47976938E-03    3        3       24        -1000024   # BR(~s_R -> s  W+  ~chi_1-)
#
#         PDG            Width
DECAY   1000011     1.03852332E-02   # selectron_L decays
#          BR         NDA      ID1       ID2
     5.36169930E-01    2     1000022        11   # BR(~e_L -> ~chi_10 e-)
     4.21457131E-01    2     1000023        11   # BR(~e_L -> ~chi_20 e-)
     4.23729394E-02    2    -1000024        12   # BR(~e_L -> ~chi_1- nu_e)
#
#         PDG            Width
DECAY   2000011     3.17403517E-03   # selectron_R decays
#           BR         NDA      ID1       ID2
     1.91589527E-01    2     1000022        11   # BR(~e_R -> ~chi_10 e-)
     4.11309456E-01    2     1000023        11   # BR(~e_R -> ~chi_20 e-)
#           BR         NDA      ID1       ID2       ID3
     2.12524425E-07    3        11       -1        1000001   # BR(~e_R- -> e-  db  ~d_L)
     8.57173867E-08    3        11       1        -1000001   # BR(~e_R- -> e-  d  ~d_L*)
     7.47975329E-03    3        11       -1        2000001   # BR(~e_R- -> e-  db  ~d_R)
     3.54343900E-02    3        11       1        -2000001   # BR(~e_R- -> e-  d  ~d_R*)
     2.22760607E-07    3        11       -2        1000002   # BR(~e_R- -> e-  ub  ~u_L)
     8.81496219E-08    3        11       2        -1000002   # BR(~e_R- -> e-  u  ~u_L*)
     2.10016576E-07    3        11       -3        1000003   # BR(~e_R- -> e-  sb  ~s_L)
     8.41956644E-08    3        11       3        -1000003   # BR(~e_R- -> e-  s  ~s_L*)
     7.46148002E-03    3        11       -3        2000003   # BR(~e_R- -> e-  sb  ~s_R)
     3.55005518E-02    3        11       3        -2000003   # BR(~e_R- -> e-  s  ~s_R*)
     2.21708318E-07    3        11       -4        1000004   # BR(~e_R- -> e-  cb  ~c_L)
     8.82693433E-08    3        11       4        -1000004   # BR(~e_R- -> e-  c  ~c_L*)
     8.68263851E-05    3        11       -5        1000005   # BR(~e_R- -> e-  bb  ~b_1)
     2.49883810E-04    3        11       5        -1000005   # BR(~e_R- -> e-  b  ~b_1*)
     2.88223019E-09    3        11       -5        2000005   # BR(~e_R- -> e-  bb  ~b_2)
     1.17805878E-09    3        11       5        -2000005   # BR(~e_R- -> e-  b  ~b_2*)
     1.83249387E-02    3        11       -15        1000015   # BR(~e_R- -> e-  tau+  ~tau_1-)
     8.19398608E-02    3        11       15        -1000015   # BR(~e_R- -> e-  tau-  ~tau_1+)
     3.85187918E-02    3        11       23        1000022   # BR(~e_R- -> e-  Z  ~chi_10)
     1.24727666E-02    3        11       25        1000022   # BR(~e_R- -> e-  h  ~chi_10)
     1.22068591E-02    3        11       23        1000023   # BR(~e_R- -> e-  Z  ~chi_20)
     3.88180954E-02    3        11       25        1000023   # BR(~e_R- -> e-  h  ~chi_20)
     1.60231369E-02    3        11       -24        1000024   # BR(~e_R- -> e-  W-  ~chi_1+)
     9.25824650E-02    3        11       24        -1000024   # BR(~e_R- -> e-  W+  ~chi_1-)
#
#         PDG            Width
DECAY   1000013     1.03852332E-02   # smuon_L decays
#          BR         NDA      ID1       ID2
     5.36169930E-01    2     1000022        13   # BR(~mu_L -> ~chi_10 mu-)
     4.21457131E-01    2     1000023        13   # BR(~mu_L -> ~chi_20 mu-)
     4.23729395E-02    2    -1000024        14   # BR(~mu_L -> ~chi_1- nu_mu)
#
#         PDG            Width
DECAY   2000013     3.17402516E-03   # smuon_R decays
#           BR         NDA      ID1       ID2
     1.91590130E-01    2     1000022        13   # BR(~mu_R -> ~chi_10 mu-)
     4.11310753E-01    2     1000023        13   # BR(~mu_R -> ~chi_20 mu-)
#           BR         NDA      ID1       ID2       ID3
     2.12307706E-07    3        13       -1        1000001   # BR(~mu_R- -> mu-  db  ~d_L)
     8.58751856E-08    3        13       1        -1000001   # BR(~mu_R- -> mu-  d  ~d_L*)
     7.47977687E-03    3        13       -1        2000001   # BR(~mu_R- -> mu-  db  ~d_R)
     3.54345017E-02    3        13       1        -2000001   # BR(~mu_R- -> mu-  d  ~d_R*)
     2.23391424E-07    3        13       -2        1000002   # BR(~mu_R- -> mu-  ub  ~u_L)
     8.64517406E-08    3        13       2        -1000002   # BR(~mu_R- -> mu-  u  ~u_L*)
     2.09519448E-07    3        13       -3        1000003   # BR(~mu_R- -> mu-  sb  ~s_L)
     8.40510034E-08    3        13       3        -1000003   # BR(~mu_R- -> mu-  s  ~s_L*)
     7.46150354E-03    3        13       -3        2000003   # BR(~mu_R- -> mu-  sb  ~s_R)
     3.53746408E-02    3        13       3        -2000003   # BR(~mu_R- -> mu-  s  ~s_R*)
     2.22159549E-07    3        13       -4        1000004   # BR(~mu_R- -> mu-  cb  ~c_L)
     8.86413892E-08    3        13       4        -1000004   # BR(~mu_R- -> mu-  c  ~c_L*)
     8.68266588E-05    3        13       -5        1000005   # BR(~mu_R- -> mu-  bb  ~b_1)
     2.49884597E-04    3        13       5        -1000005   # BR(~mu_R- -> mu-  b  ~b_1*)
     2.86724255E-09    3        13       -5        2000005   # BR(~mu_R- -> mu-  bb  ~b_2)
     1.17604613E-09    3        13       5        -2000005   # BR(~mu_R- -> mu-  b  ~b_2*)
     1.83249965E-02    3        13       -15        1000015   # BR(~mu_R- -> mu-  tau+  ~tau_1-)
     8.20629915E-02    3        13       15        -1000015   # BR(~mu_R- -> mu-  tau-  ~tau_1+)
     3.85189133E-02    3        13       23        1000022   # BR(~mu_R- -> mu-  Z  ~chi_10)
     1.24728060E-02    3        13       25        1000022   # BR(~mu_R- -> mu-  h  ~chi_10)
     1.22068976E-02    3        13       23        1000023   # BR(~mu_R- -> mu-  Z  ~chi_20)
     3.88182178E-02    3        13       25        1000023   # BR(~mu_R- -> mu-  h  ~chi_20)
     1.60231874E-02    3        13       -24        1000024   # BR(~mu_R- -> mu-  W-  ~chi_1+)
     9.25827569E-02    3        13       24        -1000024   # BR(~mu_R- -> mu-  W+  ~chi_1-)
#
#         PDG            Width
DECAY   1000015     2.51625533E+00   # stau_1 decays
#          BR         NDA      ID1       ID2
     2.50897325E-01    2     1000022        15   # BR(~tau_1 -> ~chi_10  tau-)
     2.49404792E-01    2     1000023        15   # BR(~tau_1 -> ~chi_20  tau-)
     4.99697883E-01    2    -1000024        16   # BR(~tau_1 -> ~chi_1-  nu_tau)
#
#         PDG            Width
DECAY   2000015     1.47126987E+01   # stau_2 decays
#          BR         NDA      ID1       ID2
     3.46271705E-01    2     1000022        15   # BR(~tau_2 -> ~chi_10  tau-)
     3.45482428E-01    2     1000023        15   # BR(~tau_2 -> ~chi_20  tau-)
     4.44347909E-02    2     1000025        15   # BR(~tau_2 -> ~chi_30  tau-)
     6.91326291E-03    2     1000035        15   # BR(~tau_2 -> ~chi_40  tau-)
     2.14972967E-05    2    -1000024        16   # BR(~tau_2 -> ~chi_1-  nu_tau)
     8.88743433E-02    2    -1000037        16   # BR(~tau_2 -> ~chi_2-  nu_tau)
     5.14455961E-03    2     1000015        25   # BR(~tau_2 -> ~tau_1   h)
     7.89472128E-02    2     1000015        35   # BR(~tau_2 -> ~tau_1   H)
     7.89481661E-02    2     1000015        36   # BR(~tau_2 -> ~tau_1   A)
     4.96203487E-03    2     1000015        23   # BR(~tau_2 -> ~tau_1   Z)
#
#         PDG            Width
DECAY   1000012     2.59500234E-02   # snu_eL decays
#          BR         NDA      ID1       ID2
     8.67112975E-02    2     1000022        12   # BR(~nu_eL -> ~chi_10 nu_e)
     2.67352937E-02    2     1000023        12   # BR(~nu_eL -> ~chi_20 nu_e)
     8.86553409E-01    2     1000024        11   # BR(~nu_eL -> ~chi_1+ e-)
#
#         PDG            Width
DECAY   1000014     2.59500233E-02   # snu_muL decays
#          BR         NDA      ID1       ID2
     8.67112978E-02    2     1000022        14   # BR(~nu_muL -> ~chi_10 nu_mu)
     2.67352938E-02    2     1000023        14   # BR(~nu_muL -> ~chi_20 nu_mu)
     8.86553408E-01    2     1000024        13   # BR(~nu_muL -> ~chi_1+ mu-)
#
#         PDG            Width
DECAY   1000016     1.46942798E+01   # snu_tauL decays
#          BR         NDA      ID1       ID2
     2.27796348E-04    2     1000022        16   # BR(~nu_tauL -> ~chi_10 nu_tau)
     7.02494722E-05    2     1000023        16   # BR(~nu_tauL -> ~chi_20 nu_tau)
     4.42709229E-02    2     1000025        16   # BR(~nu_tauL -> ~chi_30 nu_tau)
     6.87328586E-03    2     1000035        16   # BR(~nu_tauL -> ~chi_40 nu_tau)
     6.93677047E-01    2     1000024        15   # BR(~nu_tauL -> ~chi_1+ tau-)
     8.84005752E-02    2     1000037        15   # BR(~nu_tauL -> ~chi_2+ tau-)
     1.56862090E-01    2    -1000015       -37   # BR(~nu_tauL -> ~tau_1+ H-)
     9.61803302E-03    2    -1000015       -24   # BR(~nu_tauL -> ~tau_1+ W-)
#
#         PDG            Width
DECAY   1000024     1.45539620E-12   # chargino1+ decays
#           BR         NDA      ID1       ID2       ID3
     1.59414420E-01    3     1000022       -11        12   # BR(~chi_1+ -> ~chi_10 e+   nu_e)
     1.47327870E-01    3     1000022       -13        14   # BR(~chi_1+ -> ~chi_10 mu+  nu_mu)
     5.81999430E-01    2     1000022       211             # BR(~chi_1+ -> ~chi_10 pi+)
     1.10423770E-01    3     1000022       211        111   # BR(~chi_1+ -> ~chi_10 pi+ pi0)
     4.17252930E-04    4     1000022       211        111       111 # BR(~chi_1+ -> ~chi_10 pi+ pi0 pi0)
     4.17252930E-04    4     1000022       211        211      -211 # BR(~chi_1+ -> ~chi_10 pi+ pi+ pi-)
#
#         PDG            Width
DECAY   1000037     1.11824513E+02   # chargino2+ decays
#          BR         NDA      ID1       ID2
     1.18993226E-01    2     1000002        -1   # BR(~chi_2+ -> ~u_L     db)
     1.18916005E-01    2    -1000001         2   # BR(~chi_2+ -> ~d_L*    u )
     1.18993222E-01    2     1000004        -3   # BR(~chi_2+ -> ~c_L     sb)
     1.18915935E-01    2    -1000003         4   # BR(~chi_2+ -> ~s_L*     c )
     1.10460285E-01    2     1000006        -5   # BR(~chi_2+ -> ~t_1     bb)
     1.46243151E-04    2    -1000005         6   # BR(~chi_2+ -> ~b_1*    t )
     1.07382085E-01    2    -2000005         6   # BR(~chi_2+ -> ~b_2*    t )
     1.58312741E-02    2     1000012       -11   # BR(~chi_2+ -> ~nu_eL   e+  )
     1.58312741E-02    2     1000014       -13   # BR(~chi_2+ -> ~nu_muL mu+ )
     1.57840103E-02    2    -1000011        12   # BR(~chi_2+ -> ~e_L+    nu_e)
     1.57840103E-02    2    -1000013        14   # BR(~chi_2+ -> ~mu_L+   nu_mu)
     2.27380282E-08    2    -1000015        16   # BR(~chi_2+ -> ~tau_1+  nu_tau)
     5.43634425E-02    2     1000024        23   # BR(~chi_2+ -> ~chi_1+  Z )
     5.26547694E-02    2     1000022        24   # BR(~chi_2+ -> ~chi_10  W+)
     5.27621868E-02    2     1000023        24   # BR(~chi_2+ -> ~chi_20  W+)
     5.64737943E-02    2     1000024        25   # BR(~chi_2+ -> ~chi_1+  h )
     6.69320093E-03    2     1000024        35   # BR(~chi_2+ -> ~chi_1+  H )
     6.69613150E-03    2     1000024        36   # BR(~chi_2+ -> ~chi_1+  A )
     6.67503037E-03    2     1000022        37   # BR(~chi_2+ -> ~chi_10  H+)
     6.64385073E-03    2     1000023        37   # BR(~chi_2+ -> ~chi_20  H+)
#
#         PDG            Width
DECAY   1000022     0.00000000E+00   # neutralino1 decays
#
#         PDG            Width
DECAY   1000023     2.55285049E-12   # neutralino2 decays
#          BR         NDA      ID1       ID2
     5.35647087E-01    2     1000022        22   # BR(~chi_20 -> ~chi_10 gam)
#           BR         NDA      ID1       ID2       ID3
     7.74340345E-02    3     1000022        -2         2   # BR(~chi_20 -> ~chi_10 ub      u)
     1.00549812E-01    3     1000022        -1         1   # BR(~chi_20 -> ~chi_10 db      d)
     1.00549812E-01    3     1000022        -3         3   # BR(~chi_20 -> ~chi_10 sb      s)
     2.31224575E-02    3     1000022       -11        11   # BR(~chi_20 -> ~chi_10 e+      e-)
     2.31224575E-02    3     1000022       -13        13   # BR(~chi_20 -> ~chi_10 mu+     mu-)
     4.62384939E-02    3     1000022       -12        12   # BR(~chi_20 -> ~chi_10 nu_eb   nu_e)
     4.62384939E-02    3     1000022       -14        14   # BR(~chi_20 -> ~chi_10 nu_mub  nu_mu)
     4.62384874E-02    3     1000022       -16        16   # BR(~chi_20 -> ~chi_10 nu_taub nu_tau)
     2.57659375E-04    3     1000024        -2         1   # BR(~chi_20 -> ~chi_1+ ub      d)
     2.57659375E-04    3    -1000024        -1         2   # BR(~chi_20 -> ~chi_1- db      u)
     8.58863981E-05    3     1000024       -12        11   # BR(~chi_20 -> ~chi_1+ nu_eb   e-)
     8.58863981E-05    3    -1000024        12       -11   # BR(~chi_20 -> ~chi_1- nu_e    e+)
     8.58863981E-05    3     1000024       -14        13   # BR(~chi_20 -> ~chi_1+ nu_mub  mu-)
     8.58863981E-05    3    -1000024        14       -13   # BR(~chi_20 -> ~chi_1- nu_mu   mu+)
#
#         PDG            Width
DECAY   1000025     1.11798485E+02   # neutralino3 decays
#          BR         NDA      ID1       ID2
     1.98095122E-02    2     1000022        23   # BR(~chi_30 -> ~chi_10   Z )
     3.45676351E-02    2     1000023        23   # BR(~chi_30 -> ~chi_20   Z )
     5.27373867E-02    2     1000024       -24   # BR(~chi_30 -> ~chi_1+   W-)
     5.27373867E-02    2    -1000024        24   # BR(~chi_30 -> ~chi_1-   W+)
     3.60950277E-02    2     1000022        25   # BR(~chi_30 -> ~chi_10   h )
     6.07402463E-03    2     1000022        35   # BR(~chi_30 -> ~chi_10   H )
     6.40610063E-04    2     1000022        36   # BR(~chi_30 -> ~chi_10   A )
     2.03052666E-02    2     1000023        25   # BR(~chi_30 -> ~chi_20   h )
     6.33472427E-04    2     1000023        35   # BR(~chi_30 -> ~chi_20   H )
     6.05348054E-03    2     1000023        36   # BR(~chi_30 -> ~chi_20   A )
     6.64783220E-03    2     1000024       -37   # BR(~chi_30 -> ~chi_1+   H-)
     6.64783220E-03    2    -1000024        37   # BR(~chi_30 -> ~chi_1-   H+)
     5.95311810E-02    2     1000002        -2   # BR(~chi_30 -> ~u_L      ub)
     5.95311810E-02    2    -1000002         2   # BR(~chi_30 -> ~u_L*     u )
     1.54056680E-10    2     2000002        -2   # BR(~chi_30 -> ~u_R      ub)
     1.54056680E-10    2    -2000002         2   # BR(~chi_30 -> ~u_R*     u )
     5.94283489E-02    2     1000001        -1   # BR(~chi_30 -> ~d_L      db)
     5.94283489E-02    2    -1000001         1   # BR(~chi_30 -> ~d_L*     d )
     5.99207381E-10    2     2000001        -1   # BR(~chi_30 -> ~d_R      db)
     5.99207381E-10    2    -2000001         1   # BR(~chi_30 -> ~d_R*     d )
     5.95311460E-02    2     1000004        -4   # BR(~chi_30 -> ~c_L      cb)
     5.95311460E-02    2    -1000004         4   # BR(~chi_30 -> ~c_L*     c )
     1.54055576E-10    2     2000004        -4   # BR(~chi_30 -> ~c_R      cb)
     1.54055576E-10    2    -2000004         4   # BR(~chi_30 -> ~c_R*     c )
     5.94283489E-02    2     1000003        -3   # BR(~chi_30 -> ~s _L      sb)
     5.94283489E-02    2    -1000003         3   # BR(~chi_30 -> ~s _L*     s )
     5.99207381E-10    2     2000003        -3   # BR(~chi_30 -> ~s _R      sb)
     5.99207381E-10    2    -2000003         3   # BR(~chi_30 -> ~s _R*     s )
     5.39637798E-02    2     1000006        -6   # BR(~chi_30 -> ~t_1      tb)
     5.39637798E-02    2    -1000006         6   # BR(~chi_30 -> ~t_1*     t )
     7.43501618E-05    2     1000005        -5   # BR(~chi_30 -> ~b_1      bb)
     7.43501618E-05    2    -1000005         5   # BR(~chi_30 -> ~b_1*     b )
     5.49581822E-02    2     2000005        -5   # BR(~chi_30 -> ~b_2      bb)
     5.49581822E-02    2    -2000005         5   # BR(~chi_30 -> ~b_2*     b )
     7.88435760E-03    2     1000011       -11   # BR(~chi_30 -> ~e_L-     e+)
     7.88435760E-03    2    -1000011        11   # BR(~chi_30 -> ~e_L+     e-)
     6.30846049E-10    2     2000011       -11   # BR(~chi_30 -> ~e_R-     e+)
     6.30846049E-10    2    -2000011        11   # BR(~chi_30 -> ~e_R+     e-)
     7.88435760E-03    2     1000013       -13   # BR(~chi_30 -> ~mu_L-    mu+)
     7.88435760E-03    2    -1000013        13   # BR(~chi_30 -> ~mu_L+    mu-)
     6.30846049E-10    2     2000013       -13   # BR(~chi_30 -> ~mu_R-    mu+)
     6.30846049E-10    2    -2000013        13   # BR(~chi_30 -> ~mu_R+    mu-)
     1.30363086E-08    2     1000015       -15   # BR(~chi_30 -> ~tau_1-   tau+)
     1.30363086E-08    2    -1000015        15   # BR(~chi_30 -> ~tau_1+   tau-)
     7.92059923E-03    2     1000012       -12   # BR(~chi_30 -> ~nu_eL    nu_eb)
     7.92059923E-03    2    -1000012        12   # BR(~chi_30 -> ~nu_eL*   nu_e )
     7.92059923E-03    2     1000014       -14   # BR(~chi_30 -> ~nu_muL   nu_mub)
     7.92059923E-03    2    -1000014        14   # BR(~chi_30 -> ~nu_muL*  nu_mu )
#
#         PDG            Width
DECAY   1000035     5.96992148E+01   # neutralino4 decays
#          BR         NDA      ID1       ID2
     2.37845499E-02    2     1000022        23   # BR(~chi_40 -> ~chi_10   Z )
     1.11329021E-02    2     1000023        23   # BR(~chi_40 -> ~chi_20   Z )
     4.09283412E-09    2     1000025        23   # BR(~chi_40 -> ~chi_30   Z )
     3.38401788E-02    2     1000024       -24   # BR(~chi_40 -> ~chi_1+   W-)
     3.38401788E-02    2    -1000024        24   # BR(~chi_40 -> ~chi_1-   W+)
     5.23947775E-09    2     1000037       -24   # BR(~chi_40 -> ~chi_2+   W-)
     5.23947775E-09    2    -1000037        24   # BR(~chi_40 -> ~chi_2-   W+)
     1.19259888E-02    2     1000022        25   # BR(~chi_40 -> ~chi_10   h )
     9.79124693E-04    2     1000022        35   # BR(~chi_40 -> ~chi_10   H )
     4.76596254E-03    2     1000022        36   # BR(~chi_40 -> ~chi_10   A )
     2.55465798E-02    2     1000023        25   # BR(~chi_40 -> ~chi_20   h )
     4.75470779E-03    2     1000023        35   # BR(~chi_40 -> ~chi_20   H )
     9.72381108E-04    2     1000023        36   # BR(~chi_40 -> ~chi_20   A )
     1.56106987E-13    2     1000025        25   # BR(~chi_40 -> ~chi_30   h )
     5.70098455E-03    2     1000024       -37   # BR(~chi_40 -> ~chi_1+   H-)
     5.70098455E-03    2    -1000024        37   # BR(~chi_40 -> ~chi_1-   H+)
     4.67992495E-03    2     1000002        -2   # BR(~chi_40 -> ~u_L      ub)
     4.67992495E-03    2    -1000002         2   # BR(~chi_40 -> ~u_L*     u )
     1.65253574E-02    2     2000002        -2   # BR(~chi_40 -> ~u_R      ub)
     1.65253574E-02    2    -2000002         2   # BR(~chi_40 -> ~u_R*     u )
     4.68779692E-03    2     1000001        -1   # BR(~chi_40 -> ~d_L      db)
     4.68779692E-03    2    -1000001         1   # BR(~chi_40 -> ~d_L*     d )
     4.15312139E-02    2     2000001        -1   # BR(~chi_40 -> ~d_R      db)
     4.15312139E-02    2    -2000001         1   # BR(~chi_40 -> ~d_R*     d )
     4.67992283E-03    2     1000004        -4   # BR(~chi_40 -> ~c_L      cb)
     4.67992283E-03    2    -1000004         4   # BR(~chi_40 -> ~c_L*     c )
     1.65252931E-02    2     2000004        -4   # BR(~chi_40 -> ~c_R      cb)
     1.65252931E-02    2    -2000004         4   # BR(~chi_40 -> ~c_R*     c )
     4.68779692E-03    2     1000003        -3   # BR(~chi_40 -> ~s _L      sb)
     4.68779692E-03    2    -1000003         3   # BR(~chi_40 -> ~s _L*     s )
     4.15312139E-02    2     2000003        -3   # BR(~chi_40 -> ~s _R      sb)
     4.15312139E-02    2    -2000003         3   # BR(~chi_40 -> ~s _R*     s )
     4.30761775E-03    2     1000006        -6   # BR(~chi_40 -> ~t_1      tb)
     4.30761775E-03    2    -1000006         6   # BR(~chi_40 -> ~t_1*     t )
     2.59082612E-02    2     1000005        -5   # BR(~chi_40 -> ~b_1      bb)
     2.59082612E-02    2    -1000005         5   # BR(~chi_40 -> ~b_1*     b )
     4.42744003E-03    2     2000005        -5   # BR(~chi_40 -> ~b_2      bb)
     4.42744003E-03    2    -2000005         5   # BR(~chi_40 -> ~b_2*     b )
     6.46149029E-03    2     1000011       -11   # BR(~chi_40 -> ~e_L-     e+)
     6.46149029E-03    2    -1000011        11   # BR(~chi_40 -> ~e_L+     e-)
     4.90498511E-02    2     2000011       -11   # BR(~chi_40 -> ~e_R-     e+)
     4.90498511E-02    2    -2000011        11   # BR(~chi_40 -> ~e_R+     e-)
     6.46149029E-03    2     1000013       -13   # BR(~chi_40 -> ~mu_L-    mu+)
     6.46149029E-03    2    -1000013        13   # BR(~chi_40 -> ~mu_L+    mu-)
     4.90498511E-02    2     2000013       -13   # BR(~chi_40 -> ~mu_R-    mu+)
     4.90498511E-02    2    -2000013        13   # BR(~chi_40 -> ~mu_R+    mu-)
     1.25031589E-01    2     1000015       -15   # BR(~chi_40 -> ~tau_1-   tau+)
     1.25031589E-01    2    -1000015        15   # BR(~chi_40 -> ~tau_1+   tau-)
     6.49081003E-03    2     1000012       -12   # BR(~chi_40 -> ~nu_eL    nu_eb)
     6.49081003E-03    2    -1000012        12   # BR(~chi_40 -> ~nu_eL*   nu_e )
     6.49081003E-03    2     1000014       -14   # BR(~chi_40 -> ~nu_muL   nu_mub)
     6.49081003E-03    2    -1000014        14   # BR(~chi_40 -> ~nu_muL*  nu_mu )
#
#         PDG            Width
DECAY        25     3.76786399E-03   # h decays
#          BR         NDA      ID1       ID2
     5.89544155E-01    2           5        -5   # BR(h -> b       bb     )
     6.87300139E-02    2         -15        15   # BR(h -> tau+    tau-   )
     2.43291061E-04    2         -13        13   # BR(h -> mu+     mu-    )
     2.66078486E-04    2           3        -3   # BR(h -> s       sb     )
     2.29095689E-02    2           4        -4   # BR(h -> c       cb     )
     8.34486166E-02    2          21        21   # BR(h -> g       g      )
     2.43665349E-03    2          22        22   # BR(h -> gam     gam    )
     1.55202584E-03    2          22        23   # BR(h -> Z       gam    )
     2.05485894E-01    2          24       -24   # BR(h -> W+      W-     )
     2.53837020E-02    2          23        23   # BR(h -> Z       Z      )
#
#         PDG            Width
DECAY        35     5.79300814E+01   # H decays
#          BR         NDA      ID1       ID2
     8.63138995E-01    2           5        -5   # BR(H -> b       bb     )
     1.34382558E-01    2         -15        15   # BR(H -> tau+    tau-   )
     4.80108664E-04    2         -13        13   # BR(H -> mu+     mu-    )
     3.83349340E-04    2           3        -3   # BR(H -> s       sb     )
     1.24418027E-08    2           4        -4   # BR(H -> c       cb     )
     1.21632830E-03    2           6        -6   # BR(H -> t       tb     )
     1.58812488E-05    2          21        21   # BR(H -> g       g      )
     2.63231882E-09    2          22        22   # BR(H -> gam     gam    )
     8.49747050E-09    2          23        22   # BR(H -> Z       gam    )
     6.42498970E-07    2          24       -24   # BR(H -> W+      W-     )
     3.20347150E-07    2          23        23   # BR(H -> Z       Z      )
     2.67028442E-06    2          25        25   # BR(H -> h       h      )
     3.28973726E-04    2     1000024  -1000024   # BR(H -> ~chi_1+ ~chi_1-)
     3.49815608E-05    2     1000022   1000022   # BR(H -> ~chi_10 ~chi_10)
     1.02772507E-05    2     1000023   1000023   # BR(H -> ~chi_20 ~chi_20)
     3.04393153E-06    2     1000022   1000023   # BR(H -> ~chi_10 ~chi_20)
     2.06066218E-08    2     2000001  -2000001   # BR(H -> ~d_R    ~d_R*  )
     2.06066218E-08    2     2000003  -2000003   # BR(H -> ~s_R    ~s_R*  )
     1.80523505E-06    2     1000015  -1000015   # BR(H -> ~tau_1- ~tau_1+)
#
#         PDG            Width
DECAY        36     5.79368881E+01   # A decays
#          BR         NDA      ID1       ID2
     8.63055716E-01    2           5        -5   # BR(A -> b       bb     )
     1.34367412E-01    2         -15        15   # BR(A -> tau+    tau-   )
     4.80053562E-04    2         -13        13   # BR(A -> mu+     mu-    )
     3.83323736E-04    2           3        -3   # BR(A -> s       sb     )
     1.24721223E-08    2           4        -4   # BR(A -> c       cb     )
     1.22398882E-03    2           6        -6   # BR(A -> t       tb     )
     3.21947400E-05    2          21        21   # BR(A -> g       g      )
     1.19220055E-08    2          22        22   # BR(A -> gam     gam    )
     2.13279795E-08    2          23        22   # BR(A -> Z       gam    )
     6.49874712E-07    2          23        25   # BR(A -> Z       h      )
     4.00053697E-04    2     1000024  -1000024   # BR(A -> ~chi_1+ ~chi_1-)
     3.88419177E-05    2     1000022   1000022   # BR(A -> ~chi_10 ~chi_10)
     1.40864265E-05    2     1000023   1000023   # BR(A -> ~chi_20 ~chi_20)
     3.63354082E-06    2     1000022   1000023   # BR(A -> ~chi_10 ~chi_20)
#
#         PDG            Width
DECAY        37     6.05790776E+01   # H+ decays
#          BR         NDA      ID1       ID2
     1.46202667E-03    2           4        -5   # BR(H+ -> c       bb     )
     1.28594772E-01    2         -15        16   # BR(H+ -> tau+    nu_tau )
     4.59429690E-04    2         -13        14   # BR(H+ -> mu+     nu_mu  )
     1.46202420E-05    2           2        -5   # BR(H+ -> u       bb     )
     1.83339509E-05    2           2        -3   # BR(H+ -> u       sb     )
     3.60879207E-04    2           4        -3   # BR(H+ -> c       sb     )
     8.68940529E-01    2           6        -5   # BR(H+ -> t       bb     )
     6.23380435E-07    2          24        25   # BR(H+ -> W+      h      )
     3.07179429E-13    2          24        36   # BR(H+ -> W+      A      )
     5.27682097E-05    2     1000024   1000022   # BR(H+ -> ~chi_1+ ~chi_10)
     9.60174580E-05    2     1000024   1000023   # BR(H+ -> ~chi_1+ ~chi_20)
