#
#                              ======================
#                              | THE SUSYHIT OUTPUT |
#                              ======================
#
#
#              ------------------------------------------------------
#              |     This is the output of the SUSY-HIT package     |
#              |  created by A.Djouadi, M.Muehlleitner and M.Spira. |
#              |  In case of problems with SUSY-HIT email to        |
#              |           margarete.muehlleitner@cern.ch           |
#              |           michael.spira@psi.ch                     |
#              |           abdelhak.djouadi@cern.ch                 |
#              ------------------------------------------------------
#
#              ------------------------------------------------------
#              |  SUSY Les Houches Accord - MSSM Spectrum + Decays  |
#              |              based on the decay programs           |
#              |                                                    |
#              |                     SDECAY 1.3b                    |
#              |                                                    |
#              |  Authors: M.Muhlleitner, A.Djouadi and Y.Mambrini  |
#              |  Ref.:    Comput.Phys.Commun.168(2005)46           |
#              |           [hep-ph/0311167]                         |
#              |                                                    |
#              |                     HDECAY 3.4                     |
#              |                                                    |
#              |  By: A.Djouadi,J.Kalinowski,M.Muhlleitner,M.Spira  |
#              |  Ref.:    Comput.Phys.Commun.108(1998)56           |
#              |           [hep-ph/9704448]                         |
#              |                                                    |
#              |                                                    |
#              |  If not stated otherwise all DRbar couplings and   |
#              |  soft SUSY breaking masses are given at the scale  |
#              |  Q=  0.30717250E+04
#              |                                                    |
#              ------------------------------------------------------
#
#
BLOCK DCINFO  # Decay Program information
     1   SDECAY/HDECAY # decay calculator
     2   1.3b  /3.4    # version number
#
BLOCK SPINFO  # Spectrum calculator information
     1     SOFTSUSY    # spectrum calculator               
     2     3.4.0       # version number                    
#
BLOCK MODSEL  # Model selection
     1     0   #  nonUniversal                                     
#
BLOCK SMINPUTS  # Standard Model inputs
         1     1.27908970E+02   # alpha_em^-1(M_Z)^MSbar
         2     1.16637870E-05   # G_F [GeV^-2]
         3     1.18400000E-01   # alpha_S(M_Z)^MSbar
         4     9.11876000E+01   # M_Z pole mass
         5     4.18000000E+00   # mb(mb)^MSbar
         6     1.73200000E+02   # mt pole mass
         7     1.77700000E+00   # mtau pole mass
#
BLOCK MINPAR  # Input parameters - minimal models
         3     1.29600000E+01   # tanb                
#
BLOCK EXTPAR  # Input parameters - non-minimal models
         0    -1.00000000E+00   # Set                 
         1    -1.85892000E+03   # M_1(MX)             
         2    -3.01717000E+03   # M_2(MX)             
         3     3.19878000E+03   # M_3(MX)             
        11     3.31962000E+03   # At(MX)              
        12    -3.50767000E+03   # Ab(MX)              
        13     1.31392000E+03   # Atau(MX)            
        23     2.37010000E+02   # mu(MX)              
        26     2.34598000E+03   # mA(pole)            
        31     2.40202000E+03   # meL(MX)             
        32     2.40202000E+03   # mmuL(MX)            
        33     2.75603000E+03   # mtauL(MX)           
        34     2.37304000E+03   # meR(MX)             
        35     2.37304000E+03   # mmuR(MX)            
        36     3.41468000E+03   # mtauR(MX)           
        41     2.79877000E+03   # mqL1(MX)            
        42     2.79877000E+03   # mqL2(MX)            
        43     2.74393000E+03   # mqL3(MX)            
        44     4.47070000E+02   # muR(MX)             
        45     4.47070000E+02   # mcR(MX)             
        46     3.43614000E+03   # mtR(MX)             
        47     2.80399000E+03   # mdR(MX)             
        48     2.80399000E+03   # msR(MX)             
        49     1.11942000E+03   # mbR(MX)             
#
BLOCK MASS  # Mass Spectrum
# PDG code           mass       particle
        24     8.04015861E+01   # W+
        25     1.24607577E+02   # h
        35     2.34603985E+03   # H
        36     2.34597970E+03   # A
        37     2.34774786E+03   # H+
         5     4.81876030E+00   # b-quark pole mass calculated from mb(mb)_Msbar
   1000001     2.93649726E+03   # ~d_L
   2000001     2.91790486E+03   # ~d_R
   1000002     2.93555278E+03   # ~u_L
   2000002     7.52760539E+02   # ~u_R
   1000003     2.93649726E+03   # ~s_L
   2000003     2.91790486E+03   # ~s_R
   1000004     2.93555278E+03   # ~c_L
   2000004     7.52760539E+02   # ~c_R
   1000005     1.29024613E+03   # ~b_1
   2000005     2.85208957E+03   # ~b_2
   1000006     2.84595641E+03   # ~t_1
   2000006     3.47389546E+03   # ~t_2
   1000011     2.43261407E+03   # ~e_L
   2000011     2.37688673E+03   # ~e_R
   1000012     2.43100520E+03   # ~nu_eL
   1000013     2.43261407E+03   # ~mu_L
   2000013     2.37688673E+03   # ~mu_R
   1000014     2.43100520E+03   # ~nu_muL
   1000015     2.78334821E+03   # ~tau_1
   2000015     3.41614612E+03   # ~tau_2
   1000016     2.78190045E+03   # ~nu_tauL
   1000021     3.29498216E+03   # ~g
   1000022    -2.48109164E+02   # ~chi_10
   1000023     2.51316369E+02   # ~chi_20
   1000025    -1.83130158E+03   # ~chi_30
   1000035    -3.01088750E+03   # ~chi_40
   1000024     2.50083905E+02   # ~chi_1+
   1000037     3.01105393E+03   # ~chi_2+
#
BLOCK NMIX  # Neutralino Mixing Matrix
  1  1     1.80315279E-02   # N_11
  1  2    -1.83015989E-02   # N_12
  1  3     7.09337860E-01   # N_13
  1  4     7.04400252E-01   # N_14
  2  1     1.61588428E-02   # N_21
  2  2    -1.84045528E-02   # N_22
  2  3    -7.04867248E-01   # N_23
  2  4     7.08916305E-01   # N_24
  3  1     9.99706259E-01   # N_31
  3  2     1.70053619E-03   # N_32
  3  3    -1.40100544E-03   # N_33
  3  4    -2.41358837E-02   # N_34
  4  1    -1.07299765E-03   # N_41
  4  2     9.99661659E-01   # N_42
  4  3     1.16368930E-05   # N_43
  4  4     2.59887755E-02   # N_44
#
BLOCK UMIX  # Chargino Mixing Matrix U
  1  1    -2.04767599E-05   # U_11
  1  2     1.00000000E+00   # U_12
  2  1    -1.00000000E+00   # U_21
  2  2    -2.04767599E-05   # U_22
#
BLOCK VMIX  # Chargino Mixing Matrix V
  1  1     3.67473741E-02   # V_11
  1  2     9.99324587E-01   # V_12
  2  1     9.99324587E-01   # V_21
  2  2    -3.67473741E-02   # V_22
#
BLOCK STOPMIX  # Stop Mixing Matrix
  1  1     9.93722127E-01   # cos(theta_t)
  1  2    -1.11876424E-01   # sin(theta_t)
  2  1     1.11876424E-01   # -sin(theta_t)
  2  2     9.93722127E-01   # cos(theta_t)
#
BLOCK SBOTMIX  # Sbottom Mixing Matrix
  1  1     2.34375138E-03   # cos(theta_b)
  1  2     9.99997253E-01   # sin(theta_b)
  2  1    -9.99997253E-01   # -sin(theta_b)
  2  2     2.34375138E-03   # cos(theta_b)
#
BLOCK STAUMIX  # Stau Mixing Matrix
  1  1     9.99999733E-01   # cos(theta_tau)
  1  2     7.30752987E-04   # sin(theta_tau)
  2  1    -7.30752987E-04   # -sin(theta_tau)
  2  2     9.99999733E-01   # cos(theta_tau)
#
BLOCK ALPHA  # Higgs mixing
          -8.11448221E-02   # Mixing angle in the neutral Higgs boson sector
#
BLOCK HMIX Q=  3.07172500E+03  # DRbar Higgs Parameters
         1     2.40761576E+02   # mu(Q)MSSM           
         2     1.23494300E+01   # tan                 
         3     2.42818911E+02   # higgs               
         4     5.32541859E+06   # mA^2(Q)MSSM         
#
BLOCK GAUGE Q=  3.07172500E+03  # The gauge couplings
     1     3.65371471E-01   # gprime(Q) DRbar
     2     6.37348658E-01   # g(Q) DRbar
     3     1.00984217E+00   # g3(Q) DRbar
#
BLOCK AU Q=  3.07172500E+03  # The trilinear couplings
  1  1     0.00000000E+00   # A_u(Q) DRbar
  2  2     0.00000000E+00   # A_c(Q) DRbar
  3  3     3.31962002E+03   # A_t(Q) DRbar
#
BLOCK AD Q=  3.07172500E+03  # The trilinear couplings
  1  1     0.00000000E+00   # A_d(Q) DRbar
  2  2     0.00000000E+00   # A_s(Q) DRbar
  3  3    -3.50767000E+03   # A_b(Q) DRbar
#
BLOCK AE Q=  3.07172500E+03  # The trilinear couplings
  1  1     0.00000000E+00   # A_e(Q) DRbar
  2  2     0.00000000E+00   # A_mu(Q) DRbar
  3  3     1.31392000E+03   # A_tau(Q) DRbar
#
BLOCK Yu Q=  3.07172500E+03  # The Yukawa couplings
  1  1     0.00000000E+00   # y_u(Q) DRbar
  2  2     0.00000000E+00   # y_c(Q) DRbar
  3  3     8.33726434E-01   # y_t(Q) DRbar
#
BLOCK Yd Q=  3.07172500E+03  # The Yukawa couplings
  1  1     0.00000000E+00   # y_d(Q) DRbar
  2  2     0.00000000E+00   # y_s(Q) DRbar
  3  3     1.60908403E-01   # y_b(Q) DRbar
#
BLOCK Ye Q=  3.07172500E+03  # The Yukawa couplings
  1  1     0.00000000E+00   # y_e(Q) DRbar
  2  2     0.00000000E+00   # y_mu(Q) DRbar
  3  3     1.25993874E-01   # y_tau(Q) DRbar
#
BLOCK MSOFT Q=  3.07172500E+03  # The soft SUSY breaking masses at the scale Q
         1    -1.85892000E+03   # M_1(Q)              
         2    -3.01717000E+03   # M_2(Q)              
         3     3.19878000E+03   # M_3(Q)              
        21     5.29158959E+06   # mH1^2(Q)            
        22     1.41652694E+05   # mH2^2(Q)            
        31     2.40202000E+03   # meL(Q)              
        32     2.40202000E+03   # mmuL(Q)             
        33     2.75603000E+03   # mtauL(Q)            
        34     2.37304000E+03   # meR(Q)              
        35     2.37304000E+03   # mmuR(Q)             
        36     3.41468000E+03   # mtauR(Q)            
        41     2.79876999E+03   # mqL1(Q)             
        42     2.79876999E+03   # mqL2(Q)             
        43     2.74392999E+03   # mqL3(Q)             
        44     4.47069930E+02   # muR(Q)              
        45     4.47069930E+02   # mcR(Q)              
        46     3.43613999E+03   # mtR(Q)              
        47     2.80398999E+03   # mdR(Q)              
        48     2.80398999E+03   # msR(Q)              
        49     1.11941997E+03   # mbR(Q)              
#
Block HiggsBoundsInputHiggsCouplingsFermions
# ScalarNormEffCoupSq PseudoSNormEffCoupSq NP   IP1 IP2 IP2
    1.00855693E+00    0.00000000E+00        3  25   5   5  # h0-b-b eff. coupling^2, normalised to SM
    1.52499864E+02    0.00000000E+00        3  35   5   5  # H0-b-b eff. coupling^2, normalised to SM
    0.00000000E+00    1.52508421E+02        3  36   5   5  # A0-b-b eff. coupling^2, normalised to SM
#
    9.99943892E-01    0.00000000E+00        3  25   6   6  # h0-t-t eff. coupling^2, normalised to SM
    6.61312290E-03    0.00000000E+00        3  35   6   6  # H0-t-t eff. coupling^2, normalised to SM
    0.00000000E+00    6.55701496E-03        3  36   6   6  # A0-t-t eff. coupling^2, normalised to SM
#
    1.00855693E+00    0.00000000E+00        3  25  15  15  # h0-tau-tau eff. coupling^2, normalised to SM
    1.52499864E+02    0.00000000E+00        3  35  15  15  # H0-tau-tau eff. coupling^2, normalised to SM
    0.00000000E+00    1.52508421E+02        3  36  15  15  # A0-tau-tau eff. coupling^2, normalised to SM
#
Block HiggsBoundsInputHiggsCouplingsBosons
    9.99999880E-01        3  25  24  24  # h0-W-W eff. coupling^2, normalised to SM
    1.19520538E-07        3  35  24  24  # H0-W-W eff. coupling^2, normalised to SM
    0.00000000E+00        3  36  24  24  # A0-W-W eff. coupling^2, normalised to SM
#
    9.99999880E-01        3  25  23  23  # h0-Z-Z eff. coupling^2, normalised to SM
    1.19520538E-07        3  35  23  23  # H0-Z-Z eff. coupling^2, normalised to SM
    0.00000000E+00        3  36  23  23  # A0-Z-Z eff. coupling^2, normalised to SM
#
    8.87088311E-01        3  25  21  21  # h0-g-g eff. coupling^2, normalised to SM
    7.06444575E-13        3  35  21  21  # H0-g-g eff. coupling^2, normalised to SM
    1.98102245E-11        3  36  21  21  # A0-g-g eff. coupling^2, normalised to SM
#
    0.00000000E+00        3  25  25  23  # h0-h0-Z eff. coupling^2, normalised to SM
    0.00000000E+00        3  35  25  23  # H0-h0-Z eff. coupling^2, normalised to SM
    1.19520538E-07        3  36  25  23  # A0-h0-Z eff. coupling^2, normalised to SM
    0.00000000E+00        3  35  35  23  # H0-H0-Z eff. coupling^2, normalised to SM
    9.99999880E-01        3  36  35  23  # A0-H0-Z eff. coupling^2, normalised to SM
    0.00000000E+00        3  36  36  23  # A0-A0-Z eff. coupling^2, normalised to SM
#
    0.00000000E+00        4  25  21  21  23  # h0-g-g-Z eff. coupling^2, normalised to SM
    0.00000000E+00        4  35  21  21  23  # H0-g-g-Z eff. coupling^2, normalised to SM
    0.00000000E+00        4  36  21  21  23  # A0-g-g-Z eff. coupling^2, normalised to SM
#
#
#
#                             =================
#                             |The decay table|
#                             =================
#
# - The QCD corrections to the decays gluino -> squark  + quark
#                                     squark -> gaugino + quark_prime
#                                     squark -> squark_prime + Higgs
#                                     squark -> gluino  + quark
#   are included.
#
# - The multi-body decays for the inos, stops and sbottoms are included.
#
# - The loop induced decays for the gluino, neutralinos and stops
#   are included.
#
# - The SUSY decays of the top quark are included.
#
#
#         PDG            Width
DECAY         6     1.43010424E+00   # top decays
#          BR         NDA      ID1       ID2
     1.00000000E+00    2           5        24   # BR(t ->  b    W+)
#
#         PDG            Width
DECAY   1000021     1.84939433E+02   # gluino decays
#          BR         NDA      ID1       ID2
     7.29534495E-03    2     1000001        -1   # BR(~g -> ~d_L  db)
     7.29534495E-03    2    -1000001         1   # BR(~g -> ~d_L* d )
     8.02360346E-03    2     2000001        -1   # BR(~g -> ~d_R  db)
     8.02360346E-03    2    -2000001         1   # BR(~g -> ~d_R* d )
     7.33161391E-03    2     1000002        -2   # BR(~g -> ~u_L  ub)
     7.33161391E-03    2    -1000002         2   # BR(~g -> ~u_L* u )
     1.54801220E-01    2     2000002        -2   # BR(~g -> ~u_R  ub)
     1.54801220E-01    2    -2000002         2   # BR(~g -> ~u_R* u )
     7.29534495E-03    2     1000003        -3   # BR(~g -> ~s_L  sb)
     7.29534495E-03    2    -1000003         3   # BR(~g -> ~s_L* s )
     8.02360346E-03    2     2000003        -3   # BR(~g -> ~s_R  sb)
     8.02360346E-03    2    -2000003         3   # BR(~g -> ~s_R* s )
     7.33154626E-03    2     1000004        -4   # BR(~g -> ~c_L  cb)
     7.33154626E-03    2    -1000004         4   # BR(~g -> ~c_L* c )
     1.54801216E-01    2     2000004        -4   # BR(~g -> ~c_R  cb)
     1.54801216E-01    2    -2000004         4   # BR(~g -> ~c_R* c )
     1.22688942E-01    2     1000005        -5   # BR(~g -> ~b_1  bb)
     1.22688942E-01    2    -1000005         5   # BR(~g -> ~b_1* b )
     1.09916577E-02    2     2000005        -5   # BR(~g -> ~b_2  bb)
     1.09916577E-02    2    -2000005         5   # BR(~g -> ~b_2* b )
     1.14159079E-02    2     1000006        -6   # BR(~g -> ~t_1  tb)
     1.14159079E-02    2    -1000006         6   # BR(~g -> ~t_1* t )
#
#         PDG            Width
DECAY   1000006     4.09883273E+01   # stop1 decays
#          BR         NDA      ID1       ID2
     4.66787815E-01    2     1000022         6   # BR(~t_1 -> ~chi_10 t )
     4.75013091E-01    2     1000023         6   # BR(~t_1 -> ~chi_20 t )
     4.00391903E-03    2     1000025         6   # BR(~t_1 -> ~chi_30 t )
     5.32433954E-02    2     1000024         5   # BR(~t_1 -> ~chi_1+ b )
     9.51779135E-04    2     1000005        24   # BR(~t_1 -> ~b_1    W+)
#
#         PDG            Width
DECAY   2000006     1.21936040E+02   # stop2 decays
#          BR         NDA      ID1       ID2
     1.91878365E-01    2     1000022         6   # BR(~t_2 -> ~chi_10 t )
     1.93758334E-01    2     1000023         6   # BR(~t_2 -> ~chi_20 t )
     3.49152483E-02    2     1000025         6   # BR(~t_2 -> ~chi_30 t )
     1.71363387E-04    2     1000035         6   # BR(~t_2 -> ~chi_40 t )
     3.82243114E-01    2     1000024         5   # BR(~t_2 -> ~chi_1+ b )
     3.62618090E-04    2     1000037         5   # BR(~t_2 -> ~chi_2+ b )
     4.60874433E-03    2     1000021         6   # BR(~t_2 -> ~g      t )
     5.40225050E-02    2     1000006        25   # BR(~t_2 -> ~t_1    h )
     4.72320149E-02    2     1000006        23   # BR(~t_2 -> ~t_1    Z )
     9.44226813E-06    2     1000005        24   # BR(~t_2 -> ~b_1    W+)
     9.07982510E-02    2     2000005        24   # BR(~t_2 -> ~b_2    W+)
#
#         PDG            Width
DECAY   1000005     1.20735191E+00   # sbottom1 decays
#          BR         NDA      ID1       ID2
     2.57206418E-01    2     1000022         5   # BR(~b_1 -> ~chi_10 b )
     2.53162344E-01    2     1000023         5   # BR(~b_1 -> ~chi_20 b )
     4.89631238E-01    2    -1000024         6   # BR(~b_1 -> ~chi_1- t )
#
#         PDG            Width
DECAY   2000005     4.01341453E+01   # sbottom2 decays
#          BR         NDA      ID1       ID2
     1.82652484E-02    2     1000022         5   # BR(~b_2 -> ~chi_10 b )
     1.80459228E-02    2     1000023         5   # BR(~b_2 -> ~chi_20 b )
     3.55540728E-03    2     1000025         5   # BR(~b_2 -> ~chi_30 b )
     9.59131435E-01    2    -1000024         6   # BR(~b_2 -> ~chi_1- t )
     4.89261931E-04    2     1000005        25   # BR(~b_2 -> ~b_1    h )
     5.12724586E-04    2     1000005        23   # BR(~b_2 -> ~b_1    Z )
#
#         PDG            Width
DECAY   1000002     1.98500742E-01   # sup_L decays
#          BR         NDA      ID1       ID2
     1.27094064E-02    2     1000022         2   # BR(~u_L -> ~chi_10 u)
     1.35052702E-02    2     1000023         2   # BR(~u_L -> ~chi_20 u)
     8.18292235E-01    2     1000025         2   # BR(~u_L -> ~chi_30 u)
     1.55493089E-01    2     1000024         1   # BR(~u_L -> ~chi_1+ d)
#
#         PDG            Width
DECAY   2000002     8.85450525E-04   # sup_R decays
#           BR         NDA      ID1       ID2
     5.45939324E-01    2     1000022         2   # BR(~u_R -> ~chi_10 u)
     4.35660992E-01    2     1000023         2   # BR(~u_R -> ~chi_20 u)
#           BR         NDA      ID1       ID2       ID3
     2.46021651E-03    3        2       23        1000022   # BR(~u_R -> u  Z  ~chi_10)
     2.28335739E-03    3        2       25        1000022   # BR(~u_R -> u  h  ~chi_10)
     3.17736556E-03    3        2       23        1000023   # BR(~u_R -> u  Z  ~chi_20)
     1.34824021E-03    3        2       25        1000023   # BR(~u_R -> u  h  ~chi_20)
     4.34818196E-04    3        2       -24        1000024   # BR(~u_R -> u  W-  ~chi_1+)
     8.69568630E-03    3        2       24        -1000024   # BR(~u_R -> u  W+  ~chi_1-)
#
#         PDG            Width
DECAY   1000001     1.67610532E-01   # sdown_L decays
#          BR         NDA      ID1       ID2
     3.22643260E-02    2     1000022         1   # BR(~d_L -> ~chi_10 d)
     3.15012213E-02    2     1000023         1   # BR(~d_L -> ~chi_20 d)
     9.36234396E-01    2     1000025         1   # BR(~d_L -> ~chi_30 d)
     5.71968750E-08    2    -1000024         2   # BR(~d_L -> ~chi_1- u)
#
#         PDG            Width
DECAY   2000001     6.26100898E-01   # sdown_R decays
#          BR         NDA      ID1       ID2
     8.62164641E-04    2     1000022         1   # BR(~d_R -> ~chi_10 d)
     6.92132284E-04    2     1000023         1   # BR(~d_R -> ~chi_20 d)
     9.98445703E-01    2     1000025         1   # BR(~d_R -> ~chi_30 d)
#
#         PDG            Width
DECAY   1000004     2.01293377E-01   # scharm_L decays
#          BR         NDA      ID1       ID2
     1.28200395E-02    2     1000022         4   # BR(~c_L -> ~chi_10 c)
     1.36225785E-02    2     1000023         4   # BR(~c_L -> ~chi_20 c)
     8.16712458E-01    2     1000025         4   # BR(~c_L -> ~chi_30 c)
     1.56844924E-01    2     1000024         3   # BR(~c_L -> ~chi_1+ s)
#
#         PDG            Width
DECAY   2000004     8.41694396E-04   # scharm_R decays
#           BR         NDA      ID1       ID2
     5.45408934E-01    2     1000022         4   # BR(~c_R -> ~chi_10 c)
     4.35229977E-01    2     1000023         4   # BR(~c_R -> ~chi_20 c)
#           BR         NDA      ID1       ID2       ID3
     2.56019288E-03    3        4       23        1000022   # BR(~c_R -> c  Z  ~chi_10)
     2.40788107E-03    3        4       25        1000022   # BR(~c_R -> c  h  ~chi_10)
     3.35335487E-03    3        4       23        1000023   # BR(~c_R -> c  Z  ~chi_20)
     1.42379468E-03    3        4       25        1000023   # BR(~c_R -> c  h  ~chi_20)
     4.54464235E-04    3        4       -24        1000024   # BR(~c_R -> c  W-  ~chi_1+)
     9.16140114E-03    3        4       24        -1000024   # BR(~c_R -> c  W+  ~chi_1-)
#
#         PDG            Width
DECAY   1000003     1.69761997E-01   # sstrange_L decays
#          BR         NDA      ID1       ID2
     3.25858008E-02    2     1000022         3   # BR(~s_L -> ~chi_10 s)
     3.18145028E-02    2     1000023         3   # BR(~s_L -> ~chi_20 s)
     9.35599639E-01    2     1000025         3   # BR(~s_L -> ~chi_30 s)
     5.77660950E-08    2    -1000024         4   # BR(~s_L -> ~chi_1- c)
#
#         PDG            Width
DECAY   2000003     6.33264685E-01   # sstrange_R decays
#          BR         NDA      ID1       ID2
     8.71435060E-04    2     1000022         3   # BR(~s_R -> ~chi_10 s)
     6.99561455E-04    2     1000023         3   # BR(~s_R -> ~chi_20 s)
     9.98429003E-01    2     1000025         3   # BR(~s_R -> ~chi_30 s)
#
#         PDG            Width
DECAY   1000011     6.11071857E-01   # selectron_L decays
#          BR         NDA      ID1       ID2
     9.99290362E-04    2     1000022        11   # BR(~e_L -> ~chi_10 e-)
     1.31559430E-03    2     1000023        11   # BR(~e_L -> ~chi_20 e-)
     9.97685102E-01    2     1000025        11   # BR(~e_L -> ~chi_30 e-)
     1.32056237E-08    2    -1000024        12   # BR(~e_L -> ~chi_1- nu_e)
#
#         PDG            Width
DECAY   2000011     2.09107829E+00   # selectron_R decays
#          BR         NDA      ID1       ID2
     1.92050985E-03    2     1000022        11   # BR(~e_R -> ~chi_10 e-)
     1.54142708E-03    2     1000023        11   # BR(~e_R -> ~chi_20 e-)
     9.96538063E-01    2     1000025        11   # BR(~e_R -> ~chi_30 e-)
#
#         PDG            Width
DECAY   1000013     6.11071844E-01   # smuon_L decays
#          BR         NDA      ID1       ID2
     9.99290378E-04    2     1000022        13   # BR(~mu_L -> ~chi_10 mu-)
     1.31559432E-03    2     1000023        13   # BR(~mu_L -> ~chi_20 mu-)
     9.97685102E-01    2     1000025        13   # BR(~mu_L -> ~chi_30 mu-)
     1.32056240E-08    2    -1000024        14   # BR(~mu_L -> ~chi_1- nu_mu)
#
#         PDG            Width
DECAY   2000013     2.09107824E+00   # smuon_R decays
#          BR         NDA      ID1       ID2
     1.92050989E-03    2     1000022        13   # BR(~mu_R -> ~chi_10 mu-)
     1.54142711E-03    2     1000023        13   # BR(~mu_R -> ~chi_20 mu-)
     9.96538063E-01    2     1000025        13   # BR(~mu_R -> ~chi_30 mu-)
#
#         PDG            Width
DECAY   1000015     2.06158593E+00   # stau_1 decays
#          BR         NDA      ID1       ID2
     2.11527671E-01    2     1000022        15   # BR(~tau_1 -> ~chi_10  tau-)
     2.08808497E-01    2     1000023        15   # BR(~tau_1 -> ~chi_20  tau-)
     5.79663540E-01    2     1000025        15   # BR(~tau_1 -> ~chi_30  tau-)
     2.92036092E-07    2    -1000024        16   # BR(~tau_1 -> ~chi_1-  nu_tau)
#
#         PDG            Width
DECAY   2000015     1.13557033E+01   # stau_2 decays
#          BR         NDA      ID1       ID2
     4.78051006E-02    2     1000022        15   # BR(~tau_2 -> ~chi_10  tau-)
     4.71160240E-02    2     1000023        15   # BR(~tau_2 -> ~chi_20  tau-)
     8.10998383E-01    2     1000025        15   # BR(~tau_2 -> ~chi_30  tau-)
     1.23751521E-07    2     1000035        15   # BR(~tau_2 -> ~chi_40  tau-)
     9.39904352E-02    2    -1000024        16   # BR(~tau_2 -> ~chi_1-  nu_tau)
     6.53358736E-08    2    -1000037        16   # BR(~tau_2 -> ~chi_2-  nu_tau)
     4.37035448E-05    2     1000016       -24   # BR(~tau_2 -> ~nu_tauL W-)
     2.38944319E-05    2     1000015        25   # BR(~tau_2 -> ~tau_1   h)
     2.22704708E-05    2     1000015        23   # BR(~tau_2 -> ~tau_1   Z)
#
#         PDG            Width
DECAY   1000012     6.41201626E-01   # snu_eL decays
#          BR         NDA      ID1       ID2
     1.23041316E-02    2     1000022        12   # BR(~nu_eL -> ~chi_10 nu_e)
     1.14779681E-02    2     1000023        12   # BR(~nu_eL -> ~chi_20 nu_e)
     9.35714907E-01    2     1000025        12   # BR(~nu_eL -> ~chi_30 nu_e)
     4.05029934E-02    2     1000024        11   # BR(~nu_eL -> ~chi_1+ e-)
#
#         PDG            Width
DECAY   1000014     6.41201626E-01   # snu_muL decays
#          BR         NDA      ID1       ID2
     1.23041316E-02    2     1000022        14   # BR(~nu_muL -> ~chi_10 nu_mu)
     1.14779681E-02    2     1000023        14   # BR(~nu_muL -> ~chi_20 nu_mu)
     9.35714907E-01    2     1000025        14   # BR(~nu_muL -> ~chi_30 nu_mu)
     4.05029932E-02    2     1000024        13   # BR(~nu_muL -> ~chi_1+ mu-)
#
#         PDG            Width
DECAY   1000016     2.09030110E+00   # snu_tauL decays
#          BR         NDA      ID1       ID2
     4.34060957E-03    2     1000022        16   # BR(~nu_tauL -> ~chi_10 nu_tau)
     4.04968703E-03    2     1000023        16   # BR(~nu_tauL -> ~chi_20 nu_tau)
     5.63766168E-01    2     1000025        16   # BR(~nu_tauL -> ~chi_30 nu_tau)
     4.27843535E-01    2     1000024        15   # BR(~nu_tauL -> ~chi_1+ tau-)
#
#         PDG            Width
DECAY   1000024     1.96979532E-11   # chargino1+ decays
#           BR         NDA      ID1       ID2       ID3
     5.99779707E-01    3     1000022         2        -1   # BR(~chi_1+ -> ~chi_10 u    db)
     1.99926718E-01    3     1000022       -11        12   # BR(~chi_1+ -> ~chi_10 e+   nu_e)
     1.99926718E-01    3     1000022       -13        14   # BR(~chi_1+ -> ~chi_10 mu+  nu_mu)
     3.66857162E-04    3     1000022       -15        16   # BR(~chi_1+ -> ~chi_10 tau+ nu_tau)
#
#         PDG            Width
DECAY   1000037     3.39397544E+01   # chargino2+ decays
#          BR         NDA      ID1       ID2
     2.84760217E-03    2     1000002        -1   # BR(~chi_2+ -> ~u_L     db)
     2.78294121E-03    2    -1000001         2   # BR(~chi_2+ -> ~d_L*    u )
     2.84756614E-03    2     1000004        -3   # BR(~chi_2+ -> ~c_L     sb)
     2.78236352E-03    2    -1000003         4   # BR(~chi_2+ -> ~s_L*     c )
     1.19287823E-02    2     1000006        -5   # BR(~chi_2+ -> ~t_1     bb)
     3.86884522E-06    2    -1000005         6   # BR(~chi_2+ -> ~b_1*    t )
     4.33968914E-02    2     1000012       -11   # BR(~chi_2+ -> ~nu_eL   e+  )
     4.33968914E-02    2     1000014       -13   # BR(~chi_2+ -> ~nu_muL mu+ )
     7.67439699E-03    2     1000016       -15   # BR(~chi_2+ -> ~nu_tau1 tau+)
     4.32403985E-02    2    -1000011        12   # BR(~chi_2+ -> ~e_L+    nu_e)
     4.32403985E-02    2    -1000013        14   # BR(~chi_2+ -> ~mu_L+   nu_mu)
     7.59197752E-03    2    -1000015        16   # BR(~chi_2+ -> ~tau_1+  nu_tau)
     1.71483186E-01    2     1000024        23   # BR(~chi_2+ -> ~chi_1+  Z )
     1.64810912E-01    2     1000022        24   # BR(~chi_2+ -> ~chi_10  W+)
     1.66953617E-01    2     1000023        24   # BR(~chi_2+ -> ~chi_20  W+)
     5.05318406E-04    2     1000025        24   # BR(~chi_2+ -> ~chi_30  W+)
     1.73609470E-01    2     1000024        25   # BR(~chi_2+ -> ~chi_1+  h )
     2.77769137E-02    2     1000024        35   # BR(~chi_2+ -> ~chi_1+  H )
     2.77742192E-02    2     1000024        36   # BR(~chi_2+ -> ~chi_1+  A )
     2.78507809E-02    2     1000022        37   # BR(~chi_2+ -> ~chi_10  H+)
     2.75015049E-02    2     1000023        37   # BR(~chi_2+ -> ~chi_20  H+)
#
#         PDG            Width
DECAY   1000022     0.00000000E+00   # neutralino1 decays
#
#         PDG            Width
DECAY   1000023     3.31290172E-10   # neutralino2 decays
#          BR         NDA      ID1       ID2
     1.57560256E-01    2     1000022        22   # BR(~chi_20 -> ~chi_10 gam)
#           BR         NDA      ID1       ID2       ID3
     1.18951330E-01    3     1000022        -2         2   # BR(~chi_20 -> ~chi_10 ub      u)
     1.54479810E-01    3     1000022        -1         1   # BR(~chi_20 -> ~chi_10 db      d)
     1.18951330E-01    3     1000022        -4         4   # BR(~chi_20 -> ~chi_10 cb      c)
     1.54479810E-01    3     1000022        -3         3   # BR(~chi_20 -> ~chi_10 sb      s)
     3.55369076E-02    3     1000022       -11        11   # BR(~chi_20 -> ~chi_10 e+      e-)
     3.55369076E-02    3     1000022       -13        13   # BR(~chi_20 -> ~chi_10 mu+     mu-)
     7.10660127E-02    3     1000022       -12        12   # BR(~chi_20 -> ~chi_10 nu_eb   nu_e)
     7.10660127E-02    3     1000022       -14        14   # BR(~chi_20 -> ~chi_10 nu_mub  nu_mu)
     7.10659840E-02    3     1000022       -16        16   # BR(~chi_20 -> ~chi_10 nu_taub nu_tau)
     3.39169037E-03    3     1000024        -2         1   # BR(~chi_20 -> ~chi_1+ ub      d)
     3.39169037E-03    3    -1000024        -1         2   # BR(~chi_20 -> ~chi_1- db      u)
     1.13056426E-03    3     1000024       -12        11   # BR(~chi_20 -> ~chi_1+ nu_eb   e-)
     1.13056426E-03    3    -1000024        12       -11   # BR(~chi_20 -> ~chi_1- nu_e    e+)
     1.13056426E-03    3     1000024       -14        13   # BR(~chi_20 -> ~chi_1+ nu_mub  mu-)
     1.13056426E-03    3    -1000024        14       -13   # BR(~chi_20 -> ~chi_1- nu_mu   mu+)
#
#         PDG            Width
DECAY   1000025     2.32844896E+01   # neutralino3 decays
#          BR         NDA      ID1       ID2
     2.06813939E-02    2     1000022        23   # BR(~chi_30 -> ~chi_10   Z )
     2.62860775E-02    2     1000023        23   # BR(~chi_30 -> ~chi_20   Z )
     4.57996976E-02    2     1000024       -24   # BR(~chi_30 -> ~chi_1+   W-)
     4.57996976E-02    2    -1000024        24   # BR(~chi_30 -> ~chi_1-   W+)
     2.69502217E-02    2     1000022        25   # BR(~chi_30 -> ~chi_10   h )
     2.17885212E-02    2     1000023        25   # BR(~chi_30 -> ~chi_20   h )
     1.94349853E-01    2     2000002        -2   # BR(~chi_30 -> ~u_R      ub)
     1.94349853E-01    2    -2000002         2   # BR(~chi_30 -> ~u_R*     u )
     1.94349781E-01    2     2000004        -4   # BR(~chi_30 -> ~c_R      cb)
     1.94349781E-01    2    -2000004         4   # BR(~chi_30 -> ~c_R*     c )
     1.76475606E-02    2     1000005        -5   # BR(~chi_30 -> ~b_1      bb)
     1.76475606E-02    2    -1000005         5   # BR(~chi_30 -> ~b_1*     b )
#
#         PDG            Width
DECAY   1000035     3.39109188E+01   # neutralino4 decays
#          BR         NDA      ID1       ID2
     8.52791131E-02    2     1000022        23   # BR(~chi_40 -> ~chi_10   Z )
     8.64049382E-02    2     1000023        23   # BR(~chi_40 -> ~chi_20   Z )
     2.57841214E-05    2     1000025        23   # BR(~chi_40 -> ~chi_30   Z )
     1.66299648E-01    2     1000024       -24   # BR(~chi_40 -> ~chi_1+   W-)
     1.66299648E-01    2    -1000024        24   # BR(~chi_40 -> ~chi_1-   W+)
     8.62991760E-02    2     1000022        25   # BR(~chi_40 -> ~chi_10   h )
     2.15331486E-02    2     1000022        35   # BR(~chi_40 -> ~chi_10   H )
     6.49030048E-03    2     1000022        36   # BR(~chi_40 -> ~chi_10   A )
     8.68321795E-02    2     1000023        25   # BR(~chi_40 -> ~chi_20   h )
     6.32106178E-03    2     1000023        35   # BR(~chi_40 -> ~chi_20   H )
     2.13353695E-02    2     1000023        36   # BR(~chi_40 -> ~chi_20   A )
     4.36046738E-04    2     1000025        25   # BR(~chi_40 -> ~chi_30   h )
     2.76357796E-02    2     1000024       -37   # BR(~chi_40 -> ~chi_1+   H-)
     2.76357796E-02    2    -1000024        37   # BR(~chi_40 -> ~chi_1-   H+)
     1.41940324E-03    2     1000002        -2   # BR(~chi_40 -> ~u_L      ub)
     1.41940324E-03    2    -1000002         2   # BR(~chi_40 -> ~u_L*     u )
     3.11013984E-07    2     2000002        -2   # BR(~chi_40 -> ~u_R      ub)
     3.11013984E-07    2    -2000002         2   # BR(~chi_40 -> ~u_R*     u )
     1.38636057E-03    2     1000001        -1   # BR(~chi_40 -> ~d_L      db)
     1.38636057E-03    2    -1000001         1   # BR(~chi_40 -> ~d_L*     d )
     3.58631179E-10    2     2000001        -1   # BR(~chi_40 -> ~d_R      db)
     3.58631179E-10    2    -2000001         1   # BR(~chi_40 -> ~d_R*     d )
     1.41911460E-03    2     1000004        -4   # BR(~chi_40 -> ~c_L      cb)
     1.41911460E-03    2    -1000004         4   # BR(~chi_40 -> ~c_L*     c )
     3.11013971E-07    2     2000004        -4   # BR(~chi_40 -> ~c_R      cb)
     3.11013971E-07    2    -2000004         4   # BR(~chi_40 -> ~c_R*     c )
     1.38636057E-03    2     1000003        -3   # BR(~chi_40 -> ~s _L      sb)
     1.38636057E-03    2    -1000003         3   # BR(~chi_40 -> ~s _L*     s )
     3.58631179E-10    2     2000003        -3   # BR(~chi_40 -> ~s _R      sb)
     3.58631179E-10    2    -2000003         3   # BR(~chi_40 -> ~s _R*     s )
     2.02022174E-06    2     1000005        -5   # BR(~chi_40 -> ~b_1      bb)
     2.02022174E-06    2    -1000005         5   # BR(~chi_40 -> ~b_1*     b )
     5.67206353E-03    2     2000005        -5   # BR(~chi_40 -> ~b_2      bb)
     5.67206353E-03    2    -2000005         5   # BR(~chi_40 -> ~b_2*     b )
     2.15871737E-02    2     1000011       -11   # BR(~chi_40 -> ~e_L-     e+)
     2.15871737E-02    2    -1000011        11   # BR(~chi_40 -> ~e_L+     e-)
     3.85453647E-08    2     2000011       -11   # BR(~chi_40 -> ~e_R-     e+)
     3.85453647E-08    2    -2000011        11   # BR(~chi_40 -> ~e_R+     e-)
     2.15871737E-02    2     1000013       -13   # BR(~chi_40 -> ~mu_L-    mu+)
     2.15871737E-02    2    -1000013        13   # BR(~chi_40 -> ~mu_L+    mu-)
     3.85453647E-08    2     2000013       -13   # BR(~chi_40 -> ~mu_R-    mu+)
     3.85453647E-08    2    -2000013        13   # BR(~chi_40 -> ~mu_R+    mu-)
     3.78673817E-03    2     1000015       -15   # BR(~chi_40 -> ~tau_1-   tau+)
     3.78673817E-03    2    -1000015        15   # BR(~chi_40 -> ~tau_1+   tau-)
     2.17480932E-02    2     1000012       -12   # BR(~chi_40 -> ~nu_eL    nu_eb)
     2.17480932E-02    2    -1000012        12   # BR(~chi_40 -> ~nu_eL*   nu_e )
     2.17480932E-02    2     1000014       -14   # BR(~chi_40 -> ~nu_muL   nu_mub)
     2.17480932E-02    2    -1000014        14   # BR(~chi_40 -> ~nu_muL*  nu_mu )
     3.84271909E-03    2     1000016       -16   # BR(~chi_40 -> ~nu_tau1  nu_taub)
     3.84271909E-03    2    -1000016        16   # BR(~chi_40 -> ~nu_tau1* nu_tau )
#
#         PDG            Width
DECAY        25     4.06329801E-03   # h decays
#          BR         NDA      ID1       ID2
     6.10338596E-01    2           5        -5   # BR(h -> b       bb     )
     6.40231515E-02    2         -15        15   # BR(h -> tau+    tau-   )
     2.26621082E-04    2         -13        13   # BR(h -> mu+     mu-    )
     2.47488343E-04    2           3        -3   # BR(h -> s       sb     )
     2.12896412E-02    2           4        -4   # BR(h -> c       cb     )
     7.77217258E-02    2          21        21   # BR(h -> g       g      )
     2.28570051E-03    2          22        22   # BR(h -> gam     gam    )
     1.48456966E-03    2          22        23   # BR(h -> Z       gam    )
     1.97805485E-01    2          24       -24   # BR(h -> W+      W-     )
     2.45770207E-02    2          23        23   # BR(h -> Z       Z      )
#
#         PDG            Width
DECAY        35     5.91265653E+00   # H decays
#          BR         NDA      ID1       ID2
     6.99857697E-01    2           5        -5   # BR(H -> b       bb     )
     1.26181125E-01    2         -15        15   # BR(H -> tau+    tau-   )
     4.46547648E-04    2         -13        13   # BR(H -> mu+     mu-    )
     2.82309536E-04    2           3        -3   # BR(H -> s       sb     )
     1.11316923E-06    2           4        -4   # BR(H -> c       cb     )
     1.08597448E-01    2           6        -6   # BR(H -> t       tb     )
     3.82735921E-05    2          21        21   # BR(H -> g       g      )
     8.26841043E-08    2          22        22   # BR(H -> gam     gam    )
     7.24440676E-08    2          23        22   # BR(H -> Z       gam    )
     8.36299783E-05    2          24       -24   # BR(H -> W+      W-     )
     4.16879798E-05    2          23        23   # BR(H -> Z       Z      )
     3.18886588E-04    2          25        25   # BR(H -> h       h      )
     4.21261718E-03    2     1000024  -1000024   # BR(H -> ~chi_1+ ~chi_1-)
     1.43372479E-03    2     1000022   1000022   # BR(H -> ~chi_10 ~chi_10)
     9.55449380E-04    2     1000023   1000023   # BR(H -> ~chi_20 ~chi_20)
     1.14588581E-05    2     1000022   1000023   # BR(H -> ~chi_10 ~chi_20)
     2.04609728E-02    2     1000022   1000025   # BR(H -> ~chi_10 ~chi_30)
     3.70596704E-02    2     1000023   1000025   # BR(H -> ~chi_20 ~chi_30)
     8.61694524E-06    2     2000002  -2000002   # BR(H -> ~u_R    ~u_R*  )
     8.61694524E-06    2     2000004  -2000004   # BR(H -> ~c_R    ~c_R*  )
#
#         PDG            Width
DECAY        36     5.91838910E+00   # A decays
#          BR         NDA      ID1       ID2
     6.99336955E-01    2           5        -5   # BR(A -> b       bb     )
     1.26063014E-01    2         -15        15   # BR(A -> tau+    tau-   )
     4.46128627E-04    2         -13        13   # BR(A -> mu+     mu-    )
     2.82176188E-04    2           3        -3   # BR(A -> s       sb     )
     1.11280482E-06    2           4        -4   # BR(A -> c       cb     )
     1.09167481E-01    2           6        -6   # BR(A -> t       tb     )
     2.02454187E-04    2          21        21   # BR(A -> g       g      )
     2.04199872E-07    2          22        22   # BR(A -> gam     gam    )
     2.03290712E-07    2          23        22   # BR(A -> Z       gam    )
     8.44556700E-05    2          23        25   # BR(A -> Z       h      )
     4.40826738E-03    2     1000024  -1000024   # BR(A -> ~chi_1+ ~chi_1-)
     1.08558925E-03    2     1000022   1000022   # BR(A -> ~chi_10 ~chi_10)
     1.38780445E-03    2     1000023   1000023   # BR(A -> ~chi_20 ~chi_20)
     2.08793858E-05    2     1000022   1000023   # BR(A -> ~chi_10 ~chi_20)
     3.76096370E-02    2     1000022   1000025   # BR(A -> ~chi_10 ~chi_30)
     1.99036378E-02    2     1000023   1000025   # BR(A -> ~chi_20 ~chi_30)
#
#         PDG            Width
DECAY        37     5.67166788E+00   # H+ decays
#          BR         NDA      ID1       ID2
     1.16812035E-03    2           4        -5   # BR(H+ -> c       bb     )
     1.31645983E-01    2         -15        16   # BR(H+ -> tau+    nu_tau )
     4.65886385E-04    2         -13        14   # BR(H+ -> mu+     nu_mu  )
     1.16811629E-05    2           2        -5   # BR(H+ -> u       bb     )
     1.47201561E-05    2           2        -3   # BR(H+ -> u       sb     )
     2.90850690E-04    2           4        -3   # BR(H+ -> c       sb     )
     8.04871439E-01    2           6        -5   # BR(H+ -> t       bb     )
     8.84206103E-05    2          24        25   # BR(H+ -> W+      h      )
     4.00753209E-12    2          24        36   # BR(H+ -> W+      A      )
     1.34256458E-04    2     1000024   1000022   # BR(H+ -> ~chi_1+ ~chi_10)
     1.65628775E-04    2     1000024   1000023   # BR(H+ -> ~chi_1+ ~chi_20)
     6.11430134E-02    2     1000024   1000025   # BR(H+ -> ~chi_1+ ~chi_30)
