#
#                              ======================
#                              | THE SUSYHIT OUTPUT |
#                              ======================
#
#
#              ------------------------------------------------------
#              |     This is the output of the SUSY-HIT package     |
#              |  created by A.Djouadi, M.Muehlleitner and M.Spira. |
#              |  In case of problems with SUSY-HIT email to        |
#              |           margarete.muehlleitner@cern.ch           |
#              |           michael.spira@psi.ch                     |
#              |           abdelhak.djouadi@cern.ch                 |
#              ------------------------------------------------------
#
#              ------------------------------------------------------
#              |  SUSY Les Houches Accord - MSSM Spectrum + Decays  |
#              |              based on the decay programs           |
#              |                                                    |
#              |                     SDECAY 1.3b                    |
#              |                                                    |
#              |  Authors: M.Muhlleitner, A.Djouadi and Y.Mambrini  |
#              |  Ref.:    Comput.Phys.Commun.168(2005)46           |
#              |           [hep-ph/0311167]                         |
#              |                                                    |
#              |                     HDECAY 3.4                     |
#              |                                                    |
#              |  By: A.Djouadi,J.Kalinowski,M.Muhlleitner,M.Spira  |
#              |  Ref.:    Comput.Phys.Commun.108(1998)56           |
#              |           [hep-ph/9704448]                         |
#              |                                                    |
#              |                                                    |
#              |  If not stated otherwise all DRbar couplings and   |
#              |  soft SUSY breaking masses are given at the scale  |
#              |  Q=  0.34458610E+04
#              |                                                    |
#              ------------------------------------------------------
#
#
BLOCK DCINFO  # Decay Program information
     1   SDECAY/HDECAY # decay calculator
     2   1.3b  /3.4    # version number
#
BLOCK SPINFO  # Spectrum calculator information
     1     SOFTSUSY    # spectrum calculator               
     2     3.4.0       # version number                    
#
BLOCK MODSEL  # Model selection
     1     0   #  nonUniversal                                     
#
BLOCK SMINPUTS  # Standard Model inputs
         1     1.27908970E+02   # alpha_em^-1(M_Z)^MSbar
         2     1.16637870E-05   # G_F [GeV^-2]
         3     1.18400000E-01   # alpha_S(M_Z)^MSbar
         4     9.11876000E+01   # M_Z pole mass
         5     4.18000000E+00   # mb(mb)^MSbar
         6     1.73200000E+02   # mt pole mass
         7     1.77700000E+00   # mtau pole mass
#
BLOCK MINPAR  # Input parameters - minimal models
         3     5.62100000E+01   # tanb                
#
BLOCK EXTPAR  # Input parameters - non-minimal models
         0    -1.00000000E+00   # Set                 
         1    -1.50129000E+03   # M_1(MX)             
         2     9.90960000E+02   # M_2(MX)             
         3     1.82580000E+03   # M_3(MX)             
        11     2.53465000E+03   # At(MX)              
        12    -2.79444000E+03   # Ab(MX)              
        13    -1.80780000E+03   # Atau(MX)            
        23    -2.92250000E+02   # mu(MX)              
        26     1.67854000E+03   # mA(pole)            
        31     2.38390000E+03   # meL(MX)             
        32     2.38390000E+03   # mmuL(MX)            
        33     1.64919000E+03   # mtauL(MX)           
        34     2.35027000E+03   # meR(MX)             
        35     2.35027000E+03   # mmuR(MX)            
        36     1.62343000E+03   # mtauR(MX)           
        41     2.23552000E+03   # mqL1(MX)            
        42     2.23552000E+03   # mqL2(MX)            
        43     3.49838000E+03   # mqL3(MX)            
        44     1.17203000E+03   # muR(MX)             
        45     1.17203000E+03   # mcR(MX)             
        46     3.39054000E+03   # mtR(MX)             
        47     2.21250000E+02   # mdR(MX)             
        48     2.21250000E+02   # msR(MX)             
        49     3.52974000E+03   # mbR(MX)             
#
BLOCK MASS  # Mass Spectrum
# PDG code           mass       particle
        24     8.03790807E+01   # W+
        25     1.24984039E+02   # h
        35     1.67853473E+03   # H
        36     1.67854001E+03   # A
        37     1.68104116E+03   # H+
         5     4.81876030E+00   # b-quark pole mass calculated from mb(mb)_Msbar
   1000001     2.32443272E+03   # ~d_L
   2000001     5.69433879E+02   # ~d_R
   1000002     2.32322845E+03   # ~u_L
   2000002     1.31306018E+03   # ~u_R
   1000003     2.32443272E+03   # ~s_L
   2000003     5.69433879E+02   # ~s_R
   1000004     2.32322845E+03   # ~c_L
   2000004     1.31306018E+03   # ~c_R
   1000005     3.49984711E+03   # ~b_1
   2000005     3.52870041E+03   # ~b_2
   1000006     3.37208530E+03   # ~t_1
   2000006     3.52014171E+03   # ~t_2
   1000011     2.39239539E+03   # ~e_L
   2000011     2.35706988E+03   # ~e_R
   1000012     2.39075297E+03   # ~nu_eL
   1000013     2.39239539E+03   # ~mu_L
   2000013     2.35706988E+03   # ~mu_R
   1000014     2.39075297E+03   # ~nu_muL
   1000015     1.59799094E+03   # ~tau_1
   2000015     1.64504558E+03   # ~tau_2
   1000016     1.64135773E+03   # ~nu_tauL
   1000021     2.00536280E+03   # ~g
   1000022     3.07498269E+02   # ~chi_10
   1000023    -3.12525047E+02   # ~chi_20
   1000025     1.03125551E+03   # ~chi_30
   1000035    -1.47134742E+03   # ~chi_40
   1000024     3.09642955E+02   # ~chi_1+
   1000037     1.03143901E+03   # ~chi_2+
#
BLOCK NMIX  # Neutralino Mixing Matrix
  1  1     1.68848224E-02   # N_11
  1  2     7.55348672E-02   # N_12
  1  3     7.09151373E-01   # N_13
  1  4     7.00795061E-01   # N_14
  2  1     2.71181679E-02   # N_21
  2  2     4.27337299E-02   # N_22
  2  3    -7.04627504E-01   # N_23
  2  4     7.07770100E-01   # N_24
  3  1    -1.46146095E-03   # N_31
  3  2     9.96226558E-01   # N_32
  3  3    -2.35361527E-02   # N_33
  3  4    -8.35258017E-02   # N_34
  4  1     9.99488555E-01   # N_41
  4  2    -9.78807674E-04   # N_42
  4  3     7.10354786E-03   # N_43
  4  4    -3.11642370E-02   # N_44
#
BLOCK UMIX  # Chargino Mixing Matrix U
  1  1     3.33946614E-02   # U_11
  1  2     9.99442243E-01   # U_12
  2  1    -9.99442243E-01   # U_21
  2  2     3.33946614E-02   # U_22
#
BLOCK VMIX  # Chargino Mixing Matrix V
  1  1     1.18409113E-01   # V_11
  1  2    -9.92964895E-01   # V_12
  2  1    -9.92964895E-01   # V_21
  2  2    -1.18409113E-01   # V_22
#
BLOCK STOPMIX  # Stop Mixing Matrix
  1  1    -3.41417899E-01   # cos(theta_t)
  1  2     9.39911601E-01   # sin(theta_t)
  2  1    -9.39911601E-01   # -sin(theta_t)
  2  2    -3.41417899E-01   # cos(theta_t)
#
BLOCK SBOTMIX  # Sbottom Mixing Matrix
  1  1     9.85617567E-01   # cos(theta_b)
  1  2    -1.68991158E-01   # sin(theta_b)
  2  1     1.68991158E-01   # -sin(theta_b)
  2  2     9.85617567E-01   # cos(theta_b)
#
BLOCK STAUMIX  # Stau Mixing Matrix
  1  1    -1.76974799E-01   # cos(theta_tau)
  1  2     9.84215383E-01   # sin(theta_tau)
  2  1    -9.84215383E-01   # -sin(theta_tau)
  2  2    -1.76974799E-01   # cos(theta_tau)
#
BLOCK ALPHA  # Higgs mixing
          -1.78881951E-02   # Mixing angle in the neutral Higgs boson sector
#
BLOCK HMIX Q=  3.44586100E+03  # DRbar Higgs Parameters
         1    -3.03382484E+02   # mu(Q)MSSM           
         2     5.63210668E+01   # tan                 
         3     2.41770804E+02   # higgs               
         4     2.65418186E+06   # mA^2(Q)MSSM         
#
BLOCK GAUGE Q=  3.44586100E+03  # The gauge couplings
     1     3.66001259E-01   # gprime(Q) DRbar
     2     6.40434843E-01   # g(Q) DRbar
     3     1.01842086E+00   # g3(Q) DRbar
#
BLOCK AU Q=  3.44586100E+03  # The trilinear couplings
  1  1     0.00000000E+00   # A_u(Q) DRbar
  2  2     0.00000000E+00   # A_c(Q) DRbar
  3  3     2.53465002E+03   # A_t(Q) DRbar
#
BLOCK AD Q=  3.44586100E+03  # The trilinear couplings
  1  1     0.00000000E+00   # A_d(Q) DRbar
  2  2     0.00000000E+00   # A_s(Q) DRbar
  3  3    -2.79443998E+03   # A_b(Q) DRbar
#
BLOCK AE Q=  3.44586100E+03  # The trilinear couplings
  1  1     0.00000000E+00   # A_e(Q) DRbar
  2  2     0.00000000E+00   # A_mu(Q) DRbar
  3  3    -1.80779999E+03   # A_tau(Q) DRbar
#
BLOCK Yu Q=  3.44586100E+03  # The Yukawa couplings
  1  1     0.00000000E+00   # y_u(Q) DRbar
  2  2     0.00000000E+00   # y_c(Q) DRbar
  3  3     8.25896482E-01   # y_t(Q) DRbar
#
BLOCK Yd Q=  3.44586100E+03  # The Yukawa couplings
  1  1     0.00000000E+00   # y_d(Q) DRbar
  2  2     0.00000000E+00   # y_s(Q) DRbar
  3  3     7.84506728E-01   # y_b(Q) DRbar
#
BLOCK Ye Q=  3.44586100E+03  # The Yukawa couplings
  1  1     0.00000000E+00   # y_e(Q) DRbar
  2  2     0.00000000E+00   # y_mu(Q) DRbar
  3  3     5.60543274E-01   # y_tau(Q) DRbar
#
BLOCK MSOFT Q=  3.44586100E+03  # The soft SUSY breaking masses at the scale Q
         1    -1.50129000E+03   # M_1(Q)              
         2     9.90960000E+02   # M_2(Q)              
         3     1.82580000E+03   # M_3(Q)              
        21     3.14073041E+06   # mH1^2(Q)            
        22     1.76713466E+05   # mH2^2(Q)            
        31     2.38390000E+03   # meL(Q)              
        32     2.38390000E+03   # mmuL(Q)             
        33     1.64919000E+03   # mtauL(Q)            
        34     2.35027000E+03   # meR(Q)              
        35     2.35027000E+03   # mmuR(Q)             
        36     1.62343000E+03   # mtauR(Q)            
        41     2.23551999E+03   # mqL1(Q)             
        42     2.23551999E+03   # mqL2(Q)             
        43     3.49837999E+03   # mqL3(Q)             
        44     1.17202999E+03   # muR(Q)              
        45     1.17202999E+03   # mcR(Q)              
        46     3.39053999E+03   # mtR(Q)              
        47     2.21249933E+02   # mdR(Q)              
        48     2.21249933E+02   # msR(Q)              
        49     3.52973998E+03   # mbR(Q)              
#
Block HiggsBoundsInputHiggsCouplingsFermions
# ScalarNormEffCoupSq PseudoSNormEffCoupSq NP   IP1 IP2 IP2
    1.01523214E+00    0.00000000E+00        3  25   5   5  # h0-b-b eff. coupling^2, normalised to SM
    3.17204733E+03    0.00000000E+00        3  35   5   5  # H0-b-b eff. coupling^2, normalised to SM
    0.00000000E+00    3.17206257E+03        3  36   5   5  # A0-b-b eff. coupling^2, normalised to SM
#
    9.99995198E-01    0.00000000E+00        3  25   6   6  # h0-t-t eff. coupling^2, normalised to SM
    3.20054261E-04    0.00000000E+00        3  35   6   6  # H0-t-t eff. coupling^2, normalised to SM
    0.00000000E+00    3.15252294E-04        3  36   6   6  # A0-t-t eff. coupling^2, normalised to SM
#
    1.01523214E+00    0.00000000E+00        3  25  15  15  # h0-tau-tau eff. coupling^2, normalised to SM
    3.17204733E+03    0.00000000E+00        3  35  15  15  # H0-tau-tau eff. coupling^2, normalised to SM
    0.00000000E+00    3.17206257E+03        3  36  15  15  # A0-tau-tau eff. coupling^2, normalised to SM
#
Block HiggsBoundsInputHiggsCouplingsBosons
    9.99999982E-01        3  25  24  24  # h0-W-W eff. coupling^2, normalised to SM
    1.81481448E-08        3  35  24  24  # H0-W-W eff. coupling^2, normalised to SM
    0.00000000E+00        3  36  24  24  # A0-W-W eff. coupling^2, normalised to SM
#
    9.99999982E-01        3  25  23  23  # h0-Z-Z eff. coupling^2, normalised to SM
    1.81481448E-08        3  35  23  23  # H0-Z-Z eff. coupling^2, normalised to SM
    0.00000000E+00        3  36  23  23  # A0-Z-Z eff. coupling^2, normalised to SM
#
    8.91912031E-01        3  25  21  21  # h0-g-g eff. coupling^2, normalised to SM
    7.84994815E-09        3  35  21  21  # H0-g-g eff. coupling^2, normalised to SM
    1.41500893E-08        3  36  21  21  # A0-g-g eff. coupling^2, normalised to SM
#
    0.00000000E+00        3  25  25  23  # h0-h0-Z eff. coupling^2, normalised to SM
    0.00000000E+00        3  35  25  23  # H0-h0-Z eff. coupling^2, normalised to SM
    1.81481448E-08        3  36  25  23  # A0-h0-Z eff. coupling^2, normalised to SM
    0.00000000E+00        3  35  35  23  # H0-H0-Z eff. coupling^2, normalised to SM
    9.99999982E-01        3  36  35  23  # A0-H0-Z eff. coupling^2, normalised to SM
    0.00000000E+00        3  36  36  23  # A0-A0-Z eff. coupling^2, normalised to SM
#
    0.00000000E+00        4  25  21  21  23  # h0-g-g-Z eff. coupling^2, normalised to SM
    0.00000000E+00        4  35  21  21  23  # H0-g-g-Z eff. coupling^2, normalised to SM
    0.00000000E+00        4  36  21  21  23  # A0-g-g-Z eff. coupling^2, normalised to SM
#
#
#
#                             =================
#                             |The decay table|
#                             =================
#
# - The QCD corrections to the decays gluino -> squark  + quark
#                                     squark -> gaugino + quark_prime
#                                     squark -> squark_prime + Higgs
#                                     squark -> gluino  + quark
#   are included.
#
# - The multi-body decays for the inos, stops and sbottoms are included.
#
# - The loop induced decays for the gluino, neutralinos and stops
#   are included.
#
# - The SUSY decays of the top quark are included.
#
#
#         PDG            Width
DECAY         6     1.44499694E+00   # top decays
#          BR         NDA      ID1       ID2
     1.00000000E+00    2           5        24   # BR(t ->  b    W+)
#
#         PDG            Width
DECAY   1000021     9.89033390E+01   # gluino decays
#          BR         NDA      ID1       ID2
     1.80361761E-01    2     2000001        -1   # BR(~g -> ~d_R  db)
     1.80361761E-01    2    -2000001         1   # BR(~g -> ~d_R* d )
     6.96382960E-02    2     2000002        -2   # BR(~g -> ~u_R  ub)
     6.96382960E-02    2    -2000002         2   # BR(~g -> ~u_R* u )
     1.80361761E-01    2     2000003        -3   # BR(~g -> ~s_R  sb)
     1.80361761E-01    2    -2000003         3   # BR(~g -> ~s_R* s )
     6.96381818E-02    2     2000004        -4   # BR(~g -> ~c_R  cb)
     6.96381818E-02    2    -2000004         4   # BR(~g -> ~c_R* c )
#
#         PDG            Width
DECAY   1000006     1.69053369E+02   # stop1 decays
#          BR         NDA      ID1       ID2
     1.26593690E-01    2     1000022         6   # BR(~t_1 -> ~chi_10 t )
     1.29972506E-01    2     1000023         6   # BR(~t_1 -> ~chi_20 t )
     1.58191327E-02    2     1000025         6   # BR(~t_1 -> ~chi_30 t )
     2.68855445E-02    2     1000035         6   # BR(~t_1 -> ~chi_40 t )
     2.44421729E-01    2     1000024         5   # BR(~t_1 -> ~chi_1+ b )
     3.11627528E-02    2     1000037         5   # BR(~t_1 -> ~chi_2+ b )
     4.25144646E-01    2     1000021         6   # BR(~t_1 -> ~g      t )
#
#         PDG            Width
DECAY   2000006     2.15892539E+02   # stop2 decays
#          BR         NDA      ID1       ID2
     1.09676522E-01    2     1000022         6   # BR(~t_2 -> ~chi_10 t )
     1.10840914E-01    2     1000023         6   # BR(~t_2 -> ~chi_20 t )
     4.47708365E-02    2     1000025         6   # BR(~t_2 -> ~chi_30 t )
     5.32835535E-03    2     1000035         6   # BR(~t_2 -> ~chi_40 t )
     2.12903051E-01    2     1000024         5   # BR(~t_2 -> ~chi_1+ b )
     8.64844507E-02    2     1000037         5   # BR(~t_2 -> ~chi_2+ b )
     4.26642907E-01    2     1000021         6   # BR(~t_2 -> ~g      t )
     1.50431597E-03    2     1000006        25   # BR(~t_2 -> ~t_1    h )
     1.84864817E-03    2     1000006        23   # BR(~t_2 -> ~t_1    Z )
#
#         PDG            Width
DECAY   1000005     2.10949892E+02   # sbottom1 decays
#          BR         NDA      ID1       ID2
     1.02732886E-01    2     1000022         5   # BR(~b_1 -> ~chi_10 b )
     9.86030946E-02    2     1000023         5   # BR(~b_1 -> ~chi_20 b )
     5.37762303E-02    2     1000025         5   # BR(~b_1 -> ~chi_30 b )
     1.72033344E-03    2     1000035         5   # BR(~b_1 -> ~chi_40 b )
     2.18141123E-01    2    -1000024         6   # BR(~b_1 -> ~chi_1- t )
     1.10971994E-01    2    -1000037         6   # BR(~b_1 -> ~chi_2- t )
     4.11541638E-01    2     1000021         5   # BR(~b_1 -> ~g      b )
     2.51269993E-03    2     1000006       -24   # BR(~b_1 -> ~t_1    W-)
#
#         PDG            Width
DECAY   2000005     1.76561211E+02   # sbottom2 decays
#          BR         NDA      ID1       ID2
     1.19038838E-01    2     1000022         5   # BR(~b_2 -> ~chi_10 b )
     1.20506808E-01    2     1000023         5   # BR(~b_2 -> ~chi_20 b )
     2.97112809E-03    2     1000025         5   # BR(~b_2 -> ~chi_30 b )
     8.03907769E-03    2     1000035         5   # BR(~b_2 -> ~chi_40 b )
     2.38700473E-01    2    -1000024         6   # BR(~b_2 -> ~chi_1- t )
     6.07254961E-03    2    -1000037         6   # BR(~b_2 -> ~chi_2- t )
     5.04454914E-01    2     1000021         5   # BR(~b_2 -> ~g      b )
     2.16211628E-04    2     1000006       -24   # BR(~b_2 -> ~t_1    W-)
#
#         PDG            Width
DECAY   1000002     2.98589402E+01   # sup_L decays
#          BR         NDA      ID1       ID2
     1.80973799E-03    2     1000022         2   # BR(~u_L -> ~chi_10 u)
     6.68764028E-04    2     1000023         2   # BR(~u_L -> ~chi_20 u)
     1.94586338E-01    2     1000025         2   # BR(~u_L -> ~chi_30 u)
     3.94506615E-03    2     1000035         2   # BR(~u_L -> ~chi_40 u)
     8.17883272E-03    2     1000024         1   # BR(~u_L -> ~chi_1+ d)
     3.86777955E-01    2     1000037         1   # BR(~u_L -> ~chi_2+ d)
     4.04033305E-01    2     1000021         2   # BR(~u_L -> ~g      u)
#
#         PDG            Width
DECAY   2000002     2.21597935E-02   # sup_R decays
#           BR         NDA      ID1       ID2
     3.57657806E-02    2     1000022         2   # BR(~u_R -> ~chi_10 u)
     9.19073230E-02    2     1000023         2   # BR(~u_R -> ~chi_20 u)
#           BR         NDA      ID1       ID2       ID3
     7.79790660E-02    3        2       -1        2000001   # BR(~u_R -> u  db  ~d_R)
     3.43292911E-01    3        2       1        -2000001   # BR(~u_R -> u  d  ~d_R*)
     7.85747394E-02    3        2       -3        2000003   # BR(~u_R -> u  sb  ~s_R)
     3.44529385E-01    3        2       3        -2000003   # BR(~u_R -> u  s  ~s_R*)
     5.56819268E-03    3        2       23        1000022   # BR(~u_R -> u  Z  ~chi_10)
     1.37334312E-03    3        2       25        1000022   # BR(~u_R -> u  h  ~chi_10)
     1.86332964E-03    3        2       23        1000023   # BR(~u_R -> u  Z  ~chi_20)
     5.14129339E-03    3        2       25        1000023   # BR(~u_R -> u  h  ~chi_20)
     1.01517191E-07    3        2       23        1000025   # BR(~u_R -> u  Z  ~chi_30)
     8.18103291E-08    3        2       25        1000025   # BR(~u_R -> u  h  ~chi_30)
     3.72101844E-03    3        2       -24        1000024   # BR(~u_R -> u  W-  ~chi_1+)
     1.02830381E-02    3        2       24        -1000024   # BR(~u_R -> u  W+  ~chi_1-)
     1.47984231E-08    3        2       -24        1000037   # BR(~u_R -> u  W-  ~chi_2+)
     3.82147063E-07    3        2       24        -1000037   # BR(~u_R -> u  W+  ~chi_2-)
#
#         PDG            Width
DECAY   1000001     2.98758110E+01   # sdown_L decays
#          BR         NDA      ID1       ID2
     1.52613731E-03    2     1000022         1   # BR(~d_L -> ~chi_10 d)
     4.11374869E-04    2     1000023         1   # BR(~d_L -> ~chi_20 d)
     1.94893741E-01    2     1000025         1   # BR(~d_L -> ~chi_30 d)
     4.03237638E-03    2     1000035         1   # BR(~d_L -> ~chi_40 d)
     6.50537230E-04    2    -1000024         2   # BR(~d_L -> ~chi_1- u)
     3.92021155E-01    2    -1000037         2   # BR(~d_L -> ~chi_2- u)
     4.06464679E-01    2     1000021         1   # BR(~d_L -> ~g      d)
#
#         PDG            Width
DECAY   2000001     1.77476937E-04   # sdown_R decays
#           BR         NDA      ID1       ID2
     2.84243984E-01    2     1000022         1   # BR(~d_R -> ~chi_10 d)
     7.13551431E-01    2     1000023         1   # BR(~d_R -> ~chi_20 d)
#           BR         NDA      ID1       ID2       ID3
     3.85717724E-04    3        1       23        1000022   # BR(~d_R -> d  Z  ~chi_10)
     7.56154589E-05    3        1       25        1000022   # BR(~d_R -> d  h  ~chi_10)
     7.53450012E-05    3        1       23        1000023   # BR(~d_R -> d  Z  ~chi_20)
     3.10074092E-04    3        1       25        1000023   # BR(~d_R -> d  h  ~chi_20)
     1.43534143E-04    3        1       -24        1000024   # BR(~d_R -> d  W-  ~chi_1+)
     1.21429863E-03    3        1       24        -1000024   # BR(~d_R -> d  W+  ~chi_1-)
#
#         PDG            Width
DECAY   1000004     2.68742206E+01   # scharm_L decays
#          BR         NDA      ID1       ID2
     2.11139949E-03    2     1000022         4   # BR(~c_L -> ~chi_10 c)
     7.80203826E-04    2     1000023         4   # BR(~c_L -> ~chi_20 c)
     2.25563862E-01    2     1000025         4   # BR(~c_L -> ~chi_30 c)
     4.53913670E-03    2     1000035         4   # BR(~c_L -> ~chi_40 c)
     9.54197097E-03    2     1000024         3   # BR(~c_L -> ~chi_1+ s)
     4.48351451E-01    2     1000037         3   # BR(~c_L -> ~chi_2+ s)
     3.09111976E-01    2     1000021         4   # BR(~c_L -> ~g      c)
#
#         PDG            Width
DECAY   2000004     2.20403332E-02   # scharm_R decays
#           BR         NDA      ID1       ID2
     3.59426416E-02    2     1000022         4   # BR(~c_R -> ~chi_10 c)
     9.23580661E-02    2     1000023         4   # BR(~c_R -> ~chi_20 c)
#           BR         NDA      ID1       ID2       ID3
     7.89779349E-02    3        4       -1        2000001   # BR(~c_R -> c  db  ~d_R)
     3.41278869E-01    3        4       1        -2000001   # BR(~c_R -> c  d  ~d_R*)
     7.90641405E-02    3        4       -3        2000003   # BR(~c_R -> c  sb  ~s_R)
     3.44209859E-01    3        4       3        -2000003   # BR(~c_R -> c  s  ~s_R*)
     5.62922524E-03    3        4       23        1000022   # BR(~c_R -> c  Z  ~chi_10)
     1.37475236E-03    3        4       25        1000022   # BR(~c_R -> c  h  ~chi_10)
     1.89026180E-03    3        4       23        1000023   # BR(~c_R -> c  Z  ~chi_20)
     5.18277101E-03    3        4       25        1000023   # BR(~c_R -> c  h  ~chi_20)
     1.02915867E-07    3        4       23        1000025   # BR(~c_R -> c  Z  ~chi_30)
     8.25486613E-08    3        4       25        1000025   # BR(~c_R -> c  h  ~chi_30)
     3.73578743E-03    3        4       -24        1000024   # BR(~c_R -> c  W-  ~chi_1+)
     1.03551066E-02    3        4       24        -1000024   # BR(~c_R -> c  W+  ~chi_1-)
     1.48745483E-08    3        4       -24        1000037   # BR(~c_R -> c  W-  ~chi_2+)
     3.84436111E-07    3        4       24        -1000037   # BR(~c_R -> c  W+  ~chi_2-)
#
#         PDG            Width
DECAY   1000003     2.68621381E+01   # sstrange_L decays
#          BR         NDA      ID1       ID2
     1.78233109E-03    2     1000022         3   # BR(~s_L -> ~chi_10 s)
     4.80411058E-04    2     1000023         3   # BR(~s_L -> ~chi_20 s)
     2.26150087E-01    2     1000025         3   # BR(~s_L -> ~chi_30 s)
     4.64438031E-03    2     1000035         3   # BR(~s_L -> ~chi_40 s)
     7.59728414E-04    2    -1000024         4   # BR(~s_L -> ~chi_1- c)
     4.54890724E-01    2    -1000037         4   # BR(~s_L -> ~chi_2- c)
     3.11292338E-01    2     1000021         3   # BR(~s_L -> ~g      s)
#
#         PDG            Width
DECAY   2000003     1.69733746E-04   # sstrange_R decays
#           BR         NDA      ID1       ID2
     2.84248874E-01    2     1000022         3   # BR(~s_R -> ~chi_10 s)
     7.13444455E-01    2     1000023         3   # BR(~s_R -> ~chi_20 s)
#           BR         NDA      ID1       ID2       ID3
     4.03903181E-04    3        3       23        1000022   # BR(~s_R -> s  Z  ~chi_10)
     7.91651649E-05    3        3       25        1000022   # BR(~s_R -> s  h  ~chi_10)
     7.87056216E-05    3        3       23        1000023   # BR(~s_R -> s  Z  ~chi_20)
     3.23883737E-04    3        3       25        1000023   # BR(~s_R -> s  h  ~chi_20)
     1.49846454E-04    3        3       -24        1000024   # BR(~s_R -> s  W-  ~chi_1+)
     1.27116737E-03    3        3       24        -1000024   # BR(~s_R -> s  W+  ~chi_1-)
#
#         PDG            Width
DECAY   1000011     2.06838110E+01   # selectron_L decays
#          BR         NDA      ID1       ID2
     3.31209547E-03    2     1000022        11   # BR(~e_L -> ~chi_10 e-)
     1.54602827E-03    2     1000023        11   # BR(~e_L -> ~chi_20 e-)
     3.09950836E-01    2     1000025        11   # BR(~e_L -> ~chi_30 e-)
     5.93174875E-02    2     1000035        11   # BR(~e_L -> ~chi_40 e-)
     1.01756702E-03    2    -1000024        12   # BR(~e_L -> ~chi_1- nu_e)
     6.24855986E-01    2    -1000037        12   # BR(~e_L -> ~chi_2- nu_e)
#
#         PDG            Width
DECAY   2000011     4.68756550E+00   # selectron_R decays
#          BR         NDA      ID1       ID2
     7.38300950E-04    2     1000022        11   # BR(~e_R -> ~chi_10 e-)
     1.90223987E-03    2     1000023        11   # BR(~e_R -> ~chi_20 e-)
     3.74257636E-06    2     1000025        11   # BR(~e_R -> ~chi_30 e-)
     9.97355717E-01    2     1000035        11   # BR(~e_R -> ~chi_40 e-)
#
#         PDG            Width
DECAY   1000013     2.06838109E+01   # smuon_L decays
#          BR         NDA      ID1       ID2
     3.31209546E-03    2     1000022        13   # BR(~mu_L -> ~chi_10 mu-)
     1.54602827E-03    2     1000023        13   # BR(~mu_L -> ~chi_20 mu-)
     3.09950835E-01    2     1000025        13   # BR(~mu_L -> ~chi_30 mu-)
     5.93174871E-02    2     1000035        13   # BR(~mu_L -> ~chi_40 mu-)
     1.01756702E-03    2    -1000024        14   # BR(~mu_L -> ~chi_1- nu_mu)
     6.24855987E-01    2    -1000037        14   # BR(~mu_L -> ~chi_2- nu_mu)
#
#         PDG            Width
DECAY   2000013     4.68756545E+00   # smuon_R decays
#          BR         NDA      ID1       ID2
     7.38300955E-04    2     1000022        13   # BR(~mu_R -> ~chi_10 mu-)
     1.90223988E-03    2     1000023        13   # BR(~mu_R -> ~chi_20 mu-)
     3.74257638E-06    2     1000025        13   # BR(~mu_R -> ~chi_30 mu-)
     9.97355717E-01    2     1000035        13   # BR(~mu_R -> ~chi_40 mu-)
#
#         PDG            Width
DECAY   1000015     1.87421080E+01   # stau_1 decays
#          BR         NDA      ID1       ID2
     2.55269590E-01    2     1000022        15   # BR(~tau_1 -> ~chi_10  tau-)
     2.42389336E-01    2     1000023        15   # BR(~tau_1 -> ~chi_20  tau-)
     2.57766324E-03    2     1000025        15   # BR(~tau_1 -> ~chi_30  tau-)
     1.02841919E-02    2     1000035        15   # BR(~tau_1 -> ~chi_40  tau-)
     4.84285216E-01    2    -1000024        16   # BR(~tau_1 -> ~chi_1-  nu_tau)
     5.19400198E-03    2    -1000037        16   # BR(~tau_1 -> ~chi_2-  nu_tau)
#
#         PDG            Width
DECAY   2000015     1.70664109E+01   # stau_2 decays
#          BR         NDA      ID1       ID2
     2.77388570E-01    2     1000022        15   # BR(~tau_2 -> ~chi_10  tau-)
     2.82245259E-01    2     1000023        15   # BR(~tau_2 -> ~chi_20  tau-)
     1.40645808E-01    2     1000025        15   # BR(~tau_2 -> ~chi_30  tau-)
     5.59175245E-03    2     1000035        15   # BR(~tau_2 -> ~chi_40  tau-)
     1.08818938E-02    2    -1000024        16   # BR(~tau_2 -> ~chi_1-  nu_tau)
     2.83246716E-01    2    -1000037        16   # BR(~tau_2 -> ~chi_2-  nu_tau)
#
#         PDG            Width
DECAY   1000012     2.07095135E+01   # snu_eL decays
#          BR         NDA      ID1       ID2
     1.97744174E-03    2     1000022        12   # BR(~nu_eL -> ~chi_10 nu_e)
     3.37544162E-04    2     1000023        12   # BR(~nu_eL -> ~chi_20 nu_e)
     3.10198100E-01    2     1000025        12   # BR(~nu_eL -> ~chi_30 nu_e)
     5.95107545E-02    2     1000035        12   # BR(~nu_eL -> ~chi_40 nu_e)
     1.27679526E-02    2     1000024        11   # BR(~nu_eL -> ~chi_1+ e-)
     6.15208207E-01    2     1000037        11   # BR(~nu_eL -> ~chi_2+ e-)
#
#         PDG            Width
DECAY   1000014     2.07095135E+01   # snu_muL decays
#          BR         NDA      ID1       ID2
     1.97744175E-03    2     1000022        14   # BR(~nu_muL -> ~chi_10 nu_mu)
     3.37544163E-04    2     1000023        14   # BR(~nu_muL -> ~chi_20 nu_mu)
     3.10198101E-01    2     1000025        14   # BR(~nu_muL -> ~chi_30 nu_mu)
     5.95107547E-02    2     1000035        14   # BR(~nu_muL -> ~chi_40 nu_mu)
     1.27679526E-02    2     1000024        13   # BR(~nu_muL -> ~chi_1+ mu-)
     6.15208206E-01    2     1000037        13   # BR(~nu_muL -> ~chi_2+ mu-)
#
#         PDG            Width
DECAY   1000016     1.71015851E+01   # snu_tauL decays
#          BR         NDA      ID1       ID2
     1.58256568E-03    2     1000022        16   # BR(~nu_tauL -> ~chi_10 nu_tau)
     2.69791552E-04    2     1000023        16   # BR(~nu_tauL -> ~chi_20 nu_tau)
     1.42601968E-01    2     1000025        16   # BR(~nu_tauL -> ~chi_30 nu_tau)
     4.94639158E-03    2     1000035        16   # BR(~nu_tauL -> ~chi_40 nu_tau)
     5.67659873E-01    2     1000024        15   # BR(~nu_tauL -> ~chi_1+ tau-)
     2.82939410E-01    2     1000037        15   # BR(~nu_tauL -> ~chi_2+ tau-)
#
#         PDG            Width
DECAY   1000024     4.91868782E-11   # chargino1+ decays
#           BR         NDA      ID1       ID2       ID3
     3.74481489E-01    3     1000022         2        -1   # BR(~chi_1+ -> ~chi_10 u    db)
     3.74481489E-01    3     1000022         4        -3   # BR(~chi_1+ -> ~chi_10 c    sb)
     1.24826909E-01    3     1000022       -11        12   # BR(~chi_1+ -> ~chi_10 e+   nu_e)
     1.24826909E-01    3     1000022       -13        14   # BR(~chi_1+ -> ~chi_10 mu+  nu_mu)
     1.38320465E-03    3     1000022       -15        16   # BR(~chi_1+ -> ~chi_10 tau+ nu_tau)
#
#         PDG            Width
DECAY   1000037     7.82778222E+00   # chargino2+ decays
#          BR         NDA      ID1       ID2
     2.54342344E-01    2     1000024        23   # BR(~chi_2+ -> ~chi_1+  Z )
     2.47219081E-01    2     1000022        24   # BR(~chi_2+ -> ~chi_10  W+)
     2.50542560E-01    2     1000023        24   # BR(~chi_2+ -> ~chi_20  W+)
     2.47896014E-01    2     1000024        25   # BR(~chi_2+ -> ~chi_1+  h )
#
#         PDG            Width
DECAY   1000022     0.00000000E+00   # neutralino1 decays
#
#         PDG            Width
DECAY   1000023     3.25693714E-09   # neutralino2 decays
#          BR         NDA      ID1       ID2
     5.21149489E-02    2     1000022        22   # BR(~chi_20 -> ~chi_10 gam)
#           BR         NDA      ID1       ID2       ID3
     1.15226003E-01    3     1000022        -2         2   # BR(~chi_20 -> ~chi_10 ub      u)
     1.49570355E-01    3     1000022        -1         1   # BR(~chi_20 -> ~chi_10 db      d)
     1.15226003E-01    3     1000022        -4         4   # BR(~chi_20 -> ~chi_10 cb      c)
     1.49570355E-01    3     1000022        -3         3   # BR(~chi_20 -> ~chi_10 sb      s)
     3.43624650E-02    3     1000022       -11        11   # BR(~chi_20 -> ~chi_10 e+      e-)
     3.43624650E-02    3     1000022       -13        13   # BR(~chi_20 -> ~chi_10 mu+     mu-)
     1.09925589E-02    3     1000022       -15        15   # BR(~chi_20 -> ~chi_10 tau+    tau-)
     6.87101385E-02    3     1000022       -12        12   # BR(~chi_20 -> ~chi_10 nu_eb   nu_e)
     6.87101385E-02    3     1000022       -14        14   # BR(~chi_20 -> ~chi_10 nu_mub  nu_mu)
     6.87104595E-02    3     1000022       -16        16   # BR(~chi_20 -> ~chi_10 nu_taub nu_tau)
     2.44084880E-02    3     1000024        -2         1   # BR(~chi_20 -> ~chi_1+ ub      d)
     2.44084880E-02    3    -1000024        -1         2   # BR(~chi_20 -> ~chi_1- db      u)
     2.44084880E-02    3     1000024        -4         3   # BR(~chi_20 -> ~chi_1+ cb      s)
     2.44084880E-02    3    -1000024        -3         4   # BR(~chi_20 -> ~chi_1- sb      c)
     8.13613050E-03    3     1000024       -12        11   # BR(~chi_20 -> ~chi_1+ nu_eb   e-)
     8.13613050E-03    3    -1000024        12       -11   # BR(~chi_20 -> ~chi_1- nu_e    e+)
     8.13613050E-03    3     1000024       -14        13   # BR(~chi_20 -> ~chi_1+ nu_mub  mu-)
     8.13613050E-03    3    -1000024        14       -13   # BR(~chi_20 -> ~chi_1- nu_mu   mu+)
     1.13281754E-03    3     1000024       -16        15   # BR(~chi_20 -> ~chi_1+ nu_taub tau-)
     1.13281754E-03    3    -1000024        16       -15   # BR(~chi_20 -> ~chi_1- nu_tau  tau+)
#
#         PDG            Width
DECAY   1000025     7.82394304E+00   # neutralino3 decays
#          BR         NDA      ID1       ID2
     6.14010652E-02    2     1000022        23   # BR(~chi_30 -> ~chi_10   Z )
     1.92424862E-01    2     1000023        23   # BR(~chi_30 -> ~chi_20   Z )
     2.51260516E-01    2     1000024       -24   # BR(~chi_30 -> ~chi_1+   W-)
     2.51260516E-01    2    -1000024        24   # BR(~chi_30 -> ~chi_1-   W+)
     1.85854379E-01    2     1000022        25   # BR(~chi_30 -> ~chi_10   h )
     5.77981701E-02    2     1000023        25   # BR(~chi_30 -> ~chi_20   h )
     1.22968455E-07    2     2000001        -1   # BR(~chi_30 -> ~d_R      db)
     1.22968455E-07    2    -2000001         1   # BR(~chi_30 -> ~d_R*     d )
     1.22968455E-07    2     2000003        -3   # BR(~chi_30 -> ~s _R      sb)
     1.22968455E-07    2    -2000003         3   # BR(~chi_30 -> ~s _R*     s )
#
#         PDG            Width
DECAY   1000035     8.34076415E+00   # neutralino4 decays
#          BR         NDA      ID1       ID2
     7.81096272E-02    2     1000022        23   # BR(~chi_40 -> ~chi_10   Z )
     3.16307341E-02    2     1000023        23   # BR(~chi_40 -> ~chi_20   Z )
     1.17826944E-04    2     1000025        23   # BR(~chi_40 -> ~chi_30   Z )
     1.06907848E-01    2     1000024       -24   # BR(~chi_40 -> ~chi_1+   W-)
     1.06907848E-01    2    -1000024        24   # BR(~chi_40 -> ~chi_1-   W+)
     1.20971778E-04    2     1000037       -24   # BR(~chi_40 -> ~chi_2+   W-)
     1.20971778E-04    2    -1000037        24   # BR(~chi_40 -> ~chi_2-   W+)
     3.30548321E-02    2     1000022        25   # BR(~chi_40 -> ~chi_10   h )
     8.50084089E-02    2     1000023        25   # BR(~chi_40 -> ~chi_20   h )
     3.85408928E-06    2     1000025        25   # BR(~chi_40 -> ~chi_30   h )
     2.68515062E-02    2     2000002        -2   # BR(~chi_40 -> ~u_R      ub)
     2.68515062E-02    2    -2000002         2   # BR(~chi_40 -> ~u_R*     u )
     1.12653353E-01    2     2000001        -1   # BR(~chi_40 -> ~d_R      db)
     1.12653353E-01    2    -2000001         1   # BR(~chi_40 -> ~d_R*     d )
     2.68503267E-02    2     2000004        -4   # BR(~chi_40 -> ~c_R      cb)
     2.68503267E-02    2    -2000004         4   # BR(~chi_40 -> ~c_R*     c )
     1.12653353E-01    2     2000003        -3   # BR(~chi_40 -> ~s _R      sb)
     1.12653353E-01    2    -2000003         3   # BR(~chi_40 -> ~s _R*     s )
#
#         PDG            Width
DECAY        25     4.00172185E-03   # h decays
#          BR         NDA      ID1       ID2
     5.92298479E-01    2           5        -5   # BR(h -> b       bb     )
     6.56611048E-02    2         -15        15   # BR(h -> tau+    tau-   )
     2.32382118E-04    2         -13        13   # BR(h -> mu+     mu-    )
     2.54034217E-04    2           3        -3   # BR(h -> s       sb     )
     2.16707586E-02    2           4        -4   # BR(h -> c       cb     )
     7.98428274E-02    2          21        21   # BR(h -> g       g      )
     2.35074960E-03    2          22        22   # BR(h -> gam     gam    )
     1.55806867E-03    2          22        23   # BR(h -> Z       gam    )
     2.09968953E-01    2          24       -24   # BR(h -> W+      W-     )
     2.61626427E-02    2          23        23   # BR(h -> Z       Z      )
#
#         PDG            Width
DECAY        35     8.81894221E+01   # H decays
#          BR         NDA      ID1       ID2
     7.89344588E-01    2           5        -5   # BR(H -> b       bb     )
     1.31813771E-01    2         -15        15   # BR(H -> tau+    tau-   )
     4.57209725E-04    2         -13        13   # BR(H -> mu+     mu-    )
     3.78231936E-04    2           3        -3   # BR(H -> s       sb     )
     2.70820003E-09    2           4        -4   # BR(H -> c       cb     )
     2.59083483E-04    2           6        -6   # BR(H -> t       tb     )
     3.57179345E-05    2          21        21   # BR(H -> g       g      )
     2.61618379E-08    2          22        22   # BR(H -> gam     gam    )
     1.66171391E-08    2          23        22   # BR(H -> Z       gam    )
     3.09649563E-07    2          24       -24   # BR(H -> W+      W-     )
     1.54044158E-07    2          23        23   # BR(H -> Z       Z      )
     1.26952364E-06    2          25        25   # BR(H -> h       h      )
     1.83279829E-03    2     1000024  -1000024   # BR(H -> ~chi_1+ ~chi_1-)
     2.51136837E-02    2     1000024  -1000037   # BR(H -> ~chi_1+ ~chi_2-)
     2.51136837E-02    2     1000037  -1000024   # BR(H -> ~chi_2+ ~chi_1-)
     2.99295293E-04    2     1000022   1000022   # BR(H -> ~chi_10 ~chi_10)
     4.91354973E-05    2     1000023   1000023   # BR(H -> ~chi_20 ~chi_20)
     4.93374149E-05    2     1000022   1000023   # BR(H -> ~chi_10 ~chi_20)
     8.23434669E-03    2     1000022   1000025   # BR(H -> ~chi_10 ~chi_30)
     1.70173191E-02    2     1000023   1000025   # BR(H -> ~chi_20 ~chi_30)
     9.48122117E-09    2     2000001  -2000001   # BR(H -> ~d_R    ~d_R*  )
     9.48122117E-09    2     2000003  -2000003   # BR(H -> ~s_R    ~s_R*  )
#
#         PDG            Width
DECAY        36     8.81895858E+01   # A decays
#          BR         NDA      ID1       ID2
     7.89361654E-01    2           5        -5   # BR(A -> b       bb     )
     1.31815149E-01    2         -15        15   # BR(A -> tau+    tau-   )
     4.57212481E-04    2         -13        13   # BR(A -> mu+     mu-    )
     3.78242321E-04    2           3        -3   # BR(A -> s       sb     )
     2.69207500E-09    2           4        -4   # BR(A -> c       cb     )
     2.63088609E-04    2           6        -6   # BR(A -> t       tb     )
     4.79558632E-05    2          21        21   # BR(A -> g       g      )
     1.32035520E-08    2          22        22   # BR(A -> gam     gam    )
     2.45431522E-08    2          23        22   # BR(A -> Z       gam    )
     3.11268647E-07    2          23        25   # BR(A -> Z       h      )
     2.07964320E-03    2     1000024  -1000024   # BR(A -> ~chi_1+ ~chi_1-)
     2.49751030E-02    2     1000024  -1000037   # BR(A -> ~chi_1+ ~chi_2-)
     2.49751030E-02    2     1000037  -1000024   # BR(A -> ~chi_2+ ~chi_1-)
     3.22187075E-04    2     1000022   1000022   # BR(A -> ~chi_10 ~chi_10)
     6.12817595E-05    2     1000023   1000023   # BR(A -> ~chi_20 ~chi_20)
     5.08862316E-05    2     1000022   1000023   # BR(A -> ~chi_10 ~chi_20)
     1.71761398E-02    2     1000022   1000025   # BR(A -> ~chi_10 ~chi_30)
     8.03600184E-03    2     1000023   1000025   # BR(A -> ~chi_20 ~chi_30)
#
#         PDG            Width
DECAY        37     8.84852406E+01   # H+ decays
#          BR         NDA      ID1       ID2
     1.33388039E-03    2           4        -5   # BR(H+ -> c       bb     )
     1.31570475E-01    2         -15        16   # BR(H+ -> tau+    nu_tau )
     4.56363806E-04    2         -13        14   # BR(H+ -> mu+     nu_mu  )
     1.33387566E-05    2           2        -5   # BR(H+ -> u       bb     )
     1.88423274E-05    2           2        -3   # BR(H+ -> u       sb     )
     3.70876584E-04    2           4        -3   # BR(H+ -> c       sb     )
     7.89202077E-01    2           6        -5   # BR(H+ -> t       bb     )
     3.12267574E-07    2          24        25   # BR(H+ -> W+      h      )
     1.45361478E-12    2          24        36   # BR(H+ -> W+      A      )
     1.82340997E-04    2     1000024   1000022   # BR(H+ -> ~chi_1+ ~chi_10)
     5.69940674E-04    2     1000024   1000023   # BR(H+ -> ~chi_1+ ~chi_20)
     2.53202040E-02    2     1000024   1000025   # BR(H+ -> ~chi_1+ ~chi_30)
     2.58580297E-02    2     1000037   1000022   # BR(H+ -> ~chi_2+ ~chi_10)
     2.51033184E-02    2     1000037   1000023   # BR(H+ -> ~chi_2+ ~chi_20)
