#
#                              ======================
#                              | THE SUSYHIT OUTPUT |
#                              ======================
#
#
#              ------------------------------------------------------
#              |     This is the output of the SUSY-HIT package     |
#              |  created by A.Djouadi, M.Muehlleitner and M.Spira. |
#              |  In case of problems with SUSY-HIT email to        |
#              |           margarete.muehlleitner@cern.ch           |
#              |           michael.spira@psi.ch                     |
#              |           abdelhak.djouadi@cern.ch                 |
#              ------------------------------------------------------
#
#              ------------------------------------------------------
#              |  SUSY Les Houches Accord - MSSM Spectrum + Decays  |
#              |              based on the decay programs           |
#              |                                                    |
#              |                     SDECAY 1.3b                    |
#              |                                                    |
#              |  Authors: M.Muhlleitner, A.Djouadi and Y.Mambrini  |
#              |  Ref.:    Comput.Phys.Commun.168(2005)46           |
#              |           [hep-ph/0311167]                         |
#              |                                                    |
#              |                     HDECAY 3.4                     |
#              |                                                    |
#              |  By: A.Djouadi,J.Kalinowski,M.Muhlleitner,M.Spira  |
#              |  Ref.:    Comput.Phys.Commun.108(1998)56           |
#              |           [hep-ph/9704448]                         |
#              |                                                    |
#              |                                                    |
#              |  If not stated otherwise all DRbar couplings and   |
#              |  soft SUSY breaking masses are given at the scale  |
#              |  Q=  0.27207050E+04
#              |                                                    |
#              ------------------------------------------------------
#
#
BLOCK DCINFO  # Decay Program information
     1   SDECAY/HDECAY # decay calculator
     2   1.3b  /3.4    # version number
#
BLOCK SPINFO  # Spectrum calculator information
     1     SOFTSUSY    # spectrum calculator               
     2     3.4.0       # version number                    
#
BLOCK MODSEL  # Model selection
     1     0   #  nonUniversal                                     
#
BLOCK SMINPUTS  # Standard Model inputs
         1     1.27908970E+02   # alpha_em^-1(M_Z)^MSbar
         2     1.16637870E-05   # G_F [GeV^-2]
         3     1.18400000E-01   # alpha_S(M_Z)^MSbar
         4     9.11876000E+01   # M_Z pole mass
         5     4.18000000E+00   # mb(mb)^MSbar
         6     1.73200000E+02   # mt pole mass
         7     1.77700000E+00   # mtau pole mass
#
BLOCK MINPAR  # Input parameters - minimal models
         3     3.35300000E+01   # tanb                
#
BLOCK EXTPAR  # Input parameters - non-minimal models
         0    -1.00000000E+00   # Set                 
         1     3.41444000E+03   # M_1(MX)             
         2     3.55447000E+03   # M_2(MX)             
         3     1.60405000E+03   # M_3(MX)             
        11    -4.26160000E+03   # At(MX)              
        12     2.32724000E+03   # Ab(MX)              
        13    -1.21355000E+03   # Atau(MX)            
        23    -3.75110000E+02   # mu(MX)              
        26     3.96945000E+03   # mA(pole)            
        31     2.85579000E+03   # meL(MX)             
        32     2.85579000E+03   # mmuL(MX)            
        33     3.80395000E+03   # mtauL(MX)           
        34     1.07264000E+03   # meR(MX)             
        35     1.07264000E+03   # mmuR(MX)            
        36     3.27566000E+03   # mtauR(MX)           
        41     2.16193000E+03   # mqL1(MX)            
        42     2.16193000E+03   # mqL2(MX)            
        43     2.01017000E+03   # mqL3(MX)            
        44     1.98449000E+03   # muR(MX)             
        45     1.98449000E+03   # mcR(MX)             
        46     3.68407000E+03   # mtR(MX)             
        47     1.21505000E+03   # mdR(MX)             
        48     1.21505000E+03   # msR(MX)             
        49     3.23162000E+03   # mbR(MX)             
#
BLOCK MASS  # Mass Spectrum
# PDG code           mass       particle
        24     8.03881737E+01   # W+
        25     1.27160966E+02   # h
        35     3.96945053E+03   # H
        36     3.96944992E+03   # A
        37     3.97065101E+03   # H+
         5     4.81876030E+00   # b-quark pole mass calculated from mb(mb)_Msbar
   1000001     2.24612962E+03   # ~d_L
   2000001     1.32123453E+03   # ~d_R
   1000002     2.24488946E+03   # ~u_L
   2000002     2.05375537E+03   # ~u_R
   1000003     2.24612962E+03   # ~s_L
   2000003     1.32123453E+03   # ~s_R
   1000004     2.24488946E+03   # ~c_L
   2000004     2.05375537E+03   # ~c_R
   1000005     2.06926983E+03   # ~b_1
   2000005     3.26553735E+03   # ~b_2
   1000006     2.06302404E+03   # ~t_1
   2000006     3.66517712E+03   # ~t_2
   1000011     2.87954896E+03   # ~e_L
   2000011     1.09223107E+03   # ~e_R
   1000012     2.87812536E+03   # ~nu_eL
   1000013     2.87954896E+03   # ~mu_L
   2000013     1.09223107E+03   # ~mu_R
   1000014     2.87812536E+03   # ~nu_muL
   1000015     3.28127737E+03   # ~tau_1
   2000015     3.82053464E+03   # ~tau_2
   1000016     3.81937148E+03   # ~nu_tauL
   1000021     1.77708395E+03   # ~g
   1000022     3.92211686E+02   # ~chi_10
   1000023    -3.94778287E+02   # ~chi_20
   1000025     3.37149621E+03   # ~chi_30
   1000035     3.51735297E+03   # ~chi_40
   1000024     3.93789784E+02   # ~chi_1+
   1000037     3.51751137E+03   # ~chi_2+
#
BLOCK NMIX  # Neutralino Mixing Matrix
  1  1    -1.01208740E-02   # N_11
  1  2     1.71911831E-02   # N_12
  1  3     7.08224540E-01   # N_13
  1  4     7.05705343E-01   # N_14
  2  1    -8.51625336E-03   # N_21
  2  2     1.47207179E-02   # N_22
  2  3    -7.05984054E-01   # N_23
  2  4     7.08023509E-01   # N_24
  3  1     9.99872340E-01   # N_31
  3  2     9.26144715E-03   # N_32
  3  3     1.13957958E-03   # N_33
  3  4     1.29704112E-02   # N_34
  4  1    -8.96359023E-03   # N_41
  4  2     9.99700950E-01   # N_42
  4  3    -1.79371624E-03   # N_43
  4  4    -2.26814318E-02   # N_44
#
BLOCK UMIX  # Chargino Mixing Matrix U
  1  1     2.52610147E-03   # U_11
  1  2     9.99996809E-01   # U_12
  2  1    -9.99996809E-01   # U_21
  2  2     2.52610147E-03   # U_22
#
BLOCK VMIX  # Chargino Mixing Matrix V
  1  1     3.19280585E-02   # V_11
  1  2    -9.99490170E-01   # V_12
  2  1    -9.99490170E-01   # V_21
  2  2    -3.19280585E-02   # V_22
#
BLOCK STOPMIX  # Stop Mixing Matrix
  1  1     9.97707317E-01   # cos(theta_t)
  1  2     6.76765070E-02   # sin(theta_t)
  2  1    -6.76765070E-02   # -sin(theta_t)
  2  2     9.97707317E-01   # cos(theta_t)
#
BLOCK SBOTMIX  # Sbottom Mixing Matrix
  1  1     9.99987061E-01   # cos(theta_b)
  1  2    -5.08702591E-03   # sin(theta_b)
  2  1     5.08702591E-03   # -sin(theta_b)
  2  2     9.99987061E-01   # cos(theta_b)
#
BLOCK STAUMIX  # Stau Mixing Matrix
  1  1    -5.14003530E-03   # cos(theta_tau)
  1  2     9.99986790E-01   # sin(theta_tau)
  2  1    -9.99986790E-01   # -sin(theta_tau)
  2  2    -5.14003530E-03   # cos(theta_tau)
#
BLOCK ALPHA  # Higgs mixing
          -3.07969632E-02   # Mixing angle in the neutral Higgs boson sector
#
BLOCK HMIX Q=  2.72070500E+03  # DRbar Higgs Parameters
         1    -3.82130966E+02   # mu(Q)MSSM           
         2     3.25125916E+01   # tan                 
         3     2.43016036E+02   # higgs               
         4     1.54493683E+07   # mA^2(Q)MSSM         
#
BLOCK GAUGE Q=  2.72070500E+03  # The gauge couplings
     1     3.64966735E-01   # gprime(Q) DRbar
     2     6.36794044E-01   # g(Q) DRbar
     3     1.02475743E+00   # g3(Q) DRbar
#
BLOCK AU Q=  2.72070500E+03  # The trilinear couplings
  1  1     0.00000000E+00   # A_u(Q) DRbar
  2  2     0.00000000E+00   # A_c(Q) DRbar
  3  3    -4.26159999E+03   # A_t(Q) DRbar
#
BLOCK AD Q=  2.72070500E+03  # The trilinear couplings
  1  1     0.00000000E+00   # A_d(Q) DRbar
  2  2     0.00000000E+00   # A_s(Q) DRbar
  3  3     2.32724000E+03   # A_b(Q) DRbar
#
BLOCK AE Q=  2.72070500E+03  # The trilinear couplings
  1  1     0.00000000E+00   # A_e(Q) DRbar
  2  2     0.00000000E+00   # A_mu(Q) DRbar
  3  3    -1.21355000E+03   # A_tau(Q) DRbar
#
BLOCK Yu Q=  2.72070500E+03  # The Yukawa couplings
  1  1     0.00000000E+00   # y_u(Q) DRbar
  2  2     0.00000000E+00   # y_c(Q) DRbar
  3  3     8.18069895E-01   # y_t(Q) DRbar
#
BLOCK Yd Q=  2.72070500E+03  # The Yukawa couplings
  1  1     0.00000000E+00   # y_d(Q) DRbar
  2  2     0.00000000E+00   # y_s(Q) DRbar
  3  3     4.33559296E-01   # y_b(Q) DRbar
#
BLOCK Ye Q=  2.72070500E+03  # The Yukawa couplings
  1  1     0.00000000E+00   # y_e(Q) DRbar
  2  2     0.00000000E+00   # y_mu(Q) DRbar
  3  3     3.28269849E-01   # y_tau(Q) DRbar
#
BLOCK MSOFT Q=  2.72070500E+03  # The soft SUSY breaking masses at the scale Q
         1     3.41444000E+03   # M_1(Q)              
         2     3.55447000E+03   # M_2(Q)              
         3     1.60405000E+03   # M_3(Q)              
        21     1.56037673E+07   # mH1^2(Q)            
        22    -7.22785314E+04   # mH2^2(Q)            
        31     2.85579000E+03   # meL(Q)              
        32     2.85579000E+03   # mmuL(Q)             
        33     3.80395000E+03   # mtauL(Q)            
        34     1.07264000E+03   # meR(Q)              
        35     1.07264000E+03   # mmuR(Q)             
        36     3.27566000E+03   # mtauR(Q)            
        41     2.16193000E+03   # mqL1(Q)             
        42     2.16193000E+03   # mqL2(Q)             
        43     2.01016999E+03   # mqL3(Q)             
        44     1.98449000E+03   # muR(Q)              
        45     1.98449000E+03   # mcR(Q)              
        46     3.68406999E+03   # mtR(Q)              
        47     1.21504999E+03   # mdR(Q)              
        48     1.21504999E+03   # msR(Q)              
        49     3.23162000E+03   # mbR(Q)              
#
Block HiggsBoundsInputHiggsCouplingsFermions
# ScalarNormEffCoupSq PseudoSNormEffCoupSq NP   IP1 IP2 IP2
    1.00321106E+00    0.00000000E+00        3  25   5   5  # h0-b-b eff. coupling^2, normalised to SM
    1.05706540E+03    0.00000000E+00        3  35   5   5  # H0-b-b eff. coupling^2, normalised to SM
    0.00000000E+00    1.05706861E+03        3  36   5   5  # A0-b-b eff. coupling^2, normalised to SM
#
    9.99996962E-01    0.00000000E+00        3  25   6   6  # h0-t-t eff. coupling^2, normalised to SM
    9.49050091E-04    0.00000000E+00        3  35   6   6  # H0-t-t eff. coupling^2, normalised to SM
    0.00000000E+00    9.46012386E-04        3  36   6   6  # A0-t-t eff. coupling^2, normalised to SM
#
    1.00321106E+00    0.00000000E+00        3  25  15  15  # h0-tau-tau eff. coupling^2, normalised to SM
    1.05706540E+03    0.00000000E+00        3  35  15  15  # H0-tau-tau eff. coupling^2, normalised to SM
    0.00000000E+00    1.05706861E+03        3  36  15  15  # A0-tau-tau eff. coupling^2, normalised to SM
#
Block HiggsBoundsInputHiggsCouplingsBosons
    9.99999998E-01        3  25  24  24  # h0-W-W eff. coupling^2, normalised to SM
    2.43466132E-09        3  35  24  24  # H0-W-W eff. coupling^2, normalised to SM
    0.00000000E+00        3  36  24  24  # A0-W-W eff. coupling^2, normalised to SM
#
    9.99999998E-01        3  25  23  23  # h0-Z-Z eff. coupling^2, normalised to SM
    2.43466132E-09        3  35  23  23  # H0-Z-Z eff. coupling^2, normalised to SM
    0.00000000E+00        3  36  23  23  # A0-Z-Z eff. coupling^2, normalised to SM
#
    8.87452738E-01        3  25  21  21  # h0-g-g eff. coupling^2, normalised to SM
    1.56684467E-14        3  35  21  21  # H0-g-g eff. coupling^2, normalised to SM
    1.94923199E-13        3  36  21  21  # A0-g-g eff. coupling^2, normalised to SM
#
    0.00000000E+00        3  25  25  23  # h0-h0-Z eff. coupling^2, normalised to SM
    0.00000000E+00        3  35  25  23  # H0-h0-Z eff. coupling^2, normalised to SM
    2.43466132E-09        3  36  25  23  # A0-h0-Z eff. coupling^2, normalised to SM
    0.00000000E+00        3  35  35  23  # H0-H0-Z eff. coupling^2, normalised to SM
    9.99999998E-01        3  36  35  23  # A0-H0-Z eff. coupling^2, normalised to SM
    0.00000000E+00        3  36  36  23  # A0-A0-Z eff. coupling^2, normalised to SM
#
    0.00000000E+00        4  25  21  21  23  # h0-g-g-Z eff. coupling^2, normalised to SM
    0.00000000E+00        4  35  21  21  23  # H0-g-g-Z eff. coupling^2, normalised to SM
    0.00000000E+00        4  36  21  21  23  # A0-g-g-Z eff. coupling^2, normalised to SM
#
#
#
#                             =================
#                             |The decay table|
#                             =================
#
# - The QCD corrections to the decays gluino -> squark  + quark
#                                     squark -> gaugino + quark_prime
#                                     squark -> squark_prime + Higgs
#                                     squark -> gluino  + quark
#   are included.
#
# - The multi-body decays for the inos, stops and sbottoms are included.
#
# - The loop induced decays for the gluino, neutralinos and stops
#   are included.
#
# - The SUSY decays of the top quark are included.
#
#
#         PDG            Width
DECAY         6     1.42821105E+00   # top decays
#          BR         NDA      ID1       ID2
     1.00000000E+00    2           5        24   # BR(t ->  b    W+)
#
#         PDG            Width
DECAY   1000021     1.46464708E+01   # gluino decays
#          BR         NDA      ID1       ID2
     2.50000000E-01    2     2000001        -1   # BR(~g -> ~d_R  db)
     2.50000000E-01    2    -2000001         1   # BR(~g -> ~d_R* d )
     2.50000000E-01    2     2000003        -3   # BR(~g -> ~s_R  sb)
     2.50000000E-01    2    -2000003         3   # BR(~g -> ~s_R* s )
#
#         PDG            Width
DECAY   1000006     3.88859477E+01   # stop1 decays
#          BR         NDA      ID1       ID2
     3.20987104E-01    2     1000022         6   # BR(~t_1 -> ~chi_10 t )
     3.26050599E-01    2     1000023         6   # BR(~t_1 -> ~chi_20 t )
     1.89020799E-01    2     1000024         5   # BR(~t_1 -> ~chi_1+ b )
     1.63941497E-01    2     1000021         6   # BR(~t_1 -> ~g      t )
#
#         PDG            Width
DECAY   2000006     3.01557343E+02   # stop2 decays
#          BR         NDA      ID1       ID2
     7.83075042E-02    2     1000022         6   # BR(~t_2 -> ~chi_10 t )
     7.86254273E-02    2     1000023         6   # BR(~t_2 -> ~chi_20 t )
     5.46823362E-04    2     1000025         6   # BR(~t_2 -> ~chi_30 t )
     1.56892109E-01    2     1000024         5   # BR(~t_2 -> ~chi_1+ b )
     7.19972844E-06    2     1000037         5   # BR(~t_2 -> ~chi_2+ b )
     3.89967915E-01    2     1000021         6   # BR(~t_2 -> ~g      t )
     7.26003380E-02    2     1000006        25   # BR(~t_2 -> ~t_1    h )
     7.60793653E-02    2     1000006        23   # BR(~t_2 -> ~t_1    Z )
     1.46973218E-01    2     1000005        24   # BR(~t_2 -> ~b_1    W+)
     9.94966693E-08    2     2000005        24   # BR(~t_2 -> ~b_2    W+)
#
#         PDG            Width
DECAY   1000005     4.03059041E+01   # sbottom1 decays
#          BR         NDA      ID1       ID2
     8.96086583E-02    2     1000022         5   # BR(~b_1 -> ~chi_10 b )
     8.88781538E-02    2     1000023         5   # BR(~b_1 -> ~chi_20 b )
     6.24542245E-01    2    -1000024         6   # BR(~b_1 -> ~chi_1- t )
     1.96970942E-01    2     1000021         5   # BR(~b_1 -> ~g      b )
#
#         PDG            Width
DECAY   2000005     1.14035523E+02   # sbottom2 decays
#          BR         NDA      ID1       ID2
     5.21585724E-02    2     1000022         5   # BR(~b_2 -> ~chi_10 b )
     5.18420154E-02    2     1000023         5   # BR(~b_2 -> ~chi_20 b )
     1.03422780E-01    2    -1000024         6   # BR(~b_2 -> ~chi_1- t )
     7.90362565E-01    2     1000021         5   # BR(~b_2 -> ~g      b )
     6.15553135E-04    2     1000005        25   # BR(~b_2 -> ~b_1    h )
     5.40777407E-04    2     1000005        23   # BR(~b_2 -> ~b_1    Z )
     1.05773637E-03    2     1000006       -24   # BR(~b_2 -> ~t_1    W-)
#
#         PDG            Width
DECAY   1000002     2.48395089E+01   # sup_L decays
#          BR         NDA      ID1       ID2
     7.60999866E-05    2     1000022         2   # BR(~u_L -> ~chi_10 u)
     5.59999164E-05    2     1000023         2   # BR(~u_L -> ~chi_20 u)
     6.66146493E-04    2     1000024         1   # BR(~u_L -> ~chi_1+ d)
     9.99201754E-01    2     1000021         2   # BR(~u_L -> ~g      u)
#
#         PDG            Width
DECAY   2000002     1.02866498E+01   # sup_R decays
#          BR         NDA      ID1       ID2
     4.26133646E-05    2     1000022         2   # BR(~u_R -> ~chi_10 u)
     3.01429517E-05    2     1000023         2   # BR(~u_R -> ~chi_20 u)
     9.99927244E-01    2     1000021         2   # BR(~u_R -> ~g      u)
#
#         PDG            Width
DECAY   1000001     2.49307527E+01   # sdown_L decays
#          BR         NDA      ID1       ID2
     1.19201594E-04    2     1000022         1   # BR(~d_L -> ~chi_10 d)
     8.70274920E-05    2     1000023         1   # BR(~d_L -> ~chi_20 d)
     4.15728303E-06    2    -1000024         2   # BR(~d_L -> ~chi_1- u)
     9.99789614E-01    2     1000021         1   # BR(~d_L -> ~g      d)
#
#         PDG            Width
DECAY   2000001     1.21244937E-04   # sdown_R decays
#           BR         NDA      ID1       ID2
     5.43013344E-01    2     1000022         1   # BR(~d_R -> ~chi_10 d)
     3.83511737E-01    2     1000023         1   # BR(~d_R -> ~chi_20 d)
#           BR         NDA      ID1       ID2       ID3
     1.91909045E-05    3        1       -11        2000011   # BR(~d_R -> d  e+  ~e_R-)
     1.46364875E-04    3        1       11        -2000011   # BR(~d_R -> d  e-  ~e_R+)
     1.89706891E-05    3        1       -13        2000013   # BR(~d_R -> d  mu+  ~mu_R-)
     1.51420756E-04    3        1       13        -2000013   # BR(~d_R -> d  mu-  ~mu_R+)
     6.26723078E-03    3        1       23        1000022   # BR(~d_R -> d  Z  ~chi_10)
     1.10404610E-02    3        1       25        1000022   # BR(~d_R -> d  h  ~chi_10)
     1.12342835E-02    3        1       23        1000023   # BR(~d_R -> d  Z  ~chi_20)
     6.10054340E-03    3        1       25        1000023   # BR(~d_R -> d  h  ~chi_20)
     1.82028220E-03    3        1       -24        1000024   # BR(~d_R -> d  W-  ~chi_1+)
     3.66761707E-02    3        1       24        -1000024   # BR(~d_R -> d  W+  ~chi_1-)
#
#         PDG            Width
DECAY   1000004     1.74533769E+01   # scharm_L decays
#          BR         NDA      ID1       ID2
     1.13517315E-04    2     1000022         4   # BR(~c_L -> ~chi_10 c)
     8.35323955E-05    2     1000023         4   # BR(~c_L -> ~chi_20 c)
     9.93668640E-04    2     1000024         3   # BR(~c_L -> ~chi_1+ s)
     9.98809282E-01    2     1000021         4   # BR(~c_L -> ~g      c)
#
#         PDG            Width
DECAY   2000004     7.22522337E+00   # scharm_R decays
#          BR         NDA      ID1       ID2
     6.36718179E-05    2     1000022         4   # BR(~c_R -> ~chi_10 c)
     4.50377364E-05    2     1000023         4   # BR(~c_R -> ~chi_20 c)
     9.99891290E-01    2     1000021         4   # BR(~c_R -> ~g      c)
#
#         PDG            Width
DECAY   1000003     1.75125494E+01   # sstrange_L decays
#          BR         NDA      ID1       ID2
     1.77859541E-04    2     1000022         3   # BR(~s_L -> ~chi_10 s)
     1.29849895E-04    2     1000023         3   # BR(~s_L -> ~chi_20 s)
     6.20295062E-06    2    -1000024         4   # BR(~s_L -> ~chi_1- c)
     9.99686088E-01    2     1000021         3   # BR(~s_L -> ~g      s)
#
#         PDG            Width
DECAY   2000003     1.21982952E-04   # sstrange_R decays
#           BR         NDA      ID1       ID2
     5.43269203E-01    2     1000022         3   # BR(~s_R -> ~chi_10 s)
     3.83683688E-01    2     1000023         3   # BR(~s_R -> ~chi_20 s)
#           BR         NDA      ID1       ID2       ID3
     1.90747966E-05    3        3       -11        2000011   # BR(~s_R -> s  e+  ~e_R-)
     1.45282597E-04    3        3       11        -2000011   # BR(~s_R -> s  e-  ~e_R+)
     1.88559136E-05    3        3       -13        2000013   # BR(~s_R -> s  mu+  ~mu_R-)
     1.49225771E-04    3        3       13        -2000013   # BR(~s_R -> s  mu-  ~mu_R+)
     6.22931310E-03    3        3       23        1000022   # BR(~s_R -> s  Z  ~chi_10)
     1.09736646E-02    3        3       25        1000022   # BR(~s_R -> s  h  ~chi_10)
     1.11663145E-02    3        3       23        1000023   # BR(~s_R -> s  Z  ~chi_20)
     6.06363421E-03    3        3       25        1000023   # BR(~s_R -> s  h  ~chi_20)
     1.81517168E-03    3        3       -24        1000024   # BR(~s_R -> s  W-  ~chi_1+)
     3.64665712E-02    3        3       24        -1000024   # BR(~s_R -> s  W+  ~chi_1-)
#
#         PDG            Width
DECAY   1000011     2.67706398E-03   # selectron_L decays
#          BR         NDA      ID1       ID2
     5.42239215E-01    2     1000022        11   # BR(~e_L -> ~chi_10 e-)
     4.04439873E-01    2     1000023        11   # BR(~e_L -> ~chi_20 e-)
     5.33209117E-02    2    -1000024        12   # BR(~e_L -> ~chi_1- nu_e)
#
#         PDG            Width
DECAY   2000011     7.96933438E-04   # selectron_R decays
#           BR         NDA      ID1       ID2
     5.64526267E-01    2     1000022        11   # BR(~e_R -> ~chi_10 e-)
     3.98157818E-01    2     1000023        11   # BR(~e_R -> ~chi_20 e-)
#           BR         NDA      ID1       ID2       ID3
     2.90287732E-03    3        11       23        1000022   # BR(~e_R- -> e-  Z  ~chi_10)
     5.58779415E-03    3        11       25        1000022   # BR(~e_R- -> e-  h  ~chi_10)
     5.24999931E-03    3        11       23        1000023   # BR(~e_R- -> e-  Z  ~chi_20)
     3.14141669E-03    3        11       25        1000023   # BR(~e_R- -> e-  h  ~chi_20)
     7.15743590E-04    3        11       -24        1000024   # BR(~e_R- -> e-  W-  ~chi_1+)
     1.97180834E-02    3        11       24        -1000024   # BR(~e_R- -> e-  W+  ~chi_1-)
#
#         PDG            Width
DECAY   1000013     2.67706397E-03   # smuon_L decays
#          BR         NDA      ID1       ID2
     5.42239215E-01    2     1000022        13   # BR(~mu_L -> ~chi_10 mu-)
     4.04439873E-01    2     1000023        13   # BR(~mu_L -> ~chi_20 mu-)
     5.33209118E-02    2    -1000024        14   # BR(~mu_L -> ~chi_1- nu_mu)
#
#         PDG            Width
DECAY   2000013     7.96931889E-04   # smuon_R decays
#           BR         NDA      ID1       ID2
     5.64527351E-01    2     1000022        13   # BR(~mu_R -> ~chi_10 mu-)
     3.98158582E-01    2     1000023        13   # BR(~mu_R -> ~chi_20 mu-)
#           BR         NDA      ID1       ID2       ID3
     2.90225555E-03    3        13       23        1000022   # BR(~mu_R- -> mu-  Z  ~chi_10)
     5.58780501E-03    3        13       25        1000022   # BR(~mu_R- -> mu-  h  ~chi_10)
     5.24925663E-03    3        13       23        1000023   # BR(~mu_R- -> mu-  Z  ~chi_20)
     3.14142279E-03    3        13       25        1000023   # BR(~mu_R- -> mu-  h  ~chi_20)
     7.15205412E-04    3        13       -24        1000024   # BR(~mu_R- -> mu-  W-  ~chi_1+)
     1.97181217E-02    3        13       24        -1000024   # BR(~mu_R- -> mu-  W+  ~chi_1-)
#
#         PDG            Width
DECAY   1000015     1.36703295E+01   # stau_1 decays
#          BR         NDA      ID1       ID2
     2.51026369E-01    2     1000022        15   # BR(~tau_1 -> ~chi_10  tau-)
     2.49097080E-01    2     1000023        15   # BR(~tau_1 -> ~chi_20  tau-)
     4.99876551E-01    2    -1000024        16   # BR(~tau_1 -> ~chi_1-  nu_tau)
#
#         PDG            Width
DECAY   2000015     9.36279793E+00   # stau_2 decays
#          BR         NDA      ID1       ID2
     4.29599593E-01    2     1000022        15   # BR(~tau_2 -> ~chi_10  tau-)
     4.27077726E-01    2     1000023        15   # BR(~tau_2 -> ~chi_20  tau-)
     2.73266661E-02    2     1000025        15   # BR(~tau_2 -> ~chi_30  tau-)
     3.78193139E-02    2     1000035        15   # BR(~tau_2 -> ~chi_40  tau-)
     4.92528259E-08    2    -1000024        16   # BR(~tau_2 -> ~chi_1-  nu_tau)
     7.63931546E-02    2    -1000037        16   # BR(~tau_2 -> ~chi_2-  nu_tau)
     9.06934109E-04    2     1000015        25   # BR(~tau_2 -> ~tau_1   h)
     8.76563241E-04    2     1000015        23   # BR(~tau_2 -> ~tau_1   Z)
#
#         PDG            Width
DECAY   1000012     3.29967449E-02   # snu_eL decays
#          BR         NDA      ID1       ID2
     1.79143077E-01    2     1000022        12   # BR(~nu_eL -> ~chi_10 nu_e)
     1.30144107E-01    2     1000023        12   # BR(~nu_eL -> ~chi_20 nu_e)
     6.90712816E-01    2     1000024        11   # BR(~nu_eL -> ~chi_1+ e-)
#
#         PDG            Width
DECAY   1000014     3.29967448E-02   # snu_muL decays
#          BR         NDA      ID1       ID2
     1.79143078E-01    2     1000022        14   # BR(~nu_muL -> ~chi_10 nu_mu)
     1.30144107E-01    2     1000023        14   # BR(~nu_muL -> ~chi_20 nu_mu)
     6.90712815E-01    2     1000024        13   # BR(~nu_muL -> ~chi_1+ mu-)
#
#         PDG            Width
DECAY   1000016     9.38253908E+00   # snu_tauL decays
#          BR         NDA      ID1       ID2
     8.49780028E-04    2     1000022        16   # BR(~nu_tauL -> ~chi_10 nu_tau)
     6.17483375E-04    2     1000023        16   # BR(~nu_tauL -> ~chi_20 nu_tau)
     2.54404144E-02    2     1000025        16   # BR(~nu_tauL -> ~chi_30 nu_tau)
     3.82530368E-02    2     1000035        16   # BR(~nu_tauL -> ~chi_40 nu_tau)
     8.57523231E-01    2     1000024        15   # BR(~nu_tauL -> ~chi_1+ tau-)
     7.56153407E-02    2     1000037        15   # BR(~nu_tauL -> ~chi_2+ tau-)
     1.70071385E-03    2    -1000015       -24   # BR(~nu_tauL -> ~tau_1+ W-)
#
#         PDG            Width
DECAY   1000024     6.43799562E-12   # chargino1+ decays
#           BR         NDA      ID1       ID2       ID3
     6.00000024E-01    3     1000022         2        -1   # BR(~chi_1+ -> ~chi_10 u    db)
     1.99999988E-01    3     1000022       -11        12   # BR(~chi_1+ -> ~chi_10 e+   nu_e)
     1.99999988E-01    3     1000022       -13        14   # BR(~chi_1+ -> ~chi_10 mu+  nu_mu)
#
#         PDG            Width
DECAY   1000037     1.27632598E+02   # chargino2+ decays
#          BR         NDA      ID1       ID2
     1.13849857E-01    2     1000002        -1   # BR(~chi_2+ -> ~u_L     db)
     1.13793972E-01    2    -1000001         2   # BR(~chi_2+ -> ~d_L*    u )
     1.13849853E-01    2     1000004        -3   # BR(~chi_2+ -> ~c_L     sb)
     1.13793915E-01    2    -1000003         4   # BR(~chi_2+ -> ~s_L*     c )
     1.41929032E-01    2     1000006        -5   # BR(~chi_2+ -> ~t_1     bb)
     1.40528913E-01    2    -1000005         6   # BR(~chi_2+ -> ~b_1*    t )
     2.08690167E-07    2    -2000005         6   # BR(~chi_2+ -> ~b_2*    t )
     1.21305610E-02    2     1000012       -11   # BR(~chi_2+ -> ~nu_eL   e+  )
     1.21305610E-02    2     1000014       -13   # BR(~chi_2+ -> ~nu_muL mu+ )
     1.20942321E-02    2    -1000011        12   # BR(~chi_2+ -> ~e_L+    nu_e)
     1.20942321E-02    2    -1000013        14   # BR(~chi_2+ -> ~mu_L+   nu_mu)
     2.75897192E-08    2    -1000015        16   # BR(~chi_2+ -> ~tau_1+  nu_tau)
     5.42021826E-02    2     1000024        23   # BR(~chi_2+ -> ~chi_1+  Z )
     5.23141489E-02    2     1000022        24   # BR(~chi_2+ -> ~chi_10  W+)
     5.26629676E-02    2     1000023        24   # BR(~chi_2+ -> ~chi_20  W+)
     1.10570267E-05    2     1000025        24   # BR(~chi_2+ -> ~chi_30  W+)
     5.46142792E-02    2     1000024        25   # BR(~chi_2+ -> ~chi_1+  h )
#
#         PDG            Width
DECAY   1000022     0.00000000E+00   # neutralino1 decays
#
#         PDG            Width
DECAY   1000023     1.01593766E-10   # neutralino2 decays
#          BR         NDA      ID1       ID2
     2.20832598E-01    2     1000022        22   # BR(~chi_20 -> ~chi_10 gam)
#           BR         NDA      ID1       ID2       ID3
     1.28103134E-01    3     1000022        -2         2   # BR(~chi_20 -> ~chi_10 ub      u)
     1.66359619E-01    3     1000022        -1         1   # BR(~chi_20 -> ~chi_10 db      d)
     1.66359619E-01    3     1000022        -3         3   # BR(~chi_20 -> ~chi_10 sb      s)
     3.82658673E-02    3     1000022       -11        11   # BR(~chi_20 -> ~chi_10 e+      e-)
     3.82658673E-02    3     1000022       -13        13   # BR(~chi_20 -> ~chi_10 mu+     mu-)
     7.65227116E-02    3     1000022       -12        12   # BR(~chi_20 -> ~chi_10 nu_eb   nu_e)
     7.65227116E-02    3     1000022       -14        14   # BR(~chi_20 -> ~chi_10 nu_mub  nu_mu)
     7.65226884E-02    3     1000022       -16        16   # BR(~chi_20 -> ~chi_10 nu_taub nu_tau)
     3.67355496E-03    3     1000024        -2         1   # BR(~chi_20 -> ~chi_1+ ub      d)
     3.67355496E-03    3    -1000024        -1         2   # BR(~chi_20 -> ~chi_1- db      u)
     1.22451829E-03    3     1000024       -12        11   # BR(~chi_20 -> ~chi_1+ nu_eb   e-)
     1.22451829E-03    3    -1000024        12       -11   # BR(~chi_20 -> ~chi_1- nu_e    e+)
     1.22451829E-03    3     1000024       -14        13   # BR(~chi_20 -> ~chi_1+ nu_mub  mu-)
     1.22451829E-03    3    -1000024        14       -13   # BR(~chi_20 -> ~chi_1- nu_mu   mu+)
#
#         PDG            Width
DECAY   1000025     6.77758892E+01   # neutralino3 decays
#          BR         NDA      ID1       ID2
     1.21898250E-02    2     1000022        23   # BR(~chi_30 -> ~chi_10   Z )
     1.74290557E-02    2     1000023        23   # BR(~chi_30 -> ~chi_20   Z )
     3.05570766E-02    2     1000024       -24   # BR(~chi_30 -> ~chi_1+   W-)
     3.05570766E-02    2    -1000024        24   # BR(~chi_30 -> ~chi_1-   W+)
     1.82421838E-02    2     1000022        25   # BR(~chi_30 -> ~chi_10   h )
     1.29862976E-02    2     1000023        25   # BR(~chi_30 -> ~chi_20   h )
     3.64310207E-03    2     1000002        -2   # BR(~chi_30 -> ~u_L      ub)
     3.64310207E-03    2    -1000002         2   # BR(~chi_30 -> ~u_L*     u )
     6.75188027E-02    2     2000002        -2   # BR(~chi_30 -> ~u_R      ub)
     6.75188027E-02    2    -2000002         2   # BR(~chi_30 -> ~u_R*     u )
     2.99517900E-03    2     1000001        -1   # BR(~chi_30 -> ~d_L      db)
     2.99517900E-03    2    -1000001         1   # BR(~chi_30 -> ~d_L*     d )
     3.04257576E-02    2     2000001        -1   # BR(~chi_30 -> ~d_R      db)
     3.04257576E-02    2    -2000001         1   # BR(~chi_30 -> ~d_R*     d )
     3.64309966E-03    2     1000004        -4   # BR(~chi_30 -> ~c_L      cb)
     3.64309966E-03    2    -1000004         4   # BR(~chi_30 -> ~c_L*     c )
     6.75187733E-02    2     2000004        -4   # BR(~chi_30 -> ~c_R      cb)
     6.75187733E-02    2    -2000004         4   # BR(~chi_30 -> ~c_R*     c )
     2.99517900E-03    2     1000003        -3   # BR(~chi_30 -> ~s _L      sb)
     2.99517900E-03    2    -1000003         3   # BR(~chi_30 -> ~s _L*     s )
     3.04257576E-02    2     2000003        -3   # BR(~chi_30 -> ~s _R      sb)
     3.04257576E-02    2    -2000003         3   # BR(~chi_30 -> ~s _R*     s )
     4.62944835E-03    2     1000006        -6   # BR(~chi_30 -> ~t_1      tb)
     4.62944835E-03    2    -1000006         6   # BR(~chi_30 -> ~t_1*     t )
     3.86258044E-03    2     1000005        -5   # BR(~chi_30 -> ~b_1      bb)
     3.86258044E-03    2    -1000005         5   # BR(~chi_30 -> ~b_1*     b )
     1.68063919E-04    2     2000005        -5   # BR(~chi_30 -> ~b_2      bb)
     1.68063919E-04    2    -2000005         5   # BR(~chi_30 -> ~b_2*     b )
     2.48994838E-03    2     1000011       -11   # BR(~chi_30 -> ~e_L-     e+)
     2.48994838E-03    2    -1000011        11   # BR(~chi_30 -> ~e_L+     e-)
     1.05576575E-01    2     2000011       -11   # BR(~chi_30 -> ~e_R-     e+)
     1.05576575E-01    2    -2000011        11   # BR(~chi_30 -> ~e_R+     e-)
     2.48994838E-03    2     1000013       -13   # BR(~chi_30 -> ~mu_L-    mu+)
     2.48994838E-03    2    -1000013        13   # BR(~chi_30 -> ~mu_L+    mu-)
     1.05576575E-01    2     2000013       -13   # BR(~chi_30 -> ~mu_R-    mu+)
     1.05576575E-01    2    -2000013        13   # BR(~chi_30 -> ~mu_R+    mu-)
     3.67407920E-04    2     1000015       -15   # BR(~chi_30 -> ~tau_1-   tau+)
     3.67407920E-04    2    -1000015        15   # BR(~chi_30 -> ~tau_1+   tau-)
     2.34652222E-03    2     1000012       -12   # BR(~chi_30 -> ~nu_eL    nu_eb)
     2.34652222E-03    2    -1000012        12   # BR(~chi_30 -> ~nu_eL*   nu_e )
     2.34652222E-03    2     1000014       -14   # BR(~chi_30 -> ~nu_muL   nu_mub)
     2.34652222E-03    2    -1000014        14   # BR(~chi_30 -> ~nu_muL*  nu_mu )
#
#         PDG            Width
DECAY   1000035     1.27618684E+02   # neutralino4 decays
#          BR         NDA      ID1       ID2
     2.29903391E-02    2     1000022        23   # BR(~chi_40 -> ~chi_10   Z )
     3.17342782E-02    2     1000023        23   # BR(~chi_40 -> ~chi_20   Z )
     6.98368805E-09    2     1000025        23   # BR(~chi_40 -> ~chi_30   Z )
     5.20551664E-02    2     1000024       -24   # BR(~chi_40 -> ~chi_1+   W-)
     5.20551664E-02    2    -1000024        24   # BR(~chi_40 -> ~chi_1-   W+)
     3.18715474E-02    2     1000022        25   # BR(~chi_40 -> ~chi_10   h )
     2.31407313E-02    2     1000023        25   # BR(~chi_40 -> ~chi_20   h )
     5.61803176E-06    2     1000025        25   # BR(~chi_40 -> ~chi_30   h )
     5.67506679E-02    2     1000002        -2   # BR(~chi_40 -> ~u_L      ub)
     5.67506679E-02    2    -1000002         2   # BR(~chi_40 -> ~u_L*     u )
     3.29962653E-06    2     2000002        -2   # BR(~chi_40 -> ~u_R      ub)
     3.29962653E-06    2    -2000002         2   # BR(~chi_40 -> ~u_R*     u )
     5.70549299E-02    2     1000001        -1   # BR(~chi_40 -> ~d_L      db)
     5.70549299E-02    2    -1000001         1   # BR(~chi_40 -> ~d_L*     d )
     1.39549795E-06    2     2000001        -1   # BR(~chi_40 -> ~d_R      db)
     1.39549795E-06    2    -2000001         1   # BR(~chi_40 -> ~d_R*     d )
     5.67506399E-02    2     1000004        -4   # BR(~chi_40 -> ~c_L      cb)
     5.67506399E-02    2    -1000004         4   # BR(~chi_40 -> ~c_L*     c )
     3.29962543E-06    2     2000004        -4   # BR(~chi_40 -> ~c_R      cb)
     3.29962543E-06    2    -2000004         4   # BR(~chi_40 -> ~c_R*     c )
     5.70549299E-02    2     1000003        -3   # BR(~chi_40 -> ~s _L      sb)
     5.70549299E-02    2    -1000003         3   # BR(~chi_40 -> ~s _L*     s )
     1.39549795E-06    2     2000003        -3   # BR(~chi_40 -> ~s _R      sb)
     1.39549795E-06    2    -2000003         3   # BR(~chi_40 -> ~s _R*     s )
     6.97230822E-02    2     1000006        -6   # BR(~chi_40 -> ~t_1      tb)
     6.97230822E-02    2    -1000006         6   # BR(~chi_40 -> ~t_1*     t )
     7.15034594E-02    2     1000005        -5   # BR(~chi_40 -> ~b_1      bb)
     7.15034594E-02    2    -1000005         5   # BR(~chi_40 -> ~b_1*     b )
     1.88292525E-07    2     2000005        -5   # BR(~chi_40 -> ~b_2      bb)
     1.88292525E-07    2    -2000005         5   # BR(~chi_40 -> ~b_2*     b )
     5.97977778E-03    2     1000011       -11   # BR(~chi_40 -> ~e_L-     e+)
     5.97977778E-03    2    -1000011        11   # BR(~chi_40 -> ~e_L+     e-)
     4.79103341E-06    2     2000011       -11   # BR(~chi_40 -> ~e_R-     e+)
     4.79103341E-06    2    -2000011        11   # BR(~chi_40 -> ~e_R+     e-)
     5.97977778E-03    2     1000013       -13   # BR(~chi_40 -> ~mu_L-    mu+)
     5.97977778E-03    2    -1000013        13   # BR(~chi_40 -> ~mu_L+    mu-)
     4.79103341E-06    2     2000013       -13   # BR(~chi_40 -> ~mu_R-    mu+)
     4.79103341E-06    2    -2000013        13   # BR(~chi_40 -> ~mu_R+    mu-)
     1.11596974E-07    2     1000015       -15   # BR(~chi_40 -> ~tau_1-   tau+)
     1.11596974E-07    2    -1000015        15   # BR(~chi_40 -> ~tau_1+   tau-)
     6.12851796E-03    2     1000012       -12   # BR(~chi_40 -> ~nu_eL    nu_eb)
     6.12851796E-03    2    -1000012        12   # BR(~chi_40 -> ~nu_eL*   nu_e )
     6.12851796E-03    2     1000014       -14   # BR(~chi_40 -> ~nu_muL   nu_mub)
     6.12851796E-03    2    -1000014        14   # BR(~chi_40 -> ~nu_muL*  nu_mu )
#
#         PDG            Width
DECAY        25     4.23848370E-03   # h decays
#          BR         NDA      ID1       ID2
     5.50710807E-01    2           5        -5   # BR(h -> b       bb     )
     6.23059246E-02    2         -15        15   # BR(h -> tau+    tau-   )
     2.20533884E-04    2         -13        13   # BR(h -> mu+     mu-    )
     2.39963907E-04    2           3        -3   # BR(h -> s       sb     )
     2.07460024E-02    2           4        -4   # BR(h -> c       cb     )
     7.91495620E-02    2          21        21   # BR(h -> g       g      )
     2.38912397E-03    2          22        22   # BR(h -> gam     gam    )
     1.77921856E-03    2          22        23   # BR(h -> Z       gam    )
     2.50210907E-01    2          24       -24   # BR(h -> W+      W-     )
     3.22479568E-02    2          23        23   # BR(h -> Z       Z      )
#
#         PDG            Width
DECAY        35     5.49367069E+01   # H decays
#          BR         NDA      ID1       ID2
     8.10807696E-01    2           5        -5   # BR(H -> b       bb     )
     1.61315179E-01    2         -15        15   # BR(H -> tau+    tau-   )
     5.74866840E-04    2         -13        13   # BR(H -> mu+     mu-    )
     3.83618099E-04    2           3        -3   # BR(H -> s       sb     )
     2.71283903E-08    2           4        -4   # BR(H -> c       cb     )
     2.67833934E-03    2           6        -6   # BR(H -> t       tb     )
     6.20455647E-06    2          21        21   # BR(H -> g       g      )
     1.01261297E-09    2          22        22   # BR(H -> gam     gam    )
     4.19505466E-09    2          23        22   # BR(H -> Z       gam    )
     8.92354323E-07    2          24       -24   # BR(H -> W+      W-     )
     4.45437004E-07    2          23        23   # BR(H -> Z       Z      )
     3.01711708E-06    2          25        25   # BR(H -> h       h      )
     5.90577687E-04    2     1000024  -1000024   # BR(H -> ~chi_1+ ~chi_1-)
     6.25310596E-03    2     1000024  -1000037   # BR(H -> ~chi_1+ ~chi_2-)
     6.25310596E-03    2     1000037  -1000024   # BR(H -> ~chi_2+ ~chi_1-)
     1.57131722E-04    2     1000022   1000022   # BR(H -> ~chi_10 ~chi_10)
     1.00293729E-04    2     1000023   1000023   # BR(H -> ~chi_20 ~chi_20)
     5.84106622E-07    2     1000022   1000023   # BR(H -> ~chi_10 ~chi_20)
     9.57397631E-04    2     1000022   1000025   # BR(H -> ~chi_10 ~chi_30)
     5.25871980E-04    2     1000022   1000035   # BR(H -> ~chi_10 ~chi_40)
     3.62822223E-03    2     1000023   1000025   # BR(H -> ~chi_20 ~chi_30)
     5.76324877E-03    2     1000023   1000035   # BR(H -> ~chi_20 ~chi_40)
     1.94464730E-08    2     2000001  -2000001   # BR(H -> ~d_R    ~d_R*  )
     1.94464730E-08    2     2000003  -2000003   # BR(H -> ~s_R    ~s_R*  )
     6.52768592E-08    2     2000011  -2000011   # BR(H -> ~e_R-   ~e_R+  )
     6.52768592E-08    2     2000013  -2000013   # BR(H -> ~mu_R-  ~mu_R+ )
#
#         PDG            Width
DECAY        36     5.49468799E+01   # A decays
#          BR         NDA      ID1       ID2
     8.10683075E-01    2           5        -5   # BR(A -> b       bb     )
     1.61285902E-01    2         -15        15   # BR(A -> tau+    tau-   )
     5.74762044E-04    2         -13        13   # BR(A -> mu+     mu-    )
     3.83573537E-04    2           3        -3   # BR(A -> s       sb     )
     2.72880256E-08    2           4        -4   # BR(A -> c       cb     )
     2.68207750E-03    2           6        -6   # BR(A -> t       tb     )
     2.18800779E-05    2          21        21   # BR(A -> g       g      )
     6.10699585E-09    2          22        22   # BR(A -> gam     gam    )
     1.84202681E-08    2          23        22   # BR(A -> Z       gam    )
     9.05198026E-07    2          23        25   # BR(A -> Z       h      )
     6.08711586E-04    2     1000024  -1000024   # BR(A -> ~chi_1+ ~chi_1-)
     6.25076660E-03    2     1000024  -1000037   # BR(A -> ~chi_1+ ~chi_2-)
     6.25076660E-03    2     1000037  -1000024   # BR(A -> ~chi_2+ ~chi_1-)
     1.44605787E-04    2     1000022   1000022   # BR(A -> ~chi_10 ~chi_10)
     1.18133505E-04    2     1000023   1000023   # BR(A -> ~chi_20 ~chi_20)
     2.98561279E-06    2     1000022   1000023   # BR(A -> ~chi_10 ~chi_20)
     3.66171308E-03    2     1000022   1000025   # BR(A -> ~chi_10 ~chi_30)
     5.90428796E-03    2     1000022   1000035   # BR(A -> ~chi_10 ~chi_40)
     9.35440555E-04    2     1000023   1000025   # BR(A -> ~chi_20 ~chi_30)
     4.90361550E-04    2     1000023   1000035   # BR(A -> ~chi_20 ~chi_40)
#
#         PDG            Width
DECAY        37     5.63924774E+01   # H+ decays
#          BR         NDA      ID1       ID2
     1.37013747E-03    2           4        -5   # BR(H+ -> c       bb     )
     1.57198957E-01    2         -15        16   # BR(H+ -> tau+    nu_tau )
     5.60197715E-04    2         -13        14   # BR(H+ -> mu+     nu_mu  )
     1.37013649E-05    2           2        -5   # BR(H+ -> u       bb     )
     1.87093866E-05    2           2        -3   # BR(H+ -> u       sb     )
     3.68283068E-04    2           4        -3   # BR(H+ -> c       sb     )
     8.17067374E-01    2           6        -5   # BR(H+ -> t       bb     )
     8.83109440E-07    2          24        25   # BR(H+ -> W+      h      )
     5.83268944E-14    2          24        36   # BR(H+ -> W+      A      )
     2.46629047E-05    2     1000024   1000022   # BR(H+ -> ~chi_1+ ~chi_10)
     4.61366286E-05    2     1000024   1000023   # BR(H+ -> ~chi_1+ ~chi_20)
     4.81546971E-03    2     1000024   1000025   # BR(H+ -> ~chi_1+ ~chi_30)
     6.12710220E-03    2     1000024   1000035   # BR(H+ -> ~chi_1+ ~chi_40)
     6.28039080E-03    2     1000037   1000022   # BR(H+ -> ~chi_2+ ~chi_10)
     6.10799473E-03    2     1000037   1000023   # BR(H+ -> ~chi_2+ ~chi_20)
