#
#                              ======================
#                              | THE SUSYHIT OUTPUT |
#                              ======================
#
#
#              ------------------------------------------------------
#              |     This is the output of the SUSY-HIT package     |
#              |  created by A.Djouadi, M.Muehlleitner and M.Spira. |
#              |  In case of problems with SUSY-HIT email to        |
#              |           margarete.muehlleitner@cern.ch           |
#              |           michael.spira@psi.ch                     |
#              |           abdelhak.djouadi@cern.ch                 |
#              ------------------------------------------------------
#
#              ------------------------------------------------------
#              |  SUSY Les Houches Accord - MSSM Spectrum + Decays  |
#              |              based on the decay programs           |
#              |                                                    |
#              |                     SDECAY 1.3b                    |
#              |                                                    |
#              |  Authors: M.Muhlleitner, A.Djouadi and Y.Mambrini  |
#              |  Ref.:    Comput.Phys.Commun.168(2005)46           |
#              |           [hep-ph/0311167]                         |
#              |                                                    |
#              |                     HDECAY 3.4                     |
#              |                                                    |
#              |  By: A.Djouadi,J.Kalinowski,M.Muhlleitner,M.Spira  |
#              |  Ref.:    Comput.Phys.Commun.108(1998)56           |
#              |           [hep-ph/9704448]                         |
#              |                                                    |
#              |                                                    |
#              |  If not stated otherwise all DRbar couplings and   |
#              |  soft SUSY breaking masses are given at the scale  |
#              |  Q=  0.28132450E+04
#              |                                                    |
#              ------------------------------------------------------
#
#
BLOCK DCINFO  # Decay Program information
     1   SDECAY/HDECAY # decay calculator
     2   1.3b  /3.4    # version number
#
BLOCK SPINFO  # Spectrum calculator information
     1     SOFTSUSY    # spectrum calculator               
     2     3.4.0       # version number                    
#
BLOCK MODSEL  # Model selection
     1     0   #  nonUniversal                                     
#
BLOCK SMINPUTS  # Standard Model inputs
         1     1.27908970E+02   # alpha_em^-1(M_Z)^MSbar
         2     1.16637870E-05   # G_F [GeV^-2]
         3     1.18400000E-01   # alpha_S(M_Z)^MSbar
         4     9.11876000E+01   # M_Z pole mass
         5     4.18000000E+00   # mb(mb)^MSbar
         6     1.73200000E+02   # mt pole mass
         7     1.77700000E+00   # mtau pole mass
#
BLOCK MINPAR  # Input parameters - minimal models
         3     4.65700000E+01   # tanb                
#
BLOCK EXTPAR  # Input parameters - non-minimal models
         0    -1.00000000E+00   # Set                 
         1     6.60760000E+02   # M_1(MX)             
         2     3.40975000E+03   # M_2(MX)             
         3     3.99988000E+03   # M_3(MX)             
        11    -4.57910000E+03   # At(MX)              
        12     3.64540000E+02   # Ab(MX)              
        13    -2.93921000E+03   # Atau(MX)            
        23     2.90270000E+02   # mu(MX)              
        26     3.89839000E+03   # mA(pole)            
        31     3.89172000E+03   # meL(MX)             
        32     3.89172000E+03   # mmuL(MX)            
        33     2.60179000E+03   # mtauL(MX)           
        34     1.19477000E+03   # meR(MX)             
        35     1.19477000E+03   # mmuR(MX)            
        36     1.65585000E+03   # mtauR(MX)           
        41     2.72806000E+03   # mqL1(MX)            
        42     2.72806000E+03   # mqL2(MX)            
        43     2.08247000E+03   # mqL3(MX)            
        44     9.49180000E+02   # muR(MX)             
        45     9.49180000E+02   # mcR(MX)             
        46     3.80310000E+03   # mtR(MX)             
        47     7.38960000E+02   # mdR(MX)             
        48     7.38960000E+02   # msR(MX)             
        49     4.43010000E+02   # mbR(MX)             
#
BLOCK MASS  # Mass Spectrum
# PDG code           mass       particle
        24     8.03789911E+01   # W+
        25     1.27755067E+02   # h
        35     3.89838917E+03   # H
        36     3.89838999E+03   # A
        37     3.89935651E+03   # H+
         5     4.81876030E+00   # b-quark pole mass calculated from mb(mb)_Msbar
   1000001     2.85153180E+03   # ~d_L
   2000001     8.75712593E+02   # ~d_R
   1000002     2.85053324E+03   # ~u_L
   2000002     1.07023718E+03   # ~u_R
   1000003     2.85153180E+03   # ~s_L
   2000003     8.75712593E+02   # ~s_R
   1000004     2.85053324E+03   # ~c_L
   2000004     1.07023718E+03   # ~c_R
   1000005     5.73604822E+02   # ~b_1
   2000005     2.17477915E+03   # ~b_2
   1000006     2.16788190E+03   # ~t_1
   2000006     3.82927028E+03   # ~t_2
   1000011     3.90960055E+03   # ~e_L
   2000011     1.20020879E+03   # ~e_R
   1000012     3.90846847E+03   # ~nu_eL
   1000013     3.90960055E+03   # ~mu_L
   2000013     1.20020879E+03   # ~mu_R
   1000014     3.90846847E+03   # ~nu_muL
   1000015     1.64367043E+03   # ~tau_1
   2000015     2.61895090E+03   # ~tau_2
   1000016     2.61738838E+03   # ~nu_tauL
   1000021     3.99128654E+03   # ~g
   1000022     2.99137528E+02   # ~chi_10
   1000023    -3.04976620E+02   # ~chi_20
   1000025     6.52721307E+02   # ~chi_30
   1000035     3.39413571E+03   # ~chi_40
   1000024     3.03214428E+02   # ~chi_1+
   1000037     3.39430098E+03   # ~chi_2+
#
BLOCK NMIX  # Neutralino Mixing Matrix
  1  1     8.91225624E-02   # N_11
  1  2    -1.81998974E-02   # N_12
  1  3     7.08559308E-01   # N_13
  1  4    -6.99763988E-01   # N_14
  2  1    -3.16067943E-02   # N_21
  2  2     1.48111980E-02   # N_22
  2  3     7.04450633E-01   # N_23
  2  4     7.08894171E-01   # N_24
  3  1     9.95518967E-01   # N_31
  3  2     2.50921624E-03   # N_32
  3  3    -4.10661672E-02   # N_33
  3  4     8.51425906E-02   # N_34
  4  1    -4.07929986E-04   # N_41
  4  2     9.99721509E-01   # N_42
  4  3     2.56570736E-03   # N_43
  4  4    -2.34553780E-02   # N_44
#
BLOCK UMIX  # Chargino Mixing Matrix U
  1  1    -3.62917937E-03   # U_11
  1  2     9.99993415E-01   # U_12
  2  1    -9.99993415E-01   # U_21
  2  2    -3.62917937E-03   # U_22
#
BLOCK VMIX  # Chargino Mixing Matrix V
  1  1    -3.31778360E-02   # V_11
  1  2     9.99449464E-01   # V_12
  2  1    -9.99449464E-01   # V_21
  2  2    -3.31778360E-02   # V_22
#
BLOCK STOPMIX  # Stop Mixing Matrix
  1  1     9.97805401E-01   # cos(theta_t)
  1  2     6.62146640E-02   # sin(theta_t)
  2  1    -6.62146640E-02   # -sin(theta_t)
  2  2     9.97805401E-01   # cos(theta_t)
#
BLOCK SBOTMIX  # Sbottom Mixing Matrix
  1  1     6.87712421E-03   # cos(theta_b)
  1  2     9.99976352E-01   # sin(theta_b)
  2  1    -9.99976352E-01   # -sin(theta_b)
  2  2     6.87712421E-03   # cos(theta_b)
#
BLOCK STAUMIX  # Stau Mixing Matrix
  1  1     7.18787033E-03   # cos(theta_tau)
  1  2     9.99974167E-01   # sin(theta_tau)
  2  1    -9.99974167E-01   # -sin(theta_tau)
  2  2     7.18787033E-03   # cos(theta_tau)
#
BLOCK ALPHA  # Higgs mixing
          -2.18258432E-02   # Mixing angle in the neutral Higgs boson sector
#
BLOCK HMIX Q=  2.81324500E+03  # DRbar Higgs Parameters
         1     2.97005680E+02   # mu(Q)MSSM           
         2     4.58804365E+01   # tan                 
         3     2.42980375E+02   # higgs               
         4     1.56582524E+07   # mA^2(Q)MSSM         
#
BLOCK GAUGE Q=  2.81324500E+03  # The gauge couplings
     1     3.65105950E-01   # gprime(Q) DRbar
     2     6.36200339E-01   # g(Q) DRbar
     3     1.00874858E+00   # g3(Q) DRbar
#
BLOCK AU Q=  2.81324500E+03  # The trilinear couplings
  1  1     0.00000000E+00   # A_u(Q) DRbar
  2  2     0.00000000E+00   # A_c(Q) DRbar
  3  3    -4.57909998E+03   # A_t(Q) DRbar
#
BLOCK AD Q=  2.81324500E+03  # The trilinear couplings
  1  1     0.00000000E+00   # A_d(Q) DRbar
  2  2     0.00000000E+00   # A_s(Q) DRbar
  3  3     3.64540014E+02   # A_b(Q) DRbar
#
BLOCK AE Q=  2.81324500E+03  # The trilinear couplings
  1  1     0.00000000E+00   # A_e(Q) DRbar
  2  2     0.00000000E+00   # A_mu(Q) DRbar
  3  3    -2.93920999E+03   # A_tau(Q) DRbar
#
BLOCK Yu Q=  2.81324500E+03  # The Yukawa couplings
  1  1     0.00000000E+00   # y_u(Q) DRbar
  2  2     0.00000000E+00   # y_c(Q) DRbar
  3  3     8.10332930E-01   # y_t(Q) DRbar
#
BLOCK Yd Q=  2.81324500E+03  # The Yukawa couplings
  1  1     0.00000000E+00   # y_d(Q) DRbar
  2  2     0.00000000E+00   # y_s(Q) DRbar
  3  3     6.04210050E-01   # y_b(Q) DRbar
#
BLOCK Ye Q=  2.81324500E+03  # The Yukawa couplings
  1  1     0.00000000E+00   # y_e(Q) DRbar
  2  2     0.00000000E+00   # y_mu(Q) DRbar
  3  3     4.78506964E-01   # y_tau(Q) DRbar
#
BLOCK MSOFT Q=  2.81324500E+03  # The soft SUSY breaking masses at the scale Q
         1     6.60760000E+02   # M_1(Q)              
         2     3.40975000E+03   # M_2(Q)              
         3     3.99988000E+03   # M_3(Q)              
        21     1.52531181E+07   # mH1^2(Q)            
        22    -2.71763767E+04   # mH2^2(Q)            
        31     3.89172000E+03   # meL(Q)              
        32     3.89172000E+03   # mmuL(Q)             
        33     2.60179000E+03   # mtauL(Q)            
        34     1.19477000E+03   # meR(Q)              
        35     1.19477000E+03   # mmuR(Q)             
        36     1.65585000E+03   # mtauR(Q)            
        41     2.72805998E+03   # mqL1(Q)             
        42     2.72805998E+03   # mqL2(Q)             
        43     2.08246995E+03   # mqL3(Q)             
        44     9.49179956E+02   # muR(Q)              
        45     9.49179956E+02   # mcR(Q)              
        46     3.80309996E+03   # mtR(Q)              
        47     7.38959944E+02   # mdR(Q)              
        48     7.38959944E+02   # msR(Q)              
        49     4.43009855E+02   # mbR(Q)              
#
Block HiggsBoundsInputHiggsCouplingsFermions
# ScalarNormEffCoupSq PseudoSNormEffCoupSq NP   IP1 IP2 IP2
    1.00307740E+00    0.00000000E+00        3  25   5   5  # h0-b-b eff. coupling^2, normalised to SM
    2.10501138E+03    0.00000000E+00        3  35   5   5  # H0-b-b eff. coupling^2, normalised to SM
    0.00000000E+00    2.10501445E+03        3  36   5   5  # A0-b-b eff. coupling^2, normalised to SM
#
    9.99998538E-01    0.00000000E+00        3  25   6   6  # h0-t-t eff. coupling^2, normalised to SM
    4.76518060E-04    0.00000000E+00        3  35   6   6  # H0-t-t eff. coupling^2, normalised to SM
    0.00000000E+00    4.75056121E-04        3  36   6   6  # A0-t-t eff. coupling^2, normalised to SM
#
    1.00307740E+00    0.00000000E+00        3  25  15  15  # h0-tau-tau eff. coupling^2, normalised to SM
    2.10501138E+03    0.00000000E+00        3  35  15  15  # H0-tau-tau eff. coupling^2, normalised to SM
    0.00000000E+00    2.10501445E+03        3  36  15  15  # A0-tau-tau eff. coupling^2, normalised to SM
#
Block HiggsBoundsInputHiggsCouplingsBosons
    9.99999999E-01        3  25  24  24  # h0-W-W eff. coupling^2, normalised to SM
    1.12301723E-09        3  35  24  24  # H0-W-W eff. coupling^2, normalised to SM
    0.00000000E+00        3  36  24  24  # A0-W-W eff. coupling^2, normalised to SM
#
    9.99999999E-01        3  25  23  23  # h0-Z-Z eff. coupling^2, normalised to SM
    1.12301723E-09        3  35  23  23  # H0-Z-Z eff. coupling^2, normalised to SM
    0.00000000E+00        3  36  23  23  # A0-Z-Z eff. coupling^2, normalised to SM
#
    8.86634932E-01        3  25  21  21  # h0-g-g eff. coupling^2, normalised to SM
    1.92408375E-13        3  35  21  21  # H0-g-g eff. coupling^2, normalised to SM
    5.52966938E-13        3  36  21  21  # A0-g-g eff. coupling^2, normalised to SM
#
    0.00000000E+00        3  25  25  23  # h0-h0-Z eff. coupling^2, normalised to SM
    0.00000000E+00        3  35  25  23  # H0-h0-Z eff. coupling^2, normalised to SM
    1.12301723E-09        3  36  25  23  # A0-h0-Z eff. coupling^2, normalised to SM
    0.00000000E+00        3  35  35  23  # H0-H0-Z eff. coupling^2, normalised to SM
    9.99999999E-01        3  36  35  23  # A0-H0-Z eff. coupling^2, normalised to SM
    0.00000000E+00        3  36  36  23  # A0-A0-Z eff. coupling^2, normalised to SM
#
    0.00000000E+00        4  25  21  21  23  # h0-g-g-Z eff. coupling^2, normalised to SM
    0.00000000E+00        4  35  21  21  23  # H0-g-g-Z eff. coupling^2, normalised to SM
    0.00000000E+00        4  36  21  21  23  # A0-g-g-Z eff. coupling^2, normalised to SM
#
#
#
#                             =================
#                             |The decay table|
#                             =================
#
# - The QCD corrections to the decays gluino -> squark  + quark
#                                     squark -> gaugino + quark_prime
#                                     squark -> squark_prime + Higgs
#                                     squark -> gluino  + quark
#   are included.
#
# - The multi-body decays for the inos, stops and sbottoms are included.
#
# - The loop induced decays for the gluino, neutralinos and stops
#   are included.
#
# - The SUSY decays of the top quark are included.
#
#
#         PDG            Width
DECAY         6     1.42595567E+00   # top decays
#          BR         NDA      ID1       ID2
     1.00000000E+00    2           5        24   # BR(t ->  b    W+)
#
#         PDG            Width
DECAY   1000021     5.12368863E+02   # gluino decays
#          BR         NDA      ID1       ID2
     1.86355381E-02    2     1000001        -1   # BR(~g -> ~d_L  db)
     1.86355381E-02    2    -1000001         1   # BR(~g -> ~d_L* d )
     7.04446097E-02    2     2000001        -1   # BR(~g -> ~d_R  db)
     7.04446097E-02    2    -2000001         1   # BR(~g -> ~d_R* d )
     1.86627583E-02    2     1000002        -2   # BR(~g -> ~u_L  ub)
     1.86627583E-02    2    -1000002         2   # BR(~g -> ~u_L* u )
     6.69714107E-02    2     2000002        -2   # BR(~g -> ~u_R  ub)
     6.69714107E-02    2    -2000002         2   # BR(~g -> ~u_R* u )
     1.86355381E-02    2     1000003        -3   # BR(~g -> ~s_L  sb)
     1.86355381E-02    2    -1000003         3   # BR(~g -> ~s_L* s )
     7.04446097E-02    2     2000003        -3   # BR(~g -> ~s_R  sb)
     7.04446097E-02    2    -2000003         3   # BR(~g -> ~s_R* s )
     1.86627453E-02    2     1000004        -4   # BR(~g -> ~c_L  cb)
     1.86627453E-02    2    -1000004         4   # BR(~g -> ~c_L* c )
     6.69714088E-02    2     2000004        -4   # BR(~g -> ~c_R  cb)
     6.69714088E-02    2    -2000004         4   # BR(~g -> ~c_R* c )
     7.40716384E-02    2     1000005        -5   # BR(~g -> ~b_1  bb)
     7.40716384E-02    2    -1000005         5   # BR(~g -> ~b_1* b )
     3.84711078E-02    2     2000005        -5   # BR(~g -> ~b_2  bb)
     3.84711078E-02    2    -2000005         5   # BR(~g -> ~b_2* b )
     3.80286351E-02    2     1000006        -6   # BR(~g -> ~t_1  tb)
     3.80286351E-02    2    -1000006         6   # BR(~g -> ~t_1* t )
#
#         PDG            Width
DECAY   1000006     4.26960712E+01   # stop1 decays
#          BR         NDA      ID1       ID2
     3.09718635E-01    2     1000022         6   # BR(~t_1 -> ~chi_10 t )
     3.18178036E-01    2     1000023         6   # BR(~t_1 -> ~chi_20 t )
     8.22014558E-03    2     1000025         6   # BR(~t_1 -> ~chi_30 t )
     3.58279868E-01    2     1000024         5   # BR(~t_1 -> ~chi_1+ b )
     5.60331588E-03    2     1000005        24   # BR(~t_1 -> ~b_1    W+)
#
#         PDG            Width
DECAY   2000006     2.02635641E+02   # stop2 decays
#          BR         NDA      ID1       ID2
     1.18419461E-01    2     1000022         6   # BR(~t_2 -> ~chi_10 t )
     1.21524807E-01    2     1000023         6   # BR(~t_2 -> ~chi_20 t )
     4.40182402E-02    2     1000025         6   # BR(~t_2 -> ~chi_30 t )
     3.81168119E-05    2     1000035         6   # BR(~t_2 -> ~chi_40 t )
     2.42202149E-01    2     1000024         5   # BR(~t_2 -> ~chi_1+ b )
     8.20121997E-05    2     1000037         5   # BR(~t_2 -> ~chi_2+ b )
     1.17674157E-01    2     1000006        25   # BR(~t_2 -> ~t_1    h )
     1.21532556E-01    2     1000006        23   # BR(~t_2 -> ~t_1    Z )
     3.34022020E-05    2     1000005        24   # BR(~t_2 -> ~b_1    W+)
     2.34475099E-01    2     2000005        24   # BR(~t_2 -> ~b_2    W+)
#
#         PDG            Width
DECAY   1000005     3.58174887E+00   # sbottom1 decays
#          BR         NDA      ID1       ID2
     3.09819269E-01    2     1000022         5   # BR(~b_1 -> ~chi_10 b )
     2.96770542E-01    2     1000023         5   # BR(~b_1 -> ~chi_20 b )
     3.93410189E-01    2    -1000024         6   # BR(~b_1 -> ~chi_1- t )
#
#         PDG            Width
DECAY   2000005     4.26398544E+01   # sbottom2 decays
#          BR         NDA      ID1       ID2
     1.79063440E-01    2     1000022         5   # BR(~b_2 -> ~chi_10 b )
     1.76829120E-01    2     1000023         5   # BR(~b_2 -> ~chi_20 b )
     6.60135017E-03    2     1000025         5   # BR(~b_2 -> ~chi_30 b )
     6.31546160E-01    2    -1000024         6   # BR(~b_2 -> ~chi_1- t )
     3.02180630E-03    2     1000005        25   # BR(~b_2 -> ~b_1    h )
     2.93812382E-03    2     1000005        23   # BR(~b_2 -> ~b_1    Z )
#
#         PDG            Width
DECAY   1000002     4.07276045E-01   # sup_L decays
#          BR         NDA      ID1       ID2
     3.63020361E-05    2     1000022         2   # BR(~u_L -> ~chi_10 u)
     2.10265708E-03    2     1000023         2   # BR(~u_L -> ~chi_20 u)
     9.37590460E-01    2     1000025         2   # BR(~u_L -> ~chi_30 u)
     6.02705805E-02    2     1000024         1   # BR(~u_L -> ~chi_1+ d)
#
#         PDG            Width
DECAY   2000002     1.05459083E+00   # sup_R decays
#          BR         NDA      ID1       ID2
     1.68755648E-02    2     1000022         2   # BR(~u_R -> ~chi_10 u)
     2.10837802E-03    2     1000023         2   # BR(~u_R -> ~chi_20 u)
     9.81016057E-01    2     1000025         2   # BR(~u_R -> ~chi_30 u)
#
#         PDG            Width
DECAY   1000001     3.81410664E-01   # sdown_L decays
#          BR         NDA      ID1       ID2
     3.63550884E-02    2     1000022         1   # BR(~d_L -> ~chi_10 d)
     1.27184459E-02    2     1000023         1   # BR(~d_L -> ~chi_20 d)
     9.50156145E-01    2     1000025         1   # BR(~d_L -> ~chi_30 d)
     7.70320933E-04    2    -1000024         2   # BR(~d_L -> ~chi_1- u)
#
#         PDG            Width
DECAY   2000001     1.11363545E-01   # sdown_R decays
#          BR         NDA      ID1       ID2
     3.02953500E-02    2     1000022         1   # BR(~d_R -> ~chi_10 d)
     3.77084449E-03    2     1000023         1   # BR(~d_R -> ~chi_20 d)
     9.65933806E-01    2     1000025         1   # BR(~d_R -> ~chi_30 d)
#
#         PDG            Width
DECAY   1000004     4.09202061E-01   # scharm_L decays
#          BR         NDA      ID1       ID2
     3.63540229E-05    2     1000022         4   # BR(~c_L -> ~chi_10 c)
     2.10560752E-03    2     1000023         4   # BR(~c_L -> ~chi_20 c)
     9.37502326E-01    2     1000025         4   # BR(~c_L -> ~chi_30 c)
     6.03557125E-02    2     1000024         3   # BR(~c_L -> ~chi_1+ s)
#
#         PDG            Width
DECAY   2000004     1.00536139E+00   # scharm_R decays
#          BR         NDA      ID1       ID2
     1.69391984E-02    2     1000022         4   # BR(~c_R -> ~chi_10 c)
     2.11627402E-03    2     1000023         4   # BR(~c_R -> ~chi_20 c)
     9.80944528E-01    2     1000025         4   # BR(~c_R -> ~chi_30 c)
#
#         PDG            Width
DECAY   1000003     3.83216039E-01   # sstrange_L decays
#          BR         NDA      ID1       ID2
     3.64078146E-02    2     1000022         3   # BR(~s_L -> ~chi_10 s)
     1.27365245E-02    2     1000023         3   # BR(~s_L -> ~chi_20 s)
     9.50084239E-01    2     1000025         3   # BR(~s_L -> ~chi_30 s)
     7.71422349E-04    2    -1000024         4   # BR(~s_L -> ~chi_1- c)
#
#         PDG            Width
DECAY   2000003     1.04623733E-01   # sstrange_R decays
#          BR         NDA      ID1       ID2
     3.05697883E-02    2     1000022         3   # BR(~s_R -> ~chi_10 s)
     3.80489820E-03    2     1000023         3   # BR(~s_R -> ~chi_20 s)
     9.65625313E-01    2     1000025         3   # BR(~s_R -> ~chi_30 s)
#
#         PDG            Width
DECAY   1000011     7.77819659E+00   # selectron_L decays
#          BR         NDA      ID1       ID2
     2.17096428E-03    2     1000022        11   # BR(~e_L -> ~chi_10 e-)
     2.21344582E-05    2     1000023        11   # BR(~e_L -> ~chi_20 e-)
     6.29712949E-01    2     1000025        11   # BR(~e_L -> ~chi_30 e-)
     1.22646391E-01    2     1000035        11   # BR(~e_L -> ~chi_40 e-)
     5.26681356E-05    2    -1000024        12   # BR(~e_L -> ~chi_1- nu_e)
     2.45394893E-01    2    -1000037        12   # BR(~e_L -> ~chi_2- nu_e)
#
#         PDG            Width
DECAY   2000011     3.17895074E+00   # selectron_R decays
#          BR         NDA      ID1       ID2
     1.39907590E-02    2     1000022        11   # BR(~e_R -> ~chi_10 e-)
     1.75047541E-03    2     1000023        11   # BR(~e_R -> ~chi_20 e-)
     9.84258766E-01    2     1000025        11   # BR(~e_R -> ~chi_30 e-)
#
#         PDG            Width
DECAY   1000013     7.77819656E+00   # smuon_L decays
#          BR         NDA      ID1       ID2
     2.17096429E-03    2     1000022        13   # BR(~mu_L -> ~chi_10 mu-)
     2.21344583E-05    2     1000023        13   # BR(~mu_L -> ~chi_20 mu-)
     6.29712951E-01    2     1000025        13   # BR(~mu_L -> ~chi_30 mu-)
     1.22646389E-01    2     1000035        13   # BR(~mu_L -> ~chi_40 mu-)
     5.26681358E-05    2    -1000024        14   # BR(~mu_L -> ~chi_1- nu_mu)
     2.45394894E-01    2    -1000037        14   # BR(~mu_L -> ~chi_2- nu_mu)
#
#         PDG            Width
DECAY   2000013     3.17895064E+00   # smuon_R decays
#          BR         NDA      ID1       ID2
     1.39907592E-02    2     1000022        13   # BR(~mu_R -> ~chi_10 mu-)
     1.75047543E-03    2     1000023        13   # BR(~mu_R -> ~chi_20 mu-)
     9.84258765E-01    2     1000025        13   # BR(~mu_R -> ~chi_30 mu-)
#
#         PDG            Width
DECAY   1000015     2.01767162E+01   # stau_1 decays
#          BR         NDA      ID1       ID2
     1.77585316E-01    2     1000022        15   # BR(~tau_1 -> ~chi_10  tau-)
     1.71976367E-01    2     1000023        15   # BR(~tau_1 -> ~chi_20  tau-)
     3.04180499E-01    2     1000025        15   # BR(~tau_1 -> ~chi_30  tau-)
     3.46257818E-01    2    -1000024        16   # BR(~tau_1 -> ~chi_1-  nu_tau)
#
#         PDG            Width
DECAY   2000015     1.48111778E+01   # stau_2 decays
#          BR         NDA      ID1       ID2
     3.94141980E-01    2     1000022        15   # BR(~tau_2 -> ~chi_10  tau-)
     3.89196261E-01    2     1000023        15   # BR(~tau_2 -> ~chi_20  tau-)
     2.07632285E-01    2     1000025        15   # BR(~tau_2 -> ~chi_30  tau-)
     4.37685982E-06    2    -1000024        16   # BR(~tau_2 -> ~chi_1-  nu_tau)
     4.59685949E-03    2     1000015        25   # BR(~tau_2 -> ~tau_1   h)
     4.42823720E-03    2     1000015        23   # BR(~tau_2 -> ~tau_1   Z)
#
#         PDG            Width
DECAY   1000012     7.78762288E+00   # snu_eL decays
#          BR         NDA      ID1       ID2
     9.60350481E-03    2     1000022        12   # BR(~nu_eL -> ~chi_10 nu_e)
     2.16716681E-03    2     1000023        12   # BR(~nu_eL -> ~chi_20 nu_e)
     6.17798241E-01    2     1000025        12   # BR(~nu_eL -> ~chi_30 nu_e)
     1.22142986E-01    2     1000035        12   # BR(~nu_eL -> ~chi_40 nu_e)
     4.39513656E-03    2     1000024        11   # BR(~nu_eL -> ~chi_1+ e-)
     2.43892964E-01    2     1000037        11   # BR(~nu_eL -> ~chi_2+ e-)
#
#         PDG            Width
DECAY   1000014     7.78762283E+00   # snu_muL decays
#          BR         NDA      ID1       ID2
     9.60350487E-03    2     1000022        14   # BR(~nu_muL -> ~chi_10 nu_mu)
     2.16716683E-03    2     1000023        14   # BR(~nu_muL -> ~chi_20 nu_mu)
     6.17798245E-01    2     1000025        14   # BR(~nu_muL -> ~chi_30 nu_mu)
     1.22142987E-01    2     1000035        14   # BR(~nu_muL -> ~chi_40 nu_mu)
     4.39513658E-03    2     1000024        13   # BR(~nu_muL -> ~chi_1+ mu-)
     2.43892960E-01    2     1000037        13   # BR(~nu_muL -> ~chi_2+ mu-)
#
#         PDG            Width
DECAY   1000016     1.48130126E+01   # snu_tauL decays
#          BR         NDA      ID1       ID2
     3.33223484E-03    2     1000022        16   # BR(~nu_tauL -> ~chi_10 nu_tau)
     7.51530619E-04    2     1000023        16   # BR(~nu_tauL -> ~chi_20 nu_tau)
     2.02427012E-01    2     1000025        16   # BR(~nu_tauL -> ~chi_30 nu_tau)
     7.84924341E-01    2     1000024        15   # BR(~nu_tauL -> ~chi_1+ tau-)
     8.56488199E-03    2    -1000015       -24   # BR(~nu_tauL -> ~tau_1+ W-)
#
#         PDG            Width
DECAY   1000024     1.21511834E-09   # chargino1+ decays
#           BR         NDA      ID1       ID2       ID3
     3.57158968E-01    3     1000022         2        -1   # BR(~chi_1+ -> ~chi_10 u    db)
     3.57158968E-01    3     1000022         4        -3   # BR(~chi_1+ -> ~chi_10 c    sb)
     1.19053082E-01    3     1000022       -11        12   # BR(~chi_1+ -> ~chi_10 e+   nu_e)
     1.19053082E-01    3     1000022       -13        14   # BR(~chi_1+ -> ~chi_10 mu+  nu_mu)
     4.75758990E-02    3     1000022       -15        16   # BR(~chi_1+ -> ~chi_10 tau+ nu_tau)
#
#         PDG            Width
DECAY   1000037     7.39924342E+01   # chargino2+ decays
#          BR         NDA      ID1       ID2
     4.86597173E-02    2     1000002        -1   # BR(~chi_2+ -> ~u_L     db)
     4.85521764E-02    2    -1000001         2   # BR(~chi_2+ -> ~d_L*    u )
     4.86597064E-02    2     1000004        -3   # BR(~chi_2+ -> ~c_L     sb)
     4.85520026E-02    2    -1000003         4   # BR(~chi_2+ -> ~s_L*     c )
     1.92088219E-01    2     1000006        -5   # BR(~chi_2+ -> ~t_1     bb)
     6.08728868E-06    2    -1000005         6   # BR(~chi_2+ -> ~b_1*    t )
     1.88887683E-01    2    -2000005         6   # BR(~chi_2+ -> ~b_2*    t )
     3.03183038E-02    2     1000016       -15   # BR(~chi_2+ -> ~nu_tau1 tau+)
     2.15120924E-06    2    -1000015        16   # BR(~chi_2+ -> ~tau_1+  nu_tau)
     3.02449538E-02    2    -2000015        16   # BR(~chi_2+ -> ~tau_2+  nu_tau)
     9.23783726E-02    2     1000024        23   # BR(~chi_2+ -> ~chi_1+  Z )
     8.73461575E-02    2     1000022        24   # BR(~chi_2+ -> ~chi_10  W+)
     8.98465578E-02    2     1000023        24   # BR(~chi_2+ -> ~chi_20  W+)
     1.77582855E-03    2     1000025        24   # BR(~chi_2+ -> ~chi_30  W+)
     9.26820830E-02    2     1000024        25   # BR(~chi_2+ -> ~chi_1+  h )
#
#         PDG            Width
DECAY   1000022     0.00000000E+00   # neutralino1 decays
#
#         PDG            Width
DECAY   1000023     5.75896053E-09   # neutralino2 decays
#          BR         NDA      ID1       ID2
     4.21387949E-02    2     1000022        22   # BR(~chi_20 -> ~chi_10 gam)
#           BR         NDA      ID1       ID2       ID3
     1.33750619E-01    3     1000022        -2         2   # BR(~chi_20 -> ~chi_10 ub      u)
     1.73724743E-01    3     1000022        -1         1   # BR(~chi_20 -> ~chi_10 db      d)
     1.33750619E-01    3     1000022        -4         4   # BR(~chi_20 -> ~chi_10 cb      c)
     1.73724743E-01    3     1000022        -3         3   # BR(~chi_20 -> ~chi_10 sb      s)
     3.99813247E-02    3     1000022       -11        11   # BR(~chi_20 -> ~chi_10 e+      e-)
     3.99813247E-02    3     1000022       -13        13   # BR(~chi_20 -> ~chi_10 mu+     mu-)
     1.92158723E-02    3     1000022       -15        15   # BR(~chi_20 -> ~chi_10 tau+    tau-)
     7.99590638E-02    3     1000022       -12        12   # BR(~chi_20 -> ~chi_10 nu_eb   nu_e)
     7.99590638E-02    3     1000022       -14        14   # BR(~chi_20 -> ~chi_10 nu_mub  nu_mu)
     7.99592521E-02    3     1000022       -16        16   # BR(~chi_20 -> ~chi_10 nu_taub nu_tau)
     1.15637401E-03    3     1000024        -2         1   # BR(~chi_20 -> ~chi_1+ ub      d)
     1.15637401E-03    3    -1000024        -1         2   # BR(~chi_20 -> ~chi_1- db      u)
     3.85458118E-04    3     1000024       -12        11   # BR(~chi_20 -> ~chi_1+ nu_eb   e-)
     3.85458118E-04    3    -1000024        12       -11   # BR(~chi_20 -> ~chi_1- nu_e    e+)
     3.85458118E-04    3     1000024       -14        13   # BR(~chi_20 -> ~chi_1+ nu_mub  mu-)
     3.85458118E-04    3    -1000024        14       -13   # BR(~chi_20 -> ~chi_1- nu_mu   mu+)
#
#         PDG            Width
DECAY   1000025     1.47863433E+00   # neutralino3 decays
#          BR         NDA      ID1       ID2
     2.99326141E-02    2     1000022        23   # BR(~chi_30 -> ~chi_10   Z )
     2.09909689E-01    2     1000023        23   # BR(~chi_30 -> ~chi_20   Z )
     2.39230649E-01    2     1000024       -24   # BR(~chi_30 -> ~chi_1+   W-)
     2.39230649E-01    2    -1000024        24   # BR(~chi_30 -> ~chi_1-   W+)
     2.17562215E-01    2     1000022        25   # BR(~chi_30 -> ~chi_10   h )
     2.41012656E-02    2     1000023        25   # BR(~chi_30 -> ~chi_20   h )
     2.00164588E-02    2     1000005        -5   # BR(~chi_30 -> ~b_1      bb)
     2.00164588E-02    2    -1000005         5   # BR(~chi_30 -> ~b_1*     b )
#
#         PDG            Width
DECAY   1000035     7.39816419E+01   # neutralino4 decays
#          BR         NDA      ID1       ID2
     3.54094939E-02    2     1000022        23   # BR(~chi_40 -> ~chi_10   Z )
     5.63936081E-02    2     1000023        23   # BR(~chi_40 -> ~chi_20   Z )
     5.44098583E-04    2     1000025        23   # BR(~chi_40 -> ~chi_30   Z )
     8.95713875E-02    2     1000024       -24   # BR(~chi_40 -> ~chi_1+   W-)
     8.95713875E-02    2    -1000024        24   # BR(~chi_40 -> ~chi_1-   W+)
     5.50752018E-02    2     1000022        25   # BR(~chi_40 -> ~chi_10   h )
     3.62817078E-02    2     1000023        25   # BR(~chi_40 -> ~chi_20   h )
     1.24564411E-03    2     1000025        25   # BR(~chi_40 -> ~chi_30   h )
     2.43305948E-02    2     1000002        -2   # BR(~chi_40 -> ~u_L      ub)
     2.43305948E-02    2    -1000002         2   # BR(~chi_40 -> ~u_L*     u )
     2.15587294E-08    2     2000002        -2   # BR(~chi_40 -> ~u_R      ub)
     2.15587294E-08    2    -2000002         2   # BR(~chi_40 -> ~u_R*     u )
     2.42579654E-02    2     1000001        -1   # BR(~chi_40 -> ~d_L      db)
     2.42579654E-02    2    -1000001         1   # BR(~chi_40 -> ~d_L*     d )
     5.78597107E-09    2     2000001        -1   # BR(~chi_40 -> ~d_R      db)
     5.78597107E-09    2    -2000001         1   # BR(~chi_40 -> ~d_R*     d )
     2.43305080E-02    2     1000004        -4   # BR(~chi_40 -> ~c_L      cb)
     2.43305080E-02    2    -1000004         4   # BR(~chi_40 -> ~c_L*     c )
     2.15587282E-08    2     2000004        -4   # BR(~chi_40 -> ~c_R      cb)
     2.15587282E-08    2    -2000004         4   # BR(~chi_40 -> ~c_R*     c )
     2.42579654E-02    2     1000003        -3   # BR(~chi_40 -> ~s _L      sb)
     2.42579654E-02    2    -1000003         3   # BR(~chi_40 -> ~s _L*     s )
     5.78597107E-09    2     2000003        -3   # BR(~chi_40 -> ~s _R      sb)
     5.78597107E-09    2    -2000003         3   # BR(~chi_40 -> ~s _R*     s )
     9.42721748E-02    2     1000006        -6   # BR(~chi_40 -> ~t_1      tb)
     9.42721748E-02    2    -1000006         6   # BR(~chi_40 -> ~t_1*     t )
     3.08107796E-06    2     1000005        -5   # BR(~chi_40 -> ~b_1      bb)
     3.08107796E-06    2    -1000005         5   # BR(~chi_40 -> ~b_1*     b )
     9.62243100E-02    2     2000005        -5   # BR(~chi_40 -> ~b_2      bb)
     9.62243100E-02    2    -2000005         5   # BR(~chi_40 -> ~b_2*     b )
     1.54995497E-08    2     2000011       -11   # BR(~chi_40 -> ~e_R-     e+)
     1.54995497E-08    2    -2000011        11   # BR(~chi_40 -> ~e_R+     e-)
     1.54995497E-08    2     2000013       -13   # BR(~chi_40 -> ~mu_R-    mu+)
     1.54995497E-08    2    -2000013        13   # BR(~chi_40 -> ~mu_R+    mu-)
     1.08533760E-06    2     1000015       -15   # BR(~chi_40 -> ~tau_1-   tau+)
     1.08533760E-06    2    -1000015        15   # BR(~chi_40 -> ~tau_1+   tau-)
     1.51041849E-02    2     2000015       -15   # BR(~chi_40 -> ~tau_2-   tau+)
     1.51041849E-02    2    -2000015        15   # BR(~chi_40 -> ~tau_2+   tau-)
     1.51717801E-02    2     1000016       -16   # BR(~chi_40 -> ~nu_tau1  nu_taub)
     1.51717801E-02    2    -1000016        16   # BR(~chi_40 -> ~nu_tau1* nu_tau )
#
#         PDG            Width
DECAY        25     4.65909251E-03   # h decays
#          BR         NDA      ID1       ID2
     5.72596067E-01    2           5        -5   # BR(h -> b       bb     )
     5.69345540E-02    2         -15        15   # BR(h -> tau+    tau-   )
     2.01519824E-04    2         -13        13   # BR(h -> mu+     mu-    )
     2.19002516E-04    2           3        -3   # BR(h -> s       sb     )
     1.89439709E-02    2           4        -4   # BR(h -> c       cb     )
     7.29753444E-02    2          21        21   # BR(h -> g       g      )
     2.21917454E-03    2          22        22   # BR(h -> gam     gam    )
     1.70137594E-03    2          22        23   # BR(h -> Z       gam    )
     2.42717863E-01    2          24       -24   # BR(h -> W+      W-     )
     3.14911283E-02    2          23        23   # BR(h -> Z       Z      )
#
#         PDG            Width
DECAY        35     1.07872781E+02   # H decays
#          BR         NDA      ID1       ID2
     7.79913393E-01    2           5        -5   # BR(H -> b       bb     )
     1.52834089E-01    2         -15        15   # BR(H -> tau+    tau-   )
     5.45425074E-04    2         -13        13   # BR(H -> mu+     mu-    )
     2.95868682E-04    2           3        -3   # BR(H -> s       sb     )
     6.82859175E-09    2           4        -4   # BR(H -> c       cb     )
     6.74029633E-04    2           6        -6   # BR(H -> t       tb     )
     1.03242379E-05    2          21        21   # BR(H -> g       g      )
     2.60050935E-09    2          22        22   # BR(H -> gam     gam    )
     6.14045596E-09    2          23        22   # BR(H -> Z       gam    )
     1.98544910E-07    2          24       -24   # BR(H -> W+      W-     )
     9.91051918E-08    2          23        23   # BR(H -> Z       Z      )
     7.09315090E-07    2          25        25   # BR(H -> h       h      )
     3.23484471E-04    2     1000024  -1000024   # BR(H -> ~chi_1+ ~chi_1-)
     7.14574681E-03    2     1000024  -1000037   # BR(H -> ~chi_1+ ~chi_2-)
     7.14574681E-03    2     1000037  -1000024   # BR(H -> ~chi_2+ ~chi_1-)
     6.17847391E-04    2     1000022   1000022   # BR(H -> ~chi_10 ~chi_10)
     1.54155588E-04    2     1000023   1000023   # BR(H -> ~chi_20 ~chi_20)
     1.11013555E-04    2     1000025   1000025   # BR(H -> ~chi_30 ~chi_30)
     9.81543540E-05    2     1000022   1000023   # BR(H -> ~chi_10 ~chi_20)
     1.85758154E-02    2     1000022   1000025   # BR(H -> ~chi_10 ~chi_30)
     1.46736336E-03    2     1000022   1000035   # BR(H -> ~chi_10 ~chi_40)
     2.15657338E-02    2     1000023   1000025   # BR(H -> ~chi_20 ~chi_30)
     5.68703632E-03    2     1000023   1000035   # BR(H -> ~chi_20 ~chi_40)
     2.27427147E-08    2     2000002  -2000002   # BR(H -> ~u_R    ~u_R*  )
     2.27427147E-08    2     2000004  -2000004   # BR(H -> ~c_R    ~c_R*  )
     6.07764404E-09    2     2000001  -2000001   # BR(H -> ~d_R    ~d_R*  )
     6.07764404E-09    2     2000003  -2000003   # BR(H -> ~s_R    ~s_R*  )
     1.31958075E-06    2     1000005  -1000005   # BR(H -> ~b_1    ~b_1*  )
     1.41387360E-03    2     1000005  -2000005   # BR(H -> ~b_1    ~b_2*  )
     1.41387360E-03    2     2000005  -1000005   # BR(H -> ~b_2    ~b_1*  )
     1.60808121E-08    2     2000011  -2000011   # BR(H -> ~e_R-   ~e_R+  )
     1.60808121E-08    2     2000013  -2000013   # BR(H -> ~mu_R-  ~mu_R+ )
     4.59313044E-06    2     1000015  -1000015   # BR(H -> ~tau_1- ~tau_1+)
#
#         PDG            Width
DECAY        36     1.07876666E+02   # A decays
#          BR         NDA      ID1       ID2
     7.79898831E-01    2           5        -5   # BR(A -> b       bb     )
     1.52828971E-01    2         -15        15   # BR(A -> tau+    tau-   )
     5.45406353E-04    2         -13        13   # BR(A -> mu+     mu-    )
     2.95868392E-04    2           3        -3   # BR(A -> s       sb     )
     6.87069747E-09    2           4        -4   # BR(A -> c       cb     )
     6.75287995E-04    2           6        -6   # BR(A -> t       tb     )
     1.75017032E-05    2          21        21   # BR(A -> g       g      )
     1.68882243E-08    2          22        22   # BR(A -> gam     gam    )
     1.35494051E-08    2          23        22   # BR(A -> Z       gam    )
     2.01411435E-07    2          23        25   # BR(A -> Z       h      )
     3.34672245E-04    2     1000024  -1000024   # BR(A -> ~chi_1+ ~chi_1-)
     7.14317300E-03    2     1000024  -1000037   # BR(A -> ~chi_1+ ~chi_2-)
     7.14317300E-03    2     1000037  -1000024   # BR(A -> ~chi_2+ ~chi_1-)
     6.89676772E-04    2     1000022   1000022   # BR(A -> ~chi_10 ~chi_10)
     1.44734376E-04    2     1000023   1000023   # BR(A -> ~chi_20 ~chi_20)
     1.49841870E-04    2     1000025   1000025   # BR(A -> ~chi_30 ~chi_30)
     7.44995178E-05    2     1000022   1000023   # BR(A -> ~chi_10 ~chi_20)
     2.13388408E-02    2     1000022   1000025   # BR(A -> ~chi_10 ~chi_30)
     5.76974693E-03    2     1000022   1000035   # BR(A -> ~chi_10 ~chi_40)
     1.87263513E-02    2     1000023   1000025   # BR(A -> ~chi_20 ~chi_30)
     1.39480086E-03    2     1000023   1000035   # BR(A -> ~chi_20 ~chi_40)
     1.41419222E-03    2     1000005  -2000005   # BR(A -> ~b_1    ~b_2*  )
     1.41419222E-03    2    -1000005   2000005   # BR(A -> ~b_1*   ~b_2   )
#
#         PDG            Width
DECAY        37     1.01261010E+02   # H+ decays
#          BR         NDA      ID1       ID2
     1.25390164E-03    2           4        -5   # BR(H+ -> c       bb     )
     1.62854068E-01    2         -15        16   # BR(H+ -> tau+    nu_tau )
     5.81183284E-04    2         -13        14   # BR(H+ -> mu+     nu_mu  )
     1.25390074E-05    2           2        -5   # BR(H+ -> u       bb     )
     1.57775590E-05    2           2        -3   # BR(H+ -> u       sb     )
     3.10557307E-04    2           4        -3   # BR(H+ -> c       sb     )
     7.46082389E-01    2           6        -5   # BR(H+ -> t       bb     )
     2.14809215E-07    2          24        25   # BR(H+ -> W+      h      )
     1.09608829E-14    2          24        36   # BR(H+ -> W+      A      )
     1.75909605E-04    2     1000024   1000022   # BR(H+ -> ~chi_1+ ~chi_10)
     4.54470020E-07    2     1000024   1000023   # BR(H+ -> ~chi_1+ ~chi_20)
     4.37457200E-02    2     1000024   1000025   # BR(H+ -> ~chi_1+ ~chi_30)
     7.65198837E-03    2     1000024   1000035   # BR(H+ -> ~chi_1+ ~chi_40)
     7.74080368E-03    2     1000037   1000022   # BR(H+ -> ~chi_2+ ~chi_10)
     7.57085032E-03    2     1000037   1000023   # BR(H+ -> ~chi_2+ ~chi_20)
     2.20036434E-02    2     1000006  -1000005   # BR(H+ -> ~t_1    ~b_1*  )
