#
#                              ======================
#                              | THE SUSYHIT OUTPUT |
#                              ======================
#
#
#              ------------------------------------------------------
#              |     This is the output of the SUSY-HIT package     |
#              |  created by A.Djouadi, M.Muehlleitner and M.Spira. |
#              |  In case of problems with SUSY-HIT email to        |
#              |           margarete.muehlleitner@cern.ch           |
#              |           michael.spira@psi.ch                     |
#              |           abdelhak.djouadi@cern.ch                 |
#              ------------------------------------------------------
#
#              ------------------------------------------------------
#              |  SUSY Les Houches Accord - MSSM Spectrum + Decays  |
#              |              based on the decay programs           |
#              |                                                    |
#              |                     SDECAY 1.3b                    |
#              |                                                    |
#              |  Authors: M.Muhlleitner, A.Djouadi and Y.Mambrini  |
#              |  Ref.:    Comput.Phys.Commun.168(2005)46           |
#              |           [hep-ph/0311167]                         |
#              |                                                    |
#              |                     HDECAY 3.4                     |
#              |                                                    |
#              |  By: A.Djouadi,J.Kalinowski,M.Muhlleitner,M.Spira  |
#              |  Ref.:    Comput.Phys.Commun.108(1998)56           |
#              |           [hep-ph/9704448]                         |
#              |                                                    |
#              |                                                    |
#              |  If not stated otherwise all DRbar couplings and   |
#              |  soft SUSY breaking masses are given at the scale  |
#              |  Q=  0.20454040E+04
#              |                                                    |
#              ------------------------------------------------------
#
#
BLOCK DCINFO  # Decay Program information
     1   SDECAY/HDECAY # decay calculator
     2   1.3b  /3.4    # version number
#
BLOCK SPINFO  # Spectrum calculator information
     1     SOFTSUSY    # spectrum calculator               
     2     3.4.0       # version number                    
#
BLOCK MODSEL  # Model selection
     1     0   #  nonUniversal                                     
#
BLOCK SMINPUTS  # Standard Model inputs
         1     1.27908970E+02   # alpha_em^-1(M_Z)^MSbar
         2     1.16637870E-05   # G_F [GeV^-2]
         3     1.18400000E-01   # alpha_S(M_Z)^MSbar
         4     9.11876000E+01   # M_Z pole mass
         5     4.18000000E+00   # mb(mb)^MSbar
         6     1.73200000E+02   # mt pole mass
         7     1.77700000E+00   # mtau pole mass
#
BLOCK MINPAR  # Input parameters - minimal models
         3     4.44700000E+01   # tanb                
#
BLOCK EXTPAR  # Input parameters - non-minimal models
         0    -1.00000000E+00   # Set                 
         1    -2.61597000E+03   # M_1(MX)             
         2    -2.33724000E+03   # M_2(MX)             
         3     1.03065000E+03   # M_3(MX)             
        11    -3.79165000E+03   # At(MX)              
        12     1.86000000E+02   # Ab(MX)              
        13     8.96550000E+02   # Atau(MX)            
        23     7.68000000E+02   # mu(MX)              
        26     2.16449000E+03   # mA(pole)            
        31     3.83430000E+03   # meL(MX)             
        32     3.83430000E+03   # mmuL(MX)            
        33     3.81354000E+03   # mtauL(MX)           
        34     3.91690000E+03   # meR(MX)             
        35     3.91690000E+03   # mmuR(MX)            
        36     3.90533000E+03   # mtauR(MX)           
        41     3.67149000E+03   # mqL1(MX)            
        42     3.67149000E+03   # mqL2(MX)            
        43     1.32642000E+03   # mqL3(MX)            
        44     3.13941000E+03   # muR(MX)             
        45     3.13941000E+03   # mcR(MX)             
        46     3.16173000E+03   # mtR(MX)             
        47     1.38686000E+03   # mdR(MX)             
        48     1.38686000E+03   # msR(MX)             
        49     7.81790000E+02   # mbR(MX)             
#
BLOCK MASS  # Mass Spectrum
# PDG code           mass       particle
        24     8.03944658E+01   # W+
        25     1.27888678E+02   # h
        35     2.16449185E+03   # H
        36     2.16448999E+03   # A
        37     2.16617075E+03   # H+
         5     4.81876030E+00   # b-quark pole mass calculated from mb(mb)_Msbar
   1000001     3.71297379E+03   # ~d_L
   2000001     1.43250442E+03   # ~d_R
   1000002     3.71225152E+03   # ~u_L
   2000002     3.17119845E+03   # ~u_R
   1000003     3.71297379E+03   # ~s_L
   2000003     1.43250442E+03   # ~s_R
   1000004     3.71225152E+03   # ~c_L
   2000004     3.17119845E+03   # ~c_R
   1000005     8.46879613E+02   # ~b_1
   2000005     1.37919216E+03   # ~b_2
   1000006     1.37018162E+03   # ~t_1
   2000006     3.15037114E+03   # ~t_2
   1000011     3.84274187E+03   # ~e_L
   2000011     3.92162510E+03   # ~e_R
   1000012     3.84159663E+03   # ~nu_eL
   1000013     3.84274187E+03   # ~mu_L
   2000013     3.92162510E+03   # ~mu_R
   1000014     3.84159663E+03   # ~nu_muL
   1000015     3.81977360E+03   # ~tau_1
   2000015     3.90717508E+03   # ~tau_2
   1000016     3.81924257E+03   # ~nu_tauL
   1000021     1.20143781E+03   # ~g
   1000022    -7.85189819E+02   # ~chi_10
   1000023     7.88449843E+02   # ~chi_20
   1000025    -2.37494093E+03   # ~chi_30
   1000035    -2.61586359E+03   # ~chi_40
   1000024     7.86855156E+02   # ~chi_1+
   1000037     2.37511848E+03   # ~chi_2+
#
BLOCK NMIX  # Neutralino Mixing Matrix
  1  1     1.63337268E-02   # N_11
  1  2    -3.42158683E-02   # N_12
  1  3     7.07600441E-01   # N_13
  1  4     7.05594855E-01   # N_14
  2  1     9.20142012E-03   # N_21
  2  2    -1.81995066E-02   # N_22
  2  3    -7.06503264E-01   # N_23
  2  4     7.07415896E-01   # N_24
  3  1     6.37037147E-03   # N_31
  3  2     9.99232826E-01   # N_32
  3  3     1.13329119E-02   # N_33
  3  4     3.69424369E-02   # N_34
  4  1     9.99803962E-01   # N_41
  4  2    -5.64025604E-03   # N_42
  4  3    -5.13011952E-03   # N_43
  4  4    -1.82731438E-02   # N_44
#
BLOCK UMIX  # Chargino Mixing Matrix U
  1  1    -1.60890664E-02   # U_11
  1  2     9.99870563E-01   # U_12
  2  1    -9.99870563E-01   # U_21
  2  2    -1.60890664E-02   # U_22
#
BLOCK VMIX  # Chargino Mixing Matrix V
  1  1     5.24481572E-02   # V_11
  1  2     9.98623648E-01   # V_12
  2  1     9.98623648E-01   # V_21
  2  2    -5.24481572E-02   # V_22
#
BLOCK STOPMIX  # Stop Mixing Matrix
  1  1     9.97578660E-01   # cos(theta_t)
  1  2     6.95472294E-02   # sin(theta_t)
  2  1    -6.95472294E-02   # -sin(theta_t)
  2  2     9.97578660E-01   # cos(theta_t)
#
BLOCK SBOTMIX  # Sbottom Mixing Matrix
  1  1     5.04125627E-02   # cos(theta_b)
  1  2     9.98728478E-01   # sin(theta_b)
  2  1    -9.98728478E-01   # -sin(theta_b)
  2  2     5.04125627E-02   # cos(theta_b)
#
BLOCK STAUMIX  # Stau Mixing Matrix
  1  1     9.96545093E-01   # cos(theta_tau)
  1  2     8.30534624E-02   # sin(theta_tau)
  2  1    -8.30534624E-02   # -sin(theta_tau)
  2  2     9.96545093E-01   # cos(theta_tau)
#
BLOCK ALPHA  # Higgs mixing
          -2.31673616E-02   # Mixing angle in the neutral Higgs boson sector
#
BLOCK HMIX Q=  2.04540400E+03  # DRbar Higgs Parameters
         1     7.77156188E+02   # mu(Q)MSSM           
         2     4.33124616E+01   # tan                 
         3     2.43003684E+02   # higgs               
         4     4.86464480E+06   # mA^2(Q)MSSM         
#
BLOCK GAUGE Q=  2.04540400E+03  # The gauge couplings
     1     3.63517294E-01   # gprime(Q) DRbar
     2     6.35863377E-01   # g(Q) DRbar
     3     1.03665614E+00   # g3(Q) DRbar
#
BLOCK AU Q=  2.04540400E+03  # The trilinear couplings
  1  1     0.00000000E+00   # A_u(Q) DRbar
  2  2     0.00000000E+00   # A_c(Q) DRbar
  3  3    -3.79165000E+03   # A_t(Q) DRbar
#
BLOCK AD Q=  2.04540400E+03  # The trilinear couplings
  1  1     0.00000000E+00   # A_d(Q) DRbar
  2  2     0.00000000E+00   # A_s(Q) DRbar
  3  3     1.86000002E+02   # A_b(Q) DRbar
#
BLOCK AE Q=  2.04540400E+03  # The trilinear couplings
  1  1     0.00000000E+00   # A_e(Q) DRbar
  2  2     0.00000000E+00   # A_mu(Q) DRbar
  3  3     8.96550001E+02   # A_tau(Q) DRbar
#
BLOCK Yu Q=  2.04540400E+03  # The Yukawa couplings
  1  1     0.00000000E+00   # y_u(Q) DRbar
  2  2     0.00000000E+00   # y_c(Q) DRbar
  3  3     8.30780944E-01   # y_t(Q) DRbar
#
BLOCK Yd Q=  2.04540400E+03  # The Yukawa couplings
  1  1     0.00000000E+00   # y_d(Q) DRbar
  2  2     0.00000000E+00   # y_s(Q) DRbar
  3  3     4.60130660E-01   # y_b(Q) DRbar
#
BLOCK Ye Q=  2.04540400E+03  # The Yukawa couplings
  1  1     0.00000000E+00   # y_e(Q) DRbar
  2  2     0.00000000E+00   # y_mu(Q) DRbar
  3  3     4.30210332E-01   # y_tau(Q) DRbar
#
BLOCK MSOFT Q=  2.04540400E+03  # The soft SUSY breaking masses at the scale Q
         1    -2.61597000E+03   # M_1(Q)              
         2    -2.33724000E+03   # M_2(Q)              
         3     1.03065000E+03   # M_3(Q)              
        21     4.06835656E+06   # mH1^2(Q)            
        22    -6.39174251E+05   # mH2^2(Q)            
        31     3.83430000E+03   # meL(Q)              
        32     3.83430000E+03   # mmuL(Q)             
        33     3.81354000E+03   # mtauL(Q)            
        34     3.91690000E+03   # meR(Q)              
        35     3.91690000E+03   # mmuR(Q)             
        36     3.90533000E+03   # mtauR(Q)            
        41     3.67149000E+03   # mqL1(Q)             
        42     3.67149000E+03   # mqL2(Q)             
        43     1.32641999E+03   # mqL3(Q)             
        44     3.13941000E+03   # muR(Q)              
        45     3.13941000E+03   # mcR(Q)              
        46     3.16173000E+03   # mtR(Q)              
        47     1.38686000E+03   # mdR(Q)              
        48     1.38686000E+03   # msR(Q)              
        49     7.81789996E+02   # mbR(Q)              
#
Block HiggsBoundsInputHiggsCouplingsFermions
# ScalarNormEffCoupSq PseudoSNormEffCoupSq NP   IP1 IP2 IP2
    1.00723922E+00    0.00000000E+00        3  25   5   5  # h0-b-b eff. coupling^2, normalised to SM
    1.87596209E+03    0.00000000E+00        3  35   5   5  # H0-b-b eff. coupling^2, normalised to SM
    0.00000000E+00    1.87596933E+03        3  36   5   5  # A0-b-b eff. coupling^2, normalised to SM
#
    9.99996141E-01    0.00000000E+00        3  25   6   6  # h0-t-t eff. coupling^2, normalised to SM
    5.36916680E-04    0.00000000E+00        3  35   6   6  # H0-t-t eff. coupling^2, normalised to SM
    0.00000000E+00    5.33057755E-04        3  36   6   6  # A0-t-t eff. coupling^2, normalised to SM
#
    1.00723922E+00    0.00000000E+00        3  25  15  15  # h0-tau-tau eff. coupling^2, normalised to SM
    1.87596209E+03    0.00000000E+00        3  35  15  15  # H0-tau-tau eff. coupling^2, normalised to SM
    0.00000000E+00    1.87596933E+03        3  36  15  15  # A0-tau-tau eff. coupling^2, normalised to SM
#
Block HiggsBoundsInputHiggsCouplingsBosons
    9.99999993E-01        3  25  24  24  # h0-W-W eff. coupling^2, normalised to SM
    6.95875477E-09        3  35  24  24  # H0-W-W eff. coupling^2, normalised to SM
    0.00000000E+00        3  36  24  24  # A0-W-W eff. coupling^2, normalised to SM
#
    9.99999993E-01        3  25  23  23  # h0-Z-Z eff. coupling^2, normalised to SM
    6.95875477E-09        3  35  23  23  # H0-Z-Z eff. coupling^2, normalised to SM
    0.00000000E+00        3  36  23  23  # A0-Z-Z eff. coupling^2, normalised to SM
#
    8.80021339E-01        3  25  21  21  # h0-g-g eff. coupling^2, normalised to SM
    8.13351295E-11        3  35  21  21  # H0-g-g eff. coupling^2, normalised to SM
    1.87027720E-10        3  36  21  21  # A0-g-g eff. coupling^2, normalised to SM
#
    0.00000000E+00        3  25  25  23  # h0-h0-Z eff. coupling^2, normalised to SM
    0.00000000E+00        3  35  25  23  # H0-h0-Z eff. coupling^2, normalised to SM
    6.95875477E-09        3  36  25  23  # A0-h0-Z eff. coupling^2, normalised to SM
    0.00000000E+00        3  35  35  23  # H0-H0-Z eff. coupling^2, normalised to SM
    9.99999993E-01        3  36  35  23  # A0-H0-Z eff. coupling^2, normalised to SM
    0.00000000E+00        3  36  36  23  # A0-A0-Z eff. coupling^2, normalised to SM
#
    0.00000000E+00        4  25  21  21  23  # h0-g-g-Z eff. coupling^2, normalised to SM
    0.00000000E+00        4  35  21  21  23  # H0-g-g-Z eff. coupling^2, normalised to SM
    0.00000000E+00        4  36  21  21  23  # A0-g-g-Z eff. coupling^2, normalised to SM
#
#
#
#                             =================
#                             |The decay table|
#                             =================
#
# - The QCD corrections to the decays gluino -> squark  + quark
#                                     squark -> gaugino + quark_prime
#                                     squark -> squark_prime + Higgs
#                                     squark -> gluino  + quark
#   are included.
#
# - The multi-body decays for the inos, stops and sbottoms are included.
#
# - The loop induced decays for the gluino, neutralinos and stops
#   are included.
#
# - The SUSY decays of the top quark are included.
#
#
#         PDG            Width
DECAY         6     1.42376129E+00   # top decays
#          BR         NDA      ID1       ID2
     1.00000000E+00    2           5        24   # BR(t ->  b    W+)
#
#         PDG            Width
DECAY   1000021     7.08075267E+00   # gluino decays
#          BR         NDA      ID1       ID2
     5.00000000E-01    2     1000005        -5   # BR(~g -> ~b_1  bb)
     5.00000000E-01    2    -1000005         5   # BR(~g -> ~b_1* b )
#
#         PDG            Width
DECAY   1000006     1.12989714E+01   # stop1 decays
#          BR         NDA      ID1       ID2
     3.53126154E-01    2     1000022         6   # BR(~t_1 -> ~chi_10 t )
     3.36697993E-01    2     1000023         6   # BR(~t_1 -> ~chi_20 t )
     2.28752782E-01    2     1000024         5   # BR(~t_1 -> ~chi_1+ b )
     8.14230706E-02    2     1000005        24   # BR(~t_1 -> ~b_1    W+)
#
#         PDG            Width
DECAY   2000006     3.06003775E+02   # stop2 decays
#          BR         NDA      ID1       ID2
     6.14887510E-02    2     1000022         6   # BR(~t_2 -> ~chi_10 t )
     6.21595107E-02    2     1000023         6   # BR(~t_2 -> ~chi_20 t )
     7.44281728E-07    2     1000025         6   # BR(~t_2 -> ~chi_30 t )
     2.23431001E-03    2     1000035         6   # BR(~t_2 -> ~chi_40 t )
     1.24218938E-01    2     1000024         5   # BR(~t_2 -> ~chi_1+ b )
     2.83573119E-08    2     1000037         5   # BR(~t_2 -> ~chi_2+ b )
     4.22189549E-01    2     1000021         6   # BR(~t_2 -> ~g      t )
     8.18489710E-02    2     1000006        25   # BR(~t_2 -> ~t_1    h )
     4.21138624E-05    2     1000005        37   # BR(~t_2 -> ~b_1    H+)
     8.37491390E-02    2     1000006        23   # BR(~t_2 -> ~t_1    Z )
     6.22568592E-04    2     1000005        24   # BR(~t_2 -> ~b_1    W+)
     1.61445376E-01    2     2000005        24   # BR(~t_2 -> ~b_2    W+)
#
#         PDG            Width
DECAY   1000005     6.67665390E-02   # sbottom1 decays
#          BR         NDA      ID1       ID2
     5.33325037E-01    2     1000022         5   # BR(~b_1 -> ~chi_10 b )
     4.66674963E-01    2     1000023         5   # BR(~b_1 -> ~chi_20 b )
#
#         PDG            Width
DECAY   2000005     1.62709243E+01   # sbottom2 decays
#          BR         NDA      ID1       ID2
     8.13817255E-02    2     1000022         5   # BR(~b_2 -> ~chi_10 b )
     8.11572411E-02    2     1000023         5   # BR(~b_2 -> ~chi_20 b )
     4.93819308E-01    2    -1000024         6   # BR(~b_2 -> ~chi_1- t )
     2.80211521E-01    2     1000021         5   # BR(~b_2 -> ~g      b )
     3.31855784E-02    2     1000005        25   # BR(~b_2 -> ~b_1    h )
     3.02446255E-02    2     1000005        23   # BR(~b_2 -> ~b_1    Z )
#
#         PDG            Width
DECAY   1000002     2.21407876E+02   # sup_L decays
#          BR         NDA      ID1       ID2
     5.76816386E-05    2     1000022         2   # BR(~u_L -> ~chi_10 u)
     1.61142991E-05    2     1000023         2   # BR(~u_L -> ~chi_20 u)
     2.29074012E-02    2     1000025         2   # BR(~u_L -> ~chi_30 u)
     5.69910498E-04    2     1000035         2   # BR(~u_L -> ~chi_40 u)
     3.27901988E-04    2     1000024         1   # BR(~u_L -> ~chi_1+ d)
     4.56385910E-02    2     1000037         1   # BR(~u_L -> ~chi_2+ d)
     9.30482399E-01    2     1000021         2   # BR(~u_L -> ~g      u)
#
#         PDG            Width
DECAY   2000002     1.61818246E+02   # sup_R decays
#          BR         NDA      ID1       ID2
     1.04225762E-05    2     1000022         2   # BR(~u_R -> ~chi_10 u)
     3.30402935E-06    2     1000023         2   # BR(~u_R -> ~chi_20 u)
     3.50762844E-07    2     1000025         2   # BR(~u_R -> ~chi_30 u)
     4.61511253E-03    2     1000035         2   # BR(~u_R -> ~chi_40 u)
     9.95370810E-01    2     1000021         2   # BR(~u_R -> ~g      u)
#
#         PDG            Width
DECAY   1000001     2.21436000E+02   # sdown_L decays
#          BR         NDA      ID1       ID2
     8.30906496E-05    2     1000022         1   # BR(~d_L -> ~chi_10 d)
     2.37218546E-05    2     1000023         1   # BR(~d_L -> ~chi_20 d)
     2.28100809E-02    2     1000025         1   # BR(~d_L -> ~chi_30 d)
     6.42106921E-04    2     1000035         1   # BR(~d_L -> ~chi_40 d)
     3.08596425E-05    2    -1000024         2   # BR(~d_L -> ~chi_1- u)
     4.57801961E-02    2    -1000037         2   # BR(~d_L -> ~chi_2- u)
     9.30629944E-01    2     1000021         1   # BR(~d_L -> ~g      d)
#
#         PDG            Width
DECAY   2000001     8.72518959E+00   # sdown_R decays
#          BR         NDA      ID1       ID2
     1.20309129E-05    2     1000022         1   # BR(~d_R -> ~chi_10 d)
     3.79113032E-06    2     1000023         1   # BR(~d_R -> ~chi_20 d)
     9.99984178E-01    2     1000021         1   # BR(~d_R -> ~g      d)
#
#         PDG            Width
DECAY   1000004     1.85453220E+02   # scharm_L decays
#          BR         NDA      ID1       ID2
     7.10701876E-05    2     1000022         4   # BR(~c_L -> ~chi_10 c)
     1.98545705E-05    2     1000023         4   # BR(~c_L -> ~chi_20 c)
     2.81168957E-02    2     1000025         4   # BR(~c_L -> ~chi_30 c)
     6.97534871E-04    2     1000035         4   # BR(~c_L -> ~chi_40 c)
     4.04011456E-04    2     1000024         3   # BR(~c_L -> ~chi_1+ s)
     5.60174728E-02    2     1000037         3   # BR(~c_L -> ~chi_2+ s)
     9.14673160E-01    2     1000021         4   # BR(~c_L -> ~g      c)
#
#         PDG            Width
DECAY   2000004     1.33379615E+02   # scharm_R decays
#          BR         NDA      ID1       ID2
     1.30611173E-05    2     1000022         4   # BR(~c_R -> ~chi_10 c)
     4.14044782E-06    2     1000023         4   # BR(~c_R -> ~chi_20 c)
     4.34795789E-07    2     1000025         4   # BR(~c_R -> ~chi_30 c)
     5.67181546E-03    2     1000035         4   # BR(~c_R -> ~chi_40 c)
     9.94310548E-01    2     1000021         4   # BR(~c_R -> ~g      c)
#
#         PDG            Width
DECAY   1000003     1.85469960E+02   # sstrange_L decays
#          BR         NDA      ID1       ID2
     1.02380623E-04    2     1000022         3   # BR(~s_L -> ~chi_10 s)
     2.92289664E-05    2     1000023         3   # BR(~s_L -> ~chi_20 s)
     2.79986263E-02    2     1000025         3   # BR(~s_L -> ~chi_30 s)
     7.85935166E-04    2     1000035         3   # BR(~s_L -> ~chi_40 s)
     3.80238427E-05    2    -1000024         4   # BR(~s_L -> ~chi_1- c)
     5.61935572E-02    2    -1000037         4   # BR(~s_L -> ~chi_2- c)
     9.14852248E-01    2     1000021         3   # BR(~s_L -> ~g      s)
#
#         PDG            Width
DECAY   2000003     7.18415968E+00   # sstrange_R decays
#          BR         NDA      ID1       ID2
     1.52092785E-05    2     1000022         3   # BR(~s_R -> ~chi_10 s)
     4.79223590E-06    2     1000023         3   # BR(~s_R -> ~chi_20 s)
     9.99979998E-01    2     1000021         3   # BR(~s_R -> ~g      s)
#
#         PDG            Width
DECAY   1000011     1.91825388E+01   # selectron_L decays
#          BR         NDA      ID1       ID2
     4.57879787E-04    2     1000022        11   # BR(~e_L -> ~chi_10 e-)
     1.23770008E-04    2     1000023        11   # BR(~e_L -> ~chi_20 e-)
     3.09515825E-01    2     1000025        11   # BR(~e_L -> ~chi_30 e-)
     7.43048354E-02    2     1000035        11   # BR(~e_L -> ~chi_40 e-)
     3.82869364E-04    2    -1000024        12   # BR(~e_L -> ~chi_1- nu_e)
     6.15214821E-01    2    -1000037        12   # BR(~e_L -> ~chi_2- nu_e)
#
#         PDG            Width
DECAY   2000011     6.35727041E+00   # selectron_R decays
#          BR         NDA      ID1       ID2
     7.97331398E-04    2     1000022        11   # BR(~e_R -> ~chi_10 e-)
     2.52857663E-04    2     1000023        11   # BR(~e_R -> ~chi_20 e-)
     5.27814976E-05    2     1000025        11   # BR(~e_R -> ~chi_30 e-)
     9.98897029E-01    2     1000035        11   # BR(~e_R -> ~chi_40 e-)
#
#         PDG            Width
DECAY   1000013     1.91825387E+01   # smuon_L decays
#          BR         NDA      ID1       ID2
     4.57879787E-04    2     1000022        13   # BR(~mu_L -> ~chi_10 mu-)
     1.23770008E-04    2     1000023        13   # BR(~mu_L -> ~chi_20 mu-)
     3.09515824E-01    2     1000025        13   # BR(~mu_L -> ~chi_30 mu-)
     7.43048351E-02    2     1000035        13   # BR(~mu_L -> ~chi_40 mu-)
     3.82869364E-04    2    -1000024        14   # BR(~mu_L -> ~chi_1- nu_mu)
     6.15214822E-01    2    -1000037        14   # BR(~mu_L -> ~chi_2- nu_mu)
#
#         PDG            Width
DECAY   2000013     6.35727038E+00   # smuon_R decays
#          BR         NDA      ID1       ID2
     7.97331400E-04    2     1000022        13   # BR(~mu_R -> ~chi_10 mu-)
     2.52857664E-04    2     1000023        13   # BR(~mu_R -> ~chi_20 mu-)
     5.27814977E-05    2     1000025        13   # BR(~mu_R -> ~chi_30 mu-)
     9.98897029E-01    2     1000035        13   # BR(~mu_R -> ~chi_40 mu-)
#
#         PDG            Width
DECAY   1000015     3.17191763E+01   # stau_1 decays
#          BR         NDA      ID1       ID2
     2.06102077E-01    2     1000022        15   # BR(~tau_1 -> ~chi_10  tau-)
     2.01773115E-01    2     1000023        15   # BR(~tau_1 -> ~chi_20  tau-)
     1.81727966E-01    2     1000025        15   # BR(~tau_1 -> ~chi_30  tau-)
     4.45942874E-02    2     1000035        15   # BR(~tau_1 -> ~chi_40  tau-)
     4.63238583E-03    2    -1000024        16   # BR(~tau_1 -> ~chi_1-  nu_tau)
     3.61170169E-01    2    -1000037        16   # BR(~tau_1 -> ~chi_2-  nu_tau)
#
#         PDG            Width
DECAY   2000015     3.27011805E+01   # stau_2 decays
#          BR         NDA      ID1       ID2
     2.00834374E-01    2     1000022        15   # BR(~tau_2 -> ~chi_10  tau-)
     2.03290874E-01    2     1000023        15   # BR(~tau_2 -> ~chi_20  tau-)
     1.69953826E-03    2     1000025        15   # BR(~tau_2 -> ~chi_30  tau-)
     1.90275108E-01    2     1000035        15   # BR(~tau_2 -> ~chi_40  tau-)
     4.00486516E-01    2    -1000024        16   # BR(~tau_2 -> ~chi_1-  nu_tau)
     3.36771971E-03    2    -1000037        16   # BR(~tau_2 -> ~chi_2-  nu_tau)
     4.58692364E-05    2     1000016       -24   # BR(~tau_2 -> ~nu_tauL W-)
#
#         PDG            Width
DECAY   1000012     1.91986039E+01   # snu_eL decays
#          BR         NDA      ID1       ID2
     1.40169781E-03    2     1000022        12   # BR(~nu_eL -> ~chi_10 nu_e)
     4.06387443E-04    2     1000023        12   # BR(~nu_eL -> ~chi_20 nu_e)
     3.04465568E-01    2     1000025        12   # BR(~nu_eL -> ~chi_30 nu_e)
     7.71293080E-02    2     1000035        12   # BR(~nu_eL -> ~chi_40 nu_e)
     4.06381297E-03    2     1000024        11   # BR(~nu_eL -> ~chi_1+ e-)
     6.12533226E-01    2     1000037        11   # BR(~nu_eL -> ~chi_2+ e-)
#
#         PDG            Width
DECAY   1000014     1.91986039E+01   # snu_muL decays
#          BR         NDA      ID1       ID2
     1.40169782E-03    2     1000022        14   # BR(~nu_muL -> ~chi_10 nu_mu)
     4.06387444E-04    2     1000023        14   # BR(~nu_muL -> ~chi_20 nu_mu)
     3.04465569E-01    2     1000025        14   # BR(~nu_muL -> ~chi_30 nu_mu)
     7.71293082E-02    2     1000035        14   # BR(~nu_muL -> ~chi_40 nu_mu)
     4.06381298E-03    2     1000024        13   # BR(~nu_muL -> ~chi_1+ mu-)
     6.12533225E-01    2     1000037        13   # BR(~nu_muL -> ~chi_2+ mu-)
#
#         PDG            Width
DECAY   1000016     3.16961004E+01   # snu_tauL decays
#          BR         NDA      ID1       ID2
     8.43216307E-04    2     1000022        16   # BR(~nu_tauL -> ~chi_10 nu_tau)
     2.44467436E-04    2     1000023        16   # BR(~nu_tauL -> ~chi_20 nu_tau)
     1.80690795E-01    2     1000025        16   # BR(~nu_tauL -> ~chi_30 nu_tau)
     4.55080073E-02    2     1000035        16   # BR(~nu_tauL -> ~chi_40 nu_tau)
     4.09160186E-01    2     1000024        15   # BR(~nu_tauL -> ~chi_1+ tau-)
     3.63553327E-01    2     1000037        15   # BR(~nu_tauL -> ~chi_2+ tau-)
#
#         PDG            Width
DECAY   1000024     8.41002813E-12   # chargino1+ decays
#           BR         NDA      ID1       ID2       ID3
     5.99999969E-01    3     1000022         2        -1   # BR(~chi_1+ -> ~chi_10 u    db)
     2.00000016E-01    3     1000022       -11        12   # BR(~chi_1+ -> ~chi_10 e+   nu_e)
     2.00000016E-01    3     1000022       -13        14   # BR(~chi_1+ -> ~chi_10 mu+  nu_mu)
#
#         PDG            Width
DECAY   1000037     4.28688874E+01   # chargino2+ decays
#          BR         NDA      ID1       ID2
     2.98237461E-01    2     1000006        -5   # BR(~chi_2+ -> ~t_1     bb)
     7.47921704E-04    2    -1000005         6   # BR(~chi_2+ -> ~b_1*    t )
     2.83405227E-01    2    -2000005         6   # BR(~chi_2+ -> ~b_2*    t )
     1.05990384E-01    2     1000024        23   # BR(~chi_2+ -> ~chi_1+  Z )
     1.02694971E-01    2     1000022        24   # BR(~chi_2+ -> ~chi_10  W+)
     1.03038606E-01    2     1000023        24   # BR(~chi_2+ -> ~chi_20  W+)
     1.05885430E-01    2     1000024        25   # BR(~chi_2+ -> ~chi_1+  h )
#
#         PDG            Width
DECAY   1000022     0.00000000E+00   # neutralino1 decays
#
#         PDG            Width
DECAY   1000023     3.36611893E-10   # neutralino2 decays
#          BR         NDA      ID1       ID2
     7.10529253E-02    2     1000022        22   # BR(~chi_20 -> ~chi_10 gam)
#           BR         NDA      ID1       ID2       ID3
     1.27295867E-01    3     1000022        -2         2   # BR(~chi_20 -> ~chi_10 ub      u)
     1.65249622E-01    3     1000022        -1         1   # BR(~chi_20 -> ~chi_10 db      d)
     1.27295867E-01    3     1000022        -4         4   # BR(~chi_20 -> ~chi_10 cb      c)
     1.65249622E-01    3     1000022        -3         3   # BR(~chi_20 -> ~chi_10 sb      s)
     3.79703763E-02    3     1000022       -11        11   # BR(~chi_20 -> ~chi_10 e+      e-)
     3.79703763E-02    3     1000022       -13        13   # BR(~chi_20 -> ~chi_10 mu+     mu-)
     7.59244423E-02    3     1000022       -12        12   # BR(~chi_20 -> ~chi_10 nu_eb   nu_e)
     7.59244423E-02    3     1000022       -14        14   # BR(~chi_20 -> ~chi_10 nu_mub  nu_mu)
     7.59244431E-02    3     1000022       -16        16   # BR(~chi_20 -> ~chi_10 nu_taub nu_tau)
     1.20426039E-02    3     1000024        -2         1   # BR(~chi_20 -> ~chi_1+ ub      d)
     1.20426039E-02    3    -1000024        -1         2   # BR(~chi_20 -> ~chi_1- db      u)
     4.01420212E-03    3     1000024       -12        11   # BR(~chi_20 -> ~chi_1+ nu_eb   e-)
     4.01420212E-03    3    -1000024        12       -11   # BR(~chi_20 -> ~chi_1- nu_e    e+)
     4.01420212E-03    3     1000024       -14        13   # BR(~chi_20 -> ~chi_1+ nu_mub  mu-)
     4.01420212E-03    3    -1000024        14       -13   # BR(~chi_20 -> ~chi_1- nu_mu   mu+)
#
#         PDG            Width
DECAY   1000025     4.28485949E+01   # neutralino3 decays
#          BR         NDA      ID1       ID2
     2.31718095E-02    2     1000022        23   # BR(~chi_30 -> ~chi_10   Z )
     8.20616701E-02    2     1000023        23   # BR(~chi_30 -> ~chi_20   Z )
     1.03846260E-01    2     1000024       -24   # BR(~chi_30 -> ~chi_1+   W-)
     1.03846260E-01    2    -1000024        24   # BR(~chi_30 -> ~chi_1-   W+)
     8.18582431E-02    2     1000022        25   # BR(~chi_30 -> ~chi_10   h )
     2.26714017E-02    2     1000023        25   # BR(~chi_30 -> ~chi_20   h )
     7.74458296E-07    2     2000001        -1   # BR(~chi_30 -> ~d_R      db)
     7.74458296E-07    2    -2000001         1   # BR(~chi_30 -> ~d_R*     d )
     7.74458296E-07    2     2000003        -3   # BR(~chi_30 -> ~s _R      sb)
     7.74458296E-07    2    -2000003         3   # BR(~chi_30 -> ~s _R*     s )
     1.44755617E-01    2     1000006        -6   # BR(~chi_30 -> ~t_1      tb)
     1.44755617E-01    2    -1000006         6   # BR(~chi_30 -> ~t_1*     t )
     3.84699632E-04    2     1000005        -5   # BR(~chi_30 -> ~b_1      bb)
     3.84699632E-04    2    -1000005         5   # BR(~chi_30 -> ~b_1*     b )
     1.46130312E-01    2     2000005        -5   # BR(~chi_30 -> ~b_2      bb)
     1.46130312E-01    2    -2000005         5   # BR(~chi_30 -> ~b_2*     b )
#
#         PDG            Width
DECAY   1000035     1.55322060E+01   # neutralino4 decays
#          BR         NDA      ID1       ID2
     2.39671018E-02    2     1000022        23   # BR(~chi_40 -> ~chi_10   Z )
     7.59210294E-02    2     1000023        23   # BR(~chi_40 -> ~chi_20   Z )
     9.08827030E-07    2     1000025        23   # BR(~chi_40 -> ~chi_30   Z )
     9.24064239E-02    2     1000024       -24   # BR(~chi_40 -> ~chi_1+   W-)
     9.24064239E-02    2    -1000024        24   # BR(~chi_40 -> ~chi_1-   W+)
     2.35362636E-04    2     1000037       -24   # BR(~chi_40 -> ~chi_2+   W-)
     2.35362636E-04    2    -1000037        24   # BR(~chi_40 -> ~chi_2-   W+)
     8.16950213E-02    2     1000022        25   # BR(~chi_40 -> ~chi_10   h )
     2.59500340E-02    2     1000023        25   # BR(~chi_40 -> ~chi_20   h )
     2.82344391E-04    2     1000025        25   # BR(~chi_40 -> ~chi_30   h )
     7.01265877E-02    2     2000001        -1   # BR(~chi_40 -> ~d_R      db)
     7.01265877E-02    2    -2000001         1   # BR(~chi_40 -> ~d_R*     d )
     7.01265877E-02    2     2000003        -3   # BR(~chi_40 -> ~s _R      sb)
     7.01265877E-02    2    -2000003         3   # BR(~chi_40 -> ~s _R*     s )
     2.47058560E-02    2     1000006        -6   # BR(~chi_40 -> ~t_1      tb)
     2.47058560E-02    2    -1000006         6   # BR(~chi_40 -> ~t_1*     t )
     1.17763323E-01    2     1000005        -5   # BR(~chi_40 -> ~b_1      bb)
     1.17763323E-01    2    -1000005         5   # BR(~chi_40 -> ~b_1*     b )
     2.07276389E-02    2     2000005        -5   # BR(~chi_40 -> ~b_2      bb)
     2.07276389E-02    2    -2000005         5   # BR(~chi_40 -> ~b_2*     b )
#
#         PDG            Width
DECAY        25     5.32310016E-03   # h decays
#          BR         NDA      ID1       ID2
     6.22662760E-01    2           5        -5   # BR(h -> b       bb     )
     5.01019761E-02    2         -15        15   # BR(h -> tau+    tau-   )
     1.77332782E-04    2         -13        13   # BR(h -> mu+     mu-    )
     1.92566054E-04    2           3        -3   # BR(h -> s       sb     )
     1.65947810E-02    2           4        -4   # BR(h -> c       cb     )
     6.38318103E-02    2          21        21   # BR(h -> g       g      )
     1.95112099E-03    2          22        22   # BR(h -> gam     gam    )
     1.50670011E-03    2          22        23   # BR(h -> Z       gam    )
     2.14978266E-01    2          24       -24   # BR(h -> W+      W-     )
     2.80026863E-02    2          23        23   # BR(h -> Z       Z      )
#
#         PDG            Width
DECAY        35     5.33561476E+01   # H decays
#          BR         NDA      ID1       ID2
     8.32984425E-01    2           5        -5   # BR(H -> b       bb     )
     1.64702322E-01    2         -15        15   # BR(H -> tau+    tau-   )
     5.82120330E-04    2         -13        13   # BR(H -> mu+     mu-    )
     3.13952500E-04    2           3        -3   # BR(H -> s       sb     )
     9.34322797E-09    2           4        -4   # BR(H -> c       cb     )
     9.08364903E-04    2           6        -6   # BR(H -> t       tb     )
     2.96718302E-05    2          21        21   # BR(H -> g       g      )
     2.33696152E-09    2          22        22   # BR(H -> gam     gam    )
     1.36227570E-08    2          23        22   # BR(H -> Z       gam    )
     4.23208294E-07    2          24       -24   # BR(H -> W+      W-     )
     2.10883499E-07    2          23        23   # BR(H -> Z       Z      )
     2.47053525E-06    2          25        25   # BR(H -> h       h      )
     3.10523635E-04    2     1000024  -1000024   # BR(H -> ~chi_1+ ~chi_1-)
     1.08445149E-04    2     1000022   1000022   # BR(H -> ~chi_10 ~chi_10)
     2.81597177E-05    2     1000023   1000023   # BR(H -> ~chi_20 ~chi_20)
     1.96674744E-05    2     1000022   1000023   # BR(H -> ~chi_10 ~chi_20)
     9.21711455E-06    2     1000005  -1000005   # BR(H -> ~b_1    ~b_1*  )
#
#         PDG            Width
DECAY        36     5.33821949E+01   # A decays
#          BR         NDA      ID1       ID2
     8.32591508E-01    2           5        -5   # BR(A -> b       bb     )
     1.64622881E-01    2         -15        15   # BR(A -> tau+    tau-   )
     5.81837994E-04    2         -13        13   # BR(A -> mu+     mu-    )
     3.13812182E-04    2           3        -3   # BR(A -> s       sb     )
     9.35699311E-09    2           4        -4   # BR(A -> c       cb     )
     9.17348659E-04    2           6        -6   # BR(A -> t       tb     )
     4.49722101E-05    2          21        21   # BR(A -> g       g      )
     3.10188033E-08    2          22        22   # BR(A -> gam     gam    )
     2.71917090E-08    2          23        22   # BR(A -> Z       gam    )
     4.26964054E-07    2          23        25   # BR(A -> Z       h      )
     6.40022561E-04    2     1000024  -1000024   # BR(A -> ~chi_1+ ~chi_1-)
     2.08686683E-04    2     1000022   1000022   # BR(A -> ~chi_10 ~chi_10)
     6.58053628E-05    2     1000023   1000023   # BR(A -> ~chi_20 ~chi_20)
     1.26303456E-05    2     1000022   1000023   # BR(A -> ~chi_10 ~chi_20)
#
#         PDG            Width
DECAY        37     3.94514712E+01   # H+ decays
#          BR         NDA      ID1       ID2
     1.30382708E-03    2           4        -5   # BR(H+ -> c       bb     )
     2.22925900E-01    2         -15        16   # BR(H+ -> tau+    nu_tau )
     7.87902368E-04    2         -13        14   # BR(H+ -> mu+     nu_mu  )
     1.30382421E-05    2           2        -5   # BR(H+ -> u       bb     )
     2.12281837E-05    2           2        -3   # BR(H+ -> u       sb     )
     4.17847142E-04    2           4        -3   # BR(H+ -> c       sb     )
     7.74419704E-01    2           6        -5   # BR(H+ -> t       bb     )
     5.79785113E-07    2          24        25   # BR(H+ -> W+      h      )
     4.47114422E-13    2          24        36   # BR(H+ -> W+      A      )
     1.08926631E-05    2     1000024   1000022   # BR(H+ -> ~chi_1+ ~chi_10)
     9.90812609E-05    2     1000024   1000023   # BR(H+ -> ~chi_1+ ~chi_20)
