#
#                              ======================
#                              | THE SUSYHIT OUTPUT |
#                              ======================
#
#
#              ------------------------------------------------------
#              |     This is the output of the SUSY-HIT package     |
#              |  created by A.Djouadi, M.Muehlleitner and M.Spira. |
#              |  In case of problems with SUSY-HIT email to        |
#              |           margarete.muehlleitner@cern.ch           |
#              |           michael.spira@psi.ch                     |
#              |           abdelhak.djouadi@cern.ch                 |
#              ------------------------------------------------------
#
#              ------------------------------------------------------
#              |  SUSY Les Houches Accord - MSSM Spectrum + Decays  |
#              |              based on the decay programs           |
#              |                                                    |
#              |                     SDECAY 1.3b                    |
#              |                                                    |
#              |  Authors: M.Muhlleitner, A.Djouadi and Y.Mambrini  |
#              |  Ref.:    Comput.Phys.Commun.168(2005)46           |
#              |           [hep-ph/0311167]                         |
#              |                                                    |
#              |                     HDECAY 3.4                     |
#              |                                                    |
#              |  By: A.Djouadi,J.Kalinowski,M.Muhlleitner,M.Spira  |
#              |  Ref.:    Comput.Phys.Commun.108(1998)56           |
#              |           [hep-ph/9704448]                         |
#              |                                                    |
#              |                                                    |
#              |  If not stated otherwise all DRbar couplings and   |
#              |  soft SUSY breaking masses are given at the scale  |
#              |  Q=  0.16450660E+04
#              |                                                    |
#              ------------------------------------------------------
#
#
BLOCK DCINFO  # Decay Program information
     1   SDECAY/HDECAY # decay calculator
     2   1.3b  /3.4    # version number
#
BLOCK SPINFO  # Spectrum calculator information
     1     SOFTSUSY    # spectrum calculator               
     2     3.4.0       # version number                    
#
BLOCK MODSEL  # Model selection
     1     0   #  nonUniversal                                     
#
BLOCK SMINPUTS  # Standard Model inputs
         1     1.27908970E+02   # alpha_em^-1(M_Z)^MSbar
         2     1.16637870E-05   # G_F [GeV^-2]
         3     1.18400000E-01   # alpha_S(M_Z)^MSbar
         4     9.11876000E+01   # M_Z pole mass
         5     4.18000000E+00   # mb(mb)^MSbar
         6     1.73200000E+02   # mt pole mass
         7     1.77700000E+00   # mtau pole mass
#
BLOCK MINPAR  # Input parameters - minimal models
         3     7.56000000E+00   # tanb                
#
BLOCK EXTPAR  # Input parameters - non-minimal models
         0    -1.00000000E+00   # Set                 
         1     2.33507000E+03   # M_1(MX)             
         2     2.08705000E+03   # M_2(MX)             
         3     3.47818000E+03   # M_3(MX)             
        11    -3.95531000E+03   # At(MX)              
        12     3.68993000E+03   # Ab(MX)              
        13    -3.32164000E+03   # Atau(MX)            
        23     4.15520000E+02   # mu(MX)              
        26     2.96332000E+03   # mA(pole)            
        31     1.26392000E+03   # meL(MX)             
        32     1.26392000E+03   # mmuL(MX)            
        33     7.86090000E+02   # mtauL(MX)           
        34     1.31547000E+03   # meR(MX)             
        35     1.31547000E+03   # mmuR(MX)            
        36     2.89863000E+03   # mtauR(MX)           
        41     1.44527000E+03   # mqL1(MX)            
        42     1.44527000E+03   # mqL2(MX)            
        43     1.65028000E+03   # mqL3(MX)            
        44     1.24445000E+03   # muR(MX)             
        45     1.24445000E+03   # mcR(MX)             
        46     1.66458000E+03   # mtR(MX)             
        47     1.29638000E+03   # mdR(MX)             
        48     1.29638000E+03   # msR(MX)             
        49     3.05247000E+03   # mbR(MX)             
#
BLOCK MASS  # Mass Spectrum
# PDG code           mass       particle
        24     8.03811186E+01   # W+
        25     1.25997363E+02   # h
        35     2.96342674E+03   # H
        36     2.96331997E+03   # A
        37     2.96467886E+03   # H+
         5     4.81876030E+00   # b-quark pole mass calculated from mb(mb)_Msbar
   1000001     1.44041374E+03   # ~d_L
   2000001     1.26607590E+03   # ~d_R
   1000002     1.43842875E+03   # ~u_L
   2000002     1.20890824E+03   # ~u_R
   1000003     1.44041374E+03   # ~s_L
   2000003     1.26607590E+03   # ~s_R
   1000004     1.43842875E+03   # ~c_L
   2000004     1.20890824E+03   # ~c_R
   1000005     1.60752462E+03   # ~b_1
   2000005     3.08368162E+03   # ~b_2
   1000006     1.40263927E+03   # ~t_1
   2000006     1.75711958E+03   # ~t_2
   1000011     1.27962859E+03   # ~e_L
   2000011     1.32366385E+03   # ~e_R
   1000012     1.27700781E+03   # ~nu_eL
   1000013     1.27962859E+03   # ~mu_L
   2000013     1.32366385E+03   # ~mu_R
   1000014     1.27700781E+03   # ~nu_muL
   1000015     8.04704254E+02   # ~tau_1
   2000015     2.90318418E+03   # ~tau_2
   1000016     8.00748402E+02   # ~nu_tauL
   1000021     3.38517240E+03   # ~g
   1000022     4.24168527E+02   # ~chi_10
   1000023    -4.29060257E+02   # ~chi_20
   1000025     2.06714080E+03   # ~chi_30
   1000035     2.30685302E+03   # ~chi_40
   1000024     4.26430639E+02   # ~chi_1+
   1000037     2.06732101E+03   # ~chi_2+
#
BLOCK NMIX  # Neutralino Mixing Matrix
  1  1     1.88404627E-02   # N_11
  1  2    -3.78448345E-02   # N_12
  1  3     7.08647303E-01   # N_13
  1  4    -7.04295255E-01   # N_14
  2  1    -9.91620544E-03   # N_21
  2  2     1.91902558E-02   # N_22
  2  3     7.05408893E-01   # N_23
  2  4     7.08471380E-01   # N_24
  3  1     7.48641322E-03   # N_31
  3  2     9.99077692E-01   # N_32
  3  3     1.32514106E-02   # N_33
  3  4    -4.01512090E-02   # N_34
  4  1     9.99745297E-01   # N_41
  4  2    -6.57787513E-03   # N_42
  4  3    -6.45711375E-03   # N_43
  4  4     2.06004318E-02   # N_44
#
BLOCK UMIX  # Chargino Mixing Matrix U
  1  1    -1.88333531E-02   # U_11
  1  2     9.99822637E-01   # U_12
  2  1    -9.99822637E-01   # U_21
  2  2    -1.88333531E-02   # U_22
#
BLOCK VMIX  # Chargino Mixing Matrix V
  1  1    -5.70861413E-02   # V_11
  1  2     9.98369257E-01   # V_12
  2  1    -9.98369257E-01   # V_21
  2  2    -5.70861413E-02   # V_22
#
BLOCK STOPMIX  # Stop Mixing Matrix
  1  1     6.63276343E-01   # cos(theta_t)
  1  2     7.48374567E-01   # sin(theta_t)
  2  1    -7.48374567E-01   # -sin(theta_t)
  2  2     6.63276343E-01   # cos(theta_t)
#
BLOCK SBOTMIX  # Sbottom Mixing Matrix
  1  1     9.99999973E-01   # cos(theta_b)
  1  2    -2.32378999E-04   # sin(theta_b)
  2  1     2.32378999E-04   # -sin(theta_b)
  2  2     9.99999973E-01   # cos(theta_b)
#
BLOCK STAUMIX  # Stau Mixing Matrix
  1  1     9.99998952E-01   # cos(theta_tau)
  1  2     1.44775651E-03   # sin(theta_tau)
  2  1    -1.44775651E-03   # -sin(theta_tau)
  2  2     9.99998952E-01   # cos(theta_tau)
#
BLOCK ALPHA  # Higgs mixing
          -1.37215130E-01   # Mixing angle in the neutral Higgs boson sector
#
BLOCK HMIX Q=  1.64506600E+03  # DRbar Higgs Parameters
         1     4.19831031E+02   # mu(Q)MSSM           
         2     7.26157510E+00   # tan                 
         3     2.43246882E+02   # higgs               
         4     8.77591689E+06   # mA^2(Q)MSSM         
#
BLOCK GAUGE Q=  1.64506600E+03  # The gauge couplings
     1     3.63436101E-01   # gprime(Q) DRbar
     2     6.37758859E-01   # g(Q) DRbar
     3     1.02424591E+00   # g3(Q) DRbar
#
BLOCK AU Q=  1.64506600E+03  # The trilinear couplings
  1  1     0.00000000E+00   # A_u(Q) DRbar
  2  2     0.00000000E+00   # A_c(Q) DRbar
  3  3    -3.95530999E+03   # A_t(Q) DRbar
#
BLOCK AD Q=  1.64506600E+03  # The trilinear couplings
  1  1     0.00000000E+00   # A_d(Q) DRbar
  2  2     0.00000000E+00   # A_s(Q) DRbar
  3  3     3.68993000E+03   # A_b(Q) DRbar
#
BLOCK AE Q=  1.64506600E+03  # The trilinear couplings
  1  1     0.00000000E+00   # A_e(Q) DRbar
  2  2     0.00000000E+00   # A_mu(Q) DRbar
  3  3    -3.32164000E+03   # A_tau(Q) DRbar
#
BLOCK Yu Q=  1.64506600E+03  # The Yukawa couplings
  1  1     0.00000000E+00   # y_u(Q) DRbar
  2  2     0.00000000E+00   # y_c(Q) DRbar
  3  3     8.29831725E-01   # y_t(Q) DRbar
#
BLOCK Yd Q=  1.64506600E+03  # The Yukawa couplings
  1  1     0.00000000E+00   # y_d(Q) DRbar
  2  2     0.00000000E+00   # y_s(Q) DRbar
  3  3     1.01384591E-01   # y_b(Q) DRbar
#
BLOCK Ye Q=  1.64506600E+03  # The Yukawa couplings
  1  1     0.00000000E+00   # y_e(Q) DRbar
  2  2     0.00000000E+00   # y_mu(Q) DRbar
  3  3     7.53930040E-02   # y_tau(Q) DRbar
#
BLOCK MSOFT Q=  1.64506600E+03  # The soft SUSY breaking masses at the scale Q
         1     2.33507000E+03   # M_1(Q)              
         2     2.08705000E+03   # M_2(Q)              
         3     3.47818000E+03   # M_3(Q)              
        21     8.40927511E+06   # mH1^2(Q)            
        22     1.60373107E+04   # mH2^2(Q)            
        31     1.26392000E+03   # meL(Q)              
        32     1.26392000E+03   # mmuL(Q)             
        33     7.86090000E+02   # mtauL(Q)            
        34     1.31547000E+03   # meR(Q)              
        35     1.31547000E+03   # mmuR(Q)             
        36     2.89863000E+03   # mtauR(Q)            
        41     1.44526999E+03   # mqL1(Q)             
        42     1.44526999E+03   # mqL2(Q)             
        43     1.65027998E+03   # mqL3(Q)             
        44     1.24444999E+03   # muR(Q)              
        45     1.24444999E+03   # mcR(Q)              
        46     1.66457998E+03   # mtR(Q)              
        47     1.29637999E+03   # mdR(Q)              
        48     1.29637999E+03   # msR(Q)              
        49     3.05247000E+03   # mbR(Q)              
#
Block HiggsBoundsInputHiggsCouplingsFermions
# ScalarNormEffCoupSq PseudoSNormEffCoupSq NP   IP1 IP2 IP2
    1.00530380E+00    0.00000000E+00        3  25   5   5  # h0-b-b eff. coupling^2, normalised to SM
    5.27251691E+01    0.00000000E+00        3  35   5   5  # H0-b-b eff. coupling^2, normalised to SM
    0.00000000E+00    5.27304729E+01        3  36   5   5  # A0-b-b eff. coupling^2, normalised to SM
#
    9.99899417E-01    0.00000000E+00        3  25   6   6  # h0-t-t eff. coupling^2, normalised to SM
    1.90649494E-02    0.00000000E+00        3  35   6   6  # H0-t-t eff. coupling^2, normalised to SM
    0.00000000E+00    1.89643662E-02        3  36   6   6  # A0-t-t eff. coupling^2, normalised to SM
#
    1.00530380E+00    0.00000000E+00        3  25  15  15  # h0-tau-tau eff. coupling^2, normalised to SM
    5.27251691E+01    0.00000000E+00        3  35  15  15  # H0-tau-tau eff. coupling^2, normalised to SM
    0.00000000E+00    5.27304729E+01        3  36  15  15  # A0-tau-tau eff. coupling^2, normalised to SM
#
Block HiggsBoundsInputHiggsCouplingsBosons
    9.99999867E-01        3  25  24  24  # h0-W-W eff. coupling^2, normalised to SM
    1.33022265E-07        3  35  24  24  # H0-W-W eff. coupling^2, normalised to SM
    0.00000000E+00        3  36  24  24  # A0-W-W eff. coupling^2, normalised to SM
#
    9.99999867E-01        3  25  23  23  # h0-Z-Z eff. coupling^2, normalised to SM
    1.33022265E-07        3  35  23  23  # H0-Z-Z eff. coupling^2, normalised to SM
    0.00000000E+00        3  36  23  23  # A0-Z-Z eff. coupling^2, normalised to SM
#
    8.54211113E-01        3  25  21  21  # h0-g-g eff. coupling^2, normalised to SM
    1.24958730E-12        3  35  21  21  # H0-g-g eff. coupling^2, normalised to SM
    6.68715047E-12        3  36  21  21  # A0-g-g eff. coupling^2, normalised to SM
#
    0.00000000E+00        3  25  25  23  # h0-h0-Z eff. coupling^2, normalised to SM
    0.00000000E+00        3  35  25  23  # H0-h0-Z eff. coupling^2, normalised to SM
    1.33022265E-07        3  36  25  23  # A0-h0-Z eff. coupling^2, normalised to SM
    0.00000000E+00        3  35  35  23  # H0-H0-Z eff. coupling^2, normalised to SM
    9.99999867E-01        3  36  35  23  # A0-H0-Z eff. coupling^2, normalised to SM
    0.00000000E+00        3  36  36  23  # A0-A0-Z eff. coupling^2, normalised to SM
#
    0.00000000E+00        4  25  21  21  23  # h0-g-g-Z eff. coupling^2, normalised to SM
    0.00000000E+00        4  35  21  21  23  # H0-g-g-Z eff. coupling^2, normalised to SM
    0.00000000E+00        4  36  21  21  23  # A0-g-g-Z eff. coupling^2, normalised to SM
#
#
#
#                             =================
#                             |The decay table|
#                             =================
#
# - The QCD corrections to the decays gluino -> squark  + quark
#                                     squark -> gaugino + quark_prime
#                                     squark -> squark_prime + Higgs
#                                     squark -> gluino  + quark
#   are included.
#
# - The multi-body decays for the inos, stops and sbottoms are included.
#
# - The loop induced decays for the gluino, neutralinos and stops
#   are included.
#
# - The SUSY decays of the top quark are included.
#
#
#         PDG            Width
DECAY         6     1.43285598E+00   # top decays
#          BR         NDA      ID1       ID2
     1.00000000E+00    2           5        24   # BR(t ->  b    W+)
#
#         PDG            Width
DECAY   1000021     5.11263278E+02   # gluino decays
#          BR         NDA      ID1       ID2
     4.45484804E-02    2     1000001        -1   # BR(~g -> ~d_L  db)
     4.45484804E-02    2    -1000001         1   # BR(~g -> ~d_L* d )
     4.91407565E-02    2     2000001        -1   # BR(~g -> ~d_R  db)
     4.91407565E-02    2    -2000001         1   # BR(~g -> ~d_R* d )
     4.46027498E-02    2     1000002        -2   # BR(~g -> ~u_L  ub)
     4.46027498E-02    2    -1000002         2   # BR(~g -> ~u_L* u )
     5.05617118E-02    2     2000002        -2   # BR(~g -> ~u_R  ub)
     5.05617118E-02    2    -2000002         2   # BR(~g -> ~u_R* u )
     4.45484804E-02    2     1000003        -3   # BR(~g -> ~s_L  sb)
     4.45484804E-02    2    -1000003         3   # BR(~g -> ~s_L* s )
     4.91407565E-02    2     2000003        -3   # BR(~g -> ~s_R  sb)
     4.91407565E-02    2    -2000003         3   # BR(~g -> ~s_R* s )
     4.46027443E-02    2     1000004        -4   # BR(~g -> ~c_L  cb)
     4.46027443E-02    2    -1000004         4   # BR(~g -> ~c_L* c )
     5.05617079E-02    2     2000004        -4   # BR(~g -> ~c_R  cb)
     5.05617079E-02    2    -2000004         4   # BR(~g -> ~c_R* c )
     3.98901968E-02    2     1000005        -5   # BR(~g -> ~b_1  bb)
     3.98901968E-02    2    -1000005         5   # BR(~g -> ~b_1* b )
     1.98956791E-03    2     2000005        -5   # BR(~g -> ~b_2  bb)
     1.98956791E-03    2    -2000005         5   # BR(~g -> ~b_2* b )
     4.05771350E-02    2     1000006        -6   # BR(~g -> ~t_1  tb)
     4.05771350E-02    2    -1000006         6   # BR(~g -> ~t_1* t )
     3.98357126E-02    2     2000006        -6   # BR(~g -> ~t_2  tb)
     3.98357126E-02    2    -2000006         6   # BR(~g -> ~t_2* t )
#
#         PDG            Width
DECAY   1000006     2.52806106E+01   # stop1 decays
#          BR         NDA      ID1       ID2
     2.85299369E-01    2     1000022         6   # BR(~t_1 -> ~chi_10 t )
     3.33525029E-01    2     1000023         6   # BR(~t_1 -> ~chi_20 t )
     3.81175601E-01    2     1000024         5   # BR(~t_1 -> ~chi_1+ b )
#
#         PDG            Width
DECAY   2000006     5.26285253E+01   # stop2 decays
#          BR         NDA      ID1       ID2
     1.99170057E-01    2     1000022         6   # BR(~t_2 -> ~chi_10 t )
     1.84852161E-01    2     1000023         6   # BR(~t_2 -> ~chi_20 t )
     0.00000000E+00    2     1000025         6   # BR(~t_2 -> ~chi_30 t )
     1.63907747E-01    2     1000024         5   # BR(~t_2 -> ~chi_1+ b )
     5.94791663E-03    2     1000006        25   # BR(~t_2 -> ~t_1    h )
     3.52241297E-01    2     1000006        23   # BR(~t_2 -> ~t_1    Z )
     9.38808213E-02    2     1000005        24   # BR(~t_2 -> ~b_1    W+)
#
#         PDG            Width
DECAY   1000005     3.08242502E+01   # sbottom1 decays
#          BR         NDA      ID1       ID2
     4.94424781E-03    2     1000022         5   # BR(~b_1 -> ~chi_10 b )
     4.65646774E-03    2     1000023         5   # BR(~b_1 -> ~chi_20 b )
     5.98037568E-01    2    -1000024         6   # BR(~b_1 -> ~chi_1- t )
     3.92361717E-01    2     1000006       -24   # BR(~b_1 -> ~t_1    W-)
#
#         PDG            Width
DECAY   2000005     1.55976590E+00   # sbottom2 decays
#          BR         NDA      ID1       ID2
     1.95826037E-01    2     1000022         5   # BR(~b_2 -> ~chi_10 b )
     1.93547553E-01    2     1000023         5   # BR(~b_2 -> ~chi_20 b )
     3.77875873E-05    2     1000025         5   # BR(~b_2 -> ~chi_30 b )
     2.23774125E-01    2     1000035         5   # BR(~b_2 -> ~chi_40 b )
     3.86282919E-01    2    -1000024         6   # BR(~b_2 -> ~chi_1- t )
     3.61497519E-05    2    -1000037         6   # BR(~b_2 -> ~chi_2- t )
     1.21887028E-04    2     1000005        25   # BR(~b_2 -> ~b_1    h )
     1.25569494E-04    2     1000005        23   # BR(~b_2 -> ~b_1    Z )
     1.38971729E-04    2     1000006       -24   # BR(~b_2 -> ~t_1    W-)
     1.09000229E-04    2     2000006       -24   # BR(~b_2 -> ~t_2    W-)
#
#         PDG            Width
DECAY   1000002     3.96218567E-02   # sup_L decays
#          BR         NDA      ID1       ID2
     1.47196176E-01    2     1000022         2   # BR(~u_L -> ~chi_10 u)
     3.73839234E-02    2     1000023         2   # BR(~u_L -> ~chi_20 u)
     8.15419901E-01    2     1000024         1   # BR(~u_L -> ~chi_1+ d)
#
#         PDG            Width
DECAY   2000002     1.08344918E-03   # sup_R decays
#           BR         NDA      ID1       ID2
     7.34714875E-01    2     1000022         2   # BR(~u_R -> ~chi_10 u)
     2.02211811E-01    2     1000023         2   # BR(~u_R -> ~chi_20 u)
#           BR         NDA      ID1       ID2       ID3
     7.79685855E-04    3        2       -15        1000015   # BR(~u_R -> u  tau+  ~tau_1-)
     1.49365566E-04    3        2       15        -1000015   # BR(~u_R -> u  tau-  ~tau_1+)
     7.93225945E-04    3        2       -16        1000016   # BR(~u_R -> u  nu_taub  ~nu_tau1)
     1.45489057E-04    3        2       16        -1000016   # BR(~u_R -> u  nu_tau  ~nu_tau1*)
     3.90622844E-03    3        2       23        1000022   # BR(~u_R -> u  Z  ~chi_10)
     1.11708054E-02    3        2       25        1000022   # BR(~u_R -> u  h  ~chi_10)
     1.29835347E-02    3        2       23        1000023   # BR(~u_R -> u  Z  ~chi_20)
     2.13854055E-03    3        2       25        1000023   # BR(~u_R -> u  h  ~chi_20)
     5.07075007E-03    3        2       -24        1000024   # BR(~u_R -> u  W-  ~chi_1+)
     2.59356881E-02    3        2       24        -1000024   # BR(~u_R -> u  W+  ~chi_1-)
#
#         PDG            Width
DECAY   1000001     1.42621119E-02   # sdown_L decays
#          BR         NDA      ID1       ID2
     5.98706624E-01    2     1000022         1   # BR(~d_L -> ~chi_10 d)
     1.54277407E-01    2     1000023         1   # BR(~d_L -> ~chi_20 d)
     2.47015968E-01    2    -1000024         2   # BR(~d_L -> ~chi_1- u)
#
#         PDG            Width
DECAY   2000001     2.93042995E-04   # sdown_R decays
#           BR         NDA      ID1       ID2
     7.27269660E-01    2     1000022         1   # BR(~d_R -> ~chi_10 d)
     2.00292464E-01    2     1000023         1   # BR(~d_R -> ~chi_20 d)
#           BR         NDA      ID1       ID2       ID3
     3.91512515E-06    3        1       -2        2000002   # BR(~d_R -> d  ub  ~u_R)
     2.94390248E-05    3        1       2        -2000002   # BR(~d_R -> d  u  ~u_R*)
     3.96426470E-06    3        1       -4        2000004   # BR(~d_R -> d  cb  ~c_R)
     2.90926593E-05    3        1       4        -2000004   # BR(~d_R -> d  c  ~c_R*)
     1.28090419E-03    3        1       -15        1000015   # BR(~d_R -> d  tau+  ~tau_1-)
     2.59951616E-04    3        1       15        -1000015   # BR(~d_R -> d  tau-  ~tau_1+)
     1.30632708E-03    3        1       -16        1000016   # BR(~d_R -> d  nu_taub  ~nu_tau1)
     2.53764810E-04    3        1       16        -1000016   # BR(~d_R -> d  nu_tau  ~nu_tau1*)
     2.59825355E-03    3        1       23        1000022   # BR(~d_R -> d  Z  ~chi_10)
     1.31943096E-02    3        1       25        1000022   # BR(~d_R -> d  h  ~chi_10)
     1.39795186E-02    3        1       23        1000023   # BR(~d_R -> d  Z  ~chi_20)
     2.54174307E-03    3        1       25        1000023   # BR(~d_R -> d  h  ~chi_20)
     6.24822989E-03    3        1       -24        1000024   # BR(~d_R -> d  W-  ~chi_1+)
     3.07084631E-02    3        1       24        -1000024   # BR(~d_R -> d  W+  ~chi_1-)
#
#         PDG            Width
DECAY   1000004     3.86999125E-02   # scharm_L decays
#          BR         NDA      ID1       ID2
     1.47197453E-01    2     1000022         4   # BR(~c_L -> ~chi_10 c)
     3.73832592E-02    2     1000023         4   # BR(~c_L -> ~chi_20 c)
     8.15419288E-01    2     1000024         3   # BR(~c_L -> ~chi_1+ s)
#
#         PDG            Width
DECAY   2000004     1.05118786E-03   # scharm_R decays
#           BR         NDA      ID1       ID2
     7.33195658E-01    2     1000022         4   # BR(~c_R -> ~chi_10 c)
     2.01787524E-01    2     1000023         4   # BR(~c_R -> ~chi_20 c)
#           BR         NDA      ID1       ID2       ID3
     7.99904599E-04    3        4       -15        1000015   # BR(~c_R -> c  tau+  ~tau_1-)
     1.53550100E-04    3        4       15        -1000015   # BR(~c_R -> c  tau-  ~tau_1+)
     8.24571932E-04    3        4       -16        1000016   # BR(~c_R -> c  nu_taub  ~nu_tau1)
     1.51114760E-04    3        4       16        -1000016   # BR(~c_R -> c  nu_tau  ~nu_tau1*)
     4.00385143E-03    3        4       23        1000022   # BR(~c_R -> c  Z  ~chi_10)
     1.15145927E-02    3        4       25        1000022   # BR(~c_R -> c  h  ~chi_10)
     1.33686857E-02    3        4       23        1000023   # BR(~c_R -> c  Z  ~chi_20)
     2.20407798E-03    3        4       25        1000023   # BR(~c_R -> c  h  ~chi_20)
     5.22009456E-03    3        4       -24        1000024   # BR(~c_R -> c  W-  ~chi_1+)
     2.67763748E-02    3        4       24        -1000024   # BR(~c_R -> c  W+  ~chi_1-)
#
#         PDG            Width
DECAY   1000003     1.39312910E-02   # sstrange_L decays
#          BR         NDA      ID1       ID2
     5.98711108E-01    2     1000022         3   # BR(~s_L -> ~chi_10 s)
     1.54274487E-01    2     1000023         3   # BR(~s_L -> ~chi_20 s)
     2.47014405E-01    2    -1000024         4   # BR(~s_L -> ~chi_1- c)
#
#         PDG            Width
DECAY   2000003     2.85040731E-04   # sstrange_R decays
#           BR         NDA      ID1       ID2
     7.25601865E-01    2     1000022         3   # BR(~s_R -> ~chi_10 s)
     1.99827367E-01    2     1000023         3   # BR(~s_R -> ~chi_20 s)
#           BR         NDA      ID1       ID2       ID3
     4.01451398E-06    3        3       -2        2000002   # BR(~s_R -> s  ub  ~u_R)
     3.05514232E-05    3        3       2        -2000002   # BR(~s_R -> s  u  ~u_R*)
     4.06854135E-06    3        3       -4        2000004   # BR(~s_R -> s  cb  ~c_R)
     3.00093954E-05    3        3       4        -2000004   # BR(~s_R -> s  c  ~c_R*)
     1.31507521E-03    3        3       -15        1000015   # BR(~s_R -> s  tau+  ~tau_1-)
     2.67249525E-04    3        3       15        -1000015   # BR(~s_R -> s  tau-  ~tau_1+)
     1.34531650E-03    3        3       -16        1000016   # BR(~s_R -> s  nu_taub  ~nu_tau1)
     2.62394079E-04    3        3       16        -1000016   # BR(~s_R -> s  nu_tau  ~nu_tau1*)
     2.67119719E-03    3        3       23        1000022   # BR(~s_R -> s  Z  ~chi_10)
     1.35699905E-02    3        3       25        1000022   # BR(~s_R -> s  h  ~chi_10)
     1.43786468E-02    3        3       23        1000023   # BR(~s_R -> s  Z  ~chi_20)
     2.61313531E-03    3        3       25        1000023   # BR(~s_R -> s  h  ~chi_20)
     6.42960742E-03    3        3       -24        1000024   # BR(~s_R -> s  W-  ~chi_1+)
     3.16495119E-02    3        3       24        -1000024   # BR(~s_R -> s  W+  ~chi_1-)
#
#         PDG            Width
DECAY   1000011     6.66431151E-03   # selectron_L decays
#          BR         NDA      ID1       ID2
     4.52320891E-01    2     1000022        11   # BR(~e_L -> ~chi_10 e-)
     1.12188127E-01    2     1000023        11   # BR(~e_L -> ~chi_20 e-)
     4.35490981E-01    2    -1000024        12   # BR(~e_L -> ~chi_1- nu_e)
#
#         PDG            Width
DECAY   2000011     2.78047880E-03   # selectron_R decays
#           BR         NDA      ID1       ID2
     7.15062603E-01    2     1000022        11   # BR(~e_R -> ~chi_10 e-)
     1.97034821E-01    2     1000023        11   # BR(~e_R -> ~chi_20 e-)
#           BR         NDA      ID1       ID2       ID3
     2.29525217E-08    3        11       -1        2000001   # BR(~e_R- -> e-  db  ~d_R)
     7.16423372E-08    3        11       1        -2000001   # BR(~e_R- -> e-  d  ~d_R*)
     2.56815481E-06    3        11       -2        2000002   # BR(~e_R- -> e-  ub  ~u_R)
     8.52658901E-06    3        11       2        -2000002   # BR(~e_R- -> e-  u  ~u_R*)
     2.30812765E-08    3        11       -3        2000003   # BR(~e_R- -> e-  sb  ~s_R)
     7.30557628E-08    3        11       3        -2000003   # BR(~e_R- -> e-  s  ~s_R*)
     2.55894776E-06    3        11       -4        2000004   # BR(~e_R- -> e-  cb  ~c_R)
     8.56219439E-06    3        11       4        -2000004   # BR(~e_R- -> e-  c  ~c_R*)
     1.45618805E-08    3        11       -11        1000011   # BR(~e_R- -> e-  e+  ~e_L-)
     4.72616442E-09    3        11       11        -1000011   # BR(~e_R- -> e-  e-  ~e_L+)
     1.90672196E-08    3        11       -12        1000012   # BR(~e_R- -> e-  nu_eb  ~nu_eL)
     6.05543189E-09    3        11       12        -1000012   # BR(~e_R- -> e-  nu_e  ~nu_eL*)
     1.46740914E-08    3        11       -13        1000013   # BR(~e_R- -> e-  mu+  ~mu_L-)
     4.73983114E-09    3        11       13        -1000013   # BR(~e_R- -> e-  mu-  ~mu_L+)
     1.92445272E-08    3        11       -14        1000014   # BR(~e_R- -> e-  nu_mub  ~nu_muL)
     6.00544050E-09    3        11       14        -1000014   # BR(~e_R- -> e-  nu_mu  ~nu_muL*)
     1.99321786E-03    3        11       -15        1000015   # BR(~e_R- -> e-  tau+  ~tau_1-)
     4.35392638E-04    3        11       15        -1000015   # BR(~e_R- -> e-  tau-  ~tau_1+)
     2.04917944E-03    3        11       -16        1000016   # BR(~e_R- -> e-  nu_taub  ~nu_tau1)
     4.21330311E-04    3        11       16        -1000016   # BR(~e_R- -> e-  nu_tau  ~nu_tau1*)
     3.06932748E-03    3        11       23        1000022   # BR(~e_R- -> e-  Z  ~chi_10)
     1.58620163E-02    3        11       25        1000022   # BR(~e_R- -> e-  h  ~chi_10)
     1.63137370E-02    3        11       23        1000023   # BR(~e_R- -> e-  Z  ~chi_20)
     3.07486610E-03    3        11       25        1000023   # BR(~e_R- -> e-  h  ~chi_20)
     7.82922710E-03    3        11       -24        1000024   # BR(~e_R- -> e-  W-  ~chi_1+)
     3.68317859E-02    3        11       24        -1000024   # BR(~e_R- -> e-  W+  ~chi_1-)
#
#         PDG            Width
DECAY   1000013     6.66431145E-03   # smuon_L decays
#          BR         NDA      ID1       ID2
     4.52320888E-01    2     1000022        13   # BR(~mu_L -> ~chi_10 mu-)
     1.12188127E-01    2     1000023        13   # BR(~mu_L -> ~chi_20 mu-)
     4.35490986E-01    2    -1000024        14   # BR(~mu_L -> ~chi_1- nu_mu)
#
#         PDG            Width
DECAY   2000013     2.78066627E-03   # smuon_R decays
#           BR         NDA      ID1       ID2
     7.15014381E-01    2     1000022        13   # BR(~mu_R -> ~chi_10 mu-)
     1.97021535E-01    2     1000023        13   # BR(~mu_R -> ~chi_20 mu-)
#           BR         NDA      ID1       ID2       ID3
     2.29876561E-08    3        13       -1        2000001   # BR(~mu_R- -> mu-  db  ~d_R)
     7.26013051E-08    3        13       1        -2000001   # BR(~mu_R- -> mu-  d  ~d_R*)
     2.58905575E-06    3        13       -2        2000002   # BR(~mu_R- -> mu-  ub  ~u_R)
     8.52565454E-06    3        13       2        -2000002   # BR(~mu_R- -> mu-  u  ~u_R*)
     2.29772270E-08    3        13       -3        2000003   # BR(~mu_R- -> mu-  sb  ~s_R)
     7.27127891E-08    3        13       3        -2000003   # BR(~mu_R- -> mu-  s  ~s_R*)
     2.57833890E-06    3        13       -4        2000004   # BR(~mu_R- -> mu-  cb  ~c_R)
     8.56161715E-06    3        13       4        -2000004   # BR(~mu_R- -> mu-  c  ~c_R*)
     1.47878228E-08    3        13       -11        1000011   # BR(~mu_R- -> mu-  e+  ~e_L-)
     4.73771346E-09    3        13       11        -1000011   # BR(~mu_R- -> mu-  e-  ~e_L+)
     1.89771065E-08    3        13       -12        1000012   # BR(~mu_R- -> mu-  nu_eb  ~nu_eL)
     6.03092870E-09    3        13       12        -1000012   # BR(~mu_R- -> mu-  nu_e  ~nu_eL*)
     1.45990191E-08    3        13       -13        1000013   # BR(~mu_R- -> mu-  mu+  ~mu_L-)
     4.65967461E-09    3        13       13        -1000013   # BR(~mu_R- -> mu-  mu-  ~mu_L+)
     1.89314340E-08    3        13       -14        1000014   # BR(~mu_R- -> mu-  nu_mub  ~nu_muL)
     6.04387524E-09    3        13       14        -1000014   # BR(~mu_R- -> mu-  nu_mu  ~nu_muL*)
     1.99836998E-03    3        13       -15        1000015   # BR(~mu_R- -> mu-  tau+  ~tau_1-)
     4.35363285E-04    3        13       15        -1000015   # BR(~mu_R- -> mu-  tau-  ~tau_1+)
     2.04907725E-03    3        13       -16        1000016   # BR(~mu_R- -> mu-  nu_taub  ~nu_tau1)
     4.21985196E-04    3        13       16        -1000016   # BR(~mu_R- -> mu-  nu_tau  ~nu_tau1*)
     3.04347922E-03    3        13       23        1000022   # BR(~mu_R- -> mu-  Z  ~chi_10)
     1.59443801E-02    3        13       25        1000022   # BR(~mu_R- -> mu-  h  ~chi_10)
     1.63126372E-02    3        13       23        1000023   # BR(~mu_R- -> mu-  Z  ~chi_20)
     3.07465880E-03    3        13       25        1000023   # BR(~mu_R- -> mu-  h  ~chi_20)
     7.83229554E-03    3        13       -24        1000024   # BR(~mu_R- -> mu-  W-  ~chi_1+)
     3.68293028E-02    3        13       24        -1000024   # BR(~mu_R- -> mu-  W+  ~chi_1-)
#
#         PDG            Width
DECAY   1000015     4.97560570E-02   # stau_1 decays
#          BR         NDA      ID1       ID2
     5.03888052E-01    2     1000022        15   # BR(~tau_1 -> ~chi_10  tau-)
     4.71665132E-01    2     1000023        15   # BR(~tau_1 -> ~chi_20  tau-)
     2.44468159E-02    2    -1000024        16   # BR(~tau_1 -> ~chi_1-  nu_tau)
#
#         PDG            Width
DECAY   2000015     2.75903873E+00   # stau_2 decays
#          BR         NDA      ID1       ID2
     5.90387659E-02    2     1000022        15   # BR(~tau_2 -> ~chi_10  tau-)
     5.72039585E-02    2     1000023        15   # BR(~tau_2 -> ~chi_20  tau-)
     8.90881223E-05    2     1000025        15   # BR(~tau_2 -> ~chi_30  tau-)
     7.51049467E-01    2     1000035        15   # BR(~tau_2 -> ~chi_40  tau-)
     1.13817457E-01    2    -1000024        16   # BR(~tau_2 -> ~chi_1-  nu_tau)
     2.79245294E-05    2    -1000037        16   # BR(~tau_2 -> ~chi_2-  nu_tau)
     9.15402700E-03    2     1000016       -24   # BR(~tau_2 -> ~nu_tauL W-)
     4.92338077E-03    2     1000015        25   # BR(~tau_2 -> ~tau_1   h)
     4.69593061E-03    2     1000015        23   # BR(~tau_2 -> ~tau_1   Z)
#
#         PDG            Width
DECAY   1000012     3.87437641E-02   # snu_eL decays
#          BR         NDA      ID1       ID2
     2.49116673E-01    2     1000022        12   # BR(~nu_eL -> ~chi_10 nu_e)
     6.47596837E-02    2     1000023        12   # BR(~nu_eL -> ~chi_20 nu_e)
     6.86123644E-01    2     1000024        11   # BR(~nu_eL -> ~chi_1+ e-)
#
#         PDG            Width
DECAY   1000014     3.87437636E-02   # snu_muL decays
#          BR         NDA      ID1       ID2
     2.49116675E-01    2     1000022        14   # BR(~nu_muL -> ~chi_10 nu_mu)
     6.47596845E-02    2     1000023        14   # BR(~nu_muL -> ~chi_20 nu_mu)
     6.86123640E-01    2     1000024        13   # BR(~nu_muL -> ~chi_1+ mu-)
#
#         PDG            Width
DECAY   1000016     6.21177107E-02   # snu_tauL decays
#          BR         NDA      ID1       ID2
     6.37053653E-02    2     1000022        16   # BR(~nu_tauL -> ~chi_10 nu_tau)
     1.63563098E-02    2     1000023        16   # BR(~nu_tauL -> ~chi_20 nu_tau)
     9.19938325E-01    2     1000024        15   # BR(~nu_tauL -> ~chi_1+ tau-)
#
#         PDG            Width
DECAY   1000024     6.29324193E-11   # chargino1+ decays
#           BR         NDA      ID1       ID2       ID3
     3.73927157E-01    3     1000022         2        -1   # BR(~chi_1+ -> ~chi_10 u    db)
     3.73927157E-01    3     1000022         4        -3   # BR(~chi_1+ -> ~chi_10 c    sb)
     1.24643036E-01    3     1000022       -11        12   # BR(~chi_1+ -> ~chi_10 e+   nu_e)
     1.24643036E-01    3     1000022       -13        14   # BR(~chi_1+ -> ~chi_10 mu+  nu_mu)
     2.85961256E-03    3     1000022       -15        16   # BR(~chi_1+ -> ~chi_10 tau+ nu_tau)
#
#         PDG            Width
DECAY   1000037     7.69685901E+01   # chargino2+ decays
#          BR         NDA      ID1       ID2
     8.77857403E-02    2     1000002        -1   # BR(~chi_2+ -> ~u_L     db)
     8.75910212E-02    2    -1000001         2   # BR(~chi_2+ -> ~d_L*    u )
     8.77857286E-02    2     1000004        -3   # BR(~chi_2+ -> ~c_L     sb)
     8.75908317E-02    2    -1000003         4   # BR(~chi_2+ -> ~s_L*     c )
     3.49349615E-02    2     1000006        -5   # BR(~chi_2+ -> ~t_1     bb)
     1.59303236E-02    2     2000006        -5   # BR(~chi_2+ -> ~t_2     bb)
     4.52680602E-02    2    -1000005         6   # BR(~chi_2+ -> ~b_1*    t )
     4.14261597E-02    2     1000012       -11   # BR(~chi_2+ -> ~nu_eL   e+  )
     4.14261597E-02    2     1000014       -13   # BR(~chi_2+ -> ~nu_muL mu+ )
     7.82520760E-02    2     1000016       -15   # BR(~chi_2+ -> ~nu_tau1 tau+)
     4.13364780E-02    2    -1000011        12   # BR(~chi_2+ -> ~e_L+    nu_e)
     4.13364780E-02    2    -1000013        14   # BR(~chi_2+ -> ~mu_L+   nu_mu)
     7.82055711E-02    2    -1000015        16   # BR(~chi_2+ -> ~tau_1+  nu_tau)
     5.84020247E-02    2     1000024        23   # BR(~chi_2+ -> ~chi_1+  Z )
     5.64207704E-02    2     1000022        24   # BR(~chi_2+ -> ~chi_10  W+)
     5.69937660E-02    2     1000023        24   # BR(~chi_2+ -> ~chi_20  W+)
     5.93138491E-02    2     1000024        25   # BR(~chi_2+ -> ~chi_1+  h )
#
#         PDG            Width
DECAY   1000022     0.00000000E+00   # neutralino1 decays
#
#         PDG            Width
DECAY   1000023     2.70045950E-09   # neutralino2 decays
#          BR         NDA      ID1       ID2
     4.81447715E-02    2     1000022        22   # BR(~chi_20 -> ~chi_10 gam)
#           BR         NDA      ID1       ID2       ID3
     1.20735363E-01    3     1000022        -2         2   # BR(~chi_20 -> ~chi_10 ub      u)
     1.56655501E-01    3     1000022        -1         1   # BR(~chi_20 -> ~chi_10 db      d)
     1.20735363E-01    3     1000022        -4         4   # BR(~chi_20 -> ~chi_10 cb      c)
     1.56655501E-01    3     1000022        -3         3   # BR(~chi_20 -> ~chi_10 sb      s)
     3.59488375E-02    3     1000022       -11        11   # BR(~chi_20 -> ~chi_10 e+      e-)
     3.59488375E-02    3     1000022       -13        13   # BR(~chi_20 -> ~chi_10 mu+     mu-)
     1.02693313E-02    3     1000022       -15        15   # BR(~chi_20 -> ~chi_10 tau+    tau-)
     7.18716125E-02    3     1000022       -12        12   # BR(~chi_20 -> ~chi_10 nu_eb   nu_e)
     7.18716125E-02    3     1000022       -14        14   # BR(~chi_20 -> ~chi_10 nu_mub  nu_mu)
     7.18732327E-02    3     1000022       -16        16   # BR(~chi_20 -> ~chi_10 nu_taub nu_tau)
     1.84231078E-02    3     1000024        -2         1   # BR(~chi_20 -> ~chi_1+ ub      d)
     1.84231078E-02    3    -1000024        -1         2   # BR(~chi_20 -> ~chi_1- db      u)
     1.84231078E-02    3     1000024        -4         3   # BR(~chi_20 -> ~chi_1+ cb      s)
     1.84231078E-02    3    -1000024        -3         4   # BR(~chi_20 -> ~chi_1- sb      c)
     6.14105554E-03    3     1000024       -12        11   # BR(~chi_20 -> ~chi_1+ nu_eb   e-)
     6.14105554E-03    3    -1000024        12       -11   # BR(~chi_20 -> ~chi_1- nu_e    e+)
     6.14105554E-03    3     1000024       -14        13   # BR(~chi_20 -> ~chi_1+ nu_mub  mu-)
     6.14105554E-03    3    -1000024        14       -13   # BR(~chi_20 -> ~chi_1- nu_mu   mu+)
     5.16691966E-04    3     1000024       -16        15   # BR(~chi_20 -> ~chi_1+ nu_taub tau-)
     5.16691966E-04    3    -1000024        16       -15   # BR(~chi_20 -> ~chi_1- nu_tau  tau+)
#
#         PDG            Width
DECAY   1000025     7.69384627E+01   # neutralino3 decays
#          BR         NDA      ID1       ID2
     1.16318199E-02    2     1000022        23   # BR(~chi_30 -> ~chi_10   Z )
     4.61868244E-02    2     1000023        23   # BR(~chi_30 -> ~chi_20   Z )
     5.74931075E-02    2     1000024       -24   # BR(~chi_30 -> ~chi_1+   W-)
     5.74931075E-02    2    -1000024        24   # BR(~chi_30 -> ~chi_1-   W+)
     4.66936410E-02    2     1000022        25   # BR(~chi_30 -> ~chi_10   h )
     1.16831444E-02    2     1000023        25   # BR(~chi_30 -> ~chi_20   h )
     4.40797553E-02    2     1000002        -2   # BR(~chi_30 -> ~u_L      ub)
     4.40797553E-02    2    -1000002         2   # BR(~chi_30 -> ~u_L*     u )
     2.30710886E-06    2     2000002        -2   # BR(~chi_30 -> ~u_R      ub)
     2.30710886E-06    2    -2000002         2   # BR(~chi_30 -> ~u_R*     u )
     4.36051532E-02    2     1000001        -1   # BR(~chi_30 -> ~d_L      db)
     4.36051532E-02    2    -1000001         1   # BR(~chi_30 -> ~d_L*     d )
     5.20689115E-07    2     2000001        -1   # BR(~chi_30 -> ~d_R      db)
     5.20689115E-07    2    -2000001         1   # BR(~chi_30 -> ~d_R*     d )
     4.40796607E-02    2     1000004        -4   # BR(~chi_30 -> ~c_L      cb)
     4.40796607E-02    2    -1000004         4   # BR(~chi_30 -> ~c_L*     c )
     2.30710669E-06    2     2000004        -4   # BR(~chi_30 -> ~c_R      cb)
     2.30710669E-06    2    -2000004         4   # BR(~chi_30 -> ~c_R*     c )
     4.36051532E-02    2     1000003        -3   # BR(~chi_30 -> ~s _L      sb)
     4.36051532E-02    2    -1000003         3   # BR(~chi_30 -> ~s _L*     s )
     5.20689115E-07    2     2000003        -3   # BR(~chi_30 -> ~s _R      sb)
     5.20689115E-07    2    -2000003         3   # BR(~chi_30 -> ~s _R*     s )
     1.63696262E-02    2     1000006        -6   # BR(~chi_30 -> ~t_1      tb)
     1.63696262E-02    2    -1000006         6   # BR(~chi_30 -> ~t_1*     t )
     6.29824032E-03    2     2000006        -6   # BR(~chi_30 -> ~t_2      tb)
     6.29824032E-03    2    -2000006         6   # BR(~chi_30 -> ~t_2*     t )
     2.53509266E-02    2     1000005        -5   # BR(~chi_30 -> ~b_1      bb)
     2.53509266E-02    2    -1000005         5   # BR(~chi_30 -> ~b_1*     b )
     2.08159051E-02    2     1000011       -11   # BR(~chi_30 -> ~e_L-     e+)
     2.08159051E-02    2    -1000011        11   # BR(~chi_30 -> ~e_L+     e-)
     1.37727524E-06    2     2000011       -11   # BR(~chi_30 -> ~e_R-     e+)
     1.37727524E-06    2    -2000011        11   # BR(~chi_30 -> ~e_R+     e-)
     2.08159051E-02    2     1000013       -13   # BR(~chi_30 -> ~mu_L-    mu+)
     2.08159051E-02    2    -1000013        13   # BR(~chi_30 -> ~mu_L+    mu-)
     1.37727524E-06    2     2000013       -13   # BR(~chi_30 -> ~mu_R-    mu+)
     1.37727524E-06    2    -2000013        13   # BR(~chi_30 -> ~mu_R+    mu-)
     3.93880669E-02    2     1000015       -15   # BR(~chi_30 -> ~tau_1-   tau+)
     3.93880669E-02    2    -1000015        15   # BR(~chi_30 -> ~tau_1+   tau-)
     2.05675495E-02    2     1000012       -12   # BR(~chi_30 -> ~nu_eL    nu_eb)
     2.05675495E-02    2    -1000012        12   # BR(~chi_30 -> ~nu_eL*   nu_e )
     2.05675495E-02    2     1000014       -14   # BR(~chi_30 -> ~nu_muL   nu_mub)
     2.05675495E-02    2    -1000014        14   # BR(~chi_30 -> ~nu_muL*  nu_mu )
     3.88572759E-02    2     1000016       -16   # BR(~chi_30 -> ~nu_tau1  nu_taub)
     3.88572759E-02    2    -1000016        16   # BR(~chi_30 -> ~nu_tau1* nu_tau )
#
#         PDG            Width
DECAY   1000035     5.52728339E+01   # neutralino4 decays
#          BR         NDA      ID1       ID2
     6.38167975E-03    2     1000022        23   # BR(~chi_40 -> ~chi_10   Z )
     2.35739235E-02    2     1000023        23   # BR(~chi_40 -> ~chi_20   Z )
     3.58793433E-07    2     1000025        23   # BR(~chi_40 -> ~chi_30   Z )
     2.75985071E-02    2     1000024       -24   # BR(~chi_40 -> ~chi_1+   W-)
     2.75985071E-02    2    -1000024        24   # BR(~chi_40 -> ~chi_1-   W+)
     8.80985523E-05    2     1000037       -24   # BR(~chi_40 -> ~chi_2+   W-)
     8.80985523E-05    2    -1000037        24   # BR(~chi_40 -> ~chi_2-   W+)
     2.37375686E-02    2     1000022        25   # BR(~chi_40 -> ~chi_10   h )
     6.50138413E-03    2     1000023        25   # BR(~chi_40 -> ~chi_20   h )
     1.03565487E-04    2     1000025        25   # BR(~chi_40 -> ~chi_30   h )
     3.19754534E-03    2     1000002        -2   # BR(~chi_40 -> ~u_L      ub)
     3.19754534E-03    2    -1000002         2   # BR(~chi_40 -> ~u_L*     u )
     7.70804006E-02    2     2000002        -2   # BR(~chi_40 -> ~u_R      ub)
     7.70804006E-02    2    -2000002         2   # BR(~chi_40 -> ~u_R*     u )
     3.66016283E-03    2     1000001        -1   # BR(~chi_40 -> ~d_L      db)
     3.66016283E-03    2    -1000001         1   # BR(~chi_40 -> ~d_L*     d )
     1.78947345E-02    2     2000001        -1   # BR(~chi_40 -> ~d_R      db)
     1.78947345E-02    2    -2000001         1   # BR(~chi_40 -> ~d_R*     d )
     3.19754216E-03    2     1000004        -4   # BR(~chi_40 -> ~c_L      cb)
     3.19754216E-03    2    -1000004         4   # BR(~chi_40 -> ~c_L*     c )
     7.70803620E-02    2     2000004        -4   # BR(~chi_40 -> ~c_R      cb)
     7.70803620E-02    2    -2000004         4   # BR(~chi_40 -> ~c_R*     c )
     3.66016283E-03    2     1000003        -3   # BR(~chi_40 -> ~s _L      sb)
     3.66016283E-03    2    -1000003         3   # BR(~chi_40 -> ~s _L*     s )
     1.78947345E-02    2     2000003        -3   # BR(~chi_40 -> ~s _R      sb)
     1.78947345E-02    2    -2000003         3   # BR(~chi_40 -> ~s _R*     s )
     2.77933453E-02    2     1000006        -6   # BR(~chi_40 -> ~t_1      tb)
     2.77933453E-02    2    -1000006         6   # BR(~chi_40 -> ~t_1*     t )
     1.44952408E-02    2     2000006        -6   # BR(~chi_40 -> ~t_2      tb)
     1.44952408E-02    2    -2000006         6   # BR(~chi_40 -> ~t_2*     t )
     2.58727343E-03    2     1000005        -5   # BR(~chi_40 -> ~b_1      bb)
     2.58727343E-03    2    -1000005         5   # BR(~chi_40 -> ~b_1*     b )
     1.28325953E-02    2     1000011       -11   # BR(~chi_40 -> ~e_L-     e+)
     1.28325953E-02    2    -1000011        11   # BR(~chi_40 -> ~e_L+     e-)
     4.93179026E-02    2     2000011       -11   # BR(~chi_40 -> ~e_R-     e+)
     4.93179026E-02    2    -2000011        11   # BR(~chi_40 -> ~e_R+     e-)
     1.28325953E-02    2     1000013       -13   # BR(~chi_40 -> ~mu_L-    mu+)
     1.28325953E-02    2    -1000013        13   # BR(~chi_40 -> ~mu_L+    mu-)
     4.93179026E-02    2     2000013       -13   # BR(~chi_40 -> ~mu_R-    mu+)
     4.93179026E-02    2    -2000013        13   # BR(~chi_40 -> ~mu_R+    mu-)
     2.06551529E-02    2     1000015       -15   # BR(~chi_40 -> ~tau_1-   tau+)
     2.06551529E-02    2    -1000015        15   # BR(~chi_40 -> ~tau_1+   tau-)
     1.34881012E-02    2     1000012       -12   # BR(~chi_40 -> ~nu_eL    nu_eb)
     1.34881012E-02    2    -1000012        12   # BR(~chi_40 -> ~nu_eL*   nu_e )
     1.34881012E-02    2     1000014       -14   # BR(~chi_40 -> ~nu_muL   nu_mub)
     1.34881012E-02    2    -1000014        14   # BR(~chi_40 -> ~nu_muL*  nu_mu )
     2.16902989E-02    2     1000016       -16   # BR(~chi_40 -> ~nu_tau1  nu_taub)
     2.16902989E-02    2    -1000016        16   # BR(~chi_40 -> ~nu_tau1* nu_tau )
#
#         PDG            Width
DECAY        25     4.16278541E-03   # h decays
#          BR         NDA      ID1       ID2
     5.80950069E-01    2           5        -5   # BR(h -> b       bb     )
     6.29836612E-02    2         -15        15   # BR(h -> tau+    tau-   )
     2.22936542E-04    2         -13        13   # BR(h -> mu+     mu-    )
     2.42948734E-04    2           3        -3   # BR(h -> s       sb     )
     2.09657976E-02    2           4        -4   # BR(h -> c       cb     )
     7.69353510E-02    2          21        21   # BR(h -> g       g      )
     2.35759475E-03    2          22        22   # BR(h -> gam     gam    )
     1.63832177E-03    2          22        23   # BR(h -> Z       gam    )
     2.25190446E-01    2          24       -24   # BR(h -> W+      W-     )
     2.85128739E-02    2          23        23   # BR(h -> Z       Z      )
#
#         PDG            Width
DECAY        35     1.42010840E+01   # H decays
#          BR         NDA      ID1       ID2
     1.23986074E-01    2           5        -5   # BR(H -> b       bb     )
     2.24476674E-02    2         -15        15   # BR(H -> tau+    tau-   )
     7.96092454E-05    2         -13        13   # BR(H -> mu+     mu-    )
     4.83497394E-05    2           3        -3   # BR(H -> s       sb     )
     1.63531671E-06    2           4        -4   # BR(H -> c       cb     )
     1.60666466E-01    2           6        -6   # BR(H -> t       tb     )
     6.43129897E-05    2          21        21   # BR(H -> g       g      )
     4.19513816E-07    2          22        22   # BR(H -> gam     gam    )
     1.18942809E-07    2          23        22   # BR(H -> Z       gam    )
     7.83195883E-05    2          24       -24   # BR(H -> W+      W-     )
     3.90718039E-05    2          23        23   # BR(H -> Z       Z      )
     2.93225920E-04    2          25        25   # BR(H -> h       h      )
     4.52761530E-03    2     1000024  -1000024   # BR(H -> ~chi_1+ ~chi_1-)
     2.17267780E-01    2     1000024  -1000037   # BR(H -> ~chi_1+ ~chi_2-)
     2.17267780E-01    2     1000037  -1000024   # BR(H -> ~chi_2+ ~chi_1-)
     1.31224716E-03    2     1000022   1000022   # BR(H -> ~chi_10 ~chi_10)
     5.89886974E-04    2     1000023   1000023   # BR(H -> ~chi_20 ~chi_20)
     4.60192828E-04    2     1000022   1000023   # BR(H -> ~chi_10 ~chi_20)
     4.24245252E-02    2     1000022   1000025   # BR(H -> ~chi_10 ~chi_30)
     4.30534707E-03    2     1000022   1000035   # BR(H -> ~chi_10 ~chi_40)
     1.73102065E-01    2     1000023   1000025   # BR(H -> ~chi_20 ~chi_30)
     2.93055115E-02    2     1000023   1000035   # BR(H -> ~chi_20 ~chi_40)
     1.40375197E-05    2     1000002  -1000002   # BR(H -> ~u_L    ~u_L*  )
     6.05492701E-06    2     2000002  -2000002   # BR(H -> ~u_R    ~u_R*  )
     1.40375197E-05    2     1000004  -1000004   # BR(H -> ~c_L    ~c_L*  )
     6.05492701E-06    2     2000004  -2000004   # BR(H -> ~c_R    ~c_R*  )
     1.54457540E-03    2     1000006  -1000006   # BR(H -> ~t_1    ~t_1*  )
     2.01334378E-05    2     1000001  -1000001   # BR(H -> ~d_L    ~d_L*  )
     1.36003526E-06    2     2000001  -2000001   # BR(H -> ~d_R    ~d_R*  )
     2.01334378E-05    2     1000003  -1000003   # BR(H -> ~s_L    ~s_L*  )
     1.36003526E-06    2     2000003  -2000003   # BR(H -> ~s_R    ~s_R*  )
     6.11208382E-06    2     1000011  -1000011   # BR(H -> ~e_L-   ~e_L+  )
     3.52947264E-06    2     2000011  -2000011   # BR(H -> ~e_R-   ~e_R+  )
     6.11208382E-06    2     1000013  -1000013   # BR(H -> ~mu_L-  ~mu_L+ )
     3.52947264E-06    2     2000013  -2000013   # BR(H -> ~mu_R-  ~mu_R+ )
     1.14598875E-05    2     1000015  -1000015   # BR(H -> ~tau_1- ~tau_1+)
     2.00297088E-05    2     1000012  -1000012   # BR(H -> ~nu_eL  ~nu_eL*   )
     2.00297088E-05    2     1000014  -1000014   # BR(H -> ~nu_muL ~nu_muL*  )
     3.32292127E-05    2     1000016  -1000016   # BR(H -> ~nu_tauL ~nu_tauL*)
#
#         PDG            Width
DECAY        36     1.41887699E+01   # A decays
#          BR         NDA      ID1       ID2
     1.24169035E-01    2           5        -5   # BR(A -> b       bb     )
     2.24686498E-02    2         -15        15   # BR(A -> tau+    tau-   )
     7.96835315E-05    2         -13        13   # BR(A -> mu+     mu-    )
     4.84597021E-05    2           3        -3   # BR(A -> s       sb     )
     1.64312299E-06    2           4        -4   # BR(A -> c       cb     )
     1.61387611E-01    2           6        -6   # BR(A -> t       tb     )
     1.48882459E-04    2          21        21   # BR(A -> g       g      )
     7.15455007E-07    2          22        22   # BR(A -> gam     gam    )
     1.85993299E-07    2          23        22   # BR(A -> Z       gam    )
     7.93964994E-05    2          23        25   # BR(A -> Z       h      )
     5.92647385E-03    2     1000024  -1000024   # BR(A -> ~chi_1+ ~chi_1-)
     2.16785759E-01    2     1000024  -1000037   # BR(A -> ~chi_1+ ~chi_2-)
     2.16785759E-01    2     1000037  -1000024   # BR(A -> ~chi_2+ ~chi_1-)
     2.48419428E-03    2     1000022   1000022   # BR(A -> ~chi_10 ~chi_10)
     3.69065952E-04    2     1000023   1000023   # BR(A -> ~chi_20 ~chi_20)
     6.74285897E-05    2     1000022   1000023   # BR(A -> ~chi_10 ~chi_20)
     1.73943817E-01    2     1000022   1000025   # BR(A -> ~chi_10 ~chi_30)
     2.95740870E-02    2     1000022   1000035   # BR(A -> ~chi_10 ~chi_40)
     4.15335524E-02    2     1000023   1000025   # BR(A -> ~chi_20 ~chi_30)
     4.14560055E-03    2     1000023   1000035   # BR(A -> ~chi_20 ~chi_40)
#
#         PDG            Width
DECAY        37     1.41070934E+01   # H+ decays
#          BR         NDA      ID1       ID2
     2.08085878E-04    2           4        -5   # BR(H+ -> c       bb     )
     2.26091008E-02    2         -15        16   # BR(H+ -> tau+    nu_tau )
     8.01816311E-05    2         -13        14   # BR(H+ -> mu+     nu_mu  )
     2.08082964E-06    2           2        -5   # BR(H+ -> u       bb     )
     2.43641885E-06    2           2        -3   # BR(H+ -> u       sb     )
     4.95410854E-05    2           4        -3   # BR(H+ -> c       sb     )
     2.83142028E-01    2           6        -5   # BR(H+ -> t       bb     )
     8.00176434E-05    2          24        25   # BR(H+ -> W+      h      )
     4.32122715E-13    2          24        36   # BR(H+ -> W+      A      )
     7.37374806E-05    2     1000024   1000022   # BR(H+ -> ~chi_1+ ~chi_10)
     8.98420340E-04    2     1000024   1000023   # BR(H+ -> ~chi_1+ ~chi_20)
     2.21234192E-01    2     1000024   1000025   # BR(H+ -> ~chi_1+ ~chi_30)
     3.23751506E-02    2     1000024   1000035   # BR(H+ -> ~chi_1+ ~chi_40)
     2.20915564E-01    2     1000037   1000022   # BR(H+ -> ~chi_2+ ~chi_10)
     2.18170386E-01    2     1000037   1000023   # BR(H+ -> ~chi_2+ ~chi_20)
     2.42321617E-05    2    -1000011   1000012   # BR(H+ -> ~e_L+   ~nu_eL )
     2.42321617E-05    2    -1000013   1000014   # BR(H+ -> ~mu_L+  ~nu_muL)
     4.20093375E-05    2    -1000015   1000016   # BR(H+ -> ~tau_1+ ~nu_tauL)
     3.43014536E-05    2     1000002  -1000001   # BR(H+ -> ~u_L    ~d_L*  )
     3.43014536E-05    2     1000004  -1000003   # BR(H+ -> ~c_L    ~s_L*  )
