#
#                              ======================
#                              | THE SUSYHIT OUTPUT |
#                              ======================
#
#
#              ------------------------------------------------------
#              |     This is the output of the SUSY-HIT package     |
#              |  created by A.Djouadi, M.Muehlleitner and M.Spira. |
#              |  In case of problems with SUSY-HIT email to        |
#              |           margarete.muehlleitner@cern.ch           |
#              |           michael.spira@psi.ch                     |
#              |           abdelhak.djouadi@cern.ch                 |
#              ------------------------------------------------------
#
#              ------------------------------------------------------
#              |  SUSY Les Houches Accord - MSSM Spectrum + Decays  |
#              |              based on the decay programs           |
#              |                                                    |
#              |                     SDECAY 1.3b                    |
#              |                                                    |
#              |  Authors: M.Muhlleitner, A.Djouadi and Y.Mambrini  |
#              |  Ref.:    Comput.Phys.Commun.168(2005)46           |
#              |           [hep-ph/0311167]                         |
#              |                                                    |
#              |                     HDECAY 3.4                     |
#              |                                                    |
#              |  By: A.Djouadi,J.Kalinowski,M.Muhlleitner,M.Spira  |
#              |  Ref.:    Comput.Phys.Commun.108(1998)56           |
#              |           [hep-ph/9704448]                         |
#              |                                                    |
#              |                                                    |
#              |  If not stated otherwise all DRbar couplings and   |
#              |  soft SUSY breaking masses are given at the scale  |
#              |  Q=  0.21339820E+04
#              |                                                    |
#              ------------------------------------------------------
#
#
BLOCK DCINFO  # Decay Program information
     1   SDECAY/HDECAY # decay calculator
     2   1.3b  /3.4    # version number
#
BLOCK SPINFO  # Spectrum calculator information
     1     SOFTSUSY    # spectrum calculator               
     2     3.4.0       # version number                    
#
BLOCK MODSEL  # Model selection
     1     0   #  nonUniversal                                     
#
BLOCK SMINPUTS  # Standard Model inputs
         1     1.27908970E+02   # alpha_em^-1(M_Z)^MSbar
         2     1.16637870E-05   # G_F [GeV^-2]
         3     1.18400000E-01   # alpha_S(M_Z)^MSbar
         4     9.11876000E+01   # M_Z pole mass
         5     4.18000000E+00   # mb(mb)^MSbar
         6     1.73200000E+02   # mt pole mass
         7     1.77700000E+00   # mtau pole mass
#
BLOCK MINPAR  # Input parameters - minimal models
         3     1.82900000E+01   # tanb                
#
BLOCK EXTPAR  # Input parameters - non-minimal models
         0    -1.00000000E+00   # Set                 
         1    -1.58853000E+03   # M_1(MX)             
         2    -3.33278000E+03   # M_2(MX)             
         3     2.01232000E+03   # M_3(MX)             
        11    -3.19803000E+03   # At(MX)              
        12     3.80325000E+03   # Ab(MX)              
        13    -3.53094000E+03   # Atau(MX)            
        23    -2.53820000E+02   # mu(MX)              
        26     2.15924000E+03   # mA(pole)            
        31     2.56443000E+03   # meL(MX)             
        32     2.56443000E+03   # mmuL(MX)            
        33     6.56580000E+02   # mtauL(MX)           
        34     1.26102000E+03   # meR(MX)             
        35     1.26102000E+03   # mmuR(MX)            
        36     3.30726000E+03   # mtauR(MX)           
        41     2.34862000E+03   # mqL1(MX)            
        42     2.34862000E+03   # mqL2(MX)            
        43     1.46962000E+03   # mqL3(MX)            
        44     1.74631000E+03   # muR(MX)             
        45     1.74631000E+03   # mcR(MX)             
        46     3.09832000E+03   # mtR(MX)             
        47     2.08472000E+03   # mdR(MX)             
        48     2.08472000E+03   # msR(MX)             
        49     2.34500000E+02   # mbR(MX)             
#
BLOCK MASS  # Mass Spectrum
# PDG code           mass       particle
        24     8.03913551E+01   # W+
        25     1.25013948E+02   # h
        35     2.15927472E+03   # H
        36     2.15923983E+03   # A
        37     2.16114156E+03   # H+
         5     4.81876030E+00   # b-quark pole mass calculated from mb(mb)_Msbar
   1000001     2.42565009E+03   # ~d_L
   2000001     2.15756085E+03   # ~d_R
   1000002     2.42451036E+03   # ~u_L
   2000002     1.83008147E+03   # ~u_R
   1000003     2.42565009E+03   # ~s_L
   2000003     2.15756085E+03   # ~s_R
   1000004     2.42451036E+03   # ~c_L
   2000004     1.83008147E+03   # ~c_R
   1000005     4.64694834E+02   # ~b_1
   2000005     1.55441699E+03   # ~b_2
   1000006     1.54989388E+03   # ~t_1
   2000006     3.10379935E+03   # ~t_2
   1000011     2.58011200E+03   # ~e_L
   2000011     1.27191119E+03   # ~e_R
   1000012     2.57856791E+03   # ~nu_eL
   1000013     2.58011200E+03   # ~mu_L
   2000013     1.27191119E+03   # ~mu_R
   1000014     2.57856791E+03   # ~nu_muL
   1000015     6.72415406E+02   # ~tau_1
   2000015     3.30879188E+03   # ~tau_2
   1000016     6.67443896E+02   # ~nu_tauL
   1000021     2.13084243E+03   # ~g
   1000022    -2.62413716E+02   # ~chi_10
   1000023     2.65215435E+02   # ~chi_20
   1000025    -1.57193880E+03   # ~chi_30
   1000035    -3.29097016E+03   # ~chi_40
   1000024     2.64151814E+02   # ~chi_1+
   1000037     3.29113559E+03   # ~chi_2+
#
BLOCK NMIX  # Neutralino Mixing Matrix
  1  1    -2.47439049E-02   # N_11
  1  2     1.91827540E-02   # N_12
  1  3     7.08805107E-01   # N_13
  1  4    -7.04709218E-01   # N_14
  2  1     1.57934891E-02   # N_21
  2  2    -1.47361035E-02   # N_22
  2  3     7.05368028E-01   # N_23
  2  4     7.08512073E-01   # N_24
  3  1     9.99568813E-01   # N_31
  3  2     1.40995234E-03   # N_32
  3  3     6.39888736E-03   # N_33
  3  4    -2.86226210E-02   # N_34
  4  1    -7.02159815E-04   # N_41
  4  2     9.99706398E-01   # N_42
  4  3    -3.21242304E-03   # N_43
  4  4     2.40063757E-02   # N_44
#
BLOCK UMIX  # Chargino Mixing Matrix U
  1  1     4.53813453E-03   # U_11
  1  2     9.99989703E-01   # U_12
  2  1    -9.99989703E-01   # U_21
  2  2     4.53813453E-03   # U_22
#
BLOCK VMIX  # Chargino Mixing Matrix V
  1  1    -3.39429818E-02   # V_11
  1  2    -9.99423771E-01   # V_12
  2  1     9.99423771E-01   # V_21
  2  2    -3.39429818E-02   # V_22
#
BLOCK STOPMIX  # Stop Mixing Matrix
  1  1     9.97987470E-01   # cos(theta_t)
  1  2     6.34114321E-02   # sin(theta_t)
  2  1    -6.34114321E-02   # -sin(theta_t)
  2  2     9.97987470E-01   # cos(theta_t)
#
BLOCK SBOTMIX  # Sbottom Mixing Matrix
  1  1    -9.87999655E-03   # cos(theta_b)
  1  2     9.99951192E-01   # sin(theta_b)
  2  1    -9.99951192E-01   # -sin(theta_b)
  2  2    -9.87999655E-03   # cos(theta_b)
#
BLOCK STAUMIX  # Stau Mixing Matrix
  1  1     9.99999986E-01   # cos(theta_tau)
  1  2    -1.67332005E-04   # sin(theta_tau)
  2  1     1.67332005E-04   # -sin(theta_tau)
  2  2     9.99999986E-01   # cos(theta_tau)
#
BLOCK ALPHA  # Higgs mixing
          -5.71098757E-02   # Mixing angle in the neutral Higgs boson sector
#
BLOCK HMIX Q=  2.13398200E+03  # DRbar Higgs Parameters
         1    -2.57437713E+02   # mu(Q)MSSM           
         2     1.75837480E+01   # tan                 
         3     2.43548186E+02   # higgs               
         4     4.56373891E+06   # mA^2(Q)MSSM         
#
BLOCK GAUGE Q=  2.13398200E+03  # The gauge couplings
     1     3.64370105E-01   # gprime(Q) DRbar
     2     6.37556889E-01   # g(Q) DRbar
     3     1.02714652E+00   # g3(Q) DRbar
#
BLOCK AU Q=  2.13398200E+03  # The trilinear couplings
  1  1     0.00000000E+00   # A_u(Q) DRbar
  2  2     0.00000000E+00   # A_c(Q) DRbar
  3  3    -3.19802999E+03   # A_t(Q) DRbar
#
BLOCK AD Q=  2.13398200E+03  # The trilinear couplings
  1  1     0.00000000E+00   # A_d(Q) DRbar
  2  2     0.00000000E+00   # A_s(Q) DRbar
  3  3     3.80325000E+03   # A_b(Q) DRbar
#
BLOCK AE Q=  2.13398200E+03  # The trilinear couplings
  1  1     0.00000000E+00   # A_e(Q) DRbar
  2  2     0.00000000E+00   # A_mu(Q) DRbar
  3  3    -3.53094000E+03   # A_tau(Q) DRbar
#
BLOCK Yu Q=  2.13398200E+03  # The Yukawa couplings
  1  1     0.00000000E+00   # y_u(Q) DRbar
  2  2     0.00000000E+00   # y_c(Q) DRbar
  3  3     8.27159284E-01   # y_t(Q) DRbar
#
BLOCK Yd Q=  2.13398200E+03  # The Yukawa couplings
  1  1     0.00000000E+00   # y_d(Q) DRbar
  2  2     0.00000000E+00   # y_s(Q) DRbar
  3  3     2.56425616E-01   # y_b(Q) DRbar
#
BLOCK Ye Q=  2.13398200E+03  # The Yukawa couplings
  1  1     0.00000000E+00   # y_e(Q) DRbar
  2  2     0.00000000E+00   # y_mu(Q) DRbar
  3  3     1.81965158E-01   # y_tau(Q) DRbar
#
BLOCK MSOFT Q=  2.13398200E+03  # The soft SUSY breaking masses at the scale Q
         1    -1.58853000E+03   # M_1(Q)              
         2    -3.33278000E+03   # M_2(Q)              
         3     2.01232000E+03   # M_3(Q)              
        21     4.58712182E+06   # mH1^2(Q)            
        22    -1.63637589E+04   # mH2^2(Q)            
        31     2.56443000E+03   # meL(Q)              
        32     2.56443000E+03   # mmuL(Q)             
        33     6.56580000E+02   # mtauL(Q)            
        34     1.26102000E+03   # meR(Q)              
        35     1.26102000E+03   # mmuR(Q)             
        36     3.30726000E+03   # mtauR(Q)            
        41     2.34862000E+03   # mqL1(Q)             
        42     2.34862000E+03   # mqL2(Q)             
        43     1.46961999E+03   # mqL3(Q)             
        44     1.74631000E+03   # muR(Q)              
        45     1.74631000E+03   # mcR(Q)              
        46     3.09831999E+03   # mtR(Q)              
        47     2.08472000E+03   # mdR(Q)              
        48     2.08472000E+03   # msR(Q)              
        49     2.34499971E+02   # mbR(Q)              
#
Block HiggsBoundsInputHiggsCouplingsFermions
# ScalarNormEffCoupSq PseudoSNormEffCoupSq NP   IP1 IP2 IP2
    1.01059114E+00    0.00000000E+00        3  25   5   5  # h0-b-b eff. coupling^2, normalised to SM
    3.09177603E+02    0.00000000E+00        3  35   5   5  # H0-b-b eff. coupling^2, normalised to SM
    0.00000000E+00    3.09188194E+02        3  36   5   5  # A0-b-b eff. coupling^2, normalised to SM
#
    9.99965745E-01    0.00000000E+00        3  25   6   6  # h0-t-t eff. coupling^2, normalised to SM
    3.26853082E-03    0.00000000E+00        3  35   6   6  # H0-t-t eff. coupling^2, normalised to SM
    0.00000000E+00    3.23427615E-03        3  36   6   6  # A0-t-t eff. coupling^2, normalised to SM
#
    1.01059114E+00    0.00000000E+00        3  25  15  15  # h0-tau-tau eff. coupling^2, normalised to SM
    3.09177603E+02    0.00000000E+00        3  35  15  15  # H0-tau-tau eff. coupling^2, normalised to SM
    0.00000000E+00    3.09188194E+02        3  36  15  15  # A0-tau-tau eff. coupling^2, normalised to SM
#
Block HiggsBoundsInputHiggsCouplingsBosons
    9.99999910E-01        3  25  24  24  # h0-W-W eff. coupling^2, normalised to SM
    9.02233981E-08        3  35  24  24  # H0-W-W eff. coupling^2, normalised to SM
    0.00000000E+00        3  36  24  24  # A0-W-W eff. coupling^2, normalised to SM
#
    9.99999910E-01        3  25  23  23  # h0-Z-Z eff. coupling^2, normalised to SM
    9.02233981E-08        3  35  23  23  # H0-Z-Z eff. coupling^2, normalised to SM
    0.00000000E+00        3  36  23  23  # A0-Z-Z eff. coupling^2, normalised to SM
#
    8.91645978E-01        3  25  21  21  # h0-g-g eff. coupling^2, normalised to SM
    4.60489045E-13        3  35  21  21  # H0-g-g eff. coupling^2, normalised to SM
    3.88694340E-11        3  36  21  21  # A0-g-g eff. coupling^2, normalised to SM
#
    0.00000000E+00        3  25  25  23  # h0-h0-Z eff. coupling^2, normalised to SM
    0.00000000E+00        3  35  25  23  # H0-h0-Z eff. coupling^2, normalised to SM
    9.02233981E-08        3  36  25  23  # A0-h0-Z eff. coupling^2, normalised to SM
    0.00000000E+00        3  35  35  23  # H0-H0-Z eff. coupling^2, normalised to SM
    9.99999910E-01        3  36  35  23  # A0-H0-Z eff. coupling^2, normalised to SM
    0.00000000E+00        3  36  36  23  # A0-A0-Z eff. coupling^2, normalised to SM
#
    0.00000000E+00        4  25  21  21  23  # h0-g-g-Z eff. coupling^2, normalised to SM
    0.00000000E+00        4  35  21  21  23  # H0-g-g-Z eff. coupling^2, normalised to SM
    0.00000000E+00        4  36  21  21  23  # A0-g-g-Z eff. coupling^2, normalised to SM
#
#
#
#                             =================
#                             |The decay table|
#                             =================
#
# - The QCD corrections to the decays gluino -> squark  + quark
#                                     squark -> gaugino + quark_prime
#                                     squark -> squark_prime + Higgs
#                                     squark -> gluino  + quark
#   are included.
#
# - The multi-body decays for the inos, stops and sbottoms are included.
#
# - The loop induced decays for the gluino, neutralinos and stops
#   are included.
#
# - The SUSY decays of the top quark are included.
#
#
#         PDG            Width
DECAY         6     1.43149353E+00   # top decays
#          BR         NDA      ID1       ID2
     1.00000000E+00    2           5        24   # BR(t ->  b    W+)
#
#         PDG            Width
DECAY   1000021     6.31804748E+01   # gluino decays
#          BR         NDA      ID1       ID2
     2.43031094E-02    2     2000002        -2   # BR(~g -> ~u_R  ub)
     2.43031094E-02    2    -2000002         2   # BR(~g -> ~u_R* u )
     2.43028150E-02    2     2000004        -4   # BR(~g -> ~c_R  cb)
     2.43028150E-02    2    -2000004         4   # BR(~g -> ~c_R* c )
     3.06392030E-01    2     1000005        -5   # BR(~g -> ~b_1  bb)
     3.06392030E-01    2    -1000005         5   # BR(~g -> ~b_1* b )
     7.47250389E-02    2     2000005        -5   # BR(~g -> ~b_2  bb)
     7.47250389E-02    2    -2000005         5   # BR(~g -> ~b_2* b )
     7.02770071E-02    2     1000006        -6   # BR(~g -> ~t_1  tb)
     7.02770071E-02    2    -1000006         6   # BR(~g -> ~t_1* t )
#
#         PDG            Width
DECAY   1000006     2.13872669E+01   # stop1 decays
#          BR         NDA      ID1       ID2
     4.50461238E-01    2     1000022         6   # BR(~t_1 -> ~chi_10 t )
     4.51318726E-01    2     1000023         6   # BR(~t_1 -> ~chi_20 t )
     9.03225965E-02    2     1000024         5   # BR(~t_1 -> ~chi_1+ b )
     7.89743958E-03    2     1000005        24   # BR(~t_1 -> ~b_1    W+)
#
#         PDG            Width
DECAY   2000006     1.97644390E+02   # stop2 decays
#          BR         NDA      ID1       ID2
     1.04188922E-01    2     1000022         6   # BR(~t_2 -> ~chi_10 t )
     1.05473628E-01    2     1000023         6   # BR(~t_2 -> ~chi_20 t )
     2.02821991E-02    2     1000025         6   # BR(~t_2 -> ~chi_30 t )
     2.10357486E-01    2     1000024         5   # BR(~t_2 -> ~chi_1+ b )
     2.35762709E-01    2     1000021         6   # BR(~t_2 -> ~g      t )
     8.24066396E-02    2     1000006        25   # BR(~t_2 -> ~t_1    h )
     6.67459280E-06    2     1000005        37   # BR(~t_2 -> ~b_1    H+)
     8.21814375E-02    2     1000006        23   # BR(~t_2 -> ~t_1    Z )
     3.46331449E-05    2     1000005        24   # BR(~t_2 -> ~b_1    W+)
     1.59305672E-01    2     2000005        24   # BR(~t_2 -> ~b_2    W+)
#
#         PDG            Width
DECAY   1000005     3.82110992E-01   # sbottom1 decays
#          BR         NDA      ID1       ID2
     3.70997447E-01    2     1000022         5   # BR(~b_1 -> ~chi_10 b )
     3.59279349E-01    2     1000023         5   # BR(~b_1 -> ~chi_20 b )
     2.69723204E-01    2    -1000024         6   # BR(~b_1 -> ~chi_1- t )
#
#         PDG            Width
DECAY   2000005     2.15020193E+01   # sbottom2 decays
#          BR         NDA      ID1       ID2
     4.49201859E-02    2     1000022         5   # BR(~b_2 -> ~chi_10 b )
     4.44843545E-02    2     1000023         5   # BR(~b_2 -> ~chi_20 b )
     9.02549183E-01    2    -1000024         6   # BR(~b_2 -> ~chi_1- t )
     3.94995277E-03    2     1000005        25   # BR(~b_2 -> ~b_1    h )
     4.09632408E-03    2     1000005        23   # BR(~b_2 -> ~b_1    Z )
#
#         PDG            Width
DECAY   1000002     1.02412504E+01   # sup_L decays
#          BR         NDA      ID1       ID2
     1.86125508E-04    2     1000022         2   # BR(~u_L -> ~chi_10 u)
     1.22214893E-04    2     1000023         2   # BR(~u_L -> ~chi_20 u)
     1.14301979E-02    2     1000025         2   # BR(~u_L -> ~chi_30 u)
     2.04800640E-03    2     1000024         1   # BR(~u_L -> ~chi_1+ d)
     9.86213455E-01    2     1000021         2   # BR(~u_L -> ~g      u)
#
#         PDG            Width
DECAY   2000002     3.03364333E-01   # sup_R decays
#           BR         NDA      ID1       ID2
     8.16106288E-03    2     1000022         2   # BR(~u_R -> ~chi_10 u)
     3.32188678E-03    2     1000023         2   # BR(~u_R -> ~chi_20 u)
     9.88517050E-01    2     1000025         2   # BR(~u_R -> ~chi_30 u)
#
#         PDG            Width
DECAY   1000001     1.02916477E+01   # sdown_L decays
#          BR         NDA      ID1       ID2
     5.05455609E-04    2     1000022         1   # BR(~d_L -> ~chi_10 d)
     2.78577288E-04    2     1000023         1   # BR(~d_L -> ~chi_20 d)
     1.10623457E-02    2     1000025         1   # BR(~d_L -> ~chi_30 d)
     3.64474727E-05    2    -1000024         2   # BR(~d_L -> ~chi_1- u)
     9.88117174E-01    2     1000021         1   # BR(~d_L -> ~g      d)
#
#         PDG            Width
DECAY   2000001     3.78125561E-01   # sdown_R decays
#          BR         NDA      ID1       ID2
     1.90612357E-03    2     1000022         1   # BR(~d_R -> ~chi_10 d)
     7.76070514E-04    2     1000023         1   # BR(~d_R -> ~chi_20 d)
     7.19265467E-01    2     1000025         1   # BR(~d_R -> ~chi_30 d)
     2.78052339E-01    2     1000021         1   # BR(~d_R -> ~g      d)
#
#         PDG            Width
DECAY   1000004     7.17473400E+00   # scharm_L decays
#          BR         NDA      ID1       ID2
     2.79379941E-04    2     1000022         4   # BR(~c_L -> ~chi_10 c)
     1.83443572E-04    2     1000023         4   # BR(~c_L -> ~chi_20 c)
     1.68930237E-02    2     1000025         4   # BR(~c_L -> ~chi_30 c)
     3.07407314E-03    2     1000024         3   # BR(~c_L -> ~chi_1+ s)
     9.79570080E-01    2     1000021         4   # BR(~c_L -> ~g      c)
#
#         PDG            Width
DECAY   2000004     3.76048056E-01   # scharm_R decays
#           BR         NDA      ID1       ID2
     6.71091267E-03    2     1000022         4   # BR(~c_R -> ~chi_10 c)
     2.73155386E-03    2     1000023         4   # BR(~c_R -> ~chi_20 c)
#           BR         NDA      ID1       ID2       ID3
     1.37570183E-01    3        4       -5        1000005   # BR(~c_R -> c  bb  ~b_1)
     2.65910164E-01    3        4       5        -1000005   # BR(~c_R -> c  b  ~b_1*)
     3.73941569E-04    3        4       -5        2000005   # BR(~c_R -> c  bb  ~b_2)
     2.48521429E-04    3        4       5        -2000005   # BR(~c_R -> c  b  ~b_2*)
     6.59357218E-05    3        4       -6        1000006   # BR(~c_R -> c  tb  ~t_1)
     4.33402055E-05    3        4       6        -1000006   # BR(~c_R -> c  t  ~t_1*)
     3.10837932E-02    3        4       -11        2000011   # BR(~c_R -> c  e+  ~e_R-)
     3.10332677E-02    3        4       11        -2000011   # BR(~c_R -> c  e-  ~e_R+)
     3.09003060E-02    3        4       -13        2000013   # BR(~c_R -> c  mu+  ~mu_R-)
     3.12539842E-02    3        4       13        -2000013   # BR(~c_R -> c  mu-  ~mu_R+)
     4.53053798E-02    3        4       -15        1000015   # BR(~c_R -> c  tau+  ~tau_1-)
     4.50474341E-02    3        4       15        -1000015   # BR(~c_R -> c  tau-  ~tau_1+)
     4.53399499E-02    3        4       -16        1000016   # BR(~c_R -> c  nu_taub  ~nu_tau1)
     4.42789153E-02    3        4       16        -1000016   # BR(~c_R -> c  nu_tau  ~nu_tau1*)
     2.02638994E-02    3        4       23        1000022   # BR(~c_R -> c  Z  ~chi_10)
     4.86081492E-02    3        4       25        1000022   # BR(~c_R -> c  h  ~chi_10)
     5.08312693E-02    3        4       23        1000023   # BR(~c_R -> c  Z  ~chi_20)
     1.96621148E-02    3        4       25        1000023   # BR(~c_R -> c  h  ~chi_20)
     8.22315114E-05    3        4       23        1000025   # BR(~c_R -> c  Z  ~chi_30)
     1.12887168E-07    3        4       25        1000025   # BR(~c_R -> c  h  ~chi_30)
     7.02622965E-02    3        4       -24        1000024   # BR(~c_R -> c  W-  ~chi_1+)
     7.23923434E-02    3        4       24        -1000024   # BR(~c_R -> c  W+  ~chi_1-)
#
#         PDG            Width
DECAY   1000003     7.20325425E+00   # sstrange_L decays
#          BR         NDA      ID1       ID2
     7.59420545E-04    2     1000022         3   # BR(~s_L -> ~chi_10 s)
     4.18537207E-04    2     1000023         3   # BR(~s_L -> ~chi_20 s)
     1.63650870E-02    2     1000025         3   # BR(~s_L -> ~chi_30 s)
     5.47595343E-05    2    -1000024         4   # BR(~s_L -> ~chi_1- c)
     9.82402196E-01    2     1000021         3   # BR(~s_L -> ~g      s)
#
#         PDG            Width
DECAY   2000003     3.52753433E-01   # sstrange_R decays
#          BR         NDA      ID1       ID2
     2.13347051E-03    2     1000022         3   # BR(~s_R -> ~chi_10 s)
     8.68612993E-04    2     1000023         3   # BR(~s_R -> ~chi_20 s)
     7.89594431E-01    2     1000025         3   # BR(~s_R -> ~chi_30 s)
     2.07403486E-01    2     1000021         3   # BR(~s_R -> ~g      s)
#
#         PDG            Width
DECAY   1000011     1.35380876E+00   # selectron_L decays
#          BR         NDA      ID1       ID2
     1.91815690E-04    2     1000022        11   # BR(~e_L -> ~chi_10 e-)
     2.45957445E-04    2     1000023        11   # BR(~e_L -> ~chi_20 e-)
     9.99251448E-01    2     1000025        11   # BR(~e_L -> ~chi_30 e-)
     3.10779023E-04    2    -1000024        12   # BR(~e_L -> ~chi_1- nu_e)
#
#         PDG            Width
DECAY   2000011     6.51323672E-03   # selectron_R decays
#           BR         NDA      ID1       ID2
     5.78975261E-01    2     1000022        11   # BR(~e_R -> ~chi_10 e-)
     2.35423777E-01    2     1000023        11   # BR(~e_R -> ~chi_20 e-)
#           BR         NDA      ID1       ID2       ID3
     8.98155595E-03    3        11       -5        1000005   # BR(~e_R- -> e-  bb  ~b_1)
     2.67470702E-02    3        11       5        -1000005   # BR(~e_R- -> e-  b  ~b_1*)
     6.44641087E-03    3        11       -15        1000015   # BR(~e_R- -> e-  tau+  ~tau_1-)
     2.68468670E-03    3        11       15        -1000015   # BR(~e_R- -> e-  tau-  ~tau_1+)
     6.78065329E-03    3        11       -16        1000016   # BR(~e_R- -> e-  nu_taub  ~nu_tau1)
     2.64814573E-03    3        11       16        -1000016   # BR(~e_R- -> e-  nu_tau  ~nu_tau1*)
     6.67625051E-03    3        11       23        1000022   # BR(~e_R- -> e-  Z  ~chi_10)
     2.43642304E-02    3        11       25        1000022   # BR(~e_R- -> e-  h  ~chi_10)
     2.42060909E-02    3        11       23        1000023   # BR(~e_R- -> e-  Z  ~chi_20)
     6.98654171E-03    3        11       25        1000023   # BR(~e_R- -> e-  h  ~chi_20)
     1.54423990E-02    3        11       -24        1000024   # BR(~e_R- -> e-  W-  ~chi_1+)
     5.36369266E-02    3        11       24        -1000024   # BR(~e_R- -> e-  W+  ~chi_1-)
#
#         PDG            Width
DECAY   1000013     1.35380875E+00   # smuon_L decays
#          BR         NDA      ID1       ID2
     1.91815691E-04    2     1000022        13   # BR(~mu_L -> ~chi_10 mu-)
     2.45957446E-04    2     1000023        13   # BR(~mu_L -> ~chi_20 mu-)
     9.99251448E-01    2     1000025        13   # BR(~mu_L -> ~chi_30 mu-)
     3.10779025E-04    2    -1000024        14   # BR(~mu_L -> ~chi_1- nu_mu)
#
#         PDG            Width
DECAY   2000013     6.51297964E-03   # smuon_R decays
#           BR         NDA      ID1       ID2
     5.78998105E-01    2     1000022        13   # BR(~mu_R -> ~chi_10 mu-)
     2.35433067E-01    2     1000023        13   # BR(~mu_R -> ~chi_20 mu-)
#           BR         NDA      ID1       ID2       ID3
     8.84694920E-03    3        13       -5        1000005   # BR(~mu_R- -> mu-  bb  ~b_1)
     2.68341081E-02    3        13       5        -1000005   # BR(~mu_R- -> mu-  b  ~b_1*)
     6.44666532E-03    3        13       -15        1000015   # BR(~mu_R- -> mu-  tau+  ~tau_1-)
     2.66959225E-03    3        13       15        -1000015   # BR(~mu_R- -> mu-  tau-  ~tau_1+)
     6.78092094E-03    3        13       -16        1000016   # BR(~mu_R- -> mu-  nu_taub  ~nu_tau1)
     2.65638785E-03    3        13       16        -1000016   # BR(~mu_R- -> mu-  nu_tau  ~nu_tau1*)
     6.65471142E-03    3        13       23        1000022   # BR(~mu_R- -> mu-  Z  ~chi_10)
     2.43467673E-02    3        13       25        1000022   # BR(~mu_R- -> mu-  h  ~chi_10)
     2.42638560E-02    3        13       23        1000023   # BR(~mu_R- -> mu-  Z  ~chi_20)
     6.98681748E-03    3        13       25        1000023   # BR(~mu_R- -> mu-  h  ~chi_20)
     1.54430085E-02    3        13       -24        1000024   # BR(~mu_R- -> mu-  W-  ~chi_1+)
     5.36390438E-02    3        13       24        -1000024   # BR(~mu_R- -> mu-  W+  ~chi_1-)
#
#         PDG            Width
DECAY   1000015     3.17220179E-01   # stau_1 decays
#          BR         NDA      ID1       ID2
     5.04229227E-01    2     1000022        15   # BR(~tau_1 -> ~chi_10  tau-)
     4.95512962E-01    2     1000023        15   # BR(~tau_1 -> ~chi_20  tau-)
     2.57810830E-04    2    -1000024        16   # BR(~tau_1 -> ~chi_1-  nu_tau)
#
#         PDG            Width
DECAY   2000015     1.70978439E+01   # stau_2 decays
#          BR         NDA      ID1       ID2
     6.38568263E-02    2     1000022        15   # BR(~tau_2 -> ~chi_10  tau-)
     6.28662193E-02    2     1000023        15   # BR(~tau_2 -> ~chi_20  tau-)
     6.12379109E-01    2     1000025        15   # BR(~tau_2 -> ~chi_30  tau-)
     2.71470757E-10    2     1000035        15   # BR(~tau_2 -> ~chi_40  tau-)
     1.25854838E-01    2    -1000024        16   # BR(~tau_2 -> ~chi_1-  nu_tau)
     3.79247468E-10    2    -1000037        16   # BR(~tau_2 -> ~chi_2-  nu_tau)
     6.75489040E-02    2     1000016       -37   # BR(~tau_2 -> ~nu_tauL H-)
     3.27002325E-05    2     1000016       -24   # BR(~tau_2 -> ~nu_tauL W-)
     1.71501271E-05    2     1000015        25   # BR(~tau_2 -> ~tau_1   h)
     3.37132083E-02    2     1000015        35   # BR(~tau_2 -> ~tau_1   H)
     3.37142273E-02    2     1000015        36   # BR(~tau_2 -> ~tau_1   A)
     1.68165732E-05    2     1000015        23   # BR(~tau_2 -> ~tau_1   Z)
#
#         PDG            Width
DECAY   1000012     1.37743619E+00   # snu_eL decays
#          BR         NDA      ID1       ID2
     8.23228808E-03    2     1000022        12   # BR(~nu_eL -> ~chi_10 nu_e)
     4.18390870E-03    2     1000023        12   # BR(~nu_eL -> ~chi_20 nu_e)
     9.70506796E-01    2     1000025        12   # BR(~nu_eL -> ~chi_30 nu_e)
     1.70770076E-02    2     1000024        11   # BR(~nu_eL -> ~chi_1+ e-)
#
#         PDG            Width
DECAY   1000014     1.37743619E+00   # snu_muL decays
#          BR         NDA      ID1       ID2
     8.23228808E-03    2     1000022        14   # BR(~nu_muL -> ~chi_10 nu_mu)
     4.18390870E-03    2     1000023        14   # BR(~nu_muL -> ~chi_20 nu_mu)
     9.70506796E-01    2     1000025        14   # BR(~nu_muL -> ~chi_30 nu_mu)
     1.70770075E-02    2     1000024        13   # BR(~nu_muL -> ~chi_1+ mu-)
#
#         PDG            Width
DECAY   1000016     3.20167713E-01   # snu_tauL decays
#          BR         NDA      ID1       ID2
     6.69024193E-03    2     1000022        16   # BR(~nu_tauL -> ~chi_10 nu_tau)
     3.37506872E-03    2     1000023        16   # BR(~nu_tauL -> ~chi_20 nu_tau)
     9.89934689E-01    2     1000024        15   # BR(~nu_tauL -> ~chi_1+ tau-)
#
#         PDG            Width
DECAY   1000024     1.04387975E-11   # chargino1+ decays
#           BR         NDA      ID1       ID2       ID3
     5.99999889E-01    3     1000022         2        -1   # BR(~chi_1+ -> ~chi_10 u    db)
     2.00000055E-01    3     1000022       -11        12   # BR(~chi_1+ -> ~chi_10 e+   nu_e)
     2.00000055E-01    3     1000022       -13        14   # BR(~chi_1+ -> ~chi_10 mu+  nu_mu)
#
#         PDG            Width
DECAY   1000037     1.47296122E+02   # chargino2+ decays
#          BR         NDA      ID1       ID2
     5.53131303E-02    2     1000002        -1   # BR(~chi_2+ -> ~u_L     db)
     5.52540169E-02    2    -1000001         2   # BR(~chi_2+ -> ~d_L*    u )
     5.53131259E-02    2     1000004        -3   # BR(~chi_2+ -> ~c_L     sb)
     5.52539473E-02    2    -1000003         4   # BR(~chi_2+ -> ~s_L*     c )
     1.64209002E-01    2     1000006        -5   # BR(~chi_2+ -> ~t_1     bb)
     1.25045548E-06    2     2000006        -5   # BR(~chi_2+ -> ~t_2     bb)
     1.67416618E-05    2    -1000005         6   # BR(~chi_2+ -> ~b_1*    t )
     1.61619934E-01    2    -2000005         6   # BR(~chi_2+ -> ~b_2*    t )
     1.34552978E-02    2     1000012       -11   # BR(~chi_2+ -> ~nu_eL   e+  )
     1.34552978E-02    2     1000014       -13   # BR(~chi_2+ -> ~nu_muL mu+ )
     8.29683662E-02    2     1000016       -15   # BR(~chi_2+ -> ~nu_tau1 tau+)
     1.34192815E-02    2    -1000011        12   # BR(~chi_2+ -> ~e_L+    nu_e)
     1.34192815E-02    2    -1000013        14   # BR(~chi_2+ -> ~mu_L+   nu_mu)
     8.29559126E-02    2    -1000015        16   # BR(~chi_2+ -> ~tau_1+  nu_tau)
     4.48372584E-02    2     1000024        23   # BR(~chi_2+ -> ~chi_1+  Z )
     4.32199775E-02    2     1000022        24   # BR(~chi_2+ -> ~chi_10  W+)
     4.36756281E-02    2     1000023        24   # BR(~chi_2+ -> ~chi_20  W+)
     1.70330271E-04    2     1000025        24   # BR(~chi_2+ -> ~chi_30  W+)
     4.58006165E-02    2     1000024        25   # BR(~chi_2+ -> ~chi_1+  h )
     1.39182906E-02    2     1000024        35   # BR(~chi_2+ -> ~chi_1+  H )
     1.39228560E-02    2     1000024        36   # BR(~chi_2+ -> ~chi_1+  A )
     1.39754650E-02    2     1000022        37   # BR(~chi_2+ -> ~chi_10  H+)
     1.38249915E-02    2     1000023        37   # BR(~chi_2+ -> ~chi_20  H+)
#
#         PDG            Width
DECAY   1000022     0.00000000E+00   # neutralino1 decays
#
#         PDG            Width
DECAY   1000023     1.56036232E-10   # neutralino2 decays
#          BR         NDA      ID1       ID2
     2.17553489E-01    2     1000022        22   # BR(~chi_20 -> ~chi_10 gam)
#           BR         NDA      ID1       ID2       ID3
     1.28881637E-01    3     1000022        -2         2   # BR(~chi_20 -> ~chi_10 ub      u)
     1.67300173E-01    3     1000022        -1         1   # BR(~chi_20 -> ~chi_10 db      d)
     1.67300173E-01    3     1000022        -3         3   # BR(~chi_20 -> ~chi_10 sb      s)
     3.84363755E-02    3     1000022       -11        11   # BR(~chi_20 -> ~chi_10 e+      e-)
     3.84363755E-02    3     1000022       -13        13   # BR(~chi_20 -> ~chi_10 mu+     mu-)
     7.68554901E-02    3     1000022       -12        12   # BR(~chi_20 -> ~chi_10 nu_eb   nu_e)
     7.68554901E-02    3     1000022       -14        14   # BR(~chi_20 -> ~chi_10 nu_mub  nu_mu)
     7.68574048E-02    3     1000022       -16        16   # BR(~chi_20 -> ~chi_10 nu_taub nu_tau)
     3.45701736E-03    3     1000024        -2         1   # BR(~chi_20 -> ~chi_1+ ub      d)
     3.45701736E-03    3    -1000024        -1         2   # BR(~chi_20 -> ~chi_1- db      u)
     1.15233960E-03    3     1000024       -12        11   # BR(~chi_20 -> ~chi_1+ nu_eb   e-)
     1.15233960E-03    3    -1000024        12       -11   # BR(~chi_20 -> ~chi_1- nu_e    e+)
     1.15233960E-03    3     1000024       -14        13   # BR(~chi_20 -> ~chi_1+ nu_mub  mu-)
     1.15233960E-03    3    -1000024        14       -13   # BR(~chi_20 -> ~chi_1- nu_mu   mu+)
#
#         PDG            Width
DECAY   1000025     1.10147980E+01   # neutralino3 decays
#          BR         NDA      ID1       ID2
     2.56338519E-02    2     1000022        23   # BR(~chi_30 -> ~chi_10   Z )
     6.38803335E-02    2     1000023        23   # BR(~chi_30 -> ~chi_20   Z )
     8.72790113E-02    2     1000024       -24   # BR(~chi_30 -> ~chi_1+   W-)
     8.72790113E-02    2    -1000024        24   # BR(~chi_30 -> ~chi_1-   W+)
     6.75587303E-02    2     1000022        25   # BR(~chi_30 -> ~chi_10   h )
     2.74443601E-02    2     1000023        25   # BR(~chi_30 -> ~chi_20   h )
     1.04521532E-01    2     1000005        -5   # BR(~chi_30 -> ~b_1      bb)
     1.04521532E-01    2    -1000005         5   # BR(~chi_30 -> ~b_1*     b )
     1.43271239E-05    2     2000005        -5   # BR(~chi_30 -> ~b_2      bb)
     1.43271239E-05    2    -2000005         5   # BR(~chi_30 -> ~b_2*     b )
     4.49048644E-02    2     2000011       -11   # BR(~chi_30 -> ~e_R-     e+)
     4.49048644E-02    2    -2000011        11   # BR(~chi_30 -> ~e_R+     e-)
     4.49048644E-02    2     2000013       -13   # BR(~chi_30 -> ~mu_R-    mu+)
     4.49048644E-02    2    -2000013        13   # BR(~chi_30 -> ~mu_R+    mu-)
     6.31632412E-02    2     1000015       -15   # BR(~chi_30 -> ~tau_1-   tau+)
     6.31632412E-02    2    -1000015        15   # BR(~chi_30 -> ~tau_1+   tau-)
     6.29535217E-02    2     1000016       -16   # BR(~chi_30 -> ~nu_tau1  nu_taub)
     6.29535217E-02    2    -1000016        16   # BR(~chi_30 -> ~nu_tau1* nu_tau )
#
#         PDG            Width
DECAY   1000035     1.47266737E+02   # neutralino4 decays
#          BR         NDA      ID1       ID2
     1.64215997E-02    2     1000022        23   # BR(~chi_40 -> ~chi_10   Z )
     2.84299094E-02    2     1000023        23   # BR(~chi_40 -> ~chi_20   Z )
     1.60079084E-05    2     1000025        23   # BR(~chi_40 -> ~chi_30   Z )
     4.35162819E-02    2     1000024       -24   # BR(~chi_40 -> ~chi_1+   W-)
     4.35162819E-02    2    -1000024        24   # BR(~chi_40 -> ~chi_1-   W+)
     2.88361331E-02    2     1000022        25   # BR(~chi_40 -> ~chi_10   h )
     8.18892370E-03    2     1000022        35   # BR(~chi_40 -> ~chi_10   H )
     5.81816474E-03    2     1000022        36   # BR(~chi_40 -> ~chi_10   A )
     1.68057366E-02    2     1000023        25   # BR(~chi_40 -> ~chi_20   h )
     5.74864630E-03    2     1000023        35   # BR(~chi_40 -> ~chi_20   H )
     8.12474254E-03    2     1000023        36   # BR(~chi_40 -> ~chi_20   A )
     1.38360462E-04    2     1000025        25   # BR(~chi_40 -> ~chi_30   h )
     1.38802186E-02    2     1000024       -37   # BR(~chi_40 -> ~chi_1+   H-)
     1.38802186E-02    2    -1000024        37   # BR(~chi_40 -> ~chi_1-   H+)
     2.76624114E-02    2     1000002        -2   # BR(~chi_40 -> ~u_L      ub)
     2.76624114E-02    2    -1000002         2   # BR(~chi_40 -> ~u_L*     u )
     1.79028797E-08    2     2000002        -2   # BR(~chi_40 -> ~u_R      ub)
     1.79028797E-08    2    -2000002         2   # BR(~chi_40 -> ~u_R*     u )
     2.76163437E-02    2     1000001        -1   # BR(~chi_40 -> ~d_L      db)
     2.76163437E-02    2    -1000001         1   # BR(~chi_40 -> ~d_L*     d )
     3.06317561E-09    2     2000001        -1   # BR(~chi_40 -> ~d_R      db)
     3.06317561E-09    2    -2000001         1   # BR(~chi_40 -> ~d_R*     d )
     2.76623766E-02    2     1000004        -4   # BR(~chi_40 -> ~c_L      cb)
     2.76623766E-02    2    -1000004         4   # BR(~chi_40 -> ~c_L*     c )
     1.79028740E-08    2     2000004        -4   # BR(~chi_40 -> ~c_R      cb)
     1.79028740E-08    2    -2000004         4   # BR(~chi_40 -> ~c_R*     c )
     2.76163437E-02    2     1000003        -3   # BR(~chi_40 -> ~s _L      sb)
     2.76163437E-02    2    -1000003         3   # BR(~chi_40 -> ~s _L*     s )
     3.06317561E-09    2     2000003        -3   # BR(~chi_40 -> ~s _R      sb)
     3.06317561E-09    2    -2000003         3   # BR(~chi_40 -> ~s _R*     s )
     8.11553389E-02    2     1000006        -6   # BR(~chi_40 -> ~t_1      tb)
     8.11553389E-02    2    -1000006         6   # BR(~chi_40 -> ~t_1*     t )
     1.93505041E-07    2     2000006        -6   # BR(~chi_40 -> ~t_2      tb)
     1.93505041E-07    2    -2000006         6   # BR(~chi_40 -> ~t_2*     t )
     8.44857181E-06    2     1000005        -5   # BR(~chi_40 -> ~b_1      bb)
     8.44857181E-06    2    -1000005         5   # BR(~chi_40 -> ~b_1*     b )
     8.17739826E-02    2     2000005        -5   # BR(~chi_40 -> ~b_2      bb)
     8.17739826E-02    2    -2000005         5   # BR(~chi_40 -> ~b_2*     b )
     6.69930848E-03    2     1000011       -11   # BR(~chi_40 -> ~e_L-     e+)
     6.69930848E-03    2    -1000011        11   # BR(~chi_40 -> ~e_L+     e-)
     2.10565600E-08    2     2000011       -11   # BR(~chi_40 -> ~e_R-     e+)
     2.10565600E-08    2    -2000011        11   # BR(~chi_40 -> ~e_R+     e-)
     6.69930848E-03    2     1000013       -13   # BR(~chi_40 -> ~mu_L-    mu+)
     6.69930848E-03    2    -1000013        13   # BR(~chi_40 -> ~mu_L+    mu-)
     2.10565600E-08    2     2000013       -13   # BR(~chi_40 -> ~mu_R-    mu+)
     2.10565600E-08    2    -2000013        13   # BR(~chi_40 -> ~mu_R+    mu-)
     4.14269508E-02    2     1000015       -15   # BR(~chi_40 -> ~tau_1-   tau+)
     4.14269508E-02    2    -1000015        15   # BR(~chi_40 -> ~tau_1+   tau-)
     6.73571163E-03    2     1000012       -12   # BR(~chi_40 -> ~nu_eL    nu_eb)
     6.73571163E-03    2    -1000012        12   # BR(~chi_40 -> ~nu_eL*   nu_e )
     6.73571163E-03    2     1000014       -14   # BR(~chi_40 -> ~nu_muL   nu_mub)
     6.73571163E-03    2    -1000014        14   # BR(~chi_40 -> ~nu_muL*  nu_mu )
     4.15468733E-02    2     1000016       -16   # BR(~chi_40 -> ~nu_tau1  nu_taub)
     4.15468733E-02    2    -1000016        16   # BR(~chi_40 -> ~nu_tau1* nu_tau )
#
#         PDG            Width
DECAY        25     3.87819544E-03   # h decays
#          BR         NDA      ID1       ID2
     5.79164150E-01    2           5        -5   # BR(h -> b       bb     )
     6.74237751E-02    2         -15        15   # BR(h -> tau+    tau-   )
     2.38671447E-04    2         -13        13   # BR(h -> mu+     mu-    )
     2.60561737E-04    2           3        -3   # BR(h -> s       sb     )
     2.23646423E-02    2           4        -4   # BR(h -> c       cb     )
     8.24321240E-02    2          21        21   # BR(h -> g       g      )
     2.42928249E-03    2          22        22   # BR(h -> gam     gam    )
     1.61271521E-03    2          22        23   # BR(h -> Z       gam    )
     2.16976988E-01    2          24       -24   # BR(h -> W+      W-     )
     2.70970898E-02    2          23        23   # BR(h -> Z       Z      )
#
#         PDG            Width
DECAY        35     2.03866321E+01   # H decays
#          BR         NDA      ID1       ID2
     3.65589412E-01    2           5        -5   # BR(H -> b       bb     )
     6.62683621E-02    2         -15        15   # BR(H -> tau+    tau-   )
     2.37352281E-04    2         -13        13   # BR(H -> mu+     mu-    )
     1.62619232E-04    2           3        -3   # BR(H -> s       sb     )
     1.48552037E-07    2           4        -4   # BR(H -> c       cb     )
     1.44408531E-02    2           6        -6   # BR(H -> t       tb     )
     5.76624162E-06    2          21        21   # BR(H -> g       g      )
     5.67005875E-08    2          22        22   # BR(H -> gam     gam    )
     8.77902496E-09    2          23        22   # BR(H -> Z       gam    )
     1.42566846E-05    2          24       -24   # BR(H -> W+      W-     )
     7.10398033E-06    2          23        23   # BR(H -> Z       Z      )
     4.94943187E-05    2          25        25   # BR(H -> h       h      )
     9.26245167E-04    2     1000024  -1000024   # BR(H -> ~chi_1+ ~chi_1-)
     3.84200533E-04    2     1000022   1000022   # BR(H -> ~chi_10 ~chi_10)
     2.44091906E-04    2     1000023   1000023   # BR(H -> ~chi_20 ~chi_20)
     3.27516608E-05    2     1000022   1000023   # BR(H -> ~chi_10 ~chi_20)
     6.64968769E-03    2     1000022   1000025   # BR(H -> ~chi_10 ~chi_30)
     1.88252450E-02    2     1000023   1000025   # BR(H -> ~chi_20 ~chi_30)
     2.36804076E-04    2     1000005  -1000005   # BR(H -> ~b_1    ~b_1*  )
     2.62959741E-01    2     1000005  -2000005   # BR(H -> ~b_1    ~b_2*  )
     2.62959741E-01    2     2000005  -1000005   # BR(H -> ~b_2    ~b_1*  )
     8.24070484E-07    2     1000015  -1000015   # BR(H -> ~tau_1- ~tau_1+)
     5.23503246E-06    2     1000016  -1000016   # BR(H -> ~nu_tauL ~nu_tauL*)
#
#         PDG            Width
DECAY        36     2.03906824E+01   # A decays
#          BR         NDA      ID1       ID2
     3.65543800E-01    2           5        -5   # BR(A -> b       bb     )
     6.62566046E-02    2         -15        15   # BR(A -> tau+    tau-   )
     2.37309475E-04    2         -13        13   # BR(A -> mu+     mu-    )
     1.62627261E-04    2           3        -3   # BR(A -> s       sb     )
     1.48318372E-07    2           4        -4   # BR(A -> c       cb     )
     1.45406484E-02    2           6        -6   # BR(A -> t       tb     )
     5.29617594E-05    2          21        21   # BR(A -> g       g      )
     1.17636614E-07    2          22        22   # BR(A -> gam     gam    )
     4.38220503E-08    2          23        22   # BR(A -> Z       gam    )
     1.43929812E-05    2          23        25   # BR(A -> Z       h      )
     1.01552875E-03    2     1000024  -1000024   # BR(A -> ~chi_1+ ~chi_1-)
     5.12305864E-04    2     1000022   1000022   # BR(A -> ~chi_10 ~chi_10)
     2.06497317E-04    2     1000023   1000023   # BR(A -> ~chi_20 ~chi_20)
     7.20317381E-06    2     1000022   1000023   # BR(A -> ~chi_10 ~chi_20)
     1.89421940E-02    2     1000022   1000025   # BR(A -> ~chi_10 ~chi_30)
     6.52179687E-03    2     1000023   1000025   # BR(A -> ~chi_20 ~chi_30)
     2.62992910E-01    2     1000005  -2000005   # BR(A -> ~b_1    ~b_2*  )
     2.62992910E-01    2    -1000005   2000005   # BR(A -> ~b_1*   ~b_2   )
#
#         PDG            Width
DECAY        37     3.86890146E+01   # H+ decays
#          BR         NDA      ID1       ID2
     3.65930854E-04    2           4        -5   # BR(H+ -> c       bb     )
     3.49506778E-02    2         -15        16   # BR(H+ -> tau+    nu_tau )
     1.25181890E-04    2         -13        14   # BR(H+ -> mu+     nu_mu  )
     3.65929925E-06    2           2        -5   # BR(H+ -> u       bb     )
     4.28482467E-06    2           2        -3   # BR(H+ -> u       sb     )
     8.44132813E-05    2           4        -3   # BR(H+ -> c       sb     )
     2.24511512E-01    2           6        -5   # BR(H+ -> t       bb     )
     7.61511633E-06    2          24        25   # BR(H+ -> W+      h      )
     8.45420338E-13    2          24        36   # BR(H+ -> W+      A      )
     9.56645322E-07    2     1000024   1000022   # BR(H+ -> ~chi_1+ ~chi_10)
     2.67295357E-05    2     1000024   1000023   # BR(H+ -> ~chi_1+ ~chi_20)
     1.36339598E-02    2     1000024   1000025   # BR(H+ -> ~chi_1+ ~chi_30)
     2.67161499E-06    2    -1000015   1000016   # BR(H+ -> ~tau_1+ ~nu_tauL)
     7.26282407E-01    2     1000006  -1000005   # BR(H+ -> ~t_1    ~b_1*  )
