#
#                              ======================
#                              | THE SUSYHIT OUTPUT |
#                              ======================
#
#
#              ------------------------------------------------------
#              |     This is the output of the SUSY-HIT package     |
#              |  created by A.Djouadi, M.Muehlleitner and M.Spira. |
#              |  In case of problems with SUSY-HIT email to        |
#              |           margarete.muehlleitner@kit.edu           |
#              |           michael.spira@psi.ch                     |
#              |           abdelhak.djouadi@cern.ch                 |
#              ------------------------------------------------------
#
#              ------------------------------------------------------
#              |  SUSY Les Houches Accord - MSSM Spectrum + Decays  |
#              |              based on the decay programs           |
#              |                                                    |
#              |                     SDECAY 1.4                     |
#              |                                                    |
#              |  Authors: M.Muhlleitner, A.Djouadi and Y.Mambrini  |
#              |  Ref.:    Comput.Phys.Commun.168(2005)46           |
#              |           [hep-ph/0311167]                         |
#              |                                                    |
#              |                     HDECAY 3.4                     |
#              |                                                    |
#              |  By: A.Djouadi,J.Kalinowski,M.Muhlleitner,M.Spira  |
#              |  Ref.:    Comput.Phys.Commun.108(1998)56           |
#              |           [hep-ph/9704448]                         |
#              |                                                    |
#              |                                                    |
#              |  If not stated otherwise all DRbar couplings and   |
#              |  soft SUSY breaking masses are given at the scale  |
#              |  Q=  0.50136009E+04
#              |                                                    |
#              ------------------------------------------------------
#
#
BLOCK DCINFO  # Decay Program information
     1   SDECAY/HDECAY # decay calculator
     2   1.4  /3.4    # version number
#
BLOCK SPINFO  # Spectrum calculator information
     1    SOFTSUSY    # spectrum calculator                
     2    3.3.10       # version number                    
#
BLOCK MODSEL  # Model selection
     1     0   #  ewkh                                             
#
BLOCK SMINPUTS  # Standard Model inputs
         1     1.27944000E+02   # alpha_em^-1(M_Z)^MSbar
         2     1.16637000E-05   # G_F [GeV^-2]
         3     1.18500002E-01   # alpha_S(M_Z)^MSbar
         4     9.11876000E+01   # M_Z pole mass
         5     4.17999983E+00   # mb(mb)^MSbar
         6     1.73441040E+02   # mt pole mass
         7     1.77699000E+00   # mtau pole mass
#
BLOCK MINPAR  # Input parameters - minimal models
         1     5.01187289E+03   # m0                  
         2    -5.07667963E+02   # m12                 
         3     2.68926811E+01   # tanb                
         5     1.00000000E+02   # A0                  
#
BLOCK EXTPAR  # Input parameters - non-minimal models
         0     5.01360089E+03   # MX                  
#
BLOCK MASS  # Mass Spectrum
# PDG code           mass       particle
        24     8.03883007E+01   # W+
        25     1.25370078E+02   # h
        35     1.11986006E+03   # H
        36     1.11982702E+03   # A
        37     1.12319241E+03   # H+
         5     4.82046057E+00   # b-quark pole mass calculated from mb(mb)_Msbar
   1000001     5.14168231E+03   # ~d_L
   2000001     5.13311901E+03   # ~d_R
   1000002     5.14120238E+03   # ~u_L
   2000002     5.13390918E+03   # ~u_R
   1000003     5.14168231E+03   # ~s_L
   2000003     5.13311901E+03   # ~s_R
   1000004     5.14120238E+03   # ~c_L
   2000004     5.13390918E+03   # ~c_R
   1000005     5.10402133E+03   # ~b_1
   2000005     5.12139410E+03   # ~b_2
   1000006     5.07211771E+03   # ~t_1
   2000006     5.10661878E+03   # ~t_2
   1000011     5.02209024E+03   # ~e_L
   2000011     5.01671071E+03   # ~e_R
   1000012     5.02111981E+03   # ~nu_eL
   1000013     5.02209024E+03   # ~mu_L
   2000013     5.01671071E+03   # ~mu_R
   1000014     5.02111981E+03   # ~nu_muL
   1000015     5.00947925E+03   # ~tau_1
   2000015     5.01856760E+03   # ~tau_2
   1000016     5.01753352E+03   # ~nu_tauL
   1000021     4.34227034E+03   # ~g
   1000022     1.10122421E+02   # ~chi_10
   1000023    -1.37882681E+02   # ~chi_20
   1000025     2.59598877E+02   # ~chi_30
   1000035    -5.07346292E+02   # ~chi_40
   1000024     1.16620250E+02   # ~chi_1+
   1000037     2.61456471E+02   # ~chi_2+
#
BLOCK NMIX  # Neutralino Mixing Matrix
  1  1     3.96503138E-02   # N_11
  1  2     3.79685017E-01   # N_12
  1  3     7.12205672E-01   # N_13
  1  4     5.89092711E-01   # N_14
  2  1     8.72264242E-02   # N_21
  2  2     1.61731393E-01   # N_22
  2  3    -6.78989894E-01   # N_23
  2  4     7.10779313E-01   # N_24
  3  1    -2.08271273E-02   # N_31
  3  2     9.10811371E-01   # N_32
  3  3    -1.76017430E-01   # N_33
  3  4    -3.72836079E-01   # N_34
  4  1     9.95181207E-01   # N_41
  4  2    -1.02416492E-02   # N_42
  4  3     2.74530352E-02   # N_43
  4  4    -9.35724595E-02   # N_44
#
BLOCK UMIX  # Chargino Mixing Matrix U
  1  1     2.59925662E-01   # U_11
  1  2     9.65628630E-01   # U_12
  2  1    -9.65628630E-01   # U_21
  2  2     2.59925662E-01   # U_22
#
BLOCK VMIX  # Chargino Mixing Matrix V
  1  1     5.48472980E-01   # V_11
  1  2    -8.36168279E-01   # V_12
  2  1    -8.36168279E-01   # V_21
  2  2    -5.48472980E-01   # V_22
#
BLOCK STOPMIX  # Stop Mixing Matrix
  1  1     1.11535408E-01   # cos(theta_t)
  1  2     9.93760460E-01   # sin(theta_t)
  2  1    -9.93760460E-01   # -sin(theta_t)
  2  2     1.11535408E-01   # cos(theta_t)
#
BLOCK SBOTMIX  # Sbottom Mixing Matrix
  1  1     9.99587333E-01   # cos(theta_b)
  1  2    -2.87256628E-02   # sin(theta_b)
  2  1     2.87256628E-02   # -sin(theta_b)
  2  2     9.99587333E-01   # cos(theta_b)
#
BLOCK STAUMIX  # Stau Mixing Matrix
  1  1    -6.41253362E-02   # cos(theta_tau)
  1  2     9.97941853E-01   # sin(theta_tau)
  2  1    -9.97941853E-01   # -sin(theta_tau)
  2  2    -6.41253362E-02   # cos(theta_tau)
#
BLOCK ALPHA  # Higgs mixing
          -3.95375782E-02   # Mixing angle in the neutral Higgs boson sector
#
BLOCK HMIX Q=  5.01360089E+03  # DRbar Higgs Parameters
         1    -1.26513445E+02   # mu(Q)MSSM           
         2     2.57509094E+01   # tan                 
         3     2.39608879E+02   # higgs               
         4     1.22568015E+06   # mA^2(Q)MSSM         
#
BLOCK GAUGE Q=  5.01360089E+03  # The gauge couplings
     1     3.66427188E-01   # gprime(Q) DRbar
     2     6.43576344E-01   # g(Q) DRbar
     3     9.90202588E-01   # g3(Q) DRbar
#
BLOCK AU Q=  5.01360089E+03  # The trilinear couplings
  1  1     1.00000025E+02   # A_u(Q) DRbar
  2  2     1.00000025E+02   # A_c(Q) DRbar
  3  3     1.00000044E+02   # A_t(Q) DRbar
#
BLOCK AD Q=  5.01360089E+03  # The trilinear couplings
  1  1     1.00000009E+02   # A_d(Q) DRbar
  2  2     1.00000009E+02   # A_s(Q) DRbar
  3  3     1.00000018E+02   # A_b(Q) DRbar
#
BLOCK AE Q=  5.01360089E+03  # The trilinear couplings
  1  1     1.00000004E+02   # A_e(Q) DRbar
  2  2     1.00000004E+02   # A_mu(Q) DRbar
  3  3     1.00000004E+02   # A_tau(Q) DRbar
#
BLOCK Yu Q=  5.01360089E+03  # The Yukawa couplings
  1  1     0.00000000E+00   # y_u(Q) DRbar
  2  2     0.00000000E+00   # y_c(Q) DRbar
  3  3     8.20368842E-01   # y_t(Q) DRbar
#
BLOCK Yd Q=  5.01360089E+03  # The Yukawa couplings
  1  1     0.00000000E+00   # y_d(Q) DRbar
  2  2     0.00000000E+00   # y_s(Q) DRbar
  3  3     3.47077182E-01   # y_b(Q) DRbar
#
BLOCK Ye Q=  5.01360089E+03  # The Yukawa couplings
  1  1     0.00000000E+00   # y_e(Q) DRbar
  2  2     0.00000000E+00   # y_mu(Q) DRbar
  3  3     2.66014457E-01   # y_tau(Q) DRbar
#
BLOCK MSOFT Q=  5.01360089E+03  # The soft SUSY breaking masses at the scale Q
         1    -5.07667963E+02   # M_1(Q)              
         2     2.08955734E+02   # M_2(Q)              
         3     3.98107084E+03   # M_3(Q)              
        21     1.40017422E+06   # M^2_Hd              
        22     6.51891370E+05   # M^2_Hu              
        31     5.01187289E+03   # M_eL                
        32     5.01187289E+03   # M_muL               
        33     5.01187289E+03   # M_tauL              
        34     5.01187289E+03   # M_eR                
        35     5.01187289E+03   # M_muR               
        36     5.01187289E+03   # M_tauR              
        41     5.01187287E+03   # M_q1L               
        42     5.01187287E+03   # M_q2L               
        43     5.01187286E+03   # M_q3L               
        44     5.01187287E+03   # M_uR                
        45     5.01187287E+03   # M_cR                
        46     5.01187285E+03   # M_tR                
        47     5.01187287E+03   # M_dR                
        48     5.01187287E+03   # M_sR                
        49     5.01187287E+03   # M_bR                
#
#
#
#                             =================
#                             |The decay table|
#                             =================
#
# - The QCD corrections to the decays gluino -> squark  + quark
#                                     squark -> gaugino + quark_prime
#                                     squark -> squark_prime + Higgs
#                                     squark -> gluino  + quark
#   are included.
#
# - The multi-body decays for the inos, stops and sbottoms are included.
#
# - The loop induced decays for the gluino, neutralinos and stops
#   are included.
#
# - The SUSY decays of the top quark are included.
#
#
#         PDG            Width
DECAY         6     1.46589738E+00   # top decays
#          BR         NDA      ID1       ID2
     1.00000000E+00    2           5        24   # BR(t ->  b    W+)
#
#         PDG            Width
DECAY   1000021     4.70003038E-01   # gluino decays
#          BR         NDA      ID1       ID2
     4.41035652E-04    2     1000022        21   # BR(~g -> ~chi_10 g)
     5.61878276E-04    2     1000023        21   # BR(~g -> ~chi_20 g)
     1.58727983E-04    2     1000025        21   # BR(~g -> ~chi_30 g)
     9.33902275E-06    2     1000035        21   # BR(~g -> ~chi_40 g)
#           BR         NDA      ID1       ID2       ID3
     3.24538376E-03    3     1000022         1        -1   # BR(~g -> ~chi_10 d  db)
     4.78844972E-04    3     1000023         1        -1   # BR(~g -> ~chi_20 d  db)
     2.00653641E-02    3     1000025         1        -1   # BR(~g -> ~chi_30 d  db)
     3.30353857E-03    3     1000035         1        -1   # BR(~g -> ~chi_40 d  db)
     3.53092208E-03    3     1000022         2        -2   # BR(~g -> ~chi_10 u  ub)
     7.82102567E-04    3     1000023         2        -2   # BR(~g -> ~chi_20 u  ub)
     1.97365588E-02    3     1000025         2        -2   # BR(~g -> ~chi_30 u  ub)
     1.09289451E-02    3     1000035         2        -2   # BR(~g -> ~chi_40 u  ub)
     3.24538376E-03    3     1000022         3        -3   # BR(~g -> ~chi_10 s  sb)
     4.78844972E-04    3     1000023         3        -3   # BR(~g -> ~chi_20 s  sb)
     2.00653641E-02    3     1000025         3        -3   # BR(~g -> ~chi_30 s  sb)
     3.30353857E-03    3     1000035         3        -3   # BR(~g -> ~chi_40 s  sb)
     3.53092208E-03    3     1000022         4        -4   # BR(~g -> ~chi_10 c  cb)
     7.82102567E-04    3     1000023         4        -4   # BR(~g -> ~chi_20 c  cb)
     1.97365588E-02    3     1000025         4        -4   # BR(~g -> ~chi_30 c  cb)
     1.09289451E-02    3     1000035         4        -4   # BR(~g -> ~chi_40 c  cb)
     2.36631348E-02    3     1000022         5        -5   # BR(~g -> ~chi_10 b  bb)
     1.87785955E-02    3     1000023         5        -5   # BR(~g -> ~chi_20 b  bb)
     2.22115151E-02    3     1000025         5        -5   # BR(~g -> ~chi_30 b  bb)
     3.40521977E-03    3     1000035         5        -5   # BR(~g -> ~chi_40 b  bb)
     7.53277988E-02    3     1000022         6        -6   # BR(~g -> ~chi_10 t  tb)
     1.09950258E-01    3     1000023         6        -6   # BR(~g -> ~chi_20 t  tb)
     5.75014527E-02    3     1000025         6        -6   # BR(~g -> ~chi_30 t  tb)
     1.20699272E-02    3     1000035         6        -6   # BR(~g -> ~chi_40 t  tb)
     8.56392965E-03    3     1000024         1        -2   # BR(~g -> ~chi_1+ d  ub)
     8.56392965E-03    3    -1000024         2        -1   # BR(~g -> ~chi_1- u  db)
     3.91092841E-02    3     1000037         1        -2   # BR(~g -> ~chi_2+ d  ub)
     3.91092841E-02    3    -1000037         2        -1   # BR(~g -> ~chi_2- u  db)
     8.56392965E-03    3     1000024         3        -4   # BR(~g -> ~chi_1+ s  cb)
     8.56392965E-03    3    -1000024         4        -3   # BR(~g -> ~chi_1- c  sb)
     3.91092841E-02    3     1000037         3        -4   # BR(~g -> ~chi_2+ s  cb)
     3.91092841E-02    3    -1000037         4        -3   # BR(~g -> ~chi_2- c  sb)
     9.82891319E-02    3     1000024         5        -6   # BR(~g -> ~chi_1+ b  tb)
     9.82891319E-02    3    -1000024         6        -5   # BR(~g -> ~chi_1- t  bb)
     8.22533395E-02    3     1000037         5        -6   # BR(~g -> ~chi_2+ b  tb)
     8.22533395E-02    3    -1000037         6        -5   # BR(~g -> ~chi_2- t  bb)
#
#         PDG            Width
DECAY   1000006     1.70080934E+02   # stop1 decays
#          BR         NDA      ID1       ID2
     1.61553851E-01    2     1000022         6   # BR(~t_1 -> ~chi_10 t )
     2.06435192E-01    2     1000023         6   # BR(~t_1 -> ~chi_20 t )
     1.62379536E-02    2     1000025         6   # BR(~t_1 -> ~chi_30 t )
     7.18530925E-02    2     1000035         6   # BR(~t_1 -> ~chi_40 t )
     3.44861491E-01    2     1000024         5   # BR(~t_1 -> ~chi_1+ b )
     3.87845846E-02    2     1000037         5   # BR(~t_1 -> ~chi_2+ b )
     1.60273834E-01    2     1000021         6   # BR(~t_1 -> ~g      t )
#
#         PDG            Width
DECAY   2000006     1.63128807E+02   # stop2 decays
#          BR         NDA      ID1       ID2
     1.31208034E-01    2     1000022         6   # BR(~t_2 -> ~chi_10 t )
     1.98621554E-01    2     1000023         6   # BR(~t_2 -> ~chi_20 t )
     1.96308689E-01    2     1000025         6   # BR(~t_2 -> ~chi_30 t )
     3.93288267E-03    2     1000035         6   # BR(~t_2 -> ~chi_40 t )
     6.49607471E-02    2     1000024         5   # BR(~t_2 -> ~chi_1+ b )
     2.56867535E-01    2     1000037         5   # BR(~t_2 -> ~chi_2+ b )
     1.48100558E-01    2     1000021         6   # BR(~t_2 -> ~g      t )
#
#         PDG            Width
DECAY   1000005     1.65890449E+02   # sbottom1 decays
#          BR         NDA      ID1       ID2
     5.39382413E-02    2     1000022         5   # BR(~b_1 -> ~chi_10 b )
     3.53091531E-02    2     1000023         5   # BR(~b_1 -> ~chi_20 b )
     1.02242613E-01    2     1000025         5   # BR(~b_1 -> ~chi_30 b )
     4.68128464E-03    2     1000035         5   # BR(~b_1 -> ~chi_40 b )
     2.96815355E-01    2    -1000024         6   # BR(~b_1 -> ~chi_1- t )
     3.43370210E-01    2    -1000037         6   # BR(~b_1 -> ~chi_2- t )
     1.63643143E-01    2     1000021         5   # BR(~b_1 -> ~g      b )
#
#         PDG            Width
DECAY   2000005     5.48872106E+01   # sbottom2 decays
#          BR         NDA      ID1       ID2
     1.07755205E-01    2     1000022         5   # BR(~b_2 -> ~chi_10 b )
     1.01388685E-01    2     1000023         5   # BR(~b_2 -> ~chi_20 b )
     8.47912231E-03    2     1000025         5   # BR(~b_2 -> ~chi_30 b )
     5.13882022E-02    2     1000035         5   # BR(~b_2 -> ~chi_40 b )
     1.98910008E-01    2    -1000024         6   # BR(~b_2 -> ~chi_1- t )
     1.85130938E-02    2    -1000037         6   # BR(~b_2 -> ~chi_2- t )
     5.13565684E-01    2     1000021         5   # BR(~b_2 -> ~g      b )
#
#         PDG            Width
DECAY   1000002     9.04295704E+01   # sup_L decays
#          BR         NDA      ID1       ID2
     3.34317723E-02    2     1000022         2   # BR(~u_L -> ~chi_10 u)
     7.08484167E-03    2     1000023         2   # BR(~u_L -> ~chi_20 u)
     1.82736492E-01    2     1000025         2   # BR(~u_L -> ~chi_30 u)
     6.99575511E-03    2     1000035         2   # BR(~u_L -> ~chi_40 u)
     1.34144041E-01    2     1000024         1   # BR(~u_L -> ~chi_1+ d)
     3.10695646E-01    2     1000037         1   # BR(~u_L -> ~chi_2+ d)
     3.24911453E-01    2     1000021         2   # BR(~u_L -> ~g      u)
#
#         PDG            Width
DECAY   2000002     4.03367634E+01   # sup_R decays
#          BR         NDA      ID1       ID2
     4.52268550E-04    2     1000022         2   # BR(~u_R -> ~chi_10 u)
     2.18790870E-03    2     1000023         2   # BR(~u_R -> ~chi_20 u)
     1.24347510E-04    2     1000025         2   # BR(~u_R -> ~chi_30 u)
     2.80118066E-01    2     1000035         2   # BR(~u_R -> ~chi_40 u)
     7.17117409E-01    2     1000021         2   # BR(~u_R -> ~g      u)
#
#         PDG            Width
DECAY   1000001     9.04291777E+01   # sdown_L decays
#          BR         NDA      ID1       ID2
     3.08864599E-02    2     1000022         1   # BR(~d_L -> ~chi_10 d)
     4.69823665E-03    2     1000023         1   # BR(~d_L -> ~chi_20 d)
     1.85954890E-01    2     1000025         1   # BR(~d_L -> ~chi_30 d)
     8.69301476E-03    2     1000035         1   # BR(~d_L -> ~chi_40 d)
     3.01302146E-02    2    -1000024         2   # BR(~d_L -> ~chi_1- u)
     4.14392011E-01    2    -1000037         2   # BR(~d_L -> ~chi_2- u)
     3.25245173E-01    2     1000021         1   # BR(~d_L -> ~g      d)
#
#         PDG            Width
DECAY   2000001     3.17291775E+01   # sdown_R decays
#          BR         NDA      ID1       ID2
     1.43717906E-04    2     1000022         1   # BR(~d_R -> ~chi_10 d)
     6.95254204E-04    2     1000023         1   # BR(~d_R -> ~chi_20 d)
     3.95140054E-05    2     1000025         1   # BR(~d_R -> ~chi_30 d)
     8.90129453E-02    2     1000035         1   # BR(~d_R -> ~chi_40 d)
     9.10108569E-01    2     1000021         1   # BR(~d_R -> ~g      d)
#
#         PDG            Width
DECAY   1000004     9.04295704E+01   # scharm_L decays
#          BR         NDA      ID1       ID2
     3.34317723E-02    2     1000022         4   # BR(~c_L -> ~chi_10 c)
     7.08484167E-03    2     1000023         4   # BR(~c_L -> ~chi_20 c)
     1.82736492E-01    2     1000025         4   # BR(~c_L -> ~chi_30 c)
     6.99575511E-03    2     1000035         4   # BR(~c_L -> ~chi_40 c)
     1.34144041E-01    2     1000024         3   # BR(~c_L -> ~chi_1+ s)
     3.10695646E-01    2     1000037         3   # BR(~c_L -> ~chi_2+ s)
     3.24911453E-01    2     1000021         4   # BR(~c_L -> ~g      c)
#
#         PDG            Width
DECAY   2000004     4.03367634E+01   # scharm_R decays
#          BR         NDA      ID1       ID2
     4.52268550E-04    2     1000022         4   # BR(~c_R -> ~chi_10 c)
     2.18790870E-03    2     1000023         4   # BR(~c_R -> ~chi_20 c)
     1.24347510E-04    2     1000025         4   # BR(~c_R -> ~chi_30 c)
     2.80118066E-01    2     1000035         4   # BR(~c_R -> ~chi_40 c)
     7.17117409E-01    2     1000021         4   # BR(~c_R -> ~g      c)
#
#         PDG            Width
DECAY   1000003     9.04291777E+01   # sstrange_L decays
#          BR         NDA      ID1       ID2
     3.08864599E-02    2     1000022         3   # BR(~s_L -> ~chi_10 s)
     4.69823665E-03    2     1000023         3   # BR(~s_L -> ~chi_20 s)
     1.85954890E-01    2     1000025         3   # BR(~s_L -> ~chi_30 s)
     8.69301476E-03    2     1000035         3   # BR(~s_L -> ~chi_40 s)
     3.01302146E-02    2    -1000024         4   # BR(~s_L -> ~chi_1- c)
     4.14392011E-01    2    -1000037         4   # BR(~s_L -> ~chi_2- c)
     3.25245173E-01    2     1000021         3   # BR(~s_L -> ~g      s)
#
#         PDG            Width
DECAY   2000003     3.17291775E+01   # sstrange_R decays
#          BR         NDA      ID1       ID2
     1.43717906E-04    2     1000022         3   # BR(~s_R -> ~chi_10 s)
     6.95254204E-04    2     1000023         3   # BR(~s_R -> ~chi_20 s)
     3.95140054E-05    2     1000025         3   # BR(~s_R -> ~chi_30 s)
     8.90129453E-02    2     1000035         3   # BR(~s_R -> ~chi_40 s)
     9.10108569E-01    2     1000021         3   # BR(~s_R -> ~g      s)
#
#         PDG            Width
DECAY   1000011     6.83451497E+01   # selectron_L decays
#          BR         NDA      ID1       ID2
     4.89411122E-02    2     1000022        11   # BR(~e_L -> ~chi_10 e-)
     1.35085999E-02    2     1000023        11   # BR(~e_L -> ~chi_20 e-)
     2.43347738E-01    2     1000025        11   # BR(~e_L -> ~chi_30 e-)
     9.18127927E-02    2     1000035        11   # BR(~e_L -> ~chi_40 e-)
     4.08636277E-02    2    -1000024        12   # BR(~e_L -> ~chi_1- nu_e)
     5.61526129E-01    2    -1000037        12   # BR(~e_L -> ~chi_2- nu_e)
#
#         PDG            Width
DECAY   2000011     2.62606368E+01   # selectron_R decays
#          BR         NDA      ID1       ID2
     1.60296467E-03    2     1000022        11   # BR(~e_R -> ~chi_10 e-)
     7.75334443E-03    2     1000023        11   # BR(~e_R -> ~chi_20 e-)
     4.40330835E-04    2     1000025        11   # BR(~e_R -> ~chi_30 e-)
     9.90203360E-01    2     1000035        11   # BR(~e_R -> ~chi_40 e-)
#
#         PDG            Width
DECAY   1000013     6.83451497E+01   # smuon_L decays
#          BR         NDA      ID1       ID2
     4.89411122E-02    2     1000022        13   # BR(~mu_L -> ~chi_10 mu-)
     1.35085999E-02    2     1000023        13   # BR(~mu_L -> ~chi_20 mu-)
     2.43347738E-01    2     1000025        13   # BR(~mu_L -> ~chi_30 mu-)
     9.18127927E-02    2     1000035        13   # BR(~mu_L -> ~chi_40 mu-)
     4.08636277E-02    2    -1000024        14   # BR(~mu_L -> ~chi_1- nu_mu)
     5.61526129E-01    2    -1000037        14   # BR(~mu_L -> ~chi_2- nu_mu)
#
#         PDG            Width
DECAY   2000013     2.62606368E+01   # smuon_R decays
#          BR         NDA      ID1       ID2
     1.60296467E-03    2     1000022        13   # BR(~mu_R -> ~chi_10 mu-)
     7.75334443E-03    2     1000023        13   # BR(~mu_R -> ~chi_20 mu-)
     4.40330835E-04    2     1000025        13   # BR(~mu_R -> ~chi_30 mu-)
     9.90203360E-01    2     1000035        13   # BR(~mu_R -> ~chi_40 mu-)
#
#         PDG            Width
DECAY   1000015     4.04542211E+01   # stau_1 decays
#          BR         NDA      ID1       ID2
     9.94128028E-02    2     1000022        15   # BR(~tau_1 -> ~chi_10  tau-)
     8.24463606E-02    2     1000023        15   # BR(~tau_1 -> ~chi_20  tau-)
     1.17693007E-03    2     1000025        15   # BR(~tau_1 -> ~chi_30  tau-)
     6.39357830E-01    2     1000035        15   # BR(~tau_1 -> ~chi_40  tau-)
     1.75524056E-01    2    -1000024        16   # BR(~tau_1 -> ~chi_1-  nu_tau)
     2.08202088E-03    2    -1000037        16   # BR(~tau_1 -> ~chi_2-  nu_tau)
#
#         PDG            Width
DECAY   2000015     7.52041464E+01   # stau_2 decays
#          BR         NDA      ID1       ID2
     8.66475564E-02    2     1000022        15   # BR(~tau_2 -> ~chi_10  tau-)
     5.70387430E-02    2     1000023        15   # BR(~tau_2 -> ~chi_20  tau-)
     2.26304193E-01    2     1000025        15   # BR(~tau_2 -> ~chi_30  tau-)
     8.48441361E-02    2     1000035        15   # BR(~tau_2 -> ~chi_40  tau-)
     3.00244027E-02    2    -1000024        16   # BR(~tau_2 -> ~chi_1-  nu_tau)
     5.15140968E-01    2    -1000037        16   # BR(~tau_2 -> ~chi_2-  nu_tau)
#
#         PDG            Width
DECAY   1000012     6.83607882E+01   # snu_eL decays
#          BR         NDA      ID1       ID2
     3.85548630E-02    2     1000022        12   # BR(~nu_eL -> ~chi_10 nu_e)
     3.79491844E-03    2     1000023        12   # BR(~nu_eL -> ~chi_20 nu_e)
     2.56248476E-01    2     1000025        12   # BR(~nu_eL -> ~chi_30 nu_e)
     9.86550878E-02    2     1000035        12   # BR(~nu_eL -> ~chi_40 nu_e)
     1.81871901E-01    2     1000024        11   # BR(~nu_eL -> ~chi_1+ e-)
     4.20874754E-01    2     1000037        11   # BR(~nu_eL -> ~chi_2+ e-)
#
#         PDG            Width
DECAY   1000014     6.83607882E+01   # snu_muL decays
#          BR         NDA      ID1       ID2
     3.85548630E-02    2     1000022        14   # BR(~nu_muL -> ~chi_10 nu_mu)
     3.79491844E-03    2     1000023        14   # BR(~nu_muL -> ~chi_20 nu_mu)
     2.56248476E-01    2     1000025        14   # BR(~nu_muL -> ~chi_30 nu_mu)
     9.86550878E-02    2     1000035        14   # BR(~nu_muL -> ~chi_40 nu_mu)
     1.81871901E-01    2     1000024        13   # BR(~nu_muL -> ~chi_1+ mu-)
     4.20874754E-01    2     1000037        13   # BR(~nu_muL -> ~chi_2+ mu-)
#
#         PDG            Width
DECAY   1000016     7.53653702E+01   # snu_tauL decays
#          BR         NDA      ID1       ID2
     3.49464841E-02    2     1000022        16   # BR(~nu_tauL -> ~chi_10 nu_tau)
     3.43974646E-03    2     1000023        16   # BR(~nu_tauL -> ~chi_20 nu_tau)
     2.32264526E-01    2     1000025        16   # BR(~nu_tauL -> ~chi_30 nu_tau)
     8.94193684E-02    2     1000035        16   # BR(~nu_tauL -> ~chi_40 nu_tau)
     2.52153376E-01    2     1000024        15   # BR(~nu_tauL -> ~chi_1+ tau-)
     3.87776499E-01    2     1000037        15   # BR(~nu_tauL -> ~chi_2+ tau-)
#
#         PDG            Width
DECAY   1000024     1.67494583E-08   # chargino1+ decays
#           BR         NDA      ID1       ID2       ID3
     3.44869741E-01    3     1000022         2        -1   # BR(~chi_1+ -> ~chi_10 u    db)
     3.44869741E-01    3     1000022         4        -3   # BR(~chi_1+ -> ~chi_10 c    sb)
     1.14956760E-01    3     1000022       -11        12   # BR(~chi_1+ -> ~chi_10 e+   nu_e)
     1.14956760E-01    3     1000022       -13        14   # BR(~chi_1+ -> ~chi_10 mu+  nu_mu)
     8.03469986E-02    3     1000022       -15        16   # BR(~chi_1+ -> ~chi_10 tau+ nu_tau)
#
#         PDG            Width
DECAY   1000037     8.52703468E-01   # chargino2+ decays
#          BR         NDA      ID1       ID2
     2.74549741E-01    2     1000024        23   # BR(~chi_2+ -> ~chi_1+  Z )
     3.53453821E-01    2     1000022        24   # BR(~chi_2+ -> ~chi_10  W+)
     2.72485576E-01    2     1000023        24   # BR(~chi_2+ -> ~chi_20  W+)
     9.95108622E-02    2     1000024        25   # BR(~chi_2+ -> ~chi_1+  h )
#
#         PDG            Width
DECAY   1000022     0.00000000E+00   # neutralino1 decays
#
#         PDG            Width
DECAY   1000023     1.83796617E-05   # neutralino2 decays
#          BR         NDA      ID1       ID2
     2.41909131E-04    2     1000022        22   # BR(~chi_20 -> ~chi_10 gam)
#           BR         NDA      ID1       ID2       ID3
     6.93124995E-02    3     1000022        -2         2   # BR(~chi_20 -> ~chi_10 ub      u)
     8.99158761E-02    3     1000022        -1         1   # BR(~chi_20 -> ~chi_10 db      d)
     6.93124995E-02    3     1000022        -4         4   # BR(~chi_20 -> ~chi_10 cb      c)
     8.99158761E-02    3     1000022        -3         3   # BR(~chi_20 -> ~chi_10 sb      s)
     6.87030590E-02    3     1000022        -5         5   # BR(~chi_20 -> ~chi_10 bb      b)
     2.06259922E-02    3     1000022       -11        11   # BR(~chi_20 -> ~chi_10 e+      e-)
     2.06259922E-02    3     1000022       -13        13   # BR(~chi_20 -> ~chi_10 mu+     mu-)
     2.01244661E-02    3     1000022       -15        15   # BR(~chi_20 -> ~chi_10 tau+    tau-)
     4.12371259E-02    3     1000022       -12        12   # BR(~chi_20 -> ~chi_10 nu_eb   nu_e)
     4.12371259E-02    3     1000022       -14        14   # BR(~chi_20 -> ~chi_10 nu_mub  nu_mu)
     4.12371271E-02    3     1000022       -16        16   # BR(~chi_20 -> ~chi_10 nu_taub nu_tau)
     7.15194059E-02    3     1000024        -2         1   # BR(~chi_20 -> ~chi_1+ ub      d)
     7.15194059E-02    3    -1000024        -1         2   # BR(~chi_20 -> ~chi_1- db      u)
     7.15194059E-02    3     1000024        -4         3   # BR(~chi_20 -> ~chi_1+ cb      s)
     7.15194059E-02    3    -1000024        -3         4   # BR(~chi_20 -> ~chi_1- sb      c)
     2.38394611E-02    3     1000024       -12        11   # BR(~chi_20 -> ~chi_1+ nu_eb   e-)
     2.38394611E-02    3    -1000024        12       -11   # BR(~chi_20 -> ~chi_1- nu_e    e+)
     2.38394611E-02    3     1000024       -14        13   # BR(~chi_20 -> ~chi_1+ nu_mub  mu-)
     2.38394611E-02    3    -1000024        14       -13   # BR(~chi_20 -> ~chi_1- nu_mu   mu+)
     2.30374917E-02    3     1000024       -16        15   # BR(~chi_20 -> ~chi_1+ nu_taub tau-)
     2.30374917E-02    3    -1000024        16       -15   # BR(~chi_20 -> ~chi_1- nu_tau  tau+)
#
#         PDG            Width
DECAY   1000025     9.17826390E-01   # neutralino3 decays
#          BR         NDA      ID1       ID2
     3.85540042E-02    2     1000022        23   # BR(~chi_30 -> ~chi_10   Z )
     1.06934740E-01    2     1000023        23   # BR(~chi_30 -> ~chi_20   Z )
     3.94421948E-01    2     1000024       -24   # BR(~chi_30 -> ~chi_1+   W-)
     3.94421948E-01    2    -1000024        24   # BR(~chi_30 -> ~chi_1-   W+)
     6.56673592E-02    2     1000022        25   # BR(~chi_30 -> ~chi_10   h )
#
#         PDG            Width
DECAY   1000035     1.24014331E+00   # neutralino4 decays
#          BR         NDA      ID1       ID2
     1.58615444E-01    2     1000022        23   # BR(~chi_40 -> ~chi_10   Z )
     6.63224412E-02    2     1000023        23   # BR(~chi_40 -> ~chi_20   Z )
     1.79915264E-02    2     1000025        23   # BR(~chi_40 -> ~chi_30   Z )
     2.21915160E-01    2     1000024       -24   # BR(~chi_40 -> ~chi_1+   W-)
     2.21915160E-01    2    -1000024        24   # BR(~chi_40 -> ~chi_1-   W+)
     2.32140351E-02    2     1000037       -24   # BR(~chi_40 -> ~chi_2+   W-)
     2.32140351E-02    2    -1000037        24   # BR(~chi_40 -> ~chi_2-   W+)
     5.25141537E-02    2     1000022        25   # BR(~chi_40 -> ~chi_10   h )
     2.12862953E-01    2     1000023        25   # BR(~chi_40 -> ~chi_20   h )
     1.43509103E-03    2     1000025        25   # BR(~chi_40 -> ~chi_30   h )
#
#         PDG            Width
DECAY        25     4.08839672E-03   # h decays
#          BR         NDA      ID1       ID2
     6.00621768E-01    2           5        -5   # BR(h -> b       bb     )
     6.58615582E-02    2         -15        15   # BR(h -> tau+    tau-   )
     2.33126618E-04    2         -13        13   # BR(h -> mu+     mu-    )
     4.57381065E-04    2           3        -3   # BR(h -> s       sb     )
     1.92314380E-02    2           4        -4   # BR(h -> c       cb     )
     6.94015543E-02    2          21        21   # BR(h -> g       g      )
     2.31064253E-03    2          22        22   # BR(h -> gam     gam    )
     1.57894476E-03    2          22        23   # BR(h -> Z       gam    )
     2.13497734E-01    2          24       -24   # BR(h -> W+      W-     )
     2.68058521E-02    2          23        23   # BR(h -> Z       Z      )
#
#         PDG            Width
DECAY        35     2.46048198E+01   # H decays
#          BR         NDA      ID1       ID2
     3.88180937E-01    2           5        -5   # BR(H -> b       bb     )
     6.25430365E-02    2         -15        15   # BR(H -> tau+    tau-   )
     2.21117697E-04    2         -13        13   # BR(H -> mu+     mu-    )
     2.87168376E-04    2           3        -3   # BR(H -> s       sb     )
     3.03664061E-08    2           4        -4   # BR(H -> c       cb     )
     3.05003605E-03    2           6        -6   # BR(H -> t       tb     )
     2.63746789E-05    2          21        21   # BR(H -> g       g      )
     2.57906533E-07    2          22        22   # BR(H -> gam     gam    )
     1.29854945E-08    2          23        22   # BR(H -> Z       gam    )
     9.50615483E-06    2          24       -24   # BR(H -> W+      W-     )
     4.71113969E-06    2          23        23   # BR(H -> Z       Z      )
     3.65837862E-05    2          25        25   # BR(H -> h       h      )
    -4.86942663E-24    2          36        36   # BR(H -> A       A      )
    -2.23165614E-20    2          23        36   # BR(H -> Z       A      )
     1.04476661E-01    2     1000024  -1000024   # BR(H -> ~chi_1+ ~chi_1-)
     1.51353021E-02    2     1000037  -1000037   # BR(H -> ~chi_2+ ~chi_2-)
     1.11699661E-01    2     1000024  -1000037   # BR(H -> ~chi_1+ ~chi_2-)
     1.11699661E-01    2     1000037  -1000024   # BR(H -> ~chi_2+ ~chi_1-)
     2.52543215E-02    2     1000022   1000022   # BR(H -> ~chi_10 ~chi_10)
     1.96704007E-03    2     1000023   1000023   # BR(H -> ~chi_20 ~chi_20)
     8.29406778E-03    2     1000025   1000025   # BR(H -> ~chi_30 ~chi_30)
     4.85813769E-06    2     1000035   1000035   # BR(H -> ~chi_40 ~chi_40)
     4.15239660E-03    2     1000022   1000023   # BR(H -> ~chi_10 ~chi_20)
     5.97246013E-02    2     1000022   1000025   # BR(H -> ~chi_10 ~chi_30)
     2.00878125E-02    2     1000022   1000035   # BR(H -> ~chi_10 ~chi_40)
     6.84848507E-02    2     1000023   1000025   # BR(H -> ~chi_20 ~chi_30)
     1.26071087E-02    2     1000023   1000035   # BR(H -> ~chi_20 ~chi_40)
     2.05188562E-03    2     1000025   1000035   # BR(H -> ~chi_30 ~chi_40)
#
#         PDG            Width
DECAY        36     2.46101156E+01   # A decays
#          BR         NDA      ID1       ID2
     3.88132465E-01    2           5        -5   # BR(A -> b       bb     )
     6.25319092E-02    2         -15        15   # BR(A -> tau+    tau-   )
     2.21076138E-04    2         -13        13   # BR(A -> mu+     mu-    )
     2.87144903E-04    2           3        -3   # BR(A -> s       sb     )
     2.95299952E-08    2           4        -4   # BR(A -> c       cb     )
     3.16486564E-03    2           6        -6   # BR(A -> t       tb     )
     5.97433038E-05    2          21        21   # BR(A -> g       g      )
     5.02126777E-07    2          22        22   # BR(A -> gam     gam    )
     3.12825694E-08    2          23        22   # BR(A -> Z       gam    )
     9.24405504E-06    2          23        25   # BR(A -> Z       h      )
     1.02389782E-01    2     1000024  -1000024   # BR(A -> ~chi_1+ ~chi_1-)
     1.31958405E-02    2     1000037  -1000037   # BR(A -> ~chi_2+ ~chi_2-)
     1.13714157E-01    2     1000024  -1000037   # BR(A -> ~chi_1+ ~chi_2-)
     1.13714157E-01    2     1000037  -1000024   # BR(A -> ~chi_2+ ~chi_1-)
     2.30707951E-02    2     1000022   1000022   # BR(A -> ~chi_10 ~chi_10)
     2.46742211E-03    2     1000023   1000023   # BR(A -> ~chi_20 ~chi_20)
     7.57419931E-03    2     1000025   1000025   # BR(A -> ~chi_30 ~chi_30)
     4.64771015E-05    2     1000035   1000035   # BR(A -> ~chi_40 ~chi_40)
     5.40799956E-03    2     1000022   1000023   # BR(A -> ~chi_10 ~chi_20)
     5.90756786E-02    2     1000022   1000025   # BR(A -> ~chi_10 ~chi_30)
     1.38029416E-02    2     1000022   1000035   # BR(A -> ~chi_10 ~chi_40)
     7.02695687E-02    2     1000023   1000025   # BR(A -> ~chi_20 ~chi_30)
     1.98789638E-02    2     1000023   1000035   # BR(A -> ~chi_20 ~chi_40)
     9.85005851E-04    2     1000025   1000035   # BR(A -> ~chi_30 ~chi_40)
#
#         PDG            Width
DECAY        37     2.43047455E+01   # H+ decays
#          BR         NDA      ID1       ID2
     6.22335262E-04    2           4        -5   # BR(H+ -> c       bb     )
     6.35078625E-02    2         -15        16   # BR(H+ -> tau+    nu_tau )
     2.24526530E-04    2         -13        14   # BR(H+ -> mu+     nu_mu  )
     3.98291407E-06    2           2        -5   # BR(H+ -> u       bb     )
     1.38984717E-05    2           2        -3   # BR(H+ -> u       sb     )
     2.85886237E-04    2           4        -3   # BR(H+ -> c       sb     )
     3.86320919E-01    2           6        -5   # BR(H+ -> t       bb     )
     9.49181326E-06    2          24        25   # BR(H+ -> W+      h      )
     2.32976273E-11    2          24        36   # BR(H+ -> W+      A      )
     2.95846670E-03    2     1000024   1000022   # BR(H+ -> ~chi_1+ ~chi_10)
     3.77154713E-02    2     1000024   1000023   # BR(H+ -> ~chi_1+ ~chi_20)
     1.48749573E-01    2     1000024   1000025   # BR(H+ -> ~chi_1+ ~chi_30)
     2.96306333E-02    2     1000024   1000035   # BR(H+ -> ~chi_1+ ~chi_40)
     1.98230788E-01    2     1000037   1000022   # BR(H+ -> ~chi_2+ ~chi_10)
     1.28541429E-01    2     1000037   1000023   # BR(H+ -> ~chi_2+ ~chi_20)
     7.73009991E-06    2     1000037   1000025   # BR(H+ -> ~chi_2+ ~chi_30)
     3.17700586E-03    2     1000037   1000035   # BR(H+ -> ~chi_2+ ~chi_40)
