#
#                              ======================
#                              | THE SUSYHIT OUTPUT |
#                              ======================
#
#
#              ------------------------------------------------------
#              |     This is the output of the SUSY-HIT package     |
#              |  created by A.Djouadi, M.Muehlleitner and M.Spira. |
#              |  In case of problems with SUSY-HIT email to        |
#              |           margarete.muehlleitner@cern.ch           |
#              |           michael.spira@psi.ch                     |
#              |           abdelhak.djouadi@cern.ch                 |
#              ------------------------------------------------------
#
#              ------------------------------------------------------
#              |  SUSY Les Houches Accord - MSSM Spectrum + Decays  |
#              |              based on the decay programs           |
#              |                                                    |
#              |                     SDECAY 1.3b                    |
#              |                                                    |
#              |  Authors: M.Muhlleitner, A.Djouadi and Y.Mambrini  |
#              |  Ref.:    Comput.Phys.Commun.168(2005)46           |
#              |           [hep-ph/0311167]                         |
#              |                                                    |
#              |                     HDECAY 3.4                     |
#              |                                                    |
#              |  By: A.Djouadi,J.Kalinowski,M.Muhlleitner,M.Spira  |
#              |  Ref.:    Comput.Phys.Commun.108(1998)56           |
#              |           [hep-ph/9704448]                         |
#              |                                                    |
#              |                                                    |
#              |  If not stated otherwise all DRbar couplings and   |
#              |  soft SUSY breaking masses are given at the scale  |
#              |  Q=  0.16888540E+04
#              |                                                    |
#              ------------------------------------------------------
#
#
BLOCK DCINFO  # Decay Program information
     1   SDECAY/HDECAY # decay calculator
     2   1.3b  /3.4    # version number
#
BLOCK SPINFO  # Spectrum calculator information
     1     SOFTSUSY    # spectrum calculator               
     2     3.4.0       # version number                    
#
BLOCK MODSEL  # Model selection
     1     0   #  nonUniversal                                     
#
BLOCK SMINPUTS  # Standard Model inputs
         1     1.27908970E+02   # alpha_em^-1(M_Z)^MSbar
         2     1.16637870E-05   # G_F [GeV^-2]
         3     1.18400000E-01   # alpha_S(M_Z)^MSbar
         4     9.11876000E+01   # M_Z pole mass
         5     4.18000000E+00   # mb(mb)^MSbar
         6     1.73200000E+02   # mt pole mass
         7     1.77700000E+00   # mtau pole mass
#
BLOCK MINPAR  # Input parameters - minimal models
         3     4.53300000E+01   # tanb                
#
BLOCK EXTPAR  # Input parameters - non-minimal models
         0    -1.00000000E+00   # Set                 
         1    -2.59120000E+02   # M_1(MX)             
         2     2.52060000E+03   # M_2(MX)             
         3     2.70897000E+03   # M_3(MX)             
        11     2.68229000E+03   # At(MX)              
        12     1.78167000E+03   # Ab(MX)              
        13     2.63382000E+03   # Atau(MX)            
        23     2.82190000E+02   # mu(MX)              
        26     2.24283000E+03   # mA(pole)            
        31     3.32397000E+03   # meL(MX)             
        32     3.32397000E+03   # mmuL(MX)            
        33     2.29687000E+03   # mtauL(MX)           
        34     3.99130000E+03   # meR(MX)             
        35     3.99130000E+03   # mmuR(MX)            
        36     7.03600000E+02   # mtauR(MX)           
        41     3.35306000E+03   # mqL1(MX)            
        42     3.35306000E+03   # mqL2(MX)            
        43     8.18170000E+02   # mqL3(MX)            
        44     2.18015000E+03   # muR(MX)             
        45     2.18015000E+03   # mcR(MX)             
        46     3.46778000E+03   # mtR(MX)             
        47     1.21550000E+03   # mdR(MX)             
        48     1.21550000E+03   # msR(MX)             
        49     6.28830000E+02   # mbR(MX)             
#
BLOCK MASS  # Mass Spectrum
# PDG code           mass       particle
        24     8.04012783E+01   # W+
        25     1.24916172E+02   # h
        35     2.24283586E+03   # H
        36     2.24283001E+03   # A
        37     2.24468129E+03   # H+
         5     4.81876030E+00   # b-quark pole mass calculated from mb(mb)_Msbar
   1000001     3.39675494E+03   # ~d_L
   2000001     1.26629109E+03   # ~d_R
   1000002     3.39595625E+03   # ~u_L
   2000002     2.23281712E+03   # ~u_R
   1000003     3.39675494E+03   # ~s_L
   2000003     1.26629109E+03   # ~s_R
   1000004     3.39595625E+03   # ~c_L
   2000004     2.23281712E+03   # ~c_R
   1000005     6.55040353E+02   # ~b_1
   2000005     8.86939349E+02   # ~b_2
   1000006     8.87253110E+02   # ~t_1
   2000006     3.48786350E+03   # ~t_2
   1000011     3.33081576E+03   # ~e_L
   2000011     3.99654812E+03   # ~e_R
   1000012     3.32952541E+03   # ~nu_eL
   1000013     3.33081576E+03   # ~mu_L
   2000013     3.99654812E+03   # ~mu_R
   1000014     3.32952541E+03   # ~nu_muL
   1000015     7.13088234E+02   # ~tau_1
   2000015     2.30328780E+03   # ~tau_2
   1000016     2.30156177E+03   # ~nu_tauL
   1000021     2.77056994E+03   # ~g
   1000022    -2.42851150E+02   # ~chi_10
   1000023     2.92619803E+02   # ~chi_20
   1000025    -3.10716877E+02   # ~chi_30
   1000035     2.54684311E+03   # ~chi_40
   1000024     2.92000069E+02   # ~chi_1+
   1000037     2.54700710E+03   # ~chi_2+
#
BLOCK NMIX  # Neutralino Mixing Matrix
  1  1     8.57726997E-01   # N_11
  1  2     9.18361381E-03   # N_12
  1  3     3.96500569E-01   # N_13
  1  4     3.27119794E-01   # N_14
  2  1     5.63434426E-02   # N_21
  2  2     2.56409939E-02   # N_22
  2  3    -7.05193862E-01   # N_23
  2  4     7.06306996E-01   # N_24
  3  1    -5.11008361E-01   # N_31
  3  2     1.72242839E-02   # N_32
  3  3     5.87767184E-01   # N_33
  3  4     6.26979678E-01   # N_34
  4  1    -5.20252464E-04   # N_41
  4  2     9.99480627E-01   # N_42
  4  3     4.31893771E-03   # N_43
  4  4    -3.19304150E-02   # N_44
#
BLOCK UMIX  # Chargino Mixing Matrix U
  1  1    -6.10091146E-03   # U_11
  1  2     9.99981389E-01   # U_12
  2  1    -9.99981389E-01   # U_21
  2  2    -6.10091146E-03   # U_22
#
BLOCK VMIX  # Chargino Mixing Matrix V
  1  1    -4.51462013E-02   # V_11
  1  2     9.98980390E-01   # V_12
  2  1    -9.98980390E-01   # V_21
  2  2    -4.51462013E-02   # V_22
#
BLOCK STOPMIX  # Stop Mixing Matrix
  1  1     9.99415212E-01   # cos(theta_t)
  1  2    -3.41940641E-02   # sin(theta_t)
  2  1     3.41940641E-02   # -sin(theta_t)
  2  2     9.99415212E-01   # cos(theta_t)
#
BLOCK SBOTMIX  # Sbottom Mixing Matrix
  1  1     6.94057215E-02   # cos(theta_b)
  1  2     9.97588515E-01   # sin(theta_b)
  2  1    -9.97588515E-01   # -sin(theta_b)
  2  2     6.94057215E-02   # cos(theta_b)
#
BLOCK STAUMIX  # Stau Mixing Matrix
  1  1     3.76684535E-03   # cos(theta_tau)
  1  2     9.99992905E-01   # sin(theta_tau)
  2  1    -9.99992905E-01   # -sin(theta_tau)
  2  2     3.76684535E-03   # cos(theta_tau)
#
BLOCK ALPHA  # Higgs mixing
          -2.25907694E-02   # Mixing angle in the neutral Higgs boson sector
#
BLOCK HMIX Q=  1.68885400E+03  # DRbar Higgs Parameters
         1     2.87139608E+02   # mu(Q)MSSM           
         2     4.45015680E+01   # tan                 
         3     2.43774534E+02   # higgs               
         4     5.04605854E+06   # mA^2(Q)MSSM         
#
BLOCK GAUGE Q=  1.68885400E+03  # The gauge couplings
     1     3.63365237E-01   # gprime(Q) DRbar
     2     6.37012851E-01   # g(Q) DRbar
     3     1.02618575E+00   # g3(Q) DRbar
#
BLOCK AU Q=  1.68885400E+03  # The trilinear couplings
  1  1     0.00000000E+00   # A_u(Q) DRbar
  2  2     0.00000000E+00   # A_c(Q) DRbar
  3  3     2.68229001E+03   # A_t(Q) DRbar
#
BLOCK AD Q=  1.68885400E+03  # The trilinear couplings
  1  1     0.00000000E+00   # A_d(Q) DRbar
  2  2     0.00000000E+00   # A_s(Q) DRbar
  3  3     1.78167000E+03   # A_b(Q) DRbar
#
BLOCK AE Q=  1.68885400E+03  # The trilinear couplings
  1  1     0.00000000E+00   # A_e(Q) DRbar
  2  2     0.00000000E+00   # A_mu(Q) DRbar
  3  3     2.63382000E+03   # A_tau(Q) DRbar
#
BLOCK Yu Q=  1.68885400E+03  # The Yukawa couplings
  1  1     0.00000000E+00   # y_u(Q) DRbar
  2  2     0.00000000E+00   # y_c(Q) DRbar
  3  3     8.47652278E-01   # y_t(Q) DRbar
#
BLOCK Yd Q=  1.68885400E+03  # The Yukawa couplings
  1  1     0.00000000E+00   # y_d(Q) DRbar
  2  2     0.00000000E+00   # y_s(Q) DRbar
  3  3     5.75287687E-01   # y_b(Q) DRbar
#
BLOCK Ye Q=  1.68885400E+03  # The Yukawa couplings
  1  1     0.00000000E+00   # y_e(Q) DRbar
  2  2     0.00000000E+00   # y_mu(Q) DRbar
  3  3     4.60136748E-01   # y_tau(Q) DRbar
#
BLOCK MSOFT Q=  1.68885400E+03  # The soft SUSY breaking masses at the scale Q
         1    -2.59120000E+02   # M_1(Q)              
         2     2.52060000E+03   # M_2(Q)              
         3     2.70897000E+03   # M_3(Q)              
        21     5.03815191E+06   # mH1^2(Q)            
        22    -2.17688935E+05   # mH2^2(Q)            
        31     3.32397000E+03   # meL(Q)              
        32     3.32397000E+03   # mmuL(Q)             
        33     2.29687000E+03   # mtauL(Q)            
        34     3.99130000E+03   # meR(Q)              
        35     3.99130000E+03   # mmuR(Q)             
        36     7.03600002E+02   # mtauR(Q)            
        41     3.35306000E+03   # mqL1(Q)             
        42     3.35306000E+03   # mqL2(Q)             
        43     8.18169985E+02   # mqL3(Q)             
        44     2.18015000E+03   # muR(Q)              
        45     2.18015000E+03   # mcR(Q)              
        46     3.46778000E+03   # mtR(Q)              
        47     1.21549999E+03   # mdR(Q)              
        48     1.21549999E+03   # msR(Q)              
        49     6.28829985E+02   # mbR(Q)              
#
Block HiggsBoundsInputHiggsCouplingsFermions
# ScalarNormEffCoupSq PseudoSNormEffCoupSq NP   IP1 IP2 IP2
    1.01101601E+00    0.00000000E+00        3  25   5   5  # h0-b-b eff. coupling^2, normalised to SM
    1.98037854E+03    0.00000000E+00        3  35   5   5  # H0-b-b eff. coupling^2, normalised to SM
    0.00000000E+00    1.98038955E+03        3  36   5   5  # A0-b-b eff. coupling^2, normalised to SM
#
    9.99994437E-01    0.00000000E+00        3  25   6   6  # h0-t-t eff. coupling^2, normalised to SM
    5.10513706E-04    0.00000000E+00        3  35   6   6  # H0-t-t eff. coupling^2, normalised to SM
    0.00000000E+00    5.04951159E-04        3  36   6   6  # A0-t-t eff. coupling^2, normalised to SM
#
    1.01101601E+00    0.00000000E+00        3  25  15  15  # h0-tau-tau eff. coupling^2, normalised to SM
    1.98037854E+03    0.00000000E+00        3  35  15  15  # H0-tau-tau eff. coupling^2, normalised to SM
    0.00000000E+00    1.98038955E+03        3  36  15  15  # A0-tau-tau eff. coupling^2, normalised to SM
#
Block HiggsBoundsInputHiggsCouplingsBosons
    9.99999985E-01        3  25  24  24  # h0-W-W eff. coupling^2, normalised to SM
    1.52355094E-08        3  35  24  24  # H0-W-W eff. coupling^2, normalised to SM
    0.00000000E+00        3  36  24  24  # A0-W-W eff. coupling^2, normalised to SM
#
    9.99999985E-01        3  25  23  23  # h0-Z-Z eff. coupling^2, normalised to SM
    1.52355094E-08        3  35  23  23  # H0-Z-Z eff. coupling^2, normalised to SM
    0.00000000E+00        3  36  23  23  # A0-Z-Z eff. coupling^2, normalised to SM
#
    9.04083720E-01        3  25  21  21  # h0-g-g eff. coupling^2, normalised to SM
    1.25308078E-10        3  35  21  21  # H0-g-g eff. coupling^2, normalised to SM
    1.33174905E-10        3  36  21  21  # A0-g-g eff. coupling^2, normalised to SM
#
    0.00000000E+00        3  25  25  23  # h0-h0-Z eff. coupling^2, normalised to SM
    0.00000000E+00        3  35  25  23  # H0-h0-Z eff. coupling^2, normalised to SM
    1.52355094E-08        3  36  25  23  # A0-h0-Z eff. coupling^2, normalised to SM
    0.00000000E+00        3  35  35  23  # H0-H0-Z eff. coupling^2, normalised to SM
    9.99999985E-01        3  36  35  23  # A0-H0-Z eff. coupling^2, normalised to SM
    0.00000000E+00        3  36  36  23  # A0-A0-Z eff. coupling^2, normalised to SM
#
    0.00000000E+00        4  25  21  21  23  # h0-g-g-Z eff. coupling^2, normalised to SM
    0.00000000E+00        4  35  21  21  23  # H0-g-g-Z eff. coupling^2, normalised to SM
    0.00000000E+00        4  36  21  21  23  # A0-g-g-Z eff. coupling^2, normalised to SM
#
#
#
#                             =================
#                             |The decay table|
#                             =================
#
# - The QCD corrections to the decays gluino -> squark  + quark
#                                     squark -> gaugino + quark_prime
#                                     squark -> squark_prime + Higgs
#                                     squark -> gluino  + quark
#   are included.
#
# - The multi-body decays for the inos, stops and sbottoms are included.
#
# - The loop induced decays for the gluino, neutralinos and stops
#   are included.
#
# - The SUSY decays of the top quark are included.
#
#
#         PDG            Width
DECAY         6     1.42861130E+00   # top decays
#          BR         NDA      ID1       ID2
     1.00000000E+00    2           5        24   # BR(t ->  b    W+)
#
#         PDG            Width
DECAY   1000021     2.11014089E+02   # gluino decays
#          BR         NDA      ID1       ID2
     8.04107818E-02    2     2000001        -1   # BR(~g -> ~d_R  db)
     8.04107818E-02    2    -2000001         1   # BR(~g -> ~d_R* d )
     1.57856905E-02    2     2000002        -2   # BR(~g -> ~u_R  ub)
     1.57856905E-02    2    -2000002         2   # BR(~g -> ~u_R* u )
     8.04107818E-02    2     2000003        -3   # BR(~g -> ~s_R  sb)
     8.04107818E-02    2    -2000003         3   # BR(~g -> ~s_R* s )
     1.57856309E-02    2     2000004        -4   # BR(~g -> ~c_R  cb)
     1.57856309E-02    2    -2000004         4   # BR(~g -> ~c_R* c )
     1.09122697E-01    2     1000005        -5   # BR(~g -> ~b_1  bb)
     1.09122697E-01    2    -1000005         5   # BR(~g -> ~b_1* b )
     9.88956308E-02    2     2000005        -5   # BR(~g -> ~b_2  bb)
     9.88956308E-02    2    -2000005         5   # BR(~g -> ~b_2* b )
     9.95887876E-02    2     1000006        -6   # BR(~g -> ~t_1  tb)
     9.95887876E-02    2    -1000006         6   # BR(~g -> ~t_1* t )
#
#         PDG            Width
DECAY   1000006     1.39390077E+01   # stop1 decays
#          BR         NDA      ID1       ID2
     9.07996997E-02    2     1000022         6   # BR(~t_1 -> ~chi_10 t )
     3.27608375E-01    2     1000023         6   # BR(~t_1 -> ~chi_20 t )
     2.37131550E-01    2     1000025         6   # BR(~t_1 -> ~chi_30 t )
     3.32803651E-01    2     1000024         5   # BR(~t_1 -> ~chi_1+ b )
     1.16567242E-02    2     1000005        24   # BR(~t_1 -> ~b_1    W+)
#
#         PDG            Width
DECAY   2000006     1.84435325E+02   # stop2 decays
#          BR         NDA      ID1       ID2
     5.85497139E-02    2     1000022         6   # BR(~t_2 -> ~chi_10 t )
     1.32388190E-01    2     1000023         6   # BR(~t_2 -> ~chi_20 t )
     1.17874649E-01    2     1000025         6   # BR(~t_2 -> ~chi_30 t )
     1.07148644E-05    2     1000035         6   # BR(~t_2 -> ~chi_40 t )
     2.66448898E-01    2     1000024         5   # BR(~t_2 -> ~chi_1+ b )
     2.22746882E-05    2     1000037         5   # BR(~t_2 -> ~chi_2+ b )
     1.40660618E-01    2     1000021         6   # BR(~t_2 -> ~g      t )
     7.38656100E-02    2     1000006        25   # BR(~t_2 -> ~t_1    h )
     5.43216065E-04    2     1000006        35   # BR(~t_2 -> ~t_1    H )
     5.44825314E-04    2     1000006        36   # BR(~t_2 -> ~t_1    A )
     2.96899804E-04    2     1000005        37   # BR(~t_2 -> ~b_1    H+)
     1.02118669E-03    2     2000005        37   # BR(~t_2 -> ~b_2    H+)
     7.05369007E-02    2     1000006        23   # BR(~t_2 -> ~t_1    Z )
     7.25174712E-04    2     1000005        24   # BR(~t_2 -> ~b_1    W+)
     1.36511127E-01    2     2000005        24   # BR(~t_2 -> ~b_2    W+)
#
#         PDG            Width
DECAY   1000005     5.11113478E+00   # sbottom1 decays
#          BR         NDA      ID1       ID2
     1.53331500E-01    2     1000022         5   # BR(~b_1 -> ~chi_10 b )
     2.68496696E-01    2     1000023         5   # BR(~b_1 -> ~chi_20 b )
     1.76194516E-01    2     1000025         5   # BR(~b_1 -> ~chi_30 b )
     4.01977288E-01    2    -1000024         6   # BR(~b_1 -> ~chi_1- t )
#
#         PDG            Width
DECAY   2000005     1.41022514E+01   # sbottom2 decays
#          BR         NDA      ID1       ID2
     5.37012514E-02    2     1000022         5   # BR(~b_2 -> ~chi_10 b )
     1.63806879E-01    2     1000023         5   # BR(~b_2 -> ~chi_20 b )
     1.18725103E-01    2     1000025         5   # BR(~b_2 -> ~chi_30 b )
     6.52405358E-01    2    -1000024         6   # BR(~b_2 -> ~chi_1- t )
     5.82045476E-03    2     1000005        25   # BR(~b_2 -> ~b_1    h )
     5.54095440E-03    2     1000005        23   # BR(~b_2 -> ~b_1    Z )
#
#         PDG            Width
DECAY   1000002     3.73244271E+01   # sup_L decays
#          BR         NDA      ID1       ID2
     1.02606509E-02    2     1000022         2   # BR(~u_L -> ~chi_10 u)
     4.54970459E-04    2     1000023         2   # BR(~u_L -> ~chi_20 u)
     2.19592018E-03    2     1000025         2   # BR(~u_L -> ~chi_30 u)
     6.84845712E-02    2     1000035         2   # BR(~u_L -> ~chi_40 u)
     1.40337379E-03    2     1000024         1   # BR(~u_L -> ~chi_1+ d)
     1.36814594E-01    2     1000037         1   # BR(~u_L -> ~chi_2+ d)
     7.80385920E-01    2     1000021         2   # BR(~u_L -> ~g      u)
#
#         PDG            Width
DECAY   2000002     4.99765611E+00   # sup_R decays
#          BR         NDA      ID1       ID2
     7.38564348E-01    2     1000022         2   # BR(~u_R -> ~chi_10 u)
     3.15363508E-03    2     1000023         2   # BR(~u_R -> ~chi_20 u)
     2.58282017E-01    2     1000025         2   # BR(~u_R -> ~chi_30 u)
#
#         PDG            Width
DECAY   1000001     3.73511796E+01   # sdown_L decays
#          BR         NDA      ID1       ID2
     8.18549255E-03    2     1000022         1   # BR(~d_L -> ~chi_10 d)
     7.66770390E-05    2     1000023         1   # BR(~d_L -> ~chi_20 d)
     4.49421038E-03    2     1000025         1   # BR(~d_L -> ~chi_30 d)
     6.85604149E-02    2     1000035         1   # BR(~d_L -> ~chi_40 d)
     2.56163011E-05    2    -1000024         2   # BR(~d_L -> ~chi_1- u)
     1.37186460E-01    2    -1000037         2   # BR(~d_L -> ~chi_2- u)
     7.81471129E-01    2     1000021         1   # BR(~d_L -> ~g      d)
#
#         PDG            Width
DECAY   2000001     6.90288995E-01   # sdown_R decays
#          BR         NDA      ID1       ID2
     7.45040117E-01    2     1000022         1   # BR(~d_R -> ~chi_10 d)
     3.10597859E-03    2     1000023         1   # BR(~d_R -> ~chi_20 d)
     2.51853904E-01    2     1000025         1   # BR(~d_R -> ~chi_30 d)
#
#         PDG            Width
DECAY   1000004     2.96339794E+01   # scharm_L decays
#          BR         NDA      ID1       ID2
     1.35876540E-02    2     1000022         4   # BR(~c_L -> ~chi_10 c)
     6.02286640E-04    2     1000023         4   # BR(~c_L -> ~chi_20 c)
     2.90658633E-03    2     1000025         4   # BR(~c_L -> ~chi_30 c)
     8.84494923E-02    2     1000035         4   # BR(~c_L -> ~chi_40 c)
     1.85778483E-03    2     1000024         3   # BR(~c_L -> ~chi_1+ s)
     1.76698808E-01    2     1000037         3   # BR(~c_L -> ~chi_2+ s)
     7.15897388E-01    2     1000021         4   # BR(~c_L -> ~g      c)
#
#         PDG            Width
DECAY   2000004     5.07036665E+00   # scharm_R decays
#          BR         NDA      ID1       ID2
     7.38651660E-01    2     1000022         4   # BR(~c_R -> ~chi_10 c)
     3.15294884E-03    2     1000023         4   # BR(~c_R -> ~chi_20 c)
     2.58195391E-01    2     1000025         4   # BR(~c_R -> ~chi_30 c)
#
#         PDG            Width
DECAY   1000003     2.96418794E+01   # sstrange_L decays
#          BR         NDA      ID1       ID2
     1.08444596E-02    2     1000022         3   # BR(~s_L -> ~chi_10 s)
     1.01549767E-04    2     1000023         3   # BR(~s_L -> ~chi_20 s)
     5.95132480E-03    2     1000025         3   # BR(~s_L -> ~chi_30 s)
     8.85889367E-02    2     1000035         3   # BR(~s_L -> ~chi_40 s)
     3.39259294E-05    2    -1000024         4   # BR(~s_L -> ~chi_1- c)
     1.77261396E-01    2    -1000037         4   # BR(~s_L -> ~chi_2- c)
     7.17218407E-01    2     1000021         3   # BR(~s_L -> ~g      s)
#
#         PDG            Width
DECAY   2000003     6.77105864E-01   # sstrange_R decays
#          BR         NDA      ID1       ID2
     7.45127149E-01    2     1000022         3   # BR(~s_R -> ~chi_10 s)
     3.10528326E-03    2     1000023         3   # BR(~s_R -> ~chi_20 s)
     2.51767568E-01    2     1000025         3   # BR(~s_R -> ~chi_30 s)
#
#         PDG            Width
DECAY   1000011     1.12961141E+01   # selectron_L decays
#          BR         NDA      ID1       ID2
     2.92569743E-01    2     1000022        11   # BR(~e_L -> ~chi_10 e-)
     3.91246228E-03    2     1000023        11   # BR(~e_L -> ~chi_20 e-)
     8.79768514E-02    2     1000025        11   # BR(~e_L -> ~chi_30 e-)
     2.04982618E-01    2     1000035        11   # BR(~e_L -> ~chi_40 e-)
     8.72441483E-05    2    -1000024        12   # BR(~e_L -> ~chi_1- nu_e)
     4.10471081E-01    2    -1000037        12   # BR(~e_L -> ~chi_2- nu_e)
#
#         PDG            Width
DECAY   2000011     2.08151220E+01   # selectron_R decays
#          BR         NDA      ID1       ID2
     7.36610684E-01    2     1000022        11   # BR(~e_R -> ~chi_10 e-)
     3.16789513E-03    2     1000023        11   # BR(~e_R -> ~chi_20 e-)
     2.60221324E-01    2     1000025        11   # BR(~e_R -> ~chi_30 e-)
     9.62955326E-08    2     1000035        11   # BR(~e_R -> ~chi_40 e-)
#
#         PDG            Width
DECAY   1000013     1.12961141E+01   # smuon_L decays
#          BR         NDA      ID1       ID2
     2.92569743E-01    2     1000022        13   # BR(~mu_L -> ~chi_10 mu-)
     3.91246228E-03    2     1000023        13   # BR(~mu_L -> ~chi_20 mu-)
     8.79768515E-02    2     1000025        13   # BR(~mu_L -> ~chi_30 mu-)
     2.04982616E-01    2     1000035        13   # BR(~mu_L -> ~chi_40 mu-)
     8.72441485E-05    2    -1000024        14   # BR(~mu_L -> ~chi_1- nu_mu)
     4.10471083E-01    2    -1000037        14   # BR(~mu_L -> ~chi_2- nu_mu)
#
#         PDG            Width
DECAY   2000013     2.08151219E+01   # smuon_R decays
#          BR         NDA      ID1       ID2
     7.36610684E-01    2     1000022        13   # BR(~mu_R -> ~chi_10 mu-)
     3.16789513E-03    2     1000023        13   # BR(~mu_R -> ~chi_20 mu-)
     2.60221324E-01    2     1000025        13   # BR(~mu_R -> ~chi_30 mu-)
     9.62955324E-08    2     1000035        13   # BR(~mu_R -> ~chi_40 mu-)
#
#         PDG            Width
DECAY   1000015     6.96875681E+00   # stau_1 decays
#          BR         NDA      ID1       ID2
     3.62976097E-01    2     1000022        15   # BR(~tau_1 -> ~chi_10  tau-)
     1.49463338E-01    2     1000023        15   # BR(~tau_1 -> ~chi_20  tau-)
     1.88968216E-01    2     1000025        15   # BR(~tau_1 -> ~chi_30  tau-)
     2.98592350E-01    2    -1000024        16   # BR(~tau_1 -> ~chi_1-  nu_tau)
#
#         PDG            Width
DECAY   2000015     1.24387907E+01   # stau_2 decays
#          BR         NDA      ID1       ID2
     3.00389283E-01    2     1000022        15   # BR(~tau_2 -> ~chi_10  tau-)
     3.77883660E-01    2     1000023        15   # BR(~tau_2 -> ~chi_20  tau-)
     3.14989098E-01    2     1000025        15   # BR(~tau_2 -> ~chi_30  tau-)
     1.65331321E-05    2    -1000024        16   # BR(~tau_2 -> ~chi_1-  nu_tau)
     3.42812053E-03    2     1000015        25   # BR(~tau_2 -> ~tau_1   h)
     3.29330504E-03    2     1000015        23   # BR(~tau_2 -> ~tau_1   Z)
#
#         PDG            Width
DECAY   1000012     1.13056025E+01   # snu_eL decays
#          BR         NDA      ID1       ID2
     2.71070247E-01    2     1000022        12   # BR(~nu_eL -> ~chi_10 nu_e)
     4.94278476E-05    2     1000023        12   # BR(~nu_eL -> ~chi_20 nu_e)
     1.11326896E-01    2     1000025        12   # BR(~nu_eL -> ~chi_30 nu_e)
     2.04527409E-01    2     1000035        12   # BR(~nu_eL -> ~chi_40 nu_e)
     4.77145855E-03    2     1000024        11   # BR(~nu_eL -> ~chi_1+ e-)
     4.08254563E-01    2     1000037        11   # BR(~nu_eL -> ~chi_2+ e-)
#
#         PDG            Width
DECAY   1000014     1.13056025E+01   # snu_muL decays
#          BR         NDA      ID1       ID2
     2.71070248E-01    2     1000022        14   # BR(~nu_muL -> ~chi_10 nu_mu)
     4.94278478E-05    2     1000023        14   # BR(~nu_muL -> ~chi_20 nu_mu)
     1.11326896E-01    2     1000025        14   # BR(~nu_muL -> ~chi_30 nu_mu)
     2.04527410E-01    2     1000035        14   # BR(~nu_muL -> ~chi_40 nu_mu)
     4.77145856E-03    2     1000024        13   # BR(~nu_muL -> ~chi_1+ mu-)
     4.08254560E-01    2     1000037        13   # BR(~nu_muL -> ~chi_2+ mu-)
#
#         PDG            Width
DECAY   1000016     1.24479585E+01   # snu_tauL decays
#          BR         NDA      ID1       ID2
     1.68200104E-01    2     1000022        16   # BR(~nu_tauL -> ~chi_10 nu_tau)
     3.05061638E-05    2     1000023        16   # BR(~nu_tauL -> ~chi_20 nu_tau)
     6.85578057E-02    2     1000025        16   # BR(~nu_tauL -> ~chi_30 nu_tau)
     7.56832238E-01    2     1000024        15   # BR(~nu_tauL -> ~chi_1+ tau-)
     6.37934664E-03    2    -1000015       -24   # BR(~nu_tauL -> ~tau_1+ W-)
#
#         PDG            Width
DECAY   1000024     9.17935220E-05   # chargino1+ decays
#           BR         NDA      ID1       ID2       ID3
     3.33153974E-01    3     1000022         2        -1   # BR(~chi_1+ -> ~chi_10 u    db)
     3.33153974E-01    3     1000022         4        -3   # BR(~chi_1+ -> ~chi_10 c    sb)
     1.11048589E-01    3     1000022       -11        12   # BR(~chi_1+ -> ~chi_10 e+   nu_e)
     1.11048589E-01    3     1000022       -13        14   # BR(~chi_1+ -> ~chi_10 mu+  nu_mu)
     1.11594874E-01    3     1000022       -15        16   # BR(~chi_1+ -> ~chi_10 tau+ nu_tau)
#
#         PDG            Width
DECAY   1000037     6.89515168E+01   # chargino2+ decays
#          BR         NDA      ID1       ID2
     3.45637247E-01    2     1000006        -5   # BR(~chi_2+ -> ~t_1     bb)
     1.56872469E-03    2    -1000005         6   # BR(~chi_2+ -> ~b_1*    t )
     3.38359390E-01    2    -2000005         6   # BR(~chi_2+ -> ~b_2*    t )
     5.00704971E-03    2     1000016       -15   # BR(~chi_2+ -> ~nu_tau1 tau+)
     5.18887688E-08    2    -1000015        16   # BR(~chi_2+ -> ~tau_1+  nu_tau)
     4.95074401E-03    2    -2000015        16   # BR(~chi_2+ -> ~tau_2+  nu_tau)
     7.67077135E-02    2     1000024        23   # BR(~chi_2+ -> ~chi_1+  Z )
     1.75096666E-02    2     1000022        24   # BR(~chi_2+ -> ~chi_10  W+)
     7.47657993E-02    2     1000023        24   # BR(~chi_2+ -> ~chi_20  W+)
     5.69680254E-02    2     1000025        24   # BR(~chi_2+ -> ~chi_30  W+)
     7.47683590E-02    2     1000024        25   # BR(~chi_2+ -> ~chi_1+  h )
     1.06135435E-03    2     1000024        35   # BR(~chi_2+ -> ~chi_1+  H )
     1.06302251E-03    2     1000024        36   # BR(~chi_2+ -> ~chi_1+  A )
     6.92747410E-04    2     1000022        37   # BR(~chi_2+ -> ~chi_10  H+)
     9.40104556E-04    2     1000023        37   # BR(~chi_2+ -> ~chi_20  H+)
#
#         PDG            Width
DECAY   1000022     0.00000000E+00   # neutralino1 decays
#
#         PDG            Width
DECAY   1000023     7.48027784E-05   # neutralino2 decays
#          BR         NDA      ID1       ID2
     9.54351560E-04    2     1000022        22   # BR(~chi_20 -> ~chi_10 gam)
#           BR         NDA      ID1       ID2       ID3
     1.17220446E-01    3     1000022        -2         2   # BR(~chi_20 -> ~chi_10 ub      u)
     1.52103160E-01    3     1000022        -1         1   # BR(~chi_20 -> ~chi_10 db      d)
     1.17220446E-01    3     1000022        -4         4   # BR(~chi_20 -> ~chi_10 cb      c)
     1.52103160E-01    3     1000022        -3         3   # BR(~chi_20 -> ~chi_10 sb      s)
     1.45840752E-01    3     1000022        -5         5   # BR(~chi_20 -> ~chi_10 bb      b)
     3.49133487E-02    3     1000022       -11        11   # BR(~chi_20 -> ~chi_10 e+      e-)
     3.49133487E-02    3     1000022       -13        13   # BR(~chi_20 -> ~chi_10 mu+     mu-)
     3.52864872E-02    3     1000022       -15        15   # BR(~chi_20 -> ~chi_10 tau+    tau-)
     6.98146705E-02    3     1000022       -12        12   # BR(~chi_20 -> ~chi_10 nu_eb   nu_e)
     6.98146705E-02    3     1000022       -14        14   # BR(~chi_20 -> ~chi_10 nu_mub  nu_mu)
     6.98151578E-02    3     1000022       -16        16   # BR(~chi_20 -> ~chi_10 nu_taub nu_tau)
     4.82738259E-10    3     1000024        -2         1   # BR(~chi_20 -> ~chi_1+ ub      d)
     4.82738259E-10    3    -1000024        -1         2   # BR(~chi_20 -> ~chi_1- db      u)
     1.60912600E-10    3     1000024       -12        11   # BR(~chi_20 -> ~chi_1+ nu_eb   e-)
     1.60912600E-10    3    -1000024        12       -11   # BR(~chi_20 -> ~chi_1- nu_e    e+)
     1.60912600E-10    3     1000024       -14        13   # BR(~chi_20 -> ~chi_1+ nu_mub  mu-)
     1.60912600E-10    3    -1000024        14       -13   # BR(~chi_20 -> ~chi_1- nu_mu   mu+)
#
#         PDG            Width
DECAY   1000025     1.12647315E-05   # neutralino3 decays
#          BR         NDA      ID1       ID2
     3.93238834E-02    2     1000022        22   # BR(~chi_30 -> ~chi_10 gam)
     4.04388787E-02    2     1000023        22   # BR(~chi_30 -> ~chi_20 gam)
#           BR         NDA      ID1       ID2       ID3
     5.21936924E-02    3     1000022        -2         2   # BR(~chi_30 -> ~chi_10 ub      u)
     6.68575363E-02    3     1000022        -1         1   # BR(~chi_30 -> ~chi_10 db      d)
     5.21936924E-02    3     1000022        -4         4   # BR(~chi_30 -> ~chi_10 cb      c)
     6.68575363E-02    3     1000022        -3         3   # BR(~chi_30 -> ~chi_10 sb      s)
     9.46106211E-02    3     1000022        -5         5   # BR(~chi_30 -> ~chi_10 bb      b)
     1.51766845E-02    3     1000022       -11        11   # BR(~chi_30 -> ~chi_10 e+      e-)
     1.51766845E-02    3     1000022       -13        13   # BR(~chi_30 -> ~chi_10 mu+     mu-)
     1.52406643E-02    3     1000022       -15        15   # BR(~chi_30 -> ~chi_10 tau+    tau-)
     3.09148144E-02    3     1000022       -12        12   # BR(~chi_30 -> ~chi_10 nu_eb   nu_e)
     3.09148144E-02    3     1000022       -14        14   # BR(~chi_30 -> ~chi_10 nu_mub  nu_mu)
     3.10548353E-02    3     1000022       -16        16   # BR(~chi_30 -> ~chi_10 nu_taub nu_tau)
     1.39955961E-02    3     1000023        -2         2   # BR(~chi_30 -> ~chi_20 ub      u)
     1.81630889E-02    3     1000023        -1         1   # BR(~chi_30 -> ~chi_20 db      d)
     1.39955961E-02    3     1000023        -4         4   # BR(~chi_30 -> ~chi_20 cb      c)
     1.81630889E-02    3     1000023        -3         3   # BR(~chi_30 -> ~chi_20 sb      s)
     9.66736104E-03    3     1000023        -5         5   # BR(~chi_30 -> ~chi_20 bb      b)
     4.16984022E-03    3     1000023       -11        11   # BR(~chi_30 -> ~chi_20 e+      e-)
     4.16984022E-03    3     1000023       -13        13   # BR(~chi_30 -> ~chi_20 mu+     mu-)
     4.04582332E-03    3     1000023       -15        15   # BR(~chi_30 -> ~chi_20 tau+    tau-)
     8.33650008E-03    3     1000023       -12        12   # BR(~chi_30 -> ~chi_20 nu_eb   nu_e)
     8.33650008E-03    3     1000023       -14        14   # BR(~chi_30 -> ~chi_20 nu_mub  nu_mu)
     8.33647561E-03    3     1000023       -16        16   # BR(~chi_30 -> ~chi_20 nu_taub nu_tau)
     5.64982126E-02    3     1000024        -2         1   # BR(~chi_30 -> ~chi_1+ ub      d)
     5.64982126E-02    3    -1000024        -1         2   # BR(~chi_30 -> ~chi_1- db      u)
     5.64982126E-02    3     1000024        -4         3   # BR(~chi_30 -> ~chi_1+ cb      s)
     5.64982126E-02    3    -1000024        -3         4   # BR(~chi_30 -> ~chi_1- sb      c)
     1.88330061E-02    3     1000024       -12        11   # BR(~chi_30 -> ~chi_1+ nu_eb   e-)
     1.88330061E-02    3    -1000024        12       -11   # BR(~chi_30 -> ~chi_1- nu_e    e+)
     1.88330061E-02    3     1000024       -14        13   # BR(~chi_30 -> ~chi_1+ nu_mub  mu-)
     1.88330061E-02    3    -1000024        14       -13   # BR(~chi_30 -> ~chi_1- nu_mu   mu+)
     1.81705383E-02    3     1000024       -16        15   # BR(~chi_30 -> ~chi_1+ nu_taub tau-)
     1.81705383E-02    3    -1000024        16       -15   # BR(~chi_30 -> ~chi_1- nu_tau  tau+)
#
#         PDG            Width
DECAY   1000035     6.89222445E+01   # neutralino4 decays
#          BR         NDA      ID1       ID2
     1.10801723E-02    2     1000022        23   # BR(~chi_40 -> ~chi_10   Z )
     2.82189114E-02    2     1000023        23   # BR(~chi_40 -> ~chi_20   Z )
     3.74742793E-02    2     1000025        23   # BR(~chi_40 -> ~chi_30   Z )
     7.45751959E-02    2     1000024       -24   # BR(~chi_40 -> ~chi_1+   W-)
     7.45751959E-02    2    -1000024        24   # BR(~chi_40 -> ~chi_1-   W+)
     6.68541792E-03    2     1000022        25   # BR(~chi_40 -> ~chi_10   h )
     6.96699500E-05    2     1000022        35   # BR(~chi_40 -> ~chi_10   H )
     6.37675164E-04    2     1000022        36   # BR(~chi_40 -> ~chi_10   A )
     4.74870636E-02    2     1000023        25   # BR(~chi_40 -> ~chi_20   h )
     1.00524513E-03    2     1000023        35   # BR(~chi_40 -> ~chi_20   H )
     1.85962883E-05    2     1000023        36   # BR(~chi_40 -> ~chi_20   A )
     2.05124916E-02    2     1000025        25   # BR(~chi_40 -> ~chi_30   h )
     9.64282161E-04    2     1000024       -37   # BR(~chi_40 -> ~chi_1+   H-)
     9.64282161E-04    2    -1000024        37   # BR(~chi_40 -> ~chi_1-   H+)
     1.90416081E-09    2     2000002        -2   # BR(~chi_40 -> ~u_R      ub)
     1.90416081E-09    2    -2000002         2   # BR(~chi_40 -> ~u_R*     u )
     4.86550699E-09    2     2000001        -1   # BR(~chi_40 -> ~d_R      db)
     4.86550699E-09    2    -2000001         1   # BR(~chi_40 -> ~d_R*     d )
     1.90413956E-09    2     2000004        -4   # BR(~chi_40 -> ~c_R      cb)
     1.90413956E-09    2    -2000004         4   # BR(~chi_40 -> ~c_R*     c )
     4.86550699E-09    2     2000003        -3   # BR(~chi_40 -> ~s _R      sb)
     4.86550699E-09    2    -2000003         3   # BR(~chi_40 -> ~s _R*     s )
     1.70186585E-01    2     1000006        -6   # BR(~chi_40 -> ~t_1      tb)
     1.70186585E-01    2    -1000006         6   # BR(~chi_40 -> ~t_1*     t )
     7.96018292E-04    2     1000005        -5   # BR(~chi_40 -> ~b_1      bb)
     7.96018292E-04    2    -1000005         5   # BR(~chi_40 -> ~b_1*     b )
     1.71908087E-01    2     2000005        -5   # BR(~chi_40 -> ~b_2      bb)
     1.71908087E-01    2    -2000005         5   # BR(~chi_40 -> ~b_2*     b )
     4.76201524E-08    2     1000015       -15   # BR(~chi_40 -> ~tau_1-   tau+)
     4.76201524E-08    2    -1000015        15   # BR(~chi_40 -> ~tau_1+   tau-)
     2.46928053E-03    2     2000015       -15   # BR(~chi_40 -> ~tau_2-   tau+)
     2.46928053E-03    2    -2000015        15   # BR(~chi_40 -> ~tau_2+   tau-)
     2.50572815E-03    2     1000016       -16   # BR(~chi_40 -> ~nu_tau1  nu_taub)
     2.50572815E-03    2    -1000016        16   # BR(~chi_40 -> ~nu_tau1* nu_tau )
#
#         PDG            Width
DECAY        25     4.38115226E-03   # h decays
#          BR         NDA      ID1       ID2
     6.29802863E-01    2           5        -5   # BR(h -> b       bb     )
     5.96581158E-02    2         -15        15   # BR(h -> tau+    tau-   )
     2.11183166E-04    2         -13        13   # BR(h -> mu+     mu-    )
     2.30442235E-04    2           3        -3   # BR(h -> s       sb     )
     1.97853146E-02    2           4        -4   # BR(h -> c       cb     )
     7.33057959E-02    2          21        21   # BR(h -> g       g      )
     2.13821128E-03    2          22        22   # BR(h -> gam     gam    )
     1.41563203E-03    2          22        23   # BR(h -> Z       gam    )
     1.89757703E-01    2          24       -24   # BR(h -> W+      W-     )
     2.36947384E-02    2          23        23   # BR(h -> Z       Z      )
#
#         PDG            Width
DECAY        35     7.26270223E+01   # H decays
#          BR         NDA      ID1       ID2
     5.61592608E-01    2           5        -5   # BR(H -> b       bb     )
     1.22463395E-01    2         -15        15   # BR(H -> tau+    tau-   )
     4.38724030E-04    2         -13        13   # BR(H -> mu+     mu-    )
     2.65701683E-04    2           3        -3   # BR(H -> s       sb     )
     6.72965894E-09    2           4        -4   # BR(H -> c       cb     )
     6.55315313E-04    2           6        -6   # BR(H -> t       tb     )
     3.27939625E-05    2          21        21   # BR(H -> g       g      )
     8.60284715E-09    2          22        22   # BR(H -> gam     gam    )
     1.05220560E-08    2          23        22   # BR(H -> Z       gam    )
     7.57787175E-07    2          24       -24   # BR(H -> W+      W-     )
     3.77667556E-07    2          23        23   # BR(H -> Z       Z      )
     2.50548710E-06    2          25        25   # BR(H -> h       h      )
     4.77512210E-04    2     1000024  -1000024   # BR(H -> ~chi_1+ ~chi_1-)
     8.04203423E-03    2     1000022   1000022   # BR(H -> ~chi_10 ~chi_10)
     2.27386087E-06    2     1000023   1000023   # BR(H -> ~chi_20 ~chi_20)
     7.11153752E-03    2     1000025   1000025   # BR(H -> ~chi_30 ~chi_30)
     1.20684163E-02    2     1000022   1000023   # BR(H -> ~chi_10 ~chi_20)
     2.80074284E-03    2     1000022   1000025   # BR(H -> ~chi_10 ~chi_30)
     5.19921031E-03    2     1000023   1000025   # BR(H -> ~chi_20 ~chi_30)
     3.40363219E-05    2     1000006  -1000006   # BR(H -> ~t_1    ~t_1*  )
     3.01677371E-03    2     1000005  -1000005   # BR(H -> ~b_1    ~b_1*  )
     2.34107008E-03    2     2000005  -2000005   # BR(H -> ~b_2    ~b_2*  )
     1.36724880E-01    2     1000005  -2000005   # BR(H -> ~b_1    ~b_2*  )
     1.36724880E-01    2     2000005  -1000005   # BR(H -> ~b_2    ~b_1*  )
     4.42658441E-06    2     1000015  -1000015   # BR(H -> ~tau_1- ~tau_1+)
#
#         PDG            Width
DECAY        36     7.26322954E+01   # A decays
#          BR         NDA      ID1       ID2
     5.61567747E-01    2           5        -5   # BR(A -> b       bb     )
     1.22455185E-01    2         -15        15   # BR(A -> tau+    tau-   )
     4.38693504E-04    2         -13        13   # BR(A -> mu+     mu-    )
     2.65692810E-04    2           3        -3   # BR(A -> s       sb     )
     6.71720686E-09    2           4        -4   # BR(A -> c       cb     )
     6.58743339E-04    2           6        -6   # BR(A -> t       tb     )
     3.38047706E-05    2          21        21   # BR(A -> g       g      )
     3.11673552E-08    2          22        22   # BR(A -> gam     gam    )
     2.07130646E-08    2          23        22   # BR(A -> Z       gam    )
     7.65556898E-07    2          23        25   # BR(A -> Z       h      )
     5.18477178E-04    2     1000024  -1000024   # BR(A -> ~chi_1+ ~chi_1-)
     7.83248504E-03    2     1000022   1000022   # BR(A -> ~chi_10 ~chi_10)
     2.67038117E-06    2     1000023   1000023   # BR(A -> ~chi_20 ~chi_20)
     6.99621567E-03    2     1000025   1000025   # BR(A -> ~chi_30 ~chi_30)
     1.24728349E-02    2     1000022   1000023   # BR(A -> ~chi_10 ~chi_20)
     2.66112592E-03    2     1000022   1000025   # BR(A -> ~chi_10 ~chi_30)
     5.26615169E-03    2     1000023   1000025   # BR(A -> ~chi_20 ~chi_30)
     1.39414674E-01    2     1000005  -2000005   # BR(A -> ~b_1    ~b_2*  )
     1.39414674E-01    2    -1000005   2000005   # BR(A -> ~b_1*   ~b_2   )
#
#         PDG            Width
DECAY        37     1.34071314E+02   # H+ decays
#          BR         NDA      ID1       ID2
     4.30711214E-04    2           4        -5   # BR(H+ -> c       bb     )
     6.63940883E-02    2         -15        16   # BR(H+ -> tau+    nu_tau )
     2.37855629E-04    2         -13        14   # BR(H+ -> mu+     nu_mu  )
     4.30710329E-06    2           2        -5   # BR(H+ -> u       bb     )
     7.19699116E-06    2           2        -3   # BR(H+ -> u       sb     )
     1.41662096E-04    2           4        -3   # BR(H+ -> c       sb     )
     2.55839009E-01    2           6        -5   # BR(H+ -> t       bb     )
     4.16236775E-07    2          24        25   # BR(H+ -> W+      h      )
     2.13289662E-13    2          24        36   # BR(H+ -> W+      A      )
     1.48779263E-02    2     1000024   1000022   # BR(H+ -> ~chi_1+ ~chi_10)
     1.63657997E-04    2     1000024   1000023   # BR(H+ -> ~chi_1+ ~chi_20)
     4.15199816E-03    2     1000024   1000025   # BR(H+ -> ~chi_1+ ~chi_30)
     6.54917910E-01    2     1000006  -1000005   # BR(H+ -> ~t_1    ~b_1*  )
     2.83326046E-03    2     1000006  -2000005   # BR(H+ -> ~t_1    ~b_2*  )
