#
#                              ======================
#                              | THE SUSYHIT OUTPUT |
#                              ======================
#
#
#              ------------------------------------------------------
#              |     This is the output of the SUSY-HIT package     |
#              |  created by A.Djouadi, M.Muehlleitner and M.Spira. |
#              |  In case of problems with SUSY-HIT email to        |
#              |           margarete.muehlleitner@cern.ch           |
#              |           michael.spira@psi.ch                     |
#              |           abdelhak.djouadi@cern.ch                 |
#              ------------------------------------------------------
#
#              ------------------------------------------------------
#              |  SUSY Les Houches Accord - MSSM Spectrum + Decays  |
#              |              based on the decay programs           |
#              |                                                    |
#              |                     SDECAY 1.3b                    |
#              |                                                    |
#              |  Authors: M.Muhlleitner, A.Djouadi and Y.Mambrini  |
#              |  Ref.:    Comput.Phys.Commun.168(2005)46           |
#              |           [hep-ph/0311167]                         |
#              |                                                    |
#              |                     HDECAY 3.4                     |
#              |                                                    |
#              |  By: A.Djouadi,J.Kalinowski,M.Muhlleitner,M.Spira  |
#              |  Ref.:    Comput.Phys.Commun.108(1998)56           |
#              |           [hep-ph/9704448]                         |
#              |                                                    |
#              |                                                    |
#              |  If not stated otherwise all DRbar couplings and   |
#              |  soft SUSY breaking masses are given at the scale  |
#              |  Q=  0.17124530E+04
#              |                                                    |
#              ------------------------------------------------------
#
#
BLOCK DCINFO  # Decay Program information
     1   SDECAY/HDECAY # decay calculator
     2   1.3b  /3.4    # version number
#
BLOCK SPINFO  # Spectrum calculator information
     1     SOFTSUSY    # spectrum calculator               
     2     3.4.0       # version number                    
#
BLOCK MODSEL  # Model selection
     1     0   #  nonUniversal                                     
#
BLOCK SMINPUTS  # Standard Model inputs
         1     1.27908970E+02   # alpha_em^-1(M_Z)^MSbar
         2     1.16637870E-05   # G_F [GeV^-2]
         3     1.18400000E-01   # alpha_S(M_Z)^MSbar
         4     9.11876000E+01   # M_Z pole mass
         5     4.18000000E+00   # mb(mb)^MSbar
         6     1.73200000E+02   # mt pole mass
         7     1.77700000E+00   # mtau pole mass
#
BLOCK MINPAR  # Input parameters - minimal models
         3     1.08900000E+01   # tanb                
#
BLOCK EXTPAR  # Input parameters - non-minimal models
         0    -1.00000000E+00   # Set                 
         1     6.35600000E+01   # M_1(MX)             
         2     2.34695000E+03   # M_2(MX)             
         3     1.94880000E+03   # M_3(MX)             
        11     3.26328000E+03   # At(MX)              
        12    -2.48279000E+03   # Ab(MX)              
        13    -1.93656000E+03   # Atau(MX)            
        23     3.21830000E+02   # mu(MX)              
        26     1.25766000E+03   # mA(pole)            
        31     1.10245000E+03   # meL(MX)             
        32     1.10245000E+03   # mmuL(MX)            
        33     9.98930000E+02   # mtauL(MX)           
        34     9.50980000E+02   # meR(MX)             
        35     9.50980000E+02   # mmuR(MX)            
        36     2.43778000E+03   # mtauR(MX)           
        41     1.65631000E+03   # mqL1(MX)            
        42     1.65631000E+03   # mqL2(MX)            
        43     2.72479000E+03   # mqL3(MX)            
        44     2.45832000E+03   # muR(MX)             
        45     2.45832000E+03   # mcR(MX)             
        46     1.07951000E+03   # mtR(MX)             
        47     7.89490000E+02   # mdR(MX)             
        48     7.89490000E+02   # msR(MX)             
        49     3.26208000E+03   # mbR(MX)             
#
BLOCK MASS  # Mass Spectrum
# PDG code           mass       particle
        24     8.04125261E+01   # W+
        25     1.26139247E+02   # h
        35     1.25781598E+03   # H
        36     1.25765990E+03   # A
        37     1.26053332E+03   # H+
         5     4.81876030E+00   # b-quark pole mass calculated from mb(mb)_Msbar
   1000001     1.73735891E+03   # ~d_L
   2000001     8.80640818E+02   # ~d_R
   1000002     1.73572407E+03   # ~u_L
   2000002     2.50242473E+03   # ~u_R
   1000003     1.73735891E+03   # ~s_L
   2000003     8.80640818E+02   # ~s_R
   1000004     1.73572407E+03   # ~c_L
   2000004     2.50242473E+03   # ~c_R
   1000005     2.75045665E+03   # ~b_1
   2000005     3.29447042E+03   # ~b_2
   1000006     1.13105256E+03   # ~t_1
   2000006     2.75955434E+03   # ~t_2
   1000011     1.11669563E+03   # ~e_L
   2000011     9.56228043E+02   # ~e_R
   1000012     1.11367568E+03   # ~nu_eL
   1000013     1.11669563E+03   # ~mu_L
   2000013     9.56228043E+02   # ~mu_R
   1000014     1.11367568E+03   # ~nu_muL
   1000015     1.01318489E+03   # ~tau_1
   2000015     2.44083530E+03   # ~tau_2
   1000016     1.00989927E+03   # ~nu_tauL
   1000021     2.04070682E+03   # ~g
   1000022     6.05090351E+01   # ~chi_10
   1000023    -3.36391939E+02   # ~chi_20
   1000025     3.36677232E+02   # ~chi_30
   1000035     2.33000843E+03   # ~chi_40
   1000024     3.33128662E+02   # ~chi_1+
   1000037     2.33017581E+03   # ~chi_2+
#
BLOCK NMIX  # Neutralino Mixing Matrix
  1  1     9.89295801E-01   # N_11
  1  2    -1.67600626E-03   # N_12
  1  3     1.40880028E-01   # N_13
  1  4    -3.79977301E-02   # N_14
  2  1    -7.26642148E-02   # N_21
  2  2     1.83944980E-02   # N_22
  2  3     7.01609339E-01   # N_23
  2  4     7.08608418E-01   # N_24
  3  1    -1.26543324E-01   # N_31
  3  2    -2.93487159E-02   # N_32
  3  3     6.98452422E-01   # N_33
  3  4    -7.03768183E-01   # N_34
  4  1    -7.19629152E-04   # N_41
  4  2     9.99398562E-01   # N_42
  4  3     7.83375738E-03   # N_43
  4  4    -3.37731855E-02   # N_44
#
BLOCK UMIX  # Chargino Mixing Matrix U
  1  1    -1.10730510E-02   # U_11
  1  2     9.99938692E-01   # U_12
  2  1    -9.99938692E-01   # U_21
  2  2    -1.10730510E-02   # U_22
#
BLOCK VMIX  # Chargino Mixing Matrix V
  1  1    -4.77525071E-02   # V_11
  1  2     9.98859198E-01   # V_12
  2  1    -9.98859198E-01   # V_21
  2  2    -4.77525071E-02   # V_22
#
BLOCK STOPMIX  # Stop Mixing Matrix
  1  1    -7.37173783E-02   # cos(theta_t)
  1  2     9.97279173E-01   # sin(theta_t)
  2  1    -9.97279173E-01   # -sin(theta_t)
  2  2    -7.37173783E-02   # cos(theta_t)
#
BLOCK SBOTMIX  # Sbottom Mixing Matrix
  1  1     9.99990945E-01   # cos(theta_b)
  1  2     4.25557493E-03   # sin(theta_b)
  2  1    -4.25557493E-03   # -sin(theta_b)
  2  2     9.99990945E-01   # cos(theta_b)
#
BLOCK STAUMIX  # Stau Mixing Matrix
  1  1     9.99998138E-01   # cos(theta_tau)
  1  2     1.92976593E-03   # sin(theta_tau)
  2  1    -1.92976593E-03   # -sin(theta_tau)
  2  2     9.99998138E-01   # cos(theta_tau)
#
BLOCK ALPHA  # Higgs mixing
          -9.70889152E-02   # Mixing angle in the neutral Higgs boson sector
#
BLOCK HMIX Q=  1.71245300E+03  # DRbar Higgs Parameters
         1     3.26351819E+02   # mu(Q)MSSM           
         2     1.04306762E+01   # tan                 
         3     2.43245169E+02   # higgs               
         4     1.52203478E+06   # mA^2(Q)MSSM         
#
BLOCK GAUGE Q=  1.71245300E+03  # The gauge couplings
     1     3.63837219E-01   # gprime(Q) DRbar
     2     6.38404286E-01   # g(Q) DRbar
     3     1.03296493E+00   # g3(Q) DRbar
#
BLOCK AU Q=  1.71245300E+03  # The trilinear couplings
  1  1     0.00000000E+00   # A_u(Q) DRbar
  2  2     0.00000000E+00   # A_c(Q) DRbar
  3  3     3.26328000E+03   # A_t(Q) DRbar
#
BLOCK AD Q=  1.71245300E+03  # The trilinear couplings
  1  1     0.00000000E+00   # A_d(Q) DRbar
  2  2     0.00000000E+00   # A_s(Q) DRbar
  3  3    -2.48279000E+03   # A_b(Q) DRbar
#
BLOCK AE Q=  1.71245300E+03  # The trilinear couplings
  1  1     0.00000000E+00   # A_e(Q) DRbar
  2  2     0.00000000E+00   # A_mu(Q) DRbar
  3  3    -1.93656000E+03   # A_tau(Q) DRbar
#
BLOCK Yu Q=  1.71245300E+03  # The Yukawa couplings
  1  1     0.00000000E+00   # y_u(Q) DRbar
  2  2     0.00000000E+00   # y_c(Q) DRbar
  3  3     8.60891641E-01   # y_t(Q) DRbar
#
BLOCK Yd Q=  1.71245300E+03  # The Yukawa couplings
  1  1     0.00000000E+00   # y_d(Q) DRbar
  2  2     0.00000000E+00   # y_s(Q) DRbar
  3  3     1.41462180E-01   # y_b(Q) DRbar
#
BLOCK Ye Q=  1.71245300E+03  # The Yukawa couplings
  1  1     0.00000000E+00   # y_e(Q) DRbar
  2  2     0.00000000E+00   # y_mu(Q) DRbar
  3  3     1.08038272E-01   # y_tau(Q) DRbar
#
BLOCK MSOFT Q=  1.71245300E+03  # The soft SUSY breaking masses at the scale Q
         1     6.35600000E+01   # M_1(Q)              
         2     2.34695000E+03   # M_2(Q)              
         3     1.94880000E+03   # M_3(Q)              
        21     1.43021288E+06   # mH1^2(Q)            
        22    -1.25840000E+05   # mH2^2(Q)            
        31     1.10245000E+03   # meL(Q)              
        32     1.10245000E+03   # mmuL(Q)             
        33     9.98930000E+02   # mtauL(Q)            
        34     9.50980000E+02   # meR(Q)              
        35     9.50980000E+02   # mmuR(Q)             
        36     2.43778000E+03   # mtauR(Q)            
        41     1.65631000E+03   # mqL1(Q)             
        42     1.65631000E+03   # mqL2(Q)             
        43     2.72479000E+03   # mqL3(Q)             
        44     2.45832000E+03   # muR(Q)              
        45     2.45832000E+03   # mcR(Q)              
        46     1.07950999E+03   # mtR(Q)              
        47     7.89489994E+02   # mdR(Q)              
        48     7.89489994E+02   # msR(Q)              
        49     3.26208000E+03   # mbR(Q)              
#
Block HiggsBoundsInputHiggsCouplingsFermions
# ScalarNormEffCoupSq PseudoSNormEffCoupSq NP   IP1 IP2 IP2
    1.03174574E+00    0.00000000E+00        3  25   5   5  # h0-b-b eff. coupling^2, normalised to SM
    1.08767260E+02    0.00000000E+00        3  35   5   5  # H0-b-b eff. coupling^2, normalised to SM
    0.00000000E+00    1.08799006E+02        3  36   5   5  # A0-b-b eff. coupling^2, normalised to SM
#
    9.99708217E-01    0.00000000E+00        3  25   6   6  # h0-t-t eff. coupling^2, normalised to SM
    9.48304385E-03    0.00000000E+00        3  35   6   6  # H0-t-t eff. coupling^2, normalised to SM
    0.00000000E+00    9.19126044E-03        3  36   6   6  # A0-t-t eff. coupling^2, normalised to SM
#
    1.03174574E+00    0.00000000E+00        3  25  15  15  # h0-tau-tau eff. coupling^2, normalised to SM
    1.08767260E+02    0.00000000E+00        3  35  15  15  # H0-tau-tau eff. coupling^2, normalised to SM
    0.00000000E+00    1.08799006E+02        3  36  15  15  # A0-tau-tau eff. coupling^2, normalised to SM
#
Block HiggsBoundsInputHiggsCouplingsBosons
    9.99997720E-01        3  25  24  24  # h0-W-W eff. coupling^2, normalised to SM
    2.28000671E-06        3  35  24  24  # H0-W-W eff. coupling^2, normalised to SM
    0.00000000E+00        3  36  24  24  # A0-W-W eff. coupling^2, normalised to SM
#
    9.99997720E-01        3  25  23  23  # h0-Z-Z eff. coupling^2, normalised to SM
    2.28000671E-06        3  35  23  23  # H0-Z-Z eff. coupling^2, normalised to SM
    0.00000000E+00        3  36  23  23  # A0-Z-Z eff. coupling^2, normalised to SM
#
    8.84622021E-01        3  25  21  21  # h0-g-g eff. coupling^2, normalised to SM
    4.95574265E-08        3  35  21  21  # H0-g-g eff. coupling^2, normalised to SM
    4.88903230E-07        3  36  21  21  # A0-g-g eff. coupling^2, normalised to SM
#
    0.00000000E+00        3  25  25  23  # h0-h0-Z eff. coupling^2, normalised to SM
    0.00000000E+00        3  35  25  23  # H0-h0-Z eff. coupling^2, normalised to SM
    2.28000671E-06        3  36  25  23  # A0-h0-Z eff. coupling^2, normalised to SM
    0.00000000E+00        3  35  35  23  # H0-H0-Z eff. coupling^2, normalised to SM
    9.99997720E-01        3  36  35  23  # A0-H0-Z eff. coupling^2, normalised to SM
    0.00000000E+00        3  36  36  23  # A0-A0-Z eff. coupling^2, normalised to SM
#
    0.00000000E+00        4  25  21  21  23  # h0-g-g-Z eff. coupling^2, normalised to SM
    0.00000000E+00        4  35  21  21  23  # H0-g-g-Z eff. coupling^2, normalised to SM
    0.00000000E+00        4  36  21  21  23  # A0-g-g-Z eff. coupling^2, normalised to SM
#
#
#
#                             =================
#                             |The decay table|
#                             =================
#
# - The QCD corrections to the decays gluino -> squark  + quark
#                                     squark -> gaugino + quark_prime
#                                     squark -> squark_prime + Higgs
#                                     squark -> gluino  + quark
#   are included.
#
# - The multi-body decays for the inos, stops and sbottoms are included.
#
# - The loop induced decays for the gluino, neutralinos and stops
#   are included.
#
# - The SUSY decays of the top quark are included.
#
#
#         PDG            Width
DECAY         6     1.43435818E+00   # top decays
#          BR         NDA      ID1       ID2
     1.00000000E+00    2           5        24   # BR(t ->  b    W+)
#
#         PDG            Width
DECAY   1000021     8.58319639E+01   # gluino decays
#          BR         NDA      ID1       ID2
     1.79240823E-02    2     1000001        -1   # BR(~g -> ~d_L  db)
     1.79240823E-02    2    -1000001         1   # BR(~g -> ~d_L* d )
     1.56728428E-01    2     2000001        -1   # BR(~g -> ~d_R  db)
     1.56728428E-01    2    -2000001         1   # BR(~g -> ~d_R* d )
     1.81021239E-02    2     1000002        -2   # BR(~g -> ~u_L  ub)
     1.81021239E-02    2    -1000002         2   # BR(~g -> ~u_L* u )
     1.79240823E-02    2     1000003        -3   # BR(~g -> ~s_L  sb)
     1.79240823E-02    2    -1000003         3   # BR(~g -> ~s_L* s )
     1.56728428E-01    2     2000003        -3   # BR(~g -> ~s_R  sb)
     1.56728428E-01    2    -2000003         3   # BR(~g -> ~s_R* s )
     1.81018994E-02    2     1000004        -4   # BR(~g -> ~c_L  cb)
     1.81018994E-02    2    -1000004         4   # BR(~g -> ~c_L* c )
     1.14490957E-01    2     1000006        -6   # BR(~g -> ~t_1  tb)
     1.14490957E-01    2    -1000006         6   # BR(~g -> ~t_1* t )
#
#         PDG            Width
DECAY   1000006     2.93900573E+01   # stop1 decays
#          BR         NDA      ID1       ID2
     8.27211471E-02    2     1000022         6   # BR(~t_1 -> ~chi_10 t )
     2.20943868E-01    2     1000023         6   # BR(~t_1 -> ~chi_20 t )
     2.29107314E-01    2     1000025         6   # BR(~t_1 -> ~chi_30 t )
     4.67227671E-01    2     1000024         5   # BR(~t_1 -> ~chi_1+ b )
#
#         PDG            Width
DECAY   2000006     1.20157181E+02   # stop2 decays
#          BR         NDA      ID1       ID2
     4.52012257E-03    2     1000022         6   # BR(~t_2 -> ~chi_10 t )
     1.65140847E-01    2     1000023         6   # BR(~t_2 -> ~chi_20 t )
     1.60377140E-01    2     1000025         6   # BR(~t_2 -> ~chi_30 t )
     7.16719660E-03    2     1000035         6   # BR(~t_2 -> ~chi_40 t )
     1.27273325E-02    2     1000024         5   # BR(~t_2 -> ~chi_1+ b )
     1.50733861E-02    2     1000037         5   # BR(~t_2 -> ~chi_2+ b )
     2.64450772E-01    2     1000021         6   # BR(~t_2 -> ~g      t )
     1.86716908E-01    2     1000006        25   # BR(~t_2 -> ~t_1    h )
     4.47540515E-03    2     1000006        35   # BR(~t_2 -> ~t_1    H )
     4.50240922E-03    2     1000006        36   # BR(~t_2 -> ~t_1    A )
     1.74848480E-01    2     1000006        23   # BR(~t_2 -> ~t_1    Z )
#
#         PDG            Width
DECAY   1000005     1.16011259E+02   # sbottom1 decays
#          BR         NDA      ID1       ID2
     3.65997806E-03    2     1000022         5   # BR(~b_1 -> ~chi_10 b )
     4.59399324E-03    2     1000023         5   # BR(~b_1 -> ~chi_20 b )
     4.46268094E-03    2     1000025         5   # BR(~b_1 -> ~chi_30 b )
     7.65561452E-03    2     1000035         5   # BR(~b_1 -> ~chi_40 b )
     3.35780422E-01    2    -1000024         6   # BR(~b_1 -> ~chi_1- t )
     1.44838602E-02    2    -1000037         6   # BR(~b_1 -> ~chi_2- t )
     2.71179111E-01    2     1000021         5   # BR(~b_1 -> ~g      b )
     9.17154551E-03    2     1000006       -37   # BR(~b_1 -> ~t_1    H-)
     3.49012795E-01    2     1000006       -24   # BR(~b_1 -> ~t_1    W-)
#
#         PDG            Width
DECAY   2000005     7.53520106E+01   # sbottom2 decays
#          BR         NDA      ID1       ID2
     2.53322875E-02    2     1000022         5   # BR(~b_2 -> ~chi_10 b )
     8.54155026E-03    2     1000023         5   # BR(~b_2 -> ~chi_20 b )
     8.73101280E-03    2     1000025         5   # BR(~b_2 -> ~chi_30 b )
     1.99682849E-06    2     1000035         5   # BR(~b_2 -> ~chi_40 b )
     1.69670909E-02    2    -1000024         6   # BR(~b_2 -> ~chi_1- t )
     3.95042918E-06    2    -1000037         6   # BR(~b_2 -> ~chi_2- t )
     9.40008121E-01    2     1000021         5   # BR(~b_2 -> ~g      b )
     7.57996005E-05    2     1000005        25   # BR(~b_2 -> ~b_1    h )
     1.06694820E-04    2     1000006       -37   # BR(~b_2 -> ~t_1    H-)
     7.39415261E-05    2     1000005        23   # BR(~b_2 -> ~b_1    Z )
     2.00469446E-05    2     1000006       -24   # BR(~b_2 -> ~t_1    W-)
     1.37507646E-04    2     2000006       -24   # BR(~b_2 -> ~t_2    W-)
#
#         PDG            Width
DECAY   1000002     2.86250904E-01   # sup_L decays
#          BR         NDA      ID1       ID2
     8.33613965E-01    2     1000022         2   # BR(~u_L -> ~chi_10 u)
     4.71328229E-04    2     1000023         2   # BR(~u_L -> ~chi_20 u)
     6.37493781E-02    2     1000025         2   # BR(~u_L -> ~chi_30 u)
     1.02165329E-01    2     1000024         1   # BR(~u_L -> ~chi_1+ d)
#
#         PDG            Width
DECAY   2000002     2.75244317E+01   # sup_R decays
#          BR         NDA      ID1       ID2
     1.97514705E-01    2     1000022         2   # BR(~u_R -> ~chi_10 u)
     1.03133912E-03    2     1000023         2   # BR(~u_R -> ~chi_20 u)
     3.12761108E-03    2     1000025         2   # BR(~u_R -> ~chi_30 u)
     1.99267289E-09    2     1000035         2   # BR(~u_R -> ~chi_40 u)
     7.98326343E-01    2     1000021         2   # BR(~u_R -> ~g      u)
#
#         PDG            Width
DECAY   1000001     2.55902257E-01   # sdown_L decays
#          BR         NDA      ID1       ID2
     9.67175876E-01    2     1000022         1   # BR(~d_L -> ~chi_10 d)
     2.59671439E-02    2     1000023         1   # BR(~d_L -> ~chi_20 d)
     7.05857846E-04    2     1000025         1   # BR(~d_L -> ~chi_30 d)
     6.15112260E-03    2    -1000024         2   # BR(~d_L -> ~chi_1- u)
#
#         PDG            Width
DECAY   2000001     5.18466843E-01   # sdown_R decays
#          BR         NDA      ID1       ID2
     9.84192706E-01    2     1000022         1   # BR(~d_R -> ~chi_10 d)
     3.92142612E-03    2     1000023         1   # BR(~d_R -> ~chi_20 d)
     1.18858676E-02    2     1000025         1   # BR(~d_R -> ~chi_30 d)
#
#         PDG            Width
DECAY   1000004     2.92022947E-01   # scharm_L decays
#          BR         NDA      ID1       ID2
     8.33969714E-01    2     1000022         4   # BR(~c_L -> ~chi_10 c)
     4.70312927E-04    2     1000023         4   # BR(~c_L -> ~chi_20 c)
     6.36119100E-02    2     1000025         4   # BR(~c_L -> ~chi_30 c)
     1.01948063E-01    2     1000024         3   # BR(~c_L -> ~chi_1+ s)
#
#         PDG            Width
DECAY   2000004     2.17414225E+01   # scharm_R decays
#          BR         NDA      ID1       ID2
     2.63395951E-01    2     1000022         4   # BR(~c_R -> ~chi_10 c)
     1.37172348E-03    2     1000023         4   # BR(~c_R -> ~chi_20 c)
     4.15984122E-03    2     1000025         4   # BR(~c_R -> ~chi_30 c)
     2.47006265E-09    2     1000035         4   # BR(~c_R -> ~chi_40 c)
     7.31072482E-01    2     1000021         4   # BR(~c_R -> ~g      c)
#
#         PDG            Width
DECAY   1000003     2.61173411E-01   # sstrange_L decays
#          BR         NDA      ID1       ID2
     9.67257625E-01    2     1000022         3   # BR(~s_L -> ~chi_10 s)
     2.59023524E-02    2     1000023         3   # BR(~s_L -> ~chi_20 s)
     7.04095046E-04    2     1000025         3   # BR(~s_L -> ~chi_30 s)
     6.13592761E-03    2    -1000024         4   # BR(~s_L -> ~chi_1- c)
#
#         PDG            Width
DECAY   2000003     5.07659557E-01   # sstrange_R decays
#          BR         NDA      ID1       ID2
     9.84237826E-01    2     1000022         3   # BR(~s_R -> ~chi_10 s)
     3.91024230E-03    2     1000023         3   # BR(~s_R -> ~chi_20 s)
     1.18519315E-02    2     1000025         3   # BR(~s_R -> ~chi_30 s)
#
#         PDG            Width
DECAY   1000011     1.46362974E+00   # selectron_L decays
#          BR         NDA      ID1       ID2
     9.71696146E-01    2     1000022        11   # BR(~e_L -> ~chi_10 e-)
     1.35488951E-03    2     1000023        11   # BR(~e_L -> ~chi_20 e-)
     2.63194527E-02    2     1000025        11   # BR(~e_L -> ~chi_30 e-)
     6.29511460E-04    2    -1000024        12   # BR(~e_L -> ~chi_1- nu_e)
#
#         PDG            Width
DECAY   2000011     4.97224987E+00   # selectron_R decays
#          BR         NDA      ID1       ID2
     9.83445391E-01    2     1000022        11   # BR(~e_R -> ~chi_10 e-)
     4.10651726E-03    2     1000023        11   # BR(~e_R -> ~chi_20 e-)
     1.24480913E-02    2     1000025        11   # BR(~e_R -> ~chi_30 e-)
#
#         PDG            Width
DECAY   1000013     1.46362971E+00   # smuon_L decays
#          BR         NDA      ID1       ID2
     9.71696146E-01    2     1000022        13   # BR(~mu_L -> ~chi_10 mu-)
     1.35488951E-03    2     1000023        13   # BR(~mu_L -> ~chi_20 mu-)
     2.63194526E-02    2     1000025        13   # BR(~mu_L -> ~chi_30 mu-)
     6.29511472E-04    2    -1000024        14   # BR(~mu_L -> ~chi_1- nu_mu)
#
#         PDG            Width
DECAY   2000013     4.97224975E+00   # smuon_R decays
#          BR         NDA      ID1       ID2
     9.83445392E-01    2     1000022        13   # BR(~mu_R -> ~chi_10 mu-)
     4.10651723E-03    2     1000023        13   # BR(~mu_R -> ~chi_20 mu-)
     1.24480912E-02    2     1000025        13   # BR(~mu_R -> ~chi_30 mu-)
#
#         PDG            Width
DECAY   1000015     1.51194603E+00   # stau_1 decays
#          BR         NDA      ID1       ID2
     8.55665353E-01    2     1000022        15   # BR(~tau_1 -> ~chi_10  tau-)
     6.17207942E-02    2     1000023        15   # BR(~tau_1 -> ~chi_20  tau-)
     8.20521845E-02    2     1000025        15   # BR(~tau_1 -> ~chi_30  tau-)
     5.61668054E-04    2    -1000024        16   # BR(~tau_1 -> ~chi_1-  nu_tau)
#
#         PDG            Width
DECAY   2000015     1.42108531E+01   # stau_2 decays
#          BR         NDA      ID1       ID2
     8.85057387E-01    2     1000022        15   # BR(~tau_2 -> ~chi_10  tau-)
     2.35137418E-02    2     1000023        15   # BR(~tau_2 -> ~chi_20  tau-)
     3.26895232E-02    2     1000025        15   # BR(~tau_2 -> ~chi_30  tau-)
     8.35567809E-08    2     1000035        15   # BR(~tau_2 -> ~chi_40  tau-)
     3.83978780E-02    2    -1000024        16   # BR(~tau_2 -> ~chi_1-  nu_tau)
     1.58220934E-07    2    -1000037        16   # BR(~tau_2 -> ~chi_2-  nu_tau)
     8.79184048E-03    2     1000016       -37   # BR(~tau_2 -> ~nu_tauL H-)
     1.35269227E-03    2     1000016       -24   # BR(~tau_2 -> ~nu_tauL W-)
     7.24515263E-04    2     1000015        25   # BR(~tau_2 -> ~tau_1   h)
     4.38685467E-03    2     1000015        35   # BR(~tau_2 -> ~tau_1   H)
     4.39247934E-03    2     1000015        36   # BR(~tau_2 -> ~tau_1   A)
     6.92846630E-04    2     1000015        23   # BR(~tau_2 -> ~tau_1   Z)
#
#         PDG            Width
DECAY   1000012     1.47250325E+00   # snu_eL decays
#          BR         NDA      ID1       ID2
     9.74719021E-01    2     1000022        12   # BR(~nu_eL -> ~chi_10 nu_e)
     9.05731754E-03    2     1000023        12   # BR(~nu_eL -> ~chi_20 nu_e)
     4.63056687E-03    2     1000025        12   # BR(~nu_eL -> ~chi_30 nu_e)
     1.15930941E-02    2     1000024        11   # BR(~nu_eL -> ~chi_1+ e-)
#
#         PDG            Width
DECAY   1000014     1.47250325E+00   # snu_muL decays
#          BR         NDA      ID1       ID2
     9.74719022E-01    2     1000022        14   # BR(~nu_muL -> ~chi_10 nu_mu)
     9.05731754E-03    2     1000023        14   # BR(~nu_muL -> ~chi_20 nu_mu)
     4.63056687E-03    2     1000025        14   # BR(~nu_muL -> ~chi_30 nu_mu)
     1.15930939E-02    2     1000024        13   # BR(~nu_muL -> ~chi_1+ mu-)
#
#         PDG            Width
DECAY   1000016     1.51828198E+00   # snu_tauL decays
#          BR         NDA      ID1       ID2
     8.56143817E-01    2     1000022        16   # BR(~nu_tauL -> ~chi_10 nu_tau)
     7.62381681E-03    2     1000023        16   # BR(~nu_tauL -> ~chi_20 nu_tau)
     3.89736469E-03    2     1000025        16   # BR(~nu_tauL -> ~chi_30 nu_tau)
     1.32335002E-01    2     1000024        15   # BR(~nu_tauL -> ~chi_1+ tau-)
#
#         PDG            Width
DECAY   1000024     2.13579790E-01   # chargino1+ decays
#          BR         NDA      ID1       ID2
     1.00000000E+00    2     1000022        24   # BR(~chi_1+ -> ~chi_10  W+)
#
#         PDG            Width
DECAY   1000037     8.39733785E+01   # chargino2+ decays
#          BR         NDA      ID1       ID2
     6.49514055E-02    2     1000002        -1   # BR(~chi_2+ -> ~u_L     db)
     6.47915189E-02    2    -1000001         2   # BR(~chi_2+ -> ~d_L*    u )
     6.49513944E-02    2     1000004        -3   # BR(~chi_2+ -> ~c_L     sb)
     6.47913420E-02    2    -1000003         4   # BR(~chi_2+ -> ~s_L*     c )
     3.74728216E-03    2     1000006        -5   # BR(~chi_2+ -> ~t_1     bb)
     6.68198871E-02    2     1000012       -11   # BR(~chi_2+ -> ~nu_eL   e+  )
     6.68198871E-02    2     1000014       -13   # BR(~chi_2+ -> ~nu_muL mu+ )
     7.40343357E-02    2     1000016       -15   # BR(~chi_2+ -> ~nu_tau1 tau+)
     6.67492415E-02    2    -1000011        12   # BR(~chi_2+ -> ~e_L+    nu_e)
     6.67492415E-02    2    -1000013        14   # BR(~chi_2+ -> ~mu_L+   nu_mu)
     7.39704155E-02    2    -1000015        16   # BR(~chi_2+ -> ~tau_1+  nu_tau)
     5.47976222E-02    2     1000024        23   # BR(~chi_2+ -> ~chi_1+  Z )
     4.53440305E-05    2     1000022        24   # BR(~chi_2+ -> ~chi_10  W+)
     5.33089875E-02    2     1000023        24   # BR(~chi_2+ -> ~chi_20  W+)
     5.32646589E-02    2     1000025        24   # BR(~chi_2+ -> ~chi_30  W+)
     5.87494452E-02    2     1000024        25   # BR(~chi_2+ -> ~chi_1+  h )
     2.53542498E-02    2     1000024        35   # BR(~chi_2+ -> ~chi_1+  H )
     2.54035019E-02    2     1000024        36   # BR(~chi_2+ -> ~chi_1+  A )
     1.03610946E-03    2     1000022        37   # BR(~chi_2+ -> ~chi_10  H+)
     2.49257727E-02    2     1000023        37   # BR(~chi_2+ -> ~chi_20  H+)
     2.47383570E-02    2     1000025        37   # BR(~chi_2+ -> ~chi_30  H+)
#
#         PDG            Width
DECAY   1000022     0.00000000E+00   # neutralino1 decays
#
#         PDG            Width
DECAY   1000023     1.98470462E-01   # neutralino2 decays
#          BR         NDA      ID1       ID2
     8.03001538E-01    2     1000022        23   # BR(~chi_20 -> ~chi_10   Z )
     1.96998462E-01    2     1000022        25   # BR(~chi_20 -> ~chi_10   h )
#
#         PDG            Width
DECAY   1000025     1.91003694E-01   # neutralino3 decays
#          BR         NDA      ID1       ID2
     3.18269993E-01    2     1000022        23   # BR(~chi_30 -> ~chi_10   Z )
     6.81730007E-01    2     1000022        25   # BR(~chi_30 -> ~chi_10   h )
#
#         PDG            Width
DECAY   1000035     8.39398716E+01   # neutralino4 decays
#          BR         NDA      ID1       ID2
     1.56851528E-06    2     1000022        23   # BR(~chi_40 -> ~chi_10   Z )
     3.95117198E-02    2     1000023        23   # BR(~chi_40 -> ~chi_20   Z )
     1.53147950E-02    2     1000025        23   # BR(~chi_40 -> ~chi_30   Z )
     5.32864588E-02    2     1000024       -24   # BR(~chi_40 -> ~chi_1+   W-)
     5.32864588E-02    2    -1000024        24   # BR(~chi_40 -> ~chi_1-   W+)
     6.03645374E-05    2     1000022        25   # BR(~chi_40 -> ~chi_10   h )
     5.43577712E-04    2     1000022        35   # BR(~chi_40 -> ~chi_10   H )
     4.95461677E-04    2     1000022        36   # BR(~chi_40 -> ~chi_10   A )
     1.61521827E-02    2     1000023        25   # BR(~chi_40 -> ~chi_20   h )
     9.77386867E-03    2     1000023        35   # BR(~chi_40 -> ~chi_20   H )
     1.52976194E-02    2     1000023        36   # BR(~chi_40 -> ~chi_20   A )
     4.24994148E-02    2     1000025        25   # BR(~chi_40 -> ~chi_30   h )
     1.50895096E-02    2     1000025        35   # BR(~chi_40 -> ~chi_30   H )
     9.66009568E-03    2     1000025        36   # BR(~chi_40 -> ~chi_30   A )
     2.53085271E-02    2     1000024       -37   # BR(~chi_40 -> ~chi_1+   H-)
     2.53085271E-02    2    -1000024        37   # BR(~chi_40 -> ~chi_1-   H+)
     3.25010647E-02    2     1000002        -2   # BR(~chi_40 -> ~u_L      ub)
     3.25010647E-02    2    -1000002         2   # BR(~chi_40 -> ~u_L*     u )
     3.23687539E-02    2     1000001        -1   # BR(~chi_40 -> ~d_L      db)
     3.23687539E-02    2    -1000001         1   # BR(~chi_40 -> ~d_L*     d )
     8.85989341E-09    2     2000001        -1   # BR(~chi_40 -> ~d_R      db)
     8.85989341E-09    2    -2000001         1   # BR(~chi_40 -> ~d_R*     d )
     3.25009764E-02    2     1000004        -4   # BR(~chi_40 -> ~c_L      cb)
     3.25009764E-02    2    -1000004         4   # BR(~chi_40 -> ~c_L*     c )
     3.23687539E-02    2     1000003        -3   # BR(~chi_40 -> ~s _L      sb)
     3.23687539E-02    2    -1000003         3   # BR(~chi_40 -> ~s _L*     s )
     8.85989341E-09    2     2000003        -3   # BR(~chi_40 -> ~s _R      sb)
     8.85989341E-09    2    -2000003         3   # BR(~chi_40 -> ~s _R*     s )
     1.84176946E-03    2     1000006        -6   # BR(~chi_40 -> ~t_1      tb)
     1.84176946E-03    2    -1000006         6   # BR(~chi_40 -> ~t_1*     t )
     3.33192666E-02    2     1000011       -11   # BR(~chi_40 -> ~e_L-     e+)
     3.33192666E-02    2    -1000011        11   # BR(~chi_40 -> ~e_L+     e-)
     2.61790183E-08    2     2000011       -11   # BR(~chi_40 -> ~e_R-     e+)
     2.61790183E-08    2    -2000011        11   # BR(~chi_40 -> ~e_R+     e-)
     3.33192666E-02    2     1000013       -13   # BR(~chi_40 -> ~mu_L-    mu+)
     3.33192666E-02    2    -1000013        13   # BR(~chi_40 -> ~mu_L+    mu-)
     2.61790183E-08    2     2000013       -13   # BR(~chi_40 -> ~mu_R-    mu+)
     2.61790183E-08    2    -2000013        13   # BR(~chi_40 -> ~mu_R+    mu-)
     3.69244115E-02    2     1000015       -15   # BR(~chi_40 -> ~tau_1-   tau+)
     3.69244115E-02    2    -1000015        15   # BR(~chi_40 -> ~tau_1+   tau-)
     3.34815992E-02    2     1000012       -12   # BR(~chi_40 -> ~nu_eL    nu_eb)
     3.34815992E-02    2    -1000012        12   # BR(~chi_40 -> ~nu_eL*   nu_e )
     3.34815992E-02    2     1000014       -14   # BR(~chi_40 -> ~nu_muL   nu_mub)
     3.34815992E-02    2    -1000014        14   # BR(~chi_40 -> ~nu_muL*  nu_mu )
     3.70973936E-02    2     1000016       -16   # BR(~chi_40 -> ~nu_tau1  nu_taub)
     3.70973936E-02    2    -1000016        16   # BR(~chi_40 -> ~nu_tau1* nu_tau )
#
#         PDG            Width
DECAY        25     4.31058679E-03   # h decays
#          BR         NDA      ID1       ID2
     5.85068277E-01    2           5        -5   # BR(h -> b       bb     )
     6.24816728E-02    2         -15        15   # BR(h -> tau+    tau-   )
     2.21155853E-04    2         -13        13   # BR(h -> mu+     mu-    )
     2.40763090E-04    2           3        -3   # BR(h -> s       sb     )
     2.02613574E-02    2           4        -4   # BR(h -> c       cb     )
     7.58614177E-02    2          21        21   # BR(h -> g       g      )
     2.27157093E-03    2          22        22   # BR(h -> gam     gam    )
     1.60362093E-03    2          22        23   # BR(h -> Z       gam    )
     2.19813698E-01    2          24       -24   # BR(h -> W+      W-     )
     2.80177780E-02    2          23        23   # BR(h -> Z       Z      )
     4.15868799E-03    2     1000022   1000022   # BR(h -> ~chi_10 ~chi_10)
#
#         PDG            Width
DECAY        35     3.82354764E+00   # H decays
#          BR         NDA      ID1       ID2
     4.42609538E-01    2           5        -5   # BR(H -> b       bb     )
     7.29898646E-02    2         -15        15   # BR(H -> tau+    tau-   )
     2.57938409E-04    2         -13        13   # BR(H -> mu+     mu-    )
     1.76682390E-04    2           3        -3   # BR(H -> s       sb     )
     1.44636529E-06    2           4        -4   # BR(H -> c       cb     )
     1.33686065E-01    2           6        -6   # BR(H -> t       tb     )
     1.22459101E-04    2          21        21   # BR(H -> g       g      )
     7.42241105E-07    2          22        22   # BR(H -> gam     gam    )
     1.53789625E-07    2          23        22   # BR(H -> Z       gam    )
     3.73373773E-04    2          24       -24   # BR(H -> W+      W-     )
     1.85155264E-04    2          23        23   # BR(H -> Z       Z      )
     1.35345470E-03    2          25        25   # BR(H -> h       h      )
     3.67654287E-03    2     1000024  -1000024   # BR(H -> ~chi_1+ ~chi_1-)
     1.44560976E-02    2     1000022   1000022   # BR(H -> ~chi_10 ~chi_10)
     3.24753324E-03    2     1000023   1000023   # BR(H -> ~chi_20 ~chi_20)
     9.71069020E-04    2     1000025   1000025   # BR(H -> ~chi_30 ~chi_30)
     1.96088621E-01    2     1000022   1000023   # BR(H -> ~chi_10 ~chi_20)
     1.24776693E-01    2     1000022   1000025   # BR(H -> ~chi_10 ~chi_30)
     5.02656936E-03    2     1000023   1000025   # BR(H -> ~chi_20 ~chi_30)
#
#         PDG            Width
DECAY        36     3.84241140E+00   # A decays
#          BR         NDA      ID1       ID2
     4.40638199E-01    2           5        -5   # BR(A -> b       bb     )
     7.26444620E-02    2         -15        15   # BR(A -> tau+    tau-   )
     2.56715767E-04    2         -13        13   # BR(A -> mu+     mu-    )
     1.75964364E-04    2           3        -3   # BR(A -> s       sb     )
     1.40760620E-06    2           4        -4   # BR(A -> c       cb     )
     1.36554905E-01    2           6        -6   # BR(A -> t       tb     )
     3.82087116E-04    2          21        21   # BR(A -> g       g      )
     1.21979023E-06    2          22        22   # BR(A -> gam     gam    )
     3.25877608E-07    2          23        22   # BR(A -> Z       gam    )
     3.69704238E-04    2          23        25   # BR(A -> Z       h      )
     5.56245318E-03    2     1000024  -1000024   # BR(A -> ~chi_1+ ~chi_1-)
     1.61183900E-02    2     1000022   1000022   # BR(A -> ~chi_10 ~chi_10)
     3.06109261E-03    2     1000023   1000023   # BR(A -> ~chi_20 ~chi_20)
     2.00279703E-03    2     1000025   1000025   # BR(A -> ~chi_30 ~chi_30)
     1.23446875E-01    2     1000022   1000023   # BR(A -> ~chi_10 ~chi_20)
     1.94931976E-01    2     1000022   1000025   # BR(A -> ~chi_10 ~chi_30)
     3.85142608E-03    2     1000023   1000025   # BR(A -> ~chi_20 ~chi_30)
#
#         PDG            Width
DECAY        37     3.74691428E+00   # H+ decays
#          BR         NDA      ID1       ID2
     7.36509939E-04    2           4        -5   # BR(H+ -> c       bb     )
     7.46661469E-02    2         -15        16   # BR(H+ -> tau+    nu_tau )
     2.63860125E-04    2         -13        14   # BR(H+ -> mu+     nu_mu  )
     7.36503095E-06    2           2        -5   # BR(H+ -> u       bb     )
     9.01271316E-06    2           2        -3   # BR(H+ -> u       sb     )
     1.78780864E-04    2           4        -3   # BR(H+ -> c       sb     )
     5.69558578E-01    2           6        -5   # BR(H+ -> t       bb     )
     3.83196685E-04    2          24        25   # BR(H+ -> W+      h      )
     6.86283496E-11    2          24        36   # BR(H+ -> W+      A      )
     3.46294606E-01    2     1000024   1000022   # BR(H+ -> ~chi_1+ ~chi_10)
     1.15571441E-04    2     1000024   1000023   # BR(H+ -> ~chi_1+ ~chi_20)
     7.78637197E-03    2     1000024   1000025   # BR(H+ -> ~chi_1+ ~chi_30)
