#
#                              ======================
#                              | THE SUSYHIT OUTPUT |
#                              ======================
#
#
#              ------------------------------------------------------
#              |     This is the output of the SUSY-HIT package     |
#              |  created by A.Djouadi, M.Muehlleitner and M.Spira. |
#              |  In case of problems with SUSY-HIT email to        |
#              |           margarete.muehlleitner@cern.ch           |
#              |           michael.spira@psi.ch                     |
#              |           abdelhak.djouadi@cern.ch                 |
#              ------------------------------------------------------
#
#              ------------------------------------------------------
#              |  SUSY Les Houches Accord - MSSM Spectrum + Decays  |
#              |              based on the decay programs           |
#              |                                                    |
#              |                     SDECAY 1.3b                    |
#              |                                                    |
#              |  Authors: M.Muhlleitner, A.Djouadi and Y.Mambrini  |
#              |  Ref.:    Comput.Phys.Commun.168(2005)46           |
#              |           [hep-ph/0311167]                         |
#              |                                                    |
#              |                     HDECAY 3.4                     |
#              |                                                    |
#              |  By: A.Djouadi,J.Kalinowski,M.Muhlleitner,M.Spira  |
#              |  Ref.:    Comput.Phys.Commun.108(1998)56           |
#              |           [hep-ph/9704448]                         |
#              |                                                    |
#              |                                                    |
#              |  If not stated otherwise all DRbar couplings and   |
#              |  soft SUSY breaking masses are given at the scale  |
#              |  Q=  0.32439160E+04
#              |                                                    |
#              ------------------------------------------------------
#
#
BLOCK DCINFO  # Decay Program information
     1   SDECAY/HDECAY # decay calculator
     2   1.3b  /3.4    # version number
#
BLOCK SPINFO  # Spectrum calculator information
     1     SOFTSUSY    # spectrum calculator               
     2     3.4.0       # version number                    
#
BLOCK MODSEL  # Model selection
     1     0   #  nonUniversal                                     
#
BLOCK SMINPUTS  # Standard Model inputs
         1     1.27908970E+02   # alpha_em^-1(M_Z)^MSbar
         2     1.16637870E-05   # G_F [GeV^-2]
         3     1.18400000E-01   # alpha_S(M_Z)^MSbar
         4     9.11876000E+01   # M_Z pole mass
         5     4.18000000E+00   # mb(mb)^MSbar
         6     1.73200000E+02   # mt pole mass
         7     1.77700000E+00   # mtau pole mass
#
BLOCK MINPAR  # Input parameters - minimal models
         3     2.43300000E+01   # tanb                
#
BLOCK EXTPAR  # Input parameters - non-minimal models
         0    -1.00000000E+00   # Set                 
         1     7.26610000E+02   # M_1(MX)             
         2     2.88760000E+03   # M_2(MX)             
         3     5.85760000E+02   # M_3(MX)             
        11     3.72754000E+03   # At(MX)              
        12    -1.01324000E+03   # Ab(MX)              
        13    -3.38224000E+03   # Atau(MX)            
        23    -2.55675000E+03   # mu(MX)              
        26     3.40361000E+03   # mA(pole)            
        31     1.80134000E+03   # meL(MX)             
        32     1.80134000E+03   # mmuL(MX)            
        33     2.40322000E+03   # mtauL(MX)           
        34     2.26275000E+03   # meR(MX)             
        35     2.26275000E+03   # mmuR(MX)            
        36     7.90230000E+02   # mtauR(MX)           
        41     3.59567000E+03   # mqL1(MX)            
        42     3.59567000E+03   # mqL2(MX)            
        43     3.78845000E+03   # mqL3(MX)            
        44     1.07672000E+03   # muR(MX)             
        45     1.07672000E+03   # mcR(MX)             
        46     2.77630000E+03   # mtR(MX)             
        47     2.98621000E+03   # mdR(MX)             
        48     2.98621000E+03   # msR(MX)             
        49     3.24522000E+03   # mbR(MX)             
#
BLOCK MASS  # Mass Spectrum
# PDG code           mass       particle
        24     8.04091593E+01   # W+
        25     1.25648683E+02   # h
        35     3.40361572E+03   # H
        36     3.40360976E+03   # A
        37     3.40495726E+03   # H+
         5     4.81876030E+00   # b-quark pole mass calculated from mb(mb)_Msbar
   1000001     3.64721954E+03   # ~d_L
   2000001     3.01534443E+03   # ~d_R
   1000002     3.64648751E+03   # ~u_L
   2000002     1.11094652E+03   # ~u_R
   1000003     3.64721954E+03   # ~s_L
   2000003     3.01534443E+03   # ~s_R
   1000004     3.64648751E+03   # ~c_L
   2000004     1.11094652E+03   # ~c_R
   1000005     3.26933244E+03   # ~b_1
   2000005     3.80544422E+03   # ~b_2
   1000006     2.77688280E+03   # ~t_1
   2000006     3.81218194E+03   # ~t_2
   1000011     1.83620607E+03   # ~e_L
   2000011     2.26331846E+03   # ~e_R
   1000012     1.83420336E+03   # ~nu_eL
   1000013     1.83620607E+03   # ~mu_L
   2000013     2.26331846E+03   # ~mu_R
   1000014     1.83420336E+03   # ~nu_muL
   1000015     7.83190031E+02   # ~tau_1
   2000015     2.43101416E+03   # ~tau_2
   1000016     2.42904047E+03   # ~nu_tauL
   1000021     7.47115679E+02   # ~g
   1000022     7.14958382E+02   # ~chi_10
   1000023     2.60981470E+03   # ~chi_20
   1000025    -2.61867452E+03   # ~chi_30
   1000035     2.92128912E+03   # ~chi_40
   1000024     2.61008413E+03   # ~chi_1+
   1000037     2.92144854E+03   # ~chi_2+
#
BLOCK NMIX  # Neutralino Mixing Matrix
  1  1     9.99825324E-01   # N_11
  1  2    -1.07376701E-04   # N_12
  1  3    -1.82042249E-02   # N_13
  1  4    -4.23272863E-03   # N_14
  2  1     1.56742907E-02   # N_21
  2  2     1.68526143E-01   # N_22
  2  3     6.98124668E-01   # N_23
  2  4     6.95683264E-01   # N_24
  3  1    -9.87671585E-03   # N_31
  3  2     1.03397041E-02   # N_32
  3  3    -7.06935147E-01   # N_33
  3  4     7.07133820E-01   # N_34
  4  1    -2.46747313E-03   # N_41
  4  2     9.85642947E-01   # N_42
  4  3    -1.11952013E-01   # N_43
  4  4    -1.26367085E-01   # N_44
#
BLOCK UMIX  # Chargino Mixing Matrix U
  1  1     1.57263199E-01   # U_11
  1  2     9.87556726E-01   # U_12
  2  1    -9.87556726E-01   # U_21
  2  2     1.57263199E-01   # U_22
#
BLOCK VMIX  # Chargino Mixing Matrix V
  1  1     1.77649210E-01   # V_11
  1  2    -9.84093877E-01   # V_12
  2  1    -9.84093877E-01   # V_21
  2  2    -1.77649210E-01   # V_22
#
BLOCK STOPMIX  # Stop Mixing Matrix
  1  1    -7.71534511E-02   # cos(theta_t)
  1  2     9.97019230E-01   # sin(theta_t)
  2  1    -9.97019230E-01   # -sin(theta_t)
  2  2    -7.71534511E-02   # cos(theta_t)
#
BLOCK SBOTMIX  # Sbottom Mixing Matrix
  1  1    -3.82671481E-02   # cos(theta_b)
  1  2     9.99267544E-01   # sin(theta_b)
  2  1    -9.99267544E-01   # -sin(theta_b)
  2  2    -3.82671481E-02   # cos(theta_b)
#
BLOCK STAUMIX  # Stau Mixing Matrix
  1  1    -1.83887421E-02   # cos(theta_tau)
  1  2     9.99830913E-01   # sin(theta_tau)
  2  1    -9.99830913E-01   # -sin(theta_tau)
  2  2    -1.83887421E-02   # cos(theta_tau)
#
BLOCK ALPHA  # Higgs mixing
          -4.28382119E-02   # Mixing angle in the neutral Higgs boson sector
#
BLOCK HMIX Q=  3.24391600E+03  # DRbar Higgs Parameters
         1    -2.60660821E+03   # mu(Q)MSSM           
         2     2.33606311E+01   # tan                 
         3     2.42878882E+02   # higgs               
         4     1.13854187E+07   # mA^2(Q)MSSM         
#
BLOCK GAUGE Q=  3.24391600E+03  # The gauge couplings
     1     3.65429571E-01   # gprime(Q) DRbar
     2     6.34646148E-01   # g(Q) DRbar
     3     1.03226331E+00   # g3(Q) DRbar
#
BLOCK AU Q=  3.24391600E+03  # The trilinear couplings
  1  1     0.00000000E+00   # A_u(Q) DRbar
  2  2     0.00000000E+00   # A_c(Q) DRbar
  3  3     3.72754000E+03   # A_t(Q) DRbar
#
BLOCK AD Q=  3.24391600E+03  # The trilinear couplings
  1  1     0.00000000E+00   # A_d(Q) DRbar
  2  2     0.00000000E+00   # A_s(Q) DRbar
  3  3    -1.01324000E+03   # A_b(Q) DRbar
#
BLOCK AE Q=  3.24391600E+03  # The trilinear couplings
  1  1     0.00000000E+00   # A_e(Q) DRbar
  2  2     0.00000000E+00   # A_mu(Q) DRbar
  3  3    -3.38224000E+03   # A_tau(Q) DRbar
#
BLOCK Yu Q=  3.24391600E+03  # The Yukawa couplings
  1  1     0.00000000E+00   # y_u(Q) DRbar
  2  2     0.00000000E+00   # y_c(Q) DRbar
  3  3     8.24095247E-01   # y_t(Q) DRbar
#
BLOCK Yd Q=  3.24391600E+03  # The Yukawa couplings
  1  1     0.00000000E+00   # y_d(Q) DRbar
  2  2     0.00000000E+00   # y_s(Q) DRbar
  3  3     3.31515105E-01   # y_b(Q) DRbar
#
BLOCK Ye Q=  3.24391600E+03  # The Yukawa couplings
  1  1     0.00000000E+00   # y_e(Q) DRbar
  2  2     0.00000000E+00   # y_mu(Q) DRbar
  3  3     2.28280264E-01   # y_tau(Q) DRbar
#
BLOCK MSOFT Q=  3.24391600E+03  # The soft SUSY breaking masses at the scale Q
         1     7.26610000E+02   # M_1(Q)              
         2     2.88760000E+03   # M_2(Q)              
         3     5.85760000E+02   # M_3(Q)              
        21     4.66395228E+06   # mH1^2(Q)            
        22    -6.62819662E+06   # mH2^2(Q)            
        31     1.80134000E+03   # meL(Q)              
        32     1.80134000E+03   # mmuL(Q)             
        33     2.40322000E+03   # mtauL(Q)            
        34     2.26275000E+03   # meR(Q)              
        35     2.26275000E+03   # mmuR(Q)             
        36     7.90230000E+02   # mtauR(Q)            
        41     3.59567000E+03   # mqL1(Q)             
        42     3.59567000E+03   # mqL2(Q)             
        43     3.78845000E+03   # mqL3(Q)             
        44     1.07672000E+03   # muR(Q)              
        45     1.07672000E+03   # mcR(Q)              
        46     2.77630000E+03   # mtR(Q)              
        47     2.98621000E+03   # mdR(Q)              
        48     2.98621000E+03   # msR(Q)              
        49     3.24522000E+03   # mbR(Q)              
#
Block HiggsBoundsInputHiggsCouplingsFermions
# ScalarNormEffCoupSq PseudoSNormEffCoupSq NP   IP1 IP2 IP2
    1.00267741E+00    0.00000000E+00        3  25   5   5  # h0-b-b eff. coupling^2, normalised to SM
    5.45716408E+02    0.00000000E+00        3  35   5   5  # H0-b-b eff. coupling^2, normalised to SM
    0.00000000E+00    5.45719085E+02        3  36   5   5  # A0-b-b eff. coupling^2, normalised to SM
#
    9.99995094E-01    0.00000000E+00        3  25   6   6  # h0-t-t eff. coupling^2, normalised to SM
    1.83735081E-03    0.00000000E+00        3  35   6   6  # H0-t-t eff. coupling^2, normalised to SM
    0.00000000E+00    1.83244462E-03        3  36   6   6  # A0-t-t eff. coupling^2, normalised to SM
#
    1.00267741E+00    0.00000000E+00        3  25  15  15  # h0-tau-tau eff. coupling^2, normalised to SM
    5.45716408E+02    0.00000000E+00        3  35  15  15  # H0-tau-tau eff. coupling^2, normalised to SM
    0.00000000E+00    5.45719085E+02        3  36  15  15  # A0-tau-tau eff. coupling^2, normalised to SM
#
Block HiggsBoundsInputHiggsCouplingsBosons
    9.99999997E-01        3  25  24  24  # h0-W-W eff. coupling^2, normalised to SM
    3.27958821E-09        3  35  24  24  # H0-W-W eff. coupling^2, normalised to SM
    0.00000000E+00        3  36  24  24  # A0-W-W eff. coupling^2, normalised to SM
#
    9.99999997E-01        3  25  23  23  # h0-Z-Z eff. coupling^2, normalised to SM
    3.27958821E-09        3  35  23  23  # H0-Z-Z eff. coupling^2, normalised to SM
    0.00000000E+00        3  36  23  23  # A0-Z-Z eff. coupling^2, normalised to SM
#
    8.87737768E-01        3  25  21  21  # h0-g-g eff. coupling^2, normalised to SM
    1.28364196E-14        3  35  21  21  # H0-g-g eff. coupling^2, normalised to SM
    4.54949634E-13        3  36  21  21  # A0-g-g eff. coupling^2, normalised to SM
#
    0.00000000E+00        3  25  25  23  # h0-h0-Z eff. coupling^2, normalised to SM
    0.00000000E+00        3  35  25  23  # H0-h0-Z eff. coupling^2, normalised to SM
    3.27958821E-09        3  36  25  23  # A0-h0-Z eff. coupling^2, normalised to SM
    0.00000000E+00        3  35  35  23  # H0-H0-Z eff. coupling^2, normalised to SM
    9.99999997E-01        3  36  35  23  # A0-H0-Z eff. coupling^2, normalised to SM
    0.00000000E+00        3  36  36  23  # A0-A0-Z eff. coupling^2, normalised to SM
#
    0.00000000E+00        4  25  21  21  23  # h0-g-g-Z eff. coupling^2, normalised to SM
    0.00000000E+00        4  35  21  21  23  # H0-g-g-Z eff. coupling^2, normalised to SM
    0.00000000E+00        4  36  21  21  23  # A0-g-g-Z eff. coupling^2, normalised to SM
#
#
#
#                             =================
#                             |The decay table|
#                             =================
#
# - The QCD corrections to the decays gluino -> squark  + quark
#                                     squark -> gaugino + quark_prime
#                                     squark -> squark_prime + Higgs
#                                     squark -> gluino  + quark
#   are included.
#
# - The multi-body decays for the inos, stops and sbottoms are included.
#
# - The loop induced decays for the gluino, neutralinos and stops
#   are included.
#
# - The SUSY decays of the top quark are included.
#
#
#         PDG            Width
DECAY         6     1.41766860E+00   # top decays
#          BR         NDA      ID1       ID2
     1.00000000E+00    2           5        24   # BR(t ->  b    W+)
#
#         PDG            Width
DECAY   1000021     3.37794720E-09   # gluino decays
#          BR         NDA      ID1       ID2
     4.51279219E-03    2     1000022        21   # BR(~g -> ~chi_10 g)
#           BR         NDA      ID1       ID2       ID3
     9.22688398E-04    3     1000022         1        -1   # BR(~g -> ~chi_10 d  db)
     4.96539180E-01    3     1000022         2        -2   # BR(~g -> ~chi_10 u  ub)
     9.22688398E-04    3     1000022         3        -3   # BR(~g -> ~chi_10 s  sb)
     4.96539180E-01    3     1000022         4        -4   # BR(~g -> ~chi_10 c  cb)
     5.63471544E-04    3     1000022         5        -5   # BR(~g -> ~chi_10 b  bb)
#
#         PDG            Width
DECAY   1000006     1.39200851E+02   # stop1 decays
#          BR         NDA      ID1       ID2
     4.03372446E-02    2     1000022         6   # BR(~t_1 -> ~chi_10 t )
     3.44351324E-03    2     1000024         5   # BR(~t_1 -> ~chi_1+ b )
     9.56219242E-01    2     1000021         6   # BR(~t_1 -> ~g      t )
#
#         PDG            Width
DECAY   2000006     2.47609859E+02   # stop2 decays
#          BR         NDA      ID1       ID2
     2.35946266E-03    2     1000022         6   # BR(~t_2 -> ~chi_10 t )
     2.76605255E-02    2     1000023         6   # BR(~t_2 -> ~chi_20 t )
     2.92042836E-02    2     1000025         6   # BR(~t_2 -> ~chi_30 t )
     1.08595199E-02    2     1000035         6   # BR(~t_2 -> ~chi_40 t )
     1.18880007E-02    2     1000024         5   # BR(~t_2 -> ~chi_1+ b )
     1.96269952E-02    2     1000037         5   # BR(~t_2 -> ~chi_2+ b )
     8.03458784E-01    2     1000021         6   # BR(~t_2 -> ~g      t )
     4.79271663E-02    2     1000006        25   # BR(~t_2 -> ~t_1    h )
     4.34028000E-02    2     1000006        23   # BR(~t_2 -> ~t_1    Z )
     3.61246255E-03    2     1000005        24   # BR(~t_2 -> ~b_1    W+)
#
#         PDG            Width
DECAY   1000005     1.69562300E+02   # sbottom1 decays
#          BR         NDA      ID1       ID2
     1.03601518E-02    2     1000022         5   # BR(~b_1 -> ~chi_10 b )
     2.76940113E-03    2     1000023         5   # BR(~b_1 -> ~chi_20 b )
     2.69924264E-03    2     1000025         5   # BR(~b_1 -> ~chi_30 b )
     6.35290880E-06    2     1000035         5   # BR(~b_1 -> ~chi_40 b )
     5.10114225E-03    2    -1000024         6   # BR(~b_1 -> ~chi_1- t )
     8.94116127E-06    2    -1000037         6   # BR(~b_1 -> ~chi_2- t )
     9.79031667E-01    2     1000021         5   # BR(~b_1 -> ~g      b )
     2.31007221E-05    2     1000006       -24   # BR(~b_1 -> ~t_1    W-)
#
#         PDG            Width
DECAY   2000005     2.44885798E+02   # sbottom2 decays
#          BR         NDA      ID1       ID2
     2.12164230E-03    2     1000022         5   # BR(~b_2 -> ~chi_10 b )
     5.02210846E-03    2     1000023         5   # BR(~b_2 -> ~chi_20 b )
     4.72175576E-03    2     1000025         5   # BR(~b_2 -> ~chi_30 b )
     1.03259894E-02    2     1000035         5   # BR(~b_2 -> ~chi_40 b )
     5.53172136E-02    2    -1000024         6   # BR(~b_2 -> ~chi_1- t )
     2.27570487E-02    2    -1000037         6   # BR(~b_2 -> ~chi_2- t )
     8.12073729E-01    2     1000021         5   # BR(~b_2 -> ~g      b )
     1.94163395E-03    2     1000005        25   # BR(~b_2 -> ~b_1    h )
     1.81436840E-03    2     1000005        23   # BR(~b_2 -> ~b_1    Z )
     8.39045105E-02    2     1000006       -24   # BR(~b_2 -> ~t_1    W-)
#
#         PDG            Width
DECAY   1000002     2.46014575E+02   # sup_L decays
#          BR         NDA      ID1       ID2
     1.96018296E-03    2     1000022         2   # BR(~u_L -> ~chi_10 u)
     4.05372820E-04    2     1000023         2   # BR(~u_L -> ~chi_20 u)
     9.68465020E-07    2     1000025         2   # BR(~u_L -> ~chi_30 u)
     7.26170822E-03    2     1000035         2   # BR(~u_L -> ~chi_40 u)
     8.69203167E-04    2     1000024         1   # BR(~u_L -> ~chi_1+ d)
     1.44861306E-02    2     1000037         1   # BR(~u_L -> ~chi_2+ d)
     9.75016434E-01    2     1000021         2   # BR(~u_L -> ~g      u)
#
#         PDG            Width
DECAY   2000002     2.47612931E+01   # sup_R decays
#          BR         NDA      ID1       ID2
     3.52512809E-02    2     1000022         2   # BR(~u_R -> ~chi_10 u)
     9.64748719E-01    2     1000021         2   # BR(~u_R -> ~g      u)
#
#         PDG            Width
DECAY   1000001     2.46057038E+02   # sdown_L decays
#          BR         NDA      ID1       ID2
     1.96469420E-03    2     1000022         1   # BR(~d_L -> ~chi_10 d)
     3.77759110E-04    2     1000023         1   # BR(~d_L -> ~chi_20 d)
     2.03516025E-06    2     1000025         1   # BR(~d_L -> ~chi_30 d)
     7.28621108E-03    2     1000035         1   # BR(~d_L -> ~chi_40 d)
     6.81747749E-04    2    -1000024         2   # BR(~d_L -> ~chi_1- u)
     1.46093833E-02    2    -1000037         2   # BR(~d_L -> ~chi_2- u)
     9.75078169E-01    2     1000021         1   # BR(~d_L -> ~g      d)
#
#         PDG            Width
DECAY   2000001     1.91932175E+02   # sdown_R decays
#          BR         NDA      ID1       ID2
     8.01180304E-03    2     1000022         1   # BR(~d_R -> ~chi_10 d)
     1.42422345E-07    2     1000023         1   # BR(~d_R -> ~chi_20 d)
     5.43122231E-08    2     1000025         1   # BR(~d_R -> ~chi_30 d)
     2.23526781E-10    2     1000035         1   # BR(~d_R -> ~chi_40 d)
     9.91988000E-01    2     1000021         1   # BR(~d_R -> ~g      d)
#
#         PDG            Width
DECAY   1000004     1.95460278E+02   # scharm_L decays
#          BR         NDA      ID1       ID2
     2.54210598E-03    2     1000022         4   # BR(~c_L -> ~chi_10 c)
     5.23241500E-04    2     1000023         4   # BR(~c_L -> ~chi_20 c)
     1.24989213E-06    2     1000025         4   # BR(~c_L -> ~chi_30 c)
     9.30789851E-03    2     1000035         4   # BR(~c_L -> ~chi_40 c)
     1.12193511E-03    2     1000024         3   # BR(~c_L -> ~chi_1+ s)
     1.85679624E-02    2     1000037         3   # BR(~c_L -> ~chi_2+ s)
     9.67935607E-01    2     1000021         4   # BR(~c_L -> ~g      c)
#
#         PDG            Width
DECAY   2000004     1.97415621E+01   # scharm_R decays
#          BR         NDA      ID1       ID2
     4.55920626E-02    2     1000022         4   # BR(~c_R -> ~chi_10 c)
     9.54407937E-01    2     1000021         4   # BR(~c_R -> ~g      c)
#
#         PDG            Width
DECAY   1000003     1.95490349E+02   # sstrange_L decays
#          BR         NDA      ID1       ID2
     2.54800436E-03    2     1000022         3   # BR(~s_L -> ~chi_10 s)
     4.87612699E-04    2     1000023         3   # BR(~s_L -> ~chi_20 s)
     2.62663548E-06    2     1000025         3   # BR(~s_L -> ~chi_30 s)
     9.33968945E-03    2     1000035         3   # BR(~s_L -> ~chi_40 s)
     8.79997566E-04    2    -1000024         4   # BR(~s_L -> ~chi_1- c)
     1.87266155E-02    2    -1000037         4   # BR(~s_L -> ~chi_2- c)
     9.68015454E-01    2     1000021         3   # BR(~s_L -> ~g      s)
#
#         PDG            Width
DECAY   2000003     1.51756300E+02   # sstrange_R decays
#          BR         NDA      ID1       ID2
     1.04449265E-02    2     1000022         3   # BR(~s_R -> ~chi_10 s)
     1.81408784E-07    2     1000023         3   # BR(~s_R -> ~chi_20 s)
     6.91333716E-08    2     1000025         3   # BR(~s_R -> ~chi_30 s)
     2.69351553E-10    2     1000035         3   # BR(~s_R -> ~chi_40 s)
     9.89554823E-01    2     1000021         3   # BR(~s_R -> ~g      s)
#
#         PDG            Width
DECAY   1000011     1.75432295E+00   # selectron_L decays
#          BR         NDA      ID1       ID2
     1.00000000E+00    2     1000022        11   # BR(~e_L -> ~chi_10 e-)
#
#         PDG            Width
DECAY   2000011     9.74210586E+00   # selectron_R decays
#          BR         NDA      ID1       ID2
     1.00000000E+00    2     1000022        11   # BR(~e_R -> ~chi_10 e-)
#
#         PDG            Width
DECAY   1000013     1.75432293E+00   # smuon_L decays
#          BR         NDA      ID1       ID2
     1.00000000E+00    2     1000022        13   # BR(~mu_L -> ~chi_10 mu-)
#
#         PDG            Width
DECAY   2000013     9.74210581E+00   # smuon_R decays
#          BR         NDA      ID1       ID2
     1.00000000E+00    2     1000022        13   # BR(~mu_R -> ~chi_10 mu-)
#
#         PDG            Width
DECAY   1000015     1.15476069E-01   # stau_1 decays
#          BR         NDA      ID1       ID2
     1.00000000E+00    2     1000022        15   # BR(~tau_1 -> ~chi_10  tau-)
#
#         PDG            Width
DECAY   2000015     4.95965155E+00   # stau_2 decays
#          BR         NDA      ID1       ID2
     5.43321348E-01    2     1000022        15   # BR(~tau_2 -> ~chi_10  tau-)
     2.31880827E-01    2     1000015        25   # BR(~tau_2 -> ~tau_1   h)
     2.24797825E-01    2     1000015        23   # BR(~tau_2 -> ~tau_1   Z)
#
#         PDG            Width
DECAY   1000012     1.75234825E+00   # snu_eL decays
#          BR         NDA      ID1       ID2
     1.00000000E+00    2     1000022        12   # BR(~nu_eL -> ~chi_10 nu_e)
#
#         PDG            Width
DECAY   1000014     1.75234825E+00   # snu_muL decays
#          BR         NDA      ID1       ID2
     1.00000000E+00    2     1000022        14   # BR(~nu_muL -> ~chi_10 nu_mu)
#
#         PDG            Width
DECAY   1000016     4.84248454E+00   # snu_tauL decays
#          BR         NDA      ID1       ID2
     5.55870051E-01    2     1000022        16   # BR(~nu_tauL -> ~chi_10 nu_tau)
     4.44129949E-01    2    -1000015       -24   # BR(~nu_tauL -> ~tau_1+ W-)
#
#         PDG            Width
DECAY   1000024     2.93290085E+00   # chargino1+ decays
#          BR         NDA      ID1       ID2
     2.88285881E-02    2     1000012       -11   # BR(~chi_1+ -> ~nu_eL   e+  )
     2.88285881E-02    2     1000014       -13   # BR(~chi_1+ -> ~nu_muL  mu+ )
     1.00036316E-02    2     1000016       -15   # BR(~chi_1+ -> ~nu_tau1 tau+)
     2.24955925E-02    2    -1000011        12   # BR(~chi_1+ -> ~e_L+    nu_e)
     2.24955925E-02    2    -1000013        14   # BR(~chi_1+ -> ~mu_L+   nu_mu)
     3.78496296E-01    2    -1000015        16   # BR(~chi_1+ -> ~tau_1+  nu_tau)
     1.42184109E-03    2    -2000015        16   # BR(~chi_1+ -> ~tau_2+  nu_tau)
     5.07429870E-01    2     1000022        24   # BR(~chi_1+ -> ~chi_10  W+)
#
#         PDG            Width
DECAY   1000037     2.51869238E+01   # chargino2+ decays
#          BR         NDA      ID1       ID2
     1.21709065E-03    2     1000006        -5   # BR(~chi_2+ -> ~t_1     bb)
     1.65174025E-01    2     1000012       -11   # BR(~chi_2+ -> ~nu_eL   e+  )
     1.65174025E-01    2     1000014       -13   # BR(~chi_2+ -> ~nu_muL mu+ )
     4.30457481E-02    2     1000016       -15   # BR(~chi_2+ -> ~nu_tau1 tau+)
     1.65865889E-01    2    -1000011        12   # BR(~chi_2+ -> ~e_L+    nu_e)
     1.65865889E-01    2    -1000013        14   # BR(~chi_2+ -> ~mu_L+   nu_mu)
     5.90219839E-04    2    -1000015        16   # BR(~chi_2+ -> ~tau_1+  nu_tau)
     4.29491420E-02    2    -2000015        16   # BR(~chi_2+ -> ~tau_2+  nu_tau)
     6.24598305E-02    2     1000024        23   # BR(~chi_2+ -> ~chi_1+  Z )
     1.96706051E-03    2     1000022        24   # BR(~chi_2+ -> ~chi_10  W+)
     6.40572687E-02    2     1000023        24   # BR(~chi_2+ -> ~chi_20  W+)
     5.88063687E-02    2     1000025        24   # BR(~chi_2+ -> ~chi_30  W+)
     6.28274423E-02    2     1000024        25   # BR(~chi_2+ -> ~chi_1+  h )
#
#         PDG            Width
DECAY   1000022     0.00000000E+00   # neutralino1 decays
#
#         PDG            Width
DECAY   1000023     3.03734484E+00   # neutralino2 decays
#          BR         NDA      ID1       ID2
     1.41969374E-01    2     1000022        23   # BR(~chi_20 -> ~chi_10   Z )
     3.78461816E-01    2     1000022        25   # BR(~chi_20 -> ~chi_10   h )
     4.86210025E-04    2     2000002        -2   # BR(~chi_20 -> ~u_R      ub)
     4.86210025E-04    2    -2000002         2   # BR(~chi_20 -> ~u_R*     u )
     4.86209923E-04    2     2000004        -4   # BR(~chi_20 -> ~c_R      cb)
     4.86209923E-04    2    -2000004         4   # BR(~chi_20 -> ~c_R*     c )
     1.38370705E-02    2     1000011       -11   # BR(~chi_20 -> ~e_L-     e+)
     1.38370705E-02    2    -1000011        11   # BR(~chi_20 -> ~e_L+     e-)
     3.44670255E-05    2     2000011       -11   # BR(~chi_20 -> ~e_R-     e+)
     3.44670255E-05    2    -2000011        11   # BR(~chi_20 -> ~e_R+     e-)
     1.38370705E-02    2     1000013       -13   # BR(~chi_20 -> ~mu_L-    mu+)
     1.38370705E-02    2    -1000013        13   # BR(~chi_20 -> ~mu_L+    mu-)
     3.44670255E-05    2     2000013       -13   # BR(~chi_20 -> ~mu_R-    mu+)
     3.44670255E-05    2    -2000013        13   # BR(~chi_20 -> ~mu_R+    mu-)
     1.83206525E-01    2     1000015       -15   # BR(~chi_20 -> ~tau_1-   tau+)
     1.83206525E-01    2    -1000015        15   # BR(~chi_20 -> ~tau_1+   tau-)
     4.65036384E-03    2     2000015       -15   # BR(~chi_20 -> ~tau_2-   tau+)
     4.65036384E-03    2    -2000015        15   # BR(~chi_20 -> ~tau_2+   tau-)
     1.12144097E-02    2     1000012       -12   # BR(~chi_20 -> ~nu_eL    nu_eb)
     1.12144097E-02    2    -1000012        12   # BR(~chi_20 -> ~nu_eL*   nu_e )
     1.12144097E-02    2     1000014       -14   # BR(~chi_20 -> ~nu_muL   nu_mub)
     1.12144097E-02    2    -1000014        14   # BR(~chi_20 -> ~nu_muL*  nu_mu )
     7.83201087E-04    2     1000016       -16   # BR(~chi_20 -> ~nu_tau1  nu_taub)
     7.83201087E-04    2    -1000016        16   # BR(~chi_20 -> ~nu_tau1* nu_tau )
#
#         PDG            Width
DECAY   1000025     2.75892000E+00   # neutralino3 decays
#          BR         NDA      ID1       ID2
     4.15449102E-01    2     1000022        23   # BR(~chi_30 -> ~chi_10   Z )
     1.66203656E-01    2     1000022        25   # BR(~chi_30 -> ~chi_10   h )
     2.13893286E-04    2     2000002        -2   # BR(~chi_30 -> ~u_R      ub)
     2.13893286E-04    2    -2000002         2   # BR(~chi_30 -> ~u_R*     u )
     2.13893241E-04    2     2000004        -4   # BR(~chi_30 -> ~c_R      cb)
     2.13893241E-04    2    -2000004         4   # BR(~chi_30 -> ~c_R*     c )
     1.06356270E-05    2     1000011       -11   # BR(~chi_30 -> ~e_L-     e+)
     1.06356270E-05    2    -1000011        11   # BR(~chi_30 -> ~e_L+     e-)
     1.57434793E-05    2     2000011       -11   # BR(~chi_30 -> ~e_R-     e+)
     1.57434793E-05    2    -2000011        11   # BR(~chi_30 -> ~e_R+     e-)
     1.06356270E-05    2     1000013       -13   # BR(~chi_30 -> ~mu_L-    mu+)
     1.06356270E-05    2    -1000013        13   # BR(~chi_30 -> ~mu_L+    mu-)
     1.57434793E-05    2     2000013       -13   # BR(~chi_30 -> ~mu_R-    mu+)
     1.57434793E-05    2    -2000013        13   # BR(~chi_30 -> ~mu_R+    mu-)
     2.03729154E-01    2     1000015       -15   # BR(~chi_30 -> ~tau_1-   tau+)
     2.03729154E-01    2    -1000015        15   # BR(~chi_30 -> ~tau_1+   tau-)
     4.70094863E-03    2     2000015       -15   # BR(~chi_30 -> ~tau_2-   tau+)
     4.70094863E-03    2    -2000015        15   # BR(~chi_30 -> ~tau_2+   tau-)
     1.26728624E-04    2     1000012       -12   # BR(~chi_30 -> ~nu_eL    nu_eb)
     1.26728624E-04    2    -1000012        12   # BR(~chi_30 -> ~nu_eL*   nu_e )
     1.26728624E-04    2     1000014       -14   # BR(~chi_30 -> ~nu_muL   nu_mub)
     1.26728624E-04    2    -1000014        14   # BR(~chi_30 -> ~nu_muL*  nu_mu )
     9.51615434E-06    2     1000016       -16   # BR(~chi_30 -> ~nu_tau1  nu_taub)
     9.51615434E-06    2    -1000016        16   # BR(~chi_30 -> ~nu_tau1* nu_tau )
#
#         PDG            Width
DECAY   1000035     2.50653944E+01   # neutralino4 decays
#          BR         NDA      ID1       ID2
     5.99902569E-04    2     1000022        23   # BR(~chi_40 -> ~chi_10   Z )
     2.79675575E-04    2     1000023        23   # BR(~chi_40 -> ~chi_20   Z )
     5.95636454E-02    2     1000025        23   # BR(~chi_40 -> ~chi_30   Z )
     6.16356436E-02    2     1000024       -24   # BR(~chi_40 -> ~chi_1+   W-)
     6.16356436E-02    2    -1000024        24   # BR(~chi_40 -> ~chi_1-   W+)
     1.50013969E-03    2     1000022        25   # BR(~chi_40 -> ~chi_10   h )
     6.27192625E-02    2     1000023        25   # BR(~chi_40 -> ~chi_20   h )
     1.94870091E-04    2     1000025        25   # BR(~chi_40 -> ~chi_30   h )
     1.78368166E-06    2     2000002        -2   # BR(~chi_40 -> ~u_R      ub)
     1.78368166E-06    2    -2000002         2   # BR(~chi_40 -> ~u_R*     u )
     1.78368145E-06    2     2000004        -4   # BR(~chi_40 -> ~c_R      cb)
     1.78368145E-06    2    -2000004         4   # BR(~chi_40 -> ~c_R*     c )
     8.27569068E-02    2     1000011       -11   # BR(~chi_40 -> ~e_L-     e+)
     8.27569068E-02    2    -1000011        11   # BR(~chi_40 -> ~e_L+     e-)
     3.01223642E-07    2     2000011       -11   # BR(~chi_40 -> ~e_R-     e+)
     3.01223642E-07    2    -2000011        11   # BR(~chi_40 -> ~e_R+     e-)
     8.27569068E-02    2     1000013       -13   # BR(~chi_40 -> ~mu_L-    mu+)
     8.27569068E-02    2    -1000013        13   # BR(~chi_40 -> ~mu_L+    mu-)
     3.01223642E-07    2     2000013       -13   # BR(~chi_40 -> ~mu_R-    mu+)
     3.01223642E-07    2    -2000013        13   # BR(~chi_40 -> ~mu_R+    mu-)
     3.04082422E-04    2     1000015       -15   # BR(~chi_40 -> ~tau_1-   tau+)
     3.04082422E-04    2    -1000015        15   # BR(~chi_40 -> ~tau_1+   tau-)
     2.15033587E-02    2     2000015       -15   # BR(~chi_40 -> ~tau_2-   tau+)
     2.15033587E-02    2    -2000015        15   # BR(~chi_40 -> ~tau_2+   tau-)
     8.34726641E-02    2     1000012       -12   # BR(~chi_40 -> ~nu_eL    nu_eb)
     8.34726641E-02    2    -1000012        12   # BR(~chi_40 -> ~nu_eL*   nu_e )
     8.34726641E-02    2     1000014       -14   # BR(~chi_40 -> ~nu_muL   nu_mub)
     8.34726641E-02    2    -1000014        14   # BR(~chi_40 -> ~nu_muL*  nu_mu )
     2.16648558E-02    2     1000016       -16   # BR(~chi_40 -> ~nu_tau1  nu_taub)
     2.16648558E-02    2    -1000016        16   # BR(~chi_40 -> ~nu_tau1* nu_tau )
#
#         PDG            Width
DECAY        25     3.98957069E-03   # h decays
#          BR         NDA      ID1       ID2
     5.73192870E-01    2           5        -5   # BR(h -> b       bb     )
     6.53762299E-02    2         -15        15   # BR(h -> tau+    tau-   )
     2.31405957E-04    2         -13        13   # BR(h -> mu+     mu-    )
     2.52356007E-04    2           3        -3   # BR(h -> s       sb     )
     2.18295242E-02    2           4        -4   # BR(h -> c       cb     )
     8.11654601E-02    2          21        21   # BR(h -> g       g      )
     2.41200475E-03    2          22        22   # BR(h -> gam     gam    )
     1.65959943E-03    2          22        23   # BR(h -> Z       gam    )
     2.25379092E-01    2          24       -24   # BR(h -> W+      W-     )
     2.85014572E-02    2          23        23   # BR(h -> Z       Z      )
#
#         PDG            Width
DECAY        35     3.01361590E+01   # H decays
#          BR         NDA      ID1       ID2
     8.03306173E-01    2           5        -5   # BR(H -> b       bb     )
     1.40982288E-01    2         -15        15   # BR(H -> tau+    tau-   )
     5.00055242E-04    2         -13        13   # BR(H -> mu+     mu-    )
     3.15868008E-04    2           3        -3   # BR(H -> s       sb     )
     8.37509188E-08    2           4        -4   # BR(H -> c       cb     )
     8.25074257E-03    2           6        -6   # BR(H -> t       tb     )
     5.54515478E-06    2          21        21   # BR(H -> g       g      )
     3.86698240E-09    2          22        22   # BR(H -> gam     gam    )
     3.68664761E-09    2          23        22   # BR(H -> Z       gam    )
     1.38013935E-06    2          24       -24   # BR(H -> W+      W-     )
     6.88738786E-07    2          23        23   # BR(H -> Z       Z      )
     8.12806024E-06    2          25        25   # BR(H -> h       h      )
     6.91421583E-05    2     1000022   1000022   # BR(H -> ~chi_10 ~chi_10)
     5.99280230E-04    2     1000022   1000023   # BR(H -> ~chi_10 ~chi_20)
     7.18862515E-03    2     1000022   1000025   # BR(H -> ~chi_10 ~chi_30)
     3.23343134E-07    2     2000002  -2000002   # BR(H -> ~u_R    ~u_R*  )
     3.23343134E-07    2     2000004  -2000004   # BR(H -> ~c_R    ~c_R*  )
     7.57712523E-05    2     1000015  -1000015   # BR(H -> ~tau_1- ~tau_1+)
     1.93477871E-02    2     1000015  -2000015   # BR(H -> ~tau_1- ~tau_2+)
     1.93477871E-02    2     2000015  -1000015   # BR(H -> ~tau_2- ~tau_1+)
#
#         PDG            Width
DECAY        36     3.01486833E+01   # A decays
#          BR         NDA      ID1       ID2
     8.03013648E-01    2           5        -5   # BR(A -> b       bb     )
     1.40924286E-01    2         -15        15   # BR(A -> tau+    tau-   )
     4.99848967E-04    2         -13        13   # BR(A -> mu+     mu-    )
     3.15778352E-04    2           3        -3   # BR(A -> s       sb     )
     8.42671240E-08    2           4        -4   # BR(A -> c       cb     )
     8.28010505E-03    2           6        -6   # BR(A -> t       tb     )
     3.29981652E-05    2          21        21   # BR(A -> g       g      )
     4.98651712E-08    2          22        22   # BR(A -> gam     gam    )
     2.92679833E-08    2          23        22   # BR(A -> Z       gam    )
     1.39874586E-06    2          23        25   # BR(A -> Z       h      )
     8.06485597E-05    2     1000022   1000022   # BR(A -> ~chi_10 ~chi_10)
     7.61688768E-03    2     1000022   1000023   # BR(A -> ~chi_10 ~chi_20)
     5.05241900E-04    2     1000022   1000025   # BR(A -> ~chi_10 ~chi_30)
     1.93644974E-02    2     1000015  -2000015   # BR(A -> ~tau_1- ~tau_2+)
     1.93644974E-02    2    -1000015   2000015   # BR(A -> ~tau_1+ ~tau_2-)
#
#         PDG            Width
DECAY        37     3.09807089E+01   # H+ decays
#          BR         NDA      ID1       ID2
     1.35740943E-03    2           4        -5   # BR(H+ -> c       bb     )
     1.37193883E-01    2         -15        16   # BR(H+ -> tau+    nu_tau )
     4.86617477E-04    2         -13        14   # BR(H+ -> mu+     nu_mu  )
     1.35740805E-05    2           2        -5   # BR(H+ -> u       bb     )
     1.53774853E-05    2           2        -3   # BR(H+ -> u       sb     )
     3.02754270E-04    2           4        -3   # BR(H+ -> c       sb     )
     8.14585745E-01    2           6        -5   # BR(H+ -> t       bb     )
     1.36346036E-06    2          24        25   # BR(H+ -> W+      h      )
     1.88674871E-13    2          24        36   # BR(H+ -> W+      A      )
     8.05623823E-03    2     1000024   1000022   # BR(H+ -> ~chi_1+ ~chi_10)
     3.79870378E-02    2    -1000015   1000016   # BR(H+ -> ~tau_1+ ~nu_tauL)
