#
#                              ======================
#                              | THE SUSYHIT OUTPUT |
#                              ======================
#
#
#              ------------------------------------------------------
#              |     This is the output of the SUSY-HIT package     |
#              |  created by A.Djouadi, M.Muehlleitner and M.Spira. |
#              |  In case of problems with SUSY-HIT email to        |
#              |           margarete.muehlleitner@cern.ch           |
#              |           michael.spira@psi.ch                     |
#              |           abdelhak.djouadi@cern.ch                 |
#              ------------------------------------------------------
#
#              ------------------------------------------------------
#              |  SUSY Les Houches Accord - MSSM Spectrum + Decays  |
#              |              based on the decay programs           |
#              |                                                    |
#              |                     SDECAY 1.3b                    |
#              |                                                    |
#              |  Authors: M.Muhlleitner, A.Djouadi and Y.Mambrini  |
#              |  Ref.:    Comput.Phys.Commun.168(2005)46           |
#              |           [hep-ph/0311167]                         |
#              |                                                    |
#              |                     HDECAY 3.4                     |
#              |                                                    |
#              |  By: A.Djouadi,J.Kalinowski,M.Muhlleitner,M.Spira  |
#              |  Ref.:    Comput.Phys.Commun.108(1998)56           |
#              |           [hep-ph/9704448]                         |
#              |                                                    |
#              |                                                    |
#              |  If not stated otherwise all DRbar couplings and   |
#              |  soft SUSY breaking masses are given at the scale  |
#              |  Q=  0.91187600E+02
#              |                                                    |
#              ------------------------------------------------------
#
#
BLOCK DCINFO  # Decay Program information
     1   SDECAY/HDECAY # decay calculator
     2   1.3b  /3.4    # version number
#
BLOCK SPINFO  # Spectrum calculator information
     1   SuSpect     # RGE +Spectrum calculator            
     2   2.41        # version number                      
#
BLOCK MODSEL  # Model selection
     1     2   # #general MSSM low scale                           
#
BLOCK SMINPUTS  # Standard Model inputs
         1     1.27934000E+02   # alpha_em^-1(M_Z)^MSbar
         2     1.16639000E-05   # G_F [GeV^-2]
         3     1.17200000E-01   # alpha_S(M_Z)^MSbar
         4     9.11870000E+01   # M_Z pole mass
         5     4.25000000E+00   # mb(mb)^MSbar
         6     1.75000000E+02   # mt pole mass
         7     1.77700000E+00   # mtau pole mass
#
BLOCK MINPAR  # Input parameters - minimal models
#
BLOCK EXTPAR  # Input parameters - non-minimal models
         0     9.11876000E+01   # EWSB                
         1     2.50000000E+03   # M_1                 
         2     2.50000000E+03   # M_2                 
         3     2.50000000E+03   # M_3                 
        11     0.00000000E+00   # A_t                 
        12     0.00000000E+00   # A_b                 
        13     0.00000000E+00   # A_tau               
        14     0.00000000E+00   # A_u                 
        15     0.00000000E+00   # A_d                 
        16     0.00000000E+00   # A_e                 
        23     4.00000000E+02   # mu(EWSB)            
        25     2.00000000E+00   # tanbeta(in)         
        26     2.50000000E+03   # MA_pole             
        31     2.50000000E+03   # M_eL                
        32     2.50000000E+03   # M_muL               
        33     2.50000000E+03   # M_tauL              
        34     2.50000000E+03   # M_eR                
        35     2.50000000E+03   # M_muR               
        36     8.00000000E+01   # M_tauR              
        41     2.50000000E+03   # M_q1L               
        42     2.50000000E+03   # M_q2L               
        43     2.50000000E+03   # M_q3L               
        44     2.50000000E+03   # M_uR                
        45     2.50000000E+03   # M_cR                
        46     3.60400000E+02   # M_tR                
        47     2.50000000E+03   # M_dR                
        48     2.50000000E+03   # M_sR                
        49     2.50000000E+03   # M_bR                
#
BLOCK MASS  # Mass Spectrum
# PDG code           mass       particle
        24     8.05351965E+01   # W+
        25     1.25000000E+02   # h
        35     1.81649090E+03   # H
        36     1.79420277E+03   # A
        37     1.79600933E+03   # H+
         5     4.87877839E+00   # b-quark pole mass calculated from mb(mb)_Msbar
   1000001     2.50041921E+03   # ~d_L
   2000001     2.50007966E+03   # ~d_R
   1000002     2.49966039E+03   # ~u_L
   2000002     2.49984068E+03   # ~u_R
   1000003     2.50041921E+03   # ~s_L
   2000003     2.50007966E+03   # ~s_R
   1000004     2.49966039E+03   # ~c_L
   2000004     2.49984068E+03   # ~c_R
   1000005     2.49978576E+03   # ~b_1
   2000005     2.50071596E+03   # ~b_2
   1000006     3.92859205E+02   # ~t_1
   2000006     2.50477167E+03   # ~t_2
   1000011     2.50025991E+03   # ~e_L
   2000011     2.50023897E+03   # ~e_R
   1000012     2.49950105E+03   # ~nu_eL
   1000013     2.50025991E+03   # ~mu_L
   2000013     2.50023897E+03   # ~mu_R
   1000014     2.49950105E+03   # ~nu_muL
   1000015     8.71649787E+01   # ~tau_1
   2000015     2.50026061E+03   # ~tau_2
   1000016     2.49950105E+03   # ~nu_tauL
   1000021     2.50000000E+03   # ~g
   1000022     3.96444188E+02   # ~chi_10
   1000023    -4.00287625E+02   # ~chi_20
   1000025     2.50000076E+03   # ~chi_30
   1000035     2.50384368E+03   # ~chi_40
   1000024     3.97511423E+02   # ~chi_1+
   1000037     2.50292465E+03   # ~chi_2+
   1000039     100.000000E-06   # ~G
#
BLOCK NMIX  # Neutralino Mixing Matrix
  1  1     2.00989834E-02   # N_11
  1  2    -3.58150844E-02   # N_12
  1  3     7.07560842E-01   # N_13
  1  4    -7.05457983E-01   # N_14
  2  1     4.88122679E-03   # N_21
  2  2    -8.69802832E-03   # N_22
  2  3    -7.06308828E-01   # N_23
  2  4    -7.07833567E-01   # N_24
  3  1     8.72015907E-01   # N_31
  3  2     4.89477535E-01   # N_32
  3  3     2.26021149E-06   # N_33
  3  4    -4.10323788E-06   # N_34
  4  1     4.89051297E-01   # N_41
  4  2    -8.71230542E-01   # N_42
  4  3    -2.20339589E-02   # N_43
  4  4     3.60648874E-02   # N_44
#
BLOCK UMIX  # Chargino Mixing Matrix U
  1  1    -2.71884969E-02   # U_11
  1  2     9.99630324E-01   # U_12
  2  1     9.99630324E-01   # U_21
  2  2     2.71884969E-02   # U_22
#
BLOCK VMIX  # Chargino Mixing Matrix V
  1  1    -4.45179525E-02   # V_11
  1  2     9.99008585E-01   # V_12
  2  1     9.99008585E-01   # V_21
  2  2     4.45179525E-02   # V_22
#
BLOCK STOPMIX  # Stop Mixing Matrix
  1  1     5.21007710E-03   # cos(theta_t)
  1  2     9.99986427E-01   # sin(theta_t)
  2  1    -9.99986427E-01   # -sin(theta_t)
  2  2     5.21007710E-03   # cos(theta_t)
#
BLOCK SBOTMIX  # Sbottom Mixing Matrix
  1  1     5.63457119E-01   # cos(theta_b)
  1  2     8.26145311E-01   # sin(theta_b)
  2  1    -8.26145311E-01   # -sin(theta_b)
  2  2     5.63457119E-01   # cos(theta_b)
#
BLOCK STAUMIX  # Stau Mixing Matrix
  1  1     2.27789208E-04   # cos(theta_tau)
  1  2     9.99999974E-01   # sin(theta_tau)
  2  1    -9.99999974E-01   # -sin(theta_tau)
  2  2     2.27789208E-04   # cos(theta_tau)
#
BLOCK ALPHA  # Higgs mixing
          -4.65554257E-01   # Mixing angle in the neutral Higgs boson sector
#
BLOCK HMIX Q=  9.11876000E+01  # DRbar Higgs Parameters
         1     4.00000000E+02   # mu(Q)               
         2     1.99999974E+00   # tanbeta(Q)          
         3     2.52087238E+02   # vev(Q)              
         4     3.25736029E+06   # MA^2(Q)             
#
BLOCK GAUGE Q=  9.11876000E+01  # The gauge couplings
     1     3.54156915E-01   # gprime(Q) DRbar
     2     6.31084345E-01   # g(Q) DRbar
     3     1.09029961E+00   # g3(Q) DRbar
#
BLOCK AU Q=  9.11876000E+01  # The trilinear couplings
  1  1     0.00000000E+00   # A_u(Q) DRbar
  2  2     0.00000000E+00   # A_c(Q) DRbar
  3  3     0.00000000E+00   # A_t(Q) DRbar
#
BLOCK AD Q=  9.11876000E+01  # The trilinear couplings
  1  1     0.00000000E+00   # A_d(Q) DRbar
  2  2     0.00000000E+00   # A_s(Q) DRbar
  3  3     0.00000000E+00   # A_b(Q) DRbar
#
BLOCK AE Q=  9.11876000E+01  # The trilinear couplings
  1  1     0.00000000E+00   # A_e(Q) DRbar
  2  2     0.00000000E+00   # A_mu(Q) DRbar
  3  3     0.00000000E+00   # A_tau(Q) DRbar
#
BLOCK Yu Q=  9.11876000E+01  # The Yukawa couplings
  1  1     0.00000000E+00   # y_u(Q) DRbar
  2  2     0.00000000E+00   # y_c(Q) DRbar
  3  3     1.00016880E+00   # y_t(Q) DRbar
#
BLOCK Yd Q=  9.11876000E+01  # The Yukawa couplings
  1  1     0.00000000E+00   # y_d(Q) DRbar
  2  2     0.00000000E+00   # y_s(Q) DRbar
  3  3     3.39617591E-02   # y_b(Q) DRbar
#
BLOCK Ye Q=  9.11876000E+01  # The Yukawa couplings
  1  1     0.00000000E+00   # y_e(Q) DRbar
  2  2     0.00000000E+00   # y_mu(Q) DRbar
  3  3     2.23080532E-02   # y_tau(Q) DRbar
#
BLOCK MSOFT Q=  9.11876000E+01  # The soft SUSY breaking masses at the scale Q
         1     2.50000000E+03   # M_1                 
         2     2.50000000E+03   # M_2                 
         3     2.50000000E+03   # M_3                 
        14     0.00000000E+00   # A_u                 
        15     0.00000000E+00   # A_d                 
        16     0.00000000E+00   # A_e                 
        21     2.84036693E+06   # M^2_Hd              
        22     1.24849070E+05   # M^2_Hu              
        31     2.50000000E+03   # M_eL                
        32     2.50000000E+03   # M_muL               
        33     2.50000000E+03   # M_tauL              
        34     2.50000000E+03   # M_eR                
        35     2.50000000E+03   # M_muR               
        36     8.00000000E+01   # M_tauR              
        41     2.50000000E+03   # M_q1L               
        42     2.50000000E+03   # M_q2L               
        43     2.50000000E+03   # M_q3L               
        44     2.50000000E+03   # M_uR                
        45     2.50000000E+03   # M_cR                
        46     3.60400000E+02   # M_tR                
        47     2.50000000E+03   # M_dR                
        48     2.50000000E+03   # M_sR                
        49     2.50000000E+03   # M_bR                
#
#
#
#                             =================
#                             |The decay table|
#                             =================
#
# - The QCD corrections to the decays gluino -> squark  + quark
#                                     squark -> gaugino + quark_prime
#                                     squark -> squark_prime + Higgs
#                                     squark -> gluino  + quark
#   are included.
#
# - The multi-body decays for the inos, stops and sbottoms are included.
#
# - The loop induced decays for the gluino, neutralinos and stops
#   are included.
#
# - The SUSY decays of the top quark are included.
#
# - Possible decays of the NLSP in GMSB models are included.
#
#
#         PDG            Width
DECAY         6     1.44762425E+00   # top decays
#          BR         NDA      ID1       ID2
     1.00000000E+00    2           5        24   # BR(t ->  b    W+)
#
#         PDG            Width
DECAY   1000021     3.01872605E+01   # gluino decays
#          BR         NDA      ID1       ID2
     1.11292585E-07    2     1000002        -2   # BR(~g -> ~u_L  ub)
     1.11292585E-07    2    -1000002         2   # BR(~g -> ~u_L* u )
     2.44949866E-08    2     2000002        -2   # BR(~g -> ~u_R  ub)
     2.44949866E-08    2    -2000002         2   # BR(~g -> ~u_R* u )
     1.11292585E-07    2     1000004        -4   # BR(~g -> ~c_L  cb)
     1.11292585E-07    2    -1000004         4   # BR(~g -> ~c_L* c )
     2.44949866E-08    2     2000004        -4   # BR(~g -> ~c_R  cb)
     2.44949866E-08    2    -2000004         4   # BR(~g -> ~c_R* c )
     4.99999728E-01    2     1000006        -6   # BR(~g -> ~t_1  tb)
     4.99999728E-01    2    -1000006         6   # BR(~g -> ~t_1* t )
     3.72445516E-12    2     1000039        21   # BR(~g -> ~G g)
#
#         PDG            Width
DECAY   1000006     7.10491435E-06   # stop1 decays
#          BR         NDA      ID1       ID2
#           BR         NDA      ID1       ID2       ID3
     1.00000000E+00    3    -1000015         5        16   # BR(~t_1 -> ~tau_1+  b  nu_tau)
#
#         PDG            Width
DECAY   2000006     3.56776446E+01   # stop2 decays
#          BR         NDA      ID1       ID2
     4.90039612E-01    2     1000022         6   # BR(~t_2 -> ~chi_10 t )
     4.93657226E-01    2     1000023         6   # BR(~t_2 -> ~chi_20 t )
     0.00000000E+00    2     1000025         6   # BR(~t_2 -> ~chi_30 t )
     2.78496001E-03    2     1000024         5   # BR(~t_2 -> ~chi_1+ b )
    -1.56144865E-02    2     1000006        25   # BR(~t_2 -> ~t_1    h )
     1.16814769E-02    2     1000006        35   # BR(~t_2 -> ~t_1    H )
     1.21343977E-02    2     1000006        36   # BR(~t_2 -> ~t_1    A )
     5.31681343E-03    2     1000006        23   # BR(~t_2 -> ~t_1    Z )
#
#         PDG            Width
DECAY   1000005     3.30887693E+00   # sbottom1 decays
#          BR         NDA      ID1       ID2
     1.09476105E-02    2     1000022         5   # BR(~b_1 -> ~chi_10 b )
     4.71031077E-03    2     1000023         5   # BR(~b_1 -> ~chi_20 b )
     7.60560646E-01    2    -1000024         6   # BR(~b_1 -> ~chi_1- t )
     7.10114266E-02    2     1000006       -37   # BR(~b_1 -> ~t_1    H-)
     1.52770006E-01    2     1000006       -24   # BR(~b_1 -> ~t_1    W-)
#
#         PDG            Width
DECAY   2000005     3.44306299E+01   # sbottom2 decays
#          BR         NDA      ID1       ID2
     4.83502534E-04    2     1000022         5   # BR(~b_2 -> ~chi_10 b )
     6.79188752E-04    2     1000023         5   # BR(~b_2 -> ~chi_20 b )
     9.48696551E-01    2    -1000024         6   # BR(~b_2 -> ~chi_1- t )
     1.81286705E-02    2     1000006       -37   # BR(~b_2 -> ~t_1    H-)
     3.20120870E-02    2     1000006       -24   # BR(~b_2 -> ~t_1    W-)
#
#         PDG            Width
DECAY   1000002     4.58498962E-02   # sup_L decays
#          BR         NDA      ID1       ID2
     2.03439360E-01    2     1000022         2   # BR(~u_L -> ~chi_10 u)
     1.19887535E-02    2     1000023         2   # BR(~u_L -> ~chi_20 u)
     7.84571886E-01    2     1000024         1   # BR(~u_L -> ~chi_1+ d)
#
#         PDG            Width
DECAY   2000002     2.17418871E-03   # sup_R decays
#          BR         NDA      ID1       ID2
     9.44349146E-01    2     1000022         2   # BR(~u_R -> ~chi_10 u)
     5.56508535E-02    2     1000023         2   # BR(~u_R -> ~chi_20 u)
#
#         PDG            Width
DECAY   1000001     2.85405759E-02   # sdown_L decays
#          BR         NDA      ID1       ID2
     4.98199520E-01    2     1000022         1   # BR(~d_L -> ~chi_10 d)
     2.93590935E-02    2     1000023         1   # BR(~d_L -> ~chi_20 d)
     9.98961601E-04    2     1000025         1   # BR(~d_L -> ~chi_30 d)
     4.70178378E-01    2    -1000024         2   # BR(~d_L -> ~chi_1- u)
     1.26404675E-03    2     1000021         1   # BR(~d_L -> ~g      d)
#
#         PDG            Width
DECAY   2000001     5.50215528E-04   # sdown_R decays
#          BR         NDA      ID1       ID2
     9.32932537E-01    2     1000022         1   # BR(~d_R -> ~chi_10 d)
     5.49780790E-02    2     1000023         1   # BR(~d_R -> ~chi_20 d)
     9.72113008E-03    2     1000025         1   # BR(~d_R -> ~chi_30 d)
     2.36825422E-03    2     1000021         1   # BR(~d_R -> ~g      d)
#
#         PDG            Width
DECAY   1000004     4.58498962E-02   # scharm_L decays
#          BR         NDA      ID1       ID2
     2.03439360E-01    2     1000022         4   # BR(~c_L -> ~chi_10 c)
     1.19887535E-02    2     1000023         4   # BR(~c_L -> ~chi_20 c)
     7.84571886E-01    2     1000024         3   # BR(~c_L -> ~chi_1+ s)
#
#         PDG            Width
DECAY   2000004     2.17418871E-03   # scharm_R decays
#          BR         NDA      ID1       ID2
     9.44349146E-01    2     1000022         4   # BR(~c_R -> ~chi_10 c)
     5.56508535E-02    2     1000023         4   # BR(~c_R -> ~chi_20 c)
#
#         PDG            Width
DECAY   1000003     2.85405759E-02   # sstrange_L decays
#          BR         NDA      ID1       ID2
     4.98199520E-01    2     1000022         3   # BR(~s_L -> ~chi_10 s)
     2.93590935E-02    2     1000023         3   # BR(~s_L -> ~chi_20 s)
     9.98961601E-04    2     1000025         3   # BR(~s_L -> ~chi_30 s)
     4.70178378E-01    2    -1000024         4   # BR(~s_L -> ~chi_1- c)
     1.26404675E-03    2     1000021         3   # BR(~s_L -> ~g      s)
#
#         PDG            Width
DECAY   2000003     5.50215528E-04   # sstrange_R decays
#          BR         NDA      ID1       ID2
     9.32932537E-01    2     1000022         3   # BR(~s_R -> ~chi_10 s)
     5.49780790E-02    2     1000023         3   # BR(~s_R -> ~chi_20 s)
     9.72113008E-03    2     1000025         3   # BR(~s_R -> ~chi_30 s)
     2.36825422E-03    2     1000021         3   # BR(~s_R -> ~g      s)
#
#         PDG            Width
DECAY   1000011     1.99142350E-02   # selectron_L decays
#          BR         NDA      ID1       ID2
     2.84563488E-01    2     1000022        11   # BR(~e_L -> ~chi_10 e-)
     1.67668794E-02    2     1000023        11   # BR(~e_L -> ~chi_20 e-)
     2.04771291E-05    2     1000025        11   # BR(~e_L -> ~chi_30 e-)
     6.98649155E-01    2    -1000024        12   # BR(~e_L -> ~chi_1- nu_e)
#
#         PDG            Width
DECAY   2000011     5.07291023E-03   # selectron_R decays
#          BR         NDA      ID1       ID2
     9.44293008E-01    2     1000022        11   # BR(~e_R -> ~chi_10 e-)
     5.56390872E-02    2     1000023        11   # BR(~e_R -> ~chi_20 e-)
     6.79047729E-05    2     1000025        11   # BR(~e_R -> ~chi_30 e-)
#
#         PDG            Width
DECAY   1000013     1.99142350E-02   # smuon_L decays
#          BR         NDA      ID1       ID2
     2.84563488E-01    2     1000022        13   # BR(~mu_L -> ~chi_10 mu-)
     1.67668794E-02    2     1000023        13   # BR(~mu_L -> ~chi_20 mu-)
     2.04771291E-05    2     1000025        13   # BR(~mu_L -> ~chi_30 mu-)
     6.98649155E-01    2    -1000024        14   # BR(~mu_L -> ~chi_1- nu_mu)
#
#         PDG            Width
DECAY   2000013     5.07291023E-03   # smuon_R decays
#          BR         NDA      ID1       ID2
     9.44293008E-01    2     1000022        13   # BR(~mu_R -> ~chi_10 mu-)
     5.56390872E-02    2     1000023        13   # BR(~mu_R -> ~chi_20 mu-)
     6.79047729E-05    2     1000025        13   # BR(~mu_R -> ~chi_30 mu-)
#
#         PDG            Width
DECAY   1000015     1.00000000E-10   # stau_1 decays
#          BR         NDA      ID1       ID2
     1.00000000E+00    2     1000039        15   # BR(~tau_1 -> ~G       tau-)
#
#         PDG            Width
DECAY   2000015     4.39612747E-02   # stau_2 decays
#          BR         NDA      ID1       ID2
     3.96560994E-01    2     1000022        15   # BR(~tau_2 -> ~chi_10  tau-)
     2.74301797E-01    2     1000023        15   # BR(~tau_2 -> ~chi_20  tau-)
     3.16297252E-01    2    -1000024        16   # BR(~tau_2 -> ~chi_1-  nu_tau)
     5.73191428E-03    2     1000015        25   # BR(~tau_2 -> ~tau_1   h)
     6.79821150E-04    2     1000015        35   # BR(~tau_2 -> ~tau_1   H)
     6.93541112E-04    2     1000015        36   # BR(~tau_2 -> ~tau_1   A)
     5.73468042E-03    2     1000015        23   # BR(~tau_2 -> ~tau_1   Z)
#
#         PDG            Width
DECAY   1000012     5.93890810E-02   # snu_eL decays
#          BR         NDA      ID1       ID2
     3.51422434E-01    2     1000022        12   # BR(~nu_eL -> ~chi_10 nu_e)
     2.07062930E-02    2     1000023        12   # BR(~nu_eL -> ~chi_20 nu_e)
     6.27871273E-01    2     1000024        11   # BR(~nu_eL -> ~chi_1+ e-)
#
#         PDG            Width
DECAY   1000014     5.93890810E-02   # snu_muL decays
#          BR         NDA      ID1       ID2
     3.51422434E-01    2     1000022        14   # BR(~nu_muL -> ~chi_10 nu_mu)
     2.07062930E-02    2     1000023        14   # BR(~nu_muL -> ~chi_20 nu_mu)
     6.27871273E-01    2     1000024        13   # BR(~nu_muL -> ~chi_1+ mu-)
#
#         PDG            Width
DECAY   1000016     8.34202504E-02   # snu_tauL decays
#          BR         NDA      ID1       ID2
     2.50186919E-01    2     1000022        16   # BR(~nu_tauL -> ~chi_10 nu_tau)
     1.47413572E-02    2     1000023        16   # BR(~nu_tauL -> ~chi_20 nu_tau)
     7.28452263E-01    2     1000024        15   # BR(~nu_tauL -> ~chi_1+ tau-)
     7.26757606E-04    2    -1000015       -37   # BR(~nu_tauL -> ~tau_1+ H-)
     5.89270363E-03    2    -1000015       -24   # BR(~nu_tauL -> ~tau_1+ W-)
#
#         PDG            Width
DECAY   1000024     1.78239106E-03   # chargino1+ decays
#          BR         NDA      ID1       ID2
     1.00000000E+00    2    -1000015        16   # BR(~chi_1+ -> ~tau_1+  nu_tau)
     2.72482687E-12    2     1000039        24   # BR(~chi_1+ -> ~G       W+)
#
#         PDG            Width
DECAY   1000037     2.64984106E+01   # chargino2+ decays
#          BR         NDA      ID1       ID2
     2.43749084E-04    2     1000002        -1   # BR(~chi_2+ -> ~u_L     db)
     1.85767598E-04    2    -1000001         2   # BR(~chi_2+ -> ~d_L*    u )
     2.43749084E-04    2     1000004        -3   # BR(~chi_2+ -> ~c_L     sb)
     1.85767598E-04    2    -1000003         4   # BR(~chi_2+ -> ~s_L*    c )
     6.10111849E-03    2     1000006        -5   # BR(~chi_2+ -> ~t_1     bb)
     2.79111404E-06    2     1000012       -11   # BR(~chi_2+ -> ~nu_eL   e+  )
     2.79111404E-06    2     1000014       -13   # BR(~chi_2+ -> ~nu_muL  mu+ )
     2.38375509E-06    2     1000016       -15   # BR(~chi_2+ -> ~nu_tau1 tau+)
     1.69353191E-06    2    -1000011        12   # BR(~chi_2+ -> ~e_L+    nu_e)
     1.69353191E-06    2    -1000013        14   # BR(~chi_2+ -> ~mu_L+   nu_mu)
     2.00770926E-07    2    -1000015        16   # BR(~chi_2+ -> ~tau_1+  nu_tau)
     1.69264341E-06    2    -2000015        16   # BR(~chi_2+ -> ~tau_2+  nu_tau)
     2.32915522E-01    2     1000024        23   # BR(~chi_2+ -> ~chi_1+  Z )
     2.26522788E-01    2     1000022        24   # BR(~chi_2+ -> ~chi_10  W+)
     2.27473382E-01    2     1000023        24   # BR(~chi_2+ -> ~chi_20  W+)
     2.31243380E-01    2     1000024        25   # BR(~chi_2+ -> ~chi_1+  h )
     1.74840325E-02    2     1000024        35   # BR(~chi_2+ -> ~chi_1+  H )
     1.92193646E-02    2     1000024        36   # BR(~chi_2+ -> ~chi_1+  A )
     1.92603627E-02    2     1000022        37   # BR(~chi_2+ -> ~chi_10  H+)
     1.89077693E-02    2     1000023        37   # BR(~chi_2+ -> ~chi_20  H+)
     4.24849868E-12    2     1000039        24   # BR(~chi_2+ -> ~G       W+)
     1.16721025E-16    2     1000039        37   # BR(~chi_2+ -> ~G       H+)
#
#         PDG            Width
DECAY   1000022     2.52592249E-03   # neutralino1 decays
#          BR         NDA      ID1       ID2
     5.00000000E-01    2     1000015       -15   # BR(~chi_10 -> ~tau_1-   tau+)
     5.00000000E-01    2    -1000015        15   # BR(~chi_10 -> ~tau_1+   tau-)
     3.09642527E-28    2     1000039        22   # BR(~chi_10 -> ~G        gam)
     1.61780546E-12    2     1000039        23   # BR(~chi_10 -> ~G        Z)
     1.43586636E-13    2     1000039        25   # BR(~chi_10 -> ~G        h)
#
#         PDG            Width
DECAY   1000023     1.84209278E-03   # neutralino2 decays
#          BR         NDA      ID1       ID2
     5.00000000E-01    2     1000015       -15   # BR(~chi_20 -> ~tau_1-   tau+)
     5.00000000E-01    2    -1000015        15   # BR(~chi_20 -> ~tau_1+   tau-)
     1.39065180E-29    2     1000039        22   # BR(~chi_20 -> ~G        gam)
     2.61668411E-13    2     1000039        23   # BR(~chi_20 -> ~G        Z)
     1.92098099E-12    2     1000039        25   # BR(~chi_20 -> ~G        h)
#
#         PDG            Width
DECAY   1000025     3.58332320E+01   # neutralino3 decays
#          BR         NDA      ID1       ID2
     2.12634386E-10    2     1000022        23   # BR(~chi_30 -> ~chi_10   Z )
     2.55608507E-09    2     1000023        23   # BR(~chi_30 -> ~chi_20   Z )
     1.60606078E-01    2     1000024       -24   # BR(~chi_30 -> ~chi_1+   W-)
     1.60606078E-01    2    -1000024        24   # BR(~chi_30 -> ~chi_1-   W+)
     2.04771966E-09    2     1000022        25   # BR(~chi_30 -> ~chi_10   h )
     5.45153816E-11    2     1000022        35   # BR(~chi_30 -> ~chi_10   H )
     1.21335849E-10    2     1000022        36   # BR(~chi_30 -> ~chi_10   A )
     1.19002733E-10    2     1000023        25   # BR(~chi_30 -> ~chi_20   h )
     1.06931897E-10    2     1000023        35   # BR(~chi_30 -> ~chi_20   H )
     5.77906894E-11    2     1000023        36   # BR(~chi_30 -> ~chi_20   A )
     1.34066434E-02    2     1000024       -37   # BR(~chi_30 -> ~chi_1+   H-)
     1.34066434E-02    2    -1000024        37   # BR(~chi_30 -> ~chi_1-   H+)
     7.74295229E-06    2     1000002        -2   # BR(~chi_30 -> ~u_L      ub)
     7.74295229E-06    2    -1000002         2   # BR(~chi_30 -> ~u_L*     u )
     3.63519107E-06    2     2000002        -2   # BR(~chi_30 -> ~u_R      ub)
     3.63519107E-06    2    -2000002         2   # BR(~chi_30 -> ~u_R*     u )
     7.74295229E-06    2     1000004        -4   # BR(~chi_30 -> ~c_L      cb)
     7.74295229E-06    2    -1000004         4   # BR(~chi_30 -> ~c_L*     c )
     3.63519107E-06    2     2000004        -4   # BR(~chi_30 -> ~c_R      cb)
     3.63519107E-06    2    -2000004         4   # BR(~chi_30 -> ~c_R*     c )
     1.93916957E-01    2     1000006        -6   # BR(~chi_30 -> ~t_1      tb)
     1.93916957E-01    2    -1000006         6   # BR(~chi_30 -> ~t_1*     t )
     1.32058925E-01    2     1000015       -15   # BR(~chi_30 -> ~tau_1-   tau+)
     1.32058925E-01    2    -1000015        15   # BR(~chi_30 -> ~tau_1+   tau-)
     2.80643930E-16    2     1000012       -12   # BR(~chi_30 -> ~nu_eL    nu_eb)
     2.80643930E-16    2    -1000012        12   # BR(~chi_30 -> ~nu_eL*   nu_e )
     2.80643930E-16    2     1000014       -14   # BR(~chi_30 -> ~nu_muL   nu_mub)
     2.80643930E-16    2    -1000014        14   # BR(~chi_30 -> ~nu_muL*  nu_mu )
     2.80643930E-16    2     1000016       -16   # BR(~chi_30 -> ~nu_tau1  nu_taub)
     2.80643930E-16    2    -1000016        16   # BR(~chi_30 -> ~nu_tau1* nu_tau )
     3.13762565E-12    2     1000039        22   # BR(~chi_30 -> ~G        gam)
     3.01998432E-20    2     1000039        23   # BR(~chi_30 -> ~G        Z)
     1.09228126E-23    2     1000039        25   # BR(~chi_30 -> ~G        h)
     1.16173133E-24    2     1000039        35   # BR(~chi_30 -> ~G        H)
     3.01987257E-27    2     1000039        36   # BR(~chi_30 -> ~G        A)
#
#         PDG            Width
DECAY   1000035     2.94557341E+01   # neutralino4 decays
#          BR         NDA      ID1       ID2
     1.50337201E-02    2     1000022        23   # BR(~chi_40 -> ~chi_10   Z )
     2.60438604E-01    2     1000023        23   # BR(~chi_40 -> ~chi_20   Z )
     7.31820406E-02    2     1000024       -24   # BR(~chi_40 -> ~chi_1+   W-)
     7.31820406E-02    2    -1000024        24   # BR(~chi_40 -> ~chi_1-   W+)
     2.57701361E-01    2     1000022        25   # BR(~chi_40 -> ~chi_10   h )
     6.90855080E-03    2     1000022        35   # BR(~chi_40 -> ~chi_10   H )
     1.55184406E-02    2     1000022        36   # BR(~chi_40 -> ~chi_10   A )
     1.49895385E-02    2     1000023        25   # BR(~chi_40 -> ~chi_20   h )
     1.36962297E-02    2     1000023        35   # BR(~chi_40 -> ~chi_20   H )
     7.32151414E-03    2     1000023        36   # BR(~chi_40 -> ~chi_20   A )
     6.16705932E-03    2     1000024       -37   # BR(~chi_40 -> ~chi_1+   H-)
     6.16705932E-03    2    -1000024        37   # BR(~chi_40 -> ~chi_1-   H+)
     1.69463521E-04    2     1000002        -2   # BR(~chi_40 -> ~u_L      ub)
     1.69463521E-04    2    -1000002         2   # BR(~chi_40 -> ~u_L*     u )
     3.56754785E-05    2     2000002        -2   # BR(~chi_40 -> ~u_R      ub)
     3.56754785E-05    2    -2000002         2   # BR(~chi_40 -> ~u_R*     u )
     2.10496682E-04    2     1000001        -1   # BR(~chi_40 -> ~d_L      db)
     2.10496682E-04    2    -1000001         1   # BR(~chi_40 -> ~d_L*     d )
     8.37433193E-06    2     2000001        -1   # BR(~chi_40 -> ~d_R      db)
     8.37433193E-06    2    -2000001         1   # BR(~chi_40 -> ~d_R*     d )
     1.69463521E-04    2     1000004        -4   # BR(~chi_40 -> ~c_L      cb)
     1.69463521E-04    2    -1000004         4   # BR(~chi_40 -> ~c_L*     c )
     3.56754785E-05    2     2000004        -4   # BR(~chi_40 -> ~c_R      cb)
     3.56754785E-05    2    -2000004         4   # BR(~chi_40 -> ~c_R*     c )
     2.10496682E-04    2     1000003        -3   # BR(~chi_40 -> ~s_L      sb)
     2.10496682E-04    2    -1000003         3   # BR(~chi_40 -> ~s_L*     s )
     8.37433193E-06    2     2000003        -3   # BR(~chi_40 -> ~s_R      sb)
     8.37433193E-06    2    -2000003         3   # BR(~chi_40 -> ~s_R*     s )
     7.37976257E-02    2     1000006        -6   # BR(~chi_40 -> ~t_1      tb)
     7.37976257E-02    2    -1000006         6   # BR(~chi_40 -> ~t_1*     t )
     4.90700042E-07    2     1000011       -11   # BR(~chi_40 -> ~e_L-     e+)
     4.90700042E-07    2    -1000011        11   # BR(~chi_40 -> ~e_L+     e-)
     4.19979945E-07    2     2000011       -11   # BR(~chi_40 -> ~e_R-     e+)
     4.19979945E-07    2    -2000011        11   # BR(~chi_40 -> ~e_R+     e-)
     4.90700042E-07    2     1000013       -13   # BR(~chi_40 -> ~mu_L-    mu+)
     4.90700042E-07    2    -1000013        13   # BR(~chi_40 -> ~mu_L+    mu-)
     4.19979945E-07    2     2000013       -13   # BR(~chi_40 -> ~mu_R-    mu+)
     4.19979945E-07    2    -2000013        13   # BR(~chi_40 -> ~mu_R+    mu-)
     5.06073099E-02    2     1000015       -15   # BR(~chi_40 -> ~tau_1-   tau+)
     5.06073099E-02    2    -1000015        15   # BR(~chi_40 -> ~tau_1+   tau-)
     4.25143636E-07    2     2000015       -15   # BR(~chi_40 -> ~tau_2-   tau+)
     4.25143636E-07    2    -2000015        15   # BR(~chi_40 -> ~tau_2+   tau-)
     2.65464729E-06    2     1000012       -12   # BR(~chi_40 -> ~nu_eL    nu_eb)
     2.65464729E-06    2    -1000012        12   # BR(~chi_40 -> ~nu_eL*   nu_e )
     2.65464729E-06    2     1000014       -14   # BR(~chi_40 -> ~nu_muL   nu_mub)
     2.65464729E-06    2    -1000014        14   # BR(~chi_40 -> ~nu_muL*  nu_mu )
     2.65464729E-06    2     1000016       -16   # BR(~chi_40 -> ~nu_tau1  nu_taub)
     2.65464729E-06    2    -1000016        16   # BR(~chi_40 -> ~nu_tau1* nu_tau )
     4.73551286E-20    2     1000039        22   # BR(~chi_40 -> ~G        gam)
     3.82257656E-12    2     1000039        23   # BR(~chi_40 -> ~G        Z)
     9.49873557E-16    2     1000039        25   # BR(~chi_40 -> ~G        h)
     1.24634147E-16    2     1000039        35   # BR(~chi_40 -> ~G        H)
     1.38020095E-18    2     1000039        36   # BR(~chi_40 -> ~G        A)
#
#         PDG            Width
DECAY        25     2.37381862E-03   # h decays
#          BR         NDA      ID1       ID2
     3.29455521E-01    2           5        -5   # BR(h -> b       bb     )
     1.09833206E-01    2         -15        15   # BR(h -> tau+    tau-   )
     3.88769098E-04    2         -13        13   # BR(h -> mu+     mu-    )
     8.23849979E-04    2           3        -3   # BR(h -> s       sb     )
     3.55427591E-02    2           4        -4   # BR(h -> c       cb     )
     1.27680743E-01    2          21        21   # BR(h -> g       g      )
     3.78161181E-03    2          22        22   # BR(h -> gam     gam    )
     2.64602270E-03    2          22        23   # BR(h -> Z       gam    )
     3.45756627E-01    2          24       -24   # BR(h -> W+      W-     )
     4.40908904E-02    2          23        23   # BR(h -> Z       Z      )
#
#         PDG            Width
DECAY        35     1.26680269E+03   # H decays
#          BR         NDA      ID1       ID2
     9.83902686E-01    2           5        -5   # BR(H -> b       bb     )
     1.18643901E-05    2         -15        15   # BR(H -> tau+    tau-   )
     4.19450788E-08    2         -13        13   # BR(H -> mu+     mu-    )
     5.47353919E-08    2           3        -3   # BR(H -> s       sb     )
     1.55496807E-07    2           4        -4   # BR(H -> c       cb     )
     1.56839558E-02    2           6        -6   # BR(H -> t       tb     )
     1.57745437E-05    2          21        21   # BR(H -> g       g      )
     5.89853668E-08    2          22        22   # BR(H -> gam     gam    )
     1.93898558E-08    2          23        22   # BR(H -> Z       gam    )
     5.57794853E-06    2          24       -24   # BR(H -> W+      W-     )
     2.77971366E-06    2          23        23   # BR(H -> Z       Z      )
     2.10107490E-05    2          25        25   # BR(H -> h       h      )
     5.53667517E-20    2          36        36   # BR(H -> A       A      )
     4.77109229E-09    2          23        36   # BR(H -> Z       A      )
     7.64863824E-09    2          24       -37   # BR(H -> W+      H-     )
     7.64863824E-09    2         -24        37   # BR(H -> W-      H+     )
     6.74617788E-06    2     1000024  -1000024   # BR(H -> ~chi_1+ ~chi_1-)
     1.91345846E-06    2     1000022   1000022   # BR(H -> ~chi_10 ~chi_10)
     1.01343882E-06    2     1000023   1000023   # BR(H -> ~chi_20 ~chi_20)
     9.01992521E-06    2     1000022   1000023   # BR(H -> ~chi_10 ~chi_20)
     3.36098822E-04    2     1000006  -1000006   # BR(H -> ~t_1    ~t_1*  )
     1.20856886E-06    2     1000015  -1000015   # BR(H -> ~tau_1- ~tau_1+)
#
#         PDG            Width
DECAY        36     1.25331102E+03   # A decays
#          BR         NDA      ID1       ID2
     9.83939528E-01    2           5        -5   # BR(A -> b       bb     )
     1.18676703E-05    2         -15        15   # BR(A -> tau+    tau-   )
     4.19565176E-08    2         -13        13   # BR(A -> mu+     mu-    )
     5.57483210E-08    2           3        -3   # BR(A -> s       sb     )
     1.55738333E-07    2           4        -4   # BR(A -> c       cb     )
     1.59749620E-02    2           6        -6   # BR(A -> t       tb     )
     1.69968729E-05    2          21        21   # BR(A -> g       g      )
     4.75167054E-08    2          22        22   # BR(A -> gam     gam    )
     2.35811890E-08    2          23        22   # BR(A -> Z       gam    )
     5.37530238E-06    2          23        25   # BR(A -> Z       h      )
     2.94880057E-05    2     1000024  -1000024   # BR(A -> ~chi_1+ ~chi_1-)
     2.12513898E-05    2     1000022   1000022   # BR(A -> ~chi_10 ~chi_10)
     1.38124495E-07    2     1000023   1000023   # BR(A -> ~chi_20 ~chi_20)
     6.82425265E-08    2     1000022   1000023   # BR(A -> ~chi_10 ~chi_20)
#
#         PDG            Width
DECAY        37     1.22814349E+03   # H+ decays
#          BR         NDA      ID1       ID2
     1.58016984E-03    2           4        -5   # BR(H+ -> c       bb     )
     1.21230609E-05    2         -15        16   # BR(H+ -> tau+    nu_tau )
     4.28594158E-08    2         -13        14   # BR(H+ -> mu+     nu_mu  )
     1.01130542E-05    2           2        -5   # BR(H+ -> u       bb     )
     2.69399711E-09    2           2        -3   # BR(H+ -> u       sb     )
     2.07743172E-07    2           4        -3   # BR(H+ -> c       sb     )
     9.98384919E-01    2           6        -5   # BR(H+ -> t       bb     )
     5.51182006E-06    2          24        25   # BR(H+ -> W+      h      )
     2.05987793E-14    2          24        36   # BR(H+ -> W+      A      )
     4.10049891E-07    2     1000024   1000022   # BR(H+ -> ~chi_1+ ~chi_10)
     6.49981002E-06    2     1000024   1000023   # BR(H+ -> ~chi_1+ ~chi_20)
