##******************************************************************
##
##     MODIFIED
##
##******************************************************************
#
BLOCK DCINFO  # Decay Program information
     1   SDECAY      # decay calculator
     2   1.1a        # version number
#
BLOCK SPINFO  # Spectrum calculator information
     1   SuSpect                                           
     2   2.41                                              
#
BLOCK MODSEL  # Model selection
     1     1   #SUGRA                                            
#
BLOCK SMINPUTS  # Standard Model inputs
     1     1.27934000E+02   # alpha_em^-1(M_Z)^MSbar
     2     1.16639000E-05   # G_F [GeV^-2]
     3     1.17200000E-01   # alpha_S(M_Z)^MSbar
     4     9.11870000E+01   # M_Z pole mass
     6     1.72500000E+02   # mt pole mass
     7     1.77710000E+00   # mtau pole mass
#
BLOCK MINPAR  # Input parameters - minimal models
     1     3.00000000E+02   #   m0                
     2     2.50000000E+02   #   m_1/2             
     3     5.00000000E+00   #   tanbeta(mZ)       
     4     1.00000000E+00   #   sign(mu)          
     5    -1.00000000E+02   #   A0                
#
BLOCK EXTPAR  # Input parameters - non-minimal models
     0     4.65777483E+02   #  EWSB scale         
#
BLOCK MASS  # Mass Spectrum
# PDG code           mass       particle
         5     4.87877839E+00   # b-quark pole mass
         6     1.72500000E+02   # t-quark pole mass (not read by ME)
        24     7.98285576E+01   # W+
        25     3.09932416E+02   # h
        35     3.94935594E+02   # H
        36     3.94525487E+02   # A
        37     4.02953218E+02   # H+
   1000001     3.00000000E+04   # ~d_L
   2000001     3.00000000E+04   # ~d_R
   1000002     3.00000000E+04   # ~u_L
   2000002     3.00000000E+04   # ~u_R
   1000003     3.00000000E+04   # ~s_L
   2000003     3.00000000E+04   # ~s_R
   1000004     3.00000000E+04   # ~c_L
   2000004     3.00000000E+04   # ~c_R
   1000005     3.00000000E+04   # ~b_1
   2000005     3.00000000E+04   # ~b_2
   1000006     800   # ~t_1
   2000006     3.00000000E+03   # ~t_2
   1000011     2.00774228E+04   # ~e_L
   2000011     1.42820157E+04   # ~e_R
   1000012     1.84853985E+04   # ~nu_eL
   1000013     2.00774228E+04   # ~mu_L
   2000013     1.42820157E+04   # ~mu_R
   1000014     1.84853985E+04   # ~nu_muL
   1000015     1.33342244E+04   # ~tau_1
   2000015     2.04795115E+04   # ~tau_2
   1000016     1.83966053E+04   # ~nu_tauL
   1000021     1400   # ~g
   1000022     6.00000000E+01   # ~chi_10
   1000023     8.50000000E+02   # ~chi_20
   1000025     1.00000000E+03   # ~chi_30
   1000035     8.77781490E+02   # ~chi_40
   1000024     9.50000000E+02   # ~chi_1+
   1000037     1.00000000E+03   # ~chi_2+
#
BLOCK NMIX  # Neutralino Mixing Matrix
  1  1     1.00000000E+00   # N_11
  1  2     0.00000000E+00   # N_12
  1  3     0.00000000E+00   # N_13
  1  4     0.00000000E+00   # N_14
  2  1     0.00000000E+00   # N_21
  2  2     1.00000000E+00   # N_22
  2  3     0.00000000E+00   # N_23
  2  4     0.00000000E+00   # N_24
  3  1     0.00000000E+00   # N_31
  3  2     0.00000000E+00   # N_32
  3  3     1.00000000E+00   # N_33
  3  4     0.00000000E+00   # N_34
  4  1     0.00000000E+00   # N_41
  4  2     0.00000000E+00   # N_42
  4  3     0.00000000E+00   # N_43
  4  4     1.00000000E+00   # N_44
#
BLOCK UMIX  # Chargino Mixing Matrix U
  1  1    -9.11420712E-01   # U_11
  1  2     4.11475741E-01   # U_12
  2  1     4.11475741E-01   # U_21
  2  2     9.11420712E-01   # U_22
#
BLOCK VMIX  # Chargino Mixing Matrix V
  1  1    -9.70421546E-01   # V_11
  1  2     2.41416701E-01   # V_12
  2  1     2.41416701E-01   # V_21
  2  2     9.70421546E-01   # V_22
#
BLOCK STOPMIX  # Stop Mixing Matrix
  1  1     5.52988023E-01   # O_{11}
  1  2     8.33189202E-01   # O_{12}
  2  1    -8.33189202E-01   # O_{21}
  2  2     5.52988023E-01   # O_{22}
#
BLOCK SBOTMIX  # Sbottom Mixing Matrix
  1  1     9.30091013E-01   # O_{11}
  1  2     3.67329153E-01   # O_{12}
  2  1    -3.67329153E-01   # O_{21}
  2  2     9.30091013E-01   # O_{22}
#
BLOCK STAUMIX  # Stau Mixing Matrix
  1  1     2.84460080E-01   # O_{11}
  1  2     9.58687886E-01   # O_{12}
  2  1    -9.58687886E-01   # O_{21}
  2  2     2.84460080E-01   # O_{22}
#
BLOCK ALPHA  # Higgs mixing
          -1.14188003E-01   # Mixing angle in the neutral Higgs boson sector
#
BLOCK HMIX Q=  4.65777483E+02  # DRbar Higgs Parameters
     1     3.52164860E+02   #  mu(Q)              
     2     9.75041102E+00   #  tanbeta(Q)         
     3     2.45014641E+02   #  vev(Q)             
     4     1.62371513E+05   #  MA^2(Q)            
#
BLOCK GAUGE Q=  4.65777483E+02  # The gauge couplings
     3     1.09890437E+00   # g3(Q) MSbar
#
BLOCK AU Q=  4.65777483E+02  # The trilinear couplings
  3  3    -5.06144039E+02   # A_t(Q) DRbar
#
BLOCK AD Q=  4.65777483E+02  # The trilinear couplings
  3  3    -7.96595982E+02   # A_b(Q) DRbar
#
BLOCK AE Q=  4.65777483E+02  # The trilinear couplings
  3  3    -2.51542764E+02   # A_tau(Q) DRbar
#
BLOCK YU Q=  4.65777483E+02  # The Yukawa couplings
  3  3     8.78978125E-01   # y_t(Q) DRbar
#
BLOCK YD Q=  4.65777483E+02  # The Yukawa couplings
  3  3     1.39517330E-01   # y_b(Q) DRbar
#
BLOCK YE Q=  4.65777483E+02  # The Yukawa couplings
  3  3     1.01147257E-01   # y_tau(Q) DRbar
#
BLOCK MSOFT Q=  4.65777483E+02  # The soft SUSY breaking masses at the scale Q
     1     1.01486794E+02   #  M_1                
     2     1.91565439E+02   #  M_2                
     3     5.86284400E+02   #  M_3                
    21     3.23226904E+04   #  M^2_Hd             
    22    -1.24993993E+05   #  M^2_Hu             
    31     1.95443359E+02   #  M_eL               
    32     1.95443359E+02   #  M_muL              
    33     1.94603750E+02   #  M_tauL             
    34     1.35950985E+02   #  M_eR               
    35     1.35950985E+02   #  M_muR              
    36     1.33480599E+02   #  M_tauR             
    41     5.45553618E+02   #  M_q1L              
    42     5.45553618E+02   #  M_q2L              
    43     4.97578078E+02   #  M_q3L              
    44     5.27538927E+02   #  M_uR               
    45     5.27538927E+02   #  M_cR               
    46     4.23429537E+02   #  M_tR               
    47     5.25444117E+02   #  M_dR               
    48     5.25444117E+02   #  M_sR               
    49     5.22139557E+02   #  M_bR               
#
#
#
#                             =================
#                             |The decay table|
#                             =================
#
# - The multi-body decays for the inos, stops and sbottoms are included.
#
# - The SUSY decays of the top quark are included.
#
#

#
#         PDG            Width
DECAY         6     1.40548311E+00   # top decays
#          BR         NDA      ID1       ID2
     1.00000000E+00    2           5        24   # BR(t ->  b    W+)
#
#         PDG            Width
DECAY   1000021     1.12288956E+01   # gluino decays
#          BR         NDA      ID1       ID2
     5.00000000E-01    2     1000006        -6   # BR(~g -> ~t_1  tb)
     5.00000000E-01    2    -1000006         6   # BR(~g -> ~t_1* t )
#
#         PDG            Width
DECAY   1000006     1.28689240E-01   # stop1 decays
#          BR         NDA      ID1       ID2
     1.0000000E+00    2     1000022         6   # BR(~t_1 -> ~chi_10 t )
