#
#                              ======================
#                              | THE SUSYHIT OUTPUT |
#                              ======================
#
#
#              ------------------------------------------------------
#              |     This is the output of the SUSY-HIT package     |
#              |  created by A.Djouadi, M.Muehlleitner and M.Spira. |
#              |  In case of problems with SUSY-HIT email to        |
#              |           margarete.muehlleitner@cern.ch           |
#              |           michael.spira@psi.ch                     |
#              |           abdelhak.djouadi@cern.ch                 |
#              ------------------------------------------------------
#
#              ------------------------------------------------------
#              |  SUSY Les Houches Accord - MSSM Spectrum + Decays  |
#              |              based on the decay programs           |
#              |                                                    |
#              |                     SDECAY 1.3b                    |
#              |                                                    |
#              |  Authors: M.Muhlleitner, A.Djouadi and Y.Mambrini  |
#              |  Ref.:    Comput.Phys.Commun.168(2005)46           |
#              |           [hep-ph/0311167]                         |
#              |                                                    |
#              |                     HDECAY 3.4                     |
#              |                                                    |
#              |  By: A.Djouadi,J.Kalinowski,M.Muhlleitner,M.Spira  |
#              |  Ref.:    Comput.Phys.Commun.108(1998)56           |
#              |           [hep-ph/9704448]                         |
#              |                                                    |
#              |                                                    |
#              |  If not stated otherwise all DRbar couplings and   |
#              |  soft SUSY breaking masses are given at the scale  |
#              |  Q=  0.31908860E+04
#              |                                                    |
#              ------------------------------------------------------
#
#
BLOCK DCINFO  # Decay Program information
     1   SDECAY/HDECAY # decay calculator
     2   1.3b  /3.4    # version number
#
BLOCK SPINFO  # Spectrum calculator information
     1     SOFTSUSY    # spectrum calculator               
     2     3.4.0       # version number                    
#
BLOCK MODSEL  # Model selection
     1     0   #  nonUniversal                                     
#
BLOCK SMINPUTS  # Standard Model inputs
         1     1.27908970E+02   # alpha_em^-1(M_Z)^MSbar
         2     1.16637870E-05   # G_F [GeV^-2]
         3     1.18400000E-01   # alpha_S(M_Z)^MSbar
         4     9.11876000E+01   # M_Z pole mass
         5     4.18000000E+00   # mb(mb)^MSbar
         6     1.73200000E+02   # mt pole mass
         7     1.77700000E+00   # mtau pole mass
#
BLOCK MINPAR  # Input parameters - minimal models
         3     3.49700000E+01   # tanb                
#
BLOCK EXTPAR  # Input parameters - non-minimal models
         0    -1.00000000E+00   # Set                 
         1     8.26490000E+02   # M_1(MX)             
         2    -2.60543000E+03   # M_2(MX)             
         3     3.14864000E+03   # M_3(MX)             
        11    -4.98196000E+03   # At(MX)              
        12     3.57900000E+03   # Ab(MX)              
        13     3.87893000E+03   # Atau(MX)            
        23    -1.44670000E+02   # mu(MX)              
        26     2.99457000E+03   # mA(pole)            
        31     5.27340000E+02   # meL(MX)             
        32     5.27340000E+02   # mmuL(MX)            
        33     1.88102000E+03   # mtauL(MX)           
        34     2.70489000E+03   # meR(MX)             
        35     2.70489000E+03   # mmuR(MX)            
        36     2.55030000E+03   # mtauR(MX)           
        41     7.78760000E+02   # mqL1(MX)            
        42     7.78760000E+02   # mqL2(MX)            
        43     3.61667000E+03   # mqL3(MX)            
        44     3.82336000E+03   # muR(MX)             
        45     3.82336000E+03   # mcR(MX)             
        46     2.81673000E+03   # mtR(MX)             
        47     6.62680000E+02   # mdR(MX)             
        48     6.62680000E+02   # msR(MX)             
        49     2.77623000E+03   # mbR(MX)             
#
BLOCK MASS  # Mass Spectrum
# PDG code           mass       particle
        24     8.03742041E+01   # W+
        25     1.27795292E+02   # h
        35     2.99457719E+03   # H
        36     2.99457001E+03   # A
        37     2.99582037E+03   # H+
         5     4.81876030E+00   # b-quark pole mass calculated from mb(mb)_Msbar
   1000001     1.05035355E+03   # ~d_L
   2000001     9.16539222E+02   # ~d_R
   1000002     1.04739022E+03   # ~u_L
   2000002     3.90810822E+03   # ~u_R
   1000003     1.05035355E+03   # ~s_L
   2000003     9.16539222E+02   # ~s_R
   1000004     1.04739022E+03   # ~c_L
   2000004     3.90810822E+03   # ~c_R
   1000005     2.87824802E+03   # ~b_1
   2000005     3.66245714E+03   # ~b_2
   1000006     2.84088319E+03   # ~t_1
   2000006     3.67726956E+03   # ~t_2
   1000011     5.94456438E+02   # ~e_L
   2000011     2.71122137E+03   # ~e_R
   1000012     5.89068579E+02   # ~nu_eL
   1000013     5.94456438E+02   # ~mu_L
   2000013     2.71122137E+03   # ~mu_R
   1000014     5.89068579E+02   # ~nu_muL
   1000015     1.90222204E+03   # ~tau_1
   2000015     2.54331141E+03   # ~tau_2
   1000016     1.90032197E+03   # ~nu_tauL
   1000021     3.26520394E+03   # ~g
   1000022     1.52337544E+02   # ~chi_10
   1000023    -1.52736493E+02   # ~chi_20
   1000025     8.16782279E+02   # ~chi_30
   1000035    -2.58982692E+03   # ~chi_40
   1000024     1.52850160E+02   # ~chi_1+
   1000037     2.58999279E+03   # ~chi_2+
#
BLOCK NMIX  # Neutralino Mixing Matrix
  1  1    -4.56471373E-02   # N_11
  1  2    -1.94804721E-02   # N_12
  1  3     7.07430133E-01   # N_13
  1  4     7.05038621E-01   # N_14
  2  1    -3.31865178E-02   # N_21
  2  2    -2.32385021E-02   # N_22
  2  3    -7.06722950E-01   # N_23
  2  4     7.06329455E-01   # N_24
  3  1     9.98406137E-01   # N_31
  3  2    -1.23776911E-03   # N_32
  3  3     8.85147639E-03   # N_33
  3  4     5.57252715E-02   # N_34
  4  1    -4.24832163E-04   # N_41
  4  2     9.99539369E-01   # N_42
  4  3    -2.63236628E-03   # N_43
  4  4     3.02314242E-02   # N_44
#
BLOCK UMIX  # Chargino Mixing Matrix U
  1  1     3.72292810E-03   # U_11
  1  2     9.99993070E-01   # U_12
  2  1    -9.99993070E-01   # U_21
  2  2     3.72292810E-03   # U_22
#
BLOCK VMIX  # Chargino Mixing Matrix V
  1  1    -4.27566494E-02   # V_11
  1  2    -9.99085516E-01   # V_12
  2  1     9.99085516E-01   # V_21
  2  2    -4.27566494E-02   # V_22
#
BLOCK STOPMIX  # Stop Mixing Matrix
  1  1     1.28552722E-01   # cos(theta_t)
  1  2     9.91702676E-01   # sin(theta_t)
  2  1    -9.91702676E-01   # -sin(theta_t)
  2  2     1.28552722E-01   # cos(theta_t)
#
BLOCK SBOTMIX  # Sbottom Mixing Matrix
  1  1    -3.76507863E-03   # cos(theta_b)
  1  2     9.99992912E-01   # sin(theta_b)
  2  1    -9.99992912E-01   # -sin(theta_b)
  2  2    -3.76507863E-03   # cos(theta_b)
#
BLOCK STAUMIX  # Stau Mixing Matrix
  1  1     9.99984512E-01   # cos(theta_tau)
  1  2    -5.56558713E-03   # sin(theta_tau)
  2  1     5.56558713E-03   # -sin(theta_tau)
  2  2     9.99984512E-01   # cos(theta_tau)
#
BLOCK ALPHA  # Higgs mixing
          -2.95121611E-02   # Mixing angle in the neutral Higgs boson sector
#
BLOCK HMIX Q=  3.19088600E+03  # DRbar Higgs Parameters
         1    -1.47653277E+02   # mu(Q)MSSM           
         2     3.39685168E+01   # tan                 
         3     2.42457959E+02   # higgs               
         4     9.08948616E+06   # mA^2(Q)MSSM         
#
BLOCK GAUGE Q=  3.19088600E+03  # The gauge couplings
     1     3.65607558E-01   # gprime(Q) DRbar
     2     6.39716183E-01   # g(Q) DRbar
     3     1.01039141E+00   # g3(Q) DRbar
#
BLOCK AU Q=  3.19088600E+03  # The trilinear couplings
  1  1     0.00000000E+00   # A_u(Q) DRbar
  2  2     0.00000000E+00   # A_c(Q) DRbar
  3  3    -4.98195998E+03   # A_t(Q) DRbar
#
BLOCK AD Q=  3.19088600E+03  # The trilinear couplings
  1  1     0.00000000E+00   # A_d(Q) DRbar
  2  2     0.00000000E+00   # A_s(Q) DRbar
  3  3     3.57900001E+03   # A_b(Q) DRbar
#
BLOCK AE Q=  3.19088600E+03  # The trilinear couplings
  1  1     0.00000000E+00   # A_e(Q) DRbar
  2  2     0.00000000E+00   # A_mu(Q) DRbar
  3  3     3.87893000E+03   # A_tau(Q) DRbar
#
BLOCK Yu Q=  3.19088600E+03  # The Yukawa couplings
  1  1     0.00000000E+00   # y_u(Q) DRbar
  2  2     0.00000000E+00   # y_c(Q) DRbar
  3  3     8.10594861E-01   # y_t(Q) DRbar
#
BLOCK Yd Q=  3.19088600E+03  # The Yukawa couplings
  1  1     0.00000000E+00   # y_d(Q) DRbar
  2  2     0.00000000E+00   # y_s(Q) DRbar
  3  3     4.62195347E-01   # y_b(Q) DRbar
#
BLOCK Ye Q=  3.19088600E+03  # The Yukawa couplings
  1  1     0.00000000E+00   # y_e(Q) DRbar
  2  2     0.00000000E+00   # y_mu(Q) DRbar
  3  3     3.51047861E-01   # y_tau(Q) DRbar
#
BLOCK MSOFT Q=  3.19088600E+03  # The soft SUSY breaking masses at the scale Q
         1     8.26490000E+02   # M_1(Q)              
         2    -2.60543000E+03   # M_2(Q)              
         3     3.14864000E+03   # M_3(Q)              
        21     9.04245253E+06   # mH1^2(Q)            
        22     1.39999605E+05   # mH2^2(Q)            
        31     5.27340000E+02   # meL(Q)              
        32     5.27340000E+02   # mmuL(Q)             
        33     1.88102000E+03   # mtauL(Q)            
        34     2.70489000E+03   # meR(Q)              
        35     2.70489000E+03   # mmuR(Q)             
        36     2.55030000E+03   # mtauR(Q)            
        41     7.78759957E+02   # mqL1(Q)             
        42     7.78759957E+02   # mqL2(Q)             
        43     3.61666998E+03   # mqL3(Q)             
        44     3.82335999E+03   # muR(Q)              
        45     3.82335999E+03   # mcR(Q)              
        46     2.81672996E+03   # mtR(Q)              
        47     6.62679949E+02   # mdR(Q)              
        48     6.62679949E+02   # msR(Q)              
        49     2.77622999E+03   # mbR(Q)              
#
Block HiggsBoundsInputHiggsCouplingsFermions
# ScalarNormEffCoupSq PseudoSNormEffCoupSq NP   IP1 IP2 IP2
    1.00555383E+00    0.00000000E+00        3  25   5   5  # h0-b-b eff. coupling^2, normalised to SM
    1.15385458E+03    0.00000000E+00        3  35   5   5  # H0-b-b eff. coupling^2, normalised to SM
    0.00000000E+00    1.15386013E+03        3  36   5   5  # A0-b-b eff. coupling^2, normalised to SM
#
    9.99995187E-01    0.00000000E+00        3  25   6   6  # h0-t-t eff. coupling^2, normalised to SM
    8.71469431E-04    0.00000000E+00        3  35   6   6  # H0-t-t eff. coupling^2, normalised to SM
    0.00000000E+00    8.66656166E-04        3  36   6   6  # A0-t-t eff. coupling^2, normalised to SM
#
    1.00555383E+00    0.00000000E+00        3  25  15  15  # h0-tau-tau eff. coupling^2, normalised to SM
    1.15385458E+03    0.00000000E+00        3  35  15  15  # H0-tau-tau eff. coupling^2, normalised to SM
    0.00000000E+00    1.15386013E+03        3  36  15  15  # A0-tau-tau eff. coupling^2, normalised to SM
#
Block HiggsBoundsInputHiggsCouplingsBosons
    9.99999993E-01        3  25  24  24  # h0-W-W eff. coupling^2, normalised to SM
    6.66454009E-09        3  35  24  24  # H0-W-W eff. coupling^2, normalised to SM
    0.00000000E+00        3  36  24  24  # A0-W-W eff. coupling^2, normalised to SM
#
    9.99999993E-01        3  25  23  23  # h0-Z-Z eff. coupling^2, normalised to SM
    6.66454009E-09        3  35  23  23  # H0-Z-Z eff. coupling^2, normalised to SM
    0.00000000E+00        3  36  23  23  # A0-Z-Z eff. coupling^2, normalised to SM
#
    8.87683348E-01        3  25  21  21  # h0-g-g eff. coupling^2, normalised to SM
    4.26418040E-13        3  35  21  21  # H0-g-g eff. coupling^2, normalised to SM
    2.90942319E-12        3  36  21  21  # A0-g-g eff. coupling^2, normalised to SM
#
    0.00000000E+00        3  25  25  23  # h0-h0-Z eff. coupling^2, normalised to SM
    0.00000000E+00        3  35  25  23  # H0-h0-Z eff. coupling^2, normalised to SM
    6.66454009E-09        3  36  25  23  # A0-h0-Z eff. coupling^2, normalised to SM
    0.00000000E+00        3  35  35  23  # H0-H0-Z eff. coupling^2, normalised to SM
    9.99999993E-01        3  36  35  23  # A0-H0-Z eff. coupling^2, normalised to SM
    0.00000000E+00        3  36  36  23  # A0-A0-Z eff. coupling^2, normalised to SM
#
    0.00000000E+00        4  25  21  21  23  # h0-g-g-Z eff. coupling^2, normalised to SM
    0.00000000E+00        4  35  21  21  23  # H0-g-g-Z eff. coupling^2, normalised to SM
    0.00000000E+00        4  36  21  21  23  # A0-g-g-Z eff. coupling^2, normalised to SM
#
#
#
#                             =================
#                             |The decay table|
#                             =================
#
# - The QCD corrections to the decays gluino -> squark  + quark
#                                     squark -> gaugino + quark_prime
#                                     squark -> squark_prime + Higgs
#                                     squark -> gluino  + quark
#   are included.
#
# - The multi-body decays for the inos, stops and sbottoms are included.
#
# - The loop induced decays for the gluino, neutralinos and stops
#   are included.
#
# - The SUSY decays of the top quark are included.
#
#
#         PDG            Width
DECAY         6     1.44197410E+00   # top decays
#          BR         NDA      ID1       ID2
     1.00000000E+00    2           5        24   # BR(t ->  b    W+)
#
#         PDG            Width
DECAY   1000021     3.29491623E+02   # gluino decays
#          BR         NDA      ID1       ID2
     8.01370692E-02    2     1000001        -1   # BR(~g -> ~d_L  db)
     8.01370692E-02    2    -1000001         1   # BR(~g -> ~d_L* d )
     8.46111522E-02    2     2000001        -1   # BR(~g -> ~d_R  db)
     8.46111522E-02    2    -2000001         1   # BR(~g -> ~d_R* d )
     8.02413383E-02    2     1000002        -2   # BR(~g -> ~u_L  ub)
     8.02413383E-02    2    -1000002         2   # BR(~g -> ~u_L* u )
     8.01370692E-02    2     1000003        -3   # BR(~g -> ~s_L  sb)
     8.01370692E-02    2    -1000003         3   # BR(~g -> ~s_L* s )
     8.46111522E-02    2     2000003        -3   # BR(~g -> ~s_R  sb)
     8.46111522E-02    2    -2000003         3   # BR(~g -> ~s_R* s )
     8.02413333E-02    2     1000004        -4   # BR(~g -> ~c_L  cb)
     8.02413333E-02    2    -1000004         4   # BR(~g -> ~c_L* c )
     5.06559198E-03    2     1000005        -5   # BR(~g -> ~b_1  bb)
     5.06559198E-03    2    -1000005         5   # BR(~g -> ~b_1* b )
     4.95529364E-03    2     1000006        -6   # BR(~g -> ~t_1  tb)
     4.95529364E-03    2    -1000006         6   # BR(~g -> ~t_1* t )
#
#         PDG            Width
DECAY   1000006     7.82041834E+01   # stop1 decays
#          BR         NDA      ID1       ID2
     2.32947442E-01    2     1000022         6   # BR(~t_1 -> ~chi_10 t )
     2.34125756E-01    2     1000023         6   # BR(~t_1 -> ~chi_20 t )
     7.05862001E-02    2     1000025         6   # BR(~t_1 -> ~chi_30 t )
     1.04639659E-04    2     1000035         6   # BR(~t_1 -> ~chi_40 t )
     4.61956265E-01    2     1000024         5   # BR(~t_1 -> ~chi_1+ b )
     2.79697338E-04    2     1000037         5   # BR(~t_1 -> ~chi_2+ b )
#
#         PDG            Width
DECAY   2000006     1.16537558E+02   # stop2 decays
#          BR         NDA      ID1       ID2
     2.03489010E-01    2     1000022         6   # BR(~t_2 -> ~chi_10 t )
     2.04208620E-01    2     1000023         6   # BR(~t_2 -> ~chi_20 t )
     7.82042565E-03    2     1000025         6   # BR(~t_2 -> ~chi_30 t )
     3.15918973E-02    2     1000035         6   # BR(~t_2 -> ~chi_40 t )
     1.42195778E-01    2     1000024         5   # BR(~t_2 -> ~chi_1+ b )
     6.31459509E-02    2     1000037         5   # BR(~t_2 -> ~chi_2+ b )
     6.16603911E-02    2     1000021         6   # BR(~t_2 -> ~g      t )
     1.40768426E-01    2     1000006        25   # BR(~t_2 -> ~t_1    h )
     1.44904974E-01    2     1000006        23   # BR(~t_2 -> ~t_1    Z )
     2.14527763E-04    2     1000005        24   # BR(~t_2 -> ~b_1    W+)
#
#         PDG            Width
DECAY   1000005     2.56771594E+01   # sbottom1 decays
#          BR         NDA      ID1       ID2
     2.37233557E-01    2     1000022         5   # BR(~b_1 -> ~chi_10 b )
     2.36681162E-01    2     1000023         5   # BR(~b_1 -> ~chi_20 b )
     5.58368046E-02    2     1000025         5   # BR(~b_1 -> ~chi_30 b )
     1.93677184E-08    2     1000035         5   # BR(~b_1 -> ~chi_40 b )
     4.70248420E-01    2    -1000024         6   # BR(~b_1 -> ~chi_1- t )
     3.76061353E-08    2    -1000037         6   # BR(~b_1 -> ~chi_2- t )
#
#         PDG            Width
DECAY   2000005     1.14824448E+02   # sbottom2 decays
#          BR         NDA      ID1       ID2
     6.76154630E-02    2     1000022         5   # BR(~b_2 -> ~chi_10 b )
     6.75027508E-02    2     1000023         5   # BR(~b_2 -> ~chi_20 b )
     4.31101304E-03    2     1000025         5   # BR(~b_2 -> ~chi_30 b )
     3.24323839E-02    2     1000035         5   # BR(~b_2 -> ~chi_40 b )
     4.12864032E-01    2    -1000024         6   # BR(~b_2 -> ~chi_1- t )
     6.48479849E-02    2    -1000037         6   # BR(~b_2 -> ~chi_2- t )
     7.27169897E-02    2     1000021         5   # BR(~b_2 -> ~g      b )
     1.21941218E-04    2     1000005        25   # BR(~b_2 -> ~b_1    h )
     1.07866710E-04    2     1000005        23   # BR(~b_2 -> ~b_1    Z )
     2.77479574E-01    2     1000006       -24   # BR(~b_2 -> ~t_1    W-)
#
#         PDG            Width
DECAY   1000002     4.70956030E-02   # sup_L decays
#          BR         NDA      ID1       ID2
     7.13244452E-02    2     1000022         2   # BR(~u_L -> ~chi_10 u)
     7.84868940E-02    2     1000023         2   # BR(~u_L -> ~chi_20 u)
     5.21808257E-01    2     1000025         2   # BR(~u_L -> ~chi_30 u)
     3.28380404E-01    2     1000024         1   # BR(~u_L -> ~chi_1+ d)
#
#         PDG            Width
DECAY   2000002     3.53979115E+01   # sup_R decays
#          BR         NDA      ID1       ID2
     5.15806077E-04    2     1000022         2   # BR(~u_R -> ~chi_10 u)
     2.72632038E-04    2     1000023         2   # BR(~u_R -> ~chi_20 u)
     2.27179829E-01    2     1000025         2   # BR(~u_R -> ~chi_30 u)
     1.43473726E-08    2     1000035         2   # BR(~u_R -> ~chi_40 u)
     7.72031718E-01    2     1000021         2   # BR(~u_R -> ~g      u)
#
#         PDG            Width
DECAY   1000001     2.75551476E-02   # sdown_L decays
#          BR         NDA      ID1       ID2
     1.79107168E-02    2     1000022         1   # BR(~d_L -> ~chi_10 d)
     4.40585680E-02    2     1000023         1   # BR(~d_L -> ~chi_20 d)
     9.33763041E-01    2     1000025         1   # BR(~d_L -> ~chi_30 d)
     4.26767418E-03    2    -1000024         2   # BR(~d_L -> ~chi_1- u)
#
#         PDG            Width
DECAY   2000001     2.63368609E-02   # sdown_R decays
#           BR         NDA      ID1       ID2
     4.22315310E-02    2     1000022         1   # BR(~d_R -> ~chi_10 d)
     2.23154108E-02    2     1000023         1   # BR(~d_R -> ~chi_20 d)
     9.35453058E-01    2     1000025         1   # BR(~d_R -> ~chi_30 d)
#
#         PDG            Width
DECAY   1000004     4.51227096E-02   # scharm_L decays
#          BR         NDA      ID1       ID2
     7.18767112E-02    2     1000022         4   # BR(~c_L -> ~chi_10 c)
     7.90943845E-02    2     1000023         4   # BR(~c_L -> ~chi_20 c)
     5.18105596E-01    2     1000025         4   # BR(~c_L -> ~chi_30 c)
     3.30923309E-01    2     1000024         3   # BR(~c_L -> ~chi_1+ s)
#
#         PDG            Width
DECAY   2000004     2.77488155E+01   # scharm_R decays
#          BR         NDA      ID1       ID2
     6.91570309E-04    2     1000022         4   # BR(~c_R -> ~chi_10 c)
     3.65532237E-04    2     1000023         4   # BR(~c_R -> ~chi_20 c)
     3.03494798E-01    2     1000025         4   # BR(~c_R -> ~chi_30 c)
     1.89001447E-08    2     1000035         4   # BR(~c_R -> ~chi_40 c)
     6.95448080E-01    2     1000021         4   # BR(~c_R -> ~g      c)
#
#         PDG            Width
DECAY   1000003     2.62486607E-02   # sstrange_L decays
#          BR         NDA      ID1       ID2
     1.81565918E-02    2     1000022         3   # BR(~s_L -> ~chi_10 s)
     4.46632636E-02    2     1000023         3   # BR(~s_L -> ~chi_20 s)
     9.32853912E-01    2     1000025         3   # BR(~s_L -> ~chi_30 s)
     4.32623286E-03    2    -1000024         4   # BR(~s_L -> ~chi_1- c)
#
#         PDG            Width
DECAY   2000003     2.45055309E-02   # sstrange_R decays
#           BR         NDA      ID1       ID2
     4.35440703E-02    2     1000022         3   # BR(~s_R -> ~chi_10 s)
     2.30089006E-02    2     1000023         3   # BR(~s_R -> ~chi_20 s)
     9.33447029E-01    2     1000025         3   # BR(~s_R -> ~chi_30 s)
#
#         PDG            Width
DECAY   1000011     8.20520520E-03   # selectron_L decays
#          BR         NDA      ID1       ID2
     5.34607010E-01    2     1000022        11   # BR(~e_L -> ~chi_10 e-)
     4.58262938E-01    2     1000023        11   # BR(~e_L -> ~chi_20 e-)
     7.13005166E-03    2    -1000024        12   # BR(~e_L -> ~chi_1- nu_e)
#
#         PDG            Width
DECAY   2000011     1.19287260E+01   # selectron_R decays
#          BR         NDA      ID1       ID2
     2.50289105E-03    2     1000022        11   # BR(~e_R -> ~chi_10 e-)
     1.32289019E-03    2     1000023        11   # BR(~e_R -> ~chi_20 e-)
     9.96174217E-01    2     1000025        11   # BR(~e_R -> ~chi_30 e-)
     1.67208146E-09    2     1000035        11   # BR(~e_R -> ~chi_40 e-)
#
#         PDG            Width
DECAY   1000013     8.20520461E-03   # smuon_L decays
#          BR         NDA      ID1       ID2
     5.34607010E-01    2     1000022        13   # BR(~mu_L -> ~chi_10 mu-)
     4.58262938E-01    2     1000023        13   # BR(~mu_L -> ~chi_20 mu-)
     7.13005217E-03    2    -1000024        14   # BR(~mu_L -> ~chi_1- nu_mu)
#
#         PDG            Width
DECAY   2000013     1.19287260E+01   # smuon_R decays
#          BR         NDA      ID1       ID2
     2.50289105E-03    2     1000022        13   # BR(~mu_R -> ~chi_10 mu-)
     1.32289019E-03    2     1000023        13   # BR(~mu_R -> ~chi_20 mu-)
     9.96174217E-01    2     1000025        13   # BR(~mu_R -> ~chi_30 mu-)
     1.67208080E-09    2     1000035        13   # BR(~mu_R -> ~chi_40 mu-)
#
#         PDG            Width
DECAY   1000015     6.30416717E+00   # stau_1 decays
#          BR         NDA      ID1       ID2
     3.68047196E-01    2     1000022        15   # BR(~tau_1 -> ~chi_10  tau-)
     3.66916079E-01    2     1000023        15   # BR(~tau_1 -> ~chi_20  tau-)
     2.64925349E-01    2     1000025        15   # BR(~tau_1 -> ~chi_30  tau-)
     1.11374676E-04    2    -1000024        16   # BR(~tau_1 -> ~chi_1-  nu_tau)
#
#         PDG            Width
DECAY   2000015     2.33230576E+01   # stau_2 decays
#          BR         NDA      ID1       ID2
     1.34021806E-01    2     1000022        15   # BR(~tau_2 -> ~chi_10  tau-)
     1.33191680E-01    2     1000023        15   # BR(~tau_2 -> ~chi_20  tau-)
     4.65039369E-01    2     1000025        15   # BR(~tau_2 -> ~chi_30  tau-)
     2.65388242E-01    2    -1000024        16   # BR(~tau_2 -> ~chi_1-  nu_tau)
     1.15833205E-03    2     1000016       -24   # BR(~tau_2 -> ~nu_tauL W-)
     6.12423149E-04    2     1000015        25   # BR(~tau_2 -> ~tau_1   h)
     5.88146641E-04    2     1000015        23   # BR(~tau_2 -> ~tau_1   Z)
#
#         PDG            Width
DECAY   1000012     7.75590885E-03   # snu_eL decays
#          BR         NDA      ID1       ID2
     1.17535121E-02    2     1000022        12   # BR(~nu_eL -> ~chi_10 nu_e)
     4.90908766E-03    2     1000023        12   # BR(~nu_eL -> ~chi_20 nu_e)
     9.83337400E-01    2     1000024        11   # BR(~nu_eL -> ~chi_1+ e-)
#
#         PDG            Width
DECAY   1000014     7.75590829E-03   # snu_muL decays
#          BR         NDA      ID1       ID2
     1.17535129E-02    2     1000022        14   # BR(~nu_muL -> ~chi_10 nu_mu)
     4.90908801E-03    2     1000023        14   # BR(~nu_muL -> ~chi_20 nu_mu)
     9.83337399E-01    2     1000024        13   # BR(~nu_muL -> ~chi_1+ mu-)
#
#         PDG            Width
DECAY   1000016     6.30840388E+00   # snu_tauL decays
#          BR         NDA      ID1       ID2
     5.28524805E-05    2     1000022        16   # BR(~nu_tauL -> ~chi_10 nu_tau)
     2.20899935E-05    2     1000023        16   # BR(~nu_tauL -> ~chi_20 nu_tau)
     2.66519065E-01    2     1000025        16   # BR(~nu_tauL -> ~chi_30 nu_tau)
     7.33405992E-01    2     1000024        15   # BR(~nu_tauL -> ~chi_1+ tau-)
#
#         PDG            Width
DECAY   1000024     2.31027300E-13   # chargino1+ decays
#           BR         NDA      ID1       ID2       ID3
     8.89487870E-02    3     1000022       -11        12   # BR(~chi_1+ -> ~chi_10 e+   nu_e)
     7.24941520E-02    3     1000022       -13        14   # BR(~chi_1+ -> ~chi_10 mu+  nu_mu)
     8.34096590E-01    2     1000022       211             # BR(~chi_1+ -> ~chi_10 pi+)
     4.45964850E-03    3     1000022       211        111   # BR(~chi_1+ -> ~chi_10 pi+ pi0)
     4.09716920E-07    4     1000022       211        111       111 # BR(~chi_1+ -> ~chi_10 pi+ pi0 pi0)
     4.09716920E-07    4     1000022       211        211      -211 # BR(~chi_1+ -> ~chi_10 pi+ pi+ pi-)
#
#         PDG            Width
DECAY   1000037     1.50244110E+02   # chargino2+ decays
#          BR         NDA      ID1       ID2
     1.45683059E-01    2     1000002        -1   # BR(~chi_2+ -> ~u_L     db)
     1.45627177E-01    2    -1000001         2   # BR(~chi_2+ -> ~d_L*    u )
     1.45683057E-01    2     1000004        -3   # BR(~chi_2+ -> ~c_L     sb)
     1.45627151E-01    2    -1000003         4   # BR(~chi_2+ -> ~s_L*     c )
     6.29863049E-02    2     1000012       -11   # BR(~chi_2+ -> ~nu_eL   e+  )
     6.29863049E-02    2     1000014       -13   # BR(~chi_2+ -> ~nu_muL mu+ )
     1.49286249E-02    2     1000016       -15   # BR(~chi_2+ -> ~nu_tau1 tau+)
     6.29743407E-02    2    -1000011        12   # BR(~chi_2+ -> ~e_L+    nu_e)
     6.29743407E-02    2    -1000013        14   # BR(~chi_2+ -> ~mu_L+   nu_mu)
     1.48854097E-02    2    -1000015        16   # BR(~chi_2+ -> ~tau_1+  nu_tau)
     5.18394713E-09    2    -2000015        16   # BR(~chi_2+ -> ~tau_2+  nu_tau)
     3.41593149E-02    2     1000024        23   # BR(~chi_2+ -> ~chi_1+  Z )
     3.30945409E-02    2     1000022        24   # BR(~chi_2+ -> ~chi_10  W+)
     3.32037490E-02    2     1000023        24   # BR(~chi_2+ -> ~chi_20  W+)
     9.51836908E-05    2     1000025        24   # BR(~chi_2+ -> ~chi_30  W+)
     3.50914364E-02    2     1000024        25   # BR(~chi_2+ -> ~chi_1+  h )
#
#         PDG            Width
DECAY   1000022     0.00000000E+00   # neutralino1 decays
#
#         PDG            Width
DECAY   1000023     1.15707521E-13   # neutralino2 decays
#          BR         NDA      ID1       ID2
     9.51271556E-01    2     1000022        22   # BR(~chi_20 -> ~chi_10 gam)
#           BR         NDA      ID1       ID2       ID3
     1.04043833E-02    3     1000022        -2         2   # BR(~chi_20 -> ~chi_10 ub      u)
     1.35056819E-02    3     1000022        -1         1   # BR(~chi_20 -> ~chi_10 db      d)
     3.10265313E-03    3     1000022       -11        11   # BR(~chi_20 -> ~chi_10 e+      e-)
     3.10265313E-03    3     1000022       -13        13   # BR(~chi_20 -> ~chi_10 mu+     mu-)
     6.20435530E-03    3     1000022       -12        12   # BR(~chi_20 -> ~chi_10 nu_eb   nu_e)
     6.20435530E-03    3     1000022       -14        14   # BR(~chi_20 -> ~chi_10 nu_mub  nu_mu)
     6.20436149E-03    3     1000022       -16        16   # BR(~chi_20 -> ~chi_10 nu_taub nu_tau)
#
#         PDG            Width
DECAY   1000025     2.96003594E+00   # neutralino3 decays
#          BR         NDA      ID1       ID2
     5.94678616E-02    2     1000022        23   # BR(~chi_30 -> ~chi_10   Z )
     1.10074969E-01    2     1000023        23   # BR(~chi_30 -> ~chi_20   Z )
     1.65411233E-01    2     1000024       -24   # BR(~chi_30 -> ~chi_1+   W-)
     1.65411233E-01    2    -1000024        24   # BR(~chi_30 -> ~chi_1-   W+)
     1.11346393E-01    2     1000022        25   # BR(~chi_30 -> ~chi_10   h )
     5.80437062E-02    2     1000023        25   # BR(~chi_30 -> ~chi_20   h )
     4.02711197E-02    2     1000011       -11   # BR(~chi_30 -> ~e_L-     e+)
     4.02711197E-02    2    -1000011        11   # BR(~chi_30 -> ~e_L+     e-)
     4.02711197E-02    2     1000013       -13   # BR(~chi_30 -> ~mu_L-    mu+)
     4.02711197E-02    2    -1000013        13   # BR(~chi_30 -> ~mu_L+    mu-)
     4.22900314E-02    2     1000012       -12   # BR(~chi_30 -> ~nu_eL    nu_eb)
     4.22900314E-02    2    -1000012        12   # BR(~chi_30 -> ~nu_eL*   nu_e )
     4.22900314E-02    2     1000014       -14   # BR(~chi_30 -> ~nu_muL   nu_mub)
     4.22900314E-02    2    -1000014        14   # BR(~chi_30 -> ~nu_muL*  nu_mu )
#
#         PDG            Width
DECAY   1000035     1.50222104E+02   # neutralino4 decays
#          BR         NDA      ID1       ID2
     1.99521410E-02    2     1000022        23   # BR(~chi_40 -> ~chi_10   Z )
     1.41256489E-02    2     1000023        23   # BR(~chi_40 -> ~chi_20   Z )
     7.97620718E-05    2     1000025        23   # BR(~chi_40 -> ~chi_30   Z )
     3.32064420E-02    2     1000024       -24   # BR(~chi_40 -> ~chi_1+   W-)
     3.32064420E-02    2    -1000024        24   # BR(~chi_40 -> ~chi_1-   W+)
     1.44128748E-02    2     1000022        25   # BR(~chi_40 -> ~chi_10   h )
     2.06064410E-02    2     1000023        25   # BR(~chi_40 -> ~chi_20   h )
     2.13208842E-05    2     1000025        25   # BR(~chi_40 -> ~chi_30   h )
     7.28986194E-02    2     1000002        -2   # BR(~chi_40 -> ~u_L      ub)
     7.28986194E-02    2    -1000002         2   # BR(~chi_40 -> ~u_L*     u )
     7.27619855E-02    2     1000001        -1   # BR(~chi_40 -> ~d_L      db)
     7.27619855E-02    2    -1000001         1   # BR(~chi_40 -> ~d_L*     d )
     2.08973908E-09    2     2000001        -1   # BR(~chi_40 -> ~d_R      db)
     2.08973908E-09    2    -2000001         1   # BR(~chi_40 -> ~d_R*     d )
     7.28986063E-02    2     1000004        -4   # BR(~chi_40 -> ~c_L      cb)
     7.28986063E-02    2    -1000004         4   # BR(~chi_40 -> ~c_L*     c )
     7.27619855E-02    2     1000003        -3   # BR(~chi_40 -> ~s _L      sb)
     7.27619855E-02    2    -1000003         3   # BR(~chi_40 -> ~s _L*     s )
     2.08973908E-09    2     2000003        -3   # BR(~chi_40 -> ~s _R      sb)
     2.08973908E-09    2    -2000003         3   # BR(~chi_40 -> ~s _R*     s )
     3.14454677E-02    2     1000011       -11   # BR(~chi_40 -> ~e_L-     e+)
     3.14454677E-02    2    -1000011        11   # BR(~chi_40 -> ~e_L+     e-)
     3.14454677E-02    2     1000013       -13   # BR(~chi_40 -> ~mu_L-    mu+)
     3.14454677E-02    2    -1000013        13   # BR(~chi_40 -> ~mu_L+    mu-)
     7.43064599E-03    2     1000015       -15   # BR(~chi_40 -> ~tau_1-   tau+)
     7.43064599E-03    2    -1000015        15   # BR(~chi_40 -> ~tau_1+   tau-)
     2.56777918E-09    2     2000015       -15   # BR(~chi_40 -> ~tau_2-   tau+)
     2.56777918E-09    2    -2000015        15   # BR(~chi_40 -> ~tau_2+   tau-)
     3.15392463E-02    2     1000012       -12   # BR(~chi_40 -> ~nu_eL    nu_eb)
     3.15392463E-02    2    -1000012        12   # BR(~chi_40 -> ~nu_eL*   nu_e )
     3.15392463E-02    2     1000014       -14   # BR(~chi_40 -> ~nu_muL   nu_mub)
     3.15392463E-02    2    -1000014        14   # BR(~chi_40 -> ~nu_muL*  nu_mu )
     7.47318610E-03    2     1000016       -16   # BR(~chi_40 -> ~nu_tau1  nu_taub)
     7.47318610E-03    2    -1000016        16   # BR(~chi_40 -> ~nu_tau1* nu_tau )
#
#         PDG            Width
DECAY        25     4.39607715E-03   # h decays
#          BR         NDA      ID1       ID2
     5.45292193E-01    2           5        -5   # BR(h -> b       bb     )
     6.05093372E-02    2         -15        15   # BR(h -> tau+    tau-   )
     2.14159281E-04    2         -13        13   # BR(h -> mu+     mu-    )
     2.32842374E-04    2           3        -3   # BR(h -> s       sb     )
     2.00823935E-02    2           4        -4   # BR(h -> c       cb     )
     7.74596276E-02    2          21        21   # BR(h -> g       g      )
     2.35477238E-03    2          22        22   # BR(h -> gam     gam    )
     1.80897012E-03    2          22        23   # BR(h -> Z       gam    )
     2.58510901E-01    2          24       -24   # BR(h -> W+      W-     )
     3.35348036E-02    2          23        23   # BR(h -> Z       Z      )
#
#         PDG            Width
DECAY        35     5.09274518E+01   # H decays
#          BR         NDA      ID1       ID2
     7.52371024E-01    2           5        -5   # BR(H -> b       bb     )
     1.38508997E-01    2         -15        15   # BR(H -> tau+    tau-   )
     4.81152295E-04    2         -13        13   # BR(H -> mu+     mu-    )
     3.45324415E-04    2           3        -3   # BR(H -> s       sb     )
     2.10341299E-08    2           4        -4   # BR(H -> c       cb     )
     2.06704828E-03    2           6        -6   # BR(H -> t       tb     )
     1.09703062E-05    2          21        21   # BR(H -> g       g      )
     5.15227872E-09    2          22        22   # BR(H -> gam     gam    )
     6.21600738E-09    2          23        22   # BR(H -> Z       gam    )
     1.12914783E-06    2          24       -24   # BR(H -> W+      W-     )
     5.63321249E-07    2          23        23   # BR(H -> Z       Z      )
     3.82318791E-06    2          25        25   # BR(H -> h       h      )
     8.91921582E-04    2     1000024  -1000024   # BR(H -> ~chi_1+ ~chi_1-)
     1.47741567E-02    2     1000024  -1000037   # BR(H -> ~chi_1+ ~chi_2-)
     1.47741567E-02    2     1000037  -1000024   # BR(H -> ~chi_2+ ~chi_1-)
     6.45425680E-06    2     1000022   1000022   # BR(H -> ~chi_10 ~chi_10)
     6.86309315E-06    2     1000023   1000023   # BR(H -> ~chi_20 ~chi_20)
     9.29270631E-06    2     1000025   1000025   # BR(H -> ~chi_30 ~chi_30)
     1.35271239E-05    2     1000022   1000023   # BR(H -> ~chi_10 ~chi_20)
     3.13709138E-02    2     1000022   1000025   # BR(H -> ~chi_10 ~chi_30)
     1.04009513E-02    2     1000022   1000035   # BR(H -> ~chi_10 ~chi_40)
     2.95516968E-02    2     1000023   1000025   # BR(H -> ~chi_20 ~chi_30)
     4.40601589E-03    2     1000023   1000035   # BR(H -> ~chi_20 ~chi_40)
     5.46274277E-07    2     1000002  -1000002   # BR(H -> ~u_L    ~u_L*  )
     5.46274277E-07    2     1000004  -1000004   # BR(H -> ~c_L    ~c_L*  )
     7.99892469E-07    2     1000001  -1000001   # BR(H -> ~d_L    ~d_L*  )
     2.70956923E-08    2     2000001  -2000001   # BR(H -> ~d_R    ~d_R*  )
     7.99892469E-07    2     1000003  -1000003   # BR(H -> ~s_L    ~s_L*  )
     2.70956923E-08    2     2000003  -2000003   # BR(H -> ~s_R    ~s_R*  )
     1.45323841E-07    2     1000011  -1000011   # BR(H -> ~e_L-   ~e_L+  )
     1.45323841E-07    2     1000013  -1000013   # BR(H -> ~mu_L-  ~mu_L+ )
     4.74658854E-07    2     1000012  -1000012   # BR(H -> ~nu_eL  ~nu_eL*   )
     4.74658854E-07    2     1000014  -1000014   # BR(H -> ~nu_muL ~nu_muL*  )
#
#         PDG            Width
DECAY        36     5.09300500E+01   # A decays
#          BR         NDA      ID1       ID2
     7.52354812E-01    2           5        -5   # BR(A -> b       bb     )
     1.38502465E-01    2         -15        15   # BR(A -> tau+    tau-   )
     4.81128951E-04    2         -13        13   # BR(A -> mu+     mu-    )
     3.45328688E-04    2           3        -3   # BR(A -> s       sb     )
     2.11105301E-08    2           4        -4   # BR(A -> c       cb     )
     2.07355484E-03    2           6        -6   # BR(A -> t       tb     )
     2.86535003E-05    2          21        21   # BR(A -> g       g      )
     3.58334115E-08    2          22        22   # BR(A -> gam     gam    )
     2.11797613E-08    2          23        22   # BR(A -> Z       gam    )
     1.14365207E-06    2          23        25   # BR(A -> Z       h      )
     9.10563676E-04    2     1000024  -1000024   # BR(A -> ~chi_1+ ~chi_1-)
     1.47682628E-02    2     1000024  -1000037   # BR(A -> ~chi_1+ ~chi_2-)
     1.47682628E-02    2     1000037  -1000024   # BR(A -> ~chi_2+ ~chi_1-)
     5.79819565E-06    2     1000022   1000022   # BR(A -> ~chi_10 ~chi_10)
     7.80264441E-06    2     1000023   1000023   # BR(A -> ~chi_20 ~chi_20)
     6.24338391E-06    2     1000025   1000025   # BR(A -> ~chi_30 ~chi_30)
     1.33163142E-05    2     1000022   1000023   # BR(A -> ~chi_10 ~chi_20)
     2.96215738E-02    2     1000022   1000025   # BR(A -> ~chi_10 ~chi_30)
     4.42444034E-03    2     1000022   1000035   # BR(A -> ~chi_10 ~chi_40)
     3.13052967E-02    2     1000023   1000025   # BR(A -> ~chi_20 ~chi_30)
     1.03812738E-02    2     1000023   1000035   # BR(A -> ~chi_20 ~chi_40)
#
#         PDG            Width
DECAY        37     5.12601420E+01   # H+ decays
#          BR         NDA      ID1       ID2
     1.26744918E-03    2           4        -5   # BR(H+ -> c       bb     )
     1.37668031E-01    2         -15        16   # BR(H+ -> tau+    nu_tau )
     4.78230298E-04    2         -13        14   # BR(H+ -> mu+     nu_mu  )
     1.26744765E-05    2           2        -5   # BR(H+ -> u       bb     )
     1.71641108E-05    2           2        -3   # BR(H+ -> u       sb     )
     3.37861918E-04    2           4        -3   # BR(H+ -> c       sb     )
     7.54939138E-01    2           6        -5   # BR(H+ -> t       bb     )
     1.13842947E-06    2          24        25   # BR(H+ -> W+      h      )
     7.84390880E-14    2          24        36   # BR(H+ -> W+      A      )
     5.56683070E-04    2     1000024   1000022   # BR(H+ -> ~chi_1+ ~chi_10)
     3.40895055E-04    2     1000024   1000023   # BR(H+ -> ~chi_1+ ~chi_20)
     6.00136036E-02    2     1000024   1000025   # BR(H+ -> ~chi_1+ ~chi_30)
     1.47805940E-02    2     1000024   1000035   # BR(H+ -> ~chi_1+ ~chi_40)
     1.48043044E-02    2     1000037   1000022   # BR(H+ -> ~chi_2+ ~chi_10)
     1.47784549E-02    2     1000037   1000023   # BR(H+ -> ~chi_2+ ~chi_20)
     5.67012214E-07    2    -1000011   1000012   # BR(H+ -> ~e_L+   ~nu_eL )
     5.67012214E-07    2    -1000013   1000014   # BR(H+ -> ~mu_L+  ~nu_muL)
     1.32194418E-06    2     1000002  -1000001   # BR(H+ -> ~u_L    ~d_L*  )
     1.32194418E-06    2     1000004  -1000003   # BR(H+ -> ~c_L    ~s_L*  )
