#
#                              ======================
#                              | THE SUSYHIT OUTPUT |
#                              ======================
#
#
#              ------------------------------------------------------
#              |     This is the output of the SUSY-HIT package     |
#              |  created by A.Djouadi, M.Muehlleitner and M.Spira. |
#              |  In case of problems with SUSY-HIT email to        |
#              |           margarete.muehlleitner@cern.ch           |
#              |           michael.spira@psi.ch                     |
#              |           abdelhak.djouadi@cern.ch                 |
#              ------------------------------------------------------
#
#              ------------------------------------------------------
#              |  SUSY Les Houches Accord - MSSM Spectrum + Decays  |
#              |              based on the decay programs           |
#              |                                                    |
#              |                     SDECAY 1.3b                    |
#              |                                                    |
#              |  Authors: M.Muhlleitner, A.Djouadi and Y.Mambrini  |
#              |  Ref.:    Comput.Phys.Commun.168(2005)46           |
#              |           [hep-ph/0311167]                         |
#              |                                                    |
#              |                     HDECAY 3.4                     |
#              |                                                    |
#              |  By: A.Djouadi,J.Kalinowski,M.Muhlleitner,M.Spira  |
#              |  Ref.:    Comput.Phys.Commun.108(1998)56           |
#              |           [hep-ph/9704448]                         |
#              |                                                    |
#              |                                                    |
#              |  If not stated otherwise all DRbar couplings and   |
#              |  soft SUSY breaking masses are given at the scale  |
#              |  Q=  0.30738690E+04
#              |                                                    |
#              ------------------------------------------------------
#
#
BLOCK DCINFO  # Decay Program information
     1   SDECAY/HDECAY # decay calculator
     2   1.3b  /3.4    # version number
#
BLOCK SPINFO  # Spectrum calculator information
     1     SOFTSUSY    # spectrum calculator               
     2     3.4.0       # version number                    
#
BLOCK MODSEL  # Model selection
     1     0   #  nonUniversal                                     
#
BLOCK SMINPUTS  # Standard Model inputs
         1     1.27908970E+02   # alpha_em^-1(M_Z)^MSbar
         2     1.16637870E-05   # G_F [GeV^-2]
         3     1.18400000E-01   # alpha_S(M_Z)^MSbar
         4     9.11876000E+01   # M_Z pole mass
         5     4.18000000E+00   # mb(mb)^MSbar
         6     1.73200000E+02   # mt pole mass
         7     1.77700000E+00   # mtau pole mass
#
BLOCK MINPAR  # Input parameters - minimal models
         3     1.11000000E+01   # tanb                
#
BLOCK EXTPAR  # Input parameters - non-minimal models
         0    -1.00000000E+00   # Set                 
         1    -2.24333000E+03   # M_1(MX)             
         2    -3.69080000E+02   # M_2(MX)             
         3     3.85848000E+03   # M_3(MX)             
        11    -3.93646000E+03   # At(MX)              
        12     3.48471000E+03   # Ab(MX)              
        13    -7.42750000E+02   # Atau(MX)            
        23     9.19420000E+02   # mu(MX)              
        26     2.81852000E+03   # mA(pole)            
        31     8.51980000E+02   # meL(MX)             
        32     8.51980000E+02   # mmuL(MX)            
        33     2.08267000E+03   # mtauL(MX)           
        34     1.05703000E+03   # meR(MX)             
        35     1.05703000E+03   # mmuR(MX)            
        36     2.35246000E+03   # mtauR(MX)           
        41     2.29620000E+02   # mqL1(MX)            
        42     2.29620000E+02   # mqL2(MX)            
        43     2.81167000E+03   # mqL3(MX)            
        44     3.61548000E+03   # muR(MX)             
        45     3.61548000E+03   # mcR(MX)             
        46     3.36017000E+03   # mtR(MX)             
        47     3.70456000E+03   # mdR(MX)             
        48     3.70456000E+03   # msR(MX)             
        49     3.23973000E+03   # mbR(MX)             
#
BLOCK MASS  # Mass Spectrum
# PDG code           mass       particle
        24     8.03701917E+01   # W+
        25     1.25741722E+02   # h
        35     2.81857771E+03   # H
        36     2.81851989E+03   # A
        37     2.82002096E+03   # H+
         5     4.81876030E+00   # b-quark pole mass calculated from mb(mb)_Msbar
   1000001     5.92637378E+02   # ~d_L
   2000001     3.81017062E+03   # ~d_R
   1000002     5.87165238E+02   # ~u_L
   2000002     3.72166990E+03   # ~u_R
   1000003     5.92637378E+02   # ~s_L
   2000003     3.81017062E+03   # ~s_R
   1000004     5.87165238E+02   # ~c_L
   2000004     3.72166990E+03   # ~c_R
   1000005     2.90141089E+03   # ~b_1
   2000005     3.35159021E+03   # ~b_2
   1000006     2.88610981E+03   # ~t_1
   2000006     3.40567164E+03   # ~t_2
   1000011     8.55469148E+02   # ~e_L
   2000011     1.08357214E+03   # ~e_R
   1000012     8.51631999E+02   # ~nu_eL
   1000013     8.55469148E+02   # ~mu_L
   2000013     1.08357214E+03   # ~mu_R
   1000014     8.51631999E+02   # ~nu_muL
   1000015     2.08660916E+03   # ~tau_1
   2000015     2.36551001E+03   # ~tau_2
   1000016     2.08492281E+03   # ~nu_tauL
   1000021     3.94068844E+03   # ~g
   1000022    -3.74484981E+02   # ~chi_10
   1000023     9.50201286E+02   # ~chi_20
   1000025    -9.50970653E+02   # ~chi_30
   1000035    -2.21287028E+03   # ~chi_40
   1000024     3.74661380E+02   # ~chi_1+
   1000037     9.54602382E+02   # ~chi_2+
#
BLOCK NMIX  # Neutralino Mixing Matrix
  1  1    -4.16943227E-04   # N_11
  1  2     9.95406388E-01   # N_12
  1  3    -9.15467580E-02   # N_13
  1  4    -2.80203378E-02   # N_14
  2  1     1.06246784E-02   # N_21
  2  2    -4.49689174E-02   # N_22
  2  3    -7.05471369E-01   # N_23
  2  4     7.07230557E-01   # N_24
  3  1     2.19267679E-02   # N_31
  3  2     8.45162452E-02   # N_32
  3  3     7.02756052E-01   # N_33
  3  4     7.06052514E-01   # N_34
  4  1     9.99703036E-01   # N_41
  4  2    -9.60645126E-04   # N_42
  4  3    -7.95429430E-03   # N_43
  4  4    -2.30140641E-02   # N_44
#
BLOCK UMIX  # Chargino Mixing Matrix U
  1  1     9.91653818E-01   # U_11
  1  2    -1.28929071E-01   # U_12
  2  1     1.28929071E-01   # U_21
  2  2     9.91653818E-01   # U_22
#
BLOCK VMIX  # Chargino Mixing Matrix V
  1  1    -9.99225249E-01   # V_11
  1  2    -3.93560816E-02   # V_12
  2  1    -3.93560816E-02   # V_21
  2  2     9.99225249E-01   # V_22
#
BLOCK STOPMIX  # Stop Mixing Matrix
  1  1     9.84307862E-01   # cos(theta_t)
  1  2     1.76459720E-01   # sin(theta_t)
  2  1    -1.76459720E-01   # -sin(theta_t)
  2  2     9.84307862E-01   # cos(theta_t)
#
BLOCK SBOTMIX  # Sbottom Mixing Matrix
  1  1     9.99986419E-01   # cos(theta_b)
  1  2     5.21169987E-03   # sin(theta_b)
  2  1    -5.21169987E-03   # -sin(theta_b)
  2  2     9.99986419E-01   # cos(theta_b)
#
BLOCK STAUMIX  # Stau Mixing Matrix
  1  1     9.99886910E-01   # cos(theta_tau)
  1  2     1.50388567E-02   # sin(theta_tau)
  2  1    -1.50388567E-02   # -sin(theta_tau)
  2  2     9.99886910E-01   # cos(theta_tau)
#
BLOCK ALPHA  # Higgs mixing
          -9.44073230E-02   # Mixing angle in the neutral Higgs boson sector
#
BLOCK HMIX Q=  3.07386900E+03  # DRbar Higgs Parameters
         1     9.31815231E+02   # mu(Q)MSSM           
         2     1.05892678E+01   # tan                 
         3     2.41858190E+02   # higgs               
         4     7.79966603E+06   # mA^2(Q)MSSM         
#
BLOCK GAUGE Q=  3.07386900E+03  # The gauge couplings
     1     3.65158687E-01   # gprime(Q) DRbar
     2     6.41676446E-01   # g(Q) DRbar
     3     1.00635949E+00   # g3(Q) DRbar
#
BLOCK AU Q=  3.07386900E+03  # The trilinear couplings
  1  1     0.00000000E+00   # A_u(Q) DRbar
  2  2     0.00000000E+00   # A_c(Q) DRbar
  3  3    -3.93645998E+03   # A_t(Q) DRbar
#
BLOCK AD Q=  3.07386900E+03  # The trilinear couplings
  1  1     0.00000000E+00   # A_d(Q) DRbar
  2  2     0.00000000E+00   # A_s(Q) DRbar
  3  3     3.48471001E+03   # A_b(Q) DRbar
#
BLOCK AE Q=  3.07386900E+03  # The trilinear couplings
  1  1     0.00000000E+00   # A_e(Q) DRbar
  2  2     0.00000000E+00   # A_mu(Q) DRbar
  3  3    -7.42750000E+02   # A_tau(Q) DRbar
#
BLOCK Yu Q=  3.07386900E+03  # The Yukawa couplings
  1  1     0.00000000E+00   # y_u(Q) DRbar
  2  2     0.00000000E+00   # y_c(Q) DRbar
  3  3     8.17904078E-01   # y_t(Q) DRbar
#
BLOCK Yd Q=  3.07386900E+03  # The Yukawa couplings
  1  1     0.00000000E+00   # y_d(Q) DRbar
  2  2     0.00000000E+00   # y_s(Q) DRbar
  3  3     1.40752645E-01   # y_b(Q) DRbar
#
BLOCK Ye Q=  3.07386900E+03  # The Yukawa couplings
  1  1     0.00000000E+00   # y_e(Q) DRbar
  2  2     0.00000000E+00   # y_mu(Q) DRbar
  3  3     1.08096690E-01   # y_tau(Q) DRbar
#
BLOCK MSOFT Q=  3.07386900E+03  # The soft SUSY breaking masses at the scale Q
         1    -2.24333000E+03   # M_1(Q)              
         2    -3.69080000E+02   # M_2(Q)              
         3     3.85848000E+03   # M_3(Q)              
        21     6.98651016E+06   # mH1^2(Q)            
        22    -6.11672885E+05   # mH2^2(Q)            
        31     8.51979999E+02   # meL(Q)              
        32     8.51979999E+02   # mmuL(Q)             
        33     2.08267000E+03   # mtauL(Q)            
        34     1.05703000E+03   # meR(Q)              
        35     1.05703000E+03   # mmuR(Q)             
        36     2.35246000E+03   # mtauR(Q)            
        41     2.29619807E+02   # mqL1(Q)             
        42     2.29619807E+02   # mqL2(Q)             
        43     2.81166997E+03   # mqL3(Q)             
        44     3.61547999E+03   # muR(Q)              
        45     3.61547999E+03   # mcR(Q)              
        46     3.36016996E+03   # mtR(Q)              
        47     3.70455999E+03   # mdR(Q)              
        48     3.70455999E+03   # msR(Q)              
        49     3.23972999E+03   # mbR(Q)              
#
Block HiggsBoundsInputHiggsCouplingsFermions
# ScalarNormEffCoupSq PseudoSNormEffCoupSq NP   IP1 IP2 IP2
    1.00532960E+00    0.00000000E+00        3  25   5   5  # h0-b-b eff. coupling^2, normalised to SM
    1.12127263E+02    0.00000000E+00        3  35   5   5  # H0-b-b eff. coupling^2, normalised to SM
    0.00000000E+00    1.12132593E+02        3  36   5   5  # A0-b-b eff. coupling^2, normalised to SM
#
    9.99952471E-01    0.00000000E+00        3  25   6   6  # h0-t-t eff. coupling^2, normalised to SM
    8.96554319E-03    0.00000000E+00        3  35   6   6  # H0-t-t eff. coupling^2, normalised to SM
    0.00000000E+00    8.91801373E-03        3  36   6   6  # A0-t-t eff. coupling^2, normalised to SM
#
    1.00532960E+00    0.00000000E+00        3  25  15  15  # h0-tau-tau eff. coupling^2, normalised to SM
    1.12127263E+02    0.00000000E+00        3  35  15  15  # H0-tau-tau eff. coupling^2, normalised to SM
    0.00000000E+00    1.12132593E+02        3  36  15  15  # A0-tau-tau eff. coupling^2, normalised to SM
#
Block HiggsBoundsInputHiggsCouplingsBosons
    9.99999937E-01        3  25  24  24  # h0-W-W eff. coupling^2, normalised to SM
    6.31615711E-08        3  35  24  24  # H0-W-W eff. coupling^2, normalised to SM
    0.00000000E+00        3  36  24  24  # A0-W-W eff. coupling^2, normalised to SM
#
    9.99999937E-01        3  25  23  23  # h0-Z-Z eff. coupling^2, normalised to SM
    6.31615711E-08        3  35  23  23  # H0-Z-Z eff. coupling^2, normalised to SM
    0.00000000E+00        3  36  23  23  # A0-Z-Z eff. coupling^2, normalised to SM
#
    8.91037402E-01        3  25  21  21  # h0-g-g eff. coupling^2, normalised to SM
    3.18368687E-13        3  35  21  21  # H0-g-g eff. coupling^2, normalised to SM
    4.08665188E-12        3  36  21  21  # A0-g-g eff. coupling^2, normalised to SM
#
    0.00000000E+00        3  25  25  23  # h0-h0-Z eff. coupling^2, normalised to SM
    0.00000000E+00        3  35  25  23  # H0-h0-Z eff. coupling^2, normalised to SM
    6.31615711E-08        3  36  25  23  # A0-h0-Z eff. coupling^2, normalised to SM
    0.00000000E+00        3  35  35  23  # H0-H0-Z eff. coupling^2, normalised to SM
    9.99999937E-01        3  36  35  23  # A0-H0-Z eff. coupling^2, normalised to SM
    0.00000000E+00        3  36  36  23  # A0-A0-Z eff. coupling^2, normalised to SM
#
    0.00000000E+00        4  25  21  21  23  # h0-g-g-Z eff. coupling^2, normalised to SM
    0.00000000E+00        4  35  21  21  23  # H0-g-g-Z eff. coupling^2, normalised to SM
    0.00000000E+00        4  36  21  21  23  # A0-g-g-Z eff. coupling^2, normalised to SM
#
#
#
#                             =================
#                             |The decay table|
#                             =================
#
# - The QCD corrections to the decays gluino -> squark  + quark
#                                     squark -> gaugino + quark_prime
#                                     squark -> squark_prime + Higgs
#                                     squark -> gluino  + quark
#   are included.
#
# - The multi-body decays for the inos, stops and sbottoms are included.
#
# - The loop induced decays for the gluino, neutralinos and stops
#   are included.
#
# - The SUSY decays of the top quark are included.
#
#
#         PDG            Width
DECAY         6     1.45100561E+00   # top decays
#          BR         NDA      ID1       ID2
     1.00000000E+00    2           5        24   # BR(t ->  b    W+)
#
#         PDG            Width
DECAY   1000021     3.37601906E+02   # gluino decays
#          BR         NDA      ID1       ID2
     1.08219645E-01    2     1000001        -1   # BR(~g -> ~d_L  db)
     1.08219645E-01    2    -1000001         1   # BR(~g -> ~d_L* d )
     4.80758966E-04    2     2000001        -1   # BR(~g -> ~d_R  db)
     4.80758966E-04    2    -2000001         1   # BR(~g -> ~d_R* d )
     1.08311729E-01    2     1000002        -2   # BR(~g -> ~u_L  ub)
     1.08311729E-01    2    -1000002         2   # BR(~g -> ~u_L* u )
     1.32304546E-03    2     2000002        -2   # BR(~g -> ~u_R  ub)
     1.32304546E-03    2    -2000002         2   # BR(~g -> ~u_R* u )
     1.08219645E-01    2     1000003        -3   # BR(~g -> ~s_L  sb)
     1.08219645E-01    2    -1000003         3   # BR(~g -> ~s_L* s )
     4.80758966E-04    2     2000003        -3   # BR(~g -> ~s_R  sb)
     4.80758966E-04    2    -2000003         3   # BR(~g -> ~s_R* s )
     1.08311728E-01    2     1000004        -4   # BR(~g -> ~c_L  cb)
     1.08311728E-01    2    -1000004         4   # BR(~g -> ~c_L* c )
     1.32301088E-03    2     2000004        -4   # BR(~g -> ~c_R  cb)
     1.32301088E-03    2    -2000004         4   # BR(~g -> ~c_R* c )
     2.38717294E-02    2     1000005        -5   # BR(~g -> ~b_1  bb)
     2.38717294E-02    2    -1000005         5   # BR(~g -> ~b_1* b )
     8.80740298E-03    2     2000005        -5   # BR(~g -> ~b_2  bb)
     8.80740298E-03    2    -2000005         5   # BR(~g -> ~b_2* b )
     2.27534986E-02    2     1000006        -6   # BR(~g -> ~t_1  tb)
     2.27534986E-02    2    -1000006         6   # BR(~g -> ~t_1* t )
     7.89704887E-03    2     2000006        -6   # BR(~g -> ~t_2  tb)
     7.89704887E-03    2    -2000006         6   # BR(~g -> ~t_2* t )
#
#         PDG            Width
DECAY   1000006     6.51980994E+01   # stop1 decays
#          BR         NDA      ID1       ID2
     1.64098664E-01    2     1000022         6   # BR(~t_1 -> ~chi_10 t )
     2.26249999E-01    2     1000023         6   # BR(~t_1 -> ~chi_20 t )
     2.41861115E-01    2     1000025         6   # BR(~t_1 -> ~chi_30 t )
     1.42387049E-03    2     1000035         6   # BR(~t_1 -> ~chi_40 t )
     3.33254820E-01    2     1000024         5   # BR(~t_1 -> ~chi_1+ b )
     3.31115312E-02    2     1000037         5   # BR(~t_1 -> ~chi_2+ b )
#
#         PDG            Width
DECAY   2000006     1.10956968E+02   # stop2 decays
#          BR         NDA      ID1       ID2
     6.20236381E-03    2     1000022         6   # BR(~t_2 -> ~chi_10 t )
     1.77031592E-01    2     1000023         6   # BR(~t_2 -> ~chi_20 t )
     1.66782880E-01    2     1000025         6   # BR(~t_2 -> ~chi_30 t )
     2.33326634E-02    2     1000035         6   # BR(~t_2 -> ~chi_40 t )
     1.25059295E-02    2     1000024         5   # BR(~t_2 -> ~chi_1+ b )
     3.32129044E-01    2     1000037         5   # BR(~t_2 -> ~chi_2+ b )
     6.78448547E-02    2     1000006        25   # BR(~t_2 -> ~t_1    h )
     7.47773807E-02    2     1000006        23   # BR(~t_2 -> ~t_1    Z )
     1.39393292E-01    2     1000005        24   # BR(~t_2 -> ~b_1    W+)
#
#         PDG            Width
DECAY   1000005     6.58778000E+01   # sbottom1 decays
#          BR         NDA      ID1       ID2
     1.73045160E-01    2     1000022         5   # BR(~b_1 -> ~chi_10 b )
     7.18947994E-03    2     1000023         5   # BR(~b_1 -> ~chi_20 b )
     7.72814136E-03    2     1000025         5   # BR(~b_1 -> ~chi_30 b )
     1.14635381E-03    2     1000035         5   # BR(~b_1 -> ~chi_40 b )
     3.40939003E-01    2    -1000024         6   # BR(~b_1 -> ~chi_1- t )
     4.69951861E-01    2    -1000037         6   # BR(~b_1 -> ~chi_2- t )
#
#         PDG            Width
DECAY   2000005     2.88174555E+00   # sbottom2 decays
#          BR         NDA      ID1       ID2
     2.50247358E-03    2     1000022         5   # BR(~b_2 -> ~chi_10 b )
     1.93479475E-01    2     1000023         5   # BR(~b_2 -> ~chi_20 b )
     1.92350185E-01    2     1000025         5   # BR(~b_2 -> ~chi_30 b )
     2.18029883E-01    2     1000035         5   # BR(~b_2 -> ~chi_40 b )
     4.93748990E-03    2    -1000024         6   # BR(~b_2 -> ~chi_1- t )
     3.81625811E-01    2    -1000037         6   # BR(~b_2 -> ~chi_2- t )
     1.76873653E-03    2     1000005        25   # BR(~b_2 -> ~b_1    h )
     1.70921318E-03    2     1000005        23   # BR(~b_2 -> ~b_1    Z )
     3.59673295E-03    2     1000006       -24   # BR(~b_2 -> ~t_1    W-)
#
#         PDG            Width
DECAY   1000002     2.71970928E+00   # sup_L decays
#          BR         NDA      ID1       ID2
     3.31883039E-01    2     1000022         2   # BR(~u_L -> ~chi_10 u)
     6.68116961E-01    2     1000024         1   # BR(~u_L -> ~chi_1+ d)
#
#         PDG            Width
DECAY   2000002     3.60137628E+00   # sup_R decays
#          BR         NDA      ID1       ID2
     4.03467278E-07    2     1000022         2   # BR(~u_R -> ~chi_10 u)
     2.34195093E-04    2     1000023         2   # BR(~u_R -> ~chi_20 u)
     9.97237393E-04    2     1000025         2   # BR(~u_R -> ~chi_30 u)
     9.98768164E-01    2     1000035         2   # BR(~u_R -> ~chi_40 u)
#
#         PDG            Width
DECAY   1000001     2.78507973E+00   # sdown_L decays
#          BR         NDA      ID1       ID2
     3.35326865E-01    2     1000022         1   # BR(~d_L -> ~chi_10 d)
     6.64673135E-01    2    -1000024         2   # BR(~d_L -> ~chi_1- u)
#
#         PDG            Width
DECAY   2000001     9.65233707E-01   # sdown_R decays
#          BR         NDA      ID1       ID2
     3.84419763E-07    2     1000022         1   # BR(~d_R -> ~chi_10 d)
     2.24363601E-04    2     1000023         1   # BR(~d_R -> ~chi_20 d)
     9.55384034E-04    2     1000025         1   # BR(~d_R -> ~chi_30 d)
     9.98819868E-01    2     1000035         1   # BR(~d_R -> ~chi_40 d)
#
#         PDG            Width
DECAY   1000004     2.52625562E+00   # scharm_L decays
#          BR         NDA      ID1       ID2
     3.31876246E-01    2     1000022         4   # BR(~c_L -> ~chi_10 c)
     6.68123754E-01    2     1000024         3   # BR(~c_L -> ~chi_1+ s)
#
#         PDG            Width
DECAY   2000004     3.66982691E+00   # scharm_R decays
#          BR         NDA      ID1       ID2
     4.07331203E-07    2     1000022         4   # BR(~c_R -> ~chi_10 c)
     2.35892918E-04    2     1000023         4   # BR(~c_R -> ~chi_20 c)
     1.00446412E-03    2     1000025         4   # BR(~c_R -> ~chi_30 c)
     9.98759236E-01    2     1000035         4   # BR(~c_R -> ~chi_40 c)
#
#         PDG            Width
DECAY   1000003     2.58844503E+00   # sstrange_L decays
#          BR         NDA      ID1       ID2
     3.35335063E-01    2     1000022         3   # BR(~s_L -> ~chi_10 s)
     6.64664937E-01    2    -1000024         4   # BR(~s_L -> ~chi_1- c)
#
#         PDG            Width
DECAY   2000003     9.86985689E-01   # sstrange_R decays
#          BR         NDA      ID1       ID2
     3.88004628E-07    2     1000022         3   # BR(~s_R -> ~chi_10 s)
     2.25929470E-04    2     1000023         3   # BR(~s_R -> ~chi_20 s)
     9.62049045E-04    2     1000025         3   # BR(~s_R -> ~chi_30 s)
     9.98811633E-01    2     1000035         3   # BR(~s_R -> ~chi_40 s)
#
#         PDG            Width
DECAY   1000011     6.76858702E+00   # selectron_L decays
#          BR         NDA      ID1       ID2
     3.35007435E-01    2     1000022        11   # BR(~e_L -> ~chi_10 e-)
     6.64992565E-01    2    -1000024        12   # BR(~e_L -> ~chi_1- nu_e)
#
#         PDG            Width
DECAY   2000011     1.81334347E-04   # selectron_R decays
#           BR         NDA      ID1       ID2
     4.27338495E-03    2     1000022        11   # BR(~e_R -> ~chi_10 e-)
     1.90997832E-01    2     1000023        11   # BR(~e_R -> ~chi_20 e-)
     8.04728783E-01    2     1000025        11   # BR(~e_R -> ~chi_30 e-)
#
#         PDG            Width
DECAY   1000013     6.76858691E+00   # smuon_L decays
#          BR         NDA      ID1       ID2
     3.35007424E-01    2     1000022        13   # BR(~mu_L -> ~chi_10 mu-)
     6.64992576E-01    2    -1000024        14   # BR(~mu_L -> ~chi_1- nu_mu)
#
#         PDG            Width
DECAY   2000013     1.81334282E-04   # smuon_R decays
#           BR         NDA      ID1       ID2
     4.27338637E-03    2     1000022        13   # BR(~mu_R -> ~chi_10 mu-)
     1.90997832E-01    2     1000023        13   # BR(~mu_R -> ~chi_20 mu-)
     8.04728782E-01    2     1000025        13   # BR(~mu_R -> ~chi_30 mu-)
#
#         PDG            Width
DECAY   1000015     2.42114397E+01   # stau_1 decays
#          BR         NDA      ID1       ID2
     3.27726126E-01    2     1000022        15   # BR(~tau_1 -> ~chi_10  tau-)
     6.54566739E-03    2     1000023        15   # BR(~tau_1 -> ~chi_20  tau-)
     8.20776779E-03    2     1000025        15   # BR(~tau_1 -> ~chi_30  tau-)
     6.50468331E-01    2    -1000024        16   # BR(~tau_1 -> ~chi_1-  nu_tau)
     7.05210750E-03    2    -1000037        16   # BR(~tau_1 -> ~chi_2-  nu_tau)
#
#         PDG            Width
DECAY   2000015     1.01476250E+00   # stau_2 decays
#          BR         NDA      ID1       ID2
     4.24934020E-04    2     1000022        15   # BR(~tau_2 -> ~chi_10  tau-)
     1.92423066E-01    2     1000023        15   # BR(~tau_2 -> ~chi_20  tau-)
     1.94772626E-01    2     1000025        15   # BR(~tau_2 -> ~chi_30  tau-)
     1.92774496E-01    2     1000035        15   # BR(~tau_2 -> ~chi_40  tau-)
     8.40096684E-04    2    -1000024        16   # BR(~tau_2 -> ~chi_1-  nu_tau)
     3.82089730E-01    2    -1000037        16   # BR(~tau_2 -> ~chi_2-  nu_tau)
     1.82752287E-02    2     1000016       -24   # BR(~tau_2 -> ~nu_tauL W-)
     9.53670035E-03    2     1000015        25   # BR(~tau_2 -> ~tau_1   h)
     8.86312224E-03    2     1000015        23   # BR(~tau_2 -> ~tau_1   Z)
#
#         PDG            Width
DECAY   1000012     6.77991817E+00   # snu_eL decays
#          BR         NDA      ID1       ID2
     3.31839503E-01    2     1000022        12   # BR(~nu_eL -> ~chi_10 nu_e)
     6.68160497E-01    2     1000024        11   # BR(~nu_eL -> ~chi_1+ e-)
#
#         PDG            Width
DECAY   1000014     6.77991796E+00   # snu_muL decays
#          BR         NDA      ID1       ID2
     3.31839513E-01    2     1000022        14   # BR(~nu_muL -> ~chi_10 nu_mu)
     6.68160487E-01    2     1000024        13   # BR(~nu_muL -> ~chi_1+ mu-)
#
#         PDG            Width
DECAY   1000016     2.42599019E+01   # snu_tauL decays
#          BR         NDA      ID1       ID2
     3.26781078E-01    2     1000022        16   # BR(~nu_tauL -> ~chi_10 nu_tau)
     5.75045694E-04    2     1000023        16   # BR(~nu_tauL -> ~chi_20 nu_tau)
     1.14568124E-03    2     1000025        16   # BR(~nu_tauL -> ~chi_30 nu_tau)
     6.58550351E-01    2     1000024        15   # BR(~nu_tauL -> ~chi_1+ tau-)
     1.29478441E-02    2     1000037        15   # BR(~nu_tauL -> ~chi_2+ tau-)
#
#         PDG            Width
DECAY   1000024     5.14084830E-15   # chargino1+ decays
#           BR         NDA      ID1       ID2       ID3
     1.94223400E-02    3     1000022       -11        12   # BR(~chi_1+ -> ~chi_10 e+   nu_e)
     3.07469340E-03    3     1000022       -13        14   # BR(~chi_1+ -> ~chi_10 mu+  nu_mu)
     9.77502970E-01    2     1000022       211             # BR(~chi_1+ -> ~chi_10 pi+)
#
#         PDG            Width
DECAY   1000037     4.71793980E+00   # chargino2+ decays
#          BR         NDA      ID1       ID2
     1.56792556E-03    2     1000002        -1   # BR(~chi_2+ -> ~u_L     db)
     1.64482770E-02    2    -1000001         2   # BR(~chi_2+ -> ~d_L*    u )
     1.56792505E-03    2     1000004        -3   # BR(~chi_2+ -> ~c_L     sb)
     1.64481876E-02    2    -1000003         4   # BR(~chi_2+ -> ~s_L*     c )
     5.34698516E-05    2     1000012       -11   # BR(~chi_2+ -> ~nu_eL   e+  )
     5.34698516E-05    2     1000014       -13   # BR(~chi_2+ -> ~nu_muL mu+ )
     5.34126517E-04    2    -1000011        12   # BR(~chi_2+ -> ~e_L+    nu_e)
     5.34126517E-04    2    -1000013        14   # BR(~chi_2+ -> ~mu_L+   nu_mu)
     3.20023092E-01    2     1000024        23   # BR(~chi_2+ -> ~chi_1+  Z )
     3.13805193E-01    2     1000022        24   # BR(~chi_2+ -> ~chi_10  W+)
     3.28964207E-01    2     1000024        25   # BR(~chi_2+ -> ~chi_1+  h )
#
#         PDG            Width
DECAY   1000022     0.00000000E+00   # neutralino1 decays
#
#         PDG            Width
DECAY   1000023     4.48329008E+00   # neutralino2 decays
#          BR         NDA      ID1       ID2
     2.59651386E-01    2     1000022        23   # BR(~chi_20 -> ~chi_10   Z )
     3.29104239E-01    2     1000024       -24   # BR(~chi_20 -> ~chi_1+   W-)
     3.29104239E-01    2    -1000024        24   # BR(~chi_20 -> ~chi_1-   W+)
     7.34768642E-02    2     1000022        25   # BR(~chi_20 -> ~chi_10   h )
     9.67426940E-04    2     1000002        -2   # BR(~chi_20 -> ~u_L      ub)
     9.67426940E-04    2    -1000002         2   # BR(~chi_20 -> ~u_L*     u )
     1.13108339E-03    2     1000001        -1   # BR(~chi_20 -> ~d_L      db)
     1.13108339E-03    2    -1000001         1   # BR(~chi_20 -> ~d_L*     d )
     9.67421738E-04    2     1000004        -4   # BR(~chi_20 -> ~c_L      cb)
     9.67421738E-04    2    -1000004         4   # BR(~chi_20 -> ~c_L*     c )
     1.13108339E-03    2     1000003        -3   # BR(~chi_20 -> ~s _L      sb)
     1.13108339E-03    2    -1000003         3   # BR(~chi_20 -> ~s _L*     s )
     2.36013579E-05    2     1000011       -11   # BR(~chi_20 -> ~e_L-     e+)
     2.36013579E-05    2    -1000011        11   # BR(~chi_20 -> ~e_L+     e-)
     2.36013579E-05    2     1000013       -13   # BR(~chi_20 -> ~mu_L-    mu+)
     2.36013579E-05    2    -1000013        13   # BR(~chi_20 -> ~mu_L+    mu-)
     4.37087725E-05    2     1000012       -12   # BR(~chi_20 -> ~nu_eL    nu_eb)
     4.37087725E-05    2    -1000012        12   # BR(~chi_20 -> ~nu_eL*   nu_e )
     4.37087725E-05    2     1000014       -14   # BR(~chi_20 -> ~nu_muL   nu_mub)
     4.37087725E-05    2    -1000014        14   # BR(~chi_20 -> ~nu_muL*  nu_mu )
#
#         PDG            Width
DECAY   1000025     4.69183184E+00   # neutralino3 decays
#          BR         NDA      ID1       ID2
     7.36573473E-02    2     1000022        23   # BR(~chi_30 -> ~chi_10   Z )
     3.17268002E-01    2     1000024       -24   # BR(~chi_30 -> ~chi_1+   W-)
     3.17268002E-01    2    -1000024        24   # BR(~chi_30 -> ~chi_1-   W+)
     2.62415830E-01    2     1000022        25   # BR(~chi_30 -> ~chi_10   h )
     3.95075441E-03    2     1000002        -2   # BR(~chi_30 -> ~u_L      ub)
     3.95075441E-03    2    -1000002         2   # BR(~chi_30 -> ~u_L*     u )
     3.17039918E-03    2     1000001        -1   # BR(~chi_30 -> ~d_L      db)
     3.17039918E-03    2    -1000001         1   # BR(~chi_30 -> ~d_L*     d )
     3.95073327E-03    2     1000004        -4   # BR(~chi_30 -> ~c_L      cb)
     3.95073327E-03    2    -1000004         4   # BR(~chi_30 -> ~c_L*     c )
     3.17039918E-03    2     1000003        -3   # BR(~chi_30 -> ~s _L      sb)
     3.17039918E-03    2    -1000003         3   # BR(~chi_30 -> ~s _L*     s )
     1.42107395E-04    2     1000011       -11   # BR(~chi_30 -> ~e_L-     e+)
     1.42107395E-04    2    -1000011        11   # BR(~chi_30 -> ~e_L+     e-)
     1.42107395E-04    2     1000013       -13   # BR(~chi_30 -> ~mu_L-    mu+)
     1.42107395E-04    2    -1000013        13   # BR(~chi_30 -> ~mu_L+    mu-)
     8.44545478E-05    2     1000012       -12   # BR(~chi_30 -> ~nu_eL    nu_eb)
     8.44545478E-05    2    -1000012        12   # BR(~chi_30 -> ~nu_eL*   nu_e )
     8.44545478E-05    2     1000014       -14   # BR(~chi_30 -> ~nu_muL   nu_mub)
     8.44545478E-05    2    -1000014        14   # BR(~chi_30 -> ~nu_muL*  nu_mu )
#
#         PDG            Width
DECAY   1000035     3.01011478E+01   # neutralino4 decays
#          BR         NDA      ID1       ID2
     7.48277164E-07    2     1000022        23   # BR(~chi_40 -> ~chi_10   Z )
     3.03073986E-02    2     1000023        23   # BR(~chi_40 -> ~chi_20   Z )
     7.27474347E-03    2     1000025        23   # BR(~chi_40 -> ~chi_30   Z )
     3.21259432E-05    2     1000024       -24   # BR(~chi_40 -> ~chi_1+   W-)
     3.21259432E-05    2    -1000024        24   # BR(~chi_40 -> ~chi_1-   W+)
     3.65751307E-02    2     1000037       -24   # BR(~chi_40 -> ~chi_2+   W-)
     3.65751307E-02    2    -1000037        24   # BR(~chi_40 -> ~chi_2-   W+)
     2.44275759E-05    2     1000022        25   # BR(~chi_40 -> ~chi_10   h )
     7.54974572E-03    2     1000023        25   # BR(~chi_40 -> ~chi_20   h )
     3.30744890E-02    2     1000025        25   # BR(~chi_40 -> ~chi_30   h )
     1.40175086E-02    2     1000002        -2   # BR(~chi_40 -> ~u_L      ub)
     1.40175086E-02    2    -1000002         2   # BR(~chi_40 -> ~u_L*     u )
     1.42642243E-02    2     1000001        -1   # BR(~chi_40 -> ~d_L      db)
     1.42642243E-02    2    -1000001         1   # BR(~chi_40 -> ~d_L*     d )
     1.40175074E-02    2     1000004        -4   # BR(~chi_40 -> ~c_L      cb)
     1.40175074E-02    2    -1000004         4   # BR(~chi_40 -> ~c_L*     c )
     1.42642243E-02    2     1000003        -3   # BR(~chi_40 -> ~s _L      sb)
     1.42642243E-02    2    -1000003         3   # BR(~chi_40 -> ~s _L*     s )
     3.51301337E-02    2     1000011       -11   # BR(~chi_40 -> ~e_L-     e+)
     3.51301337E-02    2    -1000011        11   # BR(~chi_40 -> ~e_L+     e-)
     1.12640023E-01    2     2000011       -11   # BR(~chi_40 -> ~e_R-     e+)
     1.12640023E-01    2    -2000011        11   # BR(~chi_40 -> ~e_R+     e-)
     3.51301337E-02    2     1000013       -13   # BR(~chi_40 -> ~mu_L-    mu+)
     3.51301337E-02    2    -1000013        13   # BR(~chi_40 -> ~mu_L+    mu-)
     1.12640023E-01    2     2000013       -13   # BR(~chi_40 -> ~mu_R-    mu+)
     1.12640023E-01    2    -2000013        13   # BR(~chi_40 -> ~mu_R+    mu-)
     5.97559158E-04    2     1000015       -15   # BR(~chi_40 -> ~tau_1-   tau+)
     5.97559158E-04    2    -1000015        15   # BR(~chi_40 -> ~tau_1+   tau-)
     3.54795572E-02    2     1000012       -12   # BR(~chi_40 -> ~nu_eL    nu_eb)
     3.54795572E-02    2    -1000012        12   # BR(~chi_40 -> ~nu_eL*   nu_e )
     3.54795572E-02    2     1000014       -14   # BR(~chi_40 -> ~nu_muL   nu_mub)
     3.54795572E-02    2    -1000014        14   # BR(~chi_40 -> ~nu_muL*  nu_mu )
     6.16516064E-04    2     1000016       -16   # BR(~chi_40 -> ~nu_tau1  nu_taub)
     6.16516064E-04    2    -1000016        16   # BR(~chi_40 -> ~nu_tau1* nu_tau )
#
#         PDG            Width
DECAY        25     4.18446424E-03   # h decays
#          BR         NDA      ID1       ID2
     5.88814018E-01    2           5        -5   # BR(h -> b       bb     )
     6.25355147E-02    2         -15        15   # BR(h -> tau+    tau-   )
     2.21357558E-04    2         -13        13   # BR(h -> mu+     mu-    )
     2.41280252E-04    2           3        -3   # BR(h -> s       sb     )
     2.08242905E-02    2           4        -4   # BR(h -> c       cb     )
     7.76993204E-02    2          21        21   # BR(h -> g       g      )
     2.30411589E-03    2          22        22   # BR(h -> gam     gam    )
     1.59311261E-03    2          22        23   # BR(h -> Z       gam    )
     2.18279370E-01    2          24       -24   # BR(h -> W+      W-     )
     2.74876203E-02    2          23        23   # BR(h -> Z       Z      )
#
#         PDG            Width
DECAY        35     3.16027750E+01   # H decays
#          BR         NDA      ID1       ID2
     1.11002874E-01    2           5        -5   # BR(H -> b       bb     )
     2.09014625E-02    2         -15        15   # BR(H -> tau+    tau-   )
     7.49017466E-05    2         -13        13   # BR(H -> mu+     mu-    )
     4.27107607E-05    2           3        -3   # BR(H -> s       sb     )
     3.30889753E-07    2           4        -4   # BR(H -> c       cb     )
     3.24697579E-02    2           6        -6   # BR(H -> t       tb     )
     1.16523332E-05    2          21        21   # BR(H -> g       g      )
     6.34973447E-11    2          22        22   # BR(H -> gam     gam    )
     2.06759027E-08    2          23        22   # BR(H -> Z       gam    )
     1.43711560E-05    2          24       -24   # BR(H -> W+      W-     )
     7.16843262E-06    2          23        23   # BR(H -> Z       Z      )
     6.29728948E-05    2          25        25   # BR(H -> h       h      )
     1.17925156E-02    2     1000024  -1000024   # BR(H -> ~chi_1+ ~chi_1-)
     7.82993279E-04    2     1000037  -1000037   # BR(H -> ~chi_2+ ~chi_2-)
     2.72305971E-01    2     1000024  -1000037   # BR(H -> ~chi_1+ ~chi_2-)
     2.72305971E-01    2     1000037  -1000024   # BR(H -> ~chi_2+ ~chi_1-)
     5.90686529E-03    2     1000022   1000022   # BR(H -> ~chi_10 ~chi_10)
     3.15905841E-04    2     1000023   1000023   # BR(H -> ~chi_20 ~chi_20)
     9.44758893E-04    2     1000025   1000025   # BR(H -> ~chi_30 ~chi_30)
     1.23523630E-01    2     1000022   1000023   # BR(H -> ~chi_10 ~chi_20)
     1.45403697E-01    2     1000022   1000025   # BR(H -> ~chi_10 ~chi_30)
     2.90479768E-05    2     1000022   1000035   # BR(H -> ~chi_10 ~chi_40)
     2.02012916E-03    2     1000023   1000025   # BR(H -> ~chi_20 ~chi_30)
     1.20434070E-05    2     1000002  -1000002   # BR(H -> ~u_L    ~u_L*  )
     1.20434070E-05    2     1000004  -1000004   # BR(H -> ~c_L    ~c_L*  )
     1.76511010E-05    2     1000001  -1000001   # BR(H -> ~d_L    ~d_L*  )
     1.76511010E-05    2     1000003  -1000003   # BR(H -> ~s_L    ~s_L*  )
     2.18008137E-06    2     1000011  -1000011   # BR(H -> ~e_L-   ~e_L+  )
     1.14021547E-06    2     2000011  -2000011   # BR(H -> ~e_R-   ~e_R+  )
     2.18008137E-06    2     1000013  -1000013   # BR(H -> ~mu_L-  ~mu_L+ )
     1.14021547E-06    2     2000013  -2000013   # BR(H -> ~mu_R-  ~mu_R+ )
     7.13115518E-06    2     1000012  -1000012   # BR(H -> ~nu_eL  ~nu_eL*   )
     7.13115518E-06    2     1000014  -1000014   # BR(H -> ~nu_muL ~nu_muL*  )
#
#         PDG            Width
DECAY        36     3.16118513E+01   # A decays
#          BR         NDA      ID1       ID2
     1.11003165E-01    2           5        -5   # BR(A -> b       bb     )
     2.08960550E-02    2         -15        15   # BR(A -> tau+    tau-   )
     7.48822259E-05    2         -13        13   # BR(A -> mu+     mu-    )
     4.27266328E-05    2           3        -3   # BR(A -> s       sb     )
     3.32079247E-07    2           4        -4   # BR(A -> c       cb     )
     3.26104460E-02    2           6        -6   # BR(A -> t       tb     )
     4.17317233E-05    2          21        21   # BR(A -> g       g      )
     7.18506300E-09    2          22        22   # BR(A -> gam     gam    )
     4.67478525E-08    2          23        22   # BR(A -> Z       gam    )
     1.45473095E-05    2          23        25   # BR(A -> Z       h      )
     1.13122761E-02    2     1000024  -1000024   # BR(A -> ~chi_1+ ~chi_1-)
     3.97718491E-04    2     1000037  -1000037   # BR(A -> ~chi_2+ ~chi_2-)
     2.72708841E-01    2     1000024  -1000037   # BR(A -> ~chi_1+ ~chi_2-)
     2.72708841E-01    2     1000037  -1000024   # BR(A -> ~chi_2+ ~chi_1-)
     5.65918592E-03    2     1000022   1000022   # BR(A -> ~chi_10 ~chi_10)
     8.47074055E-04    2     1000023   1000023   # BR(A -> ~chi_20 ~chi_20)
     1.18455185E-03    2     1000025   1000025   # BR(A -> ~chi_30 ~chi_30)
     1.47359785E-01    2     1000022   1000023   # BR(A -> ~chi_10 ~chi_20)
     1.21845354E-01    2     1000022   1000025   # BR(A -> ~chi_10 ~chi_30)
     1.13978119E-04    2     1000022   1000035   # BR(A -> ~chi_10 ~chi_40)
     1.17845537E-03    2     1000023   1000025   # BR(A -> ~chi_20 ~chi_30)
#
#         PDG            Width
DECAY        37     3.14531174E+01   # H+ decays
#          BR         NDA      ID1       ID2
     1.81512555E-04    2           4        -5   # BR(H+ -> c       bb     )
     2.10126956E-02    2         -15        16   # BR(H+ -> tau+    nu_tau )
     7.53002141E-05    2         -13        14   # BR(H+ -> mu+     nu_mu  )
     1.81511778E-06    2           2        -5   # BR(H+ -> u       bb     )
     2.14732522E-06    2           2        -3   # BR(H+ -> u       sb     )
     4.25859532E-05    2           4        -3   # BR(H+ -> c       sb     )
     1.40000705E-01    2           6        -5   # BR(H+ -> t       bb     )
     1.46545672E-05    2          24        25   # BR(H+ -> W+      h      )
     3.18736130E-13    2          24        36   # BR(H+ -> W+      A      )
     2.63292422E-09    2     1000024   1000022   # BR(H+ -> ~chi_1+ ~chi_10)
     2.76764274E-01    2     1000024   1000023   # BR(H+ -> ~chi_1+ ~chi_20)
     2.78611721E-01    2     1000024   1000025   # BR(H+ -> ~chi_1+ ~chi_30)
     1.42175198E-04    2     1000024   1000035   # BR(H+ -> ~chi_1+ ~chi_40)
     2.81164864E-01    2     1000037   1000022   # BR(H+ -> ~chi_2+ ~chi_10)
     1.65217831E-03    2     1000037   1000023   # BR(H+ -> ~chi_2+ ~chi_20)
     2.57184246E-04    2     1000037   1000025   # BR(H+ -> ~chi_2+ ~chi_30)
     8.61163038E-06    2    -1000011   1000012   # BR(H+ -> ~e_L+   ~nu_eL )
     8.61163038E-06    2    -1000013   1000014   # BR(H+ -> ~mu_L+  ~nu_muL)
     2.94804718E-05    2     1000002  -1000001   # BR(H+ -> ~u_L    ~d_L*  )
     2.94804718E-05    2     1000004  -1000003   # BR(H+ -> ~c_L    ~s_L*  )
