#
#                              ======================
#                              | THE SUSYHIT OUTPUT |
#                              ======================
#
#
#              ------------------------------------------------------
#              |     This is the output of the SUSY-HIT package     |
#              |  created by A.Djouadi, M.Muehlleitner and M.Spira. |
#              |  In case of problems with SUSY-HIT email to        |
#              |           margarete.muehlleitner@cern.ch           |
#              |           michael.spira@psi.ch                     |
#              |           abdelhak.djouadi@cern.ch                 |
#              ------------------------------------------------------
#
#              ------------------------------------------------------
#              |  SUSY Les Houches Accord - MSSM Spectrum + Decays  |
#              |              based on the decay programs           |
#              |                                                    |
#              |                     SDECAY 1.3b                    |
#              |                                                    |
#              |  Authors: M.Muhlleitner, A.Djouadi and Y.Mambrini  |
#              |  Ref.:    Comput.Phys.Commun.168(2005)46           |
#              |           [hep-ph/0311167]                         |
#              |                                                    |
#              |                     HDECAY 3.4                     |
#              |                                                    |
#              |  By: A.Djouadi,J.Kalinowski,M.Muhlleitner,M.Spira  |
#              |  Ref.:    Comput.Phys.Commun.108(1998)56           |
#              |           [hep-ph/9704448]                         |
#              |                                                    |
#              |                                                    |
#              |  If not stated otherwise all DRbar couplings and   |
#              |  soft SUSY breaking masses are given at the scale  |
#              |  Q=  0.26605350E+04
#              |                                                    |
#              ------------------------------------------------------
#
#
BLOCK DCINFO  # Decay Program information
     1   SDECAY/HDECAY # decay calculator
     2   1.3b  /3.4    # version number
#
BLOCK SPINFO  # Spectrum calculator information
     1     SOFTSUSY    # spectrum calculator               
     2     3.4.0       # version number                    
#
BLOCK MODSEL  # Model selection
     1     0   #  nonUniversal                                     
#
BLOCK SMINPUTS  # Standard Model inputs
         1     1.27908970E+02   # alpha_em^-1(M_Z)^MSbar
         2     1.16637870E-05   # G_F [GeV^-2]
         3     1.18400000E-01   # alpha_S(M_Z)^MSbar
         4     9.11876000E+01   # M_Z pole mass
         5     4.18000000E+00   # mb(mb)^MSbar
         6     1.73200000E+02   # mt pole mass
         7     1.77700000E+00   # mtau pole mass
#
BLOCK MINPAR  # Input parameters - minimal models
         3     2.11400000E+01   # tanb                
#
BLOCK EXTPAR  # Input parameters - non-minimal models
         0    -1.00000000E+00   # Set                 
         1     2.74222000E+03   # M_1(MX)             
         2    -3.94239000E+03   # M_2(MX)             
         3     2.00374000E+03   # M_3(MX)             
        11    -4.44615000E+03   # At(MX)              
        12     3.29351000E+03   # Ab(MX)              
        13     1.69920000E+03   # Atau(MX)            
        23    -4.49130000E+02   # mu(MX)              
        26     3.74326000E+03   # mA(pole)            
        31     1.99218000E+03   # meL(MX)             
        32     1.99218000E+03   # mmuL(MX)            
        33     9.78540000E+02   # mtauL(MX)           
        34     1.25294000E+03   # meR(MX)             
        35     1.25294000E+03   # mmuR(MX)            
        36     3.33912000E+03   # mtauR(MX)           
        41     1.73383000E+03   # mqL1(MX)            
        42     1.73383000E+03   # mqL2(MX)            
        43     2.08252000E+03   # mqL3(MX)            
        44     1.49749000E+03   # muR(MX)             
        45     1.49749000E+03   # mcR(MX)             
        46     3.40265000E+03   # mtR(MX)             
        47     2.18890000E+02   # mdR(MX)             
        48     2.18890000E+02   # msR(MX)             
        49     2.42802000E+03   # mbR(MX)             
#
BLOCK MASS  # Mass Spectrum
# PDG code           mass       particle
        24     8.03891858E+01   # W+
        25     1.27291918E+02   # h
        35     3.74327649E+03   # H
        36     3.74325976E+03   # A
        37     3.74450197E+03   # H+
         5     4.81876030E+00   # b-quark pole mass calculated from mb(mb)_Msbar
   1000001     1.85356784E+03   # ~d_L
   2000001     5.32161628E+02   # ~d_R
   1000002     1.85202143E+03   # ~u_L
   2000002     1.60850902E+03   # ~u_R
   1000003     1.85356784E+03   # ~s_L
   2000003     5.32161628E+02   # ~s_R
   1000004     1.85202143E+03   # ~c_L
   2000004     1.60850902E+03   # ~c_R
   1000005     2.15708095E+03   # ~b_1
   2000005     2.49617518E+03   # ~b_2
   1000006     2.14781305E+03   # ~t_1
   2000006     3.38312634E+03   # ~t_2
   1000011     2.01417985E+03   # ~e_L
   2000011     1.27114971E+03   # ~e_R
   1000012     2.01232608E+03   # ~nu_eL
   1000013     2.01417985E+03   # ~mu_L
   2000013     1.27114971E+03   # ~mu_R
   1000014     2.01232608E+03   # ~nu_muL
   1000015     1.00119010E+03   # ~tau_1
   2000015     3.34547564E+03   # ~tau_2
   1000016     9.97830645E+02   # ~nu_tauL
   1000021     2.11659732E+03   # ~g
   1000022    -4.67267614E+02   # ~chi_10
   1000023     4.67835616E+02   # ~chi_20
   1000025     2.69836777E+03   # ~chi_30
   1000035    -3.88263428E+03   # ~chi_40
   1000024     4.67742306E+02   # ~chi_1+
   1000037     3.88280005E+03   # ~chi_2+
#
BLOCK NMIX  # Neutralino Mixing Matrix
  1  1     1.02354665E-02   # N_11
  1  2     1.67911312E-02   # N_12
  1  3     7.07286135E-01   # N_13
  1  4    -7.06653816E-01   # N_14
  2  1    -1.31897414E-02   # N_21
  2  2    -1.20455224E-02   # N_22
  2  3     7.06916317E-01   # N_23
  2  4     7.07071606E-01   # N_24
  3  1     9.99860613E-01   # N_31
  3  2    -1.85516386E-04   # N_32
  3  3     2.08444209E-03   # N_33
  3  4     1.65642942E-02   # N_34
  4  1    -1.45282885E-04   # N_41
  4  2     9.99786442E-01   # N_42
  4  3    -3.36128912E-03   # N_43
  4  4     2.03899912E-02   # N_44
#
BLOCK UMIX  # Chargino Mixing Matrix U
  1  1     4.75371191E-03   # U_11
  1  2     9.99988701E-01   # U_12
  2  1    -9.99988701E-01   # U_21
  2  2     4.75371191E-03   # U_22
#
BLOCK VMIX  # Chargino Mixing Matrix V
  1  1    -2.88357733E-02   # V_11
  1  2    -9.99584163E-01   # V_12
  2  1     9.99584163E-01   # V_21
  2  2    -2.88357733E-02   # V_22
#
BLOCK STOPMIX  # Stop Mixing Matrix
  1  1     9.95715322E-01   # cos(theta_t)
  1  2     9.24716039E-02   # sin(theta_t)
  2  1    -9.24716039E-02   # -sin(theta_t)
  2  2     9.95715322E-01   # cos(theta_t)
#
BLOCK SBOTMIX  # Sbottom Mixing Matrix
  1  1     9.99833853E-01   # cos(theta_b)
  1  2    -1.82281759E-02   # sin(theta_b)
  2  1     1.82281759E-02   # -sin(theta_b)
  2  2     9.99833853E-01   # cos(theta_b)
#
BLOCK STAUMIX  # Stau Mixing Matrix
  1  1     9.99998142E-01   # cos(theta_tau)
  1  2    -1.92769203E-03   # sin(theta_tau)
  2  1     1.92769203E-03   # -sin(theta_tau)
  2  2     9.99998142E-01   # cos(theta_tau)
#
BLOCK ALPHA  # Higgs mixing
          -4.92784337E-02   # Mixing angle in the neutral Higgs boson sector
#
BLOCK HMIX Q=  2.66053500E+03  # DRbar Higgs Parameters
         1    -4.56113777E+02   # mu(Q)MSSM           
         2     2.03132845E+01   # tan                 
         3     2.43198090E+02   # higgs               
         4     1.38646772E+07   # mA^2(Q)MSSM         
#
BLOCK GAUGE Q=  2.66053500E+03  # The gauge couplings
     1     3.65018559E-01   # gprime(Q) DRbar
     2     6.36942600E-01   # g(Q) DRbar
     3     1.02371492E+00   # g3(Q) DRbar
#
BLOCK AU Q=  2.66053500E+03  # The trilinear couplings
  1  1     0.00000000E+00   # A_u(Q) DRbar
  2  2     0.00000000E+00   # A_c(Q) DRbar
  3  3    -4.44614999E+03   # A_t(Q) DRbar
#
BLOCK AD Q=  2.66053500E+03  # The trilinear couplings
  1  1     0.00000000E+00   # A_d(Q) DRbar
  2  2     0.00000000E+00   # A_s(Q) DRbar
  3  3     3.29351000E+03   # A_b(Q) DRbar
#
BLOCK AE Q=  2.66053500E+03  # The trilinear couplings
  1  1     0.00000000E+00   # A_e(Q) DRbar
  2  2     0.00000000E+00   # A_mu(Q) DRbar
  3  3     1.69920000E+03   # A_tau(Q) DRbar
#
BLOCK Yu Q=  2.66053500E+03  # The Yukawa couplings
  1  1     0.00000000E+00   # y_u(Q) DRbar
  2  2     0.00000000E+00   # y_c(Q) DRbar
  3  3     8.17972588E-01   # y_t(Q) DRbar
#
BLOCK Yd Q=  2.66053500E+03  # The Yukawa couplings
  1  1     0.00000000E+00   # y_d(Q) DRbar
  2  2     0.00000000E+00   # y_s(Q) DRbar
  3  3     2.84066654E-01   # y_b(Q) DRbar
#
BLOCK Ye Q=  2.66053500E+03  # The Yukawa couplings
  1  1     0.00000000E+00   # y_e(Q) DRbar
  2  2     0.00000000E+00   # y_mu(Q) DRbar
  3  3     2.12570667E-01   # y_tau(Q) DRbar
#
BLOCK MSOFT Q=  2.66053500E+03  # The soft SUSY breaking masses at the scale Q
         1     2.74222000E+03   # M_1(Q)              
         2    -3.94239000E+03   # M_2(Q)              
         3     2.00374000E+03   # M_3(Q)              
        21     1.37038611E+07   # mH1^2(Q)            
        22    -8.16879890E+04   # mH2^2(Q)            
        31     1.99218000E+03   # meL(Q)              
        32     1.99218000E+03   # mmuL(Q)             
        33     9.78540000E+02   # mtauL(Q)            
        34     1.25294000E+03   # meR(Q)              
        35     1.25294000E+03   # mmuR(Q)             
        36     3.33912000E+03   # mtauR(Q)            
        41     1.73382999E+03   # mqL1(Q)             
        42     1.73382999E+03   # mqL2(Q)             
        43     2.08251999E+03   # mqL3(Q)             
        44     1.49748999E+03   # muR(Q)              
        45     1.49748999E+03   # mcR(Q)              
        46     3.40264999E+03   # mtR(Q)              
        47     2.18889946E+02   # mdR(Q)              
        48     2.18889946E+02   # msR(Q)              
        49     2.42802000E+03   # mbR(Q)              
#
Block HiggsBoundsInputHiggsCouplingsFermions
# ScalarNormEffCoupSq PseudoSNormEffCoupSq NP   IP1 IP2 IP2
    1.00363028E+00    0.00000000E+00        3  25   5   5  # h0-b-b eff. coupling^2, normalised to SM
    4.12625897E+02    0.00000000E+00        3  35   5   5  # H0-b-b eff. coupling^2, normalised to SM
    0.00000000E+00    4.12629527E+02        3  36   5   5  # A0-b-b eff. coupling^2, normalised to SM
#
    9.99991202E-01    0.00000000E+00        3  25   6   6  # h0-t-t eff. coupling^2, normalised to SM
    2.43227935E-03    0.00000000E+00        3  35   6   6  # H0-t-t eff. coupling^2, normalised to SM
    0.00000000E+00    2.42348144E-03        3  36   6   6  # A0-t-t eff. coupling^2, normalised to SM
#
    1.00363028E+00    0.00000000E+00        3  25  15  15  # h0-tau-tau eff. coupling^2, normalised to SM
    4.12625897E+02    0.00000000E+00        3  35  15  15  # H0-tau-tau eff. coupling^2, normalised to SM
    0.00000000E+00    4.12629527E+02        3  36  15  15  # A0-tau-tau eff. coupling^2, normalised to SM
#
Block HiggsBoundsInputHiggsCouplingsBosons
    9.99999992E-01        3  25  24  24  # h0-W-W eff. coupling^2, normalised to SM
    7.97028501E-09        3  35  24  24  # H0-W-W eff. coupling^2, normalised to SM
    0.00000000E+00        3  36  24  24  # A0-W-W eff. coupling^2, normalised to SM
#
    9.99999992E-01        3  25  23  23  # h0-Z-Z eff. coupling^2, normalised to SM
    7.97028501E-09        3  35  23  23  # H0-Z-Z eff. coupling^2, normalised to SM
    0.00000000E+00        3  36  23  23  # A0-Z-Z eff. coupling^2, normalised to SM
#
    8.89063376E-01        3  25  21  21  # h0-g-g eff. coupling^2, normalised to SM
    8.40339876E-16        3  35  21  21  # H0-g-g eff. coupling^2, normalised to SM
    1.76703636E-13        3  36  21  21  # A0-g-g eff. coupling^2, normalised to SM
#
    0.00000000E+00        3  25  25  23  # h0-h0-Z eff. coupling^2, normalised to SM
    0.00000000E+00        3  35  25  23  # H0-h0-Z eff. coupling^2, normalised to SM
    7.97028501E-09        3  36  25  23  # A0-h0-Z eff. coupling^2, normalised to SM
    0.00000000E+00        3  35  35  23  # H0-H0-Z eff. coupling^2, normalised to SM
    9.99999992E-01        3  36  35  23  # A0-H0-Z eff. coupling^2, normalised to SM
    0.00000000E+00        3  36  36  23  # A0-A0-Z eff. coupling^2, normalised to SM
#
    0.00000000E+00        4  25  21  21  23  # h0-g-g-Z eff. coupling^2, normalised to SM
    0.00000000E+00        4  35  21  21  23  # H0-g-g-Z eff. coupling^2, normalised to SM
    0.00000000E+00        4  36  21  21  23  # A0-g-g-Z eff. coupling^2, normalised to SM
#
#
#
#                             =================
#                             |The decay table|
#                             =================
#
# - The QCD corrections to the decays gluino -> squark  + quark
#                                     squark -> gaugino + quark_prime
#                                     squark -> squark_prime + Higgs
#                                     squark -> gluino  + quark
#   are included.
#
# - The multi-body decays for the inos, stops and sbottoms are included.
#
# - The loop induced decays for the gluino, neutralinos and stops
#   are included.
#
# - The SUSY decays of the top quark are included.
#
#
#         PDG            Width
DECAY         6     1.42883259E+00   # top decays
#          BR         NDA      ID1       ID2
     1.00000000E+00    2           5        24   # BR(t ->  b    W+)
#
#         PDG            Width
DECAY   1000021     1.01951220E+02   # gluino decays
#          BR         NDA      ID1       ID2
     1.16564945E-02    2     1000001        -1   # BR(~g -> ~d_L  db)
     1.16564945E-02    2    -1000001         1   # BR(~g -> ~d_L* d )
     1.88267810E-01    2     2000001        -1   # BR(~g -> ~d_R  db)
     1.88267810E-01    2    -2000001         1   # BR(~g -> ~d_R* d )
     1.17847739E-02    2     1000002        -2   # BR(~g -> ~u_L  ub)
     1.17847739E-02    2    -1000002         2   # BR(~g -> ~u_L* u )
     3.82910876E-02    2     2000002        -2   # BR(~g -> ~u_R  ub)
     3.82910876E-02    2    -2000002         2   # BR(~g -> ~u_R* u )
     1.16564945E-02    2     1000003        -3   # BR(~g -> ~s_L  sb)
     1.16564945E-02    2    -1000003         3   # BR(~g -> ~s_L* s )
     1.88267810E-01    2     2000003        -3   # BR(~g -> ~s_R  sb)
     1.88267810E-01    2    -2000003         3   # BR(~g -> ~s_R* s )
     1.17845845E-02    2     1000004        -4   # BR(~g -> ~c_L  cb)
     1.17845845E-02    2    -1000004         4   # BR(~g -> ~c_L* c )
     3.82909447E-02    2     2000004        -4   # BR(~g -> ~c_R  cb)
     3.82909447E-02    2    -2000004         4   # BR(~g -> ~c_R* c )
#
#         PDG            Width
DECAY   1000006     2.87590604E+01   # stop1 decays
#          BR         NDA      ID1       ID2
     4.46053852E-01    2     1000022         6   # BR(~t_1 -> ~chi_10 t )
     4.41615590E-01    2     1000023         6   # BR(~t_1 -> ~chi_20 t )
     1.12330558E-01    2     1000024         5   # BR(~t_1 -> ~chi_1+ b )
#
#         PDG            Width
DECAY   2000006     2.41859361E+02   # stop2 decays
#          BR         NDA      ID1       ID2
     8.88982585E-02    2     1000022         6   # BR(~t_2 -> ~chi_10 t )
     8.93541438E-02    2     1000023         6   # BR(~t_2 -> ~chi_20 t )
     4.21404599E-03    2     1000025         6   # BR(~t_2 -> ~chi_30 t )
     1.78383727E-01    2     1000024         5   # BR(~t_2 -> ~chi_1+ b )
     2.78435280E-01    2     1000021         6   # BR(~t_2 -> ~g      t )
     9.09857966E-02    2     1000006        25   # BR(~t_2 -> ~t_1    h )
     9.22774628E-02    2     1000006        23   # BR(~t_2 -> ~t_1    Z )
     1.77424759E-01    2     1000005        24   # BR(~t_2 -> ~b_1    W+)
     2.65260202E-05    2     2000005        24   # BR(~t_2 -> ~b_2    W+)
#
#         PDG            Width
DECAY   1000005     2.89728011E+01   # sbottom1 decays
#          BR         NDA      ID1       ID2
     5.44137403E-02    2     1000022         5   # BR(~b_1 -> ~chi_10 b )
     5.42456188E-02    2     1000023         5   # BR(~b_1 -> ~chi_20 b )
     8.85683437E-01    2    -1000024         6   # BR(~b_1 -> ~chi_1- t )
     5.65720412E-03    2     1000021         5   # BR(~b_1 -> ~g      b )
#
#         PDG            Width
DECAY   2000005     1.85074959E+01   # sbottom2 decays
#          BR         NDA      ID1       ID2
     1.00777942E-01    2     1000022         5   # BR(~b_2 -> ~chi_10 b )
     1.00781657E-01    2     1000023         5   # BR(~b_2 -> ~chi_20 b )
     2.00469630E-01    2    -1000024         6   # BR(~b_2 -> ~chi_1- t )
     5.92315794E-01    2     1000021         5   # BR(~b_2 -> ~g      b )
     1.56385132E-03    2     1000005        25   # BR(~b_2 -> ~b_1    h )
     1.30492677E-03    2     1000005        23   # BR(~b_2 -> ~b_1    Z )
     2.78619916E-03    2     1000006       -24   # BR(~b_2 -> ~t_1    W-)
#
#         PDG            Width
DECAY   1000002     1.43101114E-02   # sup_L decays
#          BR         NDA      ID1       ID2
     1.57870079E-01    2     1000022         2   # BR(~u_L -> ~chi_10 u)
     9.52688474E-02    2     1000023         2   # BR(~u_L -> ~chi_20 u)
     7.46861074E-01    2     1000024         1   # BR(~u_L -> ~chi_1+ d)
#
#         PDG            Width
DECAY   2000002     7.14838352E-02   # sup_R decays
#           BR         NDA      ID1       ID2
     4.61926556E-03    2     1000022         2   # BR(~u_R -> ~chi_10 u)
     7.66720824E-03    2     1000023         2   # BR(~u_R -> ~chi_20 u)
#           BR         NDA      ID1       ID2       ID3
     1.07032590E-01    3        2       -1        2000001   # BR(~u_R -> u  db  ~d_R)
     3.85136023E-01    3        2       1        -2000001   # BR(~u_R -> u  d  ~d_R*)
     1.06491209E-01    3        2       -3        2000003   # BR(~u_R -> u  sb  ~s_R)
     3.86954616E-01    3        2       3        -2000003   # BR(~u_R -> u  s  ~s_R*)
     3.09412610E-06    3        2       -11        2000011   # BR(~u_R -> u  e+  ~e_R-)
     1.07821579E-05    3        2       11        -2000011   # BR(~u_R -> u  e-  ~e_R+)
     3.08265497E-06    3        2       -13        2000013   # BR(~u_R -> u  mu+  ~mu_R-)
     1.09708719E-05    3        2       13        -2000013   # BR(~u_R -> u  mu-  ~mu_R+)
     4.00412204E-05    3        2       -15        1000015   # BR(~u_R -> u  tau+  ~tau_1-)
     9.31455340E-06    3        2       15        -1000015   # BR(~u_R -> u  tau-  ~tau_1+)
     4.08721775E-05    3        2       -16        1000016   # BR(~u_R -> u  nu_taub  ~nu_tau1)
     9.70247327E-06    3        2       16        -1000016   # BR(~u_R -> u  nu_tau  ~nu_tau1*)
     3.60375180E-04    3        2       23        1000022   # BR(~u_R -> u  Z  ~chi_10)
     1.32969922E-04    3        2       25        1000022   # BR(~u_R -> u  h  ~chi_10)
     1.74710827E-04    3        2       23        1000023   # BR(~u_R -> u  Z  ~chi_20)
     3.24814693E-04    3        2       25        1000023   # BR(~u_R -> u  h  ~chi_20)
     1.06440847E-04    3        2       -24        1000024   # BR(~u_R -> u  W-  ~chi_1+)
     8.71917404E-04    3        2       24        -1000024   # BR(~u_R -> u  W+  ~chi_1-)
#
#         PDG            Width
DECAY   1000001     2.29079672E-03   # sdown_L decays
#          BR         NDA      ID1       ID2
     6.18267333E-01    2     1000022         1   # BR(~d_L -> ~chi_10 d)
     2.54813672E-01    2     1000023         1   # BR(~d_L -> ~chi_20 d)
     1.26918995E-01    2    -1000024         2   # BR(~d_L -> ~chi_1- u)
#
#         PDG            Width
DECAY   2000001     4.90058550E-06   # sdown_R decays
#          BR         NDA      ID1       ID2
     3.79662621E-01    2     1000022         1   # BR(~d_R -> ~chi_10 d)
     6.20337379E-01    2     1000023         1   # BR(~d_R -> ~chi_20 d)
#
#         PDG            Width
DECAY   1000004     1.45864943E-02   # scharm_L decays
#          BR         NDA      ID1       ID2
     1.57870350E-01    2     1000022         4   # BR(~c_L -> ~chi_10 c)
     9.52686256E-02    2     1000023         4   # BR(~c_L -> ~chi_20 c)
     7.46861024E-01    2     1000024         3   # BR(~c_L -> ~chi_1+ s)
#
#         PDG            Width
DECAY   2000004     7.17595501E-02   # scharm_R decays
#           BR         NDA      ID1       ID2
     4.63861481E-03    2     1000022         4   # BR(~c_R -> ~chi_10 c)
     7.69929257E-03    2     1000023         4   # BR(~c_R -> ~chi_20 c)
#           BR         NDA      ID1       ID2       ID3
     1.07385010E-01    3        4       -1        2000001   # BR(~c_R -> c  db  ~d_R)
     3.84757150E-01    3        4       1        -2000001   # BR(~c_R -> c  d  ~d_R*)
     1.07175978E-01    3        4       -3        2000003   # BR(~c_R -> c  sb  ~s_R)
     3.86248241E-01    3        4       3        -2000003   # BR(~c_R -> c  s  ~s_R*)
     3.03471802E-06    3        4       -11        2000011   # BR(~c_R -> c  e+  ~e_R-)
     1.07376649E-05    3        4       11        -2000011   # BR(~c_R -> c  e-  ~e_R+)
     3.07805720E-06    3        4       -13        2000013   # BR(~c_R -> c  mu+  ~mu_R-)
     1.06118280E-05    3        4       13        -2000013   # BR(~c_R -> c  mu-  ~mu_R+)
     3.99375414E-05    3        4       -15        1000015   # BR(~c_R -> c  tau+  ~tau_1-)
     9.40334769E-06    3        4       15        -1000015   # BR(~c_R -> c  tau-  ~tau_1+)
     4.04949584E-05    3        4       -16        1000016   # BR(~c_R -> c  nu_taub  ~nu_tau1)
     9.58715598E-06    3        4       16        -1000016   # BR(~c_R -> c  nu_tau  ~nu_tau1*)
     3.63310527E-04    3        4       23        1000022   # BR(~c_R -> c  Z  ~chi_10)
     1.34202346E-04    3        4       25        1000022   # BR(~c_R -> c  h  ~chi_10)
     1.73426394E-04    3        4       23        1000023   # BR(~c_R -> c  Z  ~chi_20)
     3.23092884E-04    3        4       25        1000023   # BR(~c_R -> c  h  ~chi_20)
     1.05517663E-04    3        4       -24        1000024   # BR(~c_R -> c  W-  ~chi_1+)
     8.69278025E-04    3        4       24        -1000024   # BR(~c_R -> c  W+  ~chi_1-)
#
#         PDG            Width
DECAY   1000003     2.33522437E-03   # sstrange_L decays
#          BR         NDA      ID1       ID2
     6.18268307E-01    2     1000022         3   # BR(~s_L -> ~chi_10 s)
     2.54813042E-01    2     1000023         3   # BR(~s_L -> ~chi_20 s)
     1.26918651E-01    2    -1000024         4   # BR(~s_L -> ~chi_1- c)
#
#         PDG            Width
DECAY   2000003     4.53603215E-06   # sstrange_R decays
#          BR         NDA      ID1       ID2
     3.79725177E-01    2     1000022         3   # BR(~s_R -> ~chi_10 s)
     6.20274823E-01    2     1000023         3   # BR(~s_R -> ~chi_20 s)
#
#         PDG            Width
DECAY   1000011     6.86024514E-03   # selectron_L decays
#          BR         NDA      ID1       ID2
     5.44512042E-01    2     1000022        11   # BR(~e_L -> ~chi_10 e-)
     4.07558429E-01    2     1000023        11   # BR(~e_L -> ~chi_20 e-)
     4.79295289E-02    2    -1000024        12   # BR(~e_L -> ~chi_1- nu_e)
#
#         PDG            Width
DECAY   2000011     1.54254140E-03   # selectron_R decays
#           BR         NDA      ID1       ID2
     3.42350662E-01    2     1000022        11   # BR(~e_R -> ~chi_10 e-)
     5.68065304E-01    2     1000023        11   # BR(~e_R -> ~chi_20 e-)
#           BR         NDA      ID1       ID2       ID3
     1.63600147E-03    3        11       -1        2000001   # BR(~e_R- -> e-  db  ~d_R)
     1.48404445E-02    3        11       1        -2000001   # BR(~e_R- -> e-  d  ~d_R*)
     1.66854517E-03    3        11       -3        2000003   # BR(~e_R- -> e-  sb  ~s_R)
     1.48560032E-02    3        11       3        -2000003   # BR(~e_R- -> e-  s  ~s_R*)
     1.12223892E-04    3        11       -15        1000015   # BR(~e_R- -> e-  tau+  ~tau_1-)
     1.96182741E-05    3        11       15        -1000015   # BR(~e_R- -> e-  tau-  ~tau_1+)
     1.19419809E-04    3        11       -16        1000016   # BR(~e_R- -> e-  nu_taub  ~nu_tau1)
     2.15877512E-05    3        11       16        -1000016   # BR(~e_R- -> e-  nu_tau  ~nu_tau1*)
     9.01304820E-03    3        11       23        1000022   # BR(~e_R- -> e-  Z  ~chi_10)
     4.02316592E-03    3        11       25        1000022   # BR(~e_R- -> e-  h  ~chi_10)
     3.65980452E-03    3        11       23        1000023   # BR(~e_R- -> e-  Z  ~chi_20)
     9.56408689E-03    3        11       25        1000023   # BR(~e_R- -> e-  h  ~chi_20)
     2.21485141E-03    3        11       -24        1000024   # BR(~e_R- -> e-  W-  ~chi_1+)
     2.78352334E-02    3        11       24        -1000024   # BR(~e_R- -> e-  W+  ~chi_1-)
#
#         PDG            Width
DECAY   1000013     6.86024510E-03   # smuon_L decays
#          BR         NDA      ID1       ID2
     5.44512042E-01    2     1000022        13   # BR(~mu_L -> ~chi_10 mu-)
     4.07558429E-01    2     1000023        13   # BR(~mu_L -> ~chi_20 mu-)
     4.79295292E-02    2    -1000024        14   # BR(~mu_L -> ~chi_1- nu_mu)
#
#         PDG            Width
DECAY   2000013     1.54263992E-03   # smuon_R decays
#           BR         NDA      ID1       ID2
     3.42328793E-01    2     1000022        13   # BR(~mu_R -> ~chi_10 mu-)
     5.68029016E-01    2     1000023        13   # BR(~mu_R -> ~chi_20 mu-)
#           BR         NDA      ID1       ID2       ID3
     1.63589699E-03    3        13       -1        2000001   # BR(~mu_R- -> mu-  db  ~d_R)
     1.48816322E-02    3        13       1        -2000001   # BR(~mu_R- -> mu-  d  ~d_R*)
     1.66843860E-03    3        13       -3        2000003   # BR(~mu_R- -> mu-  sb  ~s_R)
     1.48550544E-02    3        13       3        -2000003   # BR(~mu_R- -> mu-  s  ~s_R*)
     1.11957429E-04    3        13       -15        1000015   # BR(~mu_R- -> mu-  tau+  ~tau_1-)
     1.93609666E-05    3        13       15        -1000015   # BR(~mu_R- -> mu-  tau-  ~tau_1+)
     1.19178816E-04    3        13       -16        1000016   # BR(~mu_R- -> mu-  nu_taub  ~nu_tau1)
     2.10651880E-05    3        13       16        -1000016   # BR(~mu_R- -> mu-  nu_tau  ~nu_tau1*)
     9.01247258E-03    3        13       23        1000022   # BR(~mu_R- -> mu-  Z  ~chi_10)
     4.02323310E-03    3        13       25        1000022   # BR(~mu_R- -> mu-  h  ~chi_10)
     3.65924667E-03    3        13       23        1000023   # BR(~mu_R- -> mu-  Z  ~chi_20)
     9.56347608E-03    3        13       25        1000023   # BR(~mu_R- -> mu-  h  ~chi_20)
     2.23966718E-03    3        13       -24        1000024   # BR(~mu_R- -> mu-  W-  ~chi_1+)
     2.78315110E-02    3        13       24        -1000024   # BR(~mu_R- -> mu-  W+  ~chi_1-)
#
#         PDG            Width
DECAY   1000015     5.52485647E-01   # stau_1 decays
#          BR         NDA      ID1       ID2
     5.00788123E-01    2     1000022        15   # BR(~tau_1 -> ~chi_10  tau-)
     4.98951526E-01    2     1000023        15   # BR(~tau_1 -> ~chi_20  tau-)
     2.60350371E-04    2    -1000024        16   # BR(~tau_1 -> ~chi_1-  nu_tau)
#
#         PDG            Width
DECAY   2000015     8.08636431E+00   # stau_2 decays
#          BR         NDA      ID1       ID2
     1.79062889E-01    2     1000022        15   # BR(~tau_2 -> ~chi_10  tau-)
     1.79036656E-01    2     1000023        15   # BR(~tau_2 -> ~chi_20  tau-)
     2.67744064E-01    2     1000025        15   # BR(~tau_2 -> ~chi_30  tau-)
     3.57485943E-01    2    -1000024        16   # BR(~tau_2 -> ~chi_1-  nu_tau)
     8.10634359E-03    2     1000016       -24   # BR(~tau_2 -> ~nu_tauL W-)
     4.39052837E-03    2     1000015        25   # BR(~tau_2 -> ~tau_1   h)
     4.17357635E-03    2     1000015        23   # BR(~tau_2 -> ~tau_1   Z)
#
#         PDG            Width
DECAY   1000012     1.30989772E-02   # snu_eL decays
#          BR         NDA      ID1       ID2
     6.62359422E-02    2     1000022        12   # BR(~nu_eL -> ~chi_10 nu_e)
     1.11676970E-02    2     1000023        12   # BR(~nu_eL -> ~chi_20 nu_e)
     9.22596361E-01    2     1000024        11   # BR(~nu_eL -> ~chi_1+ e-)
#
#         PDG            Width
DECAY   1000014     1.30989772E-02   # snu_muL decays
#          BR         NDA      ID1       ID2
     6.62359426E-02    2     1000022        14   # BR(~nu_muL -> ~chi_10 nu_mu)
     1.11676971E-02    2     1000023        14   # BR(~nu_muL -> ~chi_20 nu_mu)
     9.22596360E-01    2     1000024        13   # BR(~nu_muL -> ~chi_1+ mu-)
#
#         PDG            Width
DECAY   1000016     5.50306174E-01   # snu_tauL decays
#          BR         NDA      ID1       ID2
     5.32363005E-04    2     1000022        16   # BR(~nu_tauL -> ~chi_10 nu_tau)
     8.96611900E-05    2     1000023        16   # BR(~nu_tauL -> ~chi_20 nu_tau)
     9.99377976E-01    2     1000024        15   # BR(~nu_tauL -> ~chi_1+ tau-)
#
#         PDG            Width
DECAY   1000024     1.78520260E-13   # chargino1+ decays
#           BR         NDA      ID1       ID2       ID3
     7.88439420E-02    3     1000022       -11        12   # BR(~chi_1+ -> ~chi_10 e+   nu_e)
     6.21433200E-02    3     1000022       -13        14   # BR(~chi_1+ -> ~chi_10 mu+  nu_mu)
     8.56446050E-01    2     1000022       211             # BR(~chi_1+ -> ~chi_10 pi+)
     2.56661540E-03    3     1000022       211        111   # BR(~chi_1+ -> ~chi_10 pi+ pi0)
     3.65423600E-08    4     1000022       211        111       111 # BR(~chi_1+ -> ~chi_10 pi+ pi0 pi0)
     3.65423600E-08    4     1000022       211        211      -211 # BR(~chi_1+ -> ~chi_10 pi+ pi+ pi-)
#
#         PDG            Width
DECAY   1000037     2.44735885E+02   # chargino2+ decays
#          BR         NDA      ID1       ID2
     1.10823835E-01    2     1000002        -1   # BR(~chi_2+ -> ~u_L     db)
     1.10805294E-01    2    -1000001         2   # BR(~chi_2+ -> ~d_L*    u )
     1.10823834E-01    2     1000004        -3   # BR(~chi_2+ -> ~c_L     sb)
     1.10805279E-01    2    -1000003         4   # BR(~chi_2+ -> ~s_L*     c )
     9.22765930E-02    2     1000006        -5   # BR(~chi_2+ -> ~t_1     bb)
     3.43820422E-05    2     2000006        -5   # BR(~chi_2+ -> ~t_2     bb)
     9.07845242E-02    2    -1000005         6   # BR(~chi_2+ -> ~b_1*    t )
     2.69978443E-05    2    -2000005         6   # BR(~chi_2+ -> ~b_2*    t )
     3.42212826E-02    2     1000012       -11   # BR(~chi_2+ -> ~nu_eL   e+  )
     3.42212826E-02    2     1000014       -13   # BR(~chi_2+ -> ~nu_muL mu+ )
     5.58008466E-02    2     1000016       -15   # BR(~chi_2+ -> ~nu_tau1 tau+)
     3.42026351E-02    2    -1000011        12   # BR(~chi_2+ -> ~e_L+    nu_e)
     3.42026351E-02    2    -1000013        14   # BR(~chi_2+ -> ~mu_L+   nu_mu)
     5.57922495E-02    2    -1000015        16   # BR(~chi_2+ -> ~tau_1+  nu_tau)
     5.24749047E-08    2    -2000015        16   # BR(~chi_2+ -> ~tau_2+  nu_tau)
     3.14843734E-02    2     1000024        23   # BR(~chi_2+ -> ~chi_1+  Z )
     3.05048181E-02    2     1000022        24   # BR(~chi_2+ -> ~chi_10  W+)
     3.05357943E-02    2     1000023        24   # BR(~chi_2+ -> ~chi_20  W+)
     1.23600373E-06    2     1000025        24   # BR(~chi_2+ -> ~chi_30  W+)
     3.26520549E-02    2     1000024        25   # BR(~chi_2+ -> ~chi_1+  h )
#
#         PDG            Width
DECAY   1000022     0.00000000E+00   # neutralino1 decays
#
#         PDG            Width
DECAY   1000023     2.60800044E-13   # neutralino2 decays
#          BR         NDA      ID1       ID2
     8.40072177E-01    2     1000022        22   # BR(~chi_20 -> ~chi_10 gam)
#           BR         NDA      ID1       ID2       ID3
     2.67131710E-02    3     1000022        -2         2   # BR(~chi_20 -> ~chi_10 ub      u)
     3.46902305E-02    3     1000022        -1         1   # BR(~chi_20 -> ~chi_10 db      d)
     3.46902305E-02    3     1000022        -3         3   # BR(~chi_20 -> ~chi_10 sb      s)
     7.97909284E-03    3     1000022       -11        11   # BR(~chi_20 -> ~chi_10 e+      e-)
     7.97909284E-03    3     1000022       -13        13   # BR(~chi_20 -> ~chi_10 mu+     mu-)
     1.59562720E-02    3     1000022       -12        12   # BR(~chi_20 -> ~chi_10 nu_eb   nu_e)
     1.59562720E-02    3     1000022       -14        14   # BR(~chi_20 -> ~chi_10 nu_mub  nu_mu)
     1.59562821E-02    3     1000022       -16        16   # BR(~chi_20 -> ~chi_10 nu_taub nu_tau)
     3.58939733E-06    3     1000024       -12        11   # BR(~chi_20 -> ~chi_1+ nu_eb   e-)
     3.58939733E-06    3    -1000024        12       -11   # BR(~chi_20 -> ~chi_1- nu_e    e+)
#
#         PDG            Width
DECAY   1000025     5.72901286E+01   # neutralino3 decays
#          BR         NDA      ID1       ID2
     1.75041496E-02    2     1000022        23   # BR(~chi_30 -> ~chi_10   Z )
     1.05881760E-02    2     1000023        23   # BR(~chi_30 -> ~chi_20   Z )
     2.72295010E-02    2     1000024       -24   # BR(~chi_30 -> ~chi_1+   W-)
     2.72295010E-02    2    -1000024        24   # BR(~chi_30 -> ~chi_1-   W+)
     1.13030735E-02    2     1000022        25   # BR(~chi_30 -> ~chi_10   h )
     1.87265615E-02    2     1000023        25   # BR(~chi_30 -> ~chi_20   h )
     2.81786135E-03    2     1000002        -2   # BR(~chi_30 -> ~u_L      ub)
     2.81786135E-03    2    -1000002         2   # BR(~chi_30 -> ~u_L*     u )
     6.67391468E-02    2     2000002        -2   # BR(~chi_30 -> ~u_R      ub)
     6.67391468E-02    2    -2000002         2   # BR(~chi_30 -> ~u_R*     u )
     2.82054129E-03    2     1000001        -1   # BR(~chi_30 -> ~d_L      db)
     2.82054129E-03    2    -1000001         1   # BR(~chi_30 -> ~d_L*     d )
     3.66950397E-02    2     2000001        -1   # BR(~chi_30 -> ~d_R      db)
     3.66950397E-02    2    -2000001         1   # BR(~chi_30 -> ~d_R*     d )
     2.81785791E-03    2     1000004        -4   # BR(~chi_30 -> ~c_L      cb)
     2.81785791E-03    2    -1000004         4   # BR(~chi_30 -> ~c_L*     c )
     6.67391053E-02    2     2000004        -4   # BR(~chi_30 -> ~c_R      cb)
     6.67391053E-02    2    -2000004         4   # BR(~chi_30 -> ~c_R*     c )
     2.82054129E-03    2     1000003        -3   # BR(~chi_30 -> ~s _L      sb)
     2.82054129E-03    2    -1000003         3   # BR(~chi_30 -> ~s _L*     s )
     3.66950397E-02    2     2000003        -3   # BR(~chi_30 -> ~s _R      sb)
     3.66950397E-02    2    -2000003         3   # BR(~chi_30 -> ~s _R*     s )
     1.22601611E-03    2     1000006        -6   # BR(~chi_30 -> ~t_1      tb)
     1.22601611E-03    2    -1000006         6   # BR(~chi_30 -> ~t_1*     t )
     1.35734387E-03    2     1000005        -5   # BR(~chi_30 -> ~b_1      bb)
     1.35734387E-03    2    -1000005         5   # BR(~chi_30 -> ~b_1*     b )
     8.65953393E-04    2     2000005        -5   # BR(~chi_30 -> ~b_2      bb)
     8.65953393E-04    2    -2000005         5   # BR(~chi_30 -> ~b_2*     b )
     6.11472306E-03    2     1000011       -11   # BR(~chi_30 -> ~e_L-     e+)
     6.11472306E-03    2    -1000011        11   # BR(~chi_30 -> ~e_L+     e-)
     7.55634610E-02    2     2000011       -11   # BR(~chi_30 -> ~e_R-     e+)
     7.55634610E-02    2    -2000011        11   # BR(~chi_30 -> ~e_R+     e-)
     6.11472306E-03    2     1000013       -13   # BR(~chi_30 -> ~mu_L-    mu+)
     6.11472306E-03    2    -1000013        13   # BR(~chi_30 -> ~mu_L+    mu-)
     7.55634610E-02    2     2000013       -13   # BR(~chi_30 -> ~mu_R-    mu+)
     7.55634610E-02    2    -2000013        13   # BR(~chi_30 -> ~mu_R+    mu-)
     2.31886129E-02    2     1000015       -15   # BR(~chi_30 -> ~tau_1-   tau+)
     2.31886129E-02    2    -1000015        15   # BR(~chi_30 -> ~tau_1+   tau-)
     6.15102789E-03    2     1000012       -12   # BR(~chi_30 -> ~nu_eL    nu_eb)
     6.15102789E-03    2    -1000012        12   # BR(~chi_30 -> ~nu_eL*   nu_e )
     6.15102789E-03    2     1000014       -14   # BR(~chi_30 -> ~nu_muL   nu_mub)
     6.15102789E-03    2    -1000014        14   # BR(~chi_30 -> ~nu_muL*  nu_mu )
     2.32680350E-02    2     1000016       -16   # BR(~chi_30 -> ~nu_tau1  nu_taub)
     2.32680350E-02    2    -1000016        16   # BR(~chi_30 -> ~nu_tau1* nu_tau )
#
#         PDG            Width
DECAY   1000035     2.44707090E+02   # neutralino4 decays
#          BR         NDA      ID1       ID2
     1.06870913E-02    2     1000022        23   # BR(~chi_40 -> ~chi_10   Z )
     2.08021143E-02    2     1000023        23   # BR(~chi_40 -> ~chi_20   Z )
     1.25544676E-06    2     1000025        23   # BR(~chi_40 -> ~chi_30   Z )
     3.05193634E-02    2     1000024       -24   # BR(~chi_40 -> ~chi_1+   W-)
     3.05193634E-02    2    -1000024        24   # BR(~chi_40 -> ~chi_1-   W+)
     2.16617554E-02    2     1000022        25   # BR(~chi_40 -> ~chi_10   h )
     1.09674047E-02    2     1000023        25   # BR(~chi_40 -> ~chi_20   h )
     3.30165128E-08    2     1000025        25   # BR(~chi_40 -> ~chi_30   h )
     5.54326286E-02    2     1000002        -2   # BR(~chi_40 -> ~u_L      ub)
     5.54326286E-02    2    -1000002         2   # BR(~chi_40 -> ~u_L*     u )
     7.85108247E-10    2     2000002        -2   # BR(~chi_40 -> ~u_R      ub)
     7.85108247E-10    2    -2000002         2   # BR(~chi_40 -> ~u_R*     u )
     5.53846650E-02    2     1000001        -1   # BR(~chi_40 -> ~d_L      db)
     5.53846650E-02    2    -1000001         1   # BR(~chi_40 -> ~d_L*     d )
     2.74425128E-10    2     2000001        -1   # BR(~chi_40 -> ~d_R      db)
     2.74425128E-10    2    -2000001         1   # BR(~chi_40 -> ~d_R*     d )
     5.54326212E-02    2     1000004        -4   # BR(~chi_40 -> ~c_L      cb)
     5.54326212E-02    2    -1000004         4   # BR(~chi_40 -> ~c_L*     c )
     7.85108178E-10    2     2000004        -4   # BR(~chi_40 -> ~c_R      cb)
     7.85108178E-10    2    -2000004         4   # BR(~chi_40 -> ~c_R*     c )
     5.53846650E-02    2     1000003        -3   # BR(~chi_40 -> ~s _L      sb)
     5.53846650E-02    2    -1000003         3   # BR(~chi_40 -> ~s _L*     s )
     2.74425128E-10    2     2000003        -3   # BR(~chi_40 -> ~s _R      sb)
     2.74425128E-10    2    -2000003         3   # BR(~chi_40 -> ~s _R*     s )
     4.56639589E-02    2     1000006        -6   # BR(~chi_40 -> ~t_1      tb)
     4.56639589E-02    2    -1000006         6   # BR(~chi_40 -> ~t_1*     t )
     1.56019477E-05    2     2000006        -6   # BR(~chi_40 -> ~t_2      tb)
     1.56019477E-05    2    -2000006         6   # BR(~chi_40 -> ~t_2*     t )
     4.58681117E-02    2     1000005        -5   # BR(~chi_40 -> ~b_1      bb)
     4.58681117E-02    2    -1000005         5   # BR(~chi_40 -> ~b_1*     b )
     1.36817749E-05    2     2000005        -5   # BR(~chi_40 -> ~b_2      bb)
     1.36817749E-05    2    -2000005         5   # BR(~chi_40 -> ~b_2*     b )
     1.70917601E-02    2     1000011       -11   # BR(~chi_40 -> ~e_L-     e+)
     1.70917601E-02    2    -1000011        11   # BR(~chi_40 -> ~e_L+     e-)
     7.07604024E-10    2     2000011       -11   # BR(~chi_40 -> ~e_R-     e+)
     7.07604024E-10    2    -2000011        11   # BR(~chi_40 -> ~e_R+     e-)
     1.70917601E-02    2     1000013       -13   # BR(~chi_40 -> ~mu_L-    mu+)
     1.70917601E-02    2    -1000013        13   # BR(~chi_40 -> ~mu_L+    mu-)
     7.07604024E-10    2     2000013       -13   # BR(~chi_40 -> ~mu_R-    mu+)
     7.07604024E-10    2    -2000013        13   # BR(~chi_40 -> ~mu_R+    mu-)
     2.78819308E-02    2     1000015       -15   # BR(~chi_40 -> ~tau_1-   tau+)
     2.78819308E-02    2    -1000015        15   # BR(~chi_40 -> ~tau_1+   tau-)
     2.62695913E-08    2     2000015       -15   # BR(~chi_40 -> ~tau_2-   tau+)
     2.62695913E-08    2    -2000015        15   # BR(~chi_40 -> ~tau_2+   tau-)
     1.71206280E-02    2     1000012       -12   # BR(~chi_40 -> ~nu_eL    nu_eb)
     1.71206280E-02    2    -1000012        12   # BR(~chi_40 -> ~nu_eL*   nu_e )
     1.71206280E-02    2     1000014       -14   # BR(~chi_40 -> ~nu_muL   nu_mub)
     1.71206280E-02    2    -1000014        14   # BR(~chi_40 -> ~nu_muL*  nu_mu )
     2.79181387E-02    2     1000016       -16   # BR(~chi_40 -> ~nu_tau1  nu_taub)
     2.79181387E-02    2    -1000016        16   # BR(~chi_40 -> ~nu_tau1* nu_tau )
#
#         PDG            Width
DECAY        25     4.25174642E-03   # h decays
#          BR         NDA      ID1       ID2
     5.47703069E-01    2           5        -5   # BR(h -> b       bb     )
     6.21958223E-02    2         -15        15   # BR(h -> tau+    tau-   )
     2.20144559E-04    2         -13        13   # BR(h -> mu+     mu-    )
     2.39535135E-04    2           3        -3   # BR(h -> s       sb     )
     2.06982806E-02    2           4        -4   # BR(h -> c       cb     )
     7.92162336E-02    2          21        21   # BR(h -> g       g      )
     2.39329201E-03    2          22        22   # BR(h -> gam     gam    )
     1.79356438E-03    2          22        23   # BR(h -> Z       gam    )
     2.52884386E-01    2          24       -24   # BR(h -> W+      W-     )
     3.26556722E-02    2          23        23   # BR(h -> Z       Z      )
#
#         PDG            Width
DECAY        35     2.09076223E+01   # H decays
#          BR         NDA      ID1       ID2
     7.91177115E-01    2           5        -5   # BR(H -> b       bb     )
     1.47783492E-01    2         -15        15   # BR(H -> tau+    tau-   )
     5.27489837E-04    2         -13        13   # BR(H -> mu+     mu-    )
     3.87528076E-04    2           3        -3   # BR(H -> s       sb     )
     1.73588122E-07    2           4        -4   # BR(H -> c       cb     )
     1.71254623E-02    2           6        -6   # BR(H -> t       tb     )
     3.00218185E-06    2          21        21   # BR(H -> g       g      )
     4.36388432E-08    2          22        22   # BR(H -> gam     gam    )
     4.89710924E-09    2          23        22   # BR(H -> Z       gam    )
     6.43511678E-06    2          24       -24   # BR(H -> W+      W-     )
     3.21192306E-06    2          23        23   # BR(H -> Z       Z      )
     2.14497579E-05    2          25        25   # BR(H -> h       h      )
     1.12508569E-03    2     1000024  -1000024   # BR(H -> ~chi_1+ ~chi_1-)
     7.95762604E-05    2     1000022   1000022   # BR(H -> ~chi_10 ~chi_10)
     1.87922138E-05    2     1000023   1000023   # BR(H -> ~chi_20 ~chi_20)
     1.86267549E-05    2     1000022   1000023   # BR(H -> ~chi_10 ~chi_20)
     2.71391175E-02    2     1000022   1000025   # BR(H -> ~chi_10 ~chi_30)
     1.45750988E-02    2     1000023   1000025   # BR(H -> ~chi_20 ~chi_30)
     5.99727390E-07    2     1000002  -1000002   # BR(H -> ~u_L    ~u_L*  )
     3.79321895E-07    2     2000002  -2000002   # BR(H -> ~u_R    ~u_R*  )
     5.99727390E-07    2     1000004  -1000004   # BR(H -> ~c_L    ~c_L*  )
     3.79321895E-07    2     2000004  -2000004   # BR(H -> ~c_R    ~c_R*  )
     8.44766193E-07    2     1000001  -1000001   # BR(H -> ~d_L    ~d_L*  )
     1.77820280E-07    2     2000001  -2000001   # BR(H -> ~d_R    ~d_R*  )
     8.44766193E-07    2     1000003  -1000003   # BR(H -> ~s_L    ~s_L*  )
     1.77820280E-07    2     2000003  -2000003   # BR(H -> ~s_R    ~s_R*  )
     4.08409392E-07    2     2000011  -2000011   # BR(H -> ~e_R-   ~e_R+  )
     4.08409392E-07    2     2000013  -2000013   # BR(H -> ~mu_R-  ~mu_R+ )
     1.10393213E-06    2     1000015  -1000015   # BR(H -> ~tau_1- ~tau_1+)
     2.37050361E-06    2     1000016  -1000016   # BR(H -> ~nu_tauL ~nu_tauL*)
#
#         PDG            Width
DECAY        36     2.09124737E+01   # A decays
#          BR         NDA      ID1       ID2
     7.91053685E-01    2           5        -5   # BR(A -> b       bb     )
     1.47750004E-01    2         -15        15   # BR(A -> tau+    tau-   )
     5.27369811E-04    2         -13        13   # BR(A -> mu+     mu-    )
     3.87505639E-04    2           3        -3   # BR(A -> s       sb     )
     1.74526280E-07    2           4        -4   # BR(A -> c       cb     )
     1.71522606E-02    2           6        -6   # BR(A -> t       tb     )
     4.35235003E-05    2          21        21   # BR(A -> g       g      )
     1.00024710E-07    2          22        22   # BR(A -> gam     gam    )
     4.21781241E-08    2          23        22   # BR(A -> Z       gam    )
     6.52558521E-06    2          23        25   # BR(A -> Z       h      )
     1.23936834E-03    2     1000024  -1000024   # BR(A -> ~chi_1+ ~chi_1-)
     1.03330228E-04    2     1000022   1000022   # BR(A -> ~chi_10 ~chi_10)
     1.64519389E-05    2     1000023   1000023   # BR(A -> ~chi_20 ~chi_20)
     1.04800307E-05    2     1000022   1000023   # BR(A -> ~chi_10 ~chi_20)
     1.45980609E-02    2     1000022   1000025   # BR(A -> ~chi_10 ~chi_30)
     2.71111176E-02    2     1000023   1000025   # BR(A -> ~chi_20 ~chi_30)
#
#         PDG            Width
DECAY        37     2.15715179E+01   # H+ decays
#          BR         NDA      ID1       ID2
     1.34090840E-03    2           4        -5   # BR(H+ -> c       bb     )
     1.43283540E-01    2         -15        16   # BR(H+ -> tau+    nu_tau )
     5.11427488E-04    2         -13        14   # BR(H+ -> mu+     nu_mu  )
     1.34090710E-05    2           2        -5   # BR(H+ -> u       bb     )
     1.88021341E-05    2           2        -3   # BR(H+ -> u       sb     )
     3.70245427E-04    2           4        -3   # BR(H+ -> c       sb     )
     8.13388209E-01    2           6        -5   # BR(H+ -> t       bb     )
     6.33506143E-06    2          24        25   # BR(H+ -> W+      h      )
     1.80422747E-13    2          24        36   # BR(H+ -> W+      A      )
     2.11233033E-04    2     1000024   1000022   # BR(H+ -> ~chi_1+ ~chi_10)
     3.92900601E-04    2     1000024   1000023   # BR(H+ -> ~chi_1+ ~chi_20)
     4.04569208E-02    2     1000024   1000025   # BR(H+ -> ~chi_1+ ~chi_30)
     3.24519118E-06    2    -1000015   1000016   # BR(H+ -> ~tau_1+ ~nu_tauL)
     1.41215162E-06    2     1000002  -1000001   # BR(H+ -> ~u_L    ~d_L*  )
     1.41215162E-06    2     1000004  -1000003   # BR(H+ -> ~c_L    ~s_L*  )
