#
#                              ======================
#                              | THE SUSYHIT OUTPUT |
#                              ======================
#
#
#              ------------------------------------------------------
#              |     This is the output of the SUSY-HIT package     |
#              |  created by A.Djouadi, M.Muehlleitner and M.Spira. |
#              |  In case of problems with SUSY-HIT email to        |
#              |           margarete.muehlleitner@cern.ch           |
#              |           michael.spira@psi.ch                     |
#              |           abdelhak.djouadi@cern.ch                 |
#              ------------------------------------------------------
#
#              ------------------------------------------------------
#              |  SUSY Les Houches Accord - MSSM Spectrum + Decays  |
#              |              based on the decay programs           |
#              |                                                    |
#              |                     SDECAY 1.3b                    |
#              |                                                    |
#              |  Authors: M.Muhlleitner, A.Djouadi and Y.Mambrini  |
#              |  Ref.:    Comput.Phys.Commun.168(2005)46           |
#              |           [hep-ph/0311167]                         |
#              |                                                    |
#              |                     HDECAY 3.4                     |
#              |                                                    |
#              |  By: A.Djouadi,J.Kalinowski,M.Muhlleitner,M.Spira  |
#              |  Ref.:    Comput.Phys.Commun.108(1998)56           |
#              |           [hep-ph/9704448]                         |
#              |                                                    |
#              |                                                    |
#              |  If not stated otherwise all DRbar couplings and   |
#              |  soft SUSY breaking masses are given at the scale  |
#              |  Q=  0.21535440E+04
#              |                                                    |
#              ------------------------------------------------------
#
#
BLOCK DCINFO  # Decay Program information
     1   SDECAY/HDECAY # decay calculator
     2   1.3b  /3.4    # version number
#
BLOCK SPINFO  # Spectrum calculator information
     1     SOFTSUSY    # spectrum calculator               
     2     3.4.0       # version number                    
#
BLOCK MODSEL  # Model selection
     1     0   #  nonUniversal                                     
#
BLOCK SMINPUTS  # Standard Model inputs
         1     1.27908970E+02   # alpha_em^-1(M_Z)^MSbar
         2     1.16637870E-05   # G_F [GeV^-2]
         3     1.18400000E-01   # alpha_S(M_Z)^MSbar
         4     9.11876000E+01   # M_Z pole mass
         5     4.18000000E+00   # mb(mb)^MSbar
         6     1.73200000E+02   # mt pole mass
         7     1.77700000E+00   # mtau pole mass
#
BLOCK MINPAR  # Input parameters - minimal models
         3     1.74100000E+01   # tanb                
#
BLOCK EXTPAR  # Input parameters - non-minimal models
         0    -1.00000000E+00   # Set                 
         1    -4.43400000E+01   # M_1(MX)             
         2    -2.86930000E+02   # M_2(MX)             
         3     2.97746000E+03   # M_3(MX)             
        11    -2.73869000E+03   # At(MX)              
        12     2.35940000E+03   # Ab(MX)              
        13     2.71300000E+03   # Atau(MX)            
        23     2.72860000E+02   # mu(MX)              
        26     2.73723000E+03   # mA(pole)            
        31     2.39878000E+03   # meL(MX)             
        32     2.39878000E+03   # mmuL(MX)            
        33     2.11049000E+03   # mtauL(MX)           
        34     2.72702000E+03   # meR(MX)             
        35     2.72702000E+03   # mmuR(MX)            
        36     3.10187000E+03   # mtauR(MX)           
        41     8.99470000E+02   # mqL1(MX)            
        42     8.99470000E+02   # mqL2(MX)            
        43     1.33188000E+03   # mqL3(MX)            
        44     3.34302000E+03   # muR(MX)             
        45     3.34302000E+03   # mcR(MX)             
        46     3.47478000E+03   # mtR(MX)             
        47     3.28308000E+03   # mdR(MX)             
        48     3.28308000E+03   # msR(MX)             
        49     3.18409000E+03   # mbR(MX)             
#
BLOCK MASS  # Mass Spectrum
# PDG code           mass       particle
        24     8.03728783E+01   # W+
        25     1.25312783E+02   # h
        35     2.73725340E+03   # H
        36     2.73722992E+03   # A
        37     2.73874994E+03   # H+
         5     4.81876030E+00   # b-quark pole mass calculated from mb(mb)_Msbar
   1000001     9.97347801E+02   # ~d_L
   2000001     3.34505230E+03   # ~d_R
   1000002     9.94142834E+02   # ~u_L
   2000002     3.40399265E+03   # ~u_R
   1000003     9.97347801E+02   # ~s_L
   2000003     3.34505230E+03   # ~s_R
   1000004     9.94142834E+02   # ~c_L
   2000004     3.40399265E+03   # ~c_R
   1000005     1.41018176E+03   # ~b_1
   2000005     3.24648483E+03   # ~b_2
   1000006     1.41005412E+03   # ~t_1
   2000006     3.50406338E+03   # ~t_2
   1000011     2.40378387E+03   # ~e_L
   2000011     2.72953156E+03   # ~e_R
   1000012     2.40215904E+03   # ~nu_eL
   1000013     2.40378387E+03   # ~mu_L
   2000013     2.72953156E+03   # ~mu_R
   1000014     2.40215904E+03   # ~nu_muL
   1000015     2.11448095E+03   # ~tau_1
   2000015     3.10338197E+03   # ~tau_2
   1000016     2.11268059E+03   # ~nu_tauL
   1000021     3.05215869E+03   # ~g
   1000022    -4.41272484E+01   # ~chi_10
   1000023    -2.43494962E+02   # ~chi_20
   1000025     2.92436773E+02   # ~chi_30
   1000035    -3.50315277E+02   # ~chi_40
   1000024     2.45052757E+02   # ~chi_1+
   1000037     3.51912165E+02   # ~chi_2+
#
BLOCK NMIX  # Neutralino Mixing Matrix
  1  1     9.88186472E-01   # N_11
  1  2    -1.32674424E-03   # N_12
  1  3     1.52527412E-01   # N_13
  1  4     1.48702498E-02   # N_14
  2  1    -9.86521683E-02   # N_21
  2  2    -6.36670548E-01   # N_22
  2  3     5.85651380E-01   # N_23
  2  4     4.91864641E-01   # N_24
  3  1     9.57489063E-02   # N_31
  3  2    -1.01552691E-01   # N_32
  3  3    -6.90418090E-01   # N_33
  3  4     7.09818328E-01   # N_34
  4  1    -6.77302925E-02   # N_41
  4  2     7.64418671E-01   # N_42
  4  3     3.96321474E-01   # N_43
  4  4     5.03990071E-01   # N_44
#
BLOCK UMIX  # Chargino Mixing Matrix U
  1  1    -5.67457498E-01   # U_11
  1  2     8.23402689E-01   # U_12
  2  1    -8.23402689E-01   # U_21
  2  2    -5.67457498E-01   # U_22
#
BLOCK VMIX  # Chargino Mixing Matrix V
  1  1     7.21664092E-01   # V_11
  1  2     6.92243410E-01   # V_12
  2  1     6.92243410E-01   # V_21
  2  2    -7.21664092E-01   # V_22
#
BLOCK STOPMIX  # Stop Mixing Matrix
  1  1     9.99264818E-01   # cos(theta_t)
  1  2     3.83382773E-02   # sin(theta_t)
  2  1    -3.83382773E-02   # -sin(theta_t)
  2  2     9.99264818E-01   # cos(theta_t)
#
BLOCK SBOTMIX  # Sbottom Mixing Matrix
  1  1     9.99999809E-01   # cos(theta_b)
  1  2     6.18061456E-04   # sin(theta_b)
  2  1    -6.18061456E-04   # -sin(theta_b)
  2  2     9.99999809E-01   # cos(theta_b)
#
BLOCK STAUMIX  # Stau Mixing Matrix
  1  1     9.99999783E-01   # cos(theta_tau)
  1  2     6.58786728E-04   # sin(theta_tau)
  2  1    -6.58786728E-04   # -sin(theta_tau)
  2  2     9.99999783E-01   # cos(theta_tau)
#
BLOCK ALPHA  # Higgs mixing
          -5.99212000E-02   # Mixing angle in the neutral Higgs boson sector
#
BLOCK HMIX Q=  2.15354400E+03  # DRbar Higgs Parameters
         1     2.76429824E+02   # mu(Q)MSSM           
         2     1.67164868E+01   # tan                 
         3     2.41557660E+02   # higgs               
         4     7.47688041E+06   # mA^2(Q)MSSM         
#
BLOCK GAUGE Q=  2.15354400E+03  # The gauge couplings
     1     3.63951533E-01   # gprime(Q) DRbar
     2     6.43088862E-01   # g(Q) DRbar
     3     1.01947766E+00   # g3(Q) DRbar
#
BLOCK AU Q=  2.15354400E+03  # The trilinear couplings
  1  1     0.00000000E+00   # A_u(Q) DRbar
  2  2     0.00000000E+00   # A_c(Q) DRbar
  3  3    -2.73868999E+03   # A_t(Q) DRbar
#
BLOCK AD Q=  2.15354400E+03  # The trilinear couplings
  1  1     0.00000000E+00   # A_d(Q) DRbar
  2  2     0.00000000E+00   # A_s(Q) DRbar
  3  3     2.35940000E+03   # A_b(Q) DRbar
#
BLOCK AE Q=  2.15354400E+03  # The trilinear couplings
  1  1     0.00000000E+00   # A_e(Q) DRbar
  2  2     0.00000000E+00   # A_mu(Q) DRbar
  3  3     2.71300000E+03   # A_tau(Q) DRbar
#
BLOCK Yu Q=  2.15354400E+03  # The Yukawa couplings
  1  1     0.00000000E+00   # y_u(Q) DRbar
  2  2     0.00000000E+00   # y_c(Q) DRbar
  3  3     8.28046508E-01   # y_t(Q) DRbar
#
BLOCK Yd Q=  2.15354400E+03  # The Yukawa couplings
  1  1     0.00000000E+00   # y_d(Q) DRbar
  2  2     0.00000000E+00   # y_s(Q) DRbar
  3  3     2.25479396E-01   # y_b(Q) DRbar
#
BLOCK Ye Q=  2.15354400E+03  # The Yukawa couplings
  1  1     0.00000000E+00   # y_e(Q) DRbar
  2  2     0.00000000E+00   # y_mu(Q) DRbar
  3  3     1.70792505E-01   # y_tau(Q) DRbar
#
BLOCK MSOFT Q=  2.15354400E+03  # The soft SUSY breaking masses at the scale Q
         1    -4.43400000E+01   # M_1(Q)              
         2    -2.86930000E+02   # M_2(Q)              
         3     2.97746000E+03   # M_3(Q)              
        21     7.38730849E+06   # mH1^2(Q)            
        22    -4.12110712E+04   # mH2^2(Q)            
        31     2.39878000E+03   # meL(Q)              
        32     2.39878000E+03   # mmuL(Q)             
        33     2.11049000E+03   # mtauL(Q)            
        34     2.72702000E+03   # meR(Q)              
        35     2.72702000E+03   # mmuR(Q)             
        36     3.10187000E+03   # mtauR(Q)            
        41     8.99469983E+02   # mqL1(Q)             
        42     8.99469983E+02   # mqL2(Q)             
        43     1.33187998E+03   # mqL3(Q)             
        44     3.34302000E+03   # muR(Q)              
        45     3.34302000E+03   # mcR(Q)              
        46     3.47477999E+03   # mtR(Q)              
        47     3.28308000E+03   # mdR(Q)              
        48     3.28308000E+03   # msR(Q)              
        49     3.18409000E+03   # mbR(Q)              
#
Block HiggsBoundsInputHiggsCouplingsFermions
# ScalarNormEffCoupSq PseudoSNormEffCoupSq NP   IP1 IP2 IP2
    1.00573267E+00    0.00000000E+00        3  25   5   5  # h0-b-b eff. coupling^2, normalised to SM
    2.79435198E+02    0.00000000E+00        3  35   5   5  # H0-b-b eff. coupling^2, normalised to SM
    0.00000000E+00    2.79440931E+02        3  36   5   5  # A0-b-b eff. coupling^2, normalised to SM
#
    9.99979485E-01    0.00000000E+00        3  25   6   6  # h0-t-t eff. coupling^2, normalised to SM
    3.59908859E-03    0.00000000E+00        3  35   6   6  # H0-t-t eff. coupling^2, normalised to SM
    0.00000000E+00    3.57857382E-03        3  36   6   6  # A0-t-t eff. coupling^2, normalised to SM
#
    1.00573267E+00    0.00000000E+00        3  25  15  15  # h0-tau-tau eff. coupling^2, normalised to SM
    2.79435198E+02    0.00000000E+00        3  35  15  15  # H0-tau-tau eff. coupling^2, normalised to SM
    0.00000000E+00    2.79440931E+02        3  36  15  15  # A0-tau-tau eff. coupling^2, normalised to SM
#
Block HiggsBoundsInputHiggsCouplingsBosons
    9.99999971E-01        3  25  24  24  # h0-W-W eff. coupling^2, normalised to SM
    2.93174189E-08        3  35  24  24  # H0-W-W eff. coupling^2, normalised to SM
    0.00000000E+00        3  36  24  24  # A0-W-W eff. coupling^2, normalised to SM
#
    9.99999971E-01        3  25  23  23  # h0-Z-Z eff. coupling^2, normalised to SM
    2.93174189E-08        3  35  23  23  # H0-Z-Z eff. coupling^2, normalised to SM
    0.00000000E+00        3  36  23  23  # A0-Z-Z eff. coupling^2, normalised to SM
#
    8.96390084E-01        3  25  21  21  # h0-g-g eff. coupling^2, normalised to SM
    3.83658534E-14        3  35  21  21  # H0-g-g eff. coupling^2, normalised to SM
    3.13771676E-12        3  36  21  21  # A0-g-g eff. coupling^2, normalised to SM
#
    0.00000000E+00        3  25  25  23  # h0-h0-Z eff. coupling^2, normalised to SM
    0.00000000E+00        3  35  25  23  # H0-h0-Z eff. coupling^2, normalised to SM
    2.93174189E-08        3  36  25  23  # A0-h0-Z eff. coupling^2, normalised to SM
    0.00000000E+00        3  35  35  23  # H0-H0-Z eff. coupling^2, normalised to SM
    9.99999971E-01        3  36  35  23  # A0-H0-Z eff. coupling^2, normalised to SM
    0.00000000E+00        3  36  36  23  # A0-A0-Z eff. coupling^2, normalised to SM
#
    0.00000000E+00        4  25  21  21  23  # h0-g-g-Z eff. coupling^2, normalised to SM
    0.00000000E+00        4  35  21  21  23  # H0-g-g-Z eff. coupling^2, normalised to SM
    0.00000000E+00        4  36  21  21  23  # A0-g-g-Z eff. coupling^2, normalised to SM
#
#
#
#                             =================
#                             |The decay table|
#                             =================
#
# - The QCD corrections to the decays gluino -> squark  + quark
#                                     squark -> gaugino + quark_prime
#                                     squark -> squark_prime + Higgs
#                                     squark -> gluino  + quark
#   are included.
#
# - The multi-body decays for the inos, stops and sbottoms are included.
#
# - The loop induced decays for the gluino, neutralinos and stops
#   are included.
#
# - The SUSY decays of the top quark are included.
#
#
#         PDG            Width
DECAY         6     1.45727878E+00   # top decays
#          BR         NDA      ID1       ID2
     1.00000000E+00    2           5        24   # BR(t ->  b    W+)
#
#         PDG            Width
DECAY   1000021     2.62299324E+02   # gluino decays
#          BR         NDA      ID1       ID2
     9.03181747E-02    2     1000001        -1   # BR(~g -> ~d_L  db)
     9.03181747E-02    2    -1000001         1   # BR(~g -> ~d_L* d )
     9.04567863E-02    2     1000002        -2   # BR(~g -> ~u_L  ub)
     9.04567863E-02    2    -1000002         2   # BR(~g -> ~u_L* u )
     9.03181747E-02    2     1000003        -3   # BR(~g -> ~s_L  sb)
     9.03181747E-02    2    -1000003         3   # BR(~g -> ~s_L* s )
     9.04567793E-02    2     1000004        -4   # BR(~g -> ~c_L  cb)
     9.04567793E-02    2    -1000004         4   # BR(~g -> ~c_L* c )
     6.96416903E-02    2     1000005        -5   # BR(~g -> ~b_1  bb)
     6.96416903E-02    2    -1000005         5   # BR(~g -> ~b_1* b )
     6.88083946E-02    2     1000006        -6   # BR(~g -> ~t_1  tb)
     6.88083946E-02    2    -1000006         6   # BR(~g -> ~t_1* t )
#
#         PDG            Width
DECAY   1000006     3.43394023E+01   # stop1 decays
#          BR         NDA      ID1       ID2
     5.65686496E-03    2     1000022         6   # BR(~t_1 -> ~chi_10 t )
     1.75741067E-01    2     1000023         6   # BR(~t_1 -> ~chi_20 t )
     2.49447383E-01    2     1000025         6   # BR(~t_1 -> ~chi_30 t )
     2.23866599E-01    2     1000035         6   # BR(~t_1 -> ~chi_40 t )
     1.76542558E-01    2     1000024         5   # BR(~t_1 -> ~chi_1+ b )
     1.68745528E-01    2     1000037         5   # BR(~t_1 -> ~chi_2+ b )
#
#         PDG            Width
DECAY   2000006     1.60144227E+02   # stop2 decays
#          BR         NDA      ID1       ID2
     4.98875628E-02    2     1000022         6   # BR(~t_2 -> ~chi_10 t )
     7.52888882E-02    2     1000023         6   # BR(~t_2 -> ~chi_20 t )
     1.49615682E-01    2     1000025         6   # BR(~t_2 -> ~chi_30 t )
     6.93067290E-02    2     1000035         6   # BR(~t_2 -> ~chi_40 t )
     1.50367704E-01    2     1000024         5   # BR(~t_2 -> ~chi_1+ b )
     1.43539105E-01    2     1000037         5   # BR(~t_2 -> ~chi_2+ b )
     6.24300862E-02    2     1000021         6   # BR(~t_2 -> ~g      t )
     7.63939278E-02    2     1000006        25   # BR(~t_2 -> ~t_1    h )
     7.55476711E-02    2     1000006        23   # BR(~t_2 -> ~t_1    Z )
     1.47622643E-01    2     1000005        24   # BR(~t_2 -> ~b_1    W+)
     2.33909079E-10    2     2000005        24   # BR(~t_2 -> ~b_2    W+)
#
#         PDG            Width
DECAY   1000005     3.42748004E+01   # sbottom1 decays
#          BR         NDA      ID1       ID2
     6.93028931E-03    2     1000022         5   # BR(~b_1 -> ~chi_10 b )
     7.43930926E-02    2     1000023         5   # BR(~b_1 -> ~chi_20 b )
     2.03931107E-02    2     1000025         5   # BR(~b_1 -> ~chi_30 b )
     9.56474741E-02    2     1000035         5   # BR(~b_1 -> ~chi_40 b )
     3.30262953E-01    2    -1000024         6   # BR(~b_1 -> ~chi_1- t )
     4.72373080E-01    2    -1000037         6   # BR(~b_1 -> ~chi_2- t )
#
#         PDG            Width
DECAY   2000005     1.07708750E+01   # sbottom2 decays
#          BR         NDA      ID1       ID2
     1.79326613E-01    2     1000022         5   # BR(~b_2 -> ~chi_10 b )
     1.04828140E-01    2     1000023         5   # BR(~b_2 -> ~chi_20 b )
     1.44653012E-01    2     1000025         5   # BR(~b_2 -> ~chi_30 b )
     4.77998453E-02    2     1000035         5   # BR(~b_2 -> ~chi_40 b )
     2.02685463E-01    2    -1000024         6   # BR(~b_2 -> ~chi_1- t )
     9.58126920E-02    2    -1000037         6   # BR(~b_2 -> ~chi_2- t )
     2.24060272E-01    2     1000021         5   # BR(~b_2 -> ~g      b )
     2.12409529E-04    2     1000005        25   # BR(~b_2 -> ~b_1    h )
     2.10757295E-04    2     1000005        23   # BR(~b_2 -> ~b_1    Z )
     4.10796503E-04    2     1000006       -24   # BR(~b_2 -> ~t_1    W-)
#
#         PDG            Width
DECAY   1000002     1.06190271E+01   # sup_L decays
#          BR         NDA      ID1       ID2
     1.35963569E-02    2     1000022         2   # BR(~u_L -> ~chi_10 u)
     1.51428625E-01    2     1000023         2   # BR(~u_L -> ~chi_20 u)
     2.32205657E-03    2     1000025         2   # BR(~u_L -> ~chi_30 u)
     1.73076099E-01    2     1000035         2   # BR(~u_L -> ~chi_40 u)
     3.66728999E-01    2     1000024         1   # BR(~u_L -> ~chi_1+ d)
     2.92847863E-01    2     1000037         1   # BR(~u_L -> ~chi_2+ d)
#
#         PDG            Width
DECAY   2000002     1.74786203E+01   # sup_R decays
#          BR         NDA      ID1       ID2
     4.22916918E-01    2     1000022         2   # BR(~u_R -> ~chi_10 u)
     4.17923002E-03    2     1000023         2   # BR(~u_R -> ~chi_20 u)
     3.92023568E-03    2     1000025         2   # BR(~u_R -> ~chi_30 u)
     1.94965246E-03    2     1000035         2   # BR(~u_R -> ~chi_40 u)
     5.67033964E-01    2     1000021         2   # BR(~u_R -> ~g      u)
#
#         PDG            Width
DECAY   1000001     1.04491785E+01   # sdown_L decays
#          BR         NDA      ID1       ID2
     1.42603174E-02    2     1000022         1   # BR(~d_L -> ~chi_10 d)
     1.37436480E-01    2     1000023         1   # BR(~d_L -> ~chi_20 d)
     4.86452024E-03    2     1000025         1   # BR(~d_L -> ~chi_30 d)
     1.88972343E-01    2     1000035         1   # BR(~d_L -> ~chi_40 d)
     2.31331357E-01    2    -1000024         2   # BR(~d_L -> ~chi_1- u)
     4.23134983E-01    2    -1000037         2   # BR(~d_L -> ~chi_2- u)
#
#         PDG            Width
DECAY   2000001     8.96618143E+00   # sdown_R decays
#          BR         NDA      ID1       ID2
     2.02606461E-01    2     1000022         1   # BR(~d_R -> ~chi_10 d)
     2.00143927E-03    2     1000023         1   # BR(~d_R -> ~chi_20 d)
     1.87710062E-03    2     1000025         1   # BR(~d_R -> ~chi_30 d)
     9.33321987E-04    2     1000035         1   # BR(~d_R -> ~chi_40 d)
     7.92581677E-01    2     1000021         1   # BR(~d_R -> ~g      d)
#
#         PDG            Width
DECAY   1000004     1.02440993E+01   # scharm_L decays
#          BR         NDA      ID1       ID2
     1.36231785E-02    2     1000022         4   # BR(~c_L -> ~chi_10 c)
     1.51472674E-01    2     1000023         4   # BR(~c_L -> ~chi_20 c)
     2.32204609E-03    2     1000025         4   # BR(~c_L -> ~chi_30 c)
     1.73011210E-01    2     1000035         4   # BR(~c_L -> ~chi_40 c)
     3.66834205E-01    2     1000024         3   # BR(~c_L -> ~chi_1+ s)
     2.92736686E-01    2     1000037         3   # BR(~c_L -> ~chi_2+ s)
#
#         PDG            Width
DECAY   2000004     1.51811730E+01   # scharm_R decays
#          BR         NDA      ID1       ID2
     5.12719398E-01    2     1000022         4   # BR(~c_R -> ~chi_10 c)
     5.05947363E-03    2     1000023         4   # BR(~c_R -> ~chi_20 c)
     4.74439840E-03    2     1000025         4   # BR(~c_R -> ~chi_30 c)
     2.35866056E-03    2     1000035         4   # BR(~c_R -> ~chi_40 c)
     4.75118070E-01    2     1000021         4   # BR(~c_R -> ~g      c)
#
#         PDG            Width
DECAY   1000003     1.00808578E+01   # sstrange_L decays
#          BR         NDA      ID1       ID2
     1.42899119E-02    2     1000022         3   # BR(~s_L -> ~chi_10 s)
     1.37490514E-01    2     1000023         3   # BR(~s_L -> ~chi_20 s)
     4.86499695E-03    2     1000025         3   # BR(~s_L -> ~chi_30 s)
     1.88921132E-01    2     1000035         3   # BR(~s_L -> ~chi_40 s)
     2.31419388E-01    2    -1000024         4   # BR(~s_L -> ~chi_1- c)
     4.23014058E-01    2    -1000037         4   # BR(~s_L -> ~chi_2- c)
#
#         PDG            Width
DECAY   2000003     7.12940187E+00   # sstrange_R decays
#          BR         NDA      ID1       ID2
     2.68213846E-01    2     1000022         3   # BR(~s_R -> ~chi_10 s)
     2.64577643E-03    2     1000023         3   # BR(~s_R -> ~chi_20 s)
     2.48060812E-03    2     1000025         3   # BR(~s_R -> ~chi_30 s)
     1.23293868E-03    2     1000035         3   # BR(~s_R -> ~chi_40 s)
     7.25426830E-01    2     1000021         3   # BR(~s_R -> ~g      s)
#
#         PDG            Width
DECAY   1000011     3.18142951E+01   # selectron_L decays
#          BR         NDA      ID1       ID2
     9.66901837E-02    2     1000022        11   # BR(~e_L -> ~chi_10 e-)
     1.46015421E-01    2     1000023        11   # BR(~e_L -> ~chi_20 e-)
     6.76808253E-04    2     1000025        11   # BR(~e_L -> ~chi_30 e-)
     1.56980750E-01    2     1000035        11   # BR(~e_L -> ~chi_40 e-)
     1.96036839E-01    2    -1000024        12   # BR(~e_L -> ~chi_1- nu_e)
     4.03599998E-01    2    -1000037        12   # BR(~e_L -> ~chi_2- nu_e)
#
#         PDG            Width
DECAY   2000011     1.43711165E+01   # selectron_R decays
#          BR         NDA      ID1       ID2
     9.77002382E-01    2     1000022        11   # BR(~e_R -> ~chi_10 e-)
     9.58778418E-03    2     1000023        11   # BR(~e_R -> ~chi_20 e-)
     8.96777452E-03    2     1000025        11   # BR(~e_R -> ~chi_30 e-)
     4.44205943E-03    2     1000035        11   # BR(~e_R -> ~chi_40 e-)
#
#         PDG            Width
DECAY   1000013     3.18142950E+01   # smuon_L decays
#          BR         NDA      ID1       ID2
     9.66901835E-02    2     1000022        13   # BR(~mu_L -> ~chi_10 mu-)
     1.46015420E-01    2     1000023        13   # BR(~mu_L -> ~chi_20 mu-)
     6.76808252E-04    2     1000025        13   # BR(~mu_L -> ~chi_30 mu-)
     1.56980750E-01    2     1000035        13   # BR(~mu_L -> ~chi_40 mu-)
     1.96036839E-01    2    -1000024        14   # BR(~mu_L -> ~chi_1- nu_mu)
     4.03599999E-01    2    -1000037        14   # BR(~mu_L -> ~chi_2- nu_mu)
#
#         PDG            Width
DECAY   2000013     1.43711164E+01   # smuon_R decays
#          BR         NDA      ID1       ID2
     9.77002382E-01    2     1000022        13   # BR(~mu_R -> ~chi_10 mu-)
     9.58778418E-03    2     1000023        13   # BR(~mu_R -> ~chi_20 mu-)
     8.96777452E-03    2     1000025        13   # BR(~mu_R -> ~chi_30 mu-)
     4.44205943E-03    2     1000035        13   # BR(~mu_R -> ~chi_40 mu-)
#
#         PDG            Width
DECAY   1000015     2.89100245E+01   # stau_1 decays
#          BR         NDA      ID1       ID2
     9.45777500E-02    2     1000022        15   # BR(~tau_1 -> ~chi_10  tau-)
     1.54730604E-01    2     1000023        15   # BR(~tau_1 -> ~chi_20  tau-)
     2.01014800E-02    2     1000025        15   # BR(~tau_1 -> ~chi_30  tau-)
     1.56280938E-01    2     1000035        15   # BR(~tau_1 -> ~chi_40  tau-)
     1.88698850E-01    2    -1000024        16   # BR(~tau_1 -> ~chi_1-  nu_tau)
     3.85610378E-01    2    -1000037        16   # BR(~tau_1 -> ~chi_2-  nu_tau)
#
#         PDG            Width
DECAY   2000015     1.98876762E+01   # stau_2 decays
#          BR         NDA      ID1       ID2
     8.04866841E-01    2     1000022        15   # BR(~tau_2 -> ~chi_10  tau-)
     3.84748560E-02    2     1000023        15   # BR(~tau_2 -> ~chi_20  tau-)
     4.98469380E-02    2     1000025        15   # BR(~tau_2 -> ~chi_30  tau-)
     1.76376028E-02    2     1000035        15   # BR(~tau_2 -> ~chi_40  tau-)
     6.04260836E-02    2    -1000024        16   # BR(~tau_2 -> ~chi_1-  nu_tau)
     2.86196829E-02    2    -1000037        16   # BR(~tau_2 -> ~chi_2-  nu_tau)
     6.35072482E-05    2     1000016       -24   # BR(~tau_2 -> ~nu_tauL W-)
     3.21599052E-05    2     1000015        25   # BR(~tau_2 -> ~tau_1   h)
     3.23284396E-05    2     1000015        23   # BR(~tau_2 -> ~tau_1   Z)
#
#         PDG            Width
DECAY   1000012     3.18504743E+01   # snu_eL decays
#          BR         NDA      ID1       ID2
     9.74352052E-02    2     1000022        12   # BR(~nu_eL -> ~chi_10 nu_e)
     1.02534212E-01    2     1000023        12   # BR(~nu_eL -> ~chi_20 nu_e)
     7.30407544E-03    2     1000025        12   # BR(~nu_eL -> ~chi_30 nu_e)
     1.91521203E-01    2     1000035        12   # BR(~nu_eL -> ~chi_40 nu_e)
     3.16476600E-01    2     1000024        11   # BR(~nu_eL -> ~chi_1+ e-)
     2.84728704E-01    2     1000037        11   # BR(~nu_eL -> ~chi_2+ e-)
#
#         PDG            Width
DECAY   1000014     3.18504742E+01   # snu_muL decays
#          BR         NDA      ID1       ID2
     9.74352055E-02    2     1000022        14   # BR(~nu_muL -> ~chi_10 nu_mu)
     1.02534213E-01    2     1000023        14   # BR(~nu_muL -> ~chi_20 nu_mu)
     7.30407545E-03    2     1000025        14   # BR(~nu_muL -> ~chi_30 nu_mu)
     1.91521204E-01    2     1000035        14   # BR(~nu_muL -> ~chi_40 nu_mu)
     3.16476600E-01    2     1000024        13   # BR(~nu_muL -> ~chi_1+ mu-)
     2.84728703E-01    2     1000037        13   # BR(~nu_muL -> ~chi_2+ mu-)
#
#         PDG            Width
DECAY   1000016     2.89500465E+01   # snu_tauL decays
#          BR         NDA      ID1       ID2
     9.42602892E-02    2     1000022        16   # BR(~nu_tauL -> ~chi_10 nu_tau)
     9.86104900E-02    2     1000023        16   # BR(~nu_tauL -> ~chi_20 nu_tau)
     7.00534413E-03    2     1000025        16   # BR(~nu_tauL -> ~chi_30 nu_tau)
     1.82966405E-01    2     1000035        16   # BR(~nu_tauL -> ~chi_40 nu_tau)
     3.32323251E-01    2     1000024        15   # BR(~nu_tauL -> ~chi_1+ tau-)
     2.84834220E-01    2     1000037        15   # BR(~nu_tauL -> ~chi_2+ tau-)
#
#         PDG            Width
DECAY   1000024     6.47607145E-02   # chargino1+ decays
#          BR         NDA      ID1       ID2
     1.00000000E+00    2     1000022        24   # BR(~chi_1+ -> ~chi_10  W+)
#
#         PDG            Width
DECAY   1000037     3.29080560E-01   # chargino2+ decays
#          BR         NDA      ID1       ID2
     2.04391728E-01    2     1000024        23   # BR(~chi_2+ -> ~chi_1+  Z )
     2.89215725E-01    2     1000022        24   # BR(~chi_2+ -> ~chi_10  W+)
     5.06392546E-01    2     1000023        24   # BR(~chi_2+ -> ~chi_20  W+)
#
#         PDG            Width
DECAY   1000022     0.00000000E+00   # neutralino1 decays
#
#         PDG            Width
DECAY   1000023     5.65657620E-02   # neutralino2 decays
#          BR         NDA      ID1       ID2
     5.45777187E-01    2     1000022        23   # BR(~chi_20 -> ~chi_10   Z )
     4.54222813E-01    2     1000022        25   # BR(~chi_20 -> ~chi_10   h )
#
#         PDG            Width
DECAY   1000025     1.35811507E-01   # neutralino3 decays
#          BR         NDA      ID1       ID2
     6.69292673E-01    2     1000022        23   # BR(~chi_30 -> ~chi_10   Z )
     3.30707327E-01    2     1000022        25   # BR(~chi_30 -> ~chi_10   h )
#
#         PDG            Width
DECAY   1000035     3.99950207E-01   # neutralino4 decays
#          BR         NDA      ID1       ID2
     9.71258479E-02    2     1000022        23   # BR(~chi_40 -> ~chi_10   Z )
     1.49233565E-03    2     1000023        23   # BR(~chi_40 -> ~chi_20   Z )
     3.89699665E-01    2     1000024       -24   # BR(~chi_40 -> ~chi_1+   W-)
     3.89699665E-01    2    -1000024        24   # BR(~chi_40 -> ~chi_1-   W+)
     1.21982486E-01    2     1000022        25   # BR(~chi_40 -> ~chi_10   h )
#
#         PDG            Width
DECAY        25     4.10796211E-03   # h decays
#          BR         NDA      ID1       ID2
     5.92845231E-01    2           5        -5   # BR(h -> b       bb     )
     6.35072655E-02    2         -15        15   # BR(h -> tau+    tau-   )
     2.24790420E-04    2         -13        13   # BR(h -> mu+     mu-    )
     2.45221626E-04    2           3        -3   # BR(h -> s       sb     )
     2.11545457E-02    2           4        -4   # BR(h -> c       cb     )
     7.85828277E-02    2          21        21   # BR(h -> g       g      )
     2.30024026E-03    2          22        22   # BR(h -> gam     gam    )
     1.56257971E-03    2          22        23   # BR(h -> Z       gam    )
     2.12174788E-01    2          24       -24   # BR(h -> W+      W-     )
     2.65521108E-02    2          23        23   # BR(h -> Z       Z      )
     8.50399292E-04    2     1000022   1000022   # BR(h -> ~chi_10 ~chi_10)
#
#         PDG            Width
DECAY        35     4.69248765E+01   # H decays
#          BR         NDA      ID1       ID2
     1.82211816E-01    2           5        -5   # BR(H -> b       bb     )
     3.39599977E-02    2         -15        15   # BR(H -> tau+    tau-   )
     1.19957411E-04    2         -13        13   # BR(H -> mu+     mu-    )
     7.28927494E-05    2           3        -3   # BR(H -> s       sb     )
     8.72194811E-08    2           4        -4   # BR(H -> c       cb     )
     8.55208357E-03    2           6        -6   # BR(H -> t       tb     )
     2.38186145E-06    2          21        21   # BR(H -> g       g      )
     3.93975628E-08    2          22        22   # BR(H -> gam     gam    )
     3.87597483E-09    2          23        22   # BR(H -> Z       gam    )
     4.11347192E-06    2          24       -24   # BR(H -> W+      W-     )
     2.05164582E-06    2          23        23   # BR(H -> Z       Z      )
     1.80223531E-05    2          25        25   # BR(H -> h       h      )
     1.79128866E-01    2     1000024  -1000024   # BR(H -> ~chi_1+ ~chi_1-)
     8.16567170E-02    2     1000037  -1000037   # BR(H -> ~chi_2+ ~chi_2-)
     1.05020424E-01    2     1000024  -1000037   # BR(H -> ~chi_1+ ~chi_2-)
     1.05020424E-01    2     1000037  -1000024   # BR(H -> ~chi_2+ ~chi_1-)
     3.26485320E-03    2     1000022   1000022   # BR(H -> ~chi_10 ~chi_10)
     6.05712135E-02    2     1000023   1000023   # BR(H -> ~chi_20 ~chi_20)
     4.50639585E-03    2     1000025   1000025   # BR(H -> ~chi_30 ~chi_30)
     5.19381308E-02    2     1000035   1000035   # BR(H -> ~chi_40 ~chi_40)
     4.18637322E-02    2     1000022   1000023   # BR(H -> ~chi_10 ~chi_20)
     2.48109997E-02    2     1000022   1000025   # BR(H -> ~chi_10 ~chi_30)
     2.54800833E-03    2     1000022   1000035   # BR(H -> ~chi_10 ~chi_40)
     1.95046650E-02    2     1000023   1000025   # BR(H -> ~chi_20 ~chi_30)
     1.35865671E-02    2     1000023   1000035   # BR(H -> ~chi_20 ~chi_40)
     8.16229350E-02    2     1000025   1000035   # BR(H -> ~chi_30 ~chi_40)
     2.56188692E-06    2     1000002  -1000002   # BR(H -> ~u_L    ~u_L*  )
     2.56188692E-06    2     1000004  -1000004   # BR(H -> ~c_L    ~c_L*  )
     3.74814030E-06    2     1000001  -1000001   # BR(H -> ~d_L    ~d_L*  )
     3.74814030E-06    2     1000003  -1000003   # BR(H -> ~s_L    ~s_L*  )
#
#         PDG            Width
DECAY        36     4.69291380E+01   # A decays
#          BR         NDA      ID1       ID2
     1.82216814E-01    2           5        -5   # BR(A -> b       bb     )
     3.39573747E-02    2         -15        15   # BR(A -> tau+    tau-   )
     1.19947945E-04    2         -13        13   # BR(A -> mu+     mu-    )
     7.29054611E-05    2           3        -3   # BR(A -> s       sb     )
     8.75156758E-08    2           4        -4   # BR(A -> c       cb     )
     8.59300406E-03    2           6        -6   # BR(A -> t       tb     )
     2.15374486E-05    2          21        21   # BR(A -> g       g      )
     1.65429796E-08    2          22        22   # BR(A -> gam     gam    )
     2.00380829E-08    2          23        22   # BR(A -> Z       gam    )
     4.16401468E-06    2          23        25   # BR(A -> Z       h      )
     1.57925963E-01    2     1000024  -1000024   # BR(A -> ~chi_1+ ~chi_1-)
     6.07889928E-02    2     1000037  -1000037   # BR(A -> ~chi_2+ ~chi_2-)
     1.26048743E-01    2     1000024  -1000037   # BR(A -> ~chi_1+ ~chi_2-)
     1.26048743E-01    2     1000037  -1000024   # BR(A -> ~chi_2+ ~chi_1-)
     3.19253097E-03    2     1000022   1000022   # BR(A -> ~chi_10 ~chi_10)
     5.11363399E-02    2     1000023   1000023   # BR(A -> ~chi_20 ~chi_20)
     6.04266365E-03    2     1000025   1000025   # BR(A -> ~chi_30 ~chi_30)
     4.09539526E-02    2     1000035   1000035   # BR(A -> ~chi_40 ~chi_40)
     3.58159931E-02    2     1000022   1000023   # BR(A -> ~chi_10 ~chi_20)
     3.21153397E-02    2     1000022   1000025   # BR(A -> ~chi_10 ~chi_30)
     1.27474919E-03    2     1000022   1000035   # BR(A -> ~chi_10 ~chi_40)
     2.73065139E-02    2     1000023   1000025   # BR(A -> ~chi_20 ~chi_30)
     1.28737039E-02    2     1000023   1000035   # BR(A -> ~chi_20 ~chi_40)
     9.34898994E-02    2     1000025   1000035   # BR(A -> ~chi_30 ~chi_40)
#
#         PDG            Width
DECAY        37     4.67016712E+01   # H+ decays
#          BR         NDA      ID1       ID2
     3.01081719E-04    2           4        -5   # BR(H+ -> c       bb     )
     3.41417176E-02    2         -15        16   # BR(H+ -> tau+    nu_tau )
     1.20599101E-04    2         -13        14   # BR(H+ -> mu+     nu_mu  )
     3.01081158E-06    2           2        -5   # BR(H+ -> u       bb     )
     3.66397540E-06    2           2        -3   # BR(H+ -> u       sb     )
     7.22024887E-05    2           4        -3   # BR(H+ -> c       sb     )
     1.87270748E-01    2           6        -5   # BR(H+ -> t       bb     )
     4.19444992E-06    2          24        25   # BR(H+ -> W+      h      )
     2.28555391E-13    2          24        36   # BR(H+ -> W+      A      )
     7.58091230E-02    2     1000024   1000022   # BR(H+ -> ~chi_1+ ~chi_10)
     2.29528011E-03    2     1000024   1000023   # BR(H+ -> ~chi_1+ ~chi_20)
     8.46196328E-02    2     1000024   1000025   # BR(H+ -> ~chi_1+ ~chi_30)
     1.98751616E-01    2     1000024   1000035   # BR(H+ -> ~chi_1+ ~chi_40)
     3.68380312E-03    2     1000037   1000022   # BR(H+ -> ~chi_2+ ~chi_10)
     2.71646518E-01    2     1000037   1000023   # BR(H+ -> ~chi_2+ ~chi_20)
     1.40721104E-01    2     1000037   1000025   # BR(H+ -> ~chi_2+ ~chi_30)
     5.43170457E-04    2     1000037   1000035   # BR(H+ -> ~chi_2+ ~chi_40)
     6.26730844E-06    2     1000002  -1000001   # BR(H+ -> ~u_L    ~d_L*  )
     6.26730844E-06    2     1000004  -1000003   # BR(H+ -> ~c_L    ~s_L*  )
