#
#                              ======================
#                              | THE SUSYHIT OUTPUT |
#                              ======================
#
#
#              ------------------------------------------------------
#              |     This is the output of the SUSY-HIT package     |
#              |  created by A.Djouadi, M.Muehlleitner and M.Spira. |
#              |  In case of problems with SUSY-HIT email to        |
#              |           margarete.muehlleitner@cern.ch           |
#              |           michael.spira@psi.ch                     |
#              |           abdelhak.djouadi@cern.ch                 |
#              ------------------------------------------------------
#
#              ------------------------------------------------------
#              |  SUSY Les Houches Accord - MSSM Spectrum + Decays  |
#              |              based on the decay programs           |
#              |                                                    |
#              |                     SDECAY 1.3b                    |
#              |                                                    |
#              |  Authors: M.Muhlleitner, A.Djouadi and Y.Mambrini  |
#              |  Ref.:    Comput.Phys.Commun.168(2005)46           |
#              |           [hep-ph/0311167]                         |
#              |                                                    |
#              |                     HDECAY 3.4                     |
#              |                                                    |
#              |  By: A.Djouadi,J.Kalinowski,M.Muhlleitner,M.Spira  |
#              |  Ref.:    Comput.Phys.Commun.108(1998)56           |
#              |           [hep-ph/9704448]                         |
#              |                                                    |
#              |                                                    |
#              |  If not stated otherwise all DRbar couplings and   |
#              |  soft SUSY breaking masses are given at the scale  |
#              |  Q=  0.50008265E+04
#              |                                                    |
#              ------------------------------------------------------
#
#
BLOCK DCINFO  # Decay Program information
     1   SDECAY/HDECAY # decay calculator
     2   1.3b  /3.4    # version number
#
BLOCK SPINFO  # Spectrum calculator information
     1    SOFTSUSY    # spectrum calculator                
     2    3.3.3       # version number                     
#
BLOCK MODSEL  # Model selection
     1     0   #  nonUniversal                                     
#
BLOCK SMINPUTS  # Standard Model inputs
         1     1.27956800E+02   # alpha_em^-1(M_Z)^MSbar
         2     1.16637900E-05   # G_F [GeV^-2]
         3     1.19300000E-01   # alpha_S(M_Z)^MSbar
         4     9.11876000E+01   # M_Z pole mass
         5     4.16000000E+00   # mb(mb)^MSbar
         6     1.73200000E+02   # mt pole mass
         7     1.77700000E+00   # mtau pole mass
#
BLOCK MINPAR  # Input parameters - minimal models
         3     4.00000000E+01   # tanb                
#
BLOCK EXTPAR  # Input parameters - non-minimal models
         0    -1.00000000E+00   # Set                 
         1     6.00000000E+01   # M_1(MX)             
         2     1.40000000E+03   # M_2(MX)             
         3     2.00000000E+03   # M_3(MX)             
        11     4.92200000E+03   # At(MX)              
        12     0.00000000E+00   # Ab(MX)              
        13     0.00000000E+00   # Atau(MX)            
        23     2.55000000E+03   # mu(MX)              
        26     2.00000000E+03   # mA(pole)            
        31     5.00000000E+03   # meL(MX)             
        32     5.00000000E+03   # mmuL(MX)            
        33     5.00000000E+03   # mtauL(MX)           
        34     5.00000000E+03   # meR(MX)             
        35     5.00000000E+03   # mmuR(MX)            
        36     5.00000000E+03   # mtauR(MX)           
        41     1.45000000E+03   # mqL1(MX)            
        42     1.45000000E+03   # mqL2(MX)            
        43     5.00000000E+03   # mqL3(MX)            
        44     5.00000000E+03   # muR(MX)             
        45     5.00000000E+03   # mcR(MX)             
        46     5.00000000E+03   # mtR(MX)             
        47     5.00000000E+03   # mdR(MX)             
        48     5.00000000E+03   # msR(MX)             
        49     5.00000000E+03   # mbR(MX)             
#
BLOCK MASS  # Mass Spectrum
# PDG code           mass       particle
        24     8.03922012E+01   # W+
        25     1.25214712E+02   # h
        35     2.00003789E+03   # H
        36     2.00000075E+03   # A
        37     2.00169488E+03   # H+
         5     4.80992877E+00   # b-quark pole mass calculated from mb(mb)_Msbar
   1000001     1.63460035E+03   # ~d_L
   2000001     5.06155000E+03   # ~d_R
   1000002     1.63283303E+03   # ~u_L
   2000002     5.05861710E+03   # ~u_R
   1000003     1.63460035E+03   # ~s_L
   2000003     5.06155000E+03   # ~s_R
   1000004     1.63283303E+03   # ~c_L
   2000004     5.05861710E+03   # ~c_R
   1000005     5.00403455E+03   # ~b_1
   2000005     5.05167741E+03   # ~b_2
   1000006     4.92428966E+03   # ~t_1
   2000006     5.06086928E+03   # ~t_2
   1000011     5.00980782E+03   # ~e_L
   2000011     5.00842199E+03   # ~e_R
   1000012     5.00888421E+03   # ~nu_eL
   1000013     5.00980782E+03   # ~mu_L
   2000013     5.00842199E+03   # ~mu_R
   1000014     5.00888421E+03   # ~nu_muL
   1000015     4.97692430E+03   # ~tau_1
   2000015     5.01482314E+03   # ~tau_2
   1000016     5.00003903E+03   # ~nu_tauL
   1000021     2.27354478E+03   # ~g
   1000022     5.94323052E+01   # ~chi_10
   1000023     1.43536317E+03   # ~chi_20
   1000025    -2.56889029E+03   # ~chi_30
   1000035     2.57109302E+03   # ~chi_40
   1000024     1.43553251E+03   # ~chi_1+
   1000037     2.57156802E+03   # ~chi_2+
#
BLOCK NMIX  # Neutralino Mixing Matrix
  1  1     9.99849896E-01   # N_11
  1  2    -5.50218387E-05   # N_12
  1  3     1.73055535E-02   # N_13
  1  4    -8.36317521E-04   # N_14
  2  1     8.35283497E-04   # N_21
  2  2     9.98724763E-01   # N_22
  2  3    -4.38780675E-02   # N_23
  2  4     2.49572671E-02   # N_24
  3  1    -1.16420182E-02   # N_31
  3  2     1.33936053E-02   # N_32
  3  3     7.06848423E-01   # N_33
  3  4     7.07142406E-01   # N_34
  4  1    -1.28043098E-02   # N_41
  4  2     4.86770583E-02   # N_42
  4  3     7.05790720E-01   # N_43
  4  4    -7.06630068E-01   # N_44
#
BLOCK UMIX  # Chargino Mixing Matrix U
  1  1     9.98139815E-01   # U_11
  1  2    -6.09664702E-02   # U_12
  2  1     6.09664702E-02   # U_21
  2  2     9.98139815E-01   # U_22
#
BLOCK VMIX  # Chargino Mixing Matrix V
  1  1     9.99377018E-01   # V_11
  1  2    -3.52927197E-02   # V_12
  2  1     3.52927197E-02   # V_21
  2  2     9.99377018E-01   # V_22
#
BLOCK STOPMIX  # Stop Mixing Matrix
  1  1    -5.58920847E-01   # cos(theta_t)
  1  2     8.29221012E-01   # sin(theta_t)
  2  1    -8.29221012E-01   # -sin(theta_t)
  2  2    -5.58920847E-01   # cos(theta_t)
#
BLOCK SBOTMIX  # Sbottom Mixing Matrix
  1  1     9.01653911E-01   # cos(theta_b)
  1  2     4.32458350E-01   # sin(theta_b)
  2  1    -4.32458350E-01   # -sin(theta_b)
  2  2     9.01653911E-01   # cos(theta_b)
#
BLOCK STAUMIX  # Stau Mixing Matrix
  1  1     6.05535099E-01   # cos(theta_tau)
  1  2     7.95818600E-01   # sin(theta_tau)
  2  1    -7.95818600E-01   # -sin(theta_tau)
  2  2     6.05535099E-01   # cos(theta_tau)
#
BLOCK ALPHA  # Higgs mixing
          -2.60529741E-02   # Mixing angle in the neutral Higgs boson sector
#
BLOCK HMIX Q=  5.00082646E+03  # DRbar Higgs Parameters
         1     2.55000000E+03   # mu(Q)MSSM           
         2     3.86765329E+01   # tan                 
         3     2.41987804E+02   # higgs               
         4     5.37535355E+06   # mA^2(Q)MSSM         
#
BLOCK GAUGE Q=  5.00082646E+03  # The gauge couplings
     1     3.65833696E-01   # gprime(Q) DRbar
     2     6.37506210E-01   # g(Q) DRbar
     3     1.00634112E+00   # g3(Q) DRbar
#
BLOCK AU Q=  5.00082646E+03  # The trilinear couplings
  1  1     4.92200002E+03   # A_u(Q) DRbar
  2  2     4.92200002E+03   # A_c(Q) DRbar
  3  3     4.92200002E+03   # A_t(Q) DRbar
#
BLOCK AD Q=  5.00082646E+03  # The trilinear couplings
  1  1     6.84813685E-06   # A_d(Q) DRbar
  2  2     6.84999296E-06   # A_s(Q) DRbar
  3  3     1.29297486E-05   # A_b(Q) DRbar
#
BLOCK AE Q=  5.00082646E+03  # The trilinear couplings
  1  1     3.29219291E-06   # A_e(Q) DRbar
  2  2     3.29286687E-06   # A_mu(Q) DRbar
  3  3     3.48623674E-06   # A_tau(Q) DRbar
#
BLOCK Yu Q=  5.00082646E+03  # The Yukawa couplings
  1  1     0.00000000E+00   # y_u(Q) DRbar
  2  2     0.00000000E+00   # y_c(Q) DRbar
  3  3     8.13663352E-01   # y_t(Q) DRbar
#
BLOCK Yd Q=  5.00082646E+03  # The Yukawa couplings
  1  1     0.00000000E+00   # y_d(Q) DRbar
  2  2     0.00000000E+00   # y_s(Q) DRbar
  3  3     4.42604753E-01   # y_b(Q) DRbar
#
BLOCK Ye Q=  5.00082646E+03  # The Yukawa couplings
  1  1     0.00000000E+00   # y_e(Q) DRbar
  2  2     0.00000000E+00   # y_mu(Q) DRbar
  3  3     4.09133616E-01   # y_tau(Q) DRbar
#
BLOCK MSOFT Q=  5.00082646E+03  # The soft SUSY breaking masses at the scale Q
         1     6.00000000E+01   # M_1(Q)              
         2     1.40000000E+03   # M_2(Q)              
         3     2.00000000E+03   # M_3(Q)              
        21    -2.35633528E+06   # mH1^2(Q)            
        22    -6.05893673E+06   # mH2^2(Q)            
        31     5.00000000E+03   # meL(Q)              
        32     5.00000000E+03   # mmuL(Q)             
        33     5.00000000E+03   # mtauL(Q)            
        34     5.00000000E+03   # meR(Q)              
        35     5.00000000E+03   # mmuR(Q)             
        36     5.00000000E+03   # mtauR(Q)            
        41     1.44999998E+03   # mqL1(Q)             
        42     1.44999998E+03   # mqL2(Q)             
        43     4.99999999E+03   # mqL3(Q)             
        44     4.99999999E+03   # muR(Q)              
        45     4.99999999E+03   # mcR(Q)              
        46     4.99999999E+03   # mtR(Q)              
        47     4.99999999E+03   # mdR(Q)              
        48     4.99999999E+03   # msR(Q)              
        49     4.99999999E+03   # mbR(Q)              
#
#
#
#                             =================
#                             |The decay table|
#                             =================
#
# - The QCD corrections to the decays gluino -> squark  + quark
#                                     squark -> gaugino + quark_prime
#                                     squark -> squark_prime + Higgs
#                                     squark -> gluino  + quark
#   are included.
#
# - The multi-body decays for the inos, stops and sbottoms are included.
#
# - The loop induced decays for the gluino, neutralinos and stops
#   are included.
#
# - The SUSY decays of the top quark are included.
#
#
#         PDG            Width
DECAY         6     1.43122836E+00   # top decays
#          BR         NDA      ID1       ID2
     1.00000000E+00    2           5        24   # BR(t ->  b    W+)
#
#         PDG            Width
DECAY   1000021     4.03115663E+01   # gluino decays
#          BR         NDA      ID1       ID2
     1.24711267E-01    2     1000001        -1   # BR(~g -> ~d_L  db)
     1.24711267E-01    2    -1000001         1   # BR(~g -> ~d_L* d )
     1.25288733E-01    2     1000002        -2   # BR(~g -> ~u_L  ub)
     1.25288733E-01    2    -1000002         2   # BR(~g -> ~u_L* u )
     1.24711267E-01    2     1000003        -3   # BR(~g -> ~s_L  sb)
     1.24711267E-01    2    -1000003         3   # BR(~g -> ~s_L* s )
     1.25288733E-01    2     1000004        -4   # BR(~g -> ~c_L  cb)
     1.25288733E-01    2    -1000004         4   # BR(~g -> ~c_L* c )
#
#         PDG            Width
DECAY   1000006     2.81953188E+02   # stop1 decays
#          BR         NDA      ID1       ID2
     2.84121174E-02    2     1000022         6   # BR(~t_1 -> ~chi_10 t )
     1.49652339E-02    2     1000023         6   # BR(~t_1 -> ~chi_20 t )
     5.76116445E-02    2     1000025         6   # BR(~t_1 -> ~chi_30 t )
     6.58264438E-02    2     1000035         6   # BR(~t_1 -> ~chi_40 t )
     3.00705150E-02    2     1000024         5   # BR(~t_1 -> ~chi_1+ b )
     9.90066717E-02    2     1000037         5   # BR(~t_1 -> ~chi_2+ b )
     7.04107374E-01    2     1000021         6   # BR(~t_1 -> ~g      t )
#
#         PDG            Width
DECAY   2000006     3.18475846E+02   # stop2 decays
#          BR         NDA      ID1       ID2
     1.26530482E-02    2     1000022         6   # BR(~t_2 -> ~chi_10 t )
     3.87771744E-02    2     1000023         6   # BR(~t_2 -> ~chi_20 t )
     6.09350909E-02    2     1000025         6   # BR(~t_2 -> ~chi_30 t )
     5.33870385E-02    2     1000035         6   # BR(~t_2 -> ~chi_40 t )
     7.78896948E-02    2     1000024         5   # BR(~t_2 -> ~chi_1+ b )
     5.60574069E-02    2     1000037         5   # BR(~t_2 -> ~chi_2+ b )
     6.98072250E-01    2     1000021         6   # BR(~t_2 -> ~g      t )
     2.93963437E-04    2     1000006        25   # BR(~t_2 -> ~t_1    h )
     1.93433304E-03    2     1000006        23   # BR(~t_2 -> ~t_1    Z )
#
#         PDG            Width
DECAY   1000005     2.95059915E+02   # sbottom1 decays
#          BR         NDA      ID1       ID2
     4.32417787E-03    2     1000022         5   # BR(~b_1 -> ~chi_10 b )
     4.73105132E-02    2     1000023         5   # BR(~b_1 -> ~chi_20 b )
     1.76172565E-02    2     1000025         5   # BR(~b_1 -> ~chi_30 b )
     1.68714391E-02    2     1000035         5   # BR(~b_1 -> ~chi_40 b )
     9.41369026E-02    2    -1000024         6   # BR(~b_1 -> ~chi_1- t )
     1.01021661E-01    2    -1000037         6   # BR(~b_1 -> ~chi_2- t )
     7.18718049E-01    2     1000021         5   # BR(~b_1 -> ~g      b )
#
#         PDG            Width
DECAY   2000005     2.54273737E+02   # sbottom2 decays
#          BR         NDA      ID1       ID2
     9.17025877E-03    2     1000022         5   # BR(~b_2 -> ~chi_10 b )
     1.01988741E-02    2     1000023         5   # BR(~b_2 -> ~chi_20 b )
     2.18238447E-02    2     1000025         5   # BR(~b_2 -> ~chi_30 b )
     2.26349813E-02    2     1000035         5   # BR(~b_2 -> ~chi_40 b )
     2.03740897E-02    2    -1000024         6   # BR(~b_2 -> ~chi_1- t )
     6.70378937E-02    2    -1000037         6   # BR(~b_2 -> ~chi_2- t )
     8.47538741E-01    2     1000021         5   # BR(~b_2 -> ~g      b )
     1.22131704E-03    2     1000006       -24   # BR(~b_2 -> ~t_1    W-)
#
#         PDG            Width
DECAY   1000002     1.29038907E+00   # sup_L decays
#          BR         NDA      ID1       ID2
     1.85116971E-01    2     1000022         2   # BR(~u_L -> ~chi_10 u)
     2.71734857E-01    2     1000023         2   # BR(~u_L -> ~chi_20 u)
     5.43148172E-01    2     1000024         1   # BR(~u_L -> ~chi_1+ d)
#
#         PDG            Width
DECAY   2000002     2.47380676E+02   # sup_R decays
#          BR         NDA      ID1       ID2
     4.67322176E-02    2     1000022         2   # BR(~u_R -> ~chi_10 u)
     2.76553078E-08    2     1000023         2   # BR(~u_R -> ~chi_20 u)
     3.50741468E-06    2     1000025         2   # BR(~u_R -> ~chi_30 u)
     4.23767896E-06    2     1000035         2   # BR(~u_R -> ~chi_40 u)
     9.53260010E-01    2     1000021         2   # BR(~u_R -> ~g      u)
#
#         PDG            Width
DECAY   1000001     1.30526747E+00   # sdown_L decays
#          BR         NDA      ID1       ID2
     1.83404564E-01    2     1000022         1   # BR(~d_L -> ~chi_10 d)
     2.72636810E-01    2     1000023         1   # BR(~d_L -> ~chi_20 d)
     5.43958626E-01    2    -1000024         2   # BR(~d_L -> ~chi_1- u)
#
#         PDG            Width
DECAY   2000001     2.38985589E+02   # sdown_R decays
#          BR         NDA      ID1       ID2
     1.21005820E-02    2     1000022         1   # BR(~d_R -> ~chi_10 d)
     7.16233297E-09    2     1000023         1   # BR(~d_R -> ~chi_20 d)
     9.08911875E-07    2     1000025         1   # BR(~d_R -> ~chi_30 d)
     1.09815467E-06    2     1000035         1   # BR(~d_R -> ~chi_40 d)
     9.87897404E-01    2     1000021         1   # BR(~d_R -> ~g      d)
#
#         PDG            Width
DECAY   1000004     1.29038907E+00   # scharm_L decays
#          BR         NDA      ID1       ID2
     1.85116971E-01    2     1000022         4   # BR(~c_L -> ~chi_10 c)
     2.71734857E-01    2     1000023         4   # BR(~c_L -> ~chi_20 c)
     5.43148172E-01    2     1000024         3   # BR(~c_L -> ~chi_1+ s)
#
#         PDG            Width
DECAY   2000004     2.47380676E+02   # scharm_R decays
#          BR         NDA      ID1       ID2
     4.67322176E-02    2     1000022         4   # BR(~c_R -> ~chi_10 c)
     2.76553078E-08    2     1000023         4   # BR(~c_R -> ~chi_20 c)
     3.50741468E-06    2     1000025         4   # BR(~c_R -> ~chi_30 c)
     4.23767896E-06    2     1000035         4   # BR(~c_R -> ~chi_40 c)
     9.53260010E-01    2     1000021         4   # BR(~c_R -> ~g      c)
#
#         PDG            Width
DECAY   1000003     1.30526747E+00   # sstrange_L decays
#          BR         NDA      ID1       ID2
     1.83404564E-01    2     1000022         3   # BR(~s_L -> ~chi_10 s)
     2.72636810E-01    2     1000023         3   # BR(~s_L -> ~chi_20 s)
     5.43958626E-01    2    -1000024         4   # BR(~s_L -> ~chi_1- c)
#
#         PDG            Width
DECAY   2000003     2.38985589E+02   # sstrange_R decays
#          BR         NDA      ID1       ID2
     1.21005820E-02    2     1000022         3   # BR(~s_R -> ~chi_10 s)
     7.16233297E-09    2     1000023         3   # BR(~s_R -> ~chi_20 s)
     9.08911875E-07    2     1000025         3   # BR(~s_R -> ~chi_30 s)
     1.09815467E-06    2     1000035         3   # BR(~s_R -> ~chi_40 s)
     9.87897404E-01    2     1000021         3   # BR(~s_R -> ~g      s)
#
#         PDG            Width
DECAY   1000011     5.78030626E+01   # selectron_L decays
#          BR         NDA      ID1       ID2
     1.15292708E-01    2     1000022        11   # BR(~e_L -> ~chi_10 e-)
     2.94746996E-01    2     1000023        11   # BR(~e_L -> ~chi_20 e-)
     8.57749127E-06    2     1000025        11   # BR(~e_L -> ~chi_30 e-)
     3.24739028E-04    2     1000035        11   # BR(~e_L -> ~chi_40 e-)
     5.88214065E-01    2    -1000024        12   # BR(~e_L -> ~chi_1- nu_e)
     1.41291464E-03    2    -1000037        12   # BR(~e_L -> ~chi_2- nu_e)
#
#         PDG            Width
DECAY   2000011     2.66591706E+01   # selectron_R decays
#          BR         NDA      ID1       ID2
     9.99836817E-01    2     1000022        11   # BR(~e_R -> ~chi_10 e-)
     5.88042091E-07    2     1000023        11   # BR(~e_R -> ~chi_20 e-)
     7.36339379E-05    2     1000025        11   # BR(~e_R -> ~chi_30 e-)
     8.89614101E-05    2     1000035        11   # BR(~e_R -> ~chi_40 e-)
#
#         PDG            Width
DECAY   1000013     5.78030626E+01   # smuon_L decays
#          BR         NDA      ID1       ID2
     1.15292708E-01    2     1000022        13   # BR(~mu_L -> ~chi_10 mu-)
     2.94746996E-01    2     1000023        13   # BR(~mu_L -> ~chi_20 mu-)
     8.57749127E-06    2     1000025        13   # BR(~mu_L -> ~chi_30 mu-)
     3.24739028E-04    2     1000035        13   # BR(~mu_L -> ~chi_40 mu-)
     5.88214065E-01    2    -1000024        14   # BR(~mu_L -> ~chi_1- nu_mu)
     1.41291464E-03    2    -1000037        14   # BR(~mu_L -> ~chi_2- nu_mu)
#
#         PDG            Width
DECAY   2000013     2.66591706E+01   # smuon_R decays
#          BR         NDA      ID1       ID2
     9.99836817E-01    2     1000022        13   # BR(~mu_R -> ~chi_10 mu-)
     5.88042091E-07    2     1000023        13   # BR(~mu_R -> ~chi_20 mu-)
     7.36339379E-05    2     1000025        13   # BR(~mu_R -> ~chi_30 mu-)
     8.89614101E-05    2     1000035        13   # BR(~mu_R -> ~chi_40 mu-)
#
#         PDG            Width
DECAY   1000015     5.31398611E+01   # stau_1 decays
#          BR         NDA      ID1       ID2
     3.64742051E-01    2     1000022        15   # BR(~tau_1 -> ~chi_10  tau-)
     1.29208003E-01    2     1000023        15   # BR(~tau_1 -> ~chi_20  tau-)
     8.13950269E-02    2     1000025        15   # BR(~tau_1 -> ~chi_30  tau-)
     7.65826790E-02    2     1000035        15   # BR(~tau_1 -> ~chi_40  tau-)
     2.57090941E-01    2    -1000024        16   # BR(~tau_1 -> ~chi_1-  nu_tau)
     9.09813000E-02    2    -1000037        16   # BR(~tau_1 -> ~chi_2-  nu_tau)
#
#         PDG            Width
DECAY   2000015     5.80991301E+01   # stau_2 decays
#          BR         NDA      ID1       ID2
     2.38210497E-01    2     1000022        15   # BR(~tau_2 -> ~chi_10  tau-)
     1.75166948E-01    2     1000023        15   # BR(~tau_2 -> ~chi_20  tau-)
     8.04680456E-02    2     1000025        15   # BR(~tau_2 -> ~chi_30  tau-)
     8.46225513E-02    2     1000035        15   # BR(~tau_2 -> ~chi_40  tau-)
     3.49327904E-01    2    -1000024        16   # BR(~tau_2 -> ~chi_1-  nu_tau)
     7.22040541E-02    2    -1000037        16   # BR(~tau_2 -> ~chi_2-  nu_tau)
#
#         PDG            Width
DECAY   1000012     5.78085931E+01   # snu_eL decays
#          BR         NDA      ID1       ID2
     1.15304633E-01    2     1000022        12   # BR(~nu_eL -> ~chi_10 nu_e)
     2.94079920E-01    2     1000023        12   # BR(~nu_eL -> ~chi_20 nu_e)
     7.66653679E-05    2     1000025        12   # BR(~nu_eL -> ~chi_30 nu_e)
     5.96408004E-04    2     1000035        12   # BR(~nu_eL -> ~chi_40 nu_e)
     5.89469149E-01    2     1000024        11   # BR(~nu_eL -> ~chi_1+ e-)
     4.73225172E-04    2     1000037        11   # BR(~nu_eL -> ~chi_2+ e-)
#
#         PDG            Width
DECAY   1000014     5.78085931E+01   # snu_muL decays
#          BR         NDA      ID1       ID2
     1.15304633E-01    2     1000022        14   # BR(~nu_muL -> ~chi_10 nu_mu)
     2.94079920E-01    2     1000023        14   # BR(~nu_muL -> ~chi_20 nu_mu)
     7.66653679E-05    2     1000025        14   # BR(~nu_muL -> ~chi_30 nu_mu)
     5.96408004E-04    2     1000035        14   # BR(~nu_muL -> ~chi_40 nu_mu)
     5.89469149E-01    2     1000024        13   # BR(~nu_muL -> ~chi_1+ mu-)
     4.73225172E-04    2     1000037        13   # BR(~nu_muL -> ~chi_2+ mu-)
#
#         PDG            Width
DECAY   1000016     6.66995854E+01   # snu_tauL decays
#          BR         NDA      ID1       ID2
     9.97580594E-02    2     1000022        16   # BR(~nu_tauL -> ~chi_10 nu_tau)
     2.54268063E-01    2     1000023        16   # BR(~nu_tauL -> ~chi_20 nu_tau)
     6.61610517E-05    2     1000025        16   # BR(~nu_tauL -> ~chi_30 nu_tau)
     5.14688042E-04    2     1000035        16   # BR(~nu_tauL -> ~chi_40 nu_tau)
     5.10440291E-01    2     1000024        15   # BR(~nu_tauL -> ~chi_1+ tau-)
     1.34952737E-01    2     1000037        15   # BR(~nu_tauL -> ~chi_2+ tau-)
#
#         PDG            Width
DECAY   1000024     1.19142577E-03   # chargino1+ decays
#          BR         NDA      ID1       ID2
     1.00000000E+00    2     1000022        24   # BR(~chi_1+ -> ~chi_10  W+)
#
#         PDG            Width
DECAY   1000037     1.53309210E+01   # chargino2+ decays
#          BR         NDA      ID1       ID2
     8.72253323E-04    2     1000002        -1   # BR(~chi_2+ -> ~u_L     db)
     2.59537390E-03    2    -1000001         2   # BR(~chi_2+ -> ~d_L*    u )
     8.72253323E-04    2     1000004        -3   # BR(~chi_2+ -> ~c_L     sb)
     2.59537390E-03    2    -1000003         4   # BR(~chi_2+ -> ~s_L*    c )
     2.86984248E-01    2     1000024        23   # BR(~chi_2+ -> ~chi_1+  Z )
     1.03528188E-01    2     1000022        24   # BR(~chi_2+ -> ~chi_10  W+)
     2.71251569E-01    2     1000023        24   # BR(~chi_2+ -> ~chi_20  W+)
     3.14297987E-01    2     1000024        25   # BR(~chi_2+ -> ~chi_1+  h )
     1.70027535E-02    2     1000022        37   # BR(~chi_2+ -> ~chi_10  H+)
#
#         PDG            Width
DECAY   1000022     0.00000000E+00   # neutralino1 decays
#
#         PDG            Width
DECAY   1000023     1.33694970E-03   # neutralino2 decays
#          BR         NDA      ID1       ID2
     3.88147548E-01    2     1000022        23   # BR(~chi_20 -> ~chi_10   Z )
     6.11852452E-01    2     1000022        25   # BR(~chi_20 -> ~chi_10   h )
#
#         PDG            Width
DECAY   1000025     1.50551274E+01   # neutralino3 decays
#          BR         NDA      ID1       ID2
     5.97313283E-02    2     1000022        23   # BR(~chi_30 -> ~chi_10   Z )
     2.77872705E-01    2     1000023        23   # BR(~chi_30 -> ~chi_20   Z )
     2.85967485E-01    2     1000024       -24   # BR(~chi_30 -> ~chi_1+   W-)
     2.85967485E-01    2    -1000024        24   # BR(~chi_30 -> ~chi_1-   W+)
     5.11000469E-02    2     1000022        25   # BR(~chi_30 -> ~chi_10   h )
     8.12557991E-03    2     1000022        35   # BR(~chi_30 -> ~chi_10   H )
     9.27104697E-03    2     1000022        36   # BR(~chi_30 -> ~chi_10   A )
     2.14414950E-02    2     1000023        25   # BR(~chi_30 -> ~chi_20   h )
     4.27516226E-05    2     1000002        -2   # BR(~chi_30 -> ~u_L      ub)
     4.27516226E-05    2    -1000002         2   # BR(~chi_30 -> ~u_L*     u )
     8.34172899E-05    2     1000001        -1   # BR(~chi_30 -> ~d_L      db)
     8.34172899E-05    2    -1000001         1   # BR(~chi_30 -> ~d_L*     d )
     4.27516226E-05    2     1000004        -4   # BR(~chi_30 -> ~c_L      cb)
     4.27516226E-05    2    -1000004         4   # BR(~chi_30 -> ~c_L*     c )
     8.34172899E-05    2     1000003        -3   # BR(~chi_30 -> ~s_L      sb)
     8.34172899E-05    2    -1000003         3   # BR(~chi_30 -> ~s_L*     s )
#
#         PDG            Width
DECAY   1000035     1.57555418E+01   # neutralino4 decays
#          BR         NDA      ID1       ID2
     4.70257585E-02    2     1000022        23   # BR(~chi_40 -> ~chi_10   Z )
     2.03892228E-02    2     1000023        23   # BR(~chi_40 -> ~chi_20   Z )
     2.82426926E-01    2     1000024       -24   # BR(~chi_40 -> ~chi_1+   W-)
     2.82426926E-01    2    -1000024        24   # BR(~chi_40 -> ~chi_1-   W+)
     5.93924563E-02    2     1000022        25   # BR(~chi_40 -> ~chi_10   h )
     8.85062596E-03    2     1000022        35   # BR(~chi_40 -> ~chi_10   H )
     7.76738975E-03    2     1000022        36   # BR(~chi_40 -> ~chi_10   A )
     2.85260740E-01    2     1000023        25   # BR(~chi_40 -> ~chi_20   h )
     7.02290157E-04    2     1000002        -2   # BR(~chi_40 -> ~u_L      ub)
     7.02290157E-04    2    -1000002         2   # BR(~chi_40 -> ~u_L*     u )
     8.56568715E-04    2     1000001        -1   # BR(~chi_40 -> ~d_L      db)
     8.56568715E-04    2    -1000001         1   # BR(~chi_40 -> ~d_L*     d )
     7.02290157E-04    2     1000004        -4   # BR(~chi_40 -> ~c_L      cb)
     7.02290157E-04    2    -1000004         4   # BR(~chi_40 -> ~c_L*     c )
     8.56568715E-04    2     1000003        -3   # BR(~chi_40 -> ~s_L      sb)
     8.56568715E-04    2    -1000003         3   # BR(~chi_40 -> ~s_L*     s )
#
#         PDG            Width
DECAY        25     4.27563508E-03   # h decays
#          BR         NDA      ID1       ID2
     6.23590175E-01    2           5        -5   # BR(h -> b       bb     )
     6.15773577E-02    2         -15        15   # BR(h -> tau+    tau-   )
     2.17960264E-04    2         -13        13   # BR(h -> mu+     mu-    )
     4.06344349E-04    2           3        -3   # BR(h -> s       sb     )
     1.74840045E-02    2           4        -4   # BR(h -> c       cb     )
     6.72408857E-02    2          21        21   # BR(h -> g       g      )
     2.21946881E-03    2          22        22   # BR(h -> gam     gam    )
     1.48928660E-03    2          22        23   # BR(h -> Z       gam    )
     2.00629053E-01    2          24       -24   # BR(h -> W+      W-     )
     2.51417997E-02    2          23        23   # BR(h -> Z       Z      )
     3.66451421E-06    2     1000022   1000022   # BR(h -> ~chi_10 ~chi_10)
#
#         PDG            Width
DECAY        35     3.50426498E+01   # H decays
#          BR         NDA      ID1       ID2
     8.19937915E-01    2           5        -5   # BR(H -> b       bb     )
     1.76937302E-01    2         -15        15   # BR(H -> tau+    tau-   )
     6.25539249E-04    2         -13        13   # BR(H -> mu+     mu-    )
     7.06475705E-04    2           3        -3   # BR(H -> s       sb     )
     1.44093795E-08    2           4        -4   # BR(H -> c       cb     )
     1.62547605E-03    2           6        -6   # BR(H -> t       tb     )
     2.95066655E-05    2          21        21   # BR(H -> g       g      )
     8.45672572E-09    2          22        22   # BR(H -> gam     gam    )
     1.57513898E-08    2          23        22   # BR(H -> Z       gam    )
     3.06551479E-06    2          24       -24   # BR(H -> W+      W-     )
     1.52850496E-06    2          23        23   # BR(H -> Z       Z      )
     7.92515596E-06    2          25        25   # BR(H -> h       h      )
     2.06418468E-24    2          36        36   # BR(H -> A       A      )
     7.57776451E-20    2          23        36   # BR(H -> Z       A      )
     4.12027768E-05    2     1000022   1000022   # BR(H -> ~chi_10 ~chi_10)
     8.40247424E-05    2     1000022   1000023   # BR(H -> ~chi_10 ~chi_20)
#
#         PDG            Width
DECAY        36     3.50448838E+01   # A decays
#          BR         NDA      ID1       ID2
     8.19905133E-01    2           5        -5   # BR(A -> b       bb     )
     1.76925163E-01    2         -15        15   # BR(A -> tau+    tau-   )
     6.25494366E-04    2         -13        13   # BR(A -> mu+     mu-    )
     7.06458886E-04    2           3        -3   # BR(A -> s       sb     )
     1.43185097E-08    2           4        -4   # BR(A -> c       cb     )
     1.63330944E-03    2           6        -6   # BR(A -> t       tb     )
     5.58160189E-05    2          21        21   # BR(A -> g       g      )
     4.25199858E-08    2          22        22   # BR(A -> gam     gam    )
     3.56180961E-08    2          23        22   # BR(A -> Z       gam    )
     3.03949352E-06    2          23        25   # BR(A -> Z       h      )
     4.15538363E-05    2     1000022   1000022   # BR(A -> ~chi_10 ~chi_10)
     1.03938947E-04    2     1000022   1000023   # BR(A -> ~chi_10 ~chi_20)
#
#         PDG            Width
DECAY        37     3.08570700E+01   # H+ decays
#          BR         NDA      ID1       ID2
     1.27491507E-03    2           4        -5   # BR(H+ -> c       bb     )
     2.01107036E-01    2         -15        16   # BR(H+ -> tau+    nu_tau )
     7.10986018E-04    2         -13        14   # BR(H+ -> mu+     nu_mu  )
     8.15943441E-06    2           2        -5   # BR(H+ -> u       bb     )
     3.83597596E-05    2           2        -3   # BR(H+ -> u       sb     )
     7.88982254E-04    2           4        -3   # BR(H+ -> c       sb     )
     7.95858148E-01    2           6        -5   # BR(H+ -> t       bb     )
     3.46575830E-06    2          24        25   # BR(H+ -> W+      h      )
     5.94687215E-13    2          24        36   # BR(H+ -> W+      A      )
     2.09947806E-04    2     1000024   1000022   # BR(H+ -> ~chi_1+ ~chi_10)
