#
#                              ======================
#                              | THE SUSYHIT OUTPUT |
#                              ======================
#
#
#              ------------------------------------------------------
#              |     This is the output of the SUSY-HIT package     |
#              |  created by A.Djouadi, M.Muehlleitner and M.Spira. |
#              |  In case of problems with SUSY-HIT email to        |
#              |           margarete.muehlleitner@cern.ch           |
#              |           michael.spira@psi.ch                     |
#              |           abdelhak.djouadi@cern.ch                 |
#              ------------------------------------------------------
#
#              ------------------------------------------------------
#              |  SUSY Les Houches Accord - MSSM Spectrum + Decays  |
#              |              based on the decay programs           |
#              |                                                    |
#              |                     SDECAY 1.3b                    |
#              |                                                    |
#              |  Authors: M.Muhlleitner, A.Djouadi and Y.Mambrini  |
#              |  Ref.:    Comput.Phys.Commun.168(2005)46           |
#              |           [hep-ph/0311167]                         |
#              |                                                    |
#              |                     HDECAY 3.4                     |
#              |                                                    |
#              |  By: A.Djouadi,J.Kalinowski,M.Muhlleitner,M.Spira  |
#              |  Ref.:    Comput.Phys.Commun.108(1998)56           |
#              |           [hep-ph/9704448]                         |
#              |                                                    |
#              |                                                    |
#              |  If not stated otherwise all DRbar couplings and   |
#              |  soft SUSY breaking masses are given at the scale  |
#              |  Q=  0.91187600E+02
#              |                                                    |
#              ------------------------------------------------------
#
#
BLOCK DCINFO  # Decay Program information
     1   SDECAY/HDECAY # decay calculator
     2   1.3b  /3.4    # version number
#
BLOCK SPINFO  # Spectrum calculator information
     1   SuSpect     # RGE +Spectrum calculator            
     2   2.41         # version number                     
#
BLOCK MODSEL  # Model selection
     1     0   # #general MSSM low scale                           
#
BLOCK SMINPUTS  # Standard Model inputs
         1     1.27934000E+02   # alpha_em^-1(M_Z)^MSbar
         2     1.16639000E-05   # G_F [GeV^-2]
         3     1.17200000E-01   # alpha_S(M_Z)^MSbar
         4     9.11870000E+01   # M_Z pole mass
         5     4.25000000E+00   # mb(mb)^MSbar
         6     1.72500000E+02   # mt pole mass
         7     1.77700000E+00   # mtau pole mass
#
BLOCK MINPAR  # Input parameters - minimal models
#
BLOCK EXTPAR  # Input parameters - non-minimal models
         0     9.11876000E+01   # EWSB                
         1     1.34000000E+03   # M_1                 
         2     2.50000000E+03   # M_2                 
         3     2.50000000E+03   # M_3                 
        11     0.00000000E+00   # A_t                 
        12     0.00000000E+00   # A_b                 
        13     0.00000000E+00   # A_tau               
        14     0.00000000E+00   # A_u                 
        15     0.00000000E+00   # A_d                 
        16     0.00000000E+00   # A_e                 
        23     2.50000000E+03   # mu(EWSB)            
        25     1.50000000E+00   # tanbeta(in)         
        26     2.00000000E+03   # MA_pole             
        31     2.50000000E+03   # M_eL                
        32     2.50000000E+03   # M_muL               
        33     2.50000000E+03   # M_tauL              
        34     2.50000000E+03   # M_eR                
        35     2.50000000E+03   # M_muR               
        36     2.50000000E+03   # M_tauR              
        41     1.35000000E+03   # M_q1L               
        42     1.35000000E+03   # M_q2L               
        43     1.35000000E+03   # M_q3L               
        44     2.50000000E+03   # M_uR                
        45     2.50000000E+03   # M_cR                
        46     2.50000000E+03   # M_tR                
        47     1.35000000E+03   # M_dR                
        48     1.35000000E+03   # M_sR                
        49     1.35000000E+03   # M_bR                
#
BLOCK MASS  # Mass Spectrum
# PDG code           mass       particle
        24     8.05318611E+01   # W+
        25     1.26000000E+02   # h
        35     2.00355612E+03   # H
        36     2.00000000E+03   # A
        37     2.00132252E+03   # H+
         5     4.87877839E+00   # b-quark pole mass calculated from mb(mb)_Msbar
   1000001     1.35049743E+03   # ~d_L
   2000001     1.35009426E+03   # ~d_R
   1000002     1.34959668E+03   # ~u_L
   2000002     2.49989820E+03   # ~u_R
   1000003     1.35049743E+03   # ~s_L
   2000003     1.35009426E+03   # ~s_R
   1000004     1.34959668E+03   # ~c_L
   2000004     2.49989820E+03   # ~c_R
   1000005     1.34658472E+03   # ~b_1
   2000005     1.35400207E+03   # ~b_2
   1000006     1.35287126E+03   # ~t_1
   2000006     2.50756197E+03   # ~t_2
   1000011     2.50016686E+03   # ~e_L
   2000011     2.50015269E+03   # ~e_R
   1000012     2.49968042E+03   # ~nu_eL
   1000013     2.50016686E+03   # ~mu_L
   2000013     2.50015269E+03   # ~mu_R
   1000014     2.49968042E+03   # ~nu_muL
   1000015     2.49882501E+03   # ~tau_1
   2000015     2.50149509E+03   # ~tau_2
   1000016     2.49968042E+03   # ~nu_tauL
   1000021     2.50000000E+03   # ~g
   1000022     1.33836948E+03   # ~chi_10
   1000023     2.42292409E+03   # ~chi_20
   1000025    -2.50006855E+03   # ~chi_30
   1000035     2.57877498E+03   # ~chi_40
   1000024     2.42207255E+03   # ~chi_1+
   1000037     2.57802474E+03   # ~chi_2+
   1000039     1.01000000E-09   # ~gravitino
#
BLOCK NMIX  # Neutralino Mixing Matrix
  1  1     9.99281422E-01   # N_11
  1  2    -2.50342556E-03   # N_12
  1  3     2.83098433E-02   # N_13
  1  4    -2.50783987E-02   # N_14
  2  1     2.83409365E-02   # N_21
  2  2     7.10692503E-01   # N_22
  2  3    -4.98601727E-01   # N_23
  2  4     4.95488926E-01   # N_24
  3  1     2.27619647E-03   # N_31
  3  2    -3.12004576E-03   # N_32
  3  3    -7.07053037E-01   # N_33
  3  4    -7.07149975E-01   # N_34
  4  1     2.50649295E-02   # N_41
  4  2    -7.03491411E-01   # N_42
  4  3    -5.00670424E-01   # N_43
  4  4     5.03786374E-01   # N_44
#
BLOCK UMIX  # Chargino Mixing Matrix U
  1  1    -7.04897878E-01   # U_11
  1  2     7.09308806E-01   # U_12
  2  1     7.09308806E-01   # U_21
  2  2     7.04897878E-01   # U_22
#
BLOCK VMIX  # Chargino Mixing Matrix V
  1  1    -7.09308806E-01   # V_11
  1  2     7.04897878E-01   # V_12
  2  1     7.04897878E-01   # V_21
  2  2     7.09308806E-01   # V_22
#
BLOCK STOPMIX  # Stop Mixing Matrix
  1  1     9.98342660E-01   # cos(theta_t)
  1  2     5.75493981E-02   # sin(theta_t)
  2  1    -5.75493981E-02   # -sin(theta_t)
  2  2     9.98342660E-01   # cos(theta_t)
#
BLOCK SBOTMIX  # Sbottom Mixing Matrix
  1  1     6.87620737E-01   # cos(theta_b)
  1  2     7.26070053E-01   # sin(theta_b)
  2  1    -7.26070053E-01   # -sin(theta_b)
  2  2     6.87620737E-01   # cos(theta_b)
#
BLOCK STAUMIX  # Stau Mixing Matrix
  1  1     7.05229154E-01   # cos(theta_tau)
  1  2     7.08979436E-01   # sin(theta_tau)
  2  1    -7.08979436E-01   # -sin(theta_tau)
  2  2     7.05229154E-01   # cos(theta_tau)
#
BLOCK ALPHA  # Higgs mixing
          -5.89682818E-01   # Mixing angle in the neutral Higgs boson sector
#
BLOCK HMIX Q=  9.11876000E+01  # DRbar Higgs Parameters
         1     2.50000000E+03   # mu(Q)               
         2     1.49999980E+00   # tanbeta(Q)          
         3     2.52179666E+02   # vev(Q)              
         4     3.20260642E+06   # MA^2(Q)             
#
BLOCK GAUGE Q=  9.11876000E+01  # The gauge couplings
     1     3.53353893E-01   # gprime(Q) DRbar
     2     6.30664057E-01   # g(Q) DRbar
     3     1.09558950E+00   # g3(Q) DRbar
#
BLOCK AU Q=  9.11876000E+01  # The trilinear couplings
  1  1     0.00000000E+00   # A_u(Q) DRbar
  2  2     0.00000000E+00   # A_c(Q) DRbar
  3  3     0.00000000E+00   # A_t(Q) DRbar
#
BLOCK AD Q=  9.11876000E+01  # The trilinear couplings
  1  1     0.00000000E+00   # A_d(Q) DRbar
  2  2     0.00000000E+00   # A_s(Q) DRbar
  3  3     0.00000000E+00   # A_b(Q) DRbar
#
BLOCK AE Q=  9.11876000E+01  # The trilinear couplings
  1  1     0.00000000E+00   # A_e(Q) DRbar
  2  2     0.00000000E+00   # A_mu(Q) DRbar
  3  3     0.00000000E+00   # A_tau(Q) DRbar
#
BLOCK Yu Q=  9.11876000E+01  # The Yukawa couplings
  1  1     0.00000000E+00   # y_u(Q) DRbar
  2  2     0.00000000E+00   # y_c(Q) DRbar
  3  3     1.03568736E+00   # y_t(Q) DRbar
#
BLOCK Yd Q=  9.11876000E+01  # The Yukawa couplings
  1  1     0.00000000E+00   # y_d(Q) DRbar
  2  2     0.00000000E+00   # y_s(Q) DRbar
  3  3     2.69618572E-02   # y_b(Q) DRbar
#
BLOCK Ye Q=  9.11876000E+01  # The Yukawa couplings
  1  1     0.00000000E+00   # y_e(Q) DRbar
  2  2     0.00000000E+00   # y_mu(Q) DRbar
  3  3     1.79970558E-02   # y_tau(Q) DRbar
#
BLOCK MSOFT Q=  9.11876000E+01  # The soft SUSY breaking masses at the scale Q
         1     1.34000000E+03   # M_1                 
         2     2.50000000E+03   # M_2                 
         3     2.50000000E+03   # M_3                 
        14     0.00000000E+00   # A_u                 
        15     0.00000000E+00   # A_d                 
        16     0.00000000E+00   # A_e                 
        21    -3.81724008E+06   # M^2_Hd              
        22    -5.27055684E+06   # M^2_Hu              
        31     2.50000000E+03   # M_eL                
        32     2.50000000E+03   # M_muL               
        33     2.50000000E+03   # M_tauL              
        34     2.50000000E+03   # M_eR                
        35     2.50000000E+03   # M_muR               
        36     2.50000000E+03   # M_tauR              
        41     1.35000000E+03   # M_q1L               
        42     1.35000000E+03   # M_q2L               
        43     1.35000000E+03   # M_q3L               
        44     2.50000000E+03   # M_uR                
        45     2.50000000E+03   # M_cR                
        46     2.50000000E+03   # M_tR                
        47     1.35000000E+03   # M_dR                
        48     1.35000000E+03   # M_sR                
        49     1.35000000E+03   # M_bR                
#
#
#
#                             =================
#                             |The decay table|
#                             =================
#
# - The QCD corrections to the decays gluino -> squark  + quark
#                                     squark -> gaugino + quark_prime
#                                     squark -> squark_prime + Higgs
#                                     squark -> gluino  + quark
#   are included.
#
# - The multi-body decays for the inos, stops and sbottoms are included.
#
# - The loop induced decays for the gluino, neutralinos and stops
#   are included.
#
# - The SUSY decays of the top quark are included.
#
# - Possible decays of the NLSP in GMSB models are included.
#
#
#         PDG            Width
DECAY         6     1.37496384E+00   # top decays
#          BR         NDA      ID1       ID2
     1.00000000E+00    2           5        24   # BR(t ->  b    W+)
#
#         PDG            Width
DECAY   1000021     1.60559428E+02   # gluino decays
#          BR         NDA      ID1       ID2
     5.56586212E-02    2     1000001        -1   # BR(~g -> ~d_L  db)
     5.56586212E-02    2    -1000001         1   # BR(~g -> ~d_L* d )
     5.56860077E-02    2     2000001        -1   # BR(~g -> ~d_R  db)
     5.56860077E-02    2    -2000001         1   # BR(~g -> ~d_R* d )
     5.57198052E-02    2     1000002        -2   # BR(~g -> ~u_L  ub)
     5.57198052E-02    2    -1000002         2   # BR(~g -> ~u_L* u )
     7.36032099E-10    2     2000002        -2   # BR(~g -> ~u_R  ub)
     7.36032099E-10    2    -2000002         2   # BR(~g -> ~u_R* u )
     5.56586212E-02    2     1000003        -3   # BR(~g -> ~s_L  sb)
     5.56586212E-02    2    -1000003         3   # BR(~g -> ~s_L* s )
     5.56860077E-02    2     2000003        -3   # BR(~g -> ~s_R  sb)
     5.56860077E-02    2    -2000003         3   # BR(~g -> ~s_R* s )
     5.57198052E-02    2     1000004        -4   # BR(~g -> ~c_L  cb)
     5.57198052E-02    2    -1000004         4   # BR(~g -> ~c_L* c )
     7.36032099E-10    2     2000004        -4   # BR(~g -> ~c_R  cb)
     7.36032099E-10    2    -2000004         4   # BR(~g -> ~c_R* c )
     5.55451747E-02    2     1000005        -5   # BR(~g -> ~b_1  bb)
     5.55451747E-02    2    -1000005         5   # BR(~g -> ~b_1* b )
     5.53391826E-02    2     2000005        -5   # BR(~g -> ~b_2  bb)
     5.53391826E-02    2    -2000005         5   # BR(~g -> ~b_2* b )
     5.49864298E-02    2     1000006        -6   # BR(~g -> ~t_1  tb)
     5.49864298E-02    2    -1000006         6   # BR(~g -> ~t_1* t )
     6.86447918E-07    2     1000039        21   # BR(~g -> ~G g)
#
#         PDG            Width
DECAY   1000006     1.01223776E-08   # stop1 decays
#          BR         NDA      ID1       ID2
     4.80973485E-04    2     1000022         4   # BR(~t_1 -> ~chi_10 c )
     3.70815964E-06    2     1000022         2   # BR(~t_1 -> ~chi_10 u )
#           BR         NDA      ID1       ID2       ID3
     3.45357585E-01    3     1000005        -1         2   # BR(~t_1 -> ~b_1     db u)
     3.45357585E-01    3     1000005        -3         4   # BR(~t_1 -> ~b_1     sb c)
     7.85617581E-02    3     1000005       -15        16   # BR(~t_1 -> ~b_1     tau+ nu_tau)
     1.15119195E-01    3     1000005       -11        12   # BR(~t_1 -> ~b_1     e+   nu_e)
     1.15119195E-01    3     1000005       -13        14   # BR(~t_1 -> ~b_1     mu+  nu_mu)
#
#         PDG            Width
DECAY   2000006     1.04892901E+01   # stop2 decays
#          BR         NDA      ID1       ID2
     2.54245431E-01    2     1000022         6   # BR(~t_2 -> ~chi_10 t )
     8.98423862E-03    2     1000024         5   # BR(~t_2 -> ~chi_1+ b )
     9.12129570E-02    2     1000006        25   # BR(~t_2 -> ~t_1    h )
     2.96266422E-01    2     1000006        23   # BR(~t_2 -> ~t_1    Z )
     1.66557903E-01    2     1000005        24   # BR(~t_2 -> ~b_1    W+)
     1.82733049E-01    2     2000005        24   # BR(~t_2 -> ~b_2    W+)
#
#         PDG            Width
DECAY   1000005     3.97987741E-05   # sbottom1 decays
#          BR         NDA      ID1       ID2
     1.00000000E+00    2     1000022         5   # BR(~b_1 -> ~chi_10 b )
#
#         PDG            Width
DECAY   2000005     3.25897142E-04   # sbottom2 decays
#          BR         NDA      ID1       ID2
     1.00000000E+00    2     1000022         5   # BR(~b_2 -> ~chi_10 b )
#
#         PDG            Width
DECAY   1000002     3.00248632E-04   # sup_L decays
#          BR         NDA      ID1       ID2
     1.00000000E+00    2     1000022         2   # BR(~u_L -> ~chi_10 u)
#
#         PDG            Width
DECAY   2000002     2.86535548E+00   # sup_R decays
#          BR         NDA      ID1       ID2
     9.99986527E-01    2     1000022         2   # BR(~u_R -> ~chi_10 u)
     1.34730756E-05    2     1000023         2   # BR(~u_R -> ~chi_20 u)
#
#         PDG            Width
DECAY   1000001     3.46977147E-04   # sdown_L decays
#          BR         NDA      ID1       ID2
     1.00000000E+00    2     1000022         1   # BR(~d_L -> ~chi_10 d)
#
#         PDG            Width
DECAY   2000001     1.29847647E-03   # sdown_R decays
#          BR         NDA      ID1       ID2
     1.00000000E+00    2     1000022         1   # BR(~d_R -> ~chi_10 d)
#
#         PDG            Width
DECAY   1000004     3.00248632E-04   # scharm_L decays
#          BR         NDA      ID1       ID2
     1.00000000E+00    2     1000022         4   # BR(~c_L -> ~chi_10 c)
#
#         PDG            Width
DECAY   2000004     2.86535548E+00   # scharm_R decays
#          BR         NDA      ID1       ID2
     9.99986527E-01    2     1000022         4   # BR(~c_R -> ~chi_10 c)
     1.34730756E-05    2     1000023         4   # BR(~c_R -> ~chi_20 c)
#
#         PDG            Width
DECAY   1000003     3.46977147E-04   # sstrange_L decays
#          BR         NDA      ID1       ID2
     1.00000000E+00    2     1000022         3   # BR(~s_L -> ~chi_10 s)
#
#         PDG            Width
DECAY   2000003     1.29847647E-03   # sstrange_R decays
#          BR         NDA      ID1       ID2
     1.00000000E+00    2     1000022         3   # BR(~s_R -> ~chi_10 s)
#
#         PDG            Width
DECAY   1000011     1.62068486E+00   # selectron_L decays
#          BR         NDA      ID1       ID2
     9.65138491E-01    2     1000022        11   # BR(~e_L -> ~chi_10 e-)
     1.19244675E-02    2     1000023        11   # BR(~e_L -> ~chi_20 e-)
     1.28448012E-13    2     1000025        11   # BR(~e_L -> ~chi_30 e-)
     2.29370417E-02    2    -1000024        12   # BR(~e_L -> ~chi_1- nu_e)
#
#         PDG            Width
DECAY   2000011     6.31301421E+00   # selectron_R decays
#          BR         NDA      ID1       ID2
     9.99994153E-01    2     1000022        11   # BR(~e_R -> ~chi_10 e-)
     5.84657429E-06    2     1000023        11   # BR(~e_R -> ~chi_20 e-)
     4.61792083E-14    2     1000025        11   # BR(~e_R -> ~chi_30 e-)
#
#         PDG            Width
DECAY   1000013     1.62068486E+00   # smuon_L decays
#          BR         NDA      ID1       ID2
     9.65138491E-01    2     1000022        13   # BR(~mu_L -> ~chi_10 mu-)
     1.19244675E-02    2     1000023        13   # BR(~mu_L -> ~chi_20 mu-)
     1.28448012E-13    2     1000025        13   # BR(~mu_L -> ~chi_30 mu-)
     2.29370417E-02    2    -1000024        14   # BR(~mu_L -> ~chi_1- nu_mu)
#
#         PDG            Width
DECAY   2000013     6.31301421E+00   # smuon_R decays
#          BR         NDA      ID1       ID2
     9.99994153E-01    2     1000022        13   # BR(~mu_R -> ~chi_10 mu-)
     5.84657429E-06    2     1000023        13   # BR(~mu_R -> ~chi_20 mu-)
     4.61792083E-14    2     1000025        13   # BR(~mu_R -> ~chi_30 mu-)
#
#         PDG            Width
DECAY   1000015     3.98112725E+00   # stau_1 decays
#          BR         NDA      ID1       ID2
     9.92751724E-01    2     1000022        15   # BR(~tau_1 -> ~chi_10  tau-)
     2.46710535E-03    2     1000023        15   # BR(~tau_1 -> ~chi_20  tau-)
     4.75355111E-03    2    -1000024        16   # BR(~tau_1 -> ~chi_1-  nu_tau)
     2.76195641E-05    2     1000039        15   # BR(~tau_1 -> ~G       tau-)
#
#         PDG            Width
DECAY   2000015     3.95260723E+00   # stau_2 decays
#          BR         NDA      ID1       ID2
     9.92984046E-01    2     1000022        15   # BR(~tau_2 -> ~chi_10  tau-)
     2.40660400E-03    2     1000023        15   # BR(~tau_2 -> ~chi_20  tau-)
     4.60935006E-03    2    -1000024        16   # BR(~tau_2 -> ~chi_1-  nu_tau)
#
#         PDG            Width
DECAY   1000012     1.64625087E+00   # snu_eL decays
#          BR         NDA      ID1       ID2
     9.66806137E-01    2     1000022        12   # BR(~nu_eL -> ~chi_10 nu_e)
     1.06047758E-02    2     1000023        12   # BR(~nu_eL -> ~chi_20 nu_e)
     2.25890870E-02    2     1000024        11   # BR(~nu_eL -> ~chi_1+ e-)
#
#         PDG            Width
DECAY   1000014     1.64625087E+00   # snu_muL decays
#          BR         NDA      ID1       ID2
     9.66806137E-01    2     1000022        14   # BR(~nu_muL -> ~chi_10 nu_mu)
     1.06047758E-02    2     1000023        14   # BR(~nu_muL -> ~chi_20 nu_mu)
     2.25890870E-02    2     1000024        13   # BR(~nu_muL -> ~chi_1+ mu-)
#
#         PDG            Width
DECAY   1000016     1.64622327E+00   # snu_tauL decays
#          BR         NDA      ID1       ID2
     9.66822348E-01    2     1000022        16   # BR(~nu_tauL -> ~chi_10 nu_tau)
     1.06049536E-02    2     1000023        16   # BR(~nu_tauL -> ~chi_20 nu_tau)
     2.25726986E-02    2     1000024        15   # BR(~nu_tauL -> ~chi_1+ tau-)
#
#         PDG            Width
DECAY   1000024     6.92268211E+01   # chargino1+ decays
#          BR         NDA      ID1       ID2
     1.02761753E-01    2     1000002        -1   # BR(~chi_1+ -> ~u_L     db)
     1.01375547E-01    2    -1000001         2   # BR(~chi_1+ -> ~d_L*    u )
     1.02761753E-01    2     1000004        -3   # BR(~chi_1+ -> ~c_L     sb)
     1.01375547E-01    2    -1000003         4   # BR(~chi_1+ -> ~s_L*    c )
     1.35158823E-01    2     1000006        -5   # BR(~chi_1+ -> ~t_1     bb)
     2.09259425E-01    2    -1000005         6   # BR(~chi_1+ -> ~b_1*    t )
     2.28200957E-01    2    -2000005         6   # BR(~chi_1+ -> ~b_2*    t )
     1.91051782E-02    2     1000022        24   # BR(~chi_1+ -> ~chi_10  W+)
     1.01401608E-06    2     1000039        24   # BR(~chi_1+ -> ~G       W+)
     3.44990910E-09    2     1000039        37   # BR(~chi_1+ -> ~G       H+)
#
#         PDG            Width
DECAY   1000037     7.12714715E+01   # chargino2+ decays
#          BR         NDA      ID1       ID2
     1.13820091E-01    2     1000002        -1   # BR(~chi_2+ -> ~u_L     db)
     1.15142432E-01    2    -1000001         2   # BR(~chi_2+ -> ~d_L*    u )
     1.13820091E-01    2     1000004        -3   # BR(~chi_2+ -> ~c_L     sb)
     1.15142432E-01    2    -1000003         4   # BR(~chi_2+ -> ~s_L*    c )
     1.24148903E-01    2     1000006        -5   # BR(~chi_2+ -> ~t_1     bb)
     2.15120320E-03    2     2000006        -5   # BR(~chi_2+ -> ~t_2     bb)
     1.65188955E-01    2    -1000005         6   # BR(~chi_2+ -> ~b_1*    t )
     1.98765496E-01    2    -2000005         6   # BR(~chi_2+ -> ~b_2*    t )
     2.54754080E-04    2     1000012       -11   # BR(~chi_2+ -> ~nu_eL   e+  )
     2.54754080E-04    2     1000014       -13   # BR(~chi_2+ -> ~nu_muL  mu+ )
     2.54563161E-04    2     1000016       -15   # BR(~chi_2+ -> ~nu_tau1 tau+)
     2.54807829E-04    2    -1000011        12   # BR(~chi_2+ -> ~e_L+    nu_e)
     2.54807829E-04    2    -1000013        14   # BR(~chi_2+ -> ~mu_L+   nu_mu)
     1.23697989E-04    2    -1000015        16   # BR(~chi_2+ -> ~tau_1+  nu_tau)
     1.30895429E-04    2    -2000015        16   # BR(~chi_2+ -> ~tau_2+  nu_tau)
     1.62066349E-02    2     1000024        23   # BR(~chi_2+ -> ~chi_1+  Z )
     1.52960013E-02    2     1000022        24   # BR(~chi_2+ -> ~chi_10  W+)
     1.87878840E-02    2     1000023        24   # BR(~chi_2+ -> ~chi_20  W+)
     2.37638046E-07    2     1000024        25   # BR(~chi_2+ -> ~chi_1+  h )
     1.34839640E-06    2     1000039        24   # BR(~chi_2+ -> ~G       W+)
     1.12120157E-08    2     1000039        37   # BR(~chi_2+ -> ~G       H+)
#
#         PDG            Width
DECAY   1000022     4.82124827E-06   # neutralino1 decays
#          BR         NDA      ID1       ID2
     7.61815553E-01    2     1000039        22   # BR(~chi_10 -> ~G        gam)
     2.38171831E-01    2     1000039        23   # BR(~chi_10 -> ~G        Z)
     1.26159060E-05    2     1000039        25   # BR(~chi_10 -> ~G        h)
#
#         PDG            Width
DECAY   1000023     6.97149103E+01   # neutralino2 decays
#          BR         NDA      ID1       ID2
     6.16540532E-05    2     1000022        23   # BR(~chi_20 -> ~chi_10   Z )
     1.94670879E-02    2     1000022        25   # BR(~chi_20 -> ~chi_10   h )
     5.37624025E-02    2     1000002        -2   # BR(~chi_20 -> ~u_L      ub)
     5.37624025E-02    2    -1000002         2   # BR(~chi_20 -> ~u_L*     u )
     5.21315393E-02    2     1000001        -1   # BR(~chi_20 -> ~d_L      db)
     5.21315393E-02    2    -1000001         1   # BR(~chi_20 -> ~d_L*     d )
     1.17461819E-05    2     2000001        -1   # BR(~chi_20 -> ~d_R      db)
     1.17461819E-05    2    -2000001         1   # BR(~chi_20 -> ~d_R*     d )
     5.37624025E-02    2     1000004        -4   # BR(~chi_20 -> ~c_L      cb)
     5.37624025E-02    2    -1000004         4   # BR(~chi_20 -> ~c_L*     c )
     5.21315393E-02    2     1000003        -3   # BR(~chi_20 -> ~s_L      sb)
     5.21315393E-02    2    -1000003         3   # BR(~chi_20 -> ~s_L*     s )
     1.17461819E-05    2     2000003        -3   # BR(~chi_20 -> ~s_R      sb)
     1.17461819E-05    2    -2000003         3   # BR(~chi_20 -> ~s_R*     s )
     2.24527354E-01    2     1000006        -6   # BR(~chi_20 -> ~t_1      tb)
     2.24527354E-01    2    -1000006         6   # BR(~chi_20 -> ~t_1*     t )
     3.06250568E-02    2     1000005        -5   # BR(~chi_20 -> ~b_1      bb)
     3.06250568E-02    2    -1000005         5   # BR(~chi_20 -> ~b_1*     b )
     3.00987319E-02    2     2000005        -5   # BR(~chi_20 -> ~b_2      bb)
     3.00987319E-02    2    -2000005         5   # BR(~chi_20 -> ~b_2*     b )
     1.87177473E-07    2     1000039        22   # BR(~chi_20 -> ~G        gam)
     8.12789602E-07    2     1000039        23   # BR(~chi_20 -> ~G        Z)
     1.21024529E-08    2     1000039        25   # BR(~chi_20 -> ~G        h)
     3.21663336E-09    2     1000039        35   # BR(~chi_20 -> ~G        H)
     1.36583382E-10    2     1000039        36   # BR(~chi_20 -> ~G        A)
#
#         PDG            Width
DECAY   1000025     4.01756824E+01   # neutralino3 decays
#          BR         NDA      ID1       ID2
     6.23860794E-02    2     1000022        23   # BR(~chi_30 -> ~chi_10   Z )
     2.23501507E-04    2     1000022        25   # BR(~chi_30 -> ~chi_10   h )
     1.40745587E-06    2     1000002        -2   # BR(~chi_30 -> ~u_L      ub)
     1.40745587E-06    2    -1000002         2   # BR(~chi_30 -> ~u_L*     u )
     2.36314277E-11    2     2000002        -2   # BR(~chi_30 -> ~u_R      ub)
     2.36314277E-11    2    -2000002         2   # BR(~chi_30 -> ~u_R*     u )
     2.43336450E-06    2     1000001        -1   # BR(~chi_30 -> ~d_L      db)
     2.43336450E-06    2    -1000001         1   # BR(~chi_30 -> ~d_L*     d )
     1.40015729E-07    2     2000001        -1   # BR(~chi_30 -> ~d_R      db)
     1.40015729E-07    2    -2000001         1   # BR(~chi_30 -> ~d_R*     d )
     1.40745587E-06    2     1000004        -4   # BR(~chi_30 -> ~c_L      cb)
     1.40745587E-06    2    -1000004         4   # BR(~chi_30 -> ~c_L*     c )
     2.36314277E-11    2     2000004        -4   # BR(~chi_30 -> ~c_R      cb)
     2.36314277E-11    2    -2000004         4   # BR(~chi_30 -> ~c_R*     c )
     2.43336450E-06    2     1000003        -3   # BR(~chi_30 -> ~s_L      sb)
     2.43336450E-06    2    -1000003         3   # BR(~chi_30 -> ~s_L*     s )
     1.40015729E-07    2     2000003        -3   # BR(~chi_30 -> ~s_R      sb)
     1.40015729E-07    2    -2000003         3   # BR(~chi_30 -> ~s_R*     s )
     4.68025997E-01    2     1000006        -6   # BR(~chi_30 -> ~t_1      tb)
     4.68025997E-01    2    -1000006         6   # BR(~chi_30 -> ~t_1*     t )
     2.93708899E-04    2     1000005        -5   # BR(~chi_30 -> ~b_1      bb)
     2.93708899E-04    2    -1000005         5   # BR(~chi_30 -> ~b_1*     b )
     3.67023559E-04    2     2000005        -5   # BR(~chi_30 -> ~b_2      bb)
     3.67023559E-04    2    -2000005         5   # BR(~chi_30 -> ~b_2*     b )
     2.29239232E-13    2     1000012       -12   # BR(~chi_30 -> ~nu_eL    nu_eb)
     2.29239232E-13    2    -1000012        12   # BR(~chi_30 -> ~nu_eL*   nu_e )
     2.29239232E-13    2     1000014       -14   # BR(~chi_30 -> ~nu_muL   nu_mub)
     2.29239232E-13    2    -1000014        14   # BR(~chi_30 -> ~nu_muL*  nu_mu )
     2.29239232E-13    2     1000016       -16   # BR(~chi_30 -> ~nu_tau1  nu_taub)
     2.29239232E-13    2    -1000016        16   # BR(~chi_30 -> ~nu_tau1* nu_tau )
     5.82308205E-13    2     1000039        22   # BR(~chi_30 -> ~G        gam)
     5.25588753E-08    2     1000039        23   # BR(~chi_30 -> ~G        Z)
     1.30663382E-06    2     1000039        25   # BR(~chi_30 -> ~G        h)
     8.49286027E-10    2     1000039        35   # BR(~chi_30 -> ~G        H)
     2.21634324E-08    2     1000039        36   # BR(~chi_30 -> ~G        A)
#
#         PDG            Width
DECAY   1000035     7.11503242E+01   # neutralino4 decays
#          BR         NDA      ID1       ID2
     7.01761555E-05    2     1000022        23   # BR(~chi_40 -> ~chi_10   Z )
     3.51700935E-11    2     1000023        23   # BR(~chi_40 -> ~chi_20   Z )
     1.84413337E-02    2     1000024       -24   # BR(~chi_40 -> ~chi_1+   W-)
     1.84413337E-02    2    -1000024        24   # BR(~chi_40 -> ~chi_1-   W+)
     1.60654794E-02    2     1000022        25   # BR(~chi_40 -> ~chi_10   h )
     1.88366710E-06    2     1000023        25   # BR(~chi_40 -> ~chi_20   h )
     5.67486357E-02    2     1000002        -2   # BR(~chi_40 -> ~u_L      ub)
     5.67486357E-02    2    -1000002         2   # BR(~chi_40 -> ~u_L*     u )
     1.02546998E-06    2     2000002        -2   # BR(~chi_40 -> ~u_R      ub)
     1.02546998E-06    2    -2000002         2   # BR(~chi_40 -> ~u_R*     u )
     5.82302842E-02    2     1000001        -1   # BR(~chi_40 -> ~d_L      db)
     5.82302842E-02    2    -1000001         1   # BR(~chi_40 -> ~d_L*     d )
     1.01814285E-05    2     2000001        -1   # BR(~chi_40 -> ~d_R      db)
     1.01814285E-05    2    -2000001         1   # BR(~chi_40 -> ~d_R*     d )
     5.67486357E-02    2     1000004        -4   # BR(~chi_40 -> ~c_L      cb)
     5.67486357E-02    2    -1000004         4   # BR(~chi_40 -> ~c_L*     c )
     1.02546998E-06    2     2000004        -4   # BR(~chi_40 -> ~c_R      cb)
     1.02546998E-06    2    -2000004         4   # BR(~chi_40 -> ~c_R*     c )
     5.82302842E-02    2     1000003        -3   # BR(~chi_40 -> ~s_L      sb)
     5.82302842E-02    2    -1000003         3   # BR(~chi_40 -> ~s_L*     s )
     1.01814285E-05    2     2000003        -3   # BR(~chi_40 -> ~s_R      sb)
     1.01814285E-05    2    -2000003         3   # BR(~chi_40 -> ~s_R*     s )
     1.75579225E-01    2     1000006        -6   # BR(~chi_40 -> ~t_1      tb)
     1.75579225E-01    2    -1000006         6   # BR(~chi_40 -> ~t_1*     t )
     2.99382685E-02    2     1000005        -5   # BR(~chi_40 -> ~b_1      bb)
     2.99382685E-02    2    -1000005         5   # BR(~chi_40 -> ~b_1*     b )
     4.00043901E-02    2     2000005        -5   # BR(~chi_40 -> ~b_2      bb)
     4.00043901E-02    2    -2000005         5   # BR(~chi_40 -> ~b_2*     b )
     1.22837960E-04    2     1000011       -11   # BR(~chi_40 -> ~e_L-     e+)
     1.22837960E-04    2    -1000011        11   # BR(~chi_40 -> ~e_L+     e-)
     2.03939099E-07    2     2000011       -11   # BR(~chi_40 -> ~e_R-     e+)
     2.03939099E-07    2    -2000011        11   # BR(~chi_40 -> ~e_R+     e-)
     1.22837960E-04    2     1000013       -13   # BR(~chi_40 -> ~mu_L-    mu+)
     1.22837960E-04    2    -1000013        13   # BR(~chi_40 -> ~mu_L+    mu-)
     2.03939099E-07    2     2000013       -13   # BR(~chi_40 -> ~mu_R-    mu+)
     2.03939099E-07    2    -2000013        13   # BR(~chi_40 -> ~mu_R+    mu-)
     5.95228520E-05    2     1000015       -15   # BR(~chi_40 -> ~tau_1-   tau+)
     5.95228520E-05    2    -1000015        15   # BR(~chi_40 -> ~tau_1+   tau-)
     6.33134361E-05    2     2000015       -15   # BR(~chi_40 -> ~tau_2-   tau+)
     6.33134361E-05    2    -2000015        15   # BR(~chi_40 -> ~tau_2+   tau-)
     1.34676307E-04    2     1000012       -12   # BR(~chi_40 -> ~nu_eL    nu_eb)
     1.34676307E-04    2    -1000012        12   # BR(~chi_40 -> ~nu_eL*   nu_e )
     1.34676307E-04    2     1000014       -14   # BR(~chi_40 -> ~nu_muL   nu_mub)
     1.34676307E-04    2    -1000014        14   # BR(~chi_40 -> ~nu_muL*  nu_mu )
     1.34676307E-04    2     1000016       -16   # BR(~chi_40 -> ~nu_tau1  nu_taub)
     1.34676307E-04    2    -1000016        16   # BR(~chi_40 -> ~nu_tau1* nu_tau )
     1.87558057E-07    2     1000039        22   # BR(~chi_40 -> ~G        gam)
     1.14239060E-06    2     1000039        23   # BR(~chi_40 -> ~G        Z)
     1.76306007E-08    2     1000039        25   # BR(~chi_40 -> ~G        h)
     1.08225506E-08    2     1000039        35   # BR(~chi_40 -> ~G        H)
     4.28956273E-10    2     1000039        36   # BR(~chi_40 -> ~G        A)
#
#         PDG            Width
DECAY        25     4.27531683E-03   # h decays
#          BR         NDA      ID1       ID2
     6.06458192E-01    2           5        -5   # BR(h -> b       bb     )
     6.13144158E-02    2         -15        15   # BR(h -> tau+    tau-   )
     2.17026301E-04    2         -13        13   # BR(h -> mu+     mu-    )
     4.59197668E-04    2           3        -3   # BR(h -> s       sb     )
     1.98546764E-02    2           4        -4   # BR(h -> c       cb     )
     6.60502924E-02    2          21        21   # BR(h -> g       g      )
     2.27148738E-03    2          22        22   # BR(h -> gam     gam    )
     1.60431944E-03    2          22        23   # BR(h -> Z       gam    )
     2.14063496E-01    2          24       -24   # BR(h -> W+      W-     )
     2.77068973E-02    2          23        23   # BR(h -> Z       Z      )
#
#         PDG            Width
DECAY        35     3.75397597E+01   # H decays
#          BR         NDA      ID1       ID2
     1.38622697E-03    2           5        -5   # BR(H -> b       bb     )
     2.48318729E-04    2         -15        15   # BR(H -> tau+    tau-   )
     8.77899159E-07    2         -13        13   # BR(H -> mu+     mu-    )
     1.12404200E-06    2           3        -3   # BR(H -> s       sb     )
     1.01212447E-05    2           4        -4   # BR(H -> c       cb     )
     9.96549973E-01    2           6        -6   # BR(H -> t       tb     )
     7.79542959E-04    2          21        21   # BR(H -> g       g      )
     2.60933456E-06    2          22        22   # BR(H -> gam     gam    )
     1.15849935E-06    2          23        22   # BR(H -> Z       gam    )
     1.96557379E-04    2          24       -24   # BR(H -> W+      W-     )
     9.80102918E-05    2          23        23   # BR(H -> Z       Z      )
     7.25479427E-04    2          25        25   # BR(H -> h       h      )
     5.07391486E-24    2          36        36   # BR(H -> A       A      )
     1.63451382E-11    2          23        36   # BR(H -> Z       A      )
     3.89392799E-12    2          24       -37   # BR(H -> W+      H-     )
     3.89392799E-12    2         -24        37   # BR(H -> W-      H+     )
#
#         PDG            Width
DECAY        36     3.80376850E+01   # A decays
#          BR         NDA      ID1       ID2
     1.38647356E-03    2           5        -5   # BR(A -> b       bb     )
     2.45183599E-04    2         -15        15   # BR(A -> tau+    tau-   )
     8.66812594E-07    2         -13        13   # BR(A -> mu+     mu-    )
     1.14272477E-06    2           3        -3   # BR(A -> s       sb     )
     1.00138991E-05    2           4        -4   # BR(A -> c       cb     )
     9.97218019E-01    2           6        -6   # BR(A -> t       tb     )
     9.42516283E-04    2          21        21   # BR(A -> g       g      )
     3.12631548E-06    2          22        22   # BR(A -> gam     gam    )
     1.34785294E-06    2          23        22   # BR(A -> Z       gam    )
     1.91309628E-04    2          23        25   # BR(A -> Z       h      )
#
#         PDG            Width
DECAY        37     3.72473137E+01   # H+ decays
#          BR         NDA      ID1       ID2
     2.18521098E-06    2           4        -5   # BR(H+ -> c       bb     )
     2.50551856E-04    2         -15        16   # BR(H+ -> tau+    nu_tau )
     8.85791320E-07    2         -13        14   # BR(H+ -> mu+     nu_mu  )
     1.38849427E-08    2           2        -5   # BR(H+ -> u       bb     )
     5.48558958E-08    2           2        -3   # BR(H+ -> u       sb     )
     1.09302453E-05    2           4        -3   # BR(H+ -> c       sb     )
     9.99539344E-01    2           6        -5   # BR(H+ -> t       bb     )
     1.96033905E-04    2          24        25   # BR(H+ -> W+      h      )
     1.42860199E-13    2          24        36   # BR(H+ -> W+      A      )
