#
#                              ======================
#                              | THE SUSYHIT OUTPUT |
#                              ======================
#
#
#              ------------------------------------------------------
#              |     This is the output of the SUSY-HIT package     |
#              |  created by A.Djouadi, M.Muehlleitner and M.Spira. |
#              |  In case of problems with SUSY-HIT email to        |
#              |           margarete.muehlleitner@cern.ch           |
#              |           michael.spira@psi.ch                     |
#              |           abdelhak.djouadi@cern.ch                 |
#              ------------------------------------------------------
#
#              ------------------------------------------------------
#              |  SUSY Les Houches Accord - MSSM Spectrum + Decays  |
#              |              based on the decay programs           |
#              |                                                    |
#              |                     SDECAY 1.3b                    |
#              |                                                    |
#              |  Authors: M.Muhlleitner, A.Djouadi and Y.Mambrini  |
#              |  Ref.:    Comput.Phys.Commun.168(2005)46           |
#              |           [hep-ph/0311167]                         |
#              |                                                    |
#              |                     HDECAY 3.4                     |
#              |                                                    |
#              |  By: A.Djouadi,J.Kalinowski,M.Muhlleitner,M.Spira  |
#              |  Ref.:    Comput.Phys.Commun.108(1998)56           |
#              |           [hep-ph/9704448]                         |
#              |                                                    |
#              |                                                    |
#              |  If not stated otherwise all DRbar couplings and   |
#              |  soft SUSY breaking masses are given at the scale  |
#              |  Q=  0.13782480E+04
#              |                                                    |
#              ------------------------------------------------------
#
#
BLOCK DCINFO  # Decay Program information
     1   SDECAY/HDECAY # decay calculator
     2   1.3b  /3.4    # version number
#
BLOCK SPINFO  # Spectrum calculator information
     1     SOFTSUSY    # spectrum calculator               
     2     3.4.0       # version number                    
#
BLOCK MODSEL  # Model selection
     1     0   #  nonUniversal                                     
#
BLOCK SMINPUTS  # Standard Model inputs
         1     1.27908970E+02   # alpha_em^-1(M_Z)^MSbar
         2     1.16637870E-05   # G_F [GeV^-2]
         3     1.18400000E-01   # alpha_S(M_Z)^MSbar
         4     9.11876000E+01   # M_Z pole mass
         5     4.18000000E+00   # mb(mb)^MSbar
         6     1.73200000E+02   # mt pole mass
         7     1.77700000E+00   # mtau pole mass
#
BLOCK MINPAR  # Input parameters - minimal models
         3     4.49700000E+01   # tanb                
#
BLOCK EXTPAR  # Input parameters - non-minimal models
         0    -1.00000000E+00   # Set                 
         1     9.27500000E+02   # M_1(MX)             
         2     8.90270000E+02   # M_2(MX)             
         3     2.59149000E+03   # M_3(MX)             
        11     1.99318000E+03   # At(MX)              
        12     3.66570000E+02   # Ab(MX)              
        13    -1.08942000E+03   # Atau(MX)            
        23    -3.64770000E+02   # mu(MX)              
        26     3.92634000E+03   # mA(pole)            
        31     1.46558000E+03   # meL(MX)             
        32     1.46558000E+03   # mmuL(MX)            
        33     9.05240000E+02   # mtauL(MX)           
        34     1.44156000E+03   # meR(MX)             
        35     1.44156000E+03   # mmuR(MX)            
        36     3.41728000E+03   # mtauR(MX)           
        41     2.64559000E+03   # mqL1(MX)            
        42     2.64559000E+03   # mqL2(MX)            
        43     9.21610000E+02   # mqL3(MX)            
        44     1.09556000E+03   # muR(MX)             
        45     1.09556000E+03   # mcR(MX)             
        46     2.05801000E+03   # mtR(MX)             
        47     1.06893000E+03   # mdR(MX)             
        48     1.06893000E+03   # msR(MX)             
        49     3.03799000E+03   # mbR(MX)             
#
BLOCK MASS  # Mass Spectrum
# PDG code           mass       particle
        24     8.03914305E+01   # W+
        25     1.24534860E+02   # h
        35     3.92634432E+03   # H
        36     3.92633959E+03   # A
        37     3.92756528E+03   # H+
         5     4.81876030E+00   # b-quark pole mass calculated from mb(mb)_Msbar
   1000001     2.68385266E+03   # ~d_L
   2000001     1.08136318E+03   # ~d_R
   1000002     2.68281153E+03   # ~u_L
   2000002     1.10650446E+03   # ~u_R
   1000003     2.68385266E+03   # ~s_L
   2000003     1.08136318E+03   # ~s_R
   1000004     2.68281153E+03   # ~c_L
   2000004     1.10650446E+03   # ~c_R
   1000005     9.55366499E+02   # ~b_1
   2000005     3.07412300E+03   # ~b_2
   1000006     9.49663686E+02   # ~t_1
   2000006     2.07435416E+03   # ~t_2
   1000011     1.47072272E+03   # ~e_L
   2000011     1.44687365E+03   # ~e_R
   1000012     1.46824524E+03   # ~nu_eL
   1000013     1.47072272E+03   # ~mu_L
   2000013     1.44687365E+03   # ~mu_R
   1000014     1.46824524E+03   # ~nu_muL
   1000015     9.31678057E+02   # ~tau_1
   2000015     3.42564172E+03   # ~tau_2
   1000016     9.27990554E+02   # ~nu_tauL
   1000021     2.60348167E+03   # ~g
   1000022     3.72338554E+02   # ~chi_10
   1000023    -3.82285997E+02   # ~chi_20
   1000025     9.20867900E+02   # ~chi_30
   1000035     9.30261067E+02   # ~chi_40
   1000024     3.76553573E+02   # ~chi_1+
   1000037     9.25256959E+02   # ~chi_2+
#
BLOCK NMIX  # Neutralino Mixing Matrix
  1  1    -5.34583780E-02   # N_11
  1  2     9.94689515E-02   # N_12
  1  3     7.09259707E-01   # N_13
  1  4     6.95843946E-01   # N_14
  2  1    -2.40572124E-02   # N_21
  2  2     4.49376325E-02   # N_22
  2  3    -7.03536563E-01   # N_23
  2  4     7.08828727E-01   # N_24
  3  1     3.87502547E-01   # N_31
  3  2     9.18550595E-01   # N_32
  3  3    -2.80604966E-02   # N_33
  3  4    -7.29327712E-02   # N_34
  4  1     9.20002842E-01   # N_41
  4  2    -3.79935970E-01   # N_42
  4  3     3.46349571E-02   # N_43
  4  4     8.96875127E-02   # N_44
#
BLOCK UMIX  # Chargino Mixing Matrix U
  1  1     5.62168978E-02   # U_11
  1  2     9.98418580E-01   # U_12
  2  1    -9.98418580E-01   # U_21
  2  2     5.62168978E-02   # U_22
#
BLOCK VMIX  # Chargino Mixing Matrix V
  1  1     1.45388768E-01   # V_11
  1  2    -9.89374604E-01   # V_12
  2  1    -9.89374604E-01   # V_21
  2  2    -1.45388768E-01   # V_22
#
BLOCK STOPMIX  # Stop Mixing Matrix
  1  1     9.96077147E-01   # cos(theta_t)
  1  2    -8.84890797E-02   # sin(theta_t)
  2  1     8.84890797E-02   # -sin(theta_t)
  2  2     9.96077147E-01   # cos(theta_t)
#
BLOCK SBOTMIX  # Sbottom Mixing Matrix
  1  1     9.99988321E-01   # cos(theta_b)
  1  2    -4.83299737E-03   # sin(theta_b)
  2  1     4.83299737E-03   # -sin(theta_b)
  2  2     9.99988321E-01   # cos(theta_b)
#
BLOCK STAUMIX  # Stau Mixing Matrix
  1  1     9.99997086E-01   # cos(theta_tau)
  1  2    -2.41412334E-03   # sin(theta_tau)
  2  1     2.41412334E-03   # -sin(theta_tau)
  2  2     9.99997086E-01   # cos(theta_tau)
#
BLOCK ALPHA  # Higgs mixing
          -2.25632990E-02   # Mixing angle in the neutral Higgs boson sector
#
BLOCK HMIX Q=  1.37824800E+03  # DRbar Higgs Parameters
         1    -3.71531224E+02   # mu(Q)MSSM           
         2     4.43617685E+01   # tan                 
         3     2.43466258E+02   # higgs               
         4     1.53266356E+07   # mA^2(Q)MSSM         
#
BLOCK GAUGE Q=  1.37824800E+03  # The gauge couplings
     1     3.62870120E-01   # gprime(Q) DRbar
     2     6.39279864E-01   # g(Q) DRbar
     3     1.03293103E+00   # g3(Q) DRbar
#
BLOCK AU Q=  1.37824800E+03  # The trilinear couplings
  1  1     0.00000000E+00   # A_u(Q) DRbar
  2  2     0.00000000E+00   # A_c(Q) DRbar
  3  3     1.99318000E+03   # A_t(Q) DRbar
#
BLOCK AD Q=  1.37824800E+03  # The trilinear couplings
  1  1     0.00000000E+00   # A_d(Q) DRbar
  2  2     0.00000000E+00   # A_s(Q) DRbar
  3  3     3.66570003E+02   # A_b(Q) DRbar
#
BLOCK AE Q=  1.37824800E+03  # The trilinear couplings
  1  1     0.00000000E+00   # A_e(Q) DRbar
  2  2     0.00000000E+00   # A_mu(Q) DRbar
  3  3    -1.08942000E+03   # A_tau(Q) DRbar
#
BLOCK Yu Q=  1.37824800E+03  # The Yukawa couplings
  1  1     0.00000000E+00   # y_u(Q) DRbar
  2  2     0.00000000E+00   # y_c(Q) DRbar
  3  3     8.50572301E-01   # y_t(Q) DRbar
#
BLOCK Yd Q=  1.37824800E+03  # The Yukawa couplings
  1  1     0.00000000E+00   # y_d(Q) DRbar
  2  2     0.00000000E+00   # y_s(Q) DRbar
  3  3     6.39201372E-01   # y_b(Q) DRbar
#
BLOCK Ye Q=  1.37824800E+03  # The Yukawa couplings
  1  1     0.00000000E+00   # y_e(Q) DRbar
  2  2     0.00000000E+00   # y_mu(Q) DRbar
  3  3     4.28707550E-01   # y_tau(Q) DRbar
#
BLOCK MSOFT Q=  1.37824800E+03  # The soft SUSY breaking masses at the scale Q
         1     9.27500000E+02   # M_1(Q)              
         2     8.90270000E+02   # M_2(Q)              
         3     2.59149000E+03   # M_3(Q)              
        21     1.51840223E+07   # mH1^2(Q)            
        22    -1.29558618E+05   # mH2^2(Q)            
        31     1.46558000E+03   # meL(Q)              
        32     1.46558000E+03   # mmuL(Q)             
        33     9.05240000E+02   # mtauL(Q)            
        34     1.44156000E+03   # meR(Q)              
        35     1.44156000E+03   # mmuR(Q)             
        36     3.41728000E+03   # mtauR(Q)            
        41     2.64559000E+03   # mqL1(Q)             
        42     2.64559000E+03   # mqL2(Q)             
        43     9.21609990E+02   # mqL3(Q)             
        44     1.09556000E+03   # muR(Q)              
        45     1.09556000E+03   # mcR(Q)              
        46     2.05801000E+03   # mtR(Q)              
        47     1.06893000E+03   # mdR(Q)              
        48     1.06893000E+03   # msR(Q)              
        49     3.03799000E+03   # mbR(Q)              
#
Block HiggsBoundsInputHiggsCouplingsFermions
# ScalarNormEffCoupSq PseudoSNormEffCoupSq NP   IP1 IP2 IP2
    1.00223560E+00    0.00000000E+00        3  25   5   5  # h0-b-b eff. coupling^2, normalised to SM
    1.96796427E+03    0.00000000E+00        3  35   5   5  # H0-b-b eff. coupling^2, normalised to SM
    0.00000000E+00    1.96796650E+03        3  36   5   5  # A0-b-b eff. coupling^2, normalised to SM
#
    9.99998864E-01    0.00000000E+00        3  25   6   6  # h0-t-t eff. coupling^2, normalised to SM
    5.09274723E-04    0.00000000E+00        3  35   6   6  # H0-t-t eff. coupling^2, normalised to SM
    0.00000000E+00    5.08138730E-04        3  36   6   6  # A0-t-t eff. coupling^2, normalised to SM
#
    1.00223560E+00    0.00000000E+00        3  25  15  15  # h0-tau-tau eff. coupling^2, normalised to SM
    1.96796427E+03    0.00000000E+00        3  35  15  15  # H0-tau-tau eff. coupling^2, normalised to SM
    0.00000000E+00    1.96796650E+03        3  36  15  15  # A0-tau-tau eff. coupling^2, normalised to SM
#
Block HiggsBoundsInputHiggsCouplingsBosons
    9.99999999E-01        3  25  24  24  # h0-W-W eff. coupling^2, normalised to SM
    6.34197536E-10        3  35  24  24  # H0-W-W eff. coupling^2, normalised to SM
    0.00000000E+00        3  36  24  24  # A0-W-W eff. coupling^2, normalised to SM
#
    9.99999999E-01        3  25  23  23  # h0-Z-Z eff. coupling^2, normalised to SM
    6.34197536E-10        3  35  23  23  # H0-Z-Z eff. coupling^2, normalised to SM
    0.00000000E+00        3  36  23  23  # A0-Z-Z eff. coupling^2, normalised to SM
#
    8.98608812E-01        3  25  21  21  # h0-g-g eff. coupling^2, normalised to SM
    8.45216901E-14        3  35  21  21  # H0-g-g eff. coupling^2, normalised to SM
    4.70275073E-13        3  36  21  21  # A0-g-g eff. coupling^2, normalised to SM
#
    0.00000000E+00        3  25  25  23  # h0-h0-Z eff. coupling^2, normalised to SM
    0.00000000E+00        3  35  25  23  # H0-h0-Z eff. coupling^2, normalised to SM
    6.34197536E-10        3  36  25  23  # A0-h0-Z eff. coupling^2, normalised to SM
    0.00000000E+00        3  35  35  23  # H0-H0-Z eff. coupling^2, normalised to SM
    9.99999999E-01        3  36  35  23  # A0-H0-Z eff. coupling^2, normalised to SM
    0.00000000E+00        3  36  36  23  # A0-A0-Z eff. coupling^2, normalised to SM
#
    0.00000000E+00        4  25  21  21  23  # h0-g-g-Z eff. coupling^2, normalised to SM
    0.00000000E+00        4  35  21  21  23  # H0-g-g-Z eff. coupling^2, normalised to SM
    0.00000000E+00        4  36  21  21  23  # A0-g-g-Z eff. coupling^2, normalised to SM
#
#
#
#                             =================
#                             |The decay table|
#                             =================
#
# - The QCD corrections to the decays gluino -> squark  + quark
#                                     squark -> gaugino + quark_prime
#                                     squark -> squark_prime + Higgs
#                                     squark -> gluino  + quark
#   are included.
#
# - The multi-body decays for the inos, stops and sbottoms are included.
#
# - The loop induced decays for the gluino, neutralinos and stops
#   are included.
#
# - The SUSY decays of the top quark are included.
#
#
#         PDG            Width
DECAY         6     1.43923774E+00   # top decays
#          BR         NDA      ID1       ID2
     1.00000000E+00    2           5        24   # BR(t ->  b    W+)
#
#         PDG            Width
DECAY   1000021     2.17679044E+02   # gluino decays
#          BR         NDA      ID1       ID2
     7.89039181E-02    2     2000001        -1   # BR(~g -> ~d_R  db)
     7.89039181E-02    2    -2000001         1   # BR(~g -> ~d_R* d )
     7.73638692E-02    2     2000002        -2   # BR(~g -> ~u_R  ub)
     7.73638692E-02    2    -2000002         2   # BR(~g -> ~u_R* u )
     7.89039181E-02    2     2000003        -3   # BR(~g -> ~s_R  sb)
     7.89039181E-02    2    -2000003         3   # BR(~g -> ~s_R* s )
     7.73638519E-02    2     2000004        -4   # BR(~g -> ~c_R  cb)
     7.73638519E-02    2    -2000004         4   # BR(~g -> ~c_R* c )
     8.56060143E-02    2     1000005        -5   # BR(~g -> ~b_1  bb)
     8.56060143E-02    2    -1000005         5   # BR(~g -> ~b_1* b )
     8.79194336E-02    2     1000006        -6   # BR(~g -> ~t_1  tb)
     8.79194336E-02    2    -1000006         6   # BR(~g -> ~t_1* t )
     1.39389948E-02    2     2000006        -6   # BR(~g -> ~t_2  tb)
     1.39389948E-02    2    -2000006         6   # BR(~g -> ~t_2* t )
#
#         PDG            Width
DECAY   1000006     1.39791785E+01   # stop1 decays
#          BR         NDA      ID1       ID2
     3.06310893E-01    2     1000022         6   # BR(~t_1 -> ~chi_10 t )
     3.04012147E-01    2     1000023         6   # BR(~t_1 -> ~chi_20 t )
     3.88302489E-01    2     1000024         5   # BR(~t_1 -> ~chi_1+ b )
     1.37447226E-03    2     1000037         5   # BR(~t_1 -> ~chi_2+ b )
#
#         PDG            Width
DECAY   2000006     1.01310825E+02   # stop2 decays
#          BR         NDA      ID1       ID2
     1.33112710E-01    2     1000022         6   # BR(~t_2 -> ~chi_10 t )
     1.38095065E-01    2     1000023         6   # BR(~t_2 -> ~chi_20 t )
     4.84084477E-03    2     1000025         6   # BR(~t_2 -> ~chi_30 t )
     2.60985339E-02    2     1000035         6   # BR(~t_2 -> ~chi_40 t )
     2.74181246E-01    2     1000024         5   # BR(~t_2 -> ~chi_1+ b )
     1.18361594E-03    2     1000037         5   # BR(~t_2 -> ~chi_2+ b )
     1.04100271E-01    2     1000006        25   # BR(~t_2 -> ~t_1    h )
     1.08019028E-01    2     1000006        23   # BR(~t_2 -> ~t_1    Z )
     2.10368686E-01    2     1000005        24   # BR(~t_2 -> ~b_1    W+)
#
#         PDG            Width
DECAY   1000005     1.41914158E+01   # sbottom1 decays
#          BR         NDA      ID1       ID2
     2.00805477E-01    2     1000022         5   # BR(~b_1 -> ~chi_10 b )
     1.91488847E-01    2     1000023         5   # BR(~b_1 -> ~chi_20 b )
     9.62287765E-04    2     1000025         5   # BR(~b_1 -> ~chi_30 b )
     2.15899552E-04    2     1000035         5   # BR(~b_1 -> ~chi_40 b )
     6.06527489E-01    2    -1000024         6   # BR(~b_1 -> ~chi_1- t )
#
#         PDG            Width
DECAY   2000005     6.43467036E+01   # sbottom2 decays
#          BR         NDA      ID1       ID2
     1.89500609E-01    2     1000022         5   # BR(~b_2 -> ~chi_10 b )
     1.86432998E-01    2     1000023         5   # BR(~b_2 -> ~chi_20 b )
     3.76138486E-03    2     1000025         5   # BR(~b_2 -> ~chi_30 b )
     1.98729787E-02    2     1000035         5   # BR(~b_2 -> ~chi_40 b )
     3.72989725E-01    2    -1000024         6   # BR(~b_2 -> ~chi_1- t )
     1.18915269E-03    2    -1000037         6   # BR(~b_2 -> ~chi_2- t )
     2.16209437E-01    2     1000021         5   # BR(~b_2 -> ~g      b )
     2.67335463E-03    2     1000005        25   # BR(~b_2 -> ~b_1    h )
     2.50415510E-03    2     1000005        23   # BR(~b_2 -> ~b_1    Z )
     4.85789656E-03    2     1000006       -24   # BR(~b_2 -> ~t_1    W-)
     8.30875013E-06    2     2000006       -24   # BR(~b_2 -> ~t_2    W-)
#
#         PDG            Width
DECAY   1000002     2.54482033E+01   # sup_L decays
#          BR         NDA      ID1       ID2
     3.14312018E-03    2     1000022         2   # BR(~u_L -> ~chi_10 u)
     6.40758981E-04    2     1000023         2   # BR(~u_L -> ~chi_20 u)
     3.14484890E-01    2     1000025         2   # BR(~u_L -> ~chi_30 u)
     1.34740866E-02    2     1000035         2   # BR(~u_L -> ~chi_40 u)
     1.66282641E-02    2     1000024         1   # BR(~u_L -> ~chi_1+ d)
     6.24232736E-01    2     1000037         1   # BR(~u_L -> ~chi_2+ d)
     2.73961443E-02    2     1000021         2   # BR(~u_L -> ~g      u)
#
#         PDG            Width
DECAY   2000002     2.42116422E-01   # sup_R decays
#          BR         NDA      ID1       ID2
     2.45016032E-02    2     1000022         2   # BR(~u_R -> ~chi_10 u)
     4.89396305E-03    2     1000023         2   # BR(~u_R -> ~chi_20 u)
     1.58195085E-01    2     1000025         2   # BR(~u_R -> ~chi_30 u)
     8.12409349E-01    2     1000035         2   # BR(~u_R -> ~chi_40 u)
#
#         PDG            Width
DECAY   1000001     2.54089944E+01   # sdown_L decays
#          BR         NDA      ID1       ID2
     4.73646197E-03    2     1000022         1   # BR(~d_L -> ~chi_10 d)
     9.64037708E-04    2     1000023         1   # BR(~d_L -> ~chi_20 d)
     2.28850366E-01    2     1000025         1   # BR(~d_L -> ~chi_30 d)
     9.77866180E-02    2     1000035         1   # BR(~d_L -> ~chi_40 d)
     2.49086701E-03    2    -1000024         2   # BR(~d_L -> ~chi_1- u)
     6.37029978E-01    2    -1000037         2   # BR(~d_L -> ~chi_2- u)
     2.81416714E-02    2     1000021         1   # BR(~d_L -> ~g      d)
#
#         PDG            Width
DECAY   2000001     4.71933016E-02   # sdown_R decays
#          BR         NDA      ID1       ID2
     3.03796810E-02    2     1000022         1   # BR(~d_R -> ~chi_10 d)
     6.06355763E-03    2     1000023         1   # BR(~d_R -> ~chi_20 d)
     1.59202860E-01    2     1000025         1   # BR(~d_R -> ~chi_30 d)
     8.04353901E-01    2     1000035         1   # BR(~d_R -> ~chi_40 d)
#
#         PDG            Width
DECAY   1000004     2.63413668E+01   # scharm_L decays
#          BR         NDA      ID1       ID2
     3.17958195E-03    2     1000022         4   # BR(~c_L -> ~chi_10 c)
     6.48147172E-04    2     1000023         4   # BR(~c_L -> ~chi_20 c)
     3.16999101E-01    2     1000025         4   # BR(~c_L -> ~chi_30 c)
     1.35809302E-02    2     1000035         4   # BR(~c_L -> ~chi_40 c)
     1.68206770E-02    2     1000024         3   # BR(~c_L -> ~chi_1+ s)
     6.29204863E-01    2     1000037         3   # BR(~c_L -> ~chi_2+ s)
     1.95666995E-02    2     1000021         4   # BR(~c_L -> ~g      c)
#
#         PDG            Width
DECAY   2000004     2.30952904E-01   # scharm_R decays
#          BR         NDA      ID1       ID2
     2.50703240E-02    2     1000022         4   # BR(~c_R -> ~chi_10 c)
     5.00717462E-03    2     1000023         4   # BR(~c_R -> ~chi_20 c)
     1.58279266E-01    2     1000025         4   # BR(~c_R -> ~chi_30 c)
     8.11643235E-01    2     1000035         4   # BR(~c_R -> ~chi_40 c)
#
#         PDG            Width
DECAY   1000003     2.62949908E+01   # sstrange_L decays
#          BR         NDA      ID1       ID2
     4.79268801E-03    2     1000022         3   # BR(~s_L -> ~chi_10 s)
     9.75414052E-04    2     1000023         3   # BR(~s_L -> ~chi_20 s)
     2.30741368E-01    2     1000025         3   # BR(~s_L -> ~chi_30 s)
     9.85882629E-02    2     1000035         3   # BR(~s_L -> ~chi_40 s)
     2.52036068E-03    2    -1000024         4   # BR(~s_L -> ~chi_1- c)
     6.42274100E-01    2    -1000037         4   # BR(~s_L -> ~chi_2- c)
     2.01078054E-02    2     1000021         3   # BR(~s_L -> ~g      s)
#
#         PDG            Width
DECAY   2000003     4.48164623E-02   # sstrange_R decays
#          BR         NDA      ID1       ID2
     3.11869248E-02    2     1000022         3   # BR(~s_R -> ~chi_10 s)
     6.22418637E-03    2     1000023         3   # BR(~s_R -> ~chi_20 s)
     1.59283134E-01    2     1000025         3   # BR(~s_R -> ~chi_30 s)
     8.03305755E-01    2     1000035         3   # BR(~s_R -> ~chi_40 s)
#
#         PDG            Width
DECAY   1000011     7.32261839E+00   # selectron_L decays
#          BR         NDA      ID1       ID2
     3.41726296E-03    2     1000022        11   # BR(~e_L -> ~chi_10 e-)
     6.94671120E-04    2     1000023        11   # BR(~e_L -> ~chi_20 e-)
     3.91168466E-01    2     1000025        11   # BR(~e_L -> ~chi_30 e-)
     5.94858239E-03    2     1000035        11   # BR(~e_L -> ~chi_40 e-)
     4.50629671E-03    2    -1000024        12   # BR(~e_L -> ~chi_1- nu_e)
     5.94264720E-01    2    -1000037        12   # BR(~e_L -> ~chi_2- nu_e)
#
#         PDG            Width
DECAY   2000011     2.63349596E+00   # selectron_R decays
#          BR         NDA      ID1       ID2
     7.17261573E-03    2     1000022        11   # BR(~e_R -> ~chi_10 e-)
     1.44143398E-03    2     1000023        11   # BR(~e_R -> ~chi_20 e-)
     1.52980746E-01    2     1000025        11   # BR(~e_R -> ~chi_30 e-)
     8.38405204E-01    2     1000035        11   # BR(~e_R -> ~chi_40 e-)
#
#         PDG            Width
DECAY   1000013     7.32261830E+00   # smuon_L decays
#          BR         NDA      ID1       ID2
     3.41726295E-03    2     1000022        13   # BR(~mu_L -> ~chi_10 mu-)
     6.94671120E-04    2     1000023        13   # BR(~mu_L -> ~chi_20 mu-)
     3.91168460E-01    2     1000025        13   # BR(~mu_L -> ~chi_30 mu-)
     5.94858229E-03    2     1000035        13   # BR(~mu_L -> ~chi_40 mu-)
     4.50629677E-03    2    -1000024        14   # BR(~mu_L -> ~chi_1- nu_mu)
     5.94264727E-01    2    -1000037        14   # BR(~mu_L -> ~chi_2- nu_mu)
#
#         PDG            Width
DECAY   2000013     2.63349588E+00   # smuon_R decays
#          BR         NDA      ID1       ID2
     7.17261586E-03    2     1000022        13   # BR(~mu_R -> ~chi_10 mu-)
     1.44143401E-03    2     1000023        13   # BR(~mu_R -> ~chi_20 mu-)
     1.52980746E-01    2     1000025        13   # BR(~mu_R -> ~chi_30 mu-)
     8.38405204E-01    2     1000035        13   # BR(~mu_R -> ~chi_40 mu-)
#
#         PDG            Width
DECAY   1000015     2.41448055E+00   # stau_1 decays
#          BR         NDA      ID1       ID2
     5.07085138E-01    2     1000022        15   # BR(~tau_1 -> ~chi_10  tau-)
     4.83920435E-01    2     1000023        15   # BR(~tau_1 -> ~chi_20  tau-)
     1.05939674E-03    2     1000025        15   # BR(~tau_1 -> ~chi_30  tau-)
     7.34503759E-03    2    -1000024        16   # BR(~tau_1 -> ~chi_1-  nu_tau)
     5.89992496E-04    2    -1000037        16   # BR(~tau_1 -> ~chi_2-  nu_tau)
#
#         PDG            Width
DECAY   2000015     4.00887620E+01   # stau_2 decays
#          BR         NDA      ID1       ID2
     1.54592175E-01    2     1000022        15   # BR(~tau_2 -> ~chi_10  tau-)
     1.51138498E-01    2     1000023        15   # BR(~tau_2 -> ~chi_20  tau-)
     5.81032033E-02    2     1000025        15   # BR(~tau_2 -> ~chi_30  tau-)
     3.25460046E-01    2     1000035        15   # BR(~tau_2 -> ~chi_40  tau-)
     3.03850143E-01    2    -1000024        16   # BR(~tau_2 -> ~chi_1-  nu_tau)
     9.60587016E-04    2    -1000037        16   # BR(~tau_2 -> ~chi_2-  nu_tau)
     2.91867888E-03    2     1000016       -24   # BR(~tau_2 -> ~nu_tauL W-)
     1.48072147E-03    2     1000015        25   # BR(~tau_2 -> ~tau_1   h)
     1.49594718E-03    2     1000015        23   # BR(~tau_2 -> ~tau_1   Z)
#
#         PDG            Width
DECAY   1000012     7.38558006E+00   # snu_eL decays
#          BR         NDA      ID1       ID2
     1.19233320E-02    2     1000022        12   # BR(~nu_eL -> ~chi_10 nu_e)
     2.41109389E-03    2     1000023        12   # BR(~nu_eL -> ~chi_20 nu_e)
     1.45144293E-01    2     1000025        12   # BR(~nu_eL -> ~chi_30 nu_e)
     2.35657336E-01    2     1000035        12   # BR(~nu_eL -> ~chi_40 nu_e)
     2.98188922E-02    2     1000024        11   # BR(~nu_eL -> ~chi_1+ e-)
     5.75045053E-01    2     1000037        11   # BR(~nu_eL -> ~chi_2+ e-)
#
#         PDG            Width
DECAY   1000014     7.38557994E+00   # snu_muL decays
#          BR         NDA      ID1       ID2
     1.19233322E-02    2     1000022        14   # BR(~nu_muL -> ~chi_10 nu_mu)
     2.41109393E-03    2     1000023        14   # BR(~nu_muL -> ~chi_20 nu_mu)
     1.45144295E-01    2     1000025        14   # BR(~nu_muL -> ~chi_30 nu_mu)
     2.35657340E-01    2     1000035        14   # BR(~nu_muL -> ~chi_40 nu_mu)
     2.98188923E-02    2     1000024        13   # BR(~nu_muL -> ~chi_1+ mu-)
     5.75045046E-01    2     1000037        13   # BR(~nu_muL -> ~chi_2+ mu-)
#
#         PDG            Width
DECAY   1000016     2.52770589E+00   # snu_tauL decays
#          BR         NDA      ID1       ID2
     1.77041401E-02    2     1000022        16   # BR(~nu_tauL -> ~chi_10 nu_tau)
     3.53230776E-03    2     1000023        16   # BR(~nu_tauL -> ~chi_20 nu_tau)
     1.70320581E-04    2     1000025        16   # BR(~nu_tauL -> ~chi_30 nu_tau)
     9.78520134E-01    2     1000024        15   # BR(~nu_tauL -> ~chi_1+ tau-)
     7.30976429E-05    2     1000037        15   # BR(~nu_tauL -> ~chi_2+ tau-)
#
#         PDG            Width
DECAY   1000024     1.50569107E-09   # chargino1+ decays
#           BR         NDA      ID1       ID2       ID3
     3.56100141E-01    3     1000022         2        -1   # BR(~chi_1+ -> ~chi_10 u    db)
     3.56100141E-01    3     1000022         4        -3   # BR(~chi_1+ -> ~chi_10 c    sb)
     1.18706494E-01    3     1000022       -11        12   # BR(~chi_1+ -> ~chi_10 e+   nu_e)
     1.18706494E-01    3     1000022       -13        14   # BR(~chi_1+ -> ~chi_10 mu+  nu_mu)
     5.03867291E-02    3     1000022       -15        16   # BR(~chi_1+ -> ~chi_10 tau+ nu_tau)
#
#         PDG            Width
DECAY   1000037     6.73203528E+00   # chargino2+ decays
#          BR         NDA      ID1       ID2
     2.57196748E-01    2     1000024        23   # BR(~chi_2+ -> ~chi_1+  Z )
     2.47444960E-01    2     1000022        24   # BR(~chi_2+ -> ~chi_10  W+)
     2.53200337E-01    2     1000023        24   # BR(~chi_2+ -> ~chi_20  W+)
     2.42157955E-01    2     1000024        25   # BR(~chi_2+ -> ~chi_1+  h )
#
#         PDG            Width
DECAY   1000022     0.00000000E+00   # neutralino1 decays
#
#         PDG            Width
DECAY   1000023     9.56043849E-08   # neutralino2 decays
#          BR         NDA      ID1       ID2
     1.62099425E-02    2     1000022        22   # BR(~chi_20 -> ~chi_10 gam)
#           BR         NDA      ID1       ID2       ID3
     1.15992463E-01    3     1000022        -2         2   # BR(~chi_20 -> ~chi_10 ub      u)
     1.50407616E-01    3     1000022        -1         1   # BR(~chi_20 -> ~chi_10 db      d)
     1.15992463E-01    3     1000022        -4         4   # BR(~chi_20 -> ~chi_10 cb      c)
     1.50407616E-01    3     1000022        -3         3   # BR(~chi_20 -> ~chi_10 sb      s)
     5.78349817E-04    3     1000022        -5         5   # BR(~chi_20 -> ~chi_10 bb      b)
     3.44615337E-02    3     1000022       -11        11   # BR(~chi_20 -> ~chi_10 e+      e-)
     3.44615337E-02    3     1000022       -13        13   # BR(~chi_20 -> ~chi_10 mu+     mu-)
     2.85570840E-02    3     1000022       -15        15   # BR(~chi_20 -> ~chi_10 tau+    tau-)
     6.88840458E-02    3     1000022       -12        12   # BR(~chi_20 -> ~chi_10 nu_eb   nu_e)
     6.88840458E-02    3     1000022       -14        14   # BR(~chi_20 -> ~chi_10 nu_mub  nu_mu)
     6.88899670E-02    3     1000022       -16        16   # BR(~chi_20 -> ~chi_10 nu_taub nu_tau)
     2.54174003E-02    3     1000024        -2         1   # BR(~chi_20 -> ~chi_1+ ub      d)
     2.54174003E-02    3    -1000024        -1         2   # BR(~chi_20 -> ~chi_1- db      u)
     2.54174003E-02    3     1000024        -4         3   # BR(~chi_20 -> ~chi_1+ cb      s)
     2.54174003E-02    3    -1000024        -3         4   # BR(~chi_20 -> ~chi_1- sb      c)
     8.47263250E-03    3     1000024       -12        11   # BR(~chi_20 -> ~chi_1+ nu_eb   e-)
     8.47263250E-03    3    -1000024        12       -11   # BR(~chi_20 -> ~chi_1- nu_e    e+)
     8.47263250E-03    3     1000024       -14        13   # BR(~chi_20 -> ~chi_1+ nu_mub  mu-)
     8.47263250E-03    3    -1000024        14       -13   # BR(~chi_20 -> ~chi_1- nu_mu   mu+)
     5.35660427E-03    3     1000024       -16        15   # BR(~chi_20 -> ~chi_1+ nu_taub tau-)
     5.35660427E-03    3    -1000024        16       -15   # BR(~chi_20 -> ~chi_1- nu_tau  tau+)
#
#         PDG            Width
DECAY   1000025     5.97211747E+00   # neutralino3 decays
#          BR         NDA      ID1       ID2
     2.43128078E-02    2     1000022        23   # BR(~chi_30 -> ~chi_10   Z )
     1.17918418E-01    2     1000023        23   # BR(~chi_30 -> ~chi_20   Z )
     3.64855755E-01    2     1000024       -24   # BR(~chi_30 -> ~chi_1+   W-)
     3.64855755E-01    2    -1000024        24   # BR(~chi_30 -> ~chi_1-   W+)
     1.07566905E-01    2     1000022        25   # BR(~chi_30 -> ~chi_10   h )
     2.04903588E-02    2     1000023        25   # BR(~chi_30 -> ~chi_20   h )
#
#         PDG            Width
DECAY   1000035     2.67585139E+00   # neutralino4 decays
#          BR         NDA      ID1       ID2
     8.50858798E-02    2     1000022        23   # BR(~chi_40 -> ~chi_10   Z )
     4.16896259E-01    2     1000023        23   # BR(~chi_40 -> ~chi_20   Z )
     7.15770233E-03    2     1000024       -24   # BR(~chi_40 -> ~chi_1+   W-)
     7.15770233E-03    2    -1000024        24   # BR(~chi_40 -> ~chi_1-   W+)
     4.04902521E-01    2     1000022        25   # BR(~chi_40 -> ~chi_10   h )
     7.87725936E-02    2     1000023        25   # BR(~chi_40 -> ~chi_20   h )
     1.36707127E-05    2     1000016       -16   # BR(~chi_40 -> ~nu_tau1  nu_taub)
     1.36707127E-05    2    -1000016        16   # BR(~chi_40 -> ~nu_tau1* nu_tau )
#
#         PDG            Width
DECAY        25     3.79758014E-03   # h decays
#          BR         NDA      ID1       ID2
     5.84787680E-01    2           5        -5   # BR(h -> b       bb     )
     6.80379252E-02    2         -15        15   # BR(h -> tau+    tau-   )
     2.40824458E-04    2         -13        13   # BR(h -> mu+     mu-    )
     2.63116993E-04    2           3        -3   # BR(h -> s       sb     )
     2.27698646E-02    2           4        -4   # BR(h -> c       cb     )
     8.35534987E-02    2          21        21   # BR(h -> g       g      )
     2.43612933E-03    2          22        22   # BR(h -> gam     gam    )
     1.57744932E-03    2          22        23   # BR(h -> Z       gam    )
     2.10276783E-01    2          24       -24   # BR(h -> W+      W-     )
     2.60567284E-02    2          23        23   # BR(h -> Z       Z      )
#
#         PDG            Width
DECAY        35     1.71389625E+02   # H decays
#          BR         NDA      ID1       ID2
     6.14815332E-01    2           5        -5   # BR(H -> b       bb     )
     1.00993766E-01    2         -15        15   # BR(H -> tau+    tau-   )
     3.48262413E-04    2         -13        13   # BR(H -> mu+     mu-    )
     2.36575431E-04    2           3        -3   # BR(H -> s       sb     )
     4.62204480E-09    2           4        -4   # BR(H -> c       cb     )
     4.56267503E-04    2           6        -6   # BR(H -> t       tb     )
     4.42801554E-06    2          21        21   # BR(H -> g       g      )
     9.10001896E-09    2          22        22   # BR(H -> gam     gam    )
     3.52076520E-09    2          23        22   # BR(H -> Z       gam    )
     7.21026085E-08    2          24       -24   # BR(H -> W+      W-     )
     3.59908915E-08    2          23        23   # BR(H -> Z       Z      )
     3.33237024E-07    2          25        25   # BR(H -> h       h      )
     3.93634697E-03    2     1000024  -1000024   # BR(H -> ~chi_1+ ~chi_1-)
     4.62242398E-04    2     1000037  -1000037   # BR(H -> ~chi_2+ ~chi_2-)
     8.26715253E-02    2     1000024  -1000037   # BR(H -> ~chi_1+ ~chi_2-)
     8.26715253E-02    2     1000037  -1000024   # BR(H -> ~chi_2+ ~chi_1-)
     1.58539739E-03    2     1000022   1000022   # BR(H -> ~chi_10 ~chi_10)
     2.89651144E-04    2     1000023   1000023   # BR(H -> ~chi_20 ~chi_20)
     5.97057776E-05    2     1000025   1000025   # BR(H -> ~chi_30 ~chi_30)
     1.35693427E-04    2     1000035   1000035   # BR(H -> ~chi_40 ~chi_40)
     2.03003806E-04    2     1000022   1000023   # BR(H -> ~chi_10 ~chi_20)
     2.11972683E-02    2     1000022   1000025   # BR(H -> ~chi_10 ~chi_30)
     3.18124813E-02    2     1000022   1000035   # BR(H -> ~chi_10 ~chi_40)
     2.14334954E-02    2     1000023   1000025   # BR(H -> ~chi_20 ~chi_30)
     3.22064322E-02    2     1000023   1000035   # BR(H -> ~chi_20 ~chi_40)
     1.80022782E-04    2     1000025   1000035   # BR(H -> ~chi_30 ~chi_40)
     1.49850538E-08    2     2000002  -2000002   # BR(H -> ~u_R    ~u_R*  )
     1.49850538E-08    2     2000004  -2000004   # BR(H -> ~c_R    ~c_R*  )
     1.05718741E-04    2     1000006  -1000006   # BR(H -> ~t_1    ~t_1*  )
     2.09701597E-03    2     1000006  -2000006   # BR(H -> ~t_1    ~t_2*  )
     2.09701597E-03    2     2000006  -1000006   # BR(H -> ~t_2    ~t_1*  )
     3.78524135E-09    2     2000001  -2000001   # BR(H -> ~d_R    ~d_R*  )
     3.78524135E-09    2     2000003  -2000003   # BR(H -> ~s_R    ~s_R*  )
     2.89639309E-08    2     1000005  -1000005   # BR(H -> ~b_1    ~b_1*  )
     1.39568729E-08    2     1000011  -1000011   # BR(H -> ~e_L-   ~e_L+  )
     9.19597124E-09    2     2000011  -2000011   # BR(H -> ~e_R-   ~e_R+  )
     1.39568729E-08    2     1000013  -1000013   # BR(H -> ~mu_L-  ~mu_L+ )
     9.19597124E-09    2     2000013  -2000013   # BR(H -> ~mu_R-  ~mu_R+ )
     1.03111602E-07    2     1000015  -1000015   # BR(H -> ~tau_1- ~tau_1+)
     4.54977288E-08    2     1000012  -1000012   # BR(H -> ~nu_eL  ~nu_eL*   )
     4.54977288E-08    2     1000014  -1000014   # BR(H -> ~nu_muL ~nu_muL*  )
     6.03986101E-08    2     1000016  -1000016   # BR(H -> ~nu_tauL ~nu_tauL*)
#
#         PDG            Width
DECAY        36     1.71397032E+02   # A decays
#          BR         NDA      ID1       ID2
     6.14796985E-01    2           5        -5   # BR(A -> b       bb     )
     1.00989473E-01    2         -15        15   # BR(A -> tau+    tau-   )
     3.48247331E-04    2         -13        13   # BR(A -> mu+     mu-    )
     2.36573630E-04    2           3        -3   # BR(A -> s       sb     )
     4.65441665E-09    2           4        -4   # BR(A -> c       cb     )
     4.57465035E-04    2           6        -6   # BR(A -> t       tb     )
     1.04443216E-05    2          21        21   # BR(A -> g       g      )
     1.22194221E-09    2          22        22   # BR(A -> gam     gam    )
     8.16630501E-09    2          23        22   # BR(A -> Z       gam    )
     7.31565307E-08    2          23        25   # BR(A -> Z       h      )
     3.94766890E-03    2     1000024  -1000024   # BR(A -> ~chi_1+ ~chi_1-)
     4.69431058E-04    2     1000037  -1000037   # BR(A -> ~chi_2+ ~chi_2-)
     8.26591358E-02    2     1000024  -1000037   # BR(A -> ~chi_1+ ~chi_2-)
     8.26591358E-02    2     1000037  -1000024   # BR(A -> ~chi_2+ ~chi_1-)
     1.50516310E-03    2     1000022   1000022   # BR(A -> ~chi_10 ~chi_10)
     3.29707007E-04    2     1000023   1000023   # BR(A -> ~chi_20 ~chi_20)
     6.05296088E-05    2     1000025   1000025   # BR(A -> ~chi_30 ~chi_30)
     1.38486620E-04    2     1000035   1000035   # BR(A -> ~chi_40 ~chi_40)
     2.48777669E-04    2     1000022   1000023   # BR(A -> ~chi_10 ~chi_20)
     2.13589673E-02    2     1000022   1000025   # BR(A -> ~chi_10 ~chi_30)
     3.20900477E-02    2     1000022   1000035   # BR(A -> ~chi_10 ~chi_40)
     2.12648749E-02    2     1000023   1000025   # BR(A -> ~chi_20 ~chi_30)
     3.19172552E-02    2     1000023   1000035   # BR(A -> ~chi_20 ~chi_40)
     1.83113676E-04    2     1000025   1000035   # BR(A -> ~chi_30 ~chi_40)
     2.16421501E-03    2     1000006  -2000006   # BR(A -> ~t_1    ~t_2*  )
     2.16421501E-03    2    -1000006   2000006   # BR(A -> ~t_1*   ~t_2   )
#
#         PDG            Width
DECAY        37     1.77401305E+02   # H+ decays
#          BR         NDA      ID1       ID2
     1.05219642E-03    2           4        -5   # BR(H+ -> c       bb     )
     9.76018720E-02    2         -15        16   # BR(H+ -> tau+    nu_tau )
     3.36565686E-04    2         -13        14   # BR(H+ -> mu+     nu_mu  )
     1.05219568E-05    2           2        -5   # BR(H+ -> u       bb     )
     1.14419716E-05    2           2        -3   # BR(H+ -> u       sb     )
     2.25217070E-04    2           4        -3   # BR(H+ -> c       sb     )
     6.25915373E-01    2           6        -5   # BR(H+ -> t       bb     )
     7.07724959E-08    2          24        25   # BR(H+ -> W+      h      )
     2.05189077E-14    2          24        36   # BR(H+ -> W+      A      )
     1.89486484E-05    2     1000024   1000022   # BR(H+ -> ~chi_1+ ~chi_10)
     6.98715510E-04    2     1000024   1000023   # BR(H+ -> ~chi_1+ ~chi_20)
     1.04012805E-01    2     1000024   1000025   # BR(H+ -> ~chi_1+ ~chi_30)
     9.83804239E-04    2     1000024   1000035   # BR(H+ -> ~chi_1+ ~chi_40)
     8.28123707E-02    2     1000037   1000022   # BR(H+ -> ~chi_2+ ~chi_10)
     8.04479618E-02    2     1000037   1000023   # BR(H+ -> ~chi_2+ ~chi_20)
     4.08625365E-05    2     1000037   1000025   # BR(H+ -> ~chi_2+ ~chi_30)
     2.21704764E-04    2     1000037   1000035   # BR(H+ -> ~chi_2+ ~chi_40)
     5.29943463E-08    2    -1000011   1000012   # BR(H+ -> ~e_L+   ~nu_eL )
     5.29943463E-08    2    -1000013   1000014   # BR(H+ -> ~mu_L+  ~nu_muL)
     2.76925408E-09    2    -1000015   1000016   # BR(H+ -> ~tau_1+ ~nu_tauL)
     9.00774277E-05    2     1000006  -1000005   # BR(H+ -> ~t_1    ~b_1*  )
     5.51938146E-03    2     2000006  -1000005   # BR(H+ -> ~t_2    ~b_1*  )
