#
#                              ======================
#                              | THE SUSYHIT OUTPUT |
#                              ======================
#
#
#              ------------------------------------------------------
#              |     This is the output of the SUSY-HIT package     |
#              |  created by A.Djouadi, M.Muehlleitner and M.Spira. |
#              |  In case of problems with SUSY-HIT email to        |
#              |           margarete.muehlleitner@cern.ch           |
#              |           michael.spira@psi.ch                     |
#              |           abdelhak.djouadi@cern.ch                 |
#              ------------------------------------------------------
#
#              ------------------------------------------------------
#              |  SUSY Les Houches Accord - MSSM Spectrum + Decays  |
#              |              based on the decay programs           |
#              |                                                    |
#              |                     SDECAY 1.3b                    |
#              |                                                    |
#              |  Authors: M.Muhlleitner, A.Djouadi and Y.Mambrini  |
#              |  Ref.:    Comput.Phys.Commun.168(2005)46           |
#              |           [hep-ph/0311167]                         |
#              |                                                    |
#              |                     HDECAY 3.4                     |
#              |                                                    |
#              |  By: A.Djouadi,J.Kalinowski,M.Muhlleitner,M.Spira  |
#              |  Ref.:    Comput.Phys.Commun.108(1998)56           |
#              |           [hep-ph/9704448]                         |
#              |                                                    |
#              |                                                    |
#              |  If not stated otherwise all DRbar couplings and   |
#              |  soft SUSY breaking masses are given at the scale  |
#              |  Q=  0.30722660E+04
#              |                                                    |
#              ------------------------------------------------------
#
#
BLOCK DCINFO  # Decay Program information
     1   SDECAY/HDECAY # decay calculator
     2   1.3b  /3.4    # version number
#
BLOCK SPINFO  # Spectrum calculator information
     1     SOFTSUSY    # spectrum calculator               
     2     3.4.0       # version number                    
#
BLOCK MODSEL  # Model selection
     1     0   #  nonUniversal                                     
#
BLOCK SMINPUTS  # Standard Model inputs
         1     1.27908970E+02   # alpha_em^-1(M_Z)^MSbar
         2     1.16637870E-05   # G_F [GeV^-2]
         3     1.18400000E-01   # alpha_S(M_Z)^MSbar
         4     9.11876000E+01   # M_Z pole mass
         5     4.18000000E+00   # mb(mb)^MSbar
         6     1.73200000E+02   # mt pole mass
         7     1.77700000E+00   # mtau pole mass
#
BLOCK MINPAR  # Input parameters - minimal models
         3     2.29500000E+01   # tanb                
#
BLOCK EXTPAR  # Input parameters - non-minimal models
         0    -1.00000000E+00   # Set                 
         1     4.05490000E+02   # M_1(MX)             
         2     9.38800000E+02   # M_2(MX)             
         3     3.73246000E+03   # M_3(MX)             
        11     3.18047000E+03   # At(MX)              
        12     1.09850000E+03   # Ab(MX)              
        13    -1.85716000E+03   # Atau(MX)            
        23    -1.67592000E+03   # mu(MX)              
        26     8.26230000E+02   # mA(pole)            
        31     2.46388000E+03   # meL(MX)             
        32     2.46388000E+03   # mmuL(MX)            
        33     1.56397000E+03   # mtauL(MX)           
        34     3.74470000E+03   # meR(MX)             
        35     3.74470000E+03   # mmuR(MX)            
        36     3.48499000E+03   # mtauR(MX)           
        41     5.17280000E+02   # mqL1(MX)            
        42     5.17280000E+02   # mqL2(MX)            
        43     3.26515000E+03   # mqL3(MX)            
        44     9.27730000E+02   # muR(MX)             
        45     9.27730000E+02   # mcR(MX)             
        46     2.88861000E+03   # mtR(MX)             
        47     3.55103000E+03   # mdR(MX)             
        48     3.55103000E+03   # msR(MX)             
        49     2.93004000E+03   # mbR(MX)             
#
BLOCK MASS  # Mass Spectrum
# PDG code           mass       particle
        24     8.03888553E+01   # W+
        25     1.24748104E+02   # h
        35     8.26274675E+02   # H
        36     8.26230006E+02   # A
        37     8.29938689E+02   # H+
         5     4.81876030E+00   # b-quark pole mass calculated from mb(mb)_Msbar
   1000001     7.85497561E+02   # ~d_L
   2000001     3.65695439E+03   # ~d_R
   1000002     7.81449802E+02   # ~u_L
   2000002     1.11189833E+03   # ~u_R
   1000003     7.85497561E+02   # ~s_L
   2000003     3.65695439E+03   # ~s_R
   1000004     7.81449802E+02   # ~c_L
   2000004     1.11189833E+03   # ~c_R
   1000005     3.03970505E+03   # ~b_1
   2000005     3.34615626E+03   # ~b_2
   1000006     2.94502611E+03   # ~t_1
   2000006     3.35911763E+03   # ~t_2
   1000011     2.47208920E+03   # ~e_L
   2000011     3.74688076E+03   # ~e_R
   1000012     2.47052682E+03   # ~nu_eL
   1000013     2.47208920E+03   # ~mu_L
   2000013     3.74688076E+03   # ~mu_R
   1000014     2.47052682E+03   # ~nu_muL
   1000015     1.57390770E+03   # ~tau_1
   2000015     3.48379192E+03   # ~tau_2
   1000016     1.57178077E+03   # ~nu_tauL
   1000021     3.79169244E+03   # ~g
   1000022     4.00061890E+02   # ~chi_10
   1000023     9.44889781E+02   # ~chi_20
   1000025    -1.71597670E+03   # ~chi_30
   1000035     1.71865856E+03   # ~chi_40
   1000024     9.45056277E+02   # ~chi_1+
   1000037     1.71943785E+03   # ~chi_2+
#
BLOCK NMIX  # Neutralino Mixing Matrix
  1  1     9.99620467E-01   # N_11
  1  2    -4.62208143E-04   # N_12
  1  3    -2.70579401E-02   # N_13
  1  4    -5.15513532E-03   # N_14
  2  1     2.29792138E-03   # N_21
  2  2     9.97584014E-01   # N_22
  2  3     6.18368683E-02   # N_23
  2  4     3.15761855E-02   # N_24
  3  1    -1.54684290E-02   # N_31
  3  2     2.14491944E-02   # N_32
  3  3    -7.06557316E-01   # N_33
  3  4     7.07161523E-01   # N_34
  4  1     2.26796923E-02   # N_41
  4  2    -6.60745990E-02   # N_42
  4  3     7.04429435E-01   # N_43
  4  4     7.06327792E-01   # N_44
#
BLOCK UMIX  # Chargino Mixing Matrix U
  1  1     9.96183898E-01   # U_11
  1  2     8.72791038E-02   # U_12
  2  1    -8.72791038E-02   # U_21
  2  2     9.96183898E-01   # U_22
#
BLOCK VMIX  # Chargino Mixing Matrix V
  1  1     9.99004907E-01   # V_11
  1  2    -4.46004011E-02   # V_12
  2  1    -4.46004011E-02   # V_21
  2  2    -9.99004907E-01   # V_22
#
BLOCK STOPMIX  # Stop Mixing Matrix
  1  1    -1.70386883E-01   # cos(theta_t)
  1  2     9.85377243E-01   # sin(theta_t)
  2  1    -9.85377243E-01   # -sin(theta_t)
  2  2    -1.70386883E-01   # cos(theta_t)
#
BLOCK SBOTMIX  # Sbottom Mixing Matrix
  1  1    -5.06809635E-02   # cos(theta_b)
  1  2     9.98714894E-01   # sin(theta_b)
  2  1    -9.98714894E-01   # -sin(theta_b)
  2  2    -5.06809635E-02   # cos(theta_b)
#
BLOCK STAUMIX  # Stau Mixing Matrix
  1  1     9.99979550E-01   # cos(theta_tau)
  1  2    -6.39527809E-03   # sin(theta_tau)
  2  1     6.39527809E-03   # -sin(theta_tau)
  2  2     9.99979550E-01   # cos(theta_tau)
#
BLOCK ALPHA  # Higgs mixing
          -4.66048045E-02   # Mixing angle in the neutral Higgs boson sector
#
BLOCK HMIX Q=  3.07226600E+03  # DRbar Higgs Parameters
         1    -1.70775117E+03   # mu(Q)MSSM           
         2     2.20390870E+01   # tan                 
         3     2.42539866E+02   # higgs               
         4     2.52631186E+05   # mA^2(Q)MSSM         
#
BLOCK GAUGE Q=  3.07226600E+03  # The gauge couplings
     1     3.64830833E-01   # gprime(Q) DRbar
     2     6.38428901E-01   # g(Q) DRbar
     3     1.00808631E+00   # g3(Q) DRbar
#
BLOCK AU Q=  3.07226600E+03  # The trilinear couplings
  1  1     0.00000000E+00   # A_u(Q) DRbar
  2  2     0.00000000E+00   # A_c(Q) DRbar
  3  3     3.18047002E+03   # A_t(Q) DRbar
#
BLOCK AD Q=  3.07226600E+03  # The trilinear couplings
  1  1     0.00000000E+00   # A_d(Q) DRbar
  2  2     0.00000000E+00   # A_s(Q) DRbar
  3  3     1.09850001E+03   # A_b(Q) DRbar
#
BLOCK AE Q=  3.07226600E+03  # The trilinear couplings
  1  1     0.00000000E+00   # A_e(Q) DRbar
  2  2     0.00000000E+00   # A_mu(Q) DRbar
  3  3    -1.85716000E+03   # A_tau(Q) DRbar
#
BLOCK Yu Q=  3.07226600E+03  # The Yukawa couplings
  1  1     0.00000000E+00   # y_u(Q) DRbar
  2  2     0.00000000E+00   # y_c(Q) DRbar
  3  3     8.28735612E-01   # y_t(Q) DRbar
#
BLOCK Yd Q=  3.07226600E+03  # The Yukawa couplings
  1  1     0.00000000E+00   # y_d(Q) DRbar
  2  2     0.00000000E+00   # y_s(Q) DRbar
  3  3     3.27705558E-01   # y_b(Q) DRbar
#
BLOCK Ye Q=  3.07226600E+03  # The Yukawa couplings
  1  1     0.00000000E+00   # y_e(Q) DRbar
  2  2     0.00000000E+00   # y_mu(Q) DRbar
  3  3     2.18047723E-01   # y_tau(Q) DRbar
#
BLOCK MSOFT Q=  3.07226600E+03  # The soft SUSY breaking masses at the scale Q
         1     4.05490000E+02   # M_1(Q)              
         2     9.38800000E+02   # M_2(Q)              
         3     3.73246000E+03   # M_3(Q)              
        21    -2.26199991E+06   # mH1^2(Q)            
        22    -2.73313643E+06   # mH2^2(Q)            
        31     2.46388000E+03   # meL(Q)              
        32     2.46388000E+03   # mmuL(Q)             
        33     1.56397000E+03   # mtauL(Q)            
        34     3.74470000E+03   # meR(Q)              
        35     3.74470000E+03   # mmuR(Q)             
        36     3.48499000E+03   # mtauR(Q)            
        41     5.17279921E+02   # mqL1(Q)             
        42     5.17279921E+02   # mqL2(Q)             
        43     3.26514998E+03   # mqL3(Q)             
        44     9.27729956E+02   # muR(Q)              
        45     9.27729956E+02   # mcR(Q)              
        46     2.88860997E+03   # mtR(Q)              
        47     3.55102999E+03   # mdR(Q)              
        48     3.55102999E+03   # msR(Q)              
        49     2.93003999E+03   # mbR(Q)              
#
Block HiggsBoundsInputHiggsCouplingsFermions
# ScalarNormEffCoupSq PseudoSNormEffCoupSq NP   IP1 IP2 IP2
    1.05639742E+00    0.00000000E+00        3  25   5   5  # h0-b-b eff. coupling^2, normalised to SM
    4.85664958E+02    0.00000000E+00        3  35   5   5  # H0-b-b eff. coupling^2, normalised to SM
    0.00000000E+00    4.85721356E+02        3  36   5   5  # A0-b-b eff. coupling^2, normalised to SM
#
    9.99883889E-01    0.00000000E+00        3  25   6   6  # h0-t-t eff. coupling^2, normalised to SM
    2.17490420E-03    0.00000000E+00        3  35   6   6  # H0-t-t eff. coupling^2, normalised to SM
    0.00000000E+00    2.05879356E-03        3  36   6   6  # A0-t-t eff. coupling^2, normalised to SM
#
    1.05639742E+00    0.00000000E+00        3  25  15  15  # h0-tau-tau eff. coupling^2, normalised to SM
    4.85664958E+02    0.00000000E+00        3  35  15  15  # H0-tau-tau eff. coupling^2, normalised to SM
    0.00000000E+00    4.85721356E+02        3  36  15  15  # A0-tau-tau eff. coupling^2, normalised to SM
#
Block HiggsBoundsInputHiggsCouplingsBosons
    9.99998407E-01        3  25  24  24  # h0-W-W eff. coupling^2, normalised to SM
    1.59257802E-06        3  35  24  24  # H0-W-W eff. coupling^2, normalised to SM
    0.00000000E+00        3  36  24  24  # A0-W-W eff. coupling^2, normalised to SM
#
    9.99998407E-01        3  25  23  23  # h0-Z-Z eff. coupling^2, normalised to SM
    1.59257802E-06        3  35  23  23  # H0-Z-Z eff. coupling^2, normalised to SM
    0.00000000E+00        3  36  23  23  # A0-Z-Z eff. coupling^2, normalised to SM
#
    8.85250900E-01        3  25  21  21  # h0-g-g eff. coupling^2, normalised to SM
    1.34383860E-04        3  35  21  21  # H0-g-g eff. coupling^2, normalised to SM
    5.19354919E-04        3  36  21  21  # A0-g-g eff. coupling^2, normalised to SM
#
    0.00000000E+00        3  25  25  23  # h0-h0-Z eff. coupling^2, normalised to SM
    0.00000000E+00        3  35  25  23  # H0-h0-Z eff. coupling^2, normalised to SM
    1.59257802E-06        3  36  25  23  # A0-h0-Z eff. coupling^2, normalised to SM
    0.00000000E+00        3  35  35  23  # H0-H0-Z eff. coupling^2, normalised to SM
    9.99998407E-01        3  36  35  23  # A0-H0-Z eff. coupling^2, normalised to SM
    0.00000000E+00        3  36  36  23  # A0-A0-Z eff. coupling^2, normalised to SM
#
    0.00000000E+00        4  25  21  21  23  # h0-g-g-Z eff. coupling^2, normalised to SM
    0.00000000E+00        4  35  21  21  23  # H0-g-g-Z eff. coupling^2, normalised to SM
    0.00000000E+00        4  36  21  21  23  # A0-g-g-Z eff. coupling^2, normalised to SM
#
#
#
#                             =================
#                             |The decay table|
#                             =================
#
# - The QCD corrections to the decays gluino -> squark  + quark
#                                     squark -> gaugino + quark_prime
#                                     squark -> squark_prime + Higgs
#                                     squark -> gluino  + quark
#   are included.
#
# - The multi-body decays for the inos, stops and sbottoms are included.
#
# - The loop induced decays for the gluino, neutralinos and stops
#   are included.
#
# - The SUSY decays of the top quark are included.
#
#
#         PDG            Width
DECAY         6     1.43552345E+00   # top decays
#          BR         NDA      ID1       ID2
     1.00000000E+00    2           5        24   # BR(t ->  b    W+)
#
#         PDG            Width
DECAY   1000021     4.32083586E+02   # gluino decays
#          BR         NDA      ID1       ID2
     7.99145870E-02    2     1000001        -1   # BR(~g -> ~d_L  db)
     7.99145870E-02    2    -1000001         1   # BR(~g -> ~d_L* d )
     4.25137289E-04    2     2000001        -1   # BR(~g -> ~d_R  db)
     4.25137289E-04    2    -2000001         1   # BR(~g -> ~d_R* d )
     7.99882771E-02    2     1000002        -2   # BR(~g -> ~u_L  ub)
     7.99882771E-02    2    -1000002         2   # BR(~g -> ~u_L* u )
     7.28828272E-02    2     2000002        -2   # BR(~g -> ~u_R  ub)
     7.28828272E-02    2    -2000002         2   # BR(~g -> ~u_R* u )
     7.99145870E-02    2     1000003        -3   # BR(~g -> ~s_L  sb)
     7.99145870E-02    2    -1000003         3   # BR(~g -> ~s_L* s )
     4.25137289E-04    2     2000003        -3   # BR(~g -> ~s_R  sb)
     4.25137289E-04    2    -2000003         3   # BR(~g -> ~s_R* s )
     7.99882757E-02    2     1000004        -4   # BR(~g -> ~c_L  cb)
     7.99882757E-02    2    -1000004         4   # BR(~g -> ~c_L* c )
     7.28828245E-02    2     2000004        -4   # BR(~g -> ~c_R  cb)
     7.28828245E-02    2    -2000004         4   # BR(~g -> ~c_R* c )
     1.12709909E-02    2     1000005        -5   # BR(~g -> ~b_1  bb)
     1.12709909E-02    2    -1000005         5   # BR(~g -> ~b_1* b )
     4.36566136E-03    2     2000005        -5   # BR(~g -> ~b_2  bb)
     4.36566136E-03    2    -2000005         5   # BR(~g -> ~b_2* b )
     1.45880947E-02    2     1000006        -6   # BR(~g -> ~t_1  tb)
     1.45880947E-02    2    -1000006         6   # BR(~g -> ~t_1* t )
     3.35360004E-03    2     2000006        -6   # BR(~g -> ~t_2  tb)
     3.35360004E-03    2    -2000006         6   # BR(~g -> ~t_2* t )
#
#         PDG            Width
DECAY   1000006     4.13805764E+01   # stop1 decays
#          BR         NDA      ID1       ID2
     1.54993638E-01    2     1000022         6   # BR(~t_1 -> ~chi_10 t )
     2.94142075E-03    2     1000023         6   # BR(~t_1 -> ~chi_20 t )
     2.00254243E-01    2     1000025         6   # BR(~t_1 -> ~chi_30 t )
     2.19832350E-01    2     1000035         6   # BR(~t_1 -> ~chi_40 t )
     5.97510682E-03    2     1000024         5   # BR(~t_1 -> ~chi_1+ b )
     4.16003241E-01    2     1000037         5   # BR(~t_1 -> ~chi_2+ b )
#
#         PDG            Width
DECAY   2000006     7.24247621E+01   # stop2 decays
#          BR         NDA      ID1       ID2
     9.89190632E-03    2     1000022         6   # BR(~t_2 -> ~chi_10 t )
     1.56297989E-01    2     1000023         6   # BR(~t_2 -> ~chi_20 t )
     1.77248654E-01    2     1000025         6   # BR(~t_2 -> ~chi_30 t )
     1.64536051E-01    2     1000035         6   # BR(~t_2 -> ~chi_40 t )
     3.15905164E-01    2     1000024         5   # BR(~t_2 -> ~chi_1+ b )
     5.84916739E-02    2     1000037         5   # BR(~t_2 -> ~chi_2+ b )
     5.84013143E-02    2     1000006        25   # BR(~t_2 -> ~t_1    h )
     5.48167138E-02    2     1000006        23   # BR(~t_2 -> ~t_1    Z )
     4.41053267E-03    2     1000005        24   # BR(~t_2 -> ~b_1    W+)
#
#         PDG            Width
DECAY   1000005     7.83555810E+00   # sbottom1 decays
#          BR         NDA      ID1       ID2
     2.22172010E-01    2     1000022         5   # BR(~b_1 -> ~chi_10 b )
     1.16767505E-02    2     1000023         5   # BR(~b_1 -> ~chi_20 b )
     1.90903216E-01    2     1000025         5   # BR(~b_1 -> ~chi_30 b )
     1.87469837E-01    2     1000035         5   # BR(~b_1 -> ~chi_40 b )
     2.30602001E-02    2    -1000024         6   # BR(~b_1 -> ~chi_1- t )
     3.64712286E-01    2    -1000037         6   # BR(~b_1 -> ~chi_2- t )
     5.70045206E-06    2     1000006       -24   # BR(~b_1 -> ~t_1    W-)
#
#         PDG            Width
DECAY   2000005     7.08007814E+01   # sbottom2 decays
#          BR         NDA      ID1       ID2
     6.69506553E-03    2     1000022         5   # BR(~b_2 -> ~chi_10 b )
     1.60541516E-01    2     1000023         5   # BR(~b_2 -> ~chi_20 b )
     2.76173262E-02    2     1000025         5   # BR(~b_2 -> ~chi_30 b )
     2.80733617E-02    2     1000035         5   # BR(~b_2 -> ~chi_40 b )
     3.17647076E-01    2    -1000024         6   # BR(~b_2 -> ~chi_1- t )
     3.51722469E-01    2    -1000037         6   # BR(~b_2 -> ~chi_2- t )
     2.18711029E-03    2     1000005        25   # BR(~b_2 -> ~b_1    h )
     2.03638589E-03    2     1000005        23   # BR(~b_2 -> ~b_1    Z )
     1.03479690E-01    2     1000006       -24   # BR(~b_2 -> ~t_1    W-)
#
#         PDG            Width
DECAY   1000002     6.59210478E-02   # sup_L decays
#          BR         NDA      ID1       ID2
     1.00000000E+00    2     1000022         2   # BR(~u_L -> ~chi_10 u)
#
#         PDG            Width
DECAY   2000002     2.06346247E+00   # sup_R decays
#          BR         NDA      ID1       ID2
     9.99999450E-01    2     1000022         2   # BR(~u_R -> ~chi_10 u)
     5.50499488E-07    2     1000023         2   # BR(~u_R -> ~chi_20 u)
#
#         PDG            Width
DECAY   1000001     6.73809528E-02   # sdown_L decays
#          BR         NDA      ID1       ID2
     1.00000000E+00    2     1000022         1   # BR(~d_L -> ~chi_10 d)
#
#         PDG            Width
DECAY   2000001     2.03576105E+00   # sdown_R decays
#          BR         NDA      ID1       ID2
     9.99523493E-01    2     1000022         1   # BR(~d_R -> ~chi_10 d)
     4.72302089E-06    2     1000023         1   # BR(~d_R -> ~chi_20 d)
     1.49965000E-04    2     1000025         1   # BR(~d_R -> ~chi_30 d)
     3.21818888E-04    2     1000035         1   # BR(~d_R -> ~chi_40 d)
#
#         PDG            Width
DECAY   1000004     6.22443517E-02   # scharm_L decays
#          BR         NDA      ID1       ID2
     1.00000000E+00    2     1000022         4   # BR(~c_L -> ~chi_10 c)
#
#         PDG            Width
DECAY   2000004     1.98187287E+00   # scharm_R decays
#          BR         NDA      ID1       ID2
     9.99999462E-01    2     1000022         4   # BR(~c_R -> ~chi_10 c)
     5.38265377E-07    2     1000023         4   # BR(~c_R -> ~chi_20 c)
#
#         PDG            Width
DECAY   1000003     6.36403887E-02   # sstrange_L decays
#          BR         NDA      ID1       ID2
     1.00000000E+00    2     1000022         3   # BR(~s_L -> ~chi_10 s)
#
#         PDG            Width
DECAY   2000003     2.10009283E+00   # sstrange_R decays
#          BR         NDA      ID1       ID2
     9.99526250E-01    2     1000022         3   # BR(~s_R -> ~chi_10 s)
     4.71235269E-06    2     1000023         3   # BR(~s_R -> ~chi_20 s)
     1.49093813E-04    2     1000025         3   # BR(~s_R -> ~chi_30 s)
     3.19944020E-04    2     1000035         3   # BR(~s_R -> ~chi_40 s)
#
#         PDG            Width
DECAY   1000011     2.49404370E+01   # selectron_L decays
#          BR         NDA      ID1       ID2
     1.24153637E-01    2     1000022        11   # BR(~e_L -> ~chi_10 e-)
     2.92379171E-01    2     1000023        11   # BR(~e_L -> ~chi_20 e-)
     1.71569951E-05    2     1000025        11   # BR(~e_L -> ~chi_30 e-)
     3.02636096E-04    2     1000035        11   # BR(~e_L -> ~chi_40 e-)
     5.81515807E-01    2    -1000024        12   # BR(~e_L -> ~chi_1- nu_e)
     1.63159191E-03    2    -1000037        12   # BR(~e_L -> ~chi_2- nu_e)
#
#         PDG            Width
DECAY   2000011     1.93881077E+01   # selectron_R decays
#          BR         NDA      ID1       ID2
     9.99514102E-01    2     1000022        11   # BR(~e_R -> ~chi_10 e-)
     4.73887764E-06    2     1000023        11   # BR(~e_R -> ~chi_20 e-)
     1.52935793E-04    2     1000025        11   # BR(~e_R -> ~chi_30 e-)
     3.28223443E-04    2     1000035        11   # BR(~e_R -> ~chi_40 e-)
#
#         PDG            Width
DECAY   1000013     2.49404370E+01   # smuon_L decays
#          BR         NDA      ID1       ID2
     1.24153637E-01    2     1000022        13   # BR(~mu_L -> ~chi_10 mu-)
     2.92379170E-01    2     1000023        13   # BR(~mu_L -> ~chi_20 mu-)
     1.71569949E-05    2     1000025        13   # BR(~mu_L -> ~chi_30 mu-)
     3.02636092E-04    2     1000035        13   # BR(~mu_L -> ~chi_40 mu-)
     5.81515808E-01    2    -1000024        14   # BR(~mu_L -> ~chi_1- nu_mu)
     1.63159192E-03    2    -1000037        14   # BR(~mu_L -> ~chi_2- nu_mu)
#
#         PDG            Width
DECAY   2000013     1.93881076E+01   # smuon_R decays
#          BR         NDA      ID1       ID2
     9.99514102E-01    2     1000022        13   # BR(~mu_R -> ~chi_10 mu-)
     4.73887764E-06    2     1000023        13   # BR(~mu_R -> ~chi_20 mu-)
     1.52935793E-04    2     1000025        13   # BR(~mu_R -> ~chi_30 mu-)
     3.28223442E-04    2     1000035        13   # BR(~mu_R -> ~chi_40 mu-)
#
#         PDG            Width
DECAY   1000015     9.60934495E+00   # stau_1 decays
#          BR         NDA      ID1       ID2
     1.89456668E-01    2     1000022        15   # BR(~tau_1 -> ~chi_10  tau-)
     2.71416250E-01    2     1000023        15   # BR(~tau_1 -> ~chi_20  tau-)
     5.39127082E-01    2    -1000024        16   # BR(~tau_1 -> ~chi_1-  nu_tau)
#
#         PDG            Width
DECAY   2000015     2.42885086E+01   # stau_2 decays
#          BR         NDA      ID1       ID2
     7.39175306E-01    2     1000022        15   # BR(~tau_2 -> ~chi_10  tau-)
     2.79086909E-04    2     1000023        15   # BR(~tau_2 -> ~chi_20  tau-)
     3.90032356E-02    2     1000025        15   # BR(~tau_2 -> ~chi_30  tau-)
     3.88748337E-02    2     1000035        15   # BR(~tau_2 -> ~chi_40  tau-)
     5.48330392E-04    2    -1000024        16   # BR(~tau_2 -> ~chi_1-  nu_tau)
     7.72820057E-02    2    -1000037        16   # BR(~tau_2 -> ~chi_2-  nu_tau)
     2.95529801E-02    2     1000016       -37   # BR(~tau_2 -> ~nu_tauL H-)
     2.24988314E-02    2     1000016       -24   # BR(~tau_2 -> ~nu_tauL W-)
     1.16353806E-02    2     1000015        25   # BR(~tau_2 -> ~tau_1   h)
     1.48077974E-02    2     1000015        35   # BR(~tau_2 -> ~tau_1   H)
     1.47791021E-02    2     1000015        36   # BR(~tau_2 -> ~tau_1   A)
     1.15631104E-02    2     1000015        23   # BR(~tau_2 -> ~tau_1   Z)
#
#         PDG            Width
DECAY   1000012     2.49500603E+01   # snu_eL decays
#          BR         NDA      ID1       ID2
     1.24420920E-01    2     1000022        12   # BR(~nu_eL -> ~chi_10 nu_e)
     2.90422049E-01    2     1000023        12   # BR(~nu_eL -> ~chi_20 nu_e)
     9.86560367E-05    2     1000025        12   # BR(~nu_eL -> ~chi_30 nu_e)
     6.67829710E-04    2     1000035        12   # BR(~nu_eL -> ~chi_40 nu_e)
     5.83965930E-01    2     1000024        11   # BR(~nu_eL -> ~chi_1+ e-)
     4.24615578E-04    2     1000037        11   # BR(~nu_eL -> ~chi_2+ e-)
#
#         PDG            Width
DECAY   1000014     2.49500602E+01   # snu_muL decays
#          BR         NDA      ID1       ID2
     1.24420920E-01    2     1000022        14   # BR(~nu_muL -> ~chi_10 nu_mu)
     2.90422050E-01    2     1000023        14   # BR(~nu_muL -> ~chi_20 nu_mu)
     9.86560370E-05    2     1000025        14   # BR(~nu_muL -> ~chi_30 nu_mu)
     6.67829712E-04    2     1000035        14   # BR(~nu_muL -> ~chi_40 nu_mu)
     5.83965928E-01    2     1000024        13   # BR(~nu_muL -> ~chi_1+ mu-)
     4.24615574E-04    2     1000037        13   # BR(~nu_muL -> ~chi_2+ mu-)
#
#         PDG            Width
DECAY   1000016     9.59180297E+00   # snu_tauL decays
#          BR         NDA      ID1       ID2
     1.89920232E-01    2     1000022        16   # BR(~nu_tauL -> ~chi_10 nu_tau)
     2.68930905E-01    2     1000023        16   # BR(~nu_tauL -> ~chi_20 nu_tau)
     5.41148863E-01    2     1000024        15   # BR(~nu_tauL -> ~chi_1+ tau-)
#
#         PDG            Width
DECAY   1000024     4.78255411E+00   # chargino1+ decays
#          BR         NDA      ID1       ID2
     2.56231378E-01    2     1000002        -1   # BR(~chi_1+ -> ~u_L     db)
     2.43625013E-01    2    -1000001         2   # BR(~chi_1+ -> ~d_L*    u )
     2.56230791E-01    2     1000004        -3   # BR(~chi_1+ -> ~c_L     sb)
     2.43615566E-01    2    -1000003         4   # BR(~chi_1+ -> ~s_L*     c )
     2.97251910E-04    2     1000022        24   # BR(~chi_1+ -> ~chi_10  W+)
#
#         PDG            Width
DECAY   1000037     9.94335768E+00   # chargino2+ decays
#          BR         NDA      ID1       ID2
     2.69067389E-03    2     1000002        -1   # BR(~chi_2+ -> ~u_L     db)
     1.02486406E-02    2    -1000001         2   # BR(~chi_2+ -> ~d_L*    u )
     2.69067379E-03    2     1000004        -3   # BR(~chi_2+ -> ~c_L     sb)
     1.02486348E-02    2    -1000003         4   # BR(~chi_2+ -> ~s_L*     c )
     2.23762776E-03    2     1000016       -15   # BR(~chi_2+ -> ~nu_tau1 tau+)
     1.33440274E-04    2    -1000015        16   # BR(~chi_2+ -> ~tau_1+  nu_tau)
     2.64084545E-01    2     1000024        23   # BR(~chi_2+ -> ~chi_1+  Z )
     1.01614732E-01    2     1000022        24   # BR(~chi_2+ -> ~chi_10  W+)
     2.57084684E-01    2     1000023        24   # BR(~chi_2+ -> ~chi_20  W+)
     2.83517845E-01    2     1000024        25   # BR(~chi_2+ -> ~chi_1+  h )
     6.54485026E-02    2     1000022        37   # BR(~chi_2+ -> ~chi_10  H+)
#
#         PDG            Width
DECAY   1000022     0.00000000E+00   # neutralino1 decays
#
#         PDG            Width
DECAY   1000023     4.77432382E+00   # neutralino2 decays
#          BR         NDA      ID1       ID2
     7.45209510E-05    2     1000022        23   # BR(~chi_20 -> ~chi_10   Z )
     2.63130225E-04    2     1000022        25   # BR(~chi_20 -> ~chi_10   h )
     1.27870013E-01    2     1000002        -2   # BR(~chi_20 -> ~u_L      ub)
     1.27870013E-01    2    -1000002         2   # BR(~chi_20 -> ~u_L*     u )
     1.22047926E-01    2     1000001        -1   # BR(~chi_20 -> ~d_L      db)
     1.22047926E-01    2    -1000001         1   # BR(~chi_20 -> ~d_L*     d )
     1.27865310E-01    2     1000004        -4   # BR(~chi_20 -> ~c_L      cb)
     1.27865310E-01    2    -1000004         4   # BR(~chi_20 -> ~c_L*     c )
     1.22047926E-01    2     1000003        -3   # BR(~chi_20 -> ~s _L      sb)
     1.22047926E-01    2    -1000003         3   # BR(~chi_20 -> ~s _L*     s )
#
#         PDG            Width
DECAY   1000025     9.47992985E+00   # neutralino3 decays
#          BR         NDA      ID1       ID2
     7.51991338E-02    2     1000022        23   # BR(~chi_30 -> ~chi_10   Z )
     2.49309730E-01    2     1000023        23   # BR(~chi_30 -> ~chi_20   Z )
     2.68872462E-01    2     1000024       -24   # BR(~chi_30 -> ~chi_1+   W-)
     2.68872462E-01    2    -1000024        24   # BR(~chi_30 -> ~chi_1-   W+)
     3.59213580E-02    2     1000022        25   # BR(~chi_30 -> ~chi_10   h )
     1.30482305E-02    2     1000022        35   # BR(~chi_30 -> ~chi_10   H )
     5.68048260E-02    2     1000022        36   # BR(~chi_30 -> ~chi_10   A )
     2.69504257E-02    2     1000023        25   # BR(~chi_30 -> ~chi_20   h )
     2.41885503E-04    2     1000002        -2   # BR(~chi_30 -> ~u_L      ub)
     2.41885503E-04    2    -1000002         2   # BR(~chi_30 -> ~u_L*     u )
     5.28285084E-05    2     2000002        -2   # BR(~chi_30 -> ~u_R      ub)
     5.28285084E-05    2    -2000002         2   # BR(~chi_30 -> ~u_R*     u )
     4.18229935E-04    2     1000001        -1   # BR(~chi_30 -> ~d_L      db)
     4.18229935E-04    2    -1000001         1   # BR(~chi_30 -> ~d_L*     d )
     2.41885367E-04    2     1000004        -4   # BR(~chi_30 -> ~c_L      cb)
     2.41885367E-04    2    -1000004         4   # BR(~chi_30 -> ~c_L*     c )
     5.28283967E-05    2     2000004        -4   # BR(~chi_30 -> ~c_R      cb)
     5.28283967E-05    2    -2000004         4   # BR(~chi_30 -> ~c_R*     c )
     4.18229935E-04    2     1000003        -3   # BR(~chi_30 -> ~s _L      sb)
     4.18229935E-04    2    -1000003         3   # BR(~chi_30 -> ~s _L*     s )
     1.07607196E-03    2     1000015       -15   # BR(~chi_30 -> ~tau_1-   tau+)
     1.07607196E-03    2    -1000015        15   # BR(~chi_30 -> ~tau_1+   tau-)
     8.72611935E-06    2     1000016       -16   # BR(~chi_30 -> ~nu_tau1  nu_taub)
     8.72611935E-06    2    -1000016        16   # BR(~chi_30 -> ~nu_tau1* nu_tau )
#
#         PDG            Width
DECAY   1000035     9.95759374E+00   # neutralino4 decays
#          BR         NDA      ID1       ID2
     3.33113148E-02    2     1000022        23   # BR(~chi_40 -> ~chi_10   Z )
     2.57825435E-02    2     1000023        23   # BR(~chi_40 -> ~chi_20   Z )
     2.58797683E-01    2     1000024       -24   # BR(~chi_40 -> ~chi_1+   W-)
     2.58797683E-01    2    -1000024        24   # BR(~chi_40 -> ~chi_1-   W+)
     7.35571717E-02    2     1000022        25   # BR(~chi_40 -> ~chi_10   h )
     5.37088257E-02    2     1000022        35   # BR(~chi_40 -> ~chi_10   H )
     1.23825511E-02    2     1000022        36   # BR(~chi_40 -> ~chi_10   A )
     2.57352379E-01    2     1000023        25   # BR(~chi_40 -> ~chi_20   h )
     2.57322437E-03    2     1000002        -2   # BR(~chi_40 -> ~u_L      ub)
     2.57322437E-03    2    -1000002         2   # BR(~chi_40 -> ~u_L*     u )
     1.08764803E-04    2     2000002        -2   # BR(~chi_40 -> ~u_R      ub)
     1.08764803E-04    2    -2000002         2   # BR(~chi_40 -> ~u_R*     u )
     3.32567763E-03    2     1000001        -1   # BR(~chi_40 -> ~d_L      db)
     3.32567763E-03    2    -1000001         1   # BR(~chi_40 -> ~d_L*     d )
     2.57322294E-03    2     1000004        -4   # BR(~chi_40 -> ~c_L      cb)
     2.57322294E-03    2    -1000004         4   # BR(~chi_40 -> ~c_L*     c )
     1.08764576E-04    2     2000004        -4   # BR(~chi_40 -> ~c_R      cb)
     1.08764576E-04    2    -2000004         4   # BR(~chi_40 -> ~c_R*     c )
     3.32567763E-03    2     1000003        -3   # BR(~chi_40 -> ~s _L      sb)
     3.32567763E-03    2    -1000003         3   # BR(~chi_40 -> ~s _L*     s )
     1.08108261E-03    2     1000015       -15   # BR(~chi_40 -> ~tau_1-   tau+)
     1.08108261E-03    2    -1000015        15   # BR(~chi_40 -> ~tau_1+   tau-)
     5.85100152E-05    2     1000016       -16   # BR(~chi_40 -> ~nu_tau1  nu_taub)
     5.85100152E-05    2    -1000016        16   # BR(~chi_40 -> ~nu_tau1* nu_tau )
#
#         PDG            Width
DECAY        25     3.92055222E-03   # h decays
#          BR         NDA      ID1       ID2
     5.88543647E-01    2           5        -5   # BR(h -> b       bb     )
     6.96796642E-02    2         -15        15   # BR(h -> tau+    tau-   )
     2.46524348E-04    2         -13        13   # BR(h -> mu+     mu-    )
     2.71415100E-04    2           3        -3   # BR(h -> s       sb     )
     2.20834363E-02    2           4        -4   # BR(h -> c       cb     )
     8.07373882E-02    2          21        21   # BR(h -> g       g      )
     2.38407338E-03    2          22        22   # BR(h -> gam     gam    )
     1.55749536E-03    2          22        23   # BR(h -> Z       gam    )
     2.08570230E-01    2          24       -24   # BR(h -> W+      W-     )
     2.59261264E-02    2          23        23   # BR(h -> Z       Z      )
#
#         PDG            Width
DECAY        35     7.82068967E+00   # H decays
#          BR         NDA      ID1       ID2
     8.77465740E-01    2           5        -5   # BR(H -> b       bb     )
     1.12131634E-01    2         -15        15   # BR(H -> tau+    tau-   )
     3.89679406E-04    2         -13        13   # BR(H -> mu+     mu-    )
     3.97186363E-04    2           3        -3   # BR(H -> s       sb     )
     1.13588821E-07    2           4        -4   # BR(H -> c       cb     )
     9.30511970E-03    2           6        -6   # BR(H -> t       tb     )
     9.46613671E-05    2          21        21   # BR(H -> g       g      )
     4.16173698E-08    2          22        22   # BR(H -> gam     gam    )
     4.15113230E-08    2          23        22   # BR(H -> Z       gam    )
     3.49634526E-05    2          24       -24   # BR(H -> W+      W-     )
     1.71744359E-05    2          23        23   # BR(H -> Z       Z      )
     1.60671202E-04    2          25        25   # BR(H -> h       h      )
     2.97373160E-06    2     1000022   1000022   # BR(H -> ~chi_10 ~chi_10)
#
#         PDG            Width
DECAY        36     7.82865385E+00   # A decays
#          BR         NDA      ID1       ID2
     8.76692330E-01    2           5        -5   # BR(A -> b       bb     )
     1.12026249E-01    2         -15        15   # BR(A -> tau+    tau-   )
     3.89306372E-04    2         -13        13   # BR(A -> mu+     mu-    )
     3.96862250E-04    2           3        -3   # BR(A -> s       sb     )
     1.08391008E-07    2           4        -4   # BR(A -> c       cb     )
     1.02292241E-02    2           6        -6   # BR(A -> t       tb     )
     1.85898581E-04    2          21        21   # BR(A -> g       g      )
     1.57538627E-07    2          22        22   # BR(A -> gam     gam    )
     7.67666823E-08    2          23        22   # BR(A -> Z       gam    )
     3.37782228E-05    2          23        25   # BR(A -> Z       h      )
     4.60090279E-05    2     1000022   1000022   # BR(A -> ~chi_10 ~chi_10)
#
#         PDG            Width
DECAY        37     8.09783348E+00   # H+ decays
#          BR         NDA      ID1       ID2
     1.52554601E-03    2           4        -5   # BR(H+ -> c       bb     )
     1.08788535E-01    2         -15        16   # BR(H+ -> tau+    nu_tau )
     3.78054845E-04    2         -13        14   # BR(H+ -> mu+     nu_mu  )
     1.52552517E-05    2           2        -5   # BR(H+ -> u       bb     )
     1.91722822E-05    2           2        -3   # BR(H+ -> u       sb     )
     3.77468107E-04    2           4        -3   # BR(H+ -> c       sb     )
     8.88862547E-01    2           6        -5   # BR(H+ -> t       bb     )
     3.34213803E-05    2          24        25   # BR(H+ -> W+      h      )
     1.13421114E-10    2          24        36   # BR(H+ -> W+      A      )
