#
#                              ======================
#                              | THE SUSYHIT OUTPUT |
#                              ======================
#
#
#              ------------------------------------------------------
#              |     This is the output of the SUSY-HIT package     |
#              |  created by A.Djouadi, M.Muehlleitner and M.Spira. |
#              |  In case of problems with SUSY-HIT email to        |
#              |           margarete.muehlleitner@cern.ch           |
#              |           michael.spira@psi.ch                     |
#              |           abdelhak.djouadi@cern.ch                 |
#              ------------------------------------------------------
#
#              ------------------------------------------------------
#              |  SUSY Les Houches Accord - MSSM Spectrum + Decays  |
#              |              based on the decay programs           |
#              |                                                    |
#              |                     SDECAY 1.3b                    |
#              |                                                    |
#              |  Authors: M.Muhlleitner, A.Djouadi and Y.Mambrini  |
#              |  Ref.:    Comput.Phys.Commun.168(2005)46           |
#              |           [hep-ph/0311167]                         |
#              |                                                    |
#              |                     HDECAY 3.4                     |
#              |                                                    |
#              |  By: A.Djouadi,J.Kalinowski,M.Muhlleitner,M.Spira  |
#              |  Ref.:    Comput.Phys.Commun.108(1998)56           |
#              |           [hep-ph/9704448]                         |
#              |                                                    |
#              |                                                    |
#              |  If not stated otherwise all DRbar couplings and   |
#              |  soft SUSY breaking masses are given at the scale  |
#              |  Q=  0.19275850E+04
#              |                                                    |
#              ------------------------------------------------------
#
#
BLOCK DCINFO  # Decay Program information
     1   SDECAY/HDECAY # decay calculator
     2   1.3b  /3.4    # version number
#
BLOCK SPINFO  # Spectrum calculator information
     1     SOFTSUSY    # spectrum calculator               
     2     3.4.0       # version number                    
#
BLOCK MODSEL  # Model selection
     1     0   #  nonUniversal                                     
#
BLOCK SMINPUTS  # Standard Model inputs
         1     1.27908970E+02   # alpha_em^-1(M_Z)^MSbar
         2     1.16637870E-05   # G_F [GeV^-2]
         3     1.18400000E-01   # alpha_S(M_Z)^MSbar
         4     9.11876000E+01   # M_Z pole mass
         5     4.18000000E+00   # mb(mb)^MSbar
         6     1.73200000E+02   # mt pole mass
         7     1.77700000E+00   # mtau pole mass
#
BLOCK MINPAR  # Input parameters - minimal models
         3     3.12000000E+01   # tanb                
#
BLOCK EXTPAR  # Input parameters - non-minimal models
         0    -1.00000000E+00   # Set                 
         1    -2.32933000E+03   # M_1(MX)             
         2    -3.94317000E+03   # M_2(MX)             
         3     1.98082000E+03   # M_3(MX)             
        11    -3.00726000E+03   # At(MX)              
        12    -3.79734000E+03   # Ab(MX)              
        13     1.51162000E+03   # Atau(MX)            
        23     5.91870000E+02   # mu(MX)              
        26     2.61159000E+03   # mA(pole)            
        31     3.13795000E+03   # meL(MX)             
        32     3.13795000E+03   # mmuL(MX)            
        33     1.23680000E+03   # mtauL(MX)           
        34     6.88910000E+02   # meR(MX)             
        35     6.88910000E+02   # mmuR(MX)            
        36     2.84293000E+03   # mtauR(MX)           
        41     1.05098000E+03   # mqL1(MX)            
        42     1.05098000E+03   # mqL2(MX)            
        43     2.85387000E+03   # mqL3(MX)            
        44     1.66251000E+03   # muR(MX)             
        45     1.66251000E+03   # mcR(MX)             
        46     1.30200000E+03   # mtR(MX)             
        47     8.02100000E+02   # mdR(MX)             
        48     8.02100000E+02   # msR(MX)             
        49     1.69473000E+03   # mbR(MX)             
#
BLOCK MASS  # Mass Spectrum
# PDG code           mass       particle
        24     8.03942135E+01   # W+
        25     1.24305326E+02   # h
        35     2.61158648E+03   # H
        36     2.61159001E+03   # A
        37     2.61295812E+03   # H+
         5     4.81876030E+00   # b-quark pole mass calculated from mb(mb)_Msbar
   1000001     1.13308302E+03   # ~d_L
   2000001     9.11361144E+02   # ~d_R
   1000002     1.13042448E+03   # ~u_L
   2000002     1.74063667E+03   # ~u_R
   1000003     1.13308302E+03   # ~s_L
   2000003     9.11361144E+02   # ~s_R
   1000004     1.13042448E+03   # ~c_L
   2000004     1.74063667E+03   # ~c_R
   1000005     1.77188150E+03   # ~b_1
   2000005     2.87935942E+03   # ~b_2
   1000006     1.36150081E+03   # ~t_1
   2000006     2.88742862E+03   # ~t_2
   1000011     3.14610963E+03   # ~e_L
   2000011     7.05661377E+02   # ~e_R
   1000012     3.14479498E+03   # ~nu_eL
   1000013     3.14610963E+03   # ~mu_L
   2000013     7.05661377E+02   # ~mu_R
   1000014     3.14479498E+03   # ~nu_muL
   1000015     1.22682329E+03   # ~tau_1
   2000015     2.84591863E+03   # ~tau_2
   1000016     1.22403418E+03   # ~nu_tauL
   1000021     2.03000778E+03   # ~g
   1000022    -6.11779165E+02   # ~chi_10
   1000023     6.13861325E+02   # ~chi_20
   1000025    -2.29893475E+03   # ~chi_30
   1000035    -3.90040119E+03   # ~chi_40
   1000024     6.13158718E+02   # ~chi_1+
   1000037     3.90056594E+03   # ~chi_2+
#
BLOCK NMIX  # Neutralino Mixing Matrix
  1  1     1.81837886E-02   # N_11
  1  2    -1.59101177E-02   # N_12
  1  3     7.07636138E-01   # N_13
  1  4     7.06163801E-01   # N_14
  2  1     1.12695976E-02   # N_21
  2  2    -1.25074702E-02   # N_22
  2  3    -7.06555838E-01   # N_23
  2  4     7.07457000E-01   # N_24
  3  1     9.99770919E-01   # N_31
  3  2     1.10591337E-03   # N_32
  3  3    -4.90438974E-03   # N_33
  3  4    -2.08046693E-02   # N_34
  4  1    -6.75538418E-04   # N_41
  4  2     9.99794583E-01   # N_42
  4  3     2.42727058E-03   # N_43
  4  4     2.01107858E-02   # N_44
#
BLOCK UMIX  # Chargino Mixing Matrix U
  1  1    -3.43198062E-03   # U_11
  1  2     9.99994111E-01   # U_12
  2  1    -9.99994111E-01   # U_21
  2  2    -3.43198062E-03   # U_22
#
BLOCK VMIX  # Chargino Mixing Matrix V
  1  1     2.84299132E-02   # V_11
  1  2     9.99595788E-01   # V_12
  2  1     9.99595788E-01   # V_21
  2  2    -2.84299132E-02   # V_22
#
BLOCK STOPMIX  # Stop Mixing Matrix
  1  1     6.86749593E-02   # cos(theta_t)
  1  2     9.97639088E-01   # sin(theta_t)
  2  1    -9.97639088E-01   # -sin(theta_t)
  2  2     6.86749593E-02   # cos(theta_t)
#
BLOCK SBOTMIX  # Sbottom Mixing Matrix
  1  1     9.14207028E-03   # cos(theta_b)
  1  2     9.99958210E-01   # sin(theta_b)
  2  1    -9.99958210E-01   # -sin(theta_b)
  2  2     9.14207028E-03   # cos(theta_b)
#
BLOCK STAUMIX  # Stau Mixing Matrix
  1  1     9.99990872E-01   # cos(theta_tau)
  1  2     4.27269431E-03   # sin(theta_tau)
  2  1    -4.27269431E-03   # -sin(theta_tau)
  2  2     9.99990872E-01   # cos(theta_tau)
#
BLOCK ALPHA  # Higgs mixing
          -3.31507289E-02   # Mixing angle in the neutral Higgs boson sector
#
BLOCK HMIX Q=  1.92758500E+03  # DRbar Higgs Parameters
         1     6.00241225E+02   # mu(Q)MSSM           
         2     3.02371221E+01   # tan                 
         3     2.43951682E+02   # higgs               
         4     7.30041137E+06   # mA^2(Q)MSSM         
#
BLOCK GAUGE Q=  1.92758500E+03  # The gauge couplings
     1     3.64021194E-01   # gprime(Q) DRbar
     2     6.35890366E-01   # g(Q) DRbar
     3     1.03197564E+00   # g3(Q) DRbar
#
BLOCK AU Q=  1.92758500E+03  # The trilinear couplings
  1  1     0.00000000E+00   # A_u(Q) DRbar
  2  2     0.00000000E+00   # A_c(Q) DRbar
  3  3    -3.00725999E+03   # A_t(Q) DRbar
#
BLOCK AD Q=  1.92758500E+03  # The trilinear couplings
  1  1     0.00000000E+00   # A_d(Q) DRbar
  2  2     0.00000000E+00   # A_s(Q) DRbar
  3  3    -3.79734000E+03   # A_b(Q) DRbar
#
BLOCK AE Q=  1.92758500E+03  # The trilinear couplings
  1  1     0.00000000E+00   # A_e(Q) DRbar
  2  2     0.00000000E+00   # A_mu(Q) DRbar
  3  3     1.51162000E+03   # A_tau(Q) DRbar
#
BLOCK Yu Q=  1.92758500E+03  # The Yukawa couplings
  1  1     0.00000000E+00   # y_u(Q) DRbar
  2  2     0.00000000E+00   # y_c(Q) DRbar
  3  3     8.26358060E-01   # y_t(Q) DRbar
#
BLOCK Yd Q=  1.92758500E+03  # The Yukawa couplings
  1  1     0.00000000E+00   # y_d(Q) DRbar
  2  2     0.00000000E+00   # y_s(Q) DRbar
  3  3     3.85690972E-01   # y_b(Q) DRbar
#
BLOCK Ye Q=  1.92758500E+03  # The Yukawa couplings
  1  1     0.00000000E+00   # y_e(Q) DRbar
  2  2     0.00000000E+00   # y_mu(Q) DRbar
  3  3     2.98385971E-01   # y_tau(Q) DRbar
#
BLOCK MSOFT Q=  1.92758500E+03  # The soft SUSY breaking masses at the scale Q
         1    -2.32933000E+03   # M_1(Q)              
         2    -3.94317000E+03   # M_2(Q)              
         3     1.98082000E+03   # M_3(Q)              
        21     6.48206510E+06   # mH1^2(Q)            
        22    -2.71033457E+05   # mH2^2(Q)            
        31     3.13795000E+03   # meL(Q)              
        32     3.13795000E+03   # mmuL(Q)             
        33     1.23680000E+03   # mtauL(Q)            
        34     6.88910000E+02   # meR(Q)              
        35     6.88910000E+02   # mmuR(Q)             
        36     2.84293000E+03   # mtauR(Q)            
        41     1.05097999E+03   # mqL1(Q)             
        42     1.05097999E+03   # mqL2(Q)             
        43     2.85386999E+03   # mqL3(Q)             
        44     1.66251000E+03   # muR(Q)              
        45     1.66251000E+03   # mcR(Q)              
        46     1.30199998E+03   # mtR(Q)              
        47     8.02099992E+02   # mdR(Q)              
        48     8.02099992E+02   # msR(Q)              
        49     1.69472999E+03   # mbR(Q)              
#
Block HiggsBoundsInputHiggsCouplingsFermions
# ScalarNormEffCoupSq PseudoSNormEffCoupSq NP   IP1 IP2 IP2
    1.00550150E+00    0.00000000E+00        3  25   5   5  # h0-b-b eff. coupling^2, normalised to SM
    9.14278051E+02    0.00000000E+00        3  35   5   5  # H0-b-b eff. coupling^2, normalised to SM
    0.00000000E+00    9.14283553E+02        3  36   5   5  # A0-b-b eff. coupling^2, normalised to SM
#
    9.99993983E-01    0.00000000E+00        3  25   6   6  # h0-t-t eff. coupling^2, normalised to SM
    1.09976987E-03    0.00000000E+00        3  35   6   6  # H0-t-t eff. coupling^2, normalised to SM
    0.00000000E+00    1.09375259E-03        3  36   6   6  # A0-t-t eff. coupling^2, normalised to SM
#
    1.00550150E+00    0.00000000E+00        3  25  15  15  # h0-tau-tau eff. coupling^2, normalised to SM
    9.14278051E+02    0.00000000E+00        3  35  15  15  # H0-tau-tau eff. coupling^2, normalised to SM
    0.00000000E+00    9.14283553E+02        3  36  15  15  # A0-tau-tau eff. coupling^2, normalised to SM
#
Block HiggsBoundsInputHiggsCouplingsBosons
    9.99999992E-01        3  25  24  24  # h0-W-W eff. coupling^2, normalised to SM
    8.25336213E-09        3  35  24  24  # H0-W-W eff. coupling^2, normalised to SM
    0.00000000E+00        3  36  24  24  # A0-W-W eff. coupling^2, normalised to SM
#
    9.99999992E-01        3  25  23  23  # h0-Z-Z eff. coupling^2, normalised to SM
    8.25336213E-09        3  35  23  23  # H0-Z-Z eff. coupling^2, normalised to SM
    0.00000000E+00        3  36  23  23  # A0-Z-Z eff. coupling^2, normalised to SM
#
    8.92571680E-01        3  25  21  21  # h0-g-g eff. coupling^2, normalised to SM
    1.55991850E-12        3  35  21  21  # H0-g-g eff. coupling^2, normalised to SM
    8.97037867E-12        3  36  21  21  # A0-g-g eff. coupling^2, normalised to SM
#
    0.00000000E+00        3  25  25  23  # h0-h0-Z eff. coupling^2, normalised to SM
    0.00000000E+00        3  35  25  23  # H0-h0-Z eff. coupling^2, normalised to SM
    8.25336213E-09        3  36  25  23  # A0-h0-Z eff. coupling^2, normalised to SM
    0.00000000E+00        3  35  35  23  # H0-H0-Z eff. coupling^2, normalised to SM
    9.99999992E-01        3  36  35  23  # A0-H0-Z eff. coupling^2, normalised to SM
    0.00000000E+00        3  36  36  23  # A0-A0-Z eff. coupling^2, normalised to SM
#
    0.00000000E+00        4  25  21  21  23  # h0-g-g-Z eff. coupling^2, normalised to SM
    0.00000000E+00        4  35  21  21  23  # H0-g-g-Z eff. coupling^2, normalised to SM
    0.00000000E+00        4  36  21  21  23  # A0-g-g-Z eff. coupling^2, normalised to SM
#
#
#
#                             =================
#                             |The decay table|
#                             =================
#
# - The QCD corrections to the decays gluino -> squark  + quark
#                                     squark -> gaugino + quark_prime
#                                     squark -> squark_prime + Higgs
#                                     squark -> gluino  + quark
#   are included.
#
# - The multi-body decays for the inos, stops and sbottoms are included.
#
# - The loop induced decays for the gluino, neutralinos and stops
#   are included.
#
# - The SUSY decays of the top quark are included.
#
#
#         PDG            Width
DECAY         6     1.42389331E+00   # top decays
#          BR         NDA      ID1       ID2
     1.00000000E+00    2           5        24   # BR(t ->  b    W+)
#
#         PDG            Width
DECAY   1000021     1.54317299E+02   # gluino decays
#          BR         NDA      ID1       ID2
     6.47902640E-02    2     1000001        -1   # BR(~g -> ~d_L  db)
     6.47902640E-02    2    -1000001         1   # BR(~g -> ~d_L* d )
     8.71483656E-02    2     2000001        -1   # BR(~g -> ~d_R  db)
     8.71483656E-02    2    -2000001         1   # BR(~g -> ~d_R* d )
     6.50654064E-02    2     1000002        -2   # BR(~g -> ~u_L  ub)
     6.50654064E-02    2    -1000002         2   # BR(~g -> ~u_L* u )
     9.58331827E-03    2     2000002        -2   # BR(~g -> ~u_R  ub)
     9.58331827E-03    2    -2000002         2   # BR(~g -> ~u_R* u )
     6.47902640E-02    2     1000003        -3   # BR(~g -> ~s_L  sb)
     6.47902640E-02    2    -1000003         3   # BR(~g -> ~s_L* s )
     8.71483656E-02    2     2000003        -3   # BR(~g -> ~s_R  sb)
     8.71483656E-02    2    -2000003         3   # BR(~g -> ~s_R* s )
     6.50653527E-02    2     1000004        -4   # BR(~g -> ~c_L  cb)
     6.50653527E-02    2    -1000004         4   # BR(~g -> ~c_L* c )
     9.58319097E-03    2     2000004        -4   # BR(~g -> ~c_R  cb)
     9.58319097E-03    2    -2000004         4   # BR(~g -> ~c_R* c )
     7.90284527E-03    2     1000005        -5   # BR(~g -> ~b_1  bb)
     7.90284527E-03    2    -1000005         5   # BR(~g -> ~b_1* b )
     3.89226271E-02    2     1000006        -6   # BR(~g -> ~t_1  tb)
     3.89226271E-02    2    -1000006         6   # BR(~g -> ~t_1* t )
#
#         PDG            Width
DECAY   1000006     2.27870031E+01   # stop1 decays
#          BR         NDA      ID1       ID2
     2.48297091E-01    2     1000022         6   # BR(~t_1 -> ~chi_10 t )
     2.39882408E-01    2     1000023         6   # BR(~t_1 -> ~chi_20 t )
     5.11820501E-01    2     1000024         5   # BR(~t_1 -> ~chi_1+ b )
#
#         PDG            Width
DECAY   2000006     1.16914059E+02   # stop2 decays
#          BR         NDA      ID1       ID2
     1.51226506E-01    2     1000022         6   # BR(~t_2 -> ~chi_10 t )
     1.52816640E-01    2     1000023         6   # BR(~t_2 -> ~chi_20 t )
     4.95075504E-04    2     1000025         6   # BR(~t_2 -> ~chi_30 t )
     6.88538487E-02    2     1000024         5   # BR(~t_2 -> ~chi_1+ b )
     3.38823067E-01    2     1000021         6   # BR(~t_2 -> ~g      t )
     1.40139483E-01    2     1000006        25   # BR(~t_2 -> ~t_1    h )
     1.45083887E-01    2     1000006        23   # BR(~t_2 -> ~t_1    Z )
     2.56149212E-03    2     1000005        24   # BR(~t_2 -> ~b_1    W+)
#
#         PDG            Width
DECAY   1000005     8.01800734E+00   # sbottom1 decays
#          BR         NDA      ID1       ID2
     2.54314311E-01    2     1000022         5   # BR(~b_1 -> ~chi_10 b )
     2.52680916E-01    2     1000023         5   # BR(~b_1 -> ~chi_20 b )
     4.92993758E-01    2    -1000024         6   # BR(~b_1 -> ~chi_1- t )
     1.10156323E-05    2     1000006       -24   # BR(~b_1 -> ~t_1    W-)
#
#         PDG            Width
DECAY   2000005     1.17265121E+02   # sbottom2 decays
#          BR         NDA      ID1       ID2
     3.31850558E-02    2     1000022         5   # BR(~b_2 -> ~chi_10 b )
     3.30937588E-02    2     1000023         5   # BR(~b_2 -> ~chi_20 b )
     4.67570144E-04    2     1000025         5   # BR(~b_2 -> ~chi_30 b )
     3.01356128E-01    2    -1000024         6   # BR(~b_2 -> ~chi_1- t )
     3.50881517E-01    2     1000021         5   # BR(~b_2 -> ~g      b )
     1.42132960E-03    2     1000005        25   # BR(~b_2 -> ~b_1    h )
     1.29626019E-03    2     1000005        23   # BR(~b_2 -> ~b_1    Z )
     2.78298380E-01    2     1000006       -24   # BR(~b_2 -> ~t_1    W-)
#
#         PDG            Width
DECAY   1000002     4.31441674E-03   # sup_L decays
#          BR         NDA      ID1       ID2
     8.26733464E-02    2     1000022         2   # BR(~u_L -> ~chi_10 u)
     5.69818132E-02    2     1000023         2   # BR(~u_L -> ~chi_20 u)
     8.60344840E-01    2     1000024         1   # BR(~u_L -> ~chi_1+ d)
#
#         PDG            Width
DECAY   2000002     7.11012159E-02   # sup_R decays
#           BR         NDA      ID1       ID2
     1.43354954E-02    2     1000022         2   # BR(~u_R -> ~chi_10 u)
     5.49582907E-03    2     1000023         2   # BR(~u_R -> ~chi_20 u)
#           BR         NDA      ID1       ID2       ID3
     6.07092290E-02    3        2       -1        1000001   # BR(~u_R -> u  db  ~d_L)
     3.20163301E-02    3        2       1        -1000001   # BR(~u_R -> u  d  ~d_L*)
     9.39421347E-02    3        2       -1        2000001   # BR(~u_R -> u  db  ~d_R)
     2.03709597E-01    3        2       1        -2000001   # BR(~u_R -> u  d  ~d_R*)
     6.17781278E-02    3        2       -2        1000002   # BR(~u_R -> u  ub  ~u_L)
     3.25578117E-02    3        2       2        -1000002   # BR(~u_R -> u  u  ~u_L*)
     6.01874377E-02    3        2       -3        1000003   # BR(~u_R -> u  sb  ~s_L)
     3.22624581E-02    3        2       3        -1000003   # BR(~u_R -> u  s  ~s_L*)
     9.28887069E-02    3        2       -3        2000003   # BR(~u_R -> u  sb  ~s_R)
     1.99293357E-01    3        2       3        -2000003   # BR(~u_R -> u  s  ~s_R*)
     6.12830589E-02    3        2       -4        1000004   # BR(~u_R -> u  cb  ~c_L)
     3.25254635E-02    3        2       4        -1000004   # BR(~u_R -> u  c  ~c_L*)
     2.20038431E-03    3        2       -6        1000006   # BR(~u_R -> u  tb  ~t_1)
     3.59839135E-03    3        2       6        -1000006   # BR(~u_R -> u  t  ~t_1*)
     7.98228262E-04    3        2       -11        2000011   # BR(~u_R -> u  e+  ~e_R-)
     2.64960307E-03    3        2       11        -2000011   # BR(~u_R -> u  e-  ~e_R+)
     8.07735835E-04    3        2       -13        2000013   # BR(~u_R -> u  mu+  ~mu_R-)
     2.63497604E-03    3        2       13        -2000013   # BR(~u_R -> u  mu-  ~mu_R+)
     3.82075041E-05    3        2       -15        1000015   # BR(~u_R -> u  tau+  ~tau_1-)
     1.63021122E-05    3        2       15        -1000015   # BR(~u_R -> u  tau-  ~tau_1+)
     3.85577091E-05    3        2       -16        1000016   # BR(~u_R -> u  nu_taub  ~nu_tau1)
     1.60672358E-05    3        2       16        -1000016   # BR(~u_R -> u  nu_tau  ~nu_tau1*)
     2.65818239E-04    3        2       23        1000022   # BR(~u_R -> u  Z  ~chi_10)
     7.65528400E-04    3        2       25        1000022   # BR(~u_R -> u  h  ~chi_10)
     8.67931712E-04    3        2       23        1000023   # BR(~u_R -> u  Z  ~chi_20)
     1.85299222E-04    3        2       25        1000023   # BR(~u_R -> u  h  ~chi_20)
     4.16490768E-04    3        2       -24        1000024   # BR(~u_R -> u  W-  ~chi_1+)
     1.71544183E-03    3        2       24        -1000024   # BR(~u_R -> u  W+  ~chi_1-)
#
#         PDG            Width
DECAY   1000001     1.42076623E-03   # sdown_L decays
#          BR         NDA      ID1       ID2
     6.12982074E-01    2     1000022         1   # BR(~d_L -> ~chi_10 d)
     3.48712499E-01    2     1000023         1   # BR(~d_L -> ~chi_20 d)
     3.83054266E-02    2    -1000024         2   # BR(~d_L -> ~chi_1- u)
#
#         PDG            Width
DECAY   2000001     7.60594172E-05   # sdown_R decays
#           BR         NDA      ID1       ID2
     7.21044862E-01    2     1000022         1   # BR(~d_R -> ~chi_10 d)
     2.73898600E-01    2     1000023         1   # BR(~d_R -> ~chi_20 d)
#           BR         NDA      ID1       ID2       ID3
     7.45469819E-05    3        1       -11        2000011   # BR(~d_R -> d  e+  ~e_R-)
     6.08787205E-04    3        1       11        -2000011   # BR(~d_R -> d  e-  ~e_R+)
     7.38278073E-05    3        1       -13        2000013   # BR(~d_R -> d  mu+  ~mu_R-)
     6.08708319E-04    3        1       13        -2000013   # BR(~d_R -> d  mu-  ~mu_R+)
     1.65765141E-04    3        1       23        1000022   # BR(~d_R -> d  Z  ~chi_10)
     5.83333421E-04    3        1       25        1000022   # BR(~d_R -> d  h  ~chi_10)
     6.04685149E-04    3        1       23        1000023   # BR(~d_R -> d  Z  ~chi_20)
     1.67145640E-04    3        1       25        1000023   # BR(~d_R -> d  h  ~chi_20)
     1.86157093E-04    3        1       -24        1000024   # BR(~d_R -> d  W-  ~chi_1+)
     1.98358081E-03    3        1       24        -1000024   # BR(~d_R -> d  W+  ~chi_1-)
#
#         PDG            Width
DECAY   1000004     4.25560516E-03   # scharm_L decays
#          BR         NDA      ID1       ID2
     8.26751779E-02    2     1000022         4   # BR(~c_L -> ~chi_10 c)
     5.69804686E-02    2     1000023         4   # BR(~c_L -> ~chi_20 c)
     8.60344353E-01    2     1000024         3   # BR(~c_L -> ~chi_1+ s)
#
#         PDG            Width
DECAY   2000004     7.11450358E-02   # scharm_R decays
#           BR         NDA      ID1       ID2
     1.45625230E-02    2     1000022         4   # BR(~c_R -> ~chi_10 c)
     5.58276792E-03    2     1000023         4   # BR(~c_R -> ~chi_20 c)
#           BR         NDA      ID1       ID2       ID3
     6.07884998E-02    3        4       -1        1000001   # BR(~c_R -> c  db  ~d_L)
     3.17773401E-02    3        4       1        -1000001   # BR(~c_R -> c  d  ~d_L*)
     9.32124065E-02    3        4       -1        2000001   # BR(~c_R -> c  db  ~d_R)
     2.03387346E-01    3        4       1        -2000001   # BR(~c_R -> c  d  ~d_R*)
     6.10119870E-02    3        4       -2        1000002   # BR(~c_R -> c  ub  ~u_L)
     3.29130483E-02    3        4       2        -1000002   # BR(~c_R -> c  u  ~u_L*)
     6.09107853E-02    3        4       -3        1000003   # BR(~c_R -> c  sb  ~s_L)
     3.21357629E-02    3        4       3        -1000003   # BR(~c_R -> c  s  ~s_L*)
     9.32166232E-02    3        4       -3        2000003   # BR(~c_R -> c  sb  ~s_R)
     1.99662560E-01    3        4       3        -2000003   # BR(~c_R -> c  s  ~s_R*)
     6.17709999E-02    3        4       -4        1000004   # BR(~c_R -> c  cb  ~c_L)
     3.20373723E-02    3        4       4        -1000004   # BR(~c_R -> c  c  ~c_L*)
     2.22193999E-03    3        4       -6        1000006   # BR(~c_R -> c  tb  ~t_1)
     3.59027158E-03    3        4       6        -1000006   # BR(~c_R -> c  t  ~t_1*)
     7.95979640E-04    3        4       -11        2000011   # BR(~c_R -> c  e+  ~e_R-)
     2.63911597E-03    3        4       11        -2000011   # BR(~c_R -> c  e-  ~e_R+)
     7.99212472E-04    3        4       -13        2000013   # BR(~c_R -> c  mu+  ~mu_R-)
     2.65893464E-03    3        4       13        -2000013   # BR(~c_R -> c  mu-  ~mu_R+)
     3.87040356E-05    3        4       -15        1000015   # BR(~c_R -> c  tau+  ~tau_1-)
     1.63778117E-05    3        4       15        -1000015   # BR(~c_R -> c  tau-  ~tau_1+)
     3.87532309E-05    3        4       -16        1000016   # BR(~c_R -> c  nu_taub  ~nu_tau1)
     1.61711915E-05    3        4       16        -1000016   # BR(~c_R -> c  nu_tau  ~nu_tau1*)
     2.63391532E-04    3        4       23        1000022   # BR(~c_R -> c  Z  ~chi_10)
     7.64789832E-04    3        4       25        1000022   # BR(~c_R -> c  h  ~chi_10)
     8.69575779E-04    3        4       23        1000023   # BR(~c_R -> c  Z  ~chi_20)
     1.85325650E-04    3        4       25        1000023   # BR(~c_R -> c  h  ~chi_20)
     4.13816644E-04    3        4       -24        1000024   # BR(~c_R -> c  W-  ~chi_1+)
     1.71761808E-03    3        4       24        -1000024   # BR(~c_R -> c  W+  ~chi_1-)
#
#         PDG            Width
DECAY   1000003     1.40162981E-03   # sstrange_L decays
#          BR         NDA      ID1       ID2
     6.12992586E-01    2     1000022         3   # BR(~s_L -> ~chi_10 s)
     3.48702676E-01    2     1000023         3   # BR(~s_L -> ~chi_20 s)
     3.83047379E-02    2    -1000024         4   # BR(~s_L -> ~chi_1- c)
#
#         PDG            Width
DECAY   2000003     7.39037811E-05   # sstrange_R decays
#           BR         NDA      ID1       ID2
     7.20962587E-01    2     1000022         3   # BR(~s_R -> ~chi_10 s)
     2.73835283E-01    2     1000023         3   # BR(~s_R -> ~chi_20 s)
#           BR         NDA      ID1       ID2       ID3
     7.63398018E-05    3        3       -11        2000011   # BR(~s_R -> s  e+  ~e_R-)
     6.21997945E-04    3        3       11        -2000011   # BR(~s_R -> s  e-  ~e_R+)
     7.59812274E-05    3        3       -13        2000013   # BR(~s_R -> s  mu+  ~mu_R-)
     6.25326598E-04    3        3       13        -2000013   # BR(~s_R -> s  mu-  ~mu_R+)
     1.70654327E-04    3        3       23        1000022   # BR(~s_R -> s  Z  ~chi_10)
     6.02093686E-04    3        3       25        1000022   # BR(~s_R -> s  h  ~chi_10)
     6.22106194E-04    3        3       23        1000023   # BR(~s_R -> s  Z  ~chi_20)
     1.70735513E-04    3        3       25        1000023   # BR(~s_R -> s  h  ~chi_20)
     1.91938759E-04    3        3       -24        1000024   # BR(~s_R -> s  W-  ~chi_1+)
     2.04495626E-03    3        3       24        -1000024   # BR(~s_R -> s  W+  ~chi_1-)
#
#         PDG            Width
DECAY   1000011     9.04831383E-01   # selectron_L decays
#          BR         NDA      ID1       ID2
     3.91756980E-04    2     1000022        11   # BR(~e_L -> ~chi_10 e-)
     4.74614726E-04    2     1000023        11   # BR(~e_L -> ~chi_20 e-)
     9.98828730E-01    2     1000025        11   # BR(~e_L -> ~chi_30 e-)
     3.04898495E-04    2    -1000024        12   # BR(~e_L -> ~chi_1- nu_e)
#
#         PDG            Width
DECAY   2000011     1.03858044E-04   # selectron_R decays
#          BR         NDA      ID1       ID2
     7.30771703E-01    2     1000022        11   # BR(~e_R -> ~chi_10 e-)
     2.69228297E-01    2     1000023        11   # BR(~e_R -> ~chi_20 e-)
#
#         PDG            Width
DECAY   1000013     9.04831374E-01   # smuon_L decays
#          BR         NDA      ID1       ID2
     3.91756983E-04    2     1000022        13   # BR(~mu_L -> ~chi_10 mu-)
     4.74614729E-04    2     1000023        13   # BR(~mu_L -> ~chi_20 mu-)
     9.98828730E-01    2     1000025        13   # BR(~mu_L -> ~chi_30 mu-)
     3.04898498E-04    2    -1000024        14   # BR(~mu_L -> ~chi_1- nu_mu)
#
#         PDG            Width
DECAY   2000013     1.03857967E-04   # smuon_R decays
#          BR         NDA      ID1       ID2
     7.30771709E-01    2     1000022        13   # BR(~mu_R -> ~chi_10 mu-)
     2.69228291E-01    2     1000023        13   # BR(~mu_R -> ~chi_20 mu-)
#
#         PDG            Width
DECAY   1000015     1.22435909E+00   # stau_1 decays
#          BR         NDA      ID1       ID2
     5.02031894E-01    2     1000022        15   # BR(~tau_1 -> ~chi_10  tau-)
     4.97834007E-01    2     1000023        15   # BR(~tau_1 -> ~chi_20  tau-)
     1.34099027E-04    2    -1000024        16   # BR(~tau_1 -> ~chi_1-  nu_tau)
#
#         PDG            Width
DECAY   2000015     1.12742112E+01   # stau_2 decays
#          BR         NDA      ID1       ID2
     2.03987002E-01    2     1000022        15   # BR(~tau_2 -> ~chi_10  tau-)
     2.03151507E-01    2     1000023        15   # BR(~tau_2 -> ~chi_20  tau-)
     1.60603201E-01    2     1000025        15   # BR(~tau_2 -> ~chi_30  tau-)
     4.06534823E-01    2    -1000024        16   # BR(~tau_2 -> ~chi_1-  nu_tau)
     1.25209171E-02    2     1000016       -24   # BR(~tau_2 -> ~nu_tauL W-)
     6.76990065E-03    2     1000015        25   # BR(~tau_2 -> ~tau_1   h)
     6.43264920E-03    2     1000015        23   # BR(~tau_2 -> ~tau_1   Z)
#
#         PDG            Width
DECAY   1000012     9.25961901E-01   # snu_eL decays
#          BR         NDA      ID1       ID2
     8.76017028E-03    2     1000022        12   # BR(~nu_eL -> ~chi_10 nu_e)
     4.54302780E-03    2     1000023        12   # BR(~nu_eL -> ~chi_20 nu_e)
     9.66261501E-01    2     1000025        12   # BR(~nu_eL -> ~chi_30 nu_e)
     2.04353009E-02    2     1000024        11   # BR(~nu_eL -> ~chi_1+ e-)
#
#         PDG            Width
DECAY   1000014     9.25961901E-01   # snu_muL decays
#          BR         NDA      ID1       ID2
     8.76017028E-03    2     1000022        14   # BR(~nu_muL -> ~chi_10 nu_mu)
     4.54302780E-03    2     1000023        14   # BR(~nu_muL -> ~chi_20 nu_mu)
     9.66261501E-01    2     1000025        14   # BR(~nu_muL -> ~chi_30 nu_mu)
     2.04353009E-02    2     1000024        13   # BR(~nu_muL -> ~chi_1+ mu-)
#
#         PDG            Width
DECAY   1000016     1.22416455E+00   # snu_tauL decays
#          BR         NDA      ID1       ID2
     1.56792129E-03    2     1000022        16   # BR(~nu_tauL -> ~chi_10 nu_tau)
     8.09870790E-04    2     1000023        16   # BR(~nu_tauL -> ~chi_20 nu_tau)
     9.97622208E-01    2     1000024        15   # BR(~nu_tauL -> ~chi_1+ tau-)
#
#         PDG            Width
DECAY   1000024     3.27482369E-12   # chargino1+ decays
#           BR         NDA      ID1       ID2       ID3
     6.00000595E-01    3     1000022         2        -1   # BR(~chi_1+ -> ~chi_10 u    db)
     1.99999702E-01    3     1000022       -11        12   # BR(~chi_1+ -> ~chi_10 e+   nu_e)
     1.99999702E-01    3     1000022       -13        14   # BR(~chi_1+ -> ~chi_10 mu+  nu_mu)
#
#         PDG            Width
DECAY   1000037     2.42938575E+02   # chargino2+ decays
#          BR         NDA      ID1       ID2
     1.56792652E-01    2     1000002        -1   # BR(~chi_2+ -> ~u_L     db)
     1.56783306E-01    2    -1000001         2   # BR(~chi_2+ -> ~d_L*    u )
     1.56792651E-01    2     1000004        -3   # BR(~chi_2+ -> ~c_L     sb)
     1.56783300E-01    2    -1000003         4   # BR(~chi_2+ -> ~s_L*     c )
     1.66310944E-03    2     1000006        -5   # BR(~chi_2+ -> ~t_1     bb)
     3.91667379E-02    2     2000006        -5   # BR(~chi_2+ -> ~t_2     bb)
     6.02437210E-06    2    -1000005         6   # BR(~chi_2+ -> ~b_1*    t )
     3.91811390E-02    2    -2000005         6   # BR(~chi_2+ -> ~b_2*    t )
     7.90352833E-03    2     1000012       -11   # BR(~chi_2+ -> ~nu_eL   e+  )
     7.90352833E-03    2     1000014       -13   # BR(~chi_2+ -> ~nu_muL mu+ )
     5.24446762E-02    2     1000016       -15   # BR(~chi_2+ -> ~nu_tau1 tau+)
     7.88527630E-03    2    -1000011        12   # BR(~chi_2+ -> ~e_L+    nu_e)
     7.88527630E-03    2    -1000013        14   # BR(~chi_2+ -> ~mu_L+   nu_mu)
     5.24321960E-02    2    -1000015        16   # BR(~chi_2+ -> ~tau_1+  nu_tau)
     4.88837525E-07    2    -2000015        16   # BR(~chi_2+ -> ~tau_2+  nu_tau)
     2.98094554E-02    2     1000024        23   # BR(~chi_2+ -> ~chi_1+  Z )
     2.88258134E-02    2     1000022        24   # BR(~chi_2+ -> ~chi_10  W+)
     2.89340516E-02    2     1000023        24   # BR(~chi_2+ -> ~chi_20  W+)
     7.03076347E-05    2     1000025        24   # BR(~chi_2+ -> ~chi_30  W+)
     3.15202301E-02    2     1000024        25   # BR(~chi_2+ -> ~chi_1+  h )
     9.30877576E-03    2     1000024        35   # BR(~chi_2+ -> ~chi_1+  H )
     9.30998608E-03    2     1000024        36   # BR(~chi_2+ -> ~chi_1+  A )
     9.31564611E-03    2     1000022        37   # BR(~chi_2+ -> ~chi_10  H+)
     9.28184360E-03    2     1000023        37   # BR(~chi_2+ -> ~chi_20  H+)
#
#         PDG            Width
DECAY   1000022     0.00000000E+00   # neutralino1 decays
#
#         PDG            Width
DECAY   1000023     3.42128891E-11   # neutralino2 decays
#          BR         NDA      ID1       ID2
     1.94926688E-01    2     1000022        22   # BR(~chi_20 -> ~chi_10 gam)
#           BR         NDA      ID1       ID2       ID3
     1.33426455E-01    3     1000022        -2         2   # BR(~chi_20 -> ~chi_10 ub      u)
     1.73241723E-01    3     1000022        -1         1   # BR(~chi_20 -> ~chi_10 db      d)
     1.73241723E-01    3     1000022        -3         3   # BR(~chi_20 -> ~chi_10 sb      s)
     3.98281926E-02    3     1000022       -11        11   # BR(~chi_20 -> ~chi_10 e+      e-)
     3.98281926E-02    3     1000022       -13        13   # BR(~chi_20 -> ~chi_10 mu+     mu-)
     7.96457418E-02    3     1000022       -12        12   # BR(~chi_20 -> ~chi_10 nu_eb   nu_e)
     7.96457418E-02    3     1000022       -14        14   # BR(~chi_20 -> ~chi_10 nu_mub  nu_mu)
     7.96461330E-02    3     1000022       -16        16   # BR(~chi_20 -> ~chi_10 nu_taub nu_tau)
     1.97082378E-03    3     1000024        -2         1   # BR(~chi_20 -> ~chi_1+ ub      d)
     1.97082378E-03    3    -1000024        -1         2   # BR(~chi_20 -> ~chi_1- db      u)
     6.56940335E-04    3     1000024       -12        11   # BR(~chi_20 -> ~chi_1+ nu_eb   e-)
     6.56940335E-04    3    -1000024        12       -11   # BR(~chi_20 -> ~chi_1- nu_e    e+)
     6.56940335E-04    3     1000024       -14        13   # BR(~chi_20 -> ~chi_1+ nu_mub  mu-)
     6.56940335E-04    3    -1000024        14       -13   # BR(~chi_20 -> ~chi_1- nu_mu   mu+)
#
#         PDG            Width
DECAY   1000025     4.93924700E+01   # neutralino3 decays
#          BR         NDA      ID1       ID2
     8.00213788E-03    2     1000022        23   # BR(~chi_30 -> ~chi_10   Z )
     2.08593383E-02    2     1000023        23   # BR(~chi_30 -> ~chi_20   Z )
     2.80932298E-02    2     1000024       -24   # BR(~chi_30 -> ~chi_1+   W-)
     2.80932298E-02    2    -1000024        24   # BR(~chi_30 -> ~chi_1-   W+)
     2.10064895E-02    2     1000022        25   # BR(~chi_30 -> ~chi_10   h )
     8.04322273E-03    2     1000023        25   # BR(~chi_30 -> ~chi_20   h )
     5.69770152E-03    2     1000002        -2   # BR(~chi_30 -> ~u_L      ub)
     5.69770152E-03    2    -1000002         2   # BR(~chi_30 -> ~u_L*     u )
     2.90293276E-02    2     2000002        -2   # BR(~chi_30 -> ~u_R      ub)
     2.90293276E-02    2    -2000002         2   # BR(~chi_30 -> ~u_R*     u )
     5.55060155E-03    2     1000001        -1   # BR(~chi_30 -> ~d_L      db)
     5.55060155E-03    2    -1000001         1   # BR(~chi_30 -> ~d_L*     d )
     2.77666907E-02    2     2000001        -1   # BR(~chi_30 -> ~d_R      db)
     2.77666907E-02    2    -2000001         1   # BR(~chi_30 -> ~d_R*     d )
     5.69769910E-03    2     1000004        -4   # BR(~chi_30 -> ~c_L      cb)
     5.69769910E-03    2    -1000004         4   # BR(~chi_30 -> ~c_L*     c )
     2.90292368E-02    2     2000004        -4   # BR(~chi_30 -> ~c_R      cb)
     2.90292368E-02    2    -2000004         4   # BR(~chi_30 -> ~c_R*     c )
     5.55060155E-03    2     1000003        -3   # BR(~chi_30 -> ~s _L      sb)
     5.55060155E-03    2    -1000003         3   # BR(~chi_30 -> ~s _L*     s )
     2.77666907E-02    2     2000003        -3   # BR(~chi_30 -> ~s _R      sb)
     2.77666907E-02    2    -2000003         3   # BR(~chi_30 -> ~s _R*     s )
     6.74541239E-02    2     1000006        -6   # BR(~chi_30 -> ~t_1      tb)
     6.74541239E-02    2    -1000006         6   # BR(~chi_30 -> ~t_1*     t )
     6.73648427E-03    2     1000005        -5   # BR(~chi_30 -> ~b_1      bb)
     6.73648427E-03    2    -1000005         5   # BR(~chi_30 -> ~b_1*     b )
     1.00622848E-01    2     2000011       -11   # BR(~chi_30 -> ~e_R-     e+)
     1.00622848E-01    2    -2000011        11   # BR(~chi_30 -> ~e_R+     e-)
     1.00622848E-01    2     2000013       -13   # BR(~chi_30 -> ~mu_R-    mu+)
     1.00622848E-01    2    -2000013        13   # BR(~chi_30 -> ~mu_R+    mu-)
     1.57458895E-02    2     1000015       -15   # BR(~chi_30 -> ~tau_1-   tau+)
     1.57458895E-02    2    -1000015        15   # BR(~chi_30 -> ~tau_1+   tau-)
     1.56804319E-02    2     1000016       -16   # BR(~chi_30 -> ~nu_tau1  nu_taub)
     1.56804319E-02    2    -1000016        16   # BR(~chi_30 -> ~nu_tau1* nu_tau )
#
#         PDG            Width
DECAY   1000035     2.42905949E+02   # neutralino4 decays
#          BR         NDA      ID1       ID2
     1.13510228E-02    2     1000022        23   # BR(~chi_40 -> ~chi_10   Z )
     1.84822591E-02    2     1000023        23   # BR(~chi_40 -> ~chi_20   Z )
     3.61874712E-06    2     1000025        23   # BR(~chi_40 -> ~chi_30   Z )
     2.88859694E-02    2     1000024       -24   # BR(~chi_40 -> ~chi_1+   W-)
     2.88859694E-02    2    -1000024        24   # BR(~chi_40 -> ~chi_1-   W+)
     1.95659772E-02    2     1000022        25   # BR(~chi_40 -> ~chi_10   h )
     7.41804618E-03    2     1000022        35   # BR(~chi_40 -> ~chi_10   H )
     1.91768427E-03    2     1000022        36   # BR(~chi_40 -> ~chi_10   A )
     1.18933942E-02    2     1000023        25   # BR(~chi_40 -> ~chi_20   h )
     1.90312558E-03    2     1000023        35   # BR(~chi_40 -> ~chi_20   H )
     7.40073583E-03    2     1000023        36   # BR(~chi_40 -> ~chi_20   A )
     5.45559966E-05    2     1000025        25   # BR(~chi_40 -> ~chi_30   h )
     9.28698167E-03    2     1000024       -37   # BR(~chi_40 -> ~chi_1+   H-)
     9.28698167E-03    2    -1000024        37   # BR(~chi_40 -> ~chi_1-   H+)
     7.84132507E-02    2     1000002        -2   # BR(~chi_40 -> ~u_L      ub)
     7.84132507E-02    2    -1000002         2   # BR(~chi_40 -> ~u_L*     u )
     1.59772543E-08    2     2000002        -2   # BR(~chi_40 -> ~u_R      ub)
     1.59772543E-08    2    -2000002         2   # BR(~chi_40 -> ~u_R*     u )
     7.83865347E-02    2     1000001        -1   # BR(~chi_40 -> ~d_L      db)
     7.83865347E-02    2    -1000001         1   # BR(~chi_40 -> ~d_L*     d )
     5.55218712E-09    2     2000001        -1   # BR(~chi_40 -> ~d_R      db)
     5.55218712E-09    2    -2000001         1   # BR(~chi_40 -> ~d_R*     d )
     7.84132480E-02    2     1000004        -4   # BR(~chi_40 -> ~c_L      cb)
     7.84132480E-02    2    -1000004         4   # BR(~chi_40 -> ~c_L*     c )
     1.59772525E-08    2     2000004        -4   # BR(~chi_40 -> ~c_R      cb)
     1.59772525E-08    2    -2000004         4   # BR(~chi_40 -> ~c_R*     c )
     7.83865347E-02    2     1000003        -3   # BR(~chi_40 -> ~s _L      sb)
     7.83865347E-02    2    -1000003         3   # BR(~chi_40 -> ~s _L*     s )
     5.55218712E-09    2     2000003        -3   # BR(~chi_40 -> ~s _R      sb)
     5.55218712E-09    2    -2000003         3   # BR(~chi_40 -> ~s _R*     s )
     8.27222430E-04    2     1000006        -6   # BR(~chi_40 -> ~t_1      tb)
     8.27222430E-04    2    -1000006         6   # BR(~chi_40 -> ~t_1*     t )
     1.91188382E-02    2     2000006        -6   # BR(~chi_40 -> ~t_2      tb)
     1.91188382E-02    2    -2000006         6   # BR(~chi_40 -> ~t_2*     t )
     3.04370592E-06    2     1000005        -5   # BR(~chi_40 -> ~b_1      bb)
     3.04370592E-06    2    -1000005         5   # BR(~chi_40 -> ~b_1*     b )
     2.00552301E-02    2     2000005        -5   # BR(~chi_40 -> ~b_2      bb)
     2.00552301E-02    2    -2000005         5   # BR(~chi_40 -> ~b_2*     b )
     3.93714057E-03    2     1000011       -11   # BR(~chi_40 -> ~e_L-     e+)
     3.93714057E-03    2    -1000011        11   # BR(~chi_40 -> ~e_L+     e-)
     1.80737492E-08    2     2000011       -11   # BR(~chi_40 -> ~e_R-     e+)
     1.80737492E-08    2    -2000011        11   # BR(~chi_40 -> ~e_R+     e-)
     3.93714057E-03    2     1000013       -13   # BR(~chi_40 -> ~mu_L-    mu+)
     3.93714057E-03    2    -1000013        13   # BR(~chi_40 -> ~mu_L+    mu-)
     1.80737492E-08    2     2000013       -13   # BR(~chi_40 -> ~mu_R-    mu+)
     1.80737492E-08    2    -2000013        13   # BR(~chi_40 -> ~mu_R+    mu-)
     2.61874452E-02    2     1000015       -15   # BR(~chi_40 -> ~tau_1-   tau+)
     2.61874452E-02    2    -1000015        15   # BR(~chi_40 -> ~tau_1+   tau-)
     2.48638927E-07    2     2000015       -15   # BR(~chi_40 -> ~tau_2-   tau+)
     2.48638927E-07    2    -2000015        15   # BR(~chi_40 -> ~tau_2+   tau-)
     3.95551770E-03    2     1000012       -12   # BR(~chi_40 -> ~nu_eL    nu_eb)
     3.95551770E-03    2    -1000012        12   # BR(~chi_40 -> ~nu_eL*   nu_e )
     3.95551770E-03    2     1000014       -14   # BR(~chi_40 -> ~nu_muL   nu_mub)
     3.95551770E-03    2    -1000014        14   # BR(~chi_40 -> ~nu_muL*  nu_mu )
     2.62548469E-02    2     1000016       -16   # BR(~chi_40 -> ~nu_tau1  nu_taub)
     2.62548469E-02    2    -1000016        16   # BR(~chi_40 -> ~nu_tau1* nu_tau )
#
#         PDG            Width
DECAY        25     4.14856241E-03   # h decays
#          BR         NDA      ID1       ID2
     6.26119302E-01    2           5        -5   # BR(h -> b       bb     )
     6.23744659E-02    2         -15        15   # BR(h -> tau+    tau-   )
     2.20769448E-04    2         -13        13   # BR(h -> mu+     mu-    )
     2.41029726E-04    2           3        -3   # BR(h -> s       sb     )
     2.08125149E-02    2           4        -4   # BR(h -> c       cb     )
     7.58116076E-02    2          21        21   # BR(h -> g       g      )
     2.21625386E-03    2          22        22   # BR(h -> gam     gam    )
     1.41434581E-03    2          22        23   # BR(h -> Z       gam    )
     1.87619744E-01    2          24       -24   # BR(h -> W+      W-     )
     2.31699667E-02    2          23        23   # BR(h -> Z       Z      )
#
#         PDG            Width
DECAY        35     3.35968342E+01   # H decays
#          BR         NDA      ID1       ID2
     8.38338615E-01    2           5        -5   # BR(H -> b       bb     )
     1.56742713E-01    2         -15        15   # BR(H -> tau+    tau-   )
     5.39863002E-04    2         -13        13   # BR(H -> mu+     mu-    )
     2.41480033E-04    2           3        -3   # BR(H -> s       sb     )
     3.57412651E-08    2           4        -4   # BR(H -> c       cb     )
     3.49975517E-03    2           6        -6   # BR(H -> t       tb     )
     1.70118160E-05    2          21        21   # BR(H -> g       g      )
     1.61187101E-09    2          22        22   # BR(H -> gam     gam    )
     7.40852480E-09    2          23        22   # BR(H -> Z       gam    )
     1.40396619E-06    2          24       -24   # BR(H -> W+      W-     )
     7.00137179E-07    2          23        23   # BR(H -> Z       Z      )
     6.73166976E-06    2          25        25   # BR(H -> h       h      )
     3.69374553E-04    2     1000024  -1000024   # BR(H -> ~chi_1+ ~chi_1-)
     1.59640034E-04    2     1000022   1000022   # BR(H -> ~chi_10 ~chi_10)
     7.26456468E-05    2     1000023   1000023   # BR(H -> ~chi_20 ~chi_20)
     4.56873405E-06    2     1000022   1000023   # BR(H -> ~chi_10 ~chi_20)
     8.40210593E-07    2     1000002  -1000002   # BR(H -> ~u_L    ~u_L*  )
     8.40210593E-07    2     1000004  -1000004   # BR(H -> ~c_L    ~c_L*  )
     1.22387378E-06    2     1000001  -1000001   # BR(H -> ~d_L    ~d_L*  )
     5.36177750E-08    2     2000001  -2000001   # BR(H -> ~d_R    ~d_R*  )
     1.22387378E-06    2     1000003  -1000003   # BR(H -> ~s_L    ~s_L*  )
     5.36177750E-08    2     2000003  -2000003   # BR(H -> ~s_R    ~s_R*  )
     1.88983729E-07    2     2000011  -2000011   # BR(H -> ~e_R-   ~e_R+  )
     1.88983729E-07    2     2000013  -2000013   # BR(H -> ~mu_R-  ~mu_R+ )
     4.44492055E-07    2     1000015  -1000015   # BR(H -> ~tau_1- ~tau_1+)
     3.94261645E-07    2     1000016  -1000016   # BR(H -> ~nu_tauL ~nu_tauL*)
#
#         PDG            Width
DECAY        36     3.36043274E+01   # A decays
#          BR         NDA      ID1       ID2
     8.38186389E-01    2           5        -5   # BR(A -> b       bb     )
     1.56709178E-01    2         -15        15   # BR(A -> tau+    tau-   )
     5.39746545E-04    2         -13        13   # BR(A -> mu+     mu-    )
     2.41446756E-04    2           3        -3   # BR(A -> s       sb     )
     3.58662249E-08    2           4        -4   # BR(A -> c       cb     )
     3.52082732E-03    2           6        -6   # BR(A -> t       tb     )
     4.07859946E-05    2          21        21   # BR(A -> g       g      )
     2.00866865E-08    2          22        22   # BR(A -> gam     gam    )
     2.94134886E-08    2          23        22   # BR(A -> Z       gam    )
     1.42062708E-06    2          23        25   # BR(A -> Z       h      )
     4.66242533E-04    2     1000024  -1000024   # BR(A -> ~chi_1+ ~chi_1-)
     1.79162733E-04    2     1000022   1000022   # BR(A -> ~chi_10 ~chi_10)
     1.06464899E-04    2     1000023   1000023   # BR(A -> ~chi_20 ~chi_20)
     8.25039695E-06    2     1000022   1000023   # BR(A -> ~chi_10 ~chi_20)
#
#         PDG            Width
DECAY        37     3.08609741E+01   # H+ decays
#          BR         NDA      ID1       ID2
     1.38657048E-03    2           4        -5   # BR(H+ -> c       bb     )
     1.70729064E-01    2         -15        16   # BR(H+ -> tau+    nu_tau )
     5.88034622E-04    2         -13        14   # BR(H+ -> mu+     nu_mu  )
     1.38656831E-05    2           2        -5   # BR(H+ -> u       bb     )
     1.31480848E-05    2           2        -3   # BR(H+ -> u       sb     )
     2.58831649E-04    2           4        -3   # BR(H+ -> c       sb     )
     8.26974780E-01    2           6        -5   # BR(H+ -> t       bb     )
     1.55063294E-06    2          24        25   # BR(H+ -> W+      h      )
     2.04304350E-13    2          24        36   # BR(H+ -> W+      A      )
     2.41331985E-06    2     1000024   1000022   # BR(H+ -> ~chi_1+ ~chi_10)
     2.72914473E-05    2     1000024   1000023   # BR(H+ -> ~chi_1+ ~chi_20)
     1.13361703E-09    2    -1000015   1000016   # BR(H+ -> ~tau_1+ ~nu_tauL)
     2.22451560E-06    2     1000002  -1000001   # BR(H+ -> ~u_L    ~d_L*  )
     2.22451560E-06    2     1000004  -1000003   # BR(H+ -> ~c_L    ~s_L*  )
