#
#                              ======================
#                              | THE SUSYHIT OUTPUT |
#                              ======================
#
#
#              ------------------------------------------------------
#              |     This is the output of the SUSY-HIT package     |
#              |  created by A.Djouadi, M.Muehlleitner and M.Spira. |
#              |  In case of problems with SUSY-HIT email to        |
#              |           margarete.muehlleitner@cern.ch           |
#              |           michael.spira@psi.ch                     |
#              |           abdelhak.djouadi@cern.ch                 |
#              ------------------------------------------------------
#
#              ------------------------------------------------------
#              |  SUSY Les Houches Accord - MSSM Spectrum + Decays  |
#              |              based on the decay programs           |
#              |                                                    |
#              |                     SDECAY 1.3b                    |
#              |                                                    |
#              |  Authors: M.Muhlleitner, A.Djouadi and Y.Mambrini  |
#              |  Ref.:    Comput.Phys.Commun.168(2005)46           |
#              |           [hep-ph/0311167]                         |
#              |                                                    |
#              |                     HDECAY 3.4                     |
#              |                                                    |
#              |  By: A.Djouadi,J.Kalinowski,M.Muhlleitner,M.Spira  |
#              |  Ref.:    Comput.Phys.Commun.108(1998)56           |
#              |           [hep-ph/9704448]                         |
#              |                                                    |
#              |                                                    |
#              |  If not stated otherwise all DRbar couplings and   |
#              |  soft SUSY breaking masses are given at the scale  |
#              |  Q=  0.17071320E+04
#              |                                                    |
#              ------------------------------------------------------
#
#
BLOCK DCINFO  # Decay Program information
     1   SDECAY/HDECAY # decay calculator
     2   1.3b  /3.4    # version number
#
BLOCK SPINFO  # Spectrum calculator information
     1     SOFTSUSY    # spectrum calculator               
     2     3.4.0       # version number                    
#
BLOCK MODSEL  # Model selection
     1     0   #  nonUniversal                                     
#
BLOCK SMINPUTS  # Standard Model inputs
         1     1.27908970E+02   # alpha_em^-1(M_Z)^MSbar
         2     1.16637870E-05   # G_F [GeV^-2]
         3     1.18400000E-01   # alpha_S(M_Z)^MSbar
         4     9.11876000E+01   # M_Z pole mass
         5     4.18000000E+00   # mb(mb)^MSbar
         6     1.73200000E+02   # mt pole mass
         7     1.77700000E+00   # mtau pole mass
#
BLOCK MINPAR  # Input parameters - minimal models
         3     1.83700000E+01   # tanb                
#
BLOCK EXTPAR  # Input parameters - non-minimal models
         0    -1.00000000E+00   # Set                 
         1    -5.24500000E+01   # M_1(MX)             
         2    -2.17950000E+02   # M_2(MX)             
         3     1.03678000E+03   # M_3(MX)             
        11    -2.35736000E+03   # At(MX)              
        12     1.46411000E+03   # Ab(MX)              
        13    -3.19214000E+03   # Atau(MX)            
        23     1.40520000E+02   # mu(MX)              
        26     3.80208000E+03   # mA(pole)            
        31     3.62581000E+03   # meL(MX)             
        32     3.62581000E+03   # mmuL(MX)            
        33     2.67622000E+03   # mtauL(MX)           
        34     8.78770000E+02   # meR(MX)             
        35     8.78770000E+02   # mmuR(MX)            
        36     7.87570000E+02   # mtauR(MX)           
        41     1.60064000E+03   # mqL1(MX)            
        42     1.60064000E+03   # mqL2(MX)            
        43     9.31760000E+02   # mqL3(MX)            
        44     2.03595000E+03   # muR(MX)             
        45     2.03595000E+03   # mcR(MX)             
        46     3.11387000E+03   # mtR(MX)             
        47     7.58170000E+02   # mdR(MX)             
        48     7.58170000E+02   # msR(MX)             
        49     2.10968000E+03   # mbR(MX)             
#
BLOCK MASS  # Mass Spectrum
# PDG code           mass       particle
        24     8.03881217E+01   # W+
        25     1.25239345E+02   # h
        35     3.80209474E+03   # H
        36     3.80207982E+03   # A
        37     3.80323577E+03   # H+
         5     4.81876030E+00   # b-quark pole mass calculated from mb(mb)_Msbar
   1000001     1.63678716E+03   # ~d_L
   2000001     8.22617099E+02   # ~d_R
   1000002     1.63499178E+03   # ~u_L
   2000002     2.06923021E+03   # ~u_R
   1000003     1.63678716E+03   # ~s_L
   2000003     8.22617099E+02   # ~s_R
   1000004     1.63499178E+03   # ~c_L
   2000004     2.06923021E+03   # ~c_R
   1000005     9.94955613E+02   # ~b_1
   2000005     2.13602746E+03   # ~b_2
   1000006     9.96615287E+02   # ~t_1
   2000006     3.12920650E+03   # ~t_2
   1000011     3.63511934E+03   # ~e_L
   2000011     8.64628247E+02   # ~e_R
   1000012     3.63391230E+03   # ~nu_eL
   1000013     3.63511934E+03   # ~mu_L
   2000013     8.64628247E+02   # ~mu_R
   1000014     3.63391230E+03   # ~nu_muL
   1000015     7.76662902E+02   # ~tau_1
   2000015     2.68444328E+03   # ~tau_2
   1000016     2.68292838E+03   # ~nu_tauL
   1000021     1.15854256E+03   # ~g
   1000022    -4.88922984E+01   # ~chi_10
   1000023    -1.29990756E+02   # ~chi_20
   1000025     1.60909180E+02   # ~chi_30
   1000035    -2.66477687E+02   # ~chi_40
   1000024     1.30289089E+02   # ~chi_1+
   1000037     2.67599774E+02   # ~chi_2+
#
BLOCK NMIX  # Neutralino Mixing Matrix
  1  1     9.42247747E-01   # N_11
  1  2    -3.11918746E-02   # N_12
  1  3     3.20851621E-01   # N_13
  1  4     9.08321898E-02   # N_14
  2  1    -2.89119486E-01   # N_21
  2  2    -4.19973734E-01   # N_22
  2  3     6.48082310E-01   # N_23
  2  4     5.65704257E-01   # N_24
  3  1     1.50692093E-01   # N_31
  3  2    -1.56460670E-01   # N_32
  3  3    -6.61067709E-01   # N_33
  3  4     7.18193175E-01   # N_34
  4  1    -7.66224412E-02   # N_41
  4  2     8.93403150E-01   # N_42
  4  3     2.00082588E-01   # N_43
  4  4     3.94875640E-01   # N_44
#
BLOCK UMIX  # Chargino Mixing Matrix U
  1  1    -2.91373053E-01   # U_11
  1  2     9.56609505E-01   # U_12
  2  1    -9.56609505E-01   # U_21
  2  2    -2.91373053E-01   # U_22
#
BLOCK VMIX  # Chargino Mixing Matrix V
  1  1     5.70076950E-01   # V_11
  1  2     8.21591304E-01   # V_12
  2  1     8.21591304E-01   # V_21
  2  2    -5.70076950E-01   # V_22
#
BLOCK STOPMIX  # Stop Mixing Matrix
  1  1     9.99214159E-01   # cos(theta_t)
  1  2     3.96366554E-02   # sin(theta_t)
  2  1    -3.96366554E-02   # -sin(theta_t)
  2  2     9.99214159E-01   # cos(theta_t)
#
BLOCK SBOTMIX  # Sbottom Mixing Matrix
  1  1     9.99999735E-01   # cos(theta_b)
  1  2     7.28010941E-04   # sin(theta_b)
  2  1    -7.28010941E-04   # -sin(theta_b)
  2  2     9.99999735E-01   # cos(theta_b)
#
BLOCK STAUMIX  # Stau Mixing Matrix
  1  1     1.52641151E-03   # cos(theta_tau)
  1  2     9.99998835E-01   # sin(theta_tau)
  2  1    -9.99998835E-01   # -sin(theta_tau)
  2  2     1.52641151E-03   # cos(theta_tau)
#
BLOCK ALPHA  # Higgs mixing
          -5.65934135E-02   # Mixing angle in the neutral Higgs boson sector
#
BLOCK HMIX Q=  1.70713200E+03  # DRbar Higgs Parameters
         1     1.42322370E+02   # mu(Q)MSSM           
         2     1.76776734E+01   # tan                 
         3     2.41443446E+02   # higgs               
         4     1.44785203E+07   # mA^2(Q)MSSM         
#
BLOCK GAUGE Q=  1.70713200E+03  # The gauge couplings
     1     3.63836300E-01   # gprime(Q) DRbar
     2     6.44468299E-01   # g(Q) DRbar
     3     1.04621062E+00   # g3(Q) DRbar
#
BLOCK AU Q=  1.70713200E+03  # The trilinear couplings
  1  1     0.00000000E+00   # A_u(Q) DRbar
  2  2     0.00000000E+00   # A_c(Q) DRbar
  3  3    -2.35736000E+03   # A_t(Q) DRbar
#
BLOCK AD Q=  1.70713200E+03  # The trilinear couplings
  1  1     0.00000000E+00   # A_d(Q) DRbar
  2  2     0.00000000E+00   # A_s(Q) DRbar
  3  3     1.46411000E+03   # A_b(Q) DRbar
#
BLOCK AE Q=  1.70713200E+03  # The trilinear couplings
  1  1     0.00000000E+00   # A_e(Q) DRbar
  2  2     0.00000000E+00   # A_mu(Q) DRbar
  3  3    -3.19214000E+03   # A_tau(Q) DRbar
#
BLOCK Yu Q=  1.70713200E+03  # The Yukawa couplings
  1  1     0.00000000E+00   # y_u(Q) DRbar
  2  2     0.00000000E+00   # y_c(Q) DRbar
  3  3     8.40383470E-01   # y_t(Q) DRbar
#
BLOCK Yd Q=  1.70713200E+03  # The Yukawa couplings
  1  1     0.00000000E+00   # y_d(Q) DRbar
  2  2     0.00000000E+00   # y_s(Q) DRbar
  3  3     2.40440636E-01   # y_b(Q) DRbar
#
BLOCK Ye Q=  1.70713200E+03  # The Yukawa couplings
  1  1     0.00000000E+00   # y_e(Q) DRbar
  2  2     0.00000000E+00   # y_mu(Q) DRbar
  3  3     1.81276756E-01   # y_tau(Q) DRbar
#
BLOCK MSOFT Q=  1.70713200E+03  # The soft SUSY breaking masses at the scale Q
         1    -5.24500000E+01   # M_1(Q)              
         2    -2.17950000E+02   # M_2(Q)              
         3     1.03678000E+03   # M_3(Q)              
        21     1.43459378E+07   # mH1^2(Q)            
        22    -4.84851244E+03   # mH2^2(Q)            
        31     3.62581000E+03   # meL(Q)              
        32     3.62581000E+03   # mmuL(Q)             
        33     2.67622000E+03   # mtauL(Q)            
        34     8.78770000E+02   # meR(Q)              
        35     8.78770000E+02   # mmuR(Q)             
        36     7.87570000E+02   # mtauR(Q)            
        41     1.60064000E+03   # mqL1(Q)             
        42     1.60064000E+03   # mqL2(Q)             
        43     9.31759995E+02   # mqL3(Q)             
        44     2.03595000E+03   # muR(Q)              
        45     2.03595000E+03   # mcR(Q)              
        46     3.11387000E+03   # mtR(Q)              
        47     7.58169998E+02   # mdR(Q)              
        48     7.58169998E+02   # msR(Q)              
        49     2.10968000E+03   # mbR(Q)              
#
Block HiggsBoundsInputHiggsCouplingsFermions
# ScalarNormEffCoupSq PseudoSNormEffCoupSq NP   IP1 IP2 IP2
    1.00301126E+00    0.00000000E+00        3  25   5   5  # h0-b-b eff. coupling^2, normalised to SM
    3.12497126E+02    0.00000000E+00        3  35   5   5  # H0-b-b eff. coupling^2, normalised to SM
    0.00000000E+00    3.12500137E+02        3  36   5   5  # A0-b-b eff. coupling^2, normalised to SM
#
    9.99990364E-01    0.00000000E+00        3  25   6   6  # h0-t-t eff. coupling^2, normalised to SM
    3.20963464E-03    0.00000000E+00        3  35   6   6  # H0-t-t eff. coupling^2, normalised to SM
    0.00000000E+00    3.19999860E-03        3  36   6   6  # A0-t-t eff. coupling^2, normalised to SM
#
    1.00301126E+00    0.00000000E+00        3  25  15  15  # h0-tau-tau eff. coupling^2, normalised to SM
    3.12497126E+02    0.00000000E+00        3  35  15  15  # H0-tau-tau eff. coupling^2, normalised to SM
    0.00000000E+00    3.12500137E+02        3  36  15  15  # A0-tau-tau eff. coupling^2, normalised to SM
#
Block HiggsBoundsInputHiggsCouplingsBosons
    9.99999993E-01        3  25  24  24  # h0-W-W eff. coupling^2, normalised to SM
    7.24329353E-09        3  35  24  24  # H0-W-W eff. coupling^2, normalised to SM
    0.00000000E+00        3  36  24  24  # A0-W-W eff. coupling^2, normalised to SM
#
    9.99999993E-01        3  25  23  23  # h0-Z-Z eff. coupling^2, normalised to SM
    7.24329353E-09        3  35  23  23  # H0-Z-Z eff. coupling^2, normalised to SM
    0.00000000E+00        3  36  23  23  # A0-Z-Z eff. coupling^2, normalised to SM
#
    9.04965000E-01        3  25  21  21  # h0-g-g eff. coupling^2, normalised to SM
    9.08295106E-16        3  35  21  21  # H0-g-g eff. coupling^2, normalised to SM
    1.52326999E-13        3  36  21  21  # A0-g-g eff. coupling^2, normalised to SM
#
    0.00000000E+00        3  25  25  23  # h0-h0-Z eff. coupling^2, normalised to SM
    0.00000000E+00        3  35  25  23  # H0-h0-Z eff. coupling^2, normalised to SM
    7.24329353E-09        3  36  25  23  # A0-h0-Z eff. coupling^2, normalised to SM
    0.00000000E+00        3  35  35  23  # H0-H0-Z eff. coupling^2, normalised to SM
    9.99999993E-01        3  36  35  23  # A0-H0-Z eff. coupling^2, normalised to SM
    0.00000000E+00        3  36  36  23  # A0-A0-Z eff. coupling^2, normalised to SM
#
    0.00000000E+00        4  25  21  21  23  # h0-g-g-Z eff. coupling^2, normalised to SM
    0.00000000E+00        4  35  21  21  23  # H0-g-g-Z eff. coupling^2, normalised to SM
    0.00000000E+00        4  36  21  21  23  # A0-g-g-Z eff. coupling^2, normalised to SM
#
#
#
#                             =================
#                             |The decay table|
#                             =================
#
# - The QCD corrections to the decays gluino -> squark  + quark
#                                     squark -> gaugino + quark_prime
#                                     squark -> squark_prime + Higgs
#                                     squark -> gluino  + quark
#   are included.
#
# - The multi-body decays for the inos, stops and sbottoms are included.
#
# - The loop induced decays for the gluino, neutralinos and stops
#   are included.
#
# - The SUSY decays of the top quark are included.
#
#
#         PDG            Width
DECAY         6     1.46284471E+00   # top decays
#          BR         NDA      ID1       ID2
     1.00000000E+00    2           5        24   # BR(t ->  b    W+)
#
#         PDG            Width
DECAY   1000021     1.26857960E+01   # gluino decays
#          BR         NDA      ID1       ID2
     2.14672420E-01    2     2000001        -1   # BR(~g -> ~d_R  db)
     2.14672420E-01    2    -2000001         1   # BR(~g -> ~d_R* d )
     2.14672420E-01    2     2000003        -3   # BR(~g -> ~s_R  sb)
     2.14672420E-01    2    -2000003         3   # BR(~g -> ~s_R* s )
     7.06551608E-02    2     1000005        -5   # BR(~g -> ~b_1  bb)
     7.06551608E-02    2    -1000005         5   # BR(~g -> ~b_1* b )
#
#         PDG            Width
DECAY   1000006     2.46280017E+01   # stop1 decays
#          BR         NDA      ID1       ID2
     6.79636536E-03    2     1000022         6   # BR(~t_1 -> ~chi_10 t )
     1.89287484E-01    2     1000023         6   # BR(~t_1 -> ~chi_20 t )
     2.61163039E-01    2     1000025         6   # BR(~t_1 -> ~chi_30 t )
     2.00303758E-01    2     1000035         6   # BR(~t_1 -> ~chi_40 t )
     1.31006397E-01    2     1000024         5   # BR(~t_1 -> ~chi_1+ b )
     2.11442956E-01    2     1000037         5   # BR(~t_1 -> ~chi_2+ b )
#
#         PDG            Width
DECAY   2000006     2.72935014E+02   # stop2 decays
#          BR         NDA      ID1       ID2
     2.52883553E-02    2     1000022         6   # BR(~t_2 -> ~chi_10 t )
     5.43695716E-02    2     1000023         6   # BR(~t_2 -> ~chi_20 t )
     8.40491692E-02    2     1000025         6   # BR(~t_2 -> ~chi_30 t )
     2.23226015E-02    2     1000035         6   # BR(~t_2 -> ~chi_40 t )
     1.12822841E-01    2     1000024         5   # BR(~t_2 -> ~chi_1+ b )
     4.70916517E-02    2     1000037         5   # BR(~t_2 -> ~chi_2+ b )
     4.89816278E-01    2     1000021         6   # BR(~t_2 -> ~g      t )
     4.08475662E-02    2     1000006        25   # BR(~t_2 -> ~t_1    h )
     4.17106769E-02    2     1000006        23   # BR(~t_2 -> ~t_1    Z )
     8.16812799E-02    2     1000005        24   # BR(~t_2 -> ~b_1    W+)
     9.01009438E-09    2     2000005        24   # BR(~t_2 -> ~b_2    W+)
#
#         PDG            Width
DECAY   1000005     2.44589547E+01   # sbottom1 decays
#          BR         NDA      ID1       ID2
     1.20927838E-02    2     1000022         5   # BR(~b_1 -> ~chi_10 b )
     4.07557046E-02    2     1000023         5   # BR(~b_1 -> ~chi_20 b )
     2.48467416E-02    2     1000025         5   # BR(~b_1 -> ~chi_30 b )
     1.20857448E-01    2     1000035         5   # BR(~b_1 -> ~chi_40 b )
     3.66452328E-01    2    -1000024         6   # BR(~b_1 -> ~chi_1- t )
     4.34994994E-01    2    -1000037         6   # BR(~b_1 -> ~chi_2- t )
#
#         PDG            Width
DECAY   2000005     6.78763806E+01   # sbottom2 decays
#          BR         NDA      ID1       ID2
     2.00394771E-02    2     1000022         5   # BR(~b_2 -> ~chi_10 b )
     1.65981702E-02    2     1000023         5   # BR(~b_2 -> ~chi_20 b )
     1.60688911E-02    2     1000025         5   # BR(~b_2 -> ~chi_30 b )
     1.52672019E-03    2     1000035         5   # BR(~b_2 -> ~chi_40 b )
     3.24039098E-02    2    -1000024         6   # BR(~b_2 -> ~chi_1- t )
     2.97525153E-03    2    -1000037         6   # BR(~b_2 -> ~chi_2- t )
     9.10341806E-01    2     1000021         5   # BR(~b_2 -> ~g      b )
     1.08742323E-05    2     1000005        25   # BR(~b_2 -> ~b_1    h )
     1.18398264E-05    2     1000005        23   # BR(~b_2 -> ~b_1    Z )
     2.30604952E-05    2     1000006       -24   # BR(~b_2 -> ~t_1    W-)
#
#         PDG            Width
DECAY   1000002     5.01798750E+01   # sup_L decays
#          BR         NDA      ID1       ID2
     2.73222471E-03    2     1000022         2   # BR(~u_L -> ~chi_10 u)
     2.85180655E-02    2     1000023         2   # BR(~u_L -> ~chi_20 u)
     2.06643488E-03    2     1000025         2   # BR(~u_L -> ~chi_30 u)
     9.41290558E-02    2     1000035         2   # BR(~u_L -> ~chi_40 u)
     8.23641161E-02    2     1000024         1   # BR(~u_L -> ~chi_1+ d)
     1.64402830E-01    2     1000037         1   # BR(~u_L -> ~chi_2+ d)
     6.25787273E-01    2     1000021         2   # BR(~u_L -> ~g      u)
#
#         PDG            Width
DECAY   2000002     8.01943956E+01   # sup_R decays
#          BR         NDA      ID1       ID2
     5.13764771E-02    2     1000022         2   # BR(~u_R -> ~chi_10 u)
     4.80811476E-03    2     1000023         2   # BR(~u_R -> ~chi_20 u)
     1.30102624E-03    2     1000025         2   # BR(~u_R -> ~chi_30 u)
     3.29557648E-04    2     1000035         2   # BR(~u_R -> ~chi_40 u)
     9.42184824E-01    2     1000021         2   # BR(~u_R -> ~g      u)
#
#         PDG            Width
DECAY   1000001     5.02455570E+01   # sdown_L decays
#          BR         NDA      ID1       ID2
     5.56215713E-03    2     1000022         1   # BR(~d_L -> ~chi_10 d)
     1.69329182E-02    2     1000023         1   # BR(~d_L -> ~chi_20 d)
     4.30068213E-03    2     1000025         1   # BR(~d_L -> ~chi_30 d)
     1.00400869E-01    2     1000035         1   # BR(~d_L -> ~chi_40 d)
     2.15132217E-02    2    -1000024         2   # BR(~d_L -> ~chi_1- u)
     2.22864805E-01    2    -1000037         2   # BR(~d_L -> ~chi_2- u)
     6.28425347E-01    2     1000021         1   # BR(~d_L -> ~g      d)
#
#         PDG            Width
DECAY   2000001     4.71827154E-01   # sdown_R decays
#          BR         NDA      ID1       ID2
     8.93253083E-01    2     1000022         1   # BR(~d_R -> ~chi_10 d)
     8.06405326E-02    2     1000023         1   # BR(~d_R -> ~chi_20 d)
     2.13238983E-02    2     1000025         1   # BR(~d_R -> ~chi_30 d)
     4.78248644E-03    2     1000035         1   # BR(~d_R -> ~chi_40 d)
#
#         PDG            Width
DECAY   1000004     4.32069069E+01   # scharm_L decays
#          BR         NDA      ID1       ID2
     3.33221159E-03    2     1000022         4   # BR(~c_L -> ~chi_10 c)
     3.47386037E-02    2     1000023         4   # BR(~c_L -> ~chi_20 c)
     2.51610141E-03    2     1000025         4   # BR(~c_L -> ~chi_30 c)
     1.14456828E-01    2     1000035         4   # BR(~c_L -> ~chi_40 c)
     1.00329651E-01    2     1000024         3   # BR(~c_L -> ~chi_1+ s)
     1.99904321E-01    2     1000037         3   # BR(~c_L -> ~chi_2+ s)
     5.44722283E-01    2     1000021         4   # BR(~c_L -> ~g      c)
#
#         PDG            Width
DECAY   2000004     6.14647527E+01   # scharm_R decays
#          BR         NDA      ID1       ID2
     6.98903537E-02    2     1000022         4   # BR(~c_R -> ~chi_10 c)
     6.53570107E-03    2     1000023         4   # BR(~c_R -> ~chi_20 c)
     1.76800977E-03    2     1000025         4   # BR(~c_R -> ~chi_30 c)
     4.47463983E-04    2     1000035         4   # BR(~c_R -> ~chi_40 c)
     9.21358471E-01    2     1000021         4   # BR(~c_R -> ~g      c)
#
#         PDG            Width
DECAY   1000003     4.32173734E+01   # sstrange_L decays
#          BR         NDA      ID1       ID2
     6.79058736E-03    2     1000022         3   # BR(~s_L -> ~chi_10 s)
     2.06477607E-02    2     1000023         3   # BR(~s_L -> ~chi_20 s)
     5.24195077E-03    2     1000025         3   # BR(~s_L -> ~chi_30 s)
     1.22209713E-01    2     1000035         3   # BR(~s_L -> ~chi_40 s)
     2.62327821E-02    2    -1000024         4   # BR(~s_L -> ~chi_1- c)
     2.71270999E-01    2    -1000037         4   # BR(~s_L -> ~chi_2- c)
     5.47606208E-01    2     1000021         3   # BR(~s_L -> ~g      s)
#
#         PDG            Width
DECAY   2000003     4.75041919E-01   # sstrange_R decays
#          BR         NDA      ID1       ID2
     8.93412349E-01    2     1000022         3   # BR(~s_R -> ~chi_10 s)
     8.05351746E-02    2     1000023         3   # BR(~s_R -> ~chi_20 s)
     2.12858051E-02    2     1000025         3   # BR(~s_R -> ~chi_30 s)
     4.76667152E-03    2     1000035         3   # BR(~s_R -> ~chi_40 s)
#
#         PDG            Width
DECAY   1000011     4.94069472E+01   # selectron_L decays
#          BR         NDA      ID1       ID2
     7.61956460E-02    2     1000022        11   # BR(~e_L -> ~chi_10 e-)
     1.03122380E-01    2     1000023        11   # BR(~e_L -> ~chi_20 e-)
     1.54301149E-03    2     1000025        11   # BR(~e_L -> ~chi_30 e-)
     2.17340395E-01    2     1000035        11   # BR(~e_L -> ~chi_40 e-)
     5.14809024E-02    2    -1000024        12   # BR(~e_L -> ~chi_1- nu_e)
     5.50317665E-01    2    -1000037        12   # BR(~e_L -> ~chi_2- nu_e)
#
#         PDG            Width
DECAY   2000011     4.49938226E+00   # selectron_R decays
#          BR         NDA      ID1       ID2
     8.92888233E-01    2     1000022        11   # BR(~e_R -> ~chi_10 e-)
     8.08249510E-02    2     1000023        11   # BR(~e_R -> ~chi_20 e-)
     2.14197125E-02    2     1000025        11   # BR(~e_R -> ~chi_30 e-)
     4.86710371E-03    2     1000035        11   # BR(~e_R -> ~chi_40 e-)
#
#         PDG            Width
DECAY   1000013     4.94069472E+01   # smuon_L decays
#          BR         NDA      ID1       ID2
     7.61956459E-02    2     1000022        13   # BR(~mu_L -> ~chi_10 mu-)
     1.03122380E-01    2     1000023        13   # BR(~mu_L -> ~chi_20 mu-)
     1.54301149E-03    2     1000025        13   # BR(~mu_L -> ~chi_30 mu-)
     2.17340395E-01    2     1000035        13   # BR(~mu_L -> ~chi_40 mu-)
     5.14809024E-02    2    -1000024        14   # BR(~mu_L -> ~chi_1- nu_mu)
     5.50317665E-01    2    -1000037        14   # BR(~mu_L -> ~chi_2- nu_mu)
#
#         PDG            Width
DECAY   2000013     4.49938213E+00   # smuon_R decays
#          BR         NDA      ID1       ID2
     8.92888233E-01    2     1000022        13   # BR(~mu_R -> ~chi_10 mu-)
     8.08249509E-02    2     1000023        13   # BR(~mu_R -> ~chi_20 mu-)
     2.14197125E-02    2     1000025        13   # BR(~mu_R -> ~chi_30 mu-)
     4.86710368E-03    2     1000035        13   # BR(~mu_R -> ~chi_40 mu-)
#
#         PDG            Width
DECAY   1000015     4.97520474E+00   # stau_1 decays
#          BR         NDA      ID1       ID2
     7.34831872E-01    2     1000022        15   # BR(~tau_1 -> ~chi_10  tau-)
     1.05471360E-01    2     1000023        15   # BR(~tau_1 -> ~chi_20  tau-)
     5.78925314E-02    2     1000025        15   # BR(~tau_1 -> ~chi_30  tau-)
     6.81234003E-03    2     1000035        15   # BR(~tau_1 -> ~chi_40  tau-)
     8.85002962E-02    2    -1000024        16   # BR(~tau_1 -> ~chi_1-  nu_tau)
     6.49160020E-03    2    -1000037        16   # BR(~tau_1 -> ~chi_2-  nu_tau)
#
#         PDG            Width
DECAY   2000015     3.79866423E+01   # stau_2 decays
#          BR         NDA      ID1       ID2
     7.78515636E-02    2     1000022        15   # BR(~tau_2 -> ~chi_10  tau-)
     1.18096676E-01    2     1000023        15   # BR(~tau_2 -> ~chi_20  tau-)
     2.15791408E-02    2     1000025        15   # BR(~tau_2 -> ~chi_30  tau-)
     2.08749384E-01    2     1000035        15   # BR(~tau_2 -> ~chi_40  tau-)
     4.92017582E-02    2    -1000024        16   # BR(~tau_2 -> ~chi_1-  nu_tau)
     5.23918880E-01    2    -1000037        16   # BR(~tau_2 -> ~chi_2-  nu_tau)
     3.04889144E-04    2     1000015        25   # BR(~tau_2 -> ~tau_1   h)
     2.97707933E-04    2     1000015        23   # BR(~tau_2 -> ~tau_1   Z)
#
#         PDG            Width
DECAY   1000012     4.94318492E+01   # snu_eL decays
#          BR         NDA      ID1       ID2
     9.62824004E-02    2     1000022        12   # BR(~nu_eL -> ~chi_10 nu_e)
     1.99701568E-02    2     1000023        12   # BR(~nu_eL -> ~chi_20 nu_e)
     1.76491476E-02    2     1000025        12   # BR(~nu_eL -> ~chi_30 nu_e)
     2.63603975E-01    2     1000035        12   # BR(~nu_eL -> ~chi_40 nu_e)
     1.96902185E-01    2     1000024        11   # BR(~nu_eL -> ~chi_1+ e-)
     4.05592135E-01    2     1000037        11   # BR(~nu_eL -> ~chi_2+ e-)
#
#         PDG            Width
DECAY   1000014     4.94318492E+01   # snu_muL decays
#          BR         NDA      ID1       ID2
     9.62824005E-02    2     1000022        14   # BR(~nu_muL -> ~chi_10 nu_mu)
     1.99701568E-02    2     1000023        14   # BR(~nu_muL -> ~chi_20 nu_mu)
     1.76491476E-02    2     1000025        14   # BR(~nu_muL -> ~chi_30 nu_mu)
     2.63603976E-01    2     1000035        14   # BR(~nu_muL -> ~chi_40 nu_mu)
     1.96902184E-01    2     1000024        13   # BR(~nu_muL -> ~chi_1+ mu-)
     4.05592135E-01    2     1000037        13   # BR(~nu_muL -> ~chi_2+ mu-)
#
#         PDG            Width
DECAY   1000016     3.80200381E+01   # snu_tauL decays
#          BR         NDA      ID1       ID2
     9.23941772E-02    2     1000022        16   # BR(~nu_tauL -> ~chi_10 nu_tau)
     1.91285112E-02    2     1000023        16   # BR(~nu_tauL -> ~chi_20 nu_tau)
     1.68860253E-02    2     1000025        16   # BR(~nu_tauL -> ~chi_30 nu_tau)
     2.50756938E-01    2     1000035        16   # BR(~nu_tauL -> ~chi_40 nu_tau)
     2.30630559E-01    2     1000024        15   # BR(~nu_tauL -> ~chi_1+ tau-)
     3.89623911E-01    2     1000037        15   # BR(~nu_tauL -> ~chi_2+ tau-)
     5.79877380E-04    2    -1000015       -24   # BR(~nu_tauL -> ~tau_1+ W-)
#
#         PDG            Width
DECAY   1000024     3.77858419E-03   # chargino1+ decays
#          BR         NDA      ID1       ID2
     1.00000000E+00    2     1000022        24   # BR(~chi_1+ -> ~chi_10  W+)
#
#         PDG            Width
DECAY   1000037     7.19388396E-01   # chargino2+ decays
#          BR         NDA      ID1       ID2
     2.88317288E-01    2     1000024        23   # BR(~chi_2+ -> ~chi_1+  Z )
     2.03368529E-02    2     1000022        24   # BR(~chi_2+ -> ~chi_10  W+)
     4.30617816E-01    2     1000023        24   # BR(~chi_2+ -> ~chi_20  W+)
     1.78201182E-01    2     1000025        24   # BR(~chi_2+ -> ~chi_30  W+)
     8.25268614E-02    2     1000024        25   # BR(~chi_2+ -> ~chi_1+  h )
#
#         PDG            Width
DECAY   1000022     0.00000000E+00   # neutralino1 decays
#
#         PDG            Width
DECAY   1000023     2.79836583E-04   # neutralino2 decays
#          BR         NDA      ID1       ID2
     5.62880828E-04    2     1000022        22   # BR(~chi_20 -> ~chi_10 gam)
#           BR         NDA      ID1       ID2       ID3
     1.17723314E-01    3     1000022        -2         2   # BR(~chi_20 -> ~chi_10 ub      u)
     1.52335463E-01    3     1000022        -1         1   # BR(~chi_20 -> ~chi_10 db      d)
     1.17723314E-01    3     1000022        -4         4   # BR(~chi_20 -> ~chi_10 cb      c)
     1.52335463E-01    3     1000022        -3         3   # BR(~chi_20 -> ~chi_10 sb      s)
     1.48565892E-01    3     1000022        -5         5   # BR(~chi_20 -> ~chi_10 bb      b)
     3.41723241E-02    3     1000022       -11        11   # BR(~chi_20 -> ~chi_10 e+      e-)
     3.41723241E-02    3     1000022       -13        13   # BR(~chi_20 -> ~chi_10 mu+     mu-)
     3.39116876E-02    3     1000022       -15        15   # BR(~chi_20 -> ~chi_10 tau+    tau-)
     6.95073143E-02    3     1000022       -12        12   # BR(~chi_20 -> ~chi_10 nu_eb   nu_e)
     6.95073143E-02    3     1000022       -14        14   # BR(~chi_20 -> ~chi_10 nu_mub  nu_mu)
     6.94827081E-02    3     1000022       -16        16   # BR(~chi_20 -> ~chi_10 nu_taub nu_tau)
#
#         PDG            Width
DECAY   1000025     1.90853339E-02   # neutralino3 decays
#          BR         NDA      ID1       ID2
     1.00000000E+00    2     1000022        23   # BR(~chi_30 -> ~chi_10   Z )
#
#         PDG            Width
DECAY   1000035     7.84987806E-01   # neutralino4 decays
#          BR         NDA      ID1       ID2
     6.15545540E-03    2     1000022        23   # BR(~chi_40 -> ~chi_10   Z )
     3.98382562E-02    2     1000023        23   # BR(~chi_40 -> ~chi_20   Z )
     4.77721418E-02    2     1000025        23   # BR(~chi_40 -> ~chi_30   Z )
     4.15022742E-01    2     1000024       -24   # BR(~chi_40 -> ~chi_1+   W-)
     4.15022742E-01    2    -1000024        24   # BR(~chi_40 -> ~chi_1-   W+)
     1.30881127E-02    2     1000022        25   # BR(~chi_40 -> ~chi_10   h )
     6.31005496E-02    2     1000023        25   # BR(~chi_40 -> ~chi_20   h )
#
#         PDG            Width
DECAY        25     4.46935459E-03   # h decays
#          BR         NDA      ID1       ID2
     5.41208112E-01    2           5        -5   # BR(h -> b       bb     )
     5.81792136E-02    2         -15        15   # BR(h -> tau+    tau-   )
     2.05931802E-04    2         -13        13   # BR(h -> mu+     mu-    )
     2.24698416E-04    2           3        -3   # BR(h -> s       sb     )
     1.94350486E-02    2           4        -4   # BR(h -> c       cb     )
     7.24471664E-02    2          21        21   # BR(h -> g       g      )
     2.08794217E-03    2          22        22   # BR(h -> gam     gam    )
     1.42766111E-03    2          22        23   # BR(h -> Z       gam    )
     1.93042296E-01    2          24       -24   # BR(h -> W+      W-     )
     2.41832608E-02    2          23        23   # BR(h -> Z       Z      )
     8.75586691E-02    2     1000022   1000022   # BR(h -> ~chi_10 ~chi_10)
#
#         PDG            Width
DECAY        35     6.99179461E+01   # H decays
#          BR         NDA      ID1       ID2
     1.81971166E-01    2           5        -5   # BR(H -> b       bb     )
     3.52885758E-02    2         -15        15   # BR(H -> tau+    tau-   )
     1.24662835E-04    2         -13        13   # BR(H -> mu+     mu-    )
     7.29123436E-05    2           3        -3   # BR(H -> s       sb     )
     6.94339840E-08    2           4        -4   # BR(H -> c       cb     )
     6.85146594E-03    2           6        -6   # BR(H -> t       tb     )
     9.92487218E-07    2          21        21   # BR(H -> g       g      )
     2.12289275E-08    2          22        22   # BR(H -> gam     gam    )
     2.00465913E-09    2          23        22   # BR(H -> Z       gam    )
     1.83267793E-06    2          24       -24   # BR(H -> W+      W-     )
     9.14757671E-07    2          23        23   # BR(H -> Z       Z      )
     7.73801454E-06    2          25        25   # BR(H -> h       h      )
     1.42619011E-01    2     1000024  -1000024   # BR(H -> ~chi_1+ ~chi_1-)
     3.25970371E-02    2     1000037  -1000037   # BR(H -> ~chi_2+ ~chi_2-)
     1.40499989E-01    2     1000024  -1000037   # BR(H -> ~chi_1+ ~chi_2-)
     1.40499989E-01    2     1000037  -1000024   # BR(H -> ~chi_2+ ~chi_1-)
     1.40112501E-02    2     1000022   1000022   # BR(H -> ~chi_10 ~chi_10)
     1.48495683E-02    2     1000023   1000023   # BR(H -> ~chi_20 ~chi_20)
     9.84591104E-03    2     1000025   1000025   # BR(H -> ~chi_30 ~chi_30)
     1.92849776E-02    2     1000035   1000035   # BR(H -> ~chi_40 ~chi_40)
     4.65580270E-02    2     1000022   1000023   # BR(H -> ~chi_10 ~chi_20)
     1.49130621E-02    2     1000022   1000025   # BR(H -> ~chi_10 ~chi_30)
     7.81201468E-03    2     1000022   1000035   # BR(H -> ~chi_10 ~chi_40)
     2.35274556E-06    2     1000023   1000025   # BR(H -> ~chi_20 ~chi_30)
     7.51303045E-02    2     1000023   1000035   # BR(H -> ~chi_20 ~chi_40)
     9.12726320E-02    2     1000025   1000035   # BR(H -> ~chi_30 ~chi_40)
     8.22134061E-07    2     1000002  -1000002   # BR(H -> ~u_L    ~u_L*  )
     8.22134061E-07    2     1000004  -1000004   # BR(H -> ~c_L    ~c_L*  )
     8.13870880E-06    2     1000006  -1000006   # BR(H -> ~t_1    ~t_1*  )
     1.20261123E-06    2     1000001  -1000001   # BR(H -> ~d_L    ~d_L*  )
     6.48925403E-08    2     2000001  -2000001   # BR(H -> ~d_R    ~d_R*  )
     1.20261123E-06    2     1000003  -1000003   # BR(H -> ~s_L    ~s_L*  )
     6.48925403E-08    2     2000003  -2000003   # BR(H -> ~s_R    ~s_R*  )
     9.22129593E-07    2     1000005  -1000005   # BR(H -> ~b_1    ~b_1*  )
     8.46312706E-03    2     1000005  -2000005   # BR(H -> ~b_1    ~b_2*  )
     8.46312706E-03    2     2000005  -1000005   # BR(H -> ~b_2    ~b_1*  )
     1.92314275E-07    2     2000011  -2000011   # BR(H -> ~e_R-   ~e_R+  )
     1.92314275E-07    2     2000013  -2000013   # BR(H -> ~mu_R-  ~mu_R+ )
     4.21940559E-07    2     1000015  -1000015   # BR(H -> ~tau_1- ~tau_1+)
     4.42160925E-03    2     1000015  -2000015   # BR(H -> ~tau_1- ~tau_2+)
     4.42160925E-03    2     2000015  -1000015   # BR(H -> ~tau_2- ~tau_1+)
#
#         PDG            Width
DECAY        36     6.99202417E+01   # A decays
#          BR         NDA      ID1       ID2
     1.81983462E-01    2           5        -5   # BR(A -> b       bb     )
     3.52876493E-02    2         -15        15   # BR(A -> tau+    tau-   )
     1.24659454E-04    2         -13        13   # BR(A -> mu+     mu-    )
     7.29267709E-05    2           3        -3   # BR(A -> s       sb     )
     6.98664348E-08    2           4        -4   # BR(A -> c       cb     )
     6.86657608E-03    2           6        -6   # BR(A -> t       tb     )
     1.28522428E-05    2          21        21   # BR(A -> g       g      )
     1.75182213E-08    2          22        22   # BR(A -> gam     gam    )
     1.32397477E-08    2          23        22   # BR(A -> Z       gam    )
     1.85915266E-06    2          23        25   # BR(A -> Z       h      )
     1.29727517E-01    2     1000024  -1000024   # BR(A -> ~chi_1+ ~chi_1-)
     1.97967479E-02    2     1000037  -1000037   # BR(A -> ~chi_2+ ~chi_2-)
     1.53343630E-01    2     1000024  -1000037   # BR(A -> ~chi_1+ ~chi_2-)
     1.53343630E-01    2     1000037  -1000024   # BR(A -> ~chi_2+ ~chi_1-)
     1.31495102E-02    2     1000022   1000022   # BR(A -> ~chi_10 ~chi_10)
     1.22412958E-02    2     1000023   1000023   # BR(A -> ~chi_20 ~chi_20)
     1.26867031E-02    2     1000025   1000025   # BR(A -> ~chi_30 ~chi_30)
     1.25585900E-02    2     1000035   1000035   # BR(A -> ~chi_40 ~chi_40)
     3.92895001E-02    2     1000022   1000023   # BR(A -> ~chi_10 ~chi_20)
     2.07320565E-02    2     1000022   1000025   # BR(A -> ~chi_10 ~chi_30)
     9.09977208E-03    2     1000022   1000035   # BR(A -> ~chi_10 ~chi_40)
     3.63775816E-04    2     1000023   1000025   # BR(A -> ~chi_20 ~chi_30)
     6.37524231E-02    2     1000023   1000035   # BR(A -> ~chi_20 ~chi_40)
     1.09796476E-01    2     1000025   1000035   # BR(A -> ~chi_30 ~chi_40)
     8.46264817E-03    2     1000005  -2000005   # BR(A -> ~b_1    ~b_2*  )
     8.46264817E-03    2    -1000005   2000005   # BR(A -> ~b_1*   ~b_2   )
     4.42149556E-03    2     1000015  -2000015   # BR(A -> ~tau_1- ~tau_2+)
     4.42149556E-03    2    -1000015   2000015   # BR(A -> ~tau_1+ ~tau_2-)
#
#         PDG            Width
DECAY        37     7.27716433E+01   # H+ decays
#          BR         NDA      ID1       ID2
     2.89704008E-04    2           4        -5   # BR(H+ -> c       bb     )
     3.39152862E-02    2         -15        16   # BR(H+ -> tau+    nu_tau )
     1.19811354E-04    2         -13        14   # BR(H+ -> mu+     nu_mu  )
     2.89703685E-06    2           2        -5   # BR(H+ -> u       bb     )
     3.50691850E-06    2           2        -3   # BR(H+ -> u       sb     )
     6.90912103E-05    2           4        -3   # BR(H+ -> c       sb     )
     1.78695117E-01    2           6        -5   # BR(H+ -> t       bb     )
     1.78863077E-06    2          24        25   # BR(H+ -> W+      h      )
     3.73192057E-14    2          24        36   # BR(H+ -> W+      A      )
     7.55656013E-02    2     1000024   1000022   # BR(H+ -> ~chi_1+ ~chi_10)
     1.75879111E-02    2     1000024   1000023   # BR(H+ -> ~chi_1+ ~chi_20)
     2.63004697E-02    2     1000024   1000025   # BR(H+ -> ~chi_1+ ~chi_30)
     1.76566451E-01    2     1000024   1000035   # BR(H+ -> ~chi_1+ ~chi_40)
     1.92008407E-02    2     1000037   1000022   # BR(H+ -> ~chi_2+ ~chi_10)
     2.38547269E-01    2     1000037   1000023   # BR(H+ -> ~chi_2+ ~chi_20)
     1.66268209E-01    2     1000037   1000025   # BR(H+ -> ~chi_2+ ~chi_30)
     1.08595928E-04    2     1000037   1000035   # BR(H+ -> ~chi_2+ ~chi_40)
     8.52761597E-03    2    -1000015   1000016   # BR(H+ -> ~tau_1+ ~nu_tauL)
     1.92649184E-06    2     1000002  -1000001   # BR(H+ -> ~u_L    ~d_L*  )
     1.92649184E-06    2     1000004  -1000003   # BR(H+ -> ~c_L    ~s_L*  )
     1.38626216E-05    2     1000006  -1000005   # BR(H+ -> ~t_1    ~b_1*  )
     5.82121181E-02    2     1000006  -2000005   # BR(H+ -> ~t_1    ~b_2*  )
