#
#                              ======================
#                              | THE SUSYHIT OUTPUT |
#                              ======================
#
#
#              ------------------------------------------------------
#              |     This is the output of the SUSY-HIT package     |
#              |  created by A.Djouadi, M.Muehlleitner and M.Spira. |
#              |  In case of problems with SUSY-HIT email to        |
#              |           margarete.muehlleitner@cern.ch           |
#              |           michael.spira@psi.ch                     |
#              |           abdelhak.djouadi@cern.ch                 |
#              ------------------------------------------------------
#
#              ------------------------------------------------------
#              |  SUSY Les Houches Accord - MSSM Spectrum + Decays  |
#              |              based on the decay programs           |
#              |                                                    |
#              |                     SDECAY 1.3b                    |
#              |                                                    |
#              |  Authors: M.Muhlleitner, A.Djouadi and Y.Mambrini  |
#              |  Ref.:    Comput.Phys.Commun.168(2005)46           |
#              |           [hep-ph/0311167]                         |
#              |                                                    |
#              |                     HDECAY 3.4                     |
#              |                                                    |
#              |  By: A.Djouadi,J.Kalinowski,M.Muhlleitner,M.Spira  |
#              |  Ref.:    Comput.Phys.Commun.108(1998)56           |
#              |           [hep-ph/9704448]                         |
#              |                                                    |
#              |                                                    |
#              |  If not stated otherwise all DRbar couplings and   |
#              |  soft SUSY breaking masses are given at the scale  |
#              |  Q=  0.17367390E+04
#              |                                                    |
#              ------------------------------------------------------
#
#
BLOCK DCINFO  # Decay Program information
     1   SDECAY/HDECAY # decay calculator
     2   1.3b  /3.4    # version number
#
BLOCK SPINFO  # Spectrum calculator information
     1     SOFTSUSY    # spectrum calculator               
     2     3.4.0       # version number                    
#
BLOCK MODSEL  # Model selection
     1     0   #  nonUniversal                                     
#
BLOCK SMINPUTS  # Standard Model inputs
         1     1.27908970E+02   # alpha_em^-1(M_Z)^MSbar
         2     1.16637870E-05   # G_F [GeV^-2]
         3     1.18400000E-01   # alpha_S(M_Z)^MSbar
         4     9.11876000E+01   # M_Z pole mass
         5     4.18000000E+00   # mb(mb)^MSbar
         6     1.73200000E+02   # mt pole mass
         7     1.77700000E+00   # mtau pole mass
#
BLOCK MINPAR  # Input parameters - minimal models
         3     3.52900000E+01   # tanb                
#
BLOCK EXTPAR  # Input parameters - non-minimal models
         0    -1.00000000E+00   # Set                 
         1     6.58900000E+01   # M_1(MX)             
         2    -4.10750000E+02   # M_2(MX)             
         3     3.99462000E+03   # M_3(MX)             
        11    -2.64318000E+03   # At(MX)              
        12    -1.58645000E+03   # Ab(MX)              
        13     8.66310000E+02   # Atau(MX)            
        23    -1.38440000E+02   # mu(MX)              
        26     3.43143000E+03   # mA(pole)            
        31     2.91348000E+03   # meL(MX)             
        32     2.91348000E+03   # mmuL(MX)            
        33     1.20657000E+03   # mtauL(MX)           
        34     2.00895000E+03   # meR(MX)             
        35     2.00895000E+03   # mmuR(MX)            
        36     3.50389000E+03   # mtauR(MX)           
        41     3.45950000E+03   # mqL1(MX)            
        42     3.45950000E+03   # mqL2(MX)            
        43     1.91091000E+03   # mqL3(MX)            
        44     2.19772000E+03   # muR(MX)             
        45     2.19772000E+03   # mcR(MX)             
        46     1.58082000E+03   # mtR(MX)             
        47     2.82551000E+03   # mdR(MX)             
        48     2.82551000E+03   # msR(MX)             
        49     3.75541000E+03   # mbR(MX)             
#
BLOCK MASS  # Mass Spectrum
# PDG code           mass       particle
        24     8.03740901E+01   # W+
        25     1.26380409E+02   # h
        35     3.43144344E+03   # H
        36     3.43142995E+03   # A
        37     3.43265605E+03   # H+
         5     4.81876030E+00   # b-quark pole mass calculated from mb(mb)_Msbar
   1000001     3.48707789E+03   # ~d_L
   2000001     2.83546896E+03   # ~d_R
   1000002     3.48629569E+03   # ~u_L
   2000002     2.17916408E+03   # ~u_R
   1000003     3.48707789E+03   # ~s_L
   2000003     2.83546896E+03   # ~s_R
   1000004     3.48629569E+03   # ~c_L
   2000004     2.17916408E+03   # ~c_R
   1000005     1.85636653E+03   # ~b_1
   2000005     3.77858569E+03   # ~b_2
   1000006     1.44043187E+03   # ~t_1
   2000006     1.88728554E+03   # ~t_2
   1000011     2.91750007E+03   # ~e_L
   2000011     2.01645314E+03   # ~e_R
   1000012     2.91608957E+03   # ~nu_eL
   1000013     2.91750007E+03   # ~mu_L
   2000013     2.01645314E+03   # ~mu_R
   1000014     2.91608957E+03   # ~nu_muL
   1000015     1.20796360E+03   # ~tau_1
   2000015     3.50887797E+03   # ~tau_2
   1000016     1.20504037E+03   # ~nu_tauL
   1000021     3.93456713E+03   # ~g
   1000022     6.01852117E+01   # ~chi_10
   1000023    -1.38755144E+02   # ~chi_20
   1000025     1.59909955E+02   # ~chi_30
   1000035    -4.52858096E+02   # ~chi_40
   1000024     1.38980192E+02   # ~chi_1+
   1000037     4.53136921E+02   # ~chi_2+
#
BLOCK NMIX  # Neutralino Mixing Matrix
  1  1     9.35244721E-01   # N_11
  1  2     1.96506582E-02   # N_12
  1  3    -3.28956408E-01   # N_13
  1  4    -1.29301376E-01   # N_14
  2  1    -1.49273591E-01   # N_21
  2  2    -1.85432573E-01   # N_22
  2  3    -7.00086900E-01   # N_23
  2  4     6.73209097E-01   # N_24
  3  1     3.20537429E-01   # N_31
  3  2    -9.16814625E-02   # N_32
  3  3     6.30215683E-01   # N_33
  3  4     7.01197874E-01   # N_34
  4  1    -1.70430117E-02   # N_41
  4  2     9.78173360E-01   # N_42
  4  3    -6.70388424E-02   # N_43
  4  4     1.95939295E-01   # N_44
#
BLOCK UMIX  # Chargino Mixing Matrix U
  1  1     9.51389689E-02   # U_11
  1  2     9.95464001E-01   # U_12
  2  1    -9.95464001E-01   # U_21
  2  2     9.51389689E-02   # U_22
#
BLOCK VMIX  # Chargino Mixing Matrix V
  1  1    -2.78744239E-01   # V_11
  1  2    -9.60365373E-01   # V_12
  2  1     9.60365373E-01   # V_21
  2  2    -2.78744239E-01   # V_22
#
BLOCK STOPMIX  # Stop Mixing Matrix
  1  1     2.57895529E-01   # cos(theta_t)
  1  2     9.66172809E-01   # sin(theta_t)
  2  1    -9.66172809E-01   # -sin(theta_t)
  2  2     2.57895529E-01   # cos(theta_t)
#
BLOCK SBOTMIX  # Sbottom Mixing Matrix
  1  1     9.99999757E-01   # cos(theta_b)
  1  2    -6.97136960E-04   # sin(theta_b)
  2  1     6.97136960E-04   # -sin(theta_b)
  2  2     9.99999757E-01   # cos(theta_b)
#
BLOCK STAUMIX  # Stau Mixing Matrix
  1  1     9.99999556E-01   # cos(theta_tau)
  1  2    -9.42337415E-04   # sin(theta_tau)
  2  1     9.42337415E-04   # -sin(theta_tau)
  2  2     9.99999556E-01   # cos(theta_tau)
#
BLOCK ALPHA  # Higgs mixing
          -2.91147698E-02   # Mixing angle in the neutral Higgs boson sector
#
BLOCK HMIX Q=  1.73673900E+03  # DRbar Higgs Parameters
         1    -1.40539194E+02   # mu(Q)MSSM           
         2     3.44149837E+01   # tan                 
         3     2.41982825E+02   # higgs               
         4     1.18305366E+07   # mA^2(Q)MSSM         
#
BLOCK GAUGE Q=  1.73673900E+03  # The gauge couplings
     1     3.63486098E-01   # gprime(Q) DRbar
     2     6.41037933E-01   # g(Q) DRbar
     3     1.01632424E+00   # g3(Q) DRbar
#
BLOCK AU Q=  1.73673900E+03  # The trilinear couplings
  1  1     0.00000000E+00   # A_u(Q) DRbar
  2  2     0.00000000E+00   # A_c(Q) DRbar
  3  3    -2.64317999E+03   # A_t(Q) DRbar
#
BLOCK AD Q=  1.73673900E+03  # The trilinear couplings
  1  1     0.00000000E+00   # A_d(Q) DRbar
  2  2     0.00000000E+00   # A_s(Q) DRbar
  3  3    -1.58645000E+03   # A_b(Q) DRbar
#
BLOCK AE Q=  1.73673900E+03  # The trilinear couplings
  1  1     0.00000000E+00   # A_e(Q) DRbar
  2  2     0.00000000E+00   # A_mu(Q) DRbar
  3  3     8.66310001E+02   # A_tau(Q) DRbar
#
BLOCK Yu Q=  1.73673900E+03  # The Yukawa couplings
  1  1     0.00000000E+00   # y_u(Q) DRbar
  2  2     0.00000000E+00   # y_c(Q) DRbar
  3  3     8.28311178E-01   # y_t(Q) DRbar
#
BLOCK Yd Q=  1.73673900E+03  # The Yukawa couplings
  1  1     0.00000000E+00   # y_d(Q) DRbar
  2  2     0.00000000E+00   # y_s(Q) DRbar
  3  3     4.69073424E-01   # y_b(Q) DRbar
#
BLOCK Ye Q=  1.73673900E+03  # The Yukawa couplings
  1  1     0.00000000E+00   # y_e(Q) DRbar
  2  2     0.00000000E+00   # y_mu(Q) DRbar
  3  3     3.55766945E-01   # y_tau(Q) DRbar
#
BLOCK MSOFT Q=  1.73673900E+03  # The soft SUSY breaking masses at the scale Q
         1     6.58900000E+01   # M_1(Q)              
         2    -4.10750000E+02   # M_2(Q)              
         3     3.99462000E+03   # M_3(Q)              
        21     1.17252893E+07   # mH1^2(Q)            
        22     1.60184411E+04   # mH2^2(Q)            
        31     2.91348000E+03   # meL(Q)              
        32     2.91348000E+03   # mmuL(Q)             
        33     1.20657000E+03   # mtauL(Q)            
        34     2.00895000E+03   # meR(Q)              
        35     2.00895000E+03   # mmuR(Q)             
        36     3.50389000E+03   # mtauR(Q)            
        41     3.45950000E+03   # mqL1(Q)             
        42     3.45950000E+03   # mqL2(Q)             
        43     1.91090998E+03   # mqL3(Q)             
        44     2.19771999E+03   # muR(Q)              
        45     2.19771999E+03   # mcR(Q)              
        46     1.58081997E+03   # mtR(Q)              
        47     2.82550999E+03   # mdR(Q)              
        48     2.82550999E+03   # msR(Q)              
        49     3.75540999E+03   # mbR(Q)              
#
Block HiggsBoundsInputHiggsCouplingsFermions
# ScalarNormEffCoupSq PseudoSNormEffCoupSq NP   IP1 IP2 IP2
    1.00453638E+00    0.00000000E+00        3  25   5   5  # h0-b-b eff. coupling^2, normalised to SM
    1.18438657E+03    0.00000000E+00        3  35   5   5  # H0-b-b eff. coupling^2, normalised to SM
    0.00000000E+00    1.18439110E+03        3  36   5   5  # A0-b-b eff. coupling^2, normalised to SM
#
    9.99996170E-01    0.00000000E+00        3  25   6   6  # h0-t-t eff. coupling^2, normalised to SM
    8.48145832E-04    0.00000000E+00        3  35   6   6  # H0-t-t eff. coupling^2, normalised to SM
    0.00000000E+00    8.44315697E-04        3  36   6   6  # A0-t-t eff. coupling^2, normalised to SM
#
    1.00453638E+00    0.00000000E+00        3  25  15  15  # h0-tau-tau eff. coupling^2, normalised to SM
    1.18438657E+03    0.00000000E+00        3  35  15  15  # H0-tau-tau eff. coupling^2, normalised to SM
    0.00000000E+00    1.18439110E+03        3  36  15  15  # A0-tau-tau eff. coupling^2, normalised to SM
#
Block HiggsBoundsInputHiggsCouplingsBosons
    9.99999996E-01        3  25  24  24  # h0-W-W eff. coupling^2, normalised to SM
    4.33391713E-09        3  35  24  24  # H0-W-W eff. coupling^2, normalised to SM
    0.00000000E+00        3  36  24  24  # A0-W-W eff. coupling^2, normalised to SM
#
    9.99999996E-01        3  25  23  23  # h0-Z-Z eff. coupling^2, normalised to SM
    4.33391713E-09        3  35  23  23  # H0-Z-Z eff. coupling^2, normalised to SM
    0.00000000E+00        3  36  23  23  # A0-Z-Z eff. coupling^2, normalised to SM
#
    8.85860362E-01        3  25  21  21  # h0-g-g eff. coupling^2, normalised to SM
    1.66672156E-13        3  35  21  21  # H0-g-g eff. coupling^2, normalised to SM
    8.20718104E-13        3  36  21  21  # A0-g-g eff. coupling^2, normalised to SM
#
    0.00000000E+00        3  25  25  23  # h0-h0-Z eff. coupling^2, normalised to SM
    0.00000000E+00        3  35  25  23  # H0-h0-Z eff. coupling^2, normalised to SM
    4.33391713E-09        3  36  25  23  # A0-h0-Z eff. coupling^2, normalised to SM
    0.00000000E+00        3  35  35  23  # H0-H0-Z eff. coupling^2, normalised to SM
    9.99999996E-01        3  36  35  23  # A0-H0-Z eff. coupling^2, normalised to SM
    0.00000000E+00        3  36  36  23  # A0-A0-Z eff. coupling^2, normalised to SM
#
    0.00000000E+00        4  25  21  21  23  # h0-g-g-Z eff. coupling^2, normalised to SM
    0.00000000E+00        4  35  21  21  23  # H0-g-g-Z eff. coupling^2, normalised to SM
    0.00000000E+00        4  36  21  21  23  # A0-g-g-Z eff. coupling^2, normalised to SM
#
#
#
#                             =================
#                             |The decay table|
#                             =================
#
# - The QCD corrections to the decays gluino -> squark  + quark
#                                     squark -> gaugino + quark_prime
#                                     squark -> squark_prime + Higgs
#                                     squark -> gluino  + quark
#   are included.
#
# - The multi-body decays for the inos, stops and sbottoms are included.
#
# - The loop induced decays for the gluino, neutralinos and stops
#   are included.
#
# - The SUSY decays of the top quark are included.
#
#
#         PDG            Width
DECAY         6     1.44794405E+00   # top decays
#          BR         NDA      ID1       ID2
     1.00000000E+00    2           5        24   # BR(t ->  b    W+)
#
#         PDG            Width
DECAY   1000021     2.54401339E+02   # gluino decays
#          BR         NDA      ID1       ID2
     6.50218070E-03    2     1000001        -1   # BR(~g -> ~d_L  db)
     6.50218070E-03    2    -1000001         1   # BR(~g -> ~d_L* d )
     3.26398701E-02    2     2000001        -1   # BR(~g -> ~d_R  db)
     3.26398701E-02    2    -2000001         1   # BR(~g -> ~d_R* d )
     6.52355655E-03    2     1000002        -2   # BR(~g -> ~u_L  ub)
     6.52355655E-03    2    -1000002         2   # BR(~g -> ~u_L* u )
     6.78984505E-02    2     2000002        -2   # BR(~g -> ~u_R  ub)
     6.78984505E-02    2    -2000002         2   # BR(~g -> ~u_R* u )
     6.50218070E-03    2     1000003        -3   # BR(~g -> ~s_L  sb)
     6.50218070E-03    2    -1000003         3   # BR(~g -> ~s_L* s )
     3.26398701E-02    2     2000003        -3   # BR(~g -> ~s_R  sb)
     3.26398701E-02    2    -2000003         3   # BR(~g -> ~s_R* s )
     6.52351529E-03    2     1000004        -4   # BR(~g -> ~c_L  cb)
     6.52351529E-03    2    -1000004         4   # BR(~g -> ~c_L* c )
     6.78984344E-02    2     2000004        -4   # BR(~g -> ~c_R  cb)
     6.78984344E-02    2    -2000004         4   # BR(~g -> ~c_R* c )
     8.46648457E-02    2     1000005        -5   # BR(~g -> ~b_1  bb)
     8.46648457E-02    2    -1000005         5   # BR(~g -> ~b_1* b )
     9.04569048E-04    2     2000005        -5   # BR(~g -> ~b_2  bb)
     9.04569048E-04    2    -2000005         5   # BR(~g -> ~b_2* b )
     1.00338308E-01    2     1000006        -6   # BR(~g -> ~t_1  tb)
     1.00338308E-01    2    -1000006         6   # BR(~g -> ~t_1* t )
     8.69642188E-02    2     2000006        -6   # BR(~g -> ~t_2  tb)
     8.69642188E-02    2    -2000006         6   # BR(~g -> ~t_2* t )
#
#         PDG            Width
DECAY   1000006     4.03580185E+01   # stop1 decays
#          BR         NDA      ID1       ID2
     8.22504517E-02    2     1000022         6   # BR(~t_1 -> ~chi_10 t )
     2.07046563E-01    2     1000023         6   # BR(~t_1 -> ~chi_20 t )
     2.09352726E-01    2     1000025         6   # BR(~t_1 -> ~chi_30 t )
     4.32595487E-02    2     1000035         6   # BR(~t_1 -> ~chi_40 t )
     3.73951956E-01    2     1000024         5   # BR(~t_1 -> ~chi_1+ b )
     8.41387546E-02    2     1000037         5   # BR(~t_1 -> ~chi_2+ b )
#
#         PDG            Width
DECAY   2000006     7.13783765E+01   # stop2 decays
#          BR         NDA      ID1       ID2
     6.90385111E-03    2     1000022         6   # BR(~t_2 -> ~chi_10 t )
     1.68372152E-01    2     1000023         6   # BR(~t_2 -> ~chi_20 t )
     1.92271110E-01    2     1000025         6   # BR(~t_2 -> ~chi_30 t )
     8.16254695E-02    2     1000035         6   # BR(~t_2 -> ~chi_40 t )
     1.80101524E-01    2     1000024         5   # BR(~t_2 -> ~chi_1+ b )
     1.34726040E-01    2     1000037         5   # BR(~t_2 -> ~chi_2+ b )
     1.06492457E-01    2     1000006        25   # BR(~t_2 -> ~t_1    h )
     1.29507396E-01    2     1000006        23   # BR(~t_2 -> ~t_1    Z )
#
#         PDG            Width
DECAY   1000005     6.90396569E+01   # sbottom1 decays
#          BR         NDA      ID1       ID2
     1.54457590E-02    2     1000022         5   # BR(~b_1 -> ~chi_10 b )
     5.97315692E-02    2     1000023         5   # BR(~b_1 -> ~chi_20 b )
     4.85292887E-02    2     1000025         5   # BR(~b_1 -> ~chi_30 b )
     9.41076454E-02    2     1000035         5   # BR(~b_1 -> ~chi_40 b )
     3.30080816E-01    2    -1000024         6   # BR(~b_1 -> ~chi_1- t )
     2.20254857E-01    2    -1000037         6   # BR(~b_1 -> ~chi_2- t )
     2.31850065E-01    2     1000006       -24   # BR(~b_1 -> ~t_1    W-)
#
#         PDG            Width
DECAY   2000005     3.51339993E+01   # sbottom2 decays
#          BR         NDA      ID1       ID2
     1.05734560E-01    2     1000022         5   # BR(~b_2 -> ~chi_10 b )
     2.31469233E-01    2     1000023         5   # BR(~b_2 -> ~chi_20 b )
     1.92841465E-01    2     1000025         5   # BR(~b_2 -> ~chi_30 b )
     2.11426348E-03    2     1000035         5   # BR(~b_2 -> ~chi_40 b )
     4.63214038E-01    2    -1000024         6   # BR(~b_2 -> ~chi_1- t )
     4.20458472E-03    2    -1000037         6   # BR(~b_2 -> ~chi_2- t )
     1.11053858E-04    2     1000005        25   # BR(~b_2 -> ~b_1    h )
     1.05439062E-04    2     1000005        23   # BR(~b_2 -> ~b_1    Z )
     1.95661177E-05    2     1000006       -24   # BR(~b_2 -> ~t_1    W-)
     1.85797005E-04    2     2000006       -24   # BR(~b_2 -> ~t_2    W-)
#
#         PDG            Width
DECAY   1000002     4.10128161E+01   # sup_L decays
#          BR         NDA      ID1       ID2
     1.30840597E-02    2     1000022         2   # BR(~u_L -> ~chi_10 u)
     1.54467482E-02    2     1000023         2   # BR(~u_L -> ~chi_20 u)
     3.26947951E-04    2     1000025         2   # BR(~u_L -> ~chi_30 u)
     3.12378091E-01    2     1000035         2   # BR(~u_L -> ~chi_40 u)
     5.25875292E-02    2     1000024         1   # BR(~u_L -> ~chi_1+ d)
     6.06176624E-01    2     1000037         1   # BR(~u_L -> ~chi_2+ d)
#
#         PDG            Width
DECAY   2000002     5.11423189E+00   # sup_R decays
#          BR         NDA      ID1       ID2
     8.75590309E-01    2     1000022         2   # BR(~u_R -> ~chi_10 u)
     2.21711511E-02    2     1000023         2   # BR(~u_R -> ~chi_20 u)
     1.01971344E-01    2     1000025         2   # BR(~u_R -> ~chi_30 u)
     2.67195924E-04    2     1000035         2   # BR(~u_R -> ~chi_40 u)
#
#         PDG            Width
DECAY   1000001     4.09608941E+01   # sdown_L decays
#          BR         NDA      ID1       ID2
     8.38428090E-03    2     1000022         1   # BR(~d_L -> ~chi_10 d)
     8.37705222E-03    2     1000023         1   # BR(~d_L -> ~chi_20 d)
     7.85032743E-03    2     1000025         1   # BR(~d_L -> ~chi_30 d)
     3.16990670E-01    2     1000035         1   # BR(~d_L -> ~chi_40 d)
     6.13517387E-03    2    -1000024         2   # BR(~d_L -> ~chi_1- u)
     6.52262495E-01    2    -1000037         2   # BR(~d_L -> ~chi_2- u)
#
#         PDG            Width
DECAY   2000001     1.64031130E+00   # sdown_R decays
#          BR         NDA      ID1       ID2
     8.75197070E-01    2     1000022         1   # BR(~d_R -> ~chi_10 d)
     2.22198514E-02    2     1000023         1   # BR(~d_R -> ~chi_20 d)
     1.02306254E-01    2     1000025         1   # BR(~d_R -> ~chi_30 d)
     2.76825069E-04    2     1000035         1   # BR(~d_R -> ~chi_40 d)
#
#         PDG            Width
DECAY   1000004     4.19173554E+01   # scharm_L decays
#          BR         NDA      ID1       ID2
     1.31084801E-02    2     1000022         4   # BR(~c_L -> ~chi_10 c)
     1.54686691E-02    2     1000023         4   # BR(~c_L -> ~chi_20 c)
     3.27374014E-04    2     1000025         4   # BR(~c_L -> ~chi_30 c)
     3.12336992E-01    2     1000035         4   # BR(~c_L -> ~chi_40 c)
     5.26621130E-02    2     1000024         3   # BR(~c_L -> ~chi_1+ s)
     6.06096371E-01    2     1000037         3   # BR(~c_L -> ~chi_2+ s)
#
#         PDG            Width
DECAY   2000004     5.07801391E+00   # scharm_R decays
#          BR         NDA      ID1       ID2
     8.75662556E-01    2     1000022         4   # BR(~c_R -> ~chi_10 c)
     2.21608444E-02    2     1000023         4   # BR(~c_R -> ~chi_20 c)
     1.01909978E-01    2     1000025         4   # BR(~c_R -> ~chi_30 c)
     2.66622385E-04    2     1000035         4   # BR(~c_R -> ~chi_40 c)
#
#         PDG            Width
DECAY   1000003     4.18617599E+01   # sstrange_L decays
#          BR         NDA      ID1       ID2
     8.40061776E-03    2     1000022         3   # BR(~s_L -> ~chi_10 s)
     8.38962793E-03    2     1000023         3   # BR(~s_L -> ~chi_20 s)
     7.86120197E-03    2     1000025         3   # BR(~s_L -> ~chi_30 s)
     3.16974959E-01    2     1000035         3   # BR(~s_L -> ~chi_40 s)
     6.14437513E-03    2    -1000024         4   # BR(~s_L -> ~chi_1- c)
     6.52229218E-01    2    -1000037         4   # BR(~s_L -> ~chi_2- c)
#
#         PDG            Width
DECAY   2000003     1.65363388E+00   # sstrange_R decays
#          BR         NDA      ID1       ID2
     8.75261628E-01    2     1000022         3   # BR(~s_R -> ~chi_10 s)
     2.22107000E-02    2     1000023         3   # BR(~s_R -> ~chi_20 s)
     1.02251406E-01    2     1000025         3   # BR(~s_R -> ~chi_30 s)
     2.76266432E-04    2     1000035         3   # BR(~s_R -> ~chi_40 s)
#
#         PDG            Width
DECAY   1000011     3.79432918E+01   # selectron_L decays
#          BR         NDA      ID1       ID2
     9.49808593E-02    2     1000022        11   # BR(~e_L -> ~chi_10 e-)
     2.28215264E-02    2     1000023        11   # BR(~e_L -> ~chi_20 e-)
     2.53460494E-03    2     1000025        11   # BR(~e_L -> ~chi_30 e-)
     2.80780888E-01    2     1000035        11   # BR(~e_L -> ~chi_40 e-)
     5.66391935E-03    2    -1000024        12   # BR(~e_L -> ~chi_1- nu_e)
     5.93218202E-01    2    -1000037        12   # BR(~e_L -> ~chi_2- nu_e)
#
#         PDG            Width
DECAY   2000011     1.05677371E+01   # selectron_R decays
#          BR         NDA      ID1       ID2
     8.75826921E-01    2     1000022        11   # BR(~e_R -> ~chi_10 e-)
     2.21403912E-02    2     1000023        11   # BR(~e_R -> ~chi_20 e-)
     1.01769974E-01    2     1000025        11   # BR(~e_R -> ~chi_30 e-)
     2.62713426E-04    2     1000035        11   # BR(~e_R -> ~chi_40 e-)
#
#         PDG            Width
DECAY   1000013     3.79432917E+01   # smuon_L decays
#          BR         NDA      ID1       ID2
     9.49808592E-02    2     1000022        13   # BR(~mu_L -> ~chi_10 mu-)
     2.28215263E-02    2     1000023        13   # BR(~mu_L -> ~chi_20 mu-)
     2.53460494E-03    2     1000025        13   # BR(~mu_L -> ~chi_30 mu-)
     2.80780888E-01    2     1000035        13   # BR(~mu_L -> ~chi_40 mu-)
     5.66391936E-03    2    -1000024        14   # BR(~mu_L -> ~chi_1- nu_mu)
     5.93218203E-01    2    -1000037        14   # BR(~mu_L -> ~chi_2- nu_mu)
#
#         PDG            Width
DECAY   2000013     1.05677370E+01   # smuon_R decays
#          BR         NDA      ID1       ID2
     8.75826921E-01    2     1000022        13   # BR(~mu_R -> ~chi_10 mu-)
     2.21403912E-02    2     1000023        13   # BR(~mu_R -> ~chi_20 mu-)
     1.01769974E-01    2     1000025        13   # BR(~mu_R -> ~chi_30 mu-)
     2.62713426E-04    2     1000035        13   # BR(~mu_R -> ~chi_40 mu-)
#
#         PDG            Width
DECAY   1000015     1.55649263E+01   # stau_1 decays
#          BR         NDA      ID1       ID2
     1.16579292E-01    2     1000022        15   # BR(~tau_1 -> ~chi_10  tau-)
     1.15801120E-01    2     1000023        15   # BR(~tau_1 -> ~chi_20  tau-)
     7.73354355E-02    2     1000025        15   # BR(~tau_1 -> ~chi_30  tau-)
     2.20455120E-01    2     1000035        15   # BR(~tau_1 -> ~chi_40  tau-)
     5.65309687E-03    2    -1000024        16   # BR(~tau_1 -> ~chi_1-  nu_tau)
     4.64175936E-01    2    -1000037        16   # BR(~tau_1 -> ~chi_2-  nu_tau)
#
#         PDG            Width
DECAY   2000015     3.60718053E+01   # stau_2 decays
#          BR         NDA      ID1       ID2
     4.73418823E-01    2     1000022        15   # BR(~tau_2 -> ~chi_10  tau-)
     1.30996407E-01    2     1000023        15   # BR(~tau_2 -> ~chi_20  tau-)
     1.49296672E-01    2     1000025        15   # BR(~tau_2 -> ~chi_30  tau-)
     1.24616685E-03    2     1000035        15   # BR(~tau_2 -> ~chi_40  tau-)
     2.41884350E-01    2    -1000024        16   # BR(~tau_2 -> ~chi_1-  nu_tau)
     2.22057995E-03    2    -1000037        16   # BR(~tau_2 -> ~chi_2-  nu_tau)
     4.60781090E-04    2     1000016       -24   # BR(~tau_2 -> ~nu_tauL W-)
     2.40298564E-04    2     1000015        25   # BR(~tau_2 -> ~tau_1   h)
     2.35921425E-04    2     1000015        23   # BR(~tau_2 -> ~tau_1   Z)
#
#         PDG            Width
DECAY   1000012     3.79715664E+01   # snu_eL decays
#          BR         NDA      ID1       ID2
     8.17902355E-02    2     1000022        12   # BR(~nu_eL -> ~chi_10 nu_e)
     3.17452727E-03    2     1000023        12   # BR(~nu_eL -> ~chi_20 nu_e)
     2.33293276E-02    2     1000025        12   # BR(~nu_eL -> ~chi_30 nu_e)
     2.91726756E-01    2     1000035        12   # BR(~nu_eL -> ~chi_40 nu_e)
     4.85597616E-02    2     1000024        11   # BR(~nu_eL -> ~chi_1+ e-)
     5.51419392E-01    2     1000037        11   # BR(~nu_eL -> ~chi_2+ e-)
#
#         PDG            Width
DECAY   1000014     3.79715664E+01   # snu_muL decays
#          BR         NDA      ID1       ID2
     8.17902356E-02    2     1000022        14   # BR(~nu_muL -> ~chi_10 nu_mu)
     3.17452728E-03    2     1000023        14   # BR(~nu_muL -> ~chi_20 nu_mu)
     2.33293276E-02    2     1000025        14   # BR(~nu_muL -> ~chi_30 nu_mu)
     2.91726756E-01    2     1000035        14   # BR(~nu_muL -> ~chi_40 nu_mu)
     4.85597615E-02    2     1000024        13   # BR(~nu_muL -> ~chi_1+ mu-)
     5.51419392E-01    2     1000037        13   # BR(~nu_muL -> ~chi_2+ mu-)
#
#         PDG            Width
DECAY   1000016     1.56179112E+01   # snu_tauL decays
#          BR         NDA      ID1       ID2
     8.18348824E-02    2     1000022        16   # BR(~nu_tauL -> ~chi_10 nu_tau)
     3.11954274E-03    2     1000023        16   # BR(~nu_tauL -> ~chi_20 nu_tau)
     2.27574019E-02    2     1000025        16   # BR(~nu_tauL -> ~chi_30 nu_tau)
     2.26972209E-01    2     1000035        16   # BR(~nu_tauL -> ~chi_40 nu_tau)
     2.35087975E-01    2     1000024        15   # BR(~nu_tauL -> ~chi_1+ tau-)
     4.30227989E-01    2     1000037        15   # BR(~nu_tauL -> ~chi_2+ tau-)
#
#         PDG            Width
DECAY   1000024     1.36727013E-03   # chargino1+ decays
#           BR         NDA      ID1       ID2       ID3
     3.33384746E-01    3     1000022         2        -1   # BR(~chi_1+ -> ~chi_10 u    db)
     1.78463701E-13    3     1000023         2        -1   # BR(~chi_1+ -> ~chi_20 u    db)
     3.33384746E-01    3     1000022         4        -3   # BR(~chi_1+ -> ~chi_10 c    sb)
     1.11126265E-01    3     1000022       -11        12   # BR(~chi_1+ -> ~chi_10 e+   nu_e)
     5.94879806E-14    3     1000023       -11        12   # BR(~chi_1+ -> ~chi_20 e+   nu_e)
     1.11126265E-01    3     1000022       -13        14   # BR(~chi_1+ -> ~chi_10 mu+  nu_mu)
     5.94879806E-14    3     1000023       -13        14   # BR(~chi_1+ -> ~chi_20 mu+  nu_mu)
     1.10977977E-01    3     1000022       -15        16   # BR(~chi_1+ -> ~chi_10 tau+ nu_tau)
#
#         PDG            Width
DECAY   1000037     3.28025226E+00   # chargino2+ decays
#          BR         NDA      ID1       ID2
     2.59270102E-01    2     1000024        23   # BR(~chi_2+ -> ~chi_1+  Z )
     2.99887598E-02    2     1000022        24   # BR(~chi_2+ -> ~chi_10  W+)
     2.67588380E-01    2     1000023        24   # BR(~chi_2+ -> ~chi_20  W+)
     2.30833120E-01    2     1000025        24   # BR(~chi_2+ -> ~chi_30  W+)
     2.12319638E-01    2     1000024        25   # BR(~chi_2+ -> ~chi_1+  h )
#
#         PDG            Width
DECAY   1000022     0.00000000E+00   # neutralino1 decays
#
#         PDG            Width
DECAY   1000023     2.38270879E-04   # neutralino2 decays
#          BR         NDA      ID1       ID2
     5.21931586E-04    2     1000022        22   # BR(~chi_20 -> ~chi_10 gam)
#           BR         NDA      ID1       ID2       ID3
     1.17476386E-01    3     1000022        -2         2   # BR(~chi_20 -> ~chi_10 ub      u)
     1.52259926E-01    3     1000022        -1         1   # BR(~chi_20 -> ~chi_10 db      d)
     1.17476386E-01    3     1000022        -4         4   # BR(~chi_20 -> ~chi_10 cb      c)
     1.52259926E-01    3     1000022        -3         3   # BR(~chi_20 -> ~chi_10 sb      s)
     1.46746835E-01    3     1000022        -5         5   # BR(~chi_20 -> ~chi_10 bb      b)
     3.48127154E-02    3     1000022       -11        11   # BR(~chi_20 -> ~chi_10 e+      e-)
     3.48127154E-02    3     1000022       -13        13   # BR(~chi_20 -> ~chi_10 mu+     mu-)
     3.46498553E-02    3     1000022       -15        15   # BR(~chi_20 -> ~chi_10 tau+    tau-)
     6.96799286E-02    3     1000022       -12        12   # BR(~chi_20 -> ~chi_10 nu_eb   nu_e)
     6.96799286E-02    3     1000022       -14        14   # BR(~chi_20 -> ~chi_10 nu_mub  nu_mu)
     6.96234669E-02    3     1000022       -16        16   # BR(~chi_20 -> ~chi_10 nu_taub nu_tau)
#
#         PDG            Width
DECAY   1000025     9.32112294E-03   # neutralino3 decays
#          BR         NDA      ID1       ID2
     1.00000000E+00    2     1000022        23   # BR(~chi_30 -> ~chi_10   Z )
#
#         PDG            Width
DECAY   1000035     3.27827003E+00   # neutralino4 decays
#          BR         NDA      ID1       ID2
     1.88592920E-02    2     1000022        23   # BR(~chi_40 -> ~chi_10   Z )
     5.33201272E-02    2     1000023        23   # BR(~chi_40 -> ~chi_20   Z )
     1.76501563E-01    2     1000025        23   # BR(~chi_40 -> ~chi_30   Z )
     2.74865857E-01    2     1000024       -24   # BR(~chi_40 -> ~chi_1+   W-)
     2.74865857E-01    2    -1000024        24   # BR(~chi_40 -> ~chi_1-   W+)
     8.24351146E-03    2     1000022        25   # BR(~chi_40 -> ~chi_10   h )
     1.64768113E-01    2     1000023        25   # BR(~chi_40 -> ~chi_20   h )
     2.85756796E-02    2     1000025        25   # BR(~chi_40 -> ~chi_30   h )
#
#         PDG            Width
DECAY        25     4.30363198E-03   # h decays
#          BR         NDA      ID1       ID2
     5.58247425E-01    2           5        -5   # BR(h -> b       bb     )
     6.10616396E-02    2         -15        15   # BR(h -> tau+    tau-   )
     2.16135598E-04    2         -13        13   # BR(h -> mu+     mu-    )
     2.35436386E-04    2           3        -3   # BR(h -> s       sb     )
     2.03311139E-02    2           4        -4   # BR(h -> c       cb     )
     7.64696677E-02    2          21        21   # BR(h -> g       g      )
     2.30761241E-03    2          22        22   # BR(h -> gam     gam    )
     1.63797279E-03    2          22        23   # BR(h -> Z       gam    )
     2.27197107E-01    2          24       -24   # BR(h -> W+      W-     )
     2.89011481E-02    2          23        23   # BR(h -> Z       Z      )
     2.33947414E-02    2     1000022   1000022   # BR(h -> ~chi_10 ~chi_10)
#
#         PDG            Width
DECAY        35     9.91986759E+01   # H decays
#          BR         NDA      ID1       ID2
     4.46744910E-01    2           5        -5   # BR(H -> b       bb     )
     8.35275711E-02    2         -15        15   # BR(H -> tau+    tau-   )
     2.98698716E-04    2         -13        13   # BR(H -> mu+     mu-    )
     1.89791044E-04    2           3        -3   # BR(H -> s       sb     )
     1.18283190E-08    2           4        -4   # BR(H -> c       cb     )
     1.16542656E-03    2           6        -6   # BR(H -> t       tb     )
     6.27705474E-06    2          21        21   # BR(H -> g       g      )
     1.29841730E-08    2          22        22   # BR(H -> gam     gam    )
     3.05244407E-09    2          23        22   # BR(H -> Z       gam    )
     5.67803194E-07    2          24       -24   # BR(H -> W+      W-     )
     2.83359902E-07    2          23        23   # BR(H -> Z       Z      )
     1.80016552E-06    2          25        25   # BR(H -> h       h      )
     2.19171633E-02    2     1000024  -1000024   # BR(H -> ~chi_1+ ~chi_1-)
     1.82403236E-03    2     1000037  -1000037   # BR(H -> ~chi_2+ ~chi_2-)
     1.29644302E-01    2     1000024  -1000037   # BR(H -> ~chi_1+ ~chi_2-)
     1.29644302E-01    2     1000037  -1000024   # BR(H -> ~chi_2+ ~chi_1-)
     7.50939368E-03    2     1000022   1000022   # BR(H -> ~chi_10 ~chi_10)
     1.49393426E-03    2     1000023   1000023   # BR(H -> ~chi_20 ~chi_20)
     8.49935276E-03    2     1000025   1000025   # BR(H -> ~chi_30 ~chi_30)
     9.64322527E-04    2     1000035   1000035   # BR(H -> ~chi_40 ~chi_40)
     1.92360599E-02    2     1000022   1000023   # BR(H -> ~chi_10 ~chi_20)
     7.41227690E-03    2     1000022   1000025   # BR(H -> ~chi_10 ~chi_30)
     1.26967647E-02    2     1000022   1000035   # BR(H -> ~chi_10 ~chi_40)
     1.78799747E-03    2     1000023   1000025   # BR(H -> ~chi_20 ~chi_30)
     6.17447204E-02    2     1000023   1000035   # BR(H -> ~chi_20 ~chi_40)
     6.18452389E-02    2     1000025   1000035   # BR(H -> ~chi_30 ~chi_40)
     3.79381426E-04    2     1000006  -1000006   # BR(H -> ~t_1    ~t_1*  )
     7.32614378E-04    2     1000006  -2000006   # BR(H -> ~t_1    ~t_2*  )
     7.32614378E-04    2     2000006  -1000006   # BR(H -> ~t_2    ~t_1*  )
     1.53535792E-08    2     1000015  -1000015   # BR(H -> ~tau_1- ~tau_1+)
     1.60337736E-07    2     1000016  -1000016   # BR(H -> ~nu_tauL ~nu_tauL*)
#
#         PDG            Width
DECAY        36     9.92104602E+01   # A decays
#          BR         NDA      ID1       ID2
     4.46703566E-01    2           5        -5   # BR(A -> b       bb     )
     8.35177333E-02    2         -15        15   # BR(A -> tau+    tau-   )
     2.98663210E-04    2         -13        13   # BR(A -> mu+     mu-    )
     1.89779813E-04    2           3        -3   # BR(A -> s       sb     )
     1.18827165E-08    2           4        -4   # BR(A -> c       cb     )
     1.16762020E-03    2           6        -6   # BR(A -> t       tb     )
     1.39271674E-05    2          21        21   # BR(A -> g       g      )
     5.07385442E-08    2          22        22   # BR(A -> gam     gam    )
     1.08689221E-08    2          23        22   # BR(A -> Z       gam    )
     5.75626250E-07    2          23        25   # BR(A -> Z       h      )
     2.29209400E-02    2     1000024  -1000024   # BR(A -> ~chi_1+ ~chi_1-)
     2.79428027E-03    2     1000037  -1000037   # BR(A -> ~chi_2+ ~chi_2-)
     1.28640370E-01    2     1000024  -1000037   # BR(A -> ~chi_1+ ~chi_2-)
     1.28640370E-01    2     1000037  -1000024   # BR(A -> ~chi_2+ ~chi_1-)
     7.18164544E-03    2     1000022   1000022   # BR(A -> ~chi_10 ~chi_10)
     1.68166051E-03    2     1000023   1000023   # BR(A -> ~chi_20 ~chi_20)
     7.53146250E-03    2     1000025   1000025   # BR(A -> ~chi_30 ~chi_30)
     1.45748913E-03    2     1000035   1000035   # BR(A -> ~chi_40 ~chi_40)
     2.11372132E-02    2     1000022   1000023   # BR(A -> ~chi_10 ~chi_20)
     6.31721547E-03    2     1000022   1000025   # BR(A -> ~chi_10 ~chi_30)
     1.15129222E-02    2     1000022   1000035   # BR(A -> ~chi_10 ~chi_40)
     2.27405056E-03    2     1000023   1000025   # BR(A -> ~chi_20 ~chi_30)
     7.04016555E-02    2     1000023   1000035   # BR(A -> ~chi_20 ~chi_40)
     5.36718134E-02    2     1000025   1000035   # BR(A -> ~chi_30 ~chi_40)
     9.72486551E-04    2     1000006  -2000006   # BR(A -> ~t_1    ~t_2*  )
     9.72486551E-04    2    -1000006   2000006   # BR(A -> ~t_1*   ~t_2   )
#
#         PDG            Width
DECAY        37     9.89601916E+01   # H+ decays
#          BR         NDA      ID1       ID2
     7.48253308E-04    2           4        -5   # BR(H+ -> c       bb     )
     8.37588659E-02    2         -15        16   # BR(H+ -> tau+    nu_tau )
     2.99525511E-04    2         -13        14   # BR(H+ -> mu+     nu_mu  )
     7.48252613E-06    2           2        -5   # BR(H+ -> u       bb     )
     9.52108252E-06    2           2        -3   # BR(H+ -> u       sb     )
     1.87415243E-04    2           4        -3   # BR(H+ -> c       sb     )
     4.45822958E-01    2           6        -5   # BR(H+ -> t       bb     )
     5.77977602E-07    2          24        25   # BR(H+ -> W+      h      )
     3.68423368E-14    2          24        36   # BR(H+ -> W+      A      )
     4.63740886E-02    2     1000024   1000022   # BR(H+ -> ~chi_1+ ~chi_10)
     4.22027436E-03    2     1000024   1000023   # BR(H+ -> ~chi_1+ ~chi_20)
     1.91691807E-05    2     1000024   1000025   # BR(H+ -> ~chi_1+ ~chi_30)
     1.34251467E-01    2     1000024   1000035   # BR(H+ -> ~chi_1+ ~chi_40)
     2.42648322E-02    2     1000037   1000022   # BR(H+ -> ~chi_2+ ~chi_10)
     1.44672983E-01    2     1000037   1000023   # BR(H+ -> ~chi_2+ ~chi_20)
     1.13276027E-01    2     1000037   1000025   # BR(H+ -> ~chi_2+ ~chi_30)
     6.51669052E-07    2     1000037   1000035   # BR(H+ -> ~chi_2+ ~chi_40)
     1.37337310E-07    2    -1000015   1000016   # BR(H+ -> ~tau_1+ ~nu_tauL)
     2.08576975E-03    2     1000006  -1000005   # BR(H+ -> ~t_1    ~b_1*  )
