#
#                              ======================
#                              | THE SUSYHIT OUTPUT |
#                              ======================
#
#
#              ------------------------------------------------------
#              |     This is the output of the SUSY-HIT package     |
#              |  created by A.Djouadi, M.Muehlleitner and M.Spira. |
#              |  In case of problems with SUSY-HIT email to        |
#              |           margarete.muehlleitner@cern.ch           |
#              |           michael.spira@psi.ch                     |
#              |           abdelhak.djouadi@cern.ch                 |
#              ------------------------------------------------------
#
#              ------------------------------------------------------
#              |  SUSY Les Houches Accord - MSSM Spectrum + Decays  |
#              |              based on the decay programs           |
#              |                                                    |
#              |                     SDECAY 1.3b                    |
#              |                                                    |
#              |  Authors: M.Muhlleitner, A.Djouadi and Y.Mambrini  |
#              |  Ref.:    Comput.Phys.Commun.168(2005)46           |
#              |           [hep-ph/0311167]                         |
#              |                                                    |
#              |                     HDECAY 3.4                     |
#              |                                                    |
#              |  By: A.Djouadi,J.Kalinowski,M.Muhlleitner,M.Spira  |
#              |  Ref.:    Comput.Phys.Commun.108(1998)56           |
#              |           [hep-ph/9704448]                         |
#              |                                                    |
#              |                                                    |
#              |  If not stated otherwise all DRbar couplings and   |
#              |  soft SUSY breaking masses are given at the scale  |
#              |  Q=  0.35857840E+04
#              |                                                    |
#              ------------------------------------------------------
#
#
BLOCK DCINFO  # Decay Program information
     1   SDECAY/HDECAY # decay calculator
     2   1.3b  /3.4    # version number
#
BLOCK SPINFO  # Spectrum calculator information
     1     SOFTSUSY    # spectrum calculator               
     2     3.4.0       # version number                    
#
BLOCK MODSEL  # Model selection
     1     0   #  nonUniversal                                     
#
BLOCK SMINPUTS  # Standard Model inputs
         1     1.27908970E+02   # alpha_em^-1(M_Z)^MSbar
         2     1.16637870E-05   # G_F [GeV^-2]
         3     1.18400000E-01   # alpha_S(M_Z)^MSbar
         4     9.11876000E+01   # M_Z pole mass
         5     4.18000000E+00   # mb(mb)^MSbar
         6     1.73200000E+02   # mt pole mass
         7     1.77700000E+00   # mtau pole mass
#
BLOCK MINPAR  # Input parameters - minimal models
         3     2.45600000E+01   # tanb                
#
BLOCK EXTPAR  # Input parameters - non-minimal models
         0    -1.00000000E+00   # Set                 
         1     6.57800000E+01   # M_1(MX)             
         2    -3.97775000E+03   # M_2(MX)             
         3     8.33360000E+02   # M_3(MX)             
        11     2.88939000E+03   # At(MX)              
        12     3.81700000E+01   # Ab(MX)              
        13    -1.73755000E+03   # Atau(MX)            
        23     1.29020000E+02   # mu(MX)              
        26     3.96961000E+03   # mA(pole)            
        31     3.98418000E+03   # meL(MX)             
        32     3.98418000E+03   # mmuL(MX)            
        33     1.09218000E+03   # mtauL(MX)           
        34     1.81445000E+03   # meR(MX)             
        35     1.81445000E+03   # mmuR(MX)            
        36     1.03280000E+03   # mtauR(MX)           
        41     2.66222000E+03   # mqL1(MX)            
        42     2.66222000E+03   # mqL2(MX)            
        43     3.48124000E+03   # mqL3(MX)            
        44     2.88887000E+03   # muR(MX)             
        45     2.88887000E+03   # mcR(MX)             
        46     3.69017000E+03   # mtR(MX)             
        47     3.11560000E+03   # mdR(MX)             
        48     3.11560000E+03   # msR(MX)             
        49     1.25644000E+03   # mbR(MX)             
#
BLOCK MASS  # Mass Spectrum
# PDG code           mass       particle
        24     8.04005336E+01   # W+
        25     1.24141344E+02   # h
        35     3.96961930E+03   # H
        36     3.96960977E+03   # A
        37     3.97084355E+03   # H+
         5     4.81876030E+00   # b-quark pole mass calculated from mb(mb)_Msbar
   1000001     2.72811819E+03   # ~d_L
   2000001     3.15046363E+03   # ~d_R
   1000002     2.72708996E+03   # ~u_L
   2000002     2.91896823E+03   # ~u_R
   1000003     2.72811819E+03   # ~s_L
   2000003     3.15046363E+03   # ~s_R
   1000004     2.72708996E+03   # ~c_L
   2000004     2.91896823E+03   # ~c_R
   1000005     1.29060541E+03   # ~b_1
   2000005     3.51132084E+03   # ~b_2
   1000006     3.49432973E+03   # ~t_1
   2000006     3.67876560E+03   # ~t_2
   1000011     4.01032961E+03   # ~e_L
   2000011     1.82354307E+03   # ~e_R
   1000012     4.00921094E+03   # ~nu_eL
   1000013     4.01032961E+03   # ~mu_L
   2000013     1.82354307E+03   # ~mu_R
   1000014     4.00921094E+03   # ~nu_muL
   1000015     1.03875264E+03   # ~tau_1
   2000015     1.13698997E+03   # ~tau_2
   1000016     1.13377973E+03   # ~nu_tauL
   1000021     1.02765338E+03   # ~g
   1000022     5.63919994E+01   # ~chi_10
   1000023    -1.40881500E+02   # ~chi_20
   1000025     1.50832743E+02   # ~chi_30
   1000035    -3.94906082E+03   # ~chi_40
   1000024     1.37583591E+02   # ~chi_1+
   1000037     3.94922672E+03   # ~chi_2+
#
BLOCK NMIX  # Neutralino Mixing Matrix
  1  1     9.19628843E-01   # N_11
  1  2     3.44596587E-03   # N_12
  1  3     3.58757053E-01   # N_13
  1  4    -1.59888380E-01   # N_14
  2  1    -1.45620985E-01   # N_21
  2  2    -1.39073392E-02   # N_22
  2  3     6.89539930E-01   # N_23
  2  4     7.09320660E-01   # N_24
  3  1    -3.64797557E-01   # N_31
  3  2     1.35509317E-02   # N_32
  3  3     6.29148656E-01   # N_33
  3  4    -6.86229614E-01   # N_34
  4  1    -2.50912030E-04   # N_41
  4  2     9.99805523E-01   # N_42
  4  3    -1.72182857E-04   # N_43
  4  4     1.97186184E-02   # N_44
#
BLOCK UMIX  # Chargino Mixing Matrix U
  1  1     2.46732931E-04   # U_11
  1  2     9.99999970E-01   # U_12
  2  1    -9.99999970E-01   # U_21
  2  2     2.46732931E-04   # U_22
#
BLOCK VMIX  # Chargino Mixing Matrix V
  1  1     2.78422831E-02   # V_11
  1  2     9.99612328E-01   # V_12
  2  1     9.99612328E-01   # V_21
  2  2    -2.78422831E-02   # V_22
#
BLOCK STOPMIX  # Stop Mixing Matrix
  1  1     9.46734165E-01   # cos(theta_t)
  1  2    -3.22016181E-01   # sin(theta_t)
  2  1     3.22016181E-01   # -sin(theta_t)
  2  2     9.46734165E-01   # cos(theta_t)
#
BLOCK SBOTMIX  # Sbottom Mixing Matrix
  1  1     6.65769363E-04   # cos(theta_b)
  1  2     9.99999778E-01   # sin(theta_b)
  2  1    -9.99999778E-01   # -sin(theta_b)
  2  2     6.65769363E-04   # cos(theta_b)
#
BLOCK STAUMIX  # Stau Mixing Matrix
  1  1     3.95686343E-02   # cos(theta_tau)
  1  2     9.99216855E-01   # sin(theta_tau)
  2  1    -9.99216855E-01   # -sin(theta_tau)
  2  2     3.95686343E-02   # cos(theta_tau)
#
BLOCK ALPHA  # Higgs mixing
          -4.25310552E-02   # Mixing angle in the neutral Higgs boson sector
#
BLOCK HMIX Q=  3.58578400E+03  # DRbar Higgs Parameters
         1     1.31458941E+02   # mu(Q)MSSM           
         2     2.35330976E+01   # tan                 
         3     2.42566668E+02   # higgs               
         4     1.55501144E+07   # mA^2(Q)MSSM         
#
BLOCK GAUGE Q=  3.58578400E+03  # The gauge couplings
     1     3.66069342E-01   # gprime(Q) DRbar
     2     6.37753566E-01   # g(Q) DRbar
     3     1.02497814E+00   # g3(Q) DRbar
#
BLOCK AU Q=  3.58578400E+03  # The trilinear couplings
  1  1     0.00000000E+00   # A_u(Q) DRbar
  2  2     0.00000000E+00   # A_c(Q) DRbar
  3  3     2.88939001E+03   # A_t(Q) DRbar
#
BLOCK AD Q=  3.58578400E+03  # The trilinear couplings
  1  1     0.00000000E+00   # A_d(Q) DRbar
  2  2     0.00000000E+00   # A_s(Q) DRbar
  3  3     3.81700019E+01   # A_b(Q) DRbar
#
BLOCK AE Q=  3.58578400E+03  # The trilinear couplings
  1  1     0.00000000E+00   # A_e(Q) DRbar
  2  2     0.00000000E+00   # A_mu(Q) DRbar
  3  3    -1.73755000E+03   # A_tau(Q) DRbar
#
BLOCK Yu Q=  3.58578400E+03  # The Yukawa couplings
  1  1     0.00000000E+00   # y_u(Q) DRbar
  2  2     0.00000000E+00   # y_c(Q) DRbar
  3  3     8.23229206E-01   # y_t(Q) DRbar
#
BLOCK Yd Q=  3.58578400E+03  # The Yukawa couplings
  1  1     0.00000000E+00   # y_d(Q) DRbar
  2  2     0.00000000E+00   # y_s(Q) DRbar
  3  3     3.09779498E-01   # y_b(Q) DRbar
#
BLOCK Ye Q=  3.58578400E+03  # The Yukawa couplings
  1  1     0.00000000E+00   # y_e(Q) DRbar
  2  2     0.00000000E+00   # y_mu(Q) DRbar
  3  3     2.38890595E-01   # y_tau(Q) DRbar
#
BLOCK MSOFT Q=  3.58578400E+03  # The soft SUSY breaking masses at the scale Q
         1     6.57800000E+01   # M_1(Q)              
         2    -3.97775000E+03   # M_2(Q)              
         3     8.33360000E+02   # M_3(Q)              
        21     1.56085547E+07   # mH1^2(Q)            
        22     2.27622803E+05   # mH2^2(Q)            
        31     3.98418000E+03   # meL(Q)              
        32     3.98418000E+03   # mmuL(Q)             
        33     1.09218000E+03   # mtauL(Q)            
        34     1.81445000E+03   # meR(Q)              
        35     1.81445000E+03   # mmuR(Q)             
        36     1.03280000E+03   # mtauR(Q)            
        41     2.66222000E+03   # mqL1(Q)             
        42     2.66222000E+03   # mqL2(Q)             
        43     3.48124000E+03   # mqL3(Q)             
        44     2.88887000E+03   # muR(Q)              
        45     2.88887000E+03   # mcR(Q)              
        46     3.69017000E+03   # mtR(Q)              
        47     3.11560000E+03   # mdR(Q)              
        48     3.11560000E+03   # msR(Q)              
        49     1.25644000E+03   # mbR(Q)              
#
Block HiggsBoundsInputHiggsCouplingsFermions
# ScalarNormEffCoupSq PseudoSNormEffCoupSq NP   IP1 IP2 IP2
    1.00297965E+00    0.00000000E+00        3  25   5   5  # h0-b-b eff. coupling^2, normalised to SM
    5.53803703E+02    0.00000000E+00        3  35   5   5  # H0-b-b eff. coupling^2, normalised to SM
    0.00000000E+00    5.53806683E+02        3  36   5   5  # A0-b-b eff. coupling^2, normalised to SM
#
    9.99994620E-01    0.00000000E+00        3  25   6   6  # h0-t-t eff. coupling^2, normalised to SM
    1.81106454E-03    0.00000000E+00        3  35   6   6  # H0-t-t eff. coupling^2, normalised to SM
    0.00000000E+00    1.80568424E-03        3  36   6   6  # A0-t-t eff. coupling^2, normalised to SM
#
    1.00297965E+00    0.00000000E+00        3  25  15  15  # h0-tau-tau eff. coupling^2, normalised to SM
    5.53803703E+02    0.00000000E+00        3  35  15  15  # H0-tau-tau eff. coupling^2, normalised to SM
    0.00000000E+00    5.53806683E+02        3  36  15  15  # A0-tau-tau eff. coupling^2, normalised to SM
#
Block HiggsBoundsInputHiggsCouplingsBosons
    9.99999996E-01        3  25  24  24  # h0-W-W eff. coupling^2, normalised to SM
    4.00189634E-09        3  35  24  24  # H0-W-W eff. coupling^2, normalised to SM
    0.00000000E+00        3  36  24  24  # A0-W-W eff. coupling^2, normalised to SM
#
    9.99999996E-01        3  25  23  23  # h0-Z-Z eff. coupling^2, normalised to SM
    4.00189634E-09        3  35  23  23  # H0-Z-Z eff. coupling^2, normalised to SM
    0.00000000E+00        3  36  23  23  # A0-Z-Z eff. coupling^2, normalised to SM
#
    8.91295855E-01        3  25  21  21  # h0-g-g eff. coupling^2, normalised to SM
    1.85743601E-15        3  35  21  21  # H0-g-g eff. coupling^2, normalised to SM
    1.17514864E-13        3  36  21  21  # A0-g-g eff. coupling^2, normalised to SM
#
    0.00000000E+00        3  25  25  23  # h0-h0-Z eff. coupling^2, normalised to SM
    0.00000000E+00        3  35  25  23  # H0-h0-Z eff. coupling^2, normalised to SM
    4.00189634E-09        3  36  25  23  # A0-h0-Z eff. coupling^2, normalised to SM
    0.00000000E+00        3  35  35  23  # H0-H0-Z eff. coupling^2, normalised to SM
    9.99999996E-01        3  36  35  23  # A0-H0-Z eff. coupling^2, normalised to SM
    0.00000000E+00        3  36  36  23  # A0-A0-Z eff. coupling^2, normalised to SM
#
    0.00000000E+00        4  25  21  21  23  # h0-g-g-Z eff. coupling^2, normalised to SM
    0.00000000E+00        4  35  21  21  23  # H0-g-g-Z eff. coupling^2, normalised to SM
    0.00000000E+00        4  36  21  21  23  # A0-g-g-Z eff. coupling^2, normalised to SM
#
#
#
#                             =================
#                             |The decay table|
#                             =================
#
# - The QCD corrections to the decays gluino -> squark  + quark
#                                     squark -> gaugino + quark_prime
#                                     squark -> squark_prime + Higgs
#                                     squark -> gluino  + quark
#   are included.
#
# - The multi-body decays for the inos, stops and sbottoms are included.
#
# - The loop induced decays for the gluino, neutralinos and stops
#   are included.
#
# - The SUSY decays of the top quark are included.
#
#
#         PDG            Width
DECAY         6     1.43196870E+00   # top decays
#          BR         NDA      ID1       ID2
     1.00000000E+00    2           5        24   # BR(t ->  b    W+)
#
#         PDG            Width
DECAY   1000021     2.15921686E-03   # gluino decays
#          BR         NDA      ID1       ID2
     8.69490758E-04    2     1000022        21   # BR(~g -> ~chi_10 g)
     4.13728213E-03    2     1000023        21   # BR(~g -> ~chi_20 g)
     1.48202290E-03    2     1000025        21   # BR(~g -> ~chi_30 g)
#           BR         NDA      ID1       ID2       ID3
     2.53301990E-03    3     1000022         1        -1   # BR(~g -> ~chi_10 d  db)
     3.11013332E-05    3     1000023         1        -1   # BR(~g -> ~chi_20 d  db)
     4.46728638E-04    3     1000025         1        -1   # BR(~g -> ~chi_30 d  db)
     1.05269102E-02    3     1000022         2        -2   # BR(~g -> ~chi_10 u  ub)
     1.82884739E-04    3     1000023         2        -2   # BR(~g -> ~chi_20 u  ub)
     1.56914124E-03    3     1000025         2        -2   # BR(~g -> ~chi_30 u  ub)
     2.53301990E-03    3     1000022         3        -3   # BR(~g -> ~chi_10 s  sb)
     3.11013332E-05    3     1000023         3        -3   # BR(~g -> ~chi_20 s  sb)
     4.46728638E-04    3     1000025         3        -3   # BR(~g -> ~chi_30 s  sb)
     1.05269102E-02    3     1000022         4        -4   # BR(~g -> ~chi_10 c  cb)
     1.82884739E-04    3     1000023         4        -4   # BR(~g -> ~chi_20 c  cb)
     1.56914124E-03    3     1000025         4        -4   # BR(~g -> ~chi_30 c  cb)
     1.66370963E-01    3     1000022         5        -5   # BR(~g -> ~chi_10 b  bb)
     1.90955139E-01    3     1000023         5        -5   # BR(~g -> ~chi_20 b  bb)
     1.73051729E-01    3     1000025         5        -5   # BR(~g -> ~chi_30 b  bb)
     2.42575366E-03    3     1000022         6        -6   # BR(~g -> ~chi_10 t  tb)
     1.93242675E-02    3     1000023         6        -6   # BR(~g -> ~chi_20 t  tb)
     2.30572590E-02    3     1000025         6        -6   # BR(~g -> ~chi_30 t  tb)
     1.65598706E-05    3     1000024         1        -2   # BR(~g -> ~chi_1+ d  ub)
     1.65598706E-05    3    -1000024         2        -1   # BR(~g -> ~chi_1- u  db)
     1.65598706E-05    3     1000024         3        -4   # BR(~g -> ~chi_1+ s  cb)
     1.65598706E-05    3    -1000024         4        -3   # BR(~g -> ~chi_1- c  sb)
     1.93840141E-01    3     1000024         5        -6   # BR(~g -> ~chi_1+ b  tb)
     1.93840141E-01    3    -1000024         6        -5   # BR(~g -> ~chi_1- t  bb)
#
#         PDG            Width
DECAY   1000006     2.18208389E+02   # stop1 decays
#          BR         NDA      ID1       ID2
     4.64715307E-03    2     1000022         6   # BR(~t_1 -> ~chi_10 t )
     1.04111865E-01    2     1000023         6   # BR(~t_1 -> ~chi_20 t )
     1.12680314E-01    2     1000025         6   # BR(~t_1 -> ~chi_30 t )
     5.25436034E-02    2     1000024         5   # BR(~t_1 -> ~chi_1+ b )
     7.25985827E-01    2     1000021         6   # BR(~t_1 -> ~g      t )
     3.12375532E-05    2     1000005        24   # BR(~t_1 -> ~b_1    W+)
#
#         PDG            Width
DECAY   2000006     2.80674598E+02   # stop2 decays
#          BR         NDA      ID1       ID2
     3.29998578E-02    2     1000022         6   # BR(~t_2 -> ~chi_10 t )
     9.19893952E-02    2     1000023         6   # BR(~t_2 -> ~chi_20 t )
     7.72336651E-02    2     1000025         6   # BR(~t_2 -> ~chi_30 t )
     1.58099274E-01    2     1000024         5   # BR(~t_2 -> ~chi_1+ b )
     6.28485588E-01    2     1000021         6   # BR(~t_2 -> ~g      t )
     2.44877052E-03    2     1000006        25   # BR(~t_2 -> ~t_1    h )
     3.27066595E-03    2     1000006        23   # BR(~t_2 -> ~t_1    Z )
     3.43373620E-06    2     1000005        24   # BR(~t_2 -> ~b_1    W+)
     5.46934929E-03    2     2000005        24   # BR(~t_2 -> ~b_2    W+)
#
#         PDG            Width
DECAY   1000005     1.51201204E+01   # sbottom1 decays
#          BR         NDA      ID1       ID2
     6.35353075E-02    2     1000022         5   # BR(~b_1 -> ~chi_10 b )
     7.66603772E-02    2     1000023         5   # BR(~b_1 -> ~chi_20 b )
     6.92907295E-02    2     1000025         5   # BR(~b_1 -> ~chi_30 b )
     1.53441972E-01    2    -1000024         6   # BR(~b_1 -> ~chi_1- t )
     6.37071614E-01    2     1000021         5   # BR(~b_1 -> ~g      b )
#
#         PDG            Width
DECAY   2000005     2.17757068E+02   # sbottom2 decays
#          BR         NDA      ID1       ID2
     5.88911373E-03    2     1000022         5   # BR(~b_2 -> ~chi_10 b )
     1.46052994E-02    2     1000023         5   # BR(~b_2 -> ~chi_20 b )
     1.26008734E-02    2     1000025         5   # BR(~b_2 -> ~chi_30 b )
     2.15515008E-01    2    -1000024         6   # BR(~b_2 -> ~chi_1- t )
     7.51353206E-01    2     1000021         5   # BR(~b_2 -> ~g      b )
     1.81156484E-05    2     1000005        25   # BR(~b_2 -> ~b_1    h )
     1.83839438E-05    2     1000005        23   # BR(~b_2 -> ~b_1    Z )
#
#         PDG            Width
DECAY   1000002     1.43876520E+02   # sup_L decays
#          BR         NDA      ID1       ID2
     2.38545520E-03    2     1000022         2   # BR(~u_L -> ~chi_10 u)
     1.28776418E-04    2     1000023         2   # BR(~u_L -> ~chi_20 u)
     2.33341063E-04    2     1000025         2   # BR(~u_L -> ~chi_30 u)
     1.14462123E-04    2     1000024         1   # BR(~u_L -> ~chi_1+ d)
     9.97137965E-01    2     1000021         2   # BR(~u_L -> ~g      u)
#
#         PDG            Width
DECAY   2000002     1.66776326E+02   # sup_R decays
#          BR         NDA      ID1       ID2
     3.39290197E-02    2     1000022         2   # BR(~u_R -> ~chi_10 u)
     8.47654232E-04    2     1000023         2   # BR(~u_R -> ~chi_20 u)
     5.31608085E-03    2     1000025         2   # BR(~u_R -> ~chi_30 u)
     9.59907245E-01    2     1000021         2   # BR(~u_R -> ~g      u)
#
#         PDG            Width
DECAY   1000001     1.43947925E+02   # sdown_L decays
#          BR         NDA      ID1       ID2
     2.20544220E-03    2     1000022         1   # BR(~d_L -> ~chi_10 d)
     1.43718826E-05    2     1000023         1   # BR(~d_L -> ~chi_20 d)
     5.12324125E-04    2     1000025         1   # BR(~d_L -> ~chi_30 d)
     8.98789254E-09    2    -1000024         2   # BR(~d_L -> ~chi_1- u)
     9.97267853E-01    2     1000021         1   # BR(~d_L -> ~g      d)
#
#         PDG            Width
DECAY   2000001     1.81582365E+02   # sdown_R decays
#          BR         NDA      ID1       ID2
     8.41478601E-03    2     1000022         1   # BR(~d_R -> ~chi_10 d)
     2.10334561E-04    2     1000023         1   # BR(~d_R -> ~chi_20 d)
     1.31923835E-03    2     1000025         1   # BR(~d_R -> ~chi_30 d)
     9.90055641E-01    2     1000021         1   # BR(~d_R -> ~g      d)
#
#         PDG            Width
DECAY   1000004     1.12317834E+02   # scharm_L decays
#          BR         NDA      ID1       ID2
     3.15889219E-03    2     1000022         4   # BR(~c_L -> ~chi_10 c)
     1.70471437E-04    2     1000023         4   # BR(~c_L -> ~chi_20 c)
     3.08880443E-04    2     1000025         4   # BR(~c_L -> ~chi_30 c)
     1.51524457E-04    2     1000024         3   # BR(~c_L -> ~chi_1+ s)
     9.96210231E-01    2     1000021         4   # BR(~c_L -> ~g      c)
#
#         PDG            Width
DECAY   2000004     1.31765885E+02   # scharm_R decays
#          BR         NDA      ID1       ID2
     4.43640839E-02    2     1000022         4   # BR(~c_R -> ~chi_10 c)
     1.10803339E-03    2     1000023         4   # BR(~c_R -> ~chi_20 c)
     6.94883641E-03    2     1000025         4   # BR(~c_R -> ~chi_30 c)
     9.47579046E-01    2     1000021         4   # BR(~c_R -> ~g      c)
#
#         PDG            Width
DECAY   1000003     1.12368930E+02   # sstrange_L decays
#          BR         NDA      ID1       ID2
     2.92062449E-03    2     1000022         3   # BR(~s_L -> ~chi_10 s)
     1.90259161E-05    2     1000023         3   # BR(~s_L -> ~chi_20 s)
     6.78204548E-04    2     1000025         3   # BR(~s_L -> ~chi_30 s)
     1.18985766E-08    2    -1000024         4   # BR(~s_L -> ~chi_1- c)
     9.96382133E-01    2     1000021         3   # BR(~s_L -> ~g      s)
#
#         PDG            Width
DECAY   2000003     1.42077134E+02   # sstrange_R decays
#          BR         NDA      ID1       ID2
     1.11030287E-02    2     1000022         3   # BR(~s_R -> ~chi_10 s)
     2.77462264E-04    2     1000023         3   # BR(~s_R -> ~chi_20 s)
     1.74022440E-03    2     1000025         3   # BR(~s_R -> ~chi_30 s)
     9.86879285E-01    2     1000021         3   # BR(~s_R -> ~g      s)
#
#         PDG            Width
DECAY   1000011     5.39734566E+00   # selectron_L decays
#          BR         NDA      ID1       ID2
     8.48265743E-01    2     1000022        11   # BR(~e_L -> ~chi_10 e-)
     2.85026082E-02    2     1000023        11   # BR(~e_L -> ~chi_20 e-)
     1.14971094E-01    2     1000025        11   # BR(~e_L -> ~chi_30 e-)
     2.76203806E-03    2     1000035        11   # BR(~e_L -> ~chi_40 e-)
     3.65146451E-07    2    -1000024        12   # BR(~e_L -> ~chi_1- nu_e)
     5.49815141E-03    2    -1000037        12   # BR(~e_L -> ~chi_2- nu_e)
#
#         PDG            Width
DECAY   2000011     9.68723917E+00   # selectron_R decays
#          BR         NDA      ID1       ID2
     8.47221528E-01    2     1000022        11   # BR(~e_R -> ~chi_10 e-)
     2.10305657E-02    2     1000023        11   # BR(~e_R -> ~chi_20 e-)
     1.31747906E-01    2     1000025        11   # BR(~e_R -> ~chi_30 e-)
#
#         PDG            Width
DECAY   1000013     5.39734563E+00   # smuon_L decays
#          BR         NDA      ID1       ID2
     8.48265747E-01    2     1000022        13   # BR(~mu_L -> ~chi_10 mu-)
     2.85026083E-02    2     1000023        13   # BR(~mu_L -> ~chi_20 mu-)
     1.14971094E-01    2     1000025        13   # BR(~mu_L -> ~chi_30 mu-)
     2.76203390E-03    2     1000035        13   # BR(~mu_L -> ~chi_40 mu-)
     3.65146453E-07    2    -1000024        14   # BR(~mu_L -> ~chi_1- nu_mu)
     5.49815144E-03    2    -1000037        14   # BR(~mu_L -> ~chi_2- nu_mu)
#
#         PDG            Width
DECAY   2000013     9.68723910E+00   # smuon_R decays
#          BR         NDA      ID1       ID2
     8.47221528E-01    2     1000022        13   # BR(~mu_R -> ~chi_10 mu-)
     2.10305657E-02    2     1000023        13   # BR(~mu_R -> ~chi_20 mu-)
     1.31747906E-01    2     1000025        13   # BR(~mu_R -> ~chi_30 mu-)
#
#         PDG            Width
DECAY   1000015     7.74572129E+00   # stau_1 decays
#          BR         NDA      ID1       ID2
     6.24161261E-01    2     1000022        15   # BR(~tau_1 -> ~chi_10  tau-)
     8.32690778E-02    2     1000023        15   # BR(~tau_1 -> ~chi_20  tau-)
     1.45845288E-01    2     1000025        15   # BR(~tau_1 -> ~chi_30  tau-)
     1.46724373E-01    2    -1000024        16   # BR(~tau_1 -> ~chi_1-  nu_tau)
#
#         PDG            Width
DECAY   2000015     2.76657578E+00   # stau_2 decays
#          BR         NDA      ID1       ID2
     5.15980442E-01    2     1000022        15   # BR(~tau_2 -> ~chi_10  tau-)
     2.33742531E-01    2     1000023        15   # BR(~tau_2 -> ~chi_20  tau-)
     2.49481602E-01    2     1000025        15   # BR(~tau_2 -> ~chi_30  tau-)
     7.33096167E-04    2    -1000024        16   # BR(~tau_2 -> ~chi_1-  nu_tau)
     6.23282617E-05    2     1000015        23   # BR(~tau_2 -> ~tau_1   Z)
#
#         PDG            Width
DECAY   1000012     5.40970052E+00   # snu_eL decays
#          BR         NDA      ID1       ID2
     8.24284281E-01    2     1000022        12   # BR(~nu_eL -> ~chi_10 nu_e)
     1.45217901E-02    2     1000023        12   # BR(~nu_eL -> ~chi_20 nu_e)
     1.48611734E-01    2     1000025        12   # BR(~nu_eL -> ~chi_30 nu_e)
     2.65902670E-03    2     1000035        12   # BR(~nu_eL -> ~chi_40 nu_e)
     4.63775513E-03    2     1000024        11   # BR(~nu_eL -> ~chi_1+ e-)
     5.28541227E-03    2     1000037        11   # BR(~nu_eL -> ~chi_2+ e-)
#
#         PDG            Width
DECAY   1000014     5.40970048E+00   # snu_muL decays
#          BR         NDA      ID1       ID2
     8.24284288E-01    2     1000022        14   # BR(~nu_muL -> ~chi_10 nu_mu)
     1.45217903E-02    2     1000023        14   # BR(~nu_muL -> ~chi_20 nu_mu)
     1.48611736E-01    2     1000025        14   # BR(~nu_muL -> ~chi_30 nu_mu)
     2.65902673E-03    2     1000035        14   # BR(~nu_muL -> ~chi_40 nu_mu)
     4.63775516E-03    2     1000024        13   # BR(~nu_muL -> ~chi_1+ mu-)
     5.28540399E-03    2     1000037        13   # BR(~nu_muL -> ~chi_2+ mu-)
#
#         PDG            Width
DECAY   1000016     2.75432860E+00   # snu_tauL decays
#          BR         NDA      ID1       ID2
     4.55747913E-01    2     1000022        16   # BR(~nu_tauL -> ~chi_10 nu_tau)
     7.83799284E-03    2     1000023        16   # BR(~nu_tauL -> ~chi_20 nu_tau)
     7.98730592E-02    2     1000025        16   # BR(~nu_tauL -> ~chi_30 nu_tau)
     4.56216356E-01    2     1000024        15   # BR(~nu_tauL -> ~chi_1+ tau-)
     3.24679186E-04    2    -1000015       -24   # BR(~nu_tauL -> ~tau_1+ W-)
#
#         PDG            Width
DECAY   1000024     3.09117381E-03   # chargino1+ decays
#          BR         NDA      ID1       ID2
     1.00000000E+00    2     1000022        24   # BR(~chi_1+ -> ~chi_10  W+)
#
#         PDG            Width
DECAY   1000037     1.12498062E+02   # chargino2+ decays
#          BR         NDA      ID1       ID2
     1.13589175E-01    2     1000002        -1   # BR(~chi_2+ -> ~u_L     db)
     1.13522407E-01    2    -1000001         2   # BR(~chi_2+ -> ~d_L*    u )
     1.13589171E-01    2     1000004        -3   # BR(~chi_2+ -> ~c_L     sb)
     1.13522340E-01    2    -1000003         4   # BR(~chi_2+ -> ~s_L*     c )
     1.75485908E-02    2     1000006        -5   # BR(~chi_2+ -> ~t_1     bb)
     9.44292686E-04    2     2000006        -5   # BR(~chi_2+ -> ~t_2     bb)
     2.08637743E-07    2    -1000005         6   # BR(~chi_2+ -> ~b_1*    t )
     1.68301712E-02    2    -2000005         6   # BR(~chi_2+ -> ~b_2*    t )
     1.19487877E-01    2     1000016       -15   # BR(~chi_2+ -> ~nu_tau1 tau+)
     1.93565698E-04    2    -1000015        16   # BR(~chi_2+ -> ~tau_1+  nu_tau)
     1.19270893E-01    2    -2000015        16   # BR(~chi_2+ -> ~tau_2+  nu_tau)
     6.83393090E-02    2     1000024        23   # BR(~chi_2+ -> ~chi_1+  Z )
     3.95044649E-03    2     1000022        24   # BR(~chi_2+ -> ~chi_10  W+)
     6.71735392E-02    2     1000023        24   # BR(~chi_2+ -> ~chi_20  W+)
     6.16388098E-02    2     1000025        24   # BR(~chi_2+ -> ~chi_30  W+)
     7.03992036E-02    2     1000024        25   # BR(~chi_2+ -> ~chi_1+  h )
#
#         PDG            Width
DECAY   1000022     0.00000000E+00   # neutralino1 decays
#
#         PDG            Width
DECAY   1000023     5.15519893E-04   # neutralino2 decays
#          BR         NDA      ID1       ID2
     4.61998732E-04    2     1000022        22   # BR(~chi_20 -> ~chi_10 gam)
#           BR         NDA      ID1       ID2       ID3
     1.16971782E-01    3     1000022        -2         2   # BR(~chi_20 -> ~chi_10 ub      u)
     1.51914203E-01    3     1000022        -1         1   # BR(~chi_20 -> ~chi_10 db      d)
     1.16971782E-01    3     1000022        -4         4   # BR(~chi_20 -> ~chi_10 cb      c)
     1.51914203E-01    3     1000022        -3         3   # BR(~chi_20 -> ~chi_10 sb      s)
     1.47361530E-01    3     1000022        -5         5   # BR(~chi_20 -> ~chi_10 bb      b)
     3.49259510E-02    3     1000022       -11        11   # BR(~chi_20 -> ~chi_10 e+      e-)
     3.49259510E-02    3     1000022       -13        13   # BR(~chi_20 -> ~chi_10 mu+     mu-)
     3.47199900E-02    3     1000022       -15        15   # BR(~chi_20 -> ~chi_10 tau+    tau-)
     6.99309418E-02    3     1000022       -12        12   # BR(~chi_20 -> ~chi_10 nu_eb   nu_e)
     6.99309418E-02    3     1000022       -14        14   # BR(~chi_20 -> ~chi_10 nu_mub  nu_mu)
     6.99691558E-02    3     1000022       -16        16   # BR(~chi_20 -> ~chi_10 nu_taub nu_tau)
     2.85747139E-07    3     1000024        -2         1   # BR(~chi_20 -> ~chi_1+ ub      d)
     2.85747139E-07    3    -1000024        -1         2   # BR(~chi_20 -> ~chi_1- db      u)
     2.85747139E-07    3     1000024        -4         3   # BR(~chi_20 -> ~chi_1+ cb      s)
     2.85747139E-07    3    -1000024        -3         4   # BR(~chi_20 -> ~chi_1- sb      c)
     9.52488651E-08    3     1000024       -12        11   # BR(~chi_20 -> ~chi_1+ nu_eb   e-)
     9.52488651E-08    3    -1000024        12       -11   # BR(~chi_20 -> ~chi_1- nu_e    e+)
     9.52488651E-08    3     1000024       -14        13   # BR(~chi_20 -> ~chi_1+ nu_mub  mu-)
     9.52488651E-08    3    -1000024        14       -13   # BR(~chi_20 -> ~chi_1- nu_mu   mu+)
     2.24001549E-08    3     1000024       -16        15   # BR(~chi_20 -> ~chi_1+ nu_taub tau-)
     2.24001549E-08    3    -1000024        16       -15   # BR(~chi_20 -> ~chi_1- nu_tau  tau+)
#
#         PDG            Width
DECAY   1000025     5.13007891E-03   # neutralino3 decays
#          BR         NDA      ID1       ID2
     1.00000000E+00    2     1000022        23   # BR(~chi_30 -> ~chi_10   Z )
#
#         PDG            Width
DECAY   1000035     1.12404562E+02   # neutralino4 decays
#          BR         NDA      ID1       ID2
     1.69198115E-03    2     1000022        23   # BR(~chi_40 -> ~chi_10   Z )
     3.51278724E-02    2     1000023        23   # BR(~chi_40 -> ~chi_20   Z )
     3.17860326E-02    2     1000025        23   # BR(~chi_40 -> ~chi_30   Z )
     6.60104094E-02    2     1000024       -24   # BR(~chi_40 -> ~chi_1+   W-)
     6.60104094E-02    2    -1000024        24   # BR(~chi_40 -> ~chi_1-   W+)
     2.36644409E-03    2     1000022        25   # BR(~chi_40 -> ~chi_10   h )
     3.52094999E-02    2     1000023        25   # BR(~chi_40 -> ~chi_20   h )
     3.28330274E-02    2     1000025        25   # BR(~chi_40 -> ~chi_30   h )
     5.68473284E-02    2     1000002        -2   # BR(~chi_40 -> ~u_L      ub)
     5.68473284E-02    2    -1000002         2   # BR(~chi_40 -> ~u_L*     u )
     1.58160054E-09    2     2000002        -2   # BR(~chi_40 -> ~u_R      ub)
     1.58160054E-09    2    -2000002         2   # BR(~chi_40 -> ~u_R*     u )
     5.67807674E-02    2     1000001        -1   # BR(~chi_40 -> ~d_L      db)
     5.67807674E-02    2    -1000001         1   # BR(~chi_40 -> ~d_L*     d )
     2.55266464E-10    2     2000001        -1   # BR(~chi_40 -> ~d_R      db)
     2.55266464E-10    2    -2000001         1   # BR(~chi_40 -> ~d_R*     d )
     5.68472950E-02    2     1000004        -4   # BR(~chi_40 -> ~c_L      cb)
     5.68472950E-02    2    -1000004         4   # BR(~chi_40 -> ~c_L*     c )
     1.58159913E-09    2     2000004        -4   # BR(~chi_40 -> ~c_R      cb)
     1.58159913E-09    2    -2000004         4   # BR(~chi_40 -> ~c_R*     c )
     5.67807674E-02    2     1000003        -3   # BR(~chi_40 -> ~s _L      sb)
     5.67807674E-02    2    -1000003         3   # BR(~chi_40 -> ~s _L*     s )
     2.55266464E-10    2     2000003        -3   # BR(~chi_40 -> ~s _R      sb)
     2.55266464E-10    2    -2000003         3   # BR(~chi_40 -> ~s _R*     s )
     7.95879373E-03    2     1000006        -6   # BR(~chi_40 -> ~t_1      tb)
     7.95879373E-03    2    -1000006         6   # BR(~chi_40 -> ~t_1*     t )
     3.52299226E-04    2     2000006        -6   # BR(~chi_40 -> ~t_2      tb)
     3.52299226E-04    2    -2000006         6   # BR(~chi_40 -> ~t_2*     t )
     1.06038714E-07    2     1000005        -5   # BR(~chi_40 -> ~b_1      bb)
     1.06038714E-07    2    -1000005         5   # BR(~chi_40 -> ~b_1*     b )
     9.34618372E-03    2     2000005        -5   # BR(~chi_40 -> ~b_2      bb)
     9.34618372E-03    2    -2000005         5   # BR(~chi_40 -> ~b_2*     b )
     3.65012228E-09    2     2000011       -11   # BR(~chi_40 -> ~e_R-     e+)
     3.65012228E-09    2    -2000011        11   # BR(~chi_40 -> ~e_R+     e-)
     3.65012228E-09    2     2000013       -13   # BR(~chi_40 -> ~mu_R-    mu+)
     3.65012228E-09    2    -2000013        13   # BR(~chi_40 -> ~mu_R+    mu-)
     9.67906217E-05    2     1000015       -15   # BR(~chi_40 -> ~tau_1-   tau+)
     9.67906217E-05    2    -1000015        15   # BR(~chi_40 -> ~tau_1+   tau-)
     5.96412391E-02    2     2000015       -15   # BR(~chi_40 -> ~tau_2-   tau+)
     5.96412391E-02    2    -2000015        15   # BR(~chi_40 -> ~tau_2+   tau-)
     5.98305802E-02    2     1000016       -16   # BR(~chi_40 -> ~nu_tau1  nu_taub)
     5.98305802E-02    2    -1000016        16   # BR(~chi_40 -> ~nu_tau1* nu_tau )
#
#         PDG            Width
DECAY        25     4.50085312E-03   # h decays
#          BR         NDA      ID1       ID2
     5.34818379E-01    2           5        -5   # BR(h -> b       bb     )
     5.72635270E-02    2         -15        15   # BR(h -> tau+    tau-   )
     2.02692492E-04    2         -13        13   # BR(h -> mu+     mu-    )
     2.21555984E-04    2           3        -3   # BR(h -> s       sb     )
     1.91631767E-02    2           4        -4   # BR(h -> c       cb     )
     6.95551260E-02    2          21        21   # BR(h -> g       g      )
     2.03028734E-03    2          22        22   # BR(h -> gam     gam    )
     1.28457440E-03    2          22        23   # BR(h -> Z       gam    )
     1.69683643E-01    2          24       -24   # BR(h -> W+      W-     )
     2.09165052E-02    2          23        23   # BR(h -> Z       Z      )
     1.24860533E-01    2     1000022   1000022   # BR(h -> ~chi_10 ~chi_10)
#
#         PDG            Width
DECAY        35     3.39718243E+01   # H decays
#          BR         NDA      ID1       ID2
     6.91301841E-01    2           5        -5   # BR(H -> b       bb     )
     1.35977611E-01    2         -15        15   # BR(H -> tau+    tau-   )
     4.76451487E-04    2         -13        13   # BR(H -> mu+     mu-    )
     2.83528589E-04    2           3        -3   # BR(H -> s       sb     )
     8.37198919E-08    2           4        -4   # BR(H -> c       cb     )
     8.26552510E-03    2           6        -6   # BR(H -> t       tb     )
     3.45517267E-06    2          21        21   # BR(H -> g       g      )
     9.22003358E-10    2          22        22   # BR(H -> gam     gam    )
     2.81373973E-09    2          23        22   # BR(H -> Z       gam    )
     2.37227280E-06    2          24       -24   # BR(H -> W+      W-     )
     1.18416669E-06    2          23        23   # BR(H -> Z       Z      )
     8.88601076E-06    2          25        25   # BR(H -> h       h      )
     7.61116538E-04    2     1000024  -1000024   # BR(H -> ~chi_1+ ~chi_1-)
     2.92377149E-02    2     1000022   1000022   # BR(H -> ~chi_10 ~chi_10)
     2.08502185E-03    2     1000023   1000023   # BR(H -> ~chi_20 ~chi_20)
     1.53896692E-02    2     1000025   1000025   # BR(H -> ~chi_30 ~chi_30)
     5.35140375E-02    2     1000022   1000023   # BR(H -> ~chi_10 ~chi_20)
     2.37793290E-02    2     1000022   1000025   # BR(H -> ~chi_10 ~chi_30)
     1.75637678E-02    2     1000023   1000025   # BR(H -> ~chi_20 ~chi_30)
     1.12944260E-07    2     1000005  -1000005   # BR(H -> ~b_1    ~b_1*  )
     9.48986529E-08    2     2000011  -2000011   # BR(H -> ~e_R-   ~e_R+  )
     9.48986529E-08    2     2000013  -2000013   # BR(H -> ~mu_R-  ~mu_R+ )
     7.20078496E-05    2     1000015  -1000015   # BR(H -> ~tau_1- ~tau_1+)
     5.99911275E-05    2     2000015  -2000015   # BR(H -> ~tau_2- ~tau_2+)
     1.06075518E-02    2     1000015  -2000015   # BR(H -> ~tau_1- ~tau_2+)
     1.06075518E-02    2     2000015  -1000015   # BR(H -> ~tau_2- ~tau_1+)
     9.95342929E-07    2     1000016  -1000016   # BR(H -> ~nu_tauL ~nu_tauL*)
#
#         PDG            Width
DECAY        36     3.39742968E+01   # A decays
#          BR         NDA      ID1       ID2
     6.91291196E-01    2           5        -5   # BR(A -> b       bb     )
     1.35968225E-01    2         -15        15   # BR(A -> tau+    tau-   )
     4.76418228E-04    2         -13        13   # BR(A -> mu+     mu-    )
     2.83544771E-04    2           3        -3   # BR(A -> s       sb     )
     8.42412689E-08    2           4        -4   # BR(A -> c       cb     )
     8.27988170E-03    2           6        -6   # BR(A -> t       tb     )
     2.74804344E-05    2          21        21   # BR(A -> g       g      )
     1.55379996E-08    2          22        22   # BR(A -> gam     gam    )
     2.57689996E-08    2          23        22   # BR(A -> Z       gam    )
     2.40701597E-06    2          23        25   # BR(A -> Z       h      )
     7.65891175E-04    2     1000024  -1000024   # BR(A -> ~chi_1+ ~chi_1-)
     3.15639751E-02    2     1000022   1000022   # BR(A -> ~chi_10 ~chi_10)
     1.75887537E-03    2     1000023   1000023   # BR(A -> ~chi_20 ~chi_20)
     1.86359200E-02    2     1000025   1000025   # BR(A -> ~chi_30 ~chi_30)
     4.40086944E-02    2     1000022   1000023   # BR(A -> ~chi_10 ~chi_20)
     2.97257635E-02    2     1000022   1000025   # BR(A -> ~chi_10 ~chi_30)
     1.58660200E-02    2     1000023   1000025   # BR(A -> ~chi_20 ~chi_30)
     1.06727908E-02    2     1000015  -2000015   # BR(A -> ~tau_1- ~tau_2+)
     1.06727908E-02    2    -1000015   2000015   # BR(A -> ~tau_1+ ~tau_2-)
#
#         PDG            Width
DECAY        37     3.34634802E+01   # H+ decays
#          BR         NDA      ID1       ID2
     1.15393273E-03    2           4        -5   # BR(H+ -> c       bb     )
     1.38086671E-01    2         -15        16   # BR(H+ -> tau+    nu_tau )
     4.83841037E-04    2         -13        14   # BR(H+ -> mu+     nu_mu  )
     1.15393180E-05    2           2        -5   # BR(H+ -> u       bb     )
     1.44104463E-05    2           2        -3   # BR(H+ -> u       sb     )
     2.83723416E-04    2           4        -3   # BR(H+ -> c       sb     )
     6.94241248E-01    2           6        -5   # BR(H+ -> t       bb     )
     2.44690953E-06    2          24        25   # BR(H+ -> W+      h      )
     1.12414963E-13    2          24        36   # BR(H+ -> W+      A      )
     1.23219877E-01    2     1000024   1000022   # BR(H+ -> ~chi_1+ ~chi_10)
     4.24200274E-03    2     1000024   1000023   # BR(H+ -> ~chi_1+ ~chi_20)
     1.65781356E-02    2     1000024   1000025   # BR(H+ -> ~chi_1+ ~chi_30)
     2.16589859E-02    2    -1000015   1000016   # BR(H+ -> ~tau_1+ ~nu_tauL)
     2.31864979E-05    2    -2000015   1000016   # BR(H+ -> ~tau_2+ ~nu_tauL)
