#
#                              ======================
#                              | THE SUSYHIT OUTPUT |
#                              ======================
#
#
#              ------------------------------------------------------
#              |     This is the output of the SUSY-HIT package     |
#              |  created by A.Djouadi, M.Muehlleitner and M.Spira. |
#              |  In case of problems with SUSY-HIT email to        |
#              |           margarete.muehlleitner@cern.ch           |
#              |           michael.spira@psi.ch                     |
#              |           abdelhak.djouadi@cern.ch                 |
#              ------------------------------------------------------
#
#              ------------------------------------------------------
#              |  SUSY Les Houches Accord - MSSM Spectrum + Decays  |
#              |              based on the decay programs           |
#              |                                                    |
#              |                     SDECAY 1.3b                    |
#              |                                                    |
#              |  Authors: M.Muhlleitner, A.Djouadi and Y.Mambrini  |
#              |  Ref.:    Comput.Phys.Commun.168(2005)46           |
#              |           [hep-ph/0311167]                         |
#              |                                                    |
#              |                     HDECAY 3.4                     |
#              |                                                    |
#              |  By: A.Djouadi,J.Kalinowski,M.Muhlleitner,M.Spira  |
#              |  Ref.:    Comput.Phys.Commun.108(1998)56           |
#              |           [hep-ph/9704448]                         |
#              |                                                    |
#              |                                                    |
#              |  If not stated otherwise all DRbar couplings and   |
#              |  soft SUSY breaking masses are given at the scale  |
#              |  Q=  0.35828040E+04
#              |                                                    |
#              ------------------------------------------------------
#
#
BLOCK DCINFO  # Decay Program information
     1   SDECAY/HDECAY # decay calculator
     2   1.3b  /3.4    # version number
#
BLOCK SPINFO  # Spectrum calculator information
     1     SOFTSUSY    # spectrum calculator               
     2     3.4.0       # version number                    
#
BLOCK MODSEL  # Model selection
     1     0   #  nonUniversal                                     
#
BLOCK SMINPUTS  # Standard Model inputs
         1     1.27908970E+02   # alpha_em^-1(M_Z)^MSbar
         2     1.16637870E-05   # G_F [GeV^-2]
         3     1.18400000E-01   # alpha_S(M_Z)^MSbar
         4     9.11876000E+01   # M_Z pole mass
         5     4.18000000E+00   # mb(mb)^MSbar
         6     1.73200000E+02   # mt pole mass
         7     1.77700000E+00   # mtau pole mass
#
BLOCK MINPAR  # Input parameters - minimal models
         3     4.29000000E+00   # tanb                
#
BLOCK EXTPAR  # Input parameters - non-minimal models
         0    -1.00000000E+00   # Set                 
         1    -2.88960000E+02   # M_1(MX)             
         2     3.98240000E+02   # M_2(MX)             
         3     2.14146000E+03   # M_3(MX)             
        11    -7.09458000E+03   # At(MX)              
        12     1.67788000E+03   # Ab(MX)              
        13    -3.83643000E+03   # Atau(MX)            
        23     3.85612000E+03   # mu(MX)              
        26     3.61043000E+03   # mA(pole)            
        31     1.05516000E+03   # meL(MX)             
        32     1.05516000E+03   # mmuL(MX)            
        33     1.33038000E+03   # mtauL(MX)           
        34     2.85860000E+02   # meR(MX)             
        35     2.85860000E+02   # mmuR(MX)            
        36     1.78964000E+03   # mtauR(MX)           
        41     2.47973000E+03   # mqL1(MX)            
        42     2.47973000E+03   # mqL2(MX)            
        43     3.48230000E+03   # mqL3(MX)            
        44     1.37160000E+03   # muR(MX)             
        45     1.37160000E+03   # mcR(MX)             
        46     3.69504000E+03   # mtR(MX)             
        47     3.64982000E+03   # mdR(MX)             
        48     3.64982000E+03   # msR(MX)             
        49     1.39693000E+03   # mbR(MX)             
#
BLOCK MASS  # Mass Spectrum
# PDG code           mass       particle
        24     8.03789390E+01   # W+
        25     1.25647030E+02   # h
        35     3.61064158E+03   # H
        36     3.61042982E+03   # A
        37     3.61166611E+03   # H+
         5     4.81876030E+00   # b-quark pole mass calculated from mb(mb)_Msbar
   1000001     2.57739922E+03   # ~d_L
   2000001     3.71133725E+03   # ~d_R
   1000002     2.57650073E+03   # ~u_L
   2000002     1.52018418E+03   # ~u_R
   1000003     2.57739922E+03   # ~s_L
   2000003     3.71133725E+03   # ~s_R
   1000004     2.57650073E+03   # ~c_L
   2000004     1.52018418E+03   # ~c_R
   1000005     1.54322520E+03   # ~b_1
   2000005     3.49086033E+03   # ~b_2
   1000006     3.38542022E+03   # ~t_1
   2000006     3.70312140E+03   # ~t_2
   1000011     1.06019412E+03   # ~e_L
   2000011     2.88763084E+02   # ~e_R
   1000012     1.05736402E+03   # ~nu_eL
   1000013     1.06019412E+03   # ~mu_L
   2000013     2.88763084E+02   # ~mu_R
   1000014     1.05736402E+03   # ~nu_muL
   1000015     1.33444343E+03   # ~tau_1
   2000015     1.79081444E+03   # ~tau_2
   1000016     1.33244661E+03   # ~nu_tauL
   1000021     2.34368139E+03   # ~g
   1000022    -2.83805263E+02   # ~chi_10
   1000023     4.18447878E+02   # ~chi_20
   1000025    -3.90496825E+03   # ~chi_30
   1000035     3.90573056E+03   # ~chi_40
   1000024     4.18612391E+02   # ~chi_1+
   1000037     3.90623877E+03   # ~chi_2+
#
BLOCK NMIX  # Neutralino Mixing Matrix
  1  1     9.99939313E-01   # N_11
  1  2    -5.21913925E-04   # N_12
  1  3     1.08227368E-02   # N_13
  1  4    -1.99172057E-03   # N_14
  2  1     7.50639612E-04   # N_21
  2  2     9.99778519E-01   # N_22
  2  3    -1.98731997E-02   # N_23
  2  4     6.88516053E-03   # N_24
  3  1    -6.23852843E-03   # N_31
  3  2     9.18769867E-03   # N_32
  3  3     7.06974103E-01   # N_33
  3  4     7.07152236E-01   # N_34
  4  1    -9.04921438E-03   # N_41
  4  2     1.89268793E-02   # N_42
  4  3     7.06877317E-01   # N_43
  4  4    -7.07024995E-01   # N_44
#
BLOCK UMIX  # Chargino Mixing Matrix U
  1  1     9.99605112E-01   # U_11
  1  2    -2.81001770E-02   # U_12
  2  1     2.81001770E-02   # U_21
  2  2     9.99605112E-01   # U_22
#
BLOCK VMIX  # Chargino Mixing Matrix V
  1  1     9.99952483E-01   # V_11
  1  2    -9.74839952E-03   # V_12
  2  1     9.74839952E-03   # V_21
  2  2     9.99952483E-01   # V_22
#
BLOCK STOPMIX  # Stop Mixing Matrix
  1  1     8.27623913E-01   # cos(theta_t)
  1  2     5.61283047E-01   # sin(theta_t)
  2  1    -5.61283047E-01   # -sin(theta_t)
  2  2     8.27623913E-01   # cos(theta_t)
#
BLOCK SBOTMIX  # Sbottom Mixing Matrix
  1  1     3.20182786E-03   # cos(theta_b)
  1  2     9.99994874E-01   # sin(theta_b)
  2  1    -9.99994874E-01   # -sin(theta_b)
  2  2     3.20182786E-03   # cos(theta_b)
#
BLOCK STAUMIX  # Stau Mixing Matrix
  1  1     9.99698191E-01   # cos(theta_tau)
  1  2     2.45667847E-02   # sin(theta_tau)
  2  1    -2.45667847E-02   # -sin(theta_tau)
  2  2     9.99698191E-01   # cos(theta_tau)
#
BLOCK ALPHA  # Higgs mixing
          -2.41288266E-01   # Mixing angle in the neutral Higgs boson sector
#
BLOCK HMIX Q=  3.58280400E+03  # DRbar Higgs Parameters
         1     3.91091655E+03   # mu(Q)MSSM           
         2     4.07093995E+00   # tan                 
         3     2.42131716E+02   # higgs               
         4     1.29887874E+07   # mA^2(Q)MSSM         
#
BLOCK GAUGE Q=  3.58280400E+03  # The gauge couplings
     1     3.66025273E-01   # gprime(Q) DRbar
     2     6.39827781E-01   # g(Q) DRbar
     3     1.01281193E+00   # g3(Q) DRbar
#
BLOCK AU Q=  3.58280400E+03  # The trilinear couplings
  1  1     0.00000000E+00   # A_u(Q) DRbar
  2  2     0.00000000E+00   # A_c(Q) DRbar
  3  3    -7.09457998E+03   # A_t(Q) DRbar
#
BLOCK AD Q=  3.58280400E+03  # The trilinear couplings
  1  1     0.00000000E+00   # A_d(Q) DRbar
  2  2     0.00000000E+00   # A_s(Q) DRbar
  3  3     1.67788000E+03   # A_b(Q) DRbar
#
BLOCK AE Q=  3.58280400E+03  # The trilinear couplings
  1  1     0.00000000E+00   # A_e(Q) DRbar
  2  2     0.00000000E+00   # A_mu(Q) DRbar
  3  3    -3.83643000E+03   # A_tau(Q) DRbar
#
BLOCK Yu Q=  3.58280400E+03  # The Yukawa couplings
  1  1     0.00000000E+00   # y_u(Q) DRbar
  2  2     0.00000000E+00   # y_c(Q) DRbar
  3  3     8.29778058E-01   # y_t(Q) DRbar
#
BLOCK Yd Q=  3.58280400E+03  # The Yukawa couplings
  1  1     0.00000000E+00   # y_d(Q) DRbar
  2  2     0.00000000E+00   # y_s(Q) DRbar
  3  3     5.43003066E-02   # y_b(Q) DRbar
#
BLOCK Ye Q=  3.58280400E+03  # The Yukawa couplings
  1  1     0.00000000E+00   # y_e(Q) DRbar
  2  2     0.00000000E+00   # y_mu(Q) DRbar
  3  3     4.32030042E-02   # y_tau(Q) DRbar
#
BLOCK MSOFT Q=  3.58280400E+03  # The soft SUSY breaking masses at the scale Q
         1    -2.88960000E+02   # M_1(Q)              
         2     3.98240000E+02   # M_2(Q)              
         3     2.14146000E+03   # M_3(Q)              
        21    -3.19892895E+06   # mH1^2(Q)            
        22    -1.43432771E+07   # mH2^2(Q)            
        31     1.05516000E+03   # meL(Q)              
        32     1.05516000E+03   # mmuL(Q)             
        33     1.33038000E+03   # mtauL(Q)            
        34     2.85860000E+02   # meR(Q)              
        35     2.85860000E+02   # mmuR(Q)             
        36     1.78964000E+03   # mtauR(Q)            
        41     2.47972999E+03   # mqL1(Q)             
        42     2.47972999E+03   # mqL2(Q)             
        43     3.48229998E+03   # mqL3(Q)             
        44     1.37159998E+03   # muR(Q)              
        45     1.37159998E+03   # mcR(Q)              
        46     3.69503997E+03   # mtR(Q)              
        47     3.64981999E+03   # mdR(Q)              
        48     3.64981999E+03   # msR(Q)              
        49     1.39692999E+03   # mbR(Q)              
#
Block HiggsBoundsInputHiggsCouplingsFermions
# ScalarNormEffCoupSq PseudoSNormEffCoupSq NP   IP1 IP2 IP2
    1.00337347E+00    0.00000000E+00        3  25   5   5  # h0-b-b eff. coupling^2, normalised to SM
    1.65691786E+01    0.00000000E+00        3  35   5   5  # H0-b-b eff. coupling^2, normalised to SM
    0.00000000E+00    1.65725521E+01        3  36   5   5  # A0-b-b eff. coupling^2, normalised to SM
#
    9.99796442E-01    0.00000000E+00        3  25   6   6  # h0-t-t eff. coupling^2, normalised to SM
    6.05442944E-02    0.00000000E+00        3  35   6   6  # H0-t-t eff. coupling^2, normalised to SM
    0.00000000E+00    6.03407366E-02        3  36   6   6  # A0-t-t eff. coupling^2, normalised to SM
#
    1.00337347E+00    0.00000000E+00        3  25  15  15  # h0-tau-tau eff. coupling^2, normalised to SM
    1.65691786E+01    0.00000000E+00        3  35  15  15  # H0-tau-tau eff. coupling^2, normalised to SM
    0.00000000E+00    1.65725521E+01        3  36  15  15  # A0-tau-tau eff. coupling^2, normalised to SM
#
Block HiggsBoundsInputHiggsCouplingsBosons
    9.99999829E-01        3  25  24  24  # h0-W-W eff. coupling^2, normalised to SM
    1.71402581E-07        3  35  24  24  # H0-W-W eff. coupling^2, normalised to SM
    0.00000000E+00        3  36  24  24  # A0-W-W eff. coupling^2, normalised to SM
#
    9.99999829E-01        3  25  23  23  # h0-Z-Z eff. coupling^2, normalised to SM
    1.71402581E-07        3  35  23  23  # H0-Z-Z eff. coupling^2, normalised to SM
    0.00000000E+00        3  36  23  23  # A0-Z-Z eff. coupling^2, normalised to SM
#
    8.82466600E-01        3  25  21  21  # h0-g-g eff. coupling^2, normalised to SM
    4.34871854E-12        3  35  21  21  # H0-g-g eff. coupling^2, normalised to SM
    8.33857651E-12        3  36  21  21  # A0-g-g eff. coupling^2, normalised to SM
#
    0.00000000E+00        3  25  25  23  # h0-h0-Z eff. coupling^2, normalised to SM
    0.00000000E+00        3  35  25  23  # H0-h0-Z eff. coupling^2, normalised to SM
    1.71402581E-07        3  36  25  23  # A0-h0-Z eff. coupling^2, normalised to SM
    0.00000000E+00        3  35  35  23  # H0-H0-Z eff. coupling^2, normalised to SM
    9.99999829E-01        3  36  35  23  # A0-H0-Z eff. coupling^2, normalised to SM
    0.00000000E+00        3  36  36  23  # A0-A0-Z eff. coupling^2, normalised to SM
#
    0.00000000E+00        4  25  21  21  23  # h0-g-g-Z eff. coupling^2, normalised to SM
    0.00000000E+00        4  35  21  21  23  # H0-g-g-Z eff. coupling^2, normalised to SM
    0.00000000E+00        4  36  21  21  23  # A0-g-g-Z eff. coupling^2, normalised to SM
#
#
#
#                             =================
#                             |The decay table|
#                             =================
#
# - The QCD corrections to the decays gluino -> squark  + quark
#                                     squark -> gaugino + quark_prime
#                                     squark -> squark_prime + Higgs
#                                     squark -> gluino  + quark
#   are included.
#
# - The multi-body decays for the inos, stops and sbottoms are included.
#
# - The loop induced decays for the gluino, neutralinos and stops
#   are included.
#
# - The SUSY decays of the top quark are included.
#
#
#         PDG            Width
DECAY         6     1.44226518E+00   # top decays
#          BR         NDA      ID1       ID2
     1.00000000E+00    2           5        24   # BR(t ->  b    W+)
#
#         PDG            Width
DECAY   1000021     4.73954498E+01   # gluino decays
#          BR         NDA      ID1       ID2
     1.67113287E-01    2     2000002        -2   # BR(~g -> ~u_R  ub)
     1.67113287E-01    2    -2000002         2   # BR(~g -> ~u_R* u )
     1.67113089E-01    2     2000004        -4   # BR(~g -> ~c_R  cb)
     1.67113089E-01    2    -2000004         4   # BR(~g -> ~c_R* c )
     1.65773624E-01    2     1000005        -5   # BR(~g -> ~b_1  bb)
     1.65773624E-01    2    -1000005         5   # BR(~g -> ~b_1* b )
#
#         PDG            Width
DECAY   1000006     8.60120241E+01   # stop1 decays
#          BR         NDA      ID1       ID2
     3.28277257E-02    2     1000022         6   # BR(~t_1 -> ~chi_10 t )
     1.07669633E-01    2     1000023         6   # BR(~t_1 -> ~chi_20 t )
     2.16554504E-01    2     1000024         5   # BR(~t_1 -> ~chi_1+ b )
     6.41958716E-01    2     1000021         6   # BR(~t_1 -> ~g      t )
     9.89422481E-04    2     1000005        24   # BR(~t_1 -> ~b_1    W+)
#
#         PDG            Width
DECAY   2000006     1.11647097E+02   # stop2 decays
#          BR         NDA      ID1       ID2
     5.43432492E-02    2     1000022         6   # BR(~t_2 -> ~chi_10 t )
     3.97516998E-02    2     1000023         6   # BR(~t_2 -> ~chi_20 t )
     0.00000000E+00    2     1000025         6   # BR(~t_2 -> ~chi_30 t )
     7.98699371E-02    2     1000024         5   # BR(~t_2 -> ~chi_1+ b )
     5.81699820E-01    2     1000021         6   # BR(~t_2 -> ~g      t )
     2.08115588E-02    2     1000006        25   # BR(~t_2 -> ~t_1    h )
     1.24157276E-01    2     1000006        23   # BR(~t_2 -> ~t_1    Z )
     5.21151700E-04    2     1000005        24   # BR(~t_2 -> ~b_1    W+)
     9.88453078E-02    2     2000005        24   # BR(~t_2 -> ~b_2    W+)
#
#         PDG            Width
DECAY   1000005     8.53681458E-01   # sbottom1 decays
#          BR         NDA      ID1       ID2
     9.99419985E-01    2     1000022         5   # BR(~b_1 -> ~chi_10 b )
     1.97675678E-04    2     1000023         5   # BR(~b_1 -> ~chi_20 b )
     3.82339068E-04    2    -1000024         6   # BR(~b_1 -> ~chi_1- t )
#
#         PDG            Width
DECAY   2000005     1.00273238E+02   # sbottom2 decays
#          BR         NDA      ID1       ID2
     5.11403568E-03    2     1000022         5   # BR(~b_2 -> ~chi_10 b )
     1.37617910E-01    2     1000023         5   # BR(~b_2 -> ~chi_20 b )
     2.73779686E-01    2    -1000024         6   # BR(~b_2 -> ~chi_1- t )
     5.71524689E-01    2     1000021         5   # BR(~b_2 -> ~g      b )
     7.75148805E-04    2     1000005        25   # BR(~b_2 -> ~b_1    h )
     7.33384583E-04    2     1000005        23   # BR(~b_2 -> ~b_1    Z )
     1.04551455E-02    2     1000006       -24   # BR(~b_2 -> ~t_1    W-)
#
#         PDG            Width
DECAY   1000002     3.47087698E+01   # sup_L decays
#          BR         NDA      ID1       ID2
     1.01620728E-02    2     1000022         2   # BR(~u_L -> ~chi_10 u)
     2.73229419E-01    2     1000023         2   # BR(~u_L -> ~chi_20 u)
     5.46469906E-01    2     1000024         1   # BR(~u_L -> ~chi_1+ d)
     1.70138602E-01    2     1000021         2   # BR(~u_L -> ~g      u)
#
#         PDG            Width
DECAY   2000002     3.35614823E+00   # sup_R decays
#          BR         NDA      ID1       ID2
     9.99999483E-01    2     1000022         2   # BR(~u_R -> ~chi_10 u)
     5.17243293E-07    2     1000023         2   # BR(~u_R -> ~chi_20 u)
#
#         PDG            Width
DECAY   1000001     3.47465515E+01   # sdown_L decays
#          BR         NDA      ID1       ID2
     1.02664442E-02    2     1000022         1   # BR(~d_L -> ~chi_10 d)
     2.72879282E-01    2     1000023         1   # BR(~d_L -> ~chi_20 d)
     5.45702939E-01    2    -1000024         2   # BR(~d_L -> ~chi_1- u)
     1.71151334E-01    2     1000021         1   # BR(~d_L -> ~g      d)
#
#         PDG            Width
DECAY   2000001     1.05343036E+02   # sdown_R decays
#          BR         NDA      ID1       ID2
     1.97881061E-02    2     1000022         1   # BR(~d_R -> ~chi_10 d)
     1.10051641E-08    2     1000023         1   # BR(~d_R -> ~chi_20 d)
     9.80211883E-01    2     1000021         1   # BR(~d_R -> ~g      d)
#
#         PDG            Width
DECAY   1000004     3.43782218E+01   # scharm_L decays
#          BR         NDA      ID1       ID2
     1.07693509E-02    2     1000022         4   # BR(~c_L -> ~chi_10 c)
     2.89258824E-01    2     1000023         4   # BR(~c_L -> ~chi_20 c)
     5.78529104E-01    2     1000024         3   # BR(~c_L -> ~chi_1+ s)
     1.21442721E-01    2     1000021         4   # BR(~c_L -> ~g      c)
#
#         PDG            Width
DECAY   2000004     3.35451149E+00   # scharm_R decays
#          BR         NDA      ID1       ID2
     9.99999483E-01    2     1000022         4   # BR(~c_R -> ~chi_10 c)
     5.16761690E-07    2     1000023         4   # BR(~c_R -> ~chi_20 c)
#
#         PDG            Width
DECAY   1000003     3.44039820E+01   # sstrange_L decays
#          BR         NDA      ID1       ID2
     1.08837450E-02    2     1000022         3   # BR(~s_L -> ~chi_10 s)
     2.88988645E-01    2     1000023         3   # BR(~s_L -> ~chi_20 s)
     5.77917439E-01    2    -1000024         4   # BR(~s_L -> ~chi_1- c)
     1.22210171E-01    2     1000021         3   # BR(~s_L -> ~g      s)
#
#         PDG            Width
DECAY   2000003     7.51768580E+01   # sstrange_R decays
#          BR         NDA      ID1       ID2
     2.88960990E-02    2     1000022         3   # BR(~s_R -> ~chi_10 s)
     1.60596655E-08    2     1000023         3   # BR(~s_R -> ~chi_20 s)
     9.71103885E-01    2     1000021         3   # BR(~s_R -> ~g      s)
#
#         PDG            Width
DECAY   1000011     1.04408209E+01   # selectron_L decays
#          BR         NDA      ID1       ID2
     1.16397229E-01    2     1000022        11   # BR(~e_L -> ~chi_10 e-)
     2.94828084E-01    2     1000023        11   # BR(~e_L -> ~chi_20 e-)
     5.88774687E-01    2    -1000024        12   # BR(~e_L -> ~chi_1- nu_e)
#
#         PDG            Width
DECAY   2000011     1.78377845E-03   # selectron_R decays
#          BR         NDA      ID1       ID2
     1.00000000E+00    2     1000022        11   # BR(~e_R -> ~chi_10 e-)
#
#         PDG            Width
DECAY   1000013     1.04408208E+01   # smuon_L decays
#          BR         NDA      ID1       ID2
     1.16397227E-01    2     1000022        13   # BR(~mu_L -> ~chi_10 mu-)
     2.94828079E-01    2     1000023        13   # BR(~mu_L -> ~chi_20 mu-)
     5.88774694E-01    2    -1000024        14   # BR(~mu_L -> ~chi_1- nu_mu)
#
#         PDG            Width
DECAY   2000013     1.78336629E-03   # smuon_R decays
#          BR         NDA      ID1       ID2
     1.00000000E+00    2     1000022        13   # BR(~mu_R -> ~chi_10 mu-)
#
#         PDG            Width
DECAY   1000015     1.48614316E+01   # stau_1 decays
#          BR         NDA      ID1       ID2
     1.09071698E-01    2     1000022        15   # BR(~tau_1 -> ~chi_10  tau-)
     2.97247983E-01    2     1000023        15   # BR(~tau_1 -> ~chi_20  tau-)
     5.93680319E-01    2    -1000024        16   # BR(~tau_1 -> ~chi_1-  nu_tau)
#
#         PDG            Width
DECAY   2000015     9.45397334E+00   # stau_2 decays
#          BR         NDA      ID1       ID2
     9.59111241E-01    2     1000022        15   # BR(~tau_2 -> ~chi_10  tau-)
     3.55020362E-04    2     1000023        15   # BR(~tau_2 -> ~chi_20  tau-)
     7.07970289E-04    2    -1000024        16   # BR(~tau_2 -> ~chi_1-  nu_tau)
     1.95957154E-02    2     1000016       -24   # BR(~tau_2 -> ~nu_tauL W-)
     1.03884682E-02    2     1000015        25   # BR(~tau_2 -> ~tau_1   h)
     9.84158526E-03    2     1000015        23   # BR(~tau_2 -> ~tau_1   Z)
#
#         PDG            Width
DECAY   1000012     1.03971652E+01   # snu_eL decays
#          BR         NDA      ID1       ID2
     1.16903359E-01    2     1000022        12   # BR(~nu_eL -> ~chi_10 nu_e)
     2.94185997E-01    2     1000023        12   # BR(~nu_eL -> ~chi_20 nu_e)
     5.88910645E-01    2     1000024        11   # BR(~nu_eL -> ~chi_1+ e-)
#
#         PDG            Width
DECAY   1000014     1.03971650E+01   # snu_muL decays
#          BR         NDA      ID1       ID2
     1.16903361E-01    2     1000022        14   # BR(~nu_muL -> ~chi_10 nu_mu)
     2.94186001E-01    2     1000023        14   # BR(~nu_muL -> ~chi_20 nu_mu)
     5.88910638E-01    2     1000024        13   # BR(~nu_muL -> ~chi_1+ mu-)
#
#         PDG            Width
DECAY   1000016     1.48382888E+01   # snu_tauL decays
#          BR         NDA      ID1       ID2
     1.09244725E-01    2     1000022        16   # BR(~nu_tauL -> ~chi_10 nu_tau)
     2.96714424E-01    2     1000023        16   # BR(~nu_tauL -> ~chi_20 nu_tau)
     5.94040851E-01    2     1000024        15   # BR(~nu_tauL -> ~chi_1+ tau-)
#
#         PDG            Width
DECAY   1000024     8.03037634E-06   # chargino1+ decays
#          BR         NDA      ID1       ID2
     1.00000000E+00    2     1000022        24   # BR(~chi_1+ -> ~chi_10  W+)
#
#         PDG            Width
DECAY   1000037     3.27068148E+01   # chargino2+ decays
#          BR         NDA      ID1       ID2
     4.30665243E-05    2     1000002        -1   # BR(~chi_2+ -> ~u_L     db)
     3.57462040E-04    2    -1000001         2   # BR(~chi_2+ -> ~d_L*    u )
     4.30665231E-05    2     1000004        -3   # BR(~chi_2+ -> ~c_L     sb)
     3.57461872E-04    2    -1000003         4   # BR(~chi_2+ -> ~s_L*     c )
     4.73614396E-02    2     1000006        -5   # BR(~chi_2+ -> ~t_1     bb)
     1.74124242E-02    2     2000006        -5   # BR(~chi_2+ -> ~t_2     bb)
     7.55045541E-03    2    -1000005         6   # BR(~chi_2+ -> ~b_1*    t )
     8.95913732E-02    2    -2000005         6   # BR(~chi_2+ -> ~b_2*    t )
     3.96934745E-05    2     1000012       -11   # BR(~chi_2+ -> ~nu_eL   e+  )
     3.96934745E-05    2     1000014       -13   # BR(~chi_2+ -> ~nu_muL mu+ )
     1.76563707E-03    2     1000016       -15   # BR(~chi_2+ -> ~nu_tau1 tau+)
     3.29535644E-04    2    -1000011        12   # BR(~chi_2+ -> ~e_L+    nu_e)
     3.29535644E-04    2    -1000013        14   # BR(~chi_2+ -> ~mu_L+   nu_mu)
     2.65137136E-04    2    -1000015        16   # BR(~chi_2+ -> ~tau_1+  nu_tau)
     1.40975916E-03    2    -2000015        16   # BR(~chi_2+ -> ~tau_2+  nu_tau)
     2.52816201E-01    2     1000024        23   # BR(~chi_2+ -> ~chi_1+  Z )
     6.81355095E-02    2     1000022        24   # BR(~chi_2+ -> ~chi_10  W+)
     2.45291161E-01    2     1000023        24   # BR(~chi_2+ -> ~chi_20  W+)
     2.66190708E-01    2     1000024        25   # BR(~chi_2+ -> ~chi_1+  h )
     6.70679468E-04    2     1000022        37   # BR(~chi_2+ -> ~chi_10  H+)
#
#         PDG            Width
DECAY   1000022     0.00000000E+00   # neutralino1 decays
#
#         PDG            Width
DECAY   1000023     1.01800982E-06   # neutralino2 decays
#          BR         NDA      ID1       ID2
     6.09700172E-02    2     1000022        23   # BR(~chi_20 -> ~chi_10   Z )
     2.61583110E-01    2     1000022        25   # BR(~chi_20 -> ~chi_10   h )
     1.69361718E-01    2     2000011       -11   # BR(~chi_20 -> ~e_R-     e+)
     1.69361718E-01    2    -2000011        11   # BR(~chi_20 -> ~e_R+     e-)
     1.69361718E-01    2     2000013       -13   # BR(~chi_20 -> ~mu_R-    mu+)
     1.69361718E-01    2    -2000013        13   # BR(~chi_20 -> ~mu_R+    mu-)
#
#         PDG            Width
DECAY   1000025     3.11129894E+01   # neutralino3 decays
#          BR         NDA      ID1       ID2
     5.02617362E-02    2     1000022        23   # BR(~chi_30 -> ~chi_10   Z )
     2.14966677E-01    2     1000023        23   # BR(~chi_30 -> ~chi_20   Z )
     2.57910176E-01    2     1000024       -24   # BR(~chi_30 -> ~chi_1+   W-)
     2.57910176E-01    2    -1000024        24   # BR(~chi_30 -> ~chi_1-   W+)
     2.56612661E-02    2     1000022        25   # BR(~chi_30 -> ~chi_10   h )
     6.96007930E-04    2     1000022        35   # BR(~chi_30 -> ~chi_10   H )
     4.43334257E-06    2     1000022        36   # BR(~chi_30 -> ~chi_10   A )
     5.38103645E-02    2     1000023        25   # BR(~chi_30 -> ~chi_20   h )
     1.52173037E-05    2     1000002        -2   # BR(~chi_30 -> ~u_L      ub)
     1.52173037E-05    2    -1000002         2   # BR(~chi_30 -> ~u_L*     u )
     1.20647811E-05    2     2000002        -2   # BR(~chi_30 -> ~u_R      ub)
     1.20647811E-05    2    -2000002         2   # BR(~chi_30 -> ~u_R*     u )
     2.55902841E-05    2     1000001        -1   # BR(~chi_30 -> ~d_L      db)
     2.55902841E-05    2    -1000001         1   # BR(~chi_30 -> ~d_L*     d )
     4.19386640E-08    2     2000001        -1   # BR(~chi_30 -> ~d_R      db)
     4.19386640E-08    2    -2000001         1   # BR(~chi_30 -> ~d_R*     d )
     1.52172965E-05    2     1000004        -4   # BR(~chi_30 -> ~c_L      cb)
     1.52172965E-05    2    -1000004         4   # BR(~chi_30 -> ~c_L*     c )
     1.20647802E-05    2     2000004        -4   # BR(~chi_30 -> ~c_R      cb)
     1.20647802E-05    2    -2000004         4   # BR(~chi_30 -> ~c_R*     c )
     2.55902841E-05    2     1000003        -3   # BR(~chi_30 -> ~s _L      sb)
     2.55902841E-05    2    -1000003         3   # BR(~chi_30 -> ~s _L*     s )
     4.19386640E-08    2     2000003        -3   # BR(~chi_30 -> ~s _R      sb)
     4.19386640E-08    2    -2000003         3   # BR(~chi_30 -> ~s _R*     s )
     5.11097881E-02    2     1000006        -6   # BR(~chi_30 -> ~t_1      tb)
     5.11097881E-02    2    -1000006         6   # BR(~chi_30 -> ~t_1*     t )
     1.22256685E-02    2     2000006        -6   # BR(~chi_30 -> ~t_2      tb)
     1.22256685E-02    2    -2000006         6   # BR(~chi_30 -> ~t_2*     t )
     3.93002448E-03    2     1000005        -5   # BR(~chi_30 -> ~b_1      bb)
     3.93002448E-03    2    -1000005         5   # BR(~chi_30 -> ~b_1*     b )
     2.26876423E-04    2     2000005        -5   # BR(~chi_30 -> ~b_2      bb)
     2.26876423E-04    2    -2000005         5   # BR(~chi_30 -> ~b_2*     b )
     6.92240327E-06    2     1000011       -11   # BR(~chi_30 -> ~e_L-     e+)
     6.92240327E-06    2    -1000011        11   # BR(~chi_30 -> ~e_L+     e-)
     1.28774443E-05    2     2000011       -11   # BR(~chi_30 -> ~e_R-     e+)
     1.28774443E-05    2    -2000011        11   # BR(~chi_30 -> ~e_R+     e-)
     6.92240327E-06    2     1000013       -13   # BR(~chi_30 -> ~mu_L-    mu+)
     6.92240327E-06    2    -1000013        13   # BR(~chi_30 -> ~mu_L+    mu-)
     1.28774443E-05    2     2000013       -13   # BR(~chi_30 -> ~mu_R-    mu+)
     1.28774443E-05    2    -2000013        13   # BR(~chi_30 -> ~mu_R+    mu-)
     9.06524096E-04    2     1000015       -15   # BR(~chi_30 -> ~tau_1-   tau+)
     9.06524096E-04    2    -1000015        15   # BR(~chi_30 -> ~tau_1+   tau-)
     7.41384526E-04    2     2000015       -15   # BR(~chi_30 -> ~tau_2-   tau+)
     7.41384526E-04    2    -2000015        15   # BR(~chi_30 -> ~tau_2+   tau-)
     3.57108699E-05    2     1000012       -12   # BR(~chi_30 -> ~nu_eL    nu_eb)
     3.57108699E-05    2    -1000012        12   # BR(~chi_30 -> ~nu_eL*   nu_e )
     3.57108699E-05    2     1000014       -14   # BR(~chi_30 -> ~nu_muL   nu_mub)
     3.57108699E-05    2    -1000014        14   # BR(~chi_30 -> ~nu_muL*  nu_mu )
     3.24654566E-05    2     1000016       -16   # BR(~chi_30 -> ~nu_tau1  nu_taub)
     3.24654566E-05    2    -1000016        16   # BR(~chi_30 -> ~nu_tau1* nu_tau )
#
#         PDG            Width
DECAY   1000035     3.36969560E+01   # neutralino4 decays
#          BR         NDA      ID1       ID2
     2.20325150E-02    2     1000022        23   # BR(~chi_40 -> ~chi_10   Z )
     4.67940430E-02    2     1000023        23   # BR(~chi_40 -> ~chi_20   Z )
     2.38100251E-01    2     1000024       -24   # BR(~chi_40 -> ~chi_1+   W-)
     2.38100251E-01    2    -1000024        24   # BR(~chi_40 -> ~chi_1-   W+)
     4.82990924E-02    2     1000022        25   # BR(~chi_40 -> ~chi_10   h )
     4.40287458E-06    2     1000022        35   # BR(~chi_40 -> ~chi_10   H )
     6.72217484E-04    2     1000022        36   # BR(~chi_40 -> ~chi_10   A )
     2.08455009E-01    2     1000023        25   # BR(~chi_40 -> ~chi_20   h )
     6.50404584E-05    2     1000002        -2   # BR(~chi_40 -> ~u_L      ub)
     6.50404584E-05    2    -1000002         2   # BR(~chi_40 -> ~u_L*     u )
     2.34463014E-05    2     2000002        -2   # BR(~chi_40 -> ~u_R      ub)
     2.34463014E-05    2    -2000002         2   # BR(~chi_40 -> ~u_R*     u )
     9.36578064E-05    2     1000001        -1   # BR(~chi_40 -> ~d_L      db)
     9.36578064E-05    2    -1000001         1   # BR(~chi_40 -> ~d_L*     d )
     8.20735891E-08    2     2000001        -1   # BR(~chi_40 -> ~d_R      db)
     8.20735891E-08    2    -2000001         1   # BR(~chi_40 -> ~d_R*     d )
     6.50404278E-05    2     1000004        -4   # BR(~chi_40 -> ~c_L      cb)
     6.50404278E-05    2    -1000004         4   # BR(~chi_40 -> ~c_L*     c )
     2.34462997E-05    2     2000004        -4   # BR(~chi_40 -> ~c_R      cb)
     2.34462997E-05    2    -2000004         4   # BR(~chi_40 -> ~c_R*     c )
     9.36578064E-05    2     1000003        -3   # BR(~chi_40 -> ~s _L      sb)
     9.36578064E-05    2    -1000003         3   # BR(~chi_40 -> ~s _L*     s )
     8.20735891E-08    2     2000003        -3   # BR(~chi_40 -> ~s _R      sb)
     8.20735891E-08    2    -2000003         3   # BR(~chi_40 -> ~s _R*     s )
     9.12238424E-02    2     1000006        -6   # BR(~chi_40 -> ~t_1      tb)
     9.12238424E-02    2    -1000006         6   # BR(~chi_40 -> ~t_1*     t )
     1.31182576E-03    2     2000006        -6   # BR(~chi_40 -> ~t_2      tb)
     1.31182576E-03    2    -2000006         6   # BR(~chi_40 -> ~t_2*     t )
     3.62762244E-03    2     1000005        -5   # BR(~chi_40 -> ~b_1      bb)
     3.62762244E-03    2    -1000005         5   # BR(~chi_40 -> ~b_1*     b )
     2.17541004E-04    2     2000005        -5   # BR(~chi_40 -> ~b_2      bb)
     2.17541004E-04    2    -2000005         5   # BR(~chi_40 -> ~b_2*     b )
     3.82859739E-05    2     1000011       -11   # BR(~chi_40 -> ~e_L-     e+)
     3.82859739E-05    2    -1000011        11   # BR(~chi_40 -> ~e_L+     e-)
     2.50221615E-05    2     2000011       -11   # BR(~chi_40 -> ~e_R-     e+)
     2.50221615E-05    2    -2000011        11   # BR(~chi_40 -> ~e_R+     e-)
     3.82859739E-05    2     1000013       -13   # BR(~chi_40 -> ~mu_L-    mu+)
     3.82859739E-05    2    -1000013        13   # BR(~chi_40 -> ~mu_L+    mu-)
     2.50221615E-05    2     2000013       -13   # BR(~chi_40 -> ~mu_R-    mu+)
     2.50221615E-05    2    -2000013        13   # BR(~chi_40 -> ~mu_R+    mu-)
     8.58680464E-04    2     1000015       -15   # BR(~chi_40 -> ~tau_1-   tau+)
     8.58680464E-04    2    -1000015        15   # BR(~chi_40 -> ~tau_1+   tau-)
     6.97973479E-04    2     2000015       -15   # BR(~chi_40 -> ~tau_2-   tau+)
     6.97973479E-04    2    -2000015        15   # BR(~chi_40 -> ~tau_2+   tau-)
     1.17750098E-04    2     1000012       -12   # BR(~chi_40 -> ~nu_eL    nu_eb)
     1.17750098E-04    2    -1000012        12   # BR(~chi_40 -> ~nu_eL*   nu_e )
     1.17750098E-04    2     1000014       -14   # BR(~chi_40 -> ~nu_muL   nu_mub)
     1.17750098E-04    2    -1000014        14   # BR(~chi_40 -> ~nu_muL*  nu_mu )
     1.07053338E-04    2     1000016       -16   # BR(~chi_40 -> ~nu_tau1  nu_taub)
     1.07053338E-04    2    -1000016        16   # BR(~chi_40 -> ~nu_tau1* nu_tau )
#
#         PDG            Width
DECAY        25     4.23878768E-03   # h decays
#          BR         NDA      ID1       ID2
     5.97607284E-01    2           5        -5   # BR(h -> b       bb     )
     6.15653078E-02    2         -15        15   # BR(h -> tau+    tau-   )
     2.17912634E-04    2         -13        13   # BR(h -> mu+     mu-    )
     2.37606025E-04    2           3        -3   # BR(h -> s       sb     )
     2.05417718E-02    2           4        -4   # BR(h -> c       cb     )
     7.61632715E-02    2          21        21   # BR(h -> g       g      )
     2.26704686E-03    2          22        22   # BR(h -> gam     gam    )
     1.56014127E-03    2          22        23   # BR(h -> Z       gam    )
     2.13019405E-01    2          24       -24   # BR(h -> W+      W-     )
     2.68202527E-02    2          23        23   # BR(h -> Z       Z      )
#
#         PDG            Width
DECAY        35     9.47987244E+00   # H decays
#          BR         NDA      ID1       ID2
     6.63885553E-02    2           5        -5   # BR(H -> b       bb     )
     1.29844471E-02    2         -15        15   # BR(H -> tau+    tau-   )
     4.55066664E-05    2         -13        13   # BR(H -> mu+     mu-    )
     2.61039945E-05    2           3        -3   # BR(H -> s       sb     )
     9.23527698E-06    2           4        -4   # BR(H -> c       cb     )
     9.10653811E-01    2           6        -6   # BR(H -> t       tb     )
     4.12544861E-04    2          21        21   # BR(H -> g       g      )
     1.66857107E-06    2          22        22   # BR(H -> gam     gam    )
     6.51915741E-07    2          23        22   # BR(H -> Z       gam    )
     2.73845211E-04    2          24       -24   # BR(H -> W+      W-     )
     1.36674433E-04    2          23        23   # BR(H -> Z       Z      )
     9.41709103E-04    2          25        25   # BR(H -> h       h      )
     1.85169891E-03    2     1000024  -1000024   # BR(H -> ~chi_1+ ~chi_1-)
     9.00551834E-05    2     1000022   1000022   # BR(H -> ~chi_10 ~chi_10)
     9.25328674E-04    2     1000023   1000023   # BR(H -> ~chi_20 ~chi_20)
     6.00689371E-04    2     1000022   1000023   # BR(H -> ~chi_10 ~chi_20)
     2.03926475E-05    2     2000002  -2000002   # BR(H -> ~u_R    ~u_R*  )
     2.03926475E-05    2     2000004  -2000004   # BR(H -> ~c_R    ~c_R*  )
     2.92680435E-06    2     1000005  -1000005   # BR(H -> ~b_1    ~b_1*  )
     3.54033624E-05    2     1000011  -1000011   # BR(H -> ~e_L-   ~e_L+  )
     2.79902057E-05    2     2000011  -2000011   # BR(H -> ~e_R-   ~e_R+  )
     3.54033624E-05    2     1000013  -1000013   # BR(H -> ~mu_L-  ~mu_L+ )
     2.79902057E-05    2     2000013  -2000013   # BR(H -> ~mu_R-  ~mu_R+ )
     6.32719467E-05    2     1000015  -1000015   # BR(H -> ~tau_1- ~tau_1+)
     5.51054174E-07    2     2000015  -2000015   # BR(H -> ~tau_2- ~tau_2+)
     2.04796544E-03    2     1000015  -2000015   # BR(H -> ~tau_1- ~tau_2+)
     2.04796544E-03    2     2000015  -1000015   # BR(H -> ~tau_2- ~tau_1+)
     1.15525745E-04    2     1000012  -1000012   # BR(H -> ~nu_eL  ~nu_eL*   )
     1.15525745E-04    2     1000014  -1000014   # BR(H -> ~nu_muL ~nu_muL*  )
     9.61694063E-05    2     1000016  -1000016   # BR(H -> ~nu_tauL ~nu_tauL*)
#
#         PDG            Width
DECAY        36     9.50284826E+00   # A decays
#          BR         NDA      ID1       ID2
     6.63588809E-02    2           5        -5   # BR(A -> b       bb     )
     1.29549530E-02    2         -15        15   # BR(A -> tau+    tau-   )
     4.54032950E-05    2         -13        13   # BR(A -> mu+     mu-    )
     2.61554649E-05    2           3        -3   # BR(A -> s       sb     )
     9.26677362E-06    2           4        -4   # BR(A -> c       cb     )
     9.10669481E-01    2           6        -6   # BR(A -> t       tb     )
     5.69748149E-04    2          21        21   # BR(A -> g       g      )
     2.01903842E-06    2          22        22   # BR(A -> gam     gam    )
     7.97788179E-07    2          23        22   # BR(A -> Z       gam    )
     2.77020367E-04    2          23        25   # BR(A -> Z       h      )
     2.74835842E-03    2     1000024  -1000024   # BR(A -> ~chi_1+ ~chi_1-)
     1.10419422E-04    2     1000022   1000022   # BR(A -> ~chi_10 ~chi_10)
     1.37288117E-03    2     1000023   1000023   # BR(A -> ~chi_20 ~chi_20)
     7.49397010E-04    2     1000022   1000023   # BR(A -> ~chi_10 ~chi_20)
     2.05260913E-03    2     1000015  -2000015   # BR(A -> ~tau_1- ~tau_2+)
     2.05260913E-03    2    -1000015   2000015   # BR(A -> ~tau_1+ ~tau_2-)
#
#         PDG            Width
DECAY        37     9.28994418E+00   # H+ decays
#          BR         NDA      ID1       ID2
     1.07221320E-04    2           4        -5   # BR(H+ -> c       bb     )
     1.32563884E-02    2         -15        16   # BR(H+ -> tau+    nu_tau )
     4.64597371E-05    2         -13        14   # BR(H+ -> mu+     nu_mu  )
     1.07205946E-06    2           2        -5   # BR(H+ -> u       bb     )
     1.33572255E-06    2           2        -3   # BR(H+ -> u       sb     )
     3.53847046E-05    2           4        -3   # BR(H+ -> c       sb     )
     9.80268242E-01    2           6        -5   # BR(H+ -> t       bb     )
     2.83782825E-04    2          24        25   # BR(H+ -> W+      h      )
     4.09048252E-13    2          24        36   # BR(H+ -> W+      A      )
     1.37768862E-03    2     1000024   1000022   # BR(H+ -> ~chi_1+ ~chi_10)
     2.10744851E-10    2     1000024   1000023   # BR(H+ -> ~chi_1+ ~chi_20)
     1.41995302E-04    2    -1000011   1000012   # BR(H+ -> ~e_L+   ~nu_eL )
     1.41995302E-04    2    -1000013   1000014   # BR(H+ -> ~mu_L+  ~nu_muL)
     1.60702223E-04    2    -1000015   1000016   # BR(H+ -> ~tau_1+ ~nu_tauL)
     4.17773113E-03    2    -2000015   1000016   # BR(H+ -> ~tau_2+ ~nu_tauL)
