#
#                              ======================
#                              | THE SUSYHIT OUTPUT |
#                              ======================
#
#
#              ------------------------------------------------------
#              |     This is the output of the SUSY-HIT package     |
#              |  created by A.Djouadi, M.Muehlleitner and M.Spira. |
#              |  In case of problems with SUSY-HIT email to        |
#              |           margarete.muehlleitner@cern.ch           |
#              |           michael.spira@psi.ch                     |
#              |           abdelhak.djouadi@cern.ch                 |
#              ------------------------------------------------------
#
#              ------------------------------------------------------
#              |  SUSY Les Houches Accord - MSSM Spectrum + Decays  |
#              |              based on the decay programs           |
#              |                                                    |
#              |                     SDECAY 1.3b                    |
#              |                                                    |
#              |  Authors: M.Muhlleitner, A.Djouadi and Y.Mambrini  |
#              |  Ref.:    Comput.Phys.Commun.168(2005)46           |
#              |           [hep-ph/0311167]                         |
#              |                                                    |
#              |                     HDECAY 3.4                     |
#              |                                                    |
#              |  By: A.Djouadi,J.Kalinowski,M.Muhlleitner,M.Spira  |
#              |  Ref.:    Comput.Phys.Commun.108(1998)56           |
#              |           [hep-ph/9704448]                         |
#              |                                                    |
#              |                                                    |
#              |  If not stated otherwise all DRbar couplings and   |
#              |  soft SUSY breaking masses are given at the scale  |
#              |  Q=  0.19527760E+04
#              |                                                    |
#              ------------------------------------------------------
#
#
BLOCK DCINFO  # Decay Program information
     1   SDECAY/HDECAY # decay calculator
     2   1.3b  /3.4    # version number
#
BLOCK SPINFO  # Spectrum calculator information
     1     SOFTSUSY    # spectrum calculator               
     2     3.4.0       # version number                    
#
BLOCK MODSEL  # Model selection
     1     0   #  nonUniversal                                     
#
BLOCK SMINPUTS  # Standard Model inputs
         1     1.27908970E+02   # alpha_em^-1(M_Z)^MSbar
         2     1.16637870E-05   # G_F [GeV^-2]
         3     1.18400000E-01   # alpha_S(M_Z)^MSbar
         4     9.11876000E+01   # M_Z pole mass
         5     4.18000000E+00   # mb(mb)^MSbar
         6     1.73200000E+02   # mt pole mass
         7     1.77700000E+00   # mtau pole mass
#
BLOCK MINPAR  # Input parameters - minimal models
         3     4.50000000E+00   # tanb                
#
BLOCK EXTPAR  # Input parameters - non-minimal models
         0    -1.00000000E+00   # Set                 
         1     1.72540000E+02   # M_1(MX)             
         2    -1.69256000E+03   # M_2(MX)             
         3     3.58991000E+03   # M_3(MX)             
        11    -4.29741000E+03   # At(MX)              
        12    -2.54071000E+03   # Ab(MX)              
        13    -2.85680000E+03   # Atau(MX)            
        23     2.03748000E+03   # mu(MX)              
        26     3.80057000E+03   # mA(pole)            
        31     1.65157000E+03   # meL(MX)             
        32     1.65157000E+03   # mmuL(MX)            
        33     1.60984000E+03   # mtauL(MX)           
        34     1.94502000E+03   # meR(MX)             
        35     1.94502000E+03   # mmuR(MX)            
        36     1.60306000E+03   # mtauR(MX)           
        41     3.39318000E+03   # mqL1(MX)            
        42     3.39318000E+03   # mqL2(MX)            
        43     1.76355000E+03   # mqL3(MX)            
        44     3.76065000E+03   # muR(MX)             
        45     3.76065000E+03   # mcR(MX)             
        46     2.18526000E+03   # mtR(MX)             
        47     3.95434000E+03   # mdR(MX)             
        48     3.95434000E+03   # msR(MX)             
        49     3.43140000E+02   # mbR(MX)             
#
BLOCK MASS  # Mass Spectrum
# PDG code           mass       particle
        24     8.03887114E+01   # W+
        25     1.24306809E+02   # h
        35     3.80081506E+03   # H
        36     3.80056998E+03   # A
        37     3.80180863E+03   # H+
         5     4.81876030E+00   # b-quark pole mass calculated from mb(mb)_Msbar
   1000001     3.45008779E+03   # ~d_L
   2000001     3.99654032E+03   # ~d_R
   1000002     3.44941829E+03   # ~u_L
   2000002     3.80776681E+03   # ~u_R
   1000003     3.45008779E+03   # ~s_L
   2000003     3.99654032E+03   # ~s_R
   1000004     3.44941829E+03   # ~c_L
   2000004     3.80776681E+03   # ~c_R
   1000005     1.85224737E+02   # ~b_1
   2000005     1.77917686E+03   # ~b_2
   1000006     1.70500559E+03   # ~t_1
   2000006     2.19002202E+03   # ~t_2
   1000011     1.66731582E+03   # ~e_L
   2000011     1.94617131E+03   # ~e_R
   1000012     1.66537165E+03   # ~nu_eL
   1000013     1.66731582E+03   # ~mu_L
   2000013     1.94617131E+03   # ~mu_R
   1000014     1.66537165E+03   # ~nu_muL
   1000015     1.60209138E+03   # ~tau_1
   2000015     1.62764127E+03   # ~tau_2
   1000016     1.62391953E+03   # ~nu_tauL
   1000021     3.65061413E+03   # ~g
   1000022     1.70436197E+02   # ~chi_10
   1000023    -1.72989945E+03   # ~chi_20
   1000025     2.06511635E+03   # ~chi_30
   1000035    -2.06953123E+03   # ~chi_40
   1000024     1.73007097E+03   # ~chi_1+
   1000037     2.07021489E+03   # ~chi_2+
#
BLOCK NMIX  # Neutralino Mixing Matrix
  1  1     9.99748335E-01   # N_11
  1  2     5.03134624E-04   # N_12
  1  3     2.13919289E-02   # N_13
  1  4    -6.73791250E-03   # N_14
  2  1     1.04264584E-03   # N_21
  2  2     9.93172584E-01   # N_22
  2  3    -9.38903969E-02   # N_23
  2  4    -6.92222905E-02   # N_24
  3  1    -1.98954638E-02   # N_31
  3  2     1.75532355E-02   # N_32
  3  3     7.06709500E-01   # N_33
  3  4    -7.07006179E-01   # N_34
  4  1    -1.03126448E-02   # N_41
  4  2     1.15324976E-01   # N_42
  4  3     7.00919868E-01   # N_43
  4  4     7.03779183E-01   # N_44
#
BLOCK UMIX  # Chargino Mixing Matrix U
  1  1     9.90926054E-01   # U_11
  1  2    -1.34408171E-01   # U_12
  2  1     1.34408171E-01   # U_21
  2  2     9.90926054E-01   # U_22
#
BLOCK VMIX  # Chargino Mixing Matrix V
  1  1    -9.95043243E-01   # V_11
  1  2    -9.94431682E-02   # V_12
  2  1    -9.94431682E-02   # V_21
  2  2     9.95043243E-01   # V_22
#
BLOCK STOPMIX  # Stop Mixing Matrix
  1  1     9.27015514E-01   # cos(theta_t)
  1  2     3.75022982E-01   # sin(theta_t)
  2  1    -3.75022982E-01   # -sin(theta_t)
  2  2     9.27015514E-01   # cos(theta_t)
#
BLOCK SBOTMIX  # Sbottom Mixing Matrix
  1  1     8.44434257E-03   # cos(theta_b)
  1  2     9.99964346E-01   # sin(theta_b)
  2  1    -9.99964346E-01   # -sin(theta_b)
  2  2     8.44434257E-03   # cos(theta_b)
#
BLOCK STAUMIX  # Stau Mixing Matrix
  1  1     2.57014653E-01   # cos(theta_tau)
  1  2     9.66407506E-01   # sin(theta_tau)
  2  1    -9.66407506E-01   # -sin(theta_tau)
  2  2     2.57014653E-01   # cos(theta_tau)
#
BLOCK ALPHA  # Higgs mixing
          -2.28593367E-01   # Mixing angle in the neutral Higgs boson sector
#
BLOCK HMIX Q=  1.95277600E+03  # DRbar Higgs Parameters
         1     2.06103029E+03   # mu(Q)MSSM           
         2     4.30507233E+00   # tan                 
         3     2.43058126E+02   # higgs               
         4     1.44163808E+07   # mA^2(Q)MSSM         
#
BLOCK GAUGE Q=  1.95277600E+03  # The gauge couplings
     1     3.63349764E-01   # gprime(Q) DRbar
     2     6.35564185E-01   # g(Q) DRbar
     3     1.01536120E+00   # g3(Q) DRbar
#
BLOCK AU Q=  1.95277600E+03  # The trilinear couplings
  1  1     0.00000000E+00   # A_u(Q) DRbar
  2  2     0.00000000E+00   # A_c(Q) DRbar
  3  3    -4.29740999E+03   # A_t(Q) DRbar
#
BLOCK AD Q=  1.95277600E+03  # The trilinear couplings
  1  1     0.00000000E+00   # A_d(Q) DRbar
  2  2     0.00000000E+00   # A_s(Q) DRbar
  3  3    -2.54071000E+03   # A_b(Q) DRbar
#
BLOCK AE Q=  1.95277600E+03  # The trilinear couplings
  1  1     0.00000000E+00   # A_e(Q) DRbar
  2  2     0.00000000E+00   # A_mu(Q) DRbar
  3  3    -2.85680000E+03   # A_tau(Q) DRbar
#
BLOCK Yu Q=  1.95277600E+03  # The Yukawa couplings
  1  1     0.00000000E+00   # y_u(Q) DRbar
  2  2     0.00000000E+00   # y_c(Q) DRbar
  3  3     8.40702722E-01   # y_t(Q) DRbar
#
BLOCK Yd Q=  1.95277600E+03  # The Yukawa couplings
  1  1     0.00000000E+00   # y_d(Q) DRbar
  2  2     0.00000000E+00   # y_s(Q) DRbar
  3  3     5.73446561E-02   # y_b(Q) DRbar
#
BLOCK Ye Q=  1.95277600E+03  # The Yukawa couplings
  1  1     0.00000000E+00   # y_e(Q) DRbar
  2  2     0.00000000E+00   # y_mu(Q) DRbar
  3  3     4.47494204E-02   # y_tau(Q) DRbar
#
BLOCK MSOFT Q=  1.95277600E+03  # The soft SUSY breaking masses at the scale Q
         1     1.72540000E+02   # M_1(Q)              
         2    -1.69256000E+03   # M_2(Q)              
         3     3.58991000E+03   # M_3(Q)              
        21     9.40455281E+06   # mH1^2(Q)            
        22    -3.46522420E+06   # mH2^2(Q)            
        31     1.65157000E+03   # meL(Q)              
        32     1.65157000E+03   # mmuL(Q)             
        33     1.60984000E+03   # mtauL(Q)            
        34     1.94502000E+03   # meR(Q)              
        35     1.94502000E+03   # mmuR(Q)             
        36     1.60306000E+03   # mtauR(Q)            
        41     3.39317999E+03   # mqL1(Q)             
        42     3.39317999E+03   # mqL2(Q)             
        43     1.76354998E+03   # mqL3(Q)             
        44     3.76065000E+03   # muR(Q)              
        45     3.76065000E+03   # mcR(Q)              
        46     2.18525997E+03   # mtR(Q)              
        47     3.95434000E+03   # mdR(Q)              
        48     3.95434000E+03   # msR(Q)              
        49     3.43139949E+02   # mbR(Q)              
#
Block HiggsBoundsInputHiggsCouplingsFermions
# ScalarNormEffCoupSq PseudoSNormEffCoupSq NP   IP1 IP2 IP2
    1.00307338E+00    0.00000000E+00        3  25   5   5  # h0-b-b eff. coupling^2, normalised to SM
    1.85305744E+01    0.00000000E+00        3  35   5   5  # H0-b-b eff. coupling^2, normalised to SM
    0.00000000E+00    1.85336478E+01        3  36   5   5  # A0-b-b eff. coupling^2, normalised to SM
#
    9.99834173E-01    0.00000000E+00        3  25   6   6  # h0-t-t eff. coupling^2, normalised to SM
    5.41217462E-02    0.00000000E+00        3  35   6   6  # H0-t-t eff. coupling^2, normalised to SM
    0.00000000E+00    5.39559191E-02        3  36   6   6  # A0-t-t eff. coupling^2, normalised to SM
#
    1.00307338E+00    0.00000000E+00        3  25  15  15  # h0-tau-tau eff. coupling^2, normalised to SM
    1.85305744E+01    0.00000000E+00        3  35  15  15  # H0-tau-tau eff. coupling^2, normalised to SM
    0.00000000E+00    1.85336478E+01        3  36  15  15  # A0-tau-tau eff. coupling^2, normalised to SM
#
Block HiggsBoundsInputHiggsCouplingsBosons
    9.99999873E-01        3  25  24  24  # h0-W-W eff. coupling^2, normalised to SM
    1.27227560E-07        3  35  24  24  # H0-W-W eff. coupling^2, normalised to SM
    0.00000000E+00        3  36  24  24  # A0-W-W eff. coupling^2, normalised to SM
#
    9.99999873E-01        3  25  23  23  # h0-Z-Z eff. coupling^2, normalised to SM
    1.27227560E-07        3  35  23  23  # H0-Z-Z eff. coupling^2, normalised to SM
    0.00000000E+00        3  36  23  23  # A0-Z-Z eff. coupling^2, normalised to SM
#
    8.72303885E-01        3  25  21  21  # h0-g-g eff. coupling^2, normalised to SM
    1.04362796E-11        3  35  21  21  # H0-g-g eff. coupling^2, normalised to SM
    4.42999763E-12        3  36  21  21  # A0-g-g eff. coupling^2, normalised to SM
#
    0.00000000E+00        3  25  25  23  # h0-h0-Z eff. coupling^2, normalised to SM
    0.00000000E+00        3  35  25  23  # H0-h0-Z eff. coupling^2, normalised to SM
    1.27227560E-07        3  36  25  23  # A0-h0-Z eff. coupling^2, normalised to SM
    0.00000000E+00        3  35  35  23  # H0-H0-Z eff. coupling^2, normalised to SM
    9.99999873E-01        3  36  35  23  # A0-H0-Z eff. coupling^2, normalised to SM
    0.00000000E+00        3  36  36  23  # A0-A0-Z eff. coupling^2, normalised to SM
#
    0.00000000E+00        4  25  21  21  23  # h0-g-g-Z eff. coupling^2, normalised to SM
    0.00000000E+00        4  35  21  21  23  # H0-g-g-Z eff. coupling^2, normalised to SM
    0.00000000E+00        4  36  21  21  23  # A0-g-g-Z eff. coupling^2, normalised to SM
#
#
#
#                             =================
#                             |The decay table|
#                             =================
#
# - The QCD corrections to the decays gluino -> squark  + quark
#                                     squark -> gaugino + quark_prime
#                                     squark -> squark_prime + Higgs
#                                     squark -> gluino  + quark
#   are included.
#
# - The multi-body decays for the inos, stops and sbottoms are included.
#
# - The loop induced decays for the gluino, neutralinos and stops
#   are included.
#
# - The SUSY decays of the top quark are included.
#
#
#         PDG            Width
DECAY         6     1.42267593E+00   # top decays
#          BR         NDA      ID1       ID2
     1.00000000E+00    2           5        24   # BR(t ->  b    W+)
#
#         PDG            Width
DECAY   1000021     1.78320311E+02   # gluino decays
#          BR         NDA      ID1       ID2
     2.49188969E-03    2     1000001        -1   # BR(~g -> ~d_L  db)
     2.49188969E-03    2    -1000001         1   # BR(~g -> ~d_L* d )
     2.50808386E-03    2     1000002        -2   # BR(~g -> ~u_L  ub)
     2.50808386E-03    2    -1000002         2   # BR(~g -> ~u_L* u )
     2.49188969E-03    2     1000003        -3   # BR(~g -> ~s_L  sb)
     2.49188969E-03    2    -1000003         3   # BR(~g -> ~s_L* s )
     2.50801184E-03    2     1000004        -4   # BR(~g -> ~c_L  cb)
     2.50801184E-03    2    -1000004         4   # BR(~g -> ~c_L* c )
     1.87178509E-01    2     1000005        -5   # BR(~g -> ~b_1  bb)
     1.87178509E-01    2    -1000005         5   # BR(~g -> ~b_1* b )
     1.10524551E-01    2     2000005        -5   # BR(~g -> ~b_2  bb)
     1.10524551E-01    2    -2000005         5   # BR(~g -> ~b_2* b )
     1.07406051E-01    2     1000006        -6   # BR(~g -> ~t_1  tb)
     1.07406051E-01    2    -1000006         6   # BR(~g -> ~t_1* t )
     8.48910135E-02    2     2000006        -6   # BR(~g -> ~t_2  tb)
     8.48910135E-02    2    -2000006         6   # BR(~g -> ~t_2* t )
#
#         PDG            Width
DECAY   1000006     9.71991489E-01   # stop1 decays
#          BR         NDA      ID1       ID2
     8.13801053E-01    2     1000022         6   # BR(~t_1 -> ~chi_10 t )
     1.86198947E-01    2     1000005        24   # BR(~t_1 -> ~b_1    W+)
#
#         PDG            Width
DECAY   2000006     7.66685321E+01   # stop2 decays
#          BR         NDA      ID1       ID2
     5.57442690E-02    2     1000022         6   # BR(~t_2 -> ~chi_10 t )
     3.38307242E-03    2     1000023         6   # BR(~t_2 -> ~chi_20 t )
     0.00000000E+00    2     1000025         6   # BR(~t_2 -> ~chi_30 t )
     7.95381412E-03    2     1000024         5   # BR(~t_2 -> ~chi_1+ b )
     3.64517771E-03    2     1000037         5   # BR(~t_2 -> ~chi_2+ b )
     1.77544378E-01    2     1000006        25   # BR(~t_2 -> ~t_1    h )
     3.07087590E-01    2     1000006        23   # BR(~t_2 -> ~t_1    Z )
     8.32638358E-04    2     1000005        24   # BR(~t_2 -> ~b_1    W+)
     4.43809060E-01    2     2000005        24   # BR(~t_2 -> ~b_2    W+)
#
#         PDG            Width
DECAY   1000005     2.37360127E-03   # sbottom1 decays
#          BR         NDA      ID1       ID2
     1.00000000E+00    2     1000022         5   # BR(~b_1 -> ~chi_10 b )
#
#         PDG            Width
DECAY   2000005     5.18195985E-01   # sbottom2 decays
#          BR         NDA      ID1       ID2
     4.88844382E-01    2     1000022         5   # BR(~b_2 -> ~chi_10 b )
     4.04792802E-02    2     1000023         5   # BR(~b_2 -> ~chi_20 b )
     2.32191878E-01    2     1000005        25   # BR(~b_2 -> ~b_1    h )
     2.38484460E-01    2     1000005        23   # BR(~b_2 -> ~b_1    Z )
#
#         PDG            Width
DECAY   1000002     2.32013013E+01   # sup_L decays
#          BR         NDA      ID1       ID2
     2.10528999E-02    2     1000022         2   # BR(~u_L -> ~chi_10 u)
     3.22993177E-01    2     1000023         2   # BR(~u_L -> ~chi_20 u)
     4.56907528E-05    2     1000025         2   # BR(~u_L -> ~chi_30 u)
     3.08557551E-03    2     1000035         2   # BR(~u_L -> ~chi_40 u)
     6.48077188E-01    2     1000024         1   # BR(~u_L -> ~chi_1+ d)
     4.74546871E-03    2     1000037         1   # BR(~u_L -> ~chi_2+ d)
#
#         PDG            Width
DECAY   2000002     1.04409743E+01   # sup_R decays
#          BR         NDA      ID1       ID2
     8.08261069E-01    2     1000022         2   # BR(~u_R -> ~chi_10 u)
     5.60222228E-07    2     1000023         2   # BR(~u_R -> ~chi_20 u)
     1.61793479E-04    2     1000025         2   # BR(~u_R -> ~chi_30 u)
     4.33171960E-05    2     1000035         2   # BR(~u_R -> ~chi_40 u)
     1.91533260E-01    2     1000021         2   # BR(~u_R -> ~g      u)
#
#         PDG            Width
DECAY   1000001     2.31734519E+01   # sdown_L decays
#          BR         NDA      ID1       ID2
     2.08602841E-02    2     1000022         1   # BR(~d_L -> ~chi_10 d)
     3.23261454E-01    2     1000023         1   # BR(~d_L -> ~chi_20 d)
     1.10111898E-04    2     1000025         1   # BR(~d_L -> ~chi_30 d)
     3.30921991E-03    2     1000035         1   # BR(~d_L -> ~chi_40 d)
     6.43774039E-01    2    -1000024         2   # BR(~d_L -> ~chi_1- u)
     8.68489087E-03    2    -1000037         2   # BR(~d_L -> ~chi_2- u)
#
#         PDG            Width
DECAY   2000001     1.10201036E+01   # sdown_R decays
#          BR         NDA      ID1       ID2
     2.00493936E-01    2     1000022         1   # BR(~d_R -> ~chi_10 d)
     1.45665804E-07    2     1000023         1   # BR(~d_R -> ~chi_20 d)
     4.32549182E-05    2     1000025         1   # BR(~d_R -> ~chi_30 d)
     1.15858591E-05    2     1000035         1   # BR(~d_R -> ~chi_40 d)
     7.99451078E-01    2     1000021         1   # BR(~d_R -> ~g      d)
#
#         PDG            Width
DECAY   1000004     2.37262347E+01   # scharm_L decays
#          BR         NDA      ID1       ID2
     2.12115949E-02    2     1000022         4   # BR(~c_L -> ~chi_10 c)
     3.22949357E-01    2     1000023         4   # BR(~c_L -> ~chi_20 c)
     4.55391551E-05    2     1000025         4   # BR(~c_L -> ~chi_30 c)
     3.07517435E-03    2     1000035         4   # BR(~c_L -> ~chi_40 c)
     6.47988897E-01    2     1000024         3   # BR(~c_L -> ~chi_1+ s)
     4.72943779E-03    2     1000037         3   # BR(~c_L -> ~chi_2+ s)
#
#         PDG            Width
DECAY   2000004     1.02130435E+01   # scharm_R decays
#          BR         NDA      ID1       ID2
     8.66526633E-01    2     1000022         4   # BR(~c_R -> ~chi_10 c)
     5.95969257E-07    2     1000023         4   # BR(~c_R -> ~chi_20 c)
     1.71669208E-04    2     1000025         4   # BR(~c_R -> ~chi_30 c)
     4.59593411E-05    2     1000035         4   # BR(~c_R -> ~chi_40 c)
     1.33255143E-01    2     1000021         4   # BR(~c_R -> ~g      c)
#
#         PDG            Width
DECAY   1000003     2.36979976E+01   # sstrange_L decays
#          BR         NDA      ID1       ID2
     2.10178406E-02    2     1000022         3   # BR(~s_L -> ~chi_10 s)
     3.23222756E-01    2     1000023         3   # BR(~s_L -> ~chi_20 s)
     1.09748533E-04    2     1000025         3   # BR(~s_L -> ~chi_30 s)
     3.29812439E-03    2     1000035         3   # BR(~s_L -> ~chi_40 s)
     6.43695837E-01    2    -1000024         4   # BR(~s_L -> ~chi_1- c)
     8.65569354E-03    2    -1000037         4   # BR(~s_L -> ~chi_2- c)
#
#         PDG            Width
DECAY   2000003     8.31953978E+00   # sstrange_R decays
#          BR         NDA      ID1       ID2
     2.79223876E-01    2     1000022         3   # BR(~s_R -> ~chi_10 s)
     2.01290812E-07    2     1000023         3   # BR(~s_R -> ~chi_20 s)
     5.96295505E-05    2     1000025         3   # BR(~s_R -> ~chi_30 s)
     1.59712240E-05    2     1000035         3   # BR(~s_R -> ~chi_40 s)
     7.20700322E-01    2     1000021         3   # BR(~s_R -> ~g      s)
#
#         PDG            Width
DECAY   1000011     2.14678982E+00   # selectron_L decays
#          BR         NDA      ID1       ID2
     1.00000000E+00    2     1000022        11   # BR(~e_L -> ~chi_10 e-)
#
#         PDG            Width
DECAY   2000011     1.00620191E+01   # selectron_R decays
#          BR         NDA      ID1       ID2
     9.99999951E-01    2     1000022        11   # BR(~e_R -> ~chi_10 e-)
     4.86656979E-08    2     1000023        11   # BR(~e_R -> ~chi_20 e-)
#
#         PDG            Width
DECAY   1000013     2.14678980E+00   # smuon_L decays
#          BR         NDA      ID1       ID2
     1.00000000E+00    2     1000022        13   # BR(~mu_L -> ~chi_10 mu-)
#
#         PDG            Width
DECAY   2000013     1.00620190E+01   # smuon_R decays
#          BR         NDA      ID1       ID2
     9.99999951E-01    2     1000022        13   # BR(~mu_R -> ~chi_10 mu-)
     4.86656917E-08    2     1000023        13   # BR(~mu_R -> ~chi_20 mu-)
#
#         PDG            Width
DECAY   1000015     7.81946065E+00   # stau_1 decays
#          BR         NDA      ID1       ID2
     1.00000000E+00    2     1000022        15   # BR(~tau_1 -> ~chi_10  tau-)
#
#         PDG            Width
DECAY   2000015     2.50310223E+00   # stau_2 decays
#          BR         NDA      ID1       ID2
     1.00000000E+00    2     1000022        15   # BR(~tau_2 -> ~chi_10  tau-)
#
#         PDG            Width
DECAY   1000012     2.13664400E+00   # snu_eL decays
#          BR         NDA      ID1       ID2
     1.00000000E+00    2     1000022        12   # BR(~nu_eL -> ~chi_10 nu_e)
#
#         PDG            Width
DECAY   1000014     2.13664400E+00   # snu_muL decays
#          BR         NDA      ID1       ID2
     1.00000000E+00    2     1000022        14   # BR(~nu_muL -> ~chi_10 nu_mu)
#
#         PDG            Width
DECAY   1000016     2.08118185E+00   # snu_tauL decays
#          BR         NDA      ID1       ID2
     1.00000000E+00    2     1000022        16   # BR(~nu_tauL -> ~chi_10 nu_tau)
#
#         PDG            Width
DECAY   1000024     3.66274976E-01   # chargino1+ decays
#          BR         NDA      ID1       ID2
     3.50849953E-02    2     1000006        -5   # BR(~chi_1+ -> ~t_1     bb)
     2.39382322E-02    2    -1000005         6   # BR(~chi_1+ -> ~b_1*    t )
     1.01226940E-01    2     1000012       -11   # BR(~chi_1+ -> ~nu_eL   e+  )
     1.01226940E-01    2     1000014       -13   # BR(~chi_1+ -> ~nu_muL  mu+ )
     2.65777896E-01    2     1000016       -15   # BR(~chi_1+ -> ~nu_tau1 tau+)
     9.45564595E-02    2    -1000011        12   # BR(~chi_1+ -> ~e_L+    nu_e)
     9.45564595E-02    2    -1000013        14   # BR(~chi_1+ -> ~mu_L+   nu_mu)
     2.68161228E-02    2    -1000015        16   # BR(~chi_1+ -> ~tau_1+  nu_tau)
     2.28640366E-01    2    -2000015        16   # BR(~chi_1+ -> ~tau_2+  nu_tau)
     2.81755880E-02    2     1000022        24   # BR(~chi_1+ -> ~chi_10  W+)
#
#         PDG            Width
DECAY   1000037     7.72046223E+00   # chargino2+ decays
#          BR         NDA      ID1       ID2
     1.17550966E-01    2     1000006        -5   # BR(~chi_2+ -> ~t_1     bb)
     2.62168672E-02    2    -1000005         6   # BR(~chi_2+ -> ~b_1*    t )
     2.78337026E-01    2    -2000005         6   # BR(~chi_2+ -> ~b_2*    t )
     1.32669376E-03    2     1000012       -11   # BR(~chi_2+ -> ~nu_eL   e+  )
     1.32669376E-03    2     1000014       -13   # BR(~chi_2+ -> ~nu_muL mu+ )
     2.36269667E-03    2     1000016       -15   # BR(~chi_2+ -> ~nu_tau1 tau+)
     2.40293933E-03    2    -1000011        12   # BR(~chi_2+ -> ~e_L+    nu_e)
     2.40293933E-03    2    -1000013        14   # BR(~chi_2+ -> ~mu_L+   nu_mu)
     1.87426228E-04    2    -1000015        16   # BR(~chi_2+ -> ~tau_1+  nu_tau)
     3.43317737E-03    2    -2000015        16   # BR(~chi_2+ -> ~tau_2+  nu_tau)
     1.25133951E-01    2     1000024        23   # BR(~chi_2+ -> ~chi_1+  Z )
     1.74049781E-01    2     1000022        24   # BR(~chi_2+ -> ~chi_10  W+)
     1.28278178E-01    2     1000023        24   # BR(~chi_2+ -> ~chi_20  W+)
     1.36990665E-01    2     1000024        25   # BR(~chi_2+ -> ~chi_1+  h )
#
#         PDG            Width
DECAY   1000022     0.00000000E+00   # neutralino1 decays
#
#         PDG            Width
DECAY   1000023     3.52025963E-01   # neutralino2 decays
#          BR         NDA      ID1       ID2
     2.79960398E-02    2     1000022        23   # BR(~chi_20 -> ~chi_10   Z )
     1.77294162E-03    2     1000022        25   # BR(~chi_20 -> ~chi_10   h )
     1.20079857E-02    2     1000005        -5   # BR(~chi_20 -> ~b_1      bb)
     1.20079857E-02    2    -1000005         5   # BR(~chi_20 -> ~b_1*     b )
     4.92141441E-02    2     1000011       -11   # BR(~chi_20 -> ~e_L-     e+)
     4.92141441E-02    2    -1000011        11   # BR(~chi_20 -> ~e_L+     e-)
     4.92141441E-02    2     1000013       -13   # BR(~chi_20 -> ~mu_L-    mu+)
     4.92141441E-02    2    -1000013        13   # BR(~chi_20 -> ~mu_L+    mu-)
     1.39787428E-02    2     1000015       -15   # BR(~chi_20 -> ~tau_1-   tau+)
     1.39787428E-02    2    -1000015        15   # BR(~chi_20 -> ~tau_1+   tau-)
     1.19215760E-01    2     2000015       -15   # BR(~chi_20 -> ~tau_2-   tau+)
     1.19215760E-01    2    -2000015        15   # BR(~chi_20 -> ~tau_2+   tau-)
     5.21341531E-02    2     1000012       -12   # BR(~chi_20 -> ~nu_eL    nu_eb)
     5.21341531E-02    2    -1000012        12   # BR(~chi_20 -> ~nu_eL*   nu_e )
     5.21341531E-02    2     1000014       -14   # BR(~chi_20 -> ~nu_muL   nu_mub)
     5.21341531E-02    2    -1000014        14   # BR(~chi_20 -> ~nu_muL*  nu_mu )
     1.37216426E-01    2     1000016       -16   # BR(~chi_20 -> ~nu_tau1  nu_taub)
     1.37216426E-01    2    -1000016        16   # BR(~chi_20 -> ~nu_tau1* nu_tau )
#
#         PDG            Width
DECAY   1000025     9.68745870E+00   # neutralino3 decays
#          BR         NDA      ID1       ID2
     3.06408157E-02    2     1000022        23   # BR(~chi_30 -> ~chi_10   Z )
     9.17097987E-02    2     1000023        23   # BR(~chi_30 -> ~chi_20   Z )
     9.62676626E-02    2     1000024       -24   # BR(~chi_30 -> ~chi_1+   W-)
     9.62676626E-02    2    -1000024        24   # BR(~chi_30 -> ~chi_1-   W+)
     1.16146887E-01    2     1000022        25   # BR(~chi_30 -> ~chi_10   h )
     1.91869941E-03    2     1000023        25   # BR(~chi_30 -> ~chi_20   h )
     2.71684177E-01    2     1000006        -6   # BR(~chi_30 -> ~t_1      tb)
     2.71684177E-01    2    -1000006         6   # BR(~chi_30 -> ~t_1*     t )
     1.02900843E-02    2     1000005        -5   # BR(~chi_30 -> ~b_1      bb)
     1.02900843E-02    2    -1000005         5   # BR(~chi_30 -> ~b_1*     b )
     7.30500327E-04    2     2000005        -5   # BR(~chi_30 -> ~b_2      bb)
     7.30500327E-04    2    -2000005         5   # BR(~chi_30 -> ~b_2*     b )
     1.98201242E-06    2     1000011       -11   # BR(~chi_30 -> ~e_L-     e+)
     1.98201242E-06    2    -1000011        11   # BR(~chi_30 -> ~e_L+     e-)
     2.77399002E-06    2     2000011       -11   # BR(~chi_30 -> ~e_R-     e+)
     2.77399002E-06    2    -2000011        11   # BR(~chi_30 -> ~e_R+     e-)
     1.98201242E-06    2     1000013       -13   # BR(~chi_30 -> ~mu_L-    mu+)
     1.98201242E-06    2    -1000013        13   # BR(~chi_30 -> ~mu_L+    mu-)
     2.77399002E-06    2     2000013       -13   # BR(~chi_30 -> ~mu_R-    mu+)
     2.77399002E-06    2    -2000013        13   # BR(~chi_30 -> ~mu_R+    mu-)
     3.00372896E-04    2     1000015       -15   # BR(~chi_30 -> ~tau_1-   tau+)
     3.00372896E-04    2    -1000015        15   # BR(~chi_30 -> ~tau_1+   tau-)
     3.69754888E-04    2     2000015       -15   # BR(~chi_30 -> ~tau_2-   tau+)
     3.69754888E-04    2    -2000015        15   # BR(~chi_30 -> ~tau_2+   tau-)
     4.38188620E-05    2     1000012       -12   # BR(~chi_30 -> ~nu_eL    nu_eb)
     4.38188620E-05    2    -1000012        12   # BR(~chi_30 -> ~nu_eL*   nu_e )
     4.38188620E-05    2     1000014       -14   # BR(~chi_30 -> ~nu_muL   nu_mub)
     4.38188620E-05    2    -1000014        14   # BR(~chi_30 -> ~nu_muL*  nu_mu )
     5.21981218E-05    2     1000016       -16   # BR(~chi_30 -> ~nu_tau1  nu_taub)
     5.21981218E-05    2    -1000016        16   # BR(~chi_30 -> ~nu_tau1* nu_tau )
#
#         PDG            Width
DECAY   1000035     7.17669848E+00   # neutralino4 decays
#          BR         NDA      ID1       ID2
     1.50956678E-01    2     1000022        23   # BR(~chi_40 -> ~chi_10   Z )
     3.48379817E-03    2     1000023        23   # BR(~chi_40 -> ~chi_20   Z )
     1.26235282E-01    2     1000024       -24   # BR(~chi_40 -> ~chi_1+   W-)
     1.26235282E-01    2    -1000024        24   # BR(~chi_40 -> ~chi_1-   W+)
     4.38752455E-02    2     1000022        25   # BR(~chi_40 -> ~chi_10   h )
     1.46180671E-01    2     1000023        25   # BR(~chi_40 -> ~chi_20   h )
     1.78530832E-01    2     1000006        -6   # BR(~chi_40 -> ~t_1      tb)
     1.78530832E-01    2    -1000006         6   # BR(~chi_40 -> ~t_1*     t )
     1.34000740E-02    2     1000005        -5   # BR(~chi_40 -> ~b_1      bb)
     1.34000740E-02    2    -1000005         5   # BR(~chi_40 -> ~b_1*     b )
     2.63999395E-03    2     2000005        -5   # BR(~chi_40 -> ~b_2      bb)
     2.63999395E-03    2    -2000005         5   # BR(~chi_40 -> ~b_2*     b )
     8.54364951E-04    2     1000011       -11   # BR(~chi_40 -> ~e_L-     e+)
     8.54364951E-04    2    -1000011        11   # BR(~chi_40 -> ~e_L+     e-)
     1.07758268E-06    2     2000011       -11   # BR(~chi_40 -> ~e_R-     e+)
     1.07758268E-06    2    -2000011        11   # BR(~chi_40 -> ~e_R+     e-)
     8.54364951E-04    2     1000013       -13   # BR(~chi_40 -> ~mu_L-    mu+)
     8.54364951E-04    2    -1000013        13   # BR(~chi_40 -> ~mu_L+    mu-)
     1.07758268E-06    2     2000013       -13   # BR(~chi_40 -> ~mu_R-    mu+)
     1.07758268E-06    2    -2000013        13   # BR(~chi_40 -> ~mu_R+    mu-)
     1.47629308E-04    2     1000015       -15   # BR(~chi_40 -> ~tau_1-   tau+)
     1.47629308E-04    2    -1000015        15   # BR(~chi_40 -> ~tau_1+   tau-)
     1.71504905E-03    2     2000015       -15   # BR(~chi_40 -> ~tau_2-   tau+)
     1.71504905E-03    2    -2000015        15   # BR(~chi_40 -> ~tau_2+   tau-)
     1.05746531E-03    2     1000012       -12   # BR(~chi_40 -> ~nu_eL    nu_eb)
     1.05746531E-03    2    -1000012        12   # BR(~chi_40 -> ~nu_eL*   nu_e )
     1.05746531E-03    2     1000014       -14   # BR(~chi_40 -> ~nu_muL   nu_mub)
     1.05746531E-03    2    -1000014        14   # BR(~chi_40 -> ~nu_muL*  nu_mu )
     1.25712814E-03    2     1000016       -16   # BR(~chi_40 -> ~nu_tau1  nu_taub)
     1.25712814E-03    2    -1000016        16   # BR(~chi_40 -> ~nu_tau1* nu_tau )
#
#         PDG            Width
DECAY        25     4.18209733E-03   # h decays
#          BR         NDA      ID1       ID2
     6.29943140E-01    2           5        -5   # BR(h -> b       bb     )
     6.17165250E-02    2         -15        15   # BR(h -> tau+    tau-   )
     2.18456470E-04    2         -13        13   # BR(h -> mu+     mu-    )
     2.38708423E-04    2           3        -3   # BR(h -> s       sb     )
     2.06425242E-02    2           4        -4   # BR(h -> c       cb     )
     7.43475913E-02    2          21        21   # BR(h -> g       g      )
     2.20660013E-03    2          22        22   # BR(h -> gam     gam    )
     1.40292727E-03    2          22        23   # BR(h -> Z       gam    )
     1.86295036E-01    2          24       -24   # BR(h -> W+      W-     )
     2.29884910E-02    2          23        23   # BR(h -> Z       Z      )
#
#         PDG            Width
DECAY        35     1.36814381E+01   # H decays
#          BR         NDA      ID1       ID2
     5.36162410E-02    2           5        -5   # BR(H -> b       bb     )
     1.08479507E-02    2         -15        15   # BR(H -> tau+    tau-   )
     3.83227210E-05    2         -13        13   # BR(H -> mu+     mu-    )
     2.19857048E-05    2           3        -3   # BR(H -> s       sb     )
     5.98160768E-06    2           4        -4   # BR(H -> c       cb     )
     5.90238389E-01    2           6        -6   # BR(H -> t       tb     )
     5.42958726E-04    2          21        21   # BR(H -> g       g      )
     2.55403775E-06    2          22        22   # BR(H -> gam     gam    )
     4.04359086E-07    2          23        22   # BR(H -> Z       gam    )
     1.64342089E-04    2          24       -24   # BR(H -> W+      W-     )
     8.20291934E-05    2          23        23   # BR(H -> Z       Z      )
     5.93412709E-04    2          25        25   # BR(H -> h       h      )
     3.88790733E-03    2     1000024  -1000024   # BR(H -> ~chi_1+ ~chi_1-)
     5.42242355E-03    2     1000024  -1000037   # BR(H -> ~chi_1+ ~chi_2-)
     5.42242355E-03    2     1000037  -1000024   # BR(H -> ~chi_2+ ~chi_1-)
     2.48273553E-04    2     1000022   1000022   # BR(H -> ~chi_10 ~chi_10)
     1.89099237E-03    2     1000023   1000023   # BR(H -> ~chi_20 ~chi_20)
     4.52487875E-03    2     1000022   1000023   # BR(H -> ~chi_10 ~chi_20)
     4.29355006E-02    2     1000022   1000025   # BR(H -> ~chi_10 ~chi_30)
     1.24219122E-01    2     1000022   1000035   # BR(H -> ~chi_10 ~chi_40)
     1.74683482E-02    2     1000023   1000025   # BR(H -> ~chi_20 ~chi_30)
     1.56244273E-05    2     1000023   1000035   # BR(H -> ~chi_20 ~chi_40)
     1.24143040E-01    2     1000006  -1000006   # BR(H -> ~t_1    ~t_1*  )
     1.39747516E-05    2     1000005  -1000005   # BR(H -> ~b_1    ~b_1*  )
     7.35567451E-05    2     2000005  -2000005   # BR(H -> ~b_2    ~b_2*  )
     5.60201279E-03    2     1000005  -2000005   # BR(H -> ~b_1    ~b_2*  )
     5.60201279E-03    2     2000005  -1000005   # BR(H -> ~b_2    ~b_1*  )
     1.25193881E-05    2     1000011  -1000011   # BR(H -> ~e_L-   ~e_L+  )
     1.25193881E-05    2     1000013  -1000013   # BR(H -> ~mu_L-  ~mu_L+ )
     3.85931130E-04    2     1000015  -1000015   # BR(H -> ~tau_1- ~tau_1+)
     1.61882572E-04    2     2000015  -2000015   # BR(H -> ~tau_2- ~tau_2+)
     8.38294423E-04    2     1000015  -2000015   # BR(H -> ~tau_1- ~tau_2+)
     8.38294423E-04    2     2000015  -1000015   # BR(H -> ~tau_2- ~tau_1+)
     4.08979704E-05    2     1000012  -1000012   # BR(H -> ~nu_eL  ~nu_eL*   )
     4.08979704E-05    2     1000014  -1000014   # BR(H -> ~nu_muL ~nu_muL*  )
     4.40995032E-05    2     1000016  -1000016   # BR(H -> ~nu_tauL ~nu_tauL*)
#
#         PDG            Width
DECAY        36     1.19560746E+01   # A decays
#          BR         NDA      ID1       ID2
     6.14639511E-02    2           5        -5   # BR(A -> b       bb     )
     1.24146545E-02    2         -15        15   # BR(A -> tau+    tau-   )
     4.38574042E-05    2         -13        13   # BR(A -> mu+     mu-    )
     2.52565780E-05    2           3        -3   # BR(A -> s       sb     )
     6.88687179E-06    2           4        -4   # BR(A -> c       cb     )
     6.76851470E-01    2           6        -6   # BR(A -> t       tb     )
     4.04695906E-04    2          21        21   # BR(A -> g       g      )
     1.36026102E-06    2          22        22   # BR(A -> gam     gam    )
     5.73151297E-07    2          23        22   # BR(A -> Z       gam    )
     1.90755165E-04    2          23        25   # BR(A -> Z       h      )
     1.30051934E-02    2     1000024  -1000024   # BR(A -> ~chi_1+ ~chi_1-)
     4.31020216E-03    2     1000024  -1000037   # BR(A -> ~chi_1+ ~chi_2-)
     4.31020216E-03    2     1000037  -1000024   # BR(A -> ~chi_2+ ~chi_1-)
     3.84115027E-04    2     1000022   1000022   # BR(A -> ~chi_10 ~chi_10)
     6.31654060E-03    2     1000023   1000023   # BR(A -> ~chi_20 ~chi_20)
     3.14261394E-03    2     1000022   1000023   # BR(A -> ~chi_10 ~chi_20)
     1.45806521E-01    2     1000022   1000025   # BR(A -> ~chi_10 ~chi_30)
     4.73392139E-02    2     1000022   1000035   # BR(A -> ~chi_10 ~chi_40)
     1.49553869E-04    2     1000023   1000025   # BR(A -> ~chi_20 ~chi_30)
     8.49915784E-03    2     1000023   1000035   # BR(A -> ~chi_20 ~chi_40)
     6.40800896E-03    2     1000005  -2000005   # BR(A -> ~b_1    ~b_2*  )
     6.40800896E-03    2    -1000005   2000005   # BR(A -> ~b_1*   ~b_2   )
     1.25860364E-03    2     1000015  -2000015   # BR(A -> ~tau_1- ~tau_2+)
     1.25860364E-03    2    -1000015   2000015   # BR(A -> ~tau_1+ ~tau_2-)
#
#         PDG            Width
DECAY        37     1.35440990E+01   # H+ decays
#          BR         NDA      ID1       ID2
     8.17109830E-05    2           4        -5   # BR(H+ -> c       bb     )
     1.09626273E-02    2         -15        16   # BR(H+ -> tau+    nu_tau )
     3.87278097E-05    2         -13        14   # BR(H+ -> mu+     nu_mu  )
     8.17011180E-07    2           2        -5   # BR(H+ -> u       bb     )
     1.11351614E-06    2           2        -3   # BR(H+ -> u       sb     )
     2.77499904E-05    2           4        -3   # BR(H+ -> c       sb     )
     6.36580359E-01    2           6        -5   # BR(H+ -> t       bb     )
     1.68619733E-04    2          24        25   # BR(H+ -> W+      h      )
     2.83264226E-13    2          24        36   # BR(H+ -> W+      A      )
     7.48987397E-03    2     1000024   1000022   # BR(H+ -> ~chi_1+ ~chi_10)
     8.62184486E-07    2     1000024   1000023   # BR(H+ -> ~chi_1+ ~chi_20)
     1.92118197E-02    2     1000024   1000025   # BR(H+ -> ~chi_1+ ~chi_30)
     1.11422023E-02    2     1000024   1000035   # BR(H+ -> ~chi_1+ ~chi_40)
     1.67515850E-01    2     1000037   1000022   # BR(H+ -> ~chi_2+ ~chi_10)
     9.91499930E-03    2     1000037   1000023   # BR(H+ -> ~chi_2+ ~chi_20)
     4.97671373E-05    2    -1000011   1000012   # BR(H+ -> ~e_L+   ~nu_eL )
     4.97671373E-05    2    -1000013   1000014   # BR(H+ -> ~mu_L+  ~nu_muL)
     2.25884947E-03    2    -1000015   1000016   # BR(H+ -> ~tau_1+ ~nu_tauL)
     2.46981703E-05    2    -2000015   1000016   # BR(H+ -> ~tau_2+ ~nu_tauL)
     4.09768356E-02    2     1000006  -1000005   # BR(H+ -> ~t_1    ~b_1*  )
     8.28156550E-02    2     1000006  -2000005   # BR(H+ -> ~t_1    ~b_2*  )
     1.06870945E-02    2     2000006  -1000005   # BR(H+ -> ~t_2    ~b_1*  )
