#
#                              ======================
#                              | THE SUSYHIT OUTPUT |
#                              ======================
#
#
#              ------------------------------------------------------
#              |     This is the output of the SUSY-HIT package     |
#              |  created by A.Djouadi, M.Muehlleitner and M.Spira. |
#              |  In case of problems with SUSY-HIT email to        |
#              |           margarete.muehlleitner@cern.ch           |
#              |           michael.spira@psi.ch                     |
#              |           abdelhak.djouadi@cern.ch                 |
#              ------------------------------------------------------
#
#              ------------------------------------------------------
#              |  SUSY Les Houches Accord - MSSM Spectrum + Decays  |
#              |              based on the decay programs           |
#              |                                                    |
#              |                     SDECAY 1.3b                    |
#              |                                                    |
#              |  Authors: M.Muhlleitner, A.Djouadi and Y.Mambrini  |
#              |  Ref.:    Comput.Phys.Commun.168(2005)46           |
#              |           [hep-ph/0311167]                         |
#              |                                                    |
#              |                     HDECAY 3.4                     |
#              |                                                    |
#              |  By: A.Djouadi,J.Kalinowski,M.Muhlleitner,M.Spira  |
#              |  Ref.:    Comput.Phys.Commun.108(1998)56           |
#              |           [hep-ph/9704448]                         |
#              |                                                    |
#              |                                                    |
#              |  If not stated otherwise all DRbar couplings and   |
#              |  soft SUSY breaking masses are given at the scale  |
#              |  Q=  0.23231770E+04
#              |                                                    |
#              ------------------------------------------------------
#
#
BLOCK DCINFO  # Decay Program information
     1   SDECAY/HDECAY # decay calculator
     2   1.3b  /3.4    # version number
#
BLOCK SPINFO  # Spectrum calculator information
     1     SOFTSUSY    # spectrum calculator               
     2     3.4.0       # version number                    
#
BLOCK MODSEL  # Model selection
     1     0   #  nonUniversal                                     
#
BLOCK SMINPUTS  # Standard Model inputs
         1     1.27908970E+02   # alpha_em^-1(M_Z)^MSbar
         2     1.16637870E-05   # G_F [GeV^-2]
         3     1.18400000E-01   # alpha_S(M_Z)^MSbar
         4     9.11876000E+01   # M_Z pole mass
         5     4.18000000E+00   # mb(mb)^MSbar
         6     1.73200000E+02   # mt pole mass
         7     1.77700000E+00   # mtau pole mass
#
BLOCK MINPAR  # Input parameters - minimal models
         3     4.57100000E+01   # tanb                
#
BLOCK EXTPAR  # Input parameters - non-minimal models
         0    -1.00000000E+00   # Set                 
         1    -8.58880000E+02   # M_1(MX)             
         2     2.56853000E+03   # M_2(MX)             
         3     8.87180000E+02   # M_3(MX)             
        11     3.52113000E+03   # At(MX)              
        12    -1.94491000E+03   # Ab(MX)              
        13     3.46916000E+03   # Atau(MX)            
        23    -9.10100000E+02   # mu(MX)              
        26     1.80297000E+03   # mA(pole)            
        31     2.47568000E+03   # meL(MX)             
        32     2.47568000E+03   # mmuL(MX)            
        33     2.65474000E+03   # mtauL(MX)           
        34     3.90117000E+03   # meR(MX)             
        35     3.90117000E+03   # mmuR(MX)            
        36     2.27660000E+03   # mtauR(MX)           
        41     1.33805000E+03   # mqL1(MX)            
        42     1.33805000E+03   # mqL2(MX)            
        43     2.48106000E+03   # mqL3(MX)            
        44     3.79554000E+03   # muR(MX)             
        45     3.79554000E+03   # mcR(MX)             
        46     2.17739000E+03   # mtR(MX)             
        47     3.44112000E+03   # mdR(MX)             
        48     3.44112000E+03   # msR(MX)             
        49     1.43253000E+03   # mbR(MX)             
#
BLOCK MASS  # Mass Spectrum
# PDG code           mass       particle
        24     8.04001315E+01   # W+
        25     1.27080521E+02   # h
        35     1.80292322E+03   # H
        36     1.80296965E+03   # A
        37     1.80481655E+03   # H+
         5     4.81876030E+00   # b-quark pole mass calculated from mb(mb)_Msbar
   1000001     1.40159044E+03   # ~d_L
   2000001     3.47430580E+03   # ~d_R
   1000002     1.39954532E+03   # ~u_L
   2000002     3.83106055E+03   # ~u_R
   1000003     1.40159044E+03   # ~s_L
   2000003     3.47430580E+03   # ~s_R
   1000004     1.39954532E+03   # ~c_L
   2000004     3.83106055E+03   # ~c_R
   1000005     1.43451486E+03   # ~b_1
   2000005     2.46901228E+03   # ~b_2
   1000006     2.11390499E+03   # ~t_1
   2000006     2.50094838E+03   # ~t_2
   1000011     2.49378994E+03   # ~e_L
   2000011     3.90527432E+03   # ~e_R
   1000012     2.49222620E+03   # ~nu_eL
   1000013     2.49378994E+03   # ~mu_L
   2000013     3.90527432E+03   # ~mu_R
   1000014     2.49222620E+03   # ~nu_muL
   1000015     2.26762167E+03   # ~tau_1
   2000015     2.66521715E+03   # ~tau_2
   1000016     2.66314466E+03   # ~nu_tauL
   1000021     1.05567942E+03   # ~g
   1000022    -8.47250205E+02   # ~chi_10
   1000023     9.52489171E+02   # ~chi_20
   1000025    -9.64060615E+02   # ~chi_30
   1000035     2.55093762E+03   # ~chi_40
   1000024     9.52954857E+02   # ~chi_1+
   1000037     2.55113741E+03   # ~chi_2+
#
BLOCK NMIX  # Neutralino Mixing Matrix
  1  1     9.56542985E-01   # N_11
  1  2     4.56079836E-03   # N_12
  1  3    -2.17319648E-01   # N_13
  1  4     1.94362773E-01   # N_14
  2  1     1.69784849E-02   # N_21
  2  2     3.30413944E-02   # N_22
  2  3     7.07030534E-01   # N_23
  2  4     7.06206642E-01   # N_24
  3  1     2.91096263E-01   # N_31
  3  2    -1.53233752E-02   # N_32
  3  3     6.72855380E-01   # N_33
  3  4    -6.79921906E-01   # N_34
  4  1    -4.63327487E-04   # N_41
  4  2     9.99326103E-01   # N_42
  4  3    -1.20678407E-02   # N_43
  4  4    -3.46625590E-02   # N_44
#
BLOCK UMIX  # Chargino Mixing Matrix U
  1  1     1.70408581E-02   # U_11
  1  2     9.99854794E-01   # U_12
  2  1    -9.99854794E-01   # U_21
  2  2     1.70408581E-02   # U_22
#
BLOCK VMIX  # Chargino Mixing Matrix V
  1  1     4.89867039E-02   # V_11
  1  2    -9.98799431E-01   # V_12
  2  1    -9.98799431E-01   # V_21
  2  2    -4.89867039E-02   # V_22
#
BLOCK STOPMIX  # Stop Mixing Matrix
  1  1    -2.83203157E-01   # cos(theta_t)
  1  2     9.59059942E-01   # sin(theta_t)
  2  1    -9.59059942E-01   # -sin(theta_t)
  2  2    -2.83203157E-01   # cos(theta_t)
#
BLOCK SBOTMIX  # Sbottom Mixing Matrix
  1  1    -2.79355775E-02   # cos(theta_b)
  1  2     9.99609726E-01   # sin(theta_b)
  2  1    -9.99609726E-01   # -sin(theta_b)
  2  2    -2.79355775E-02   # cos(theta_b)
#
BLOCK STAUMIX  # Stau Mixing Matrix
  1  1    -4.01774162E-02   # cos(theta_tau)
  1  2     9.99192562E-01   # sin(theta_tau)
  2  1    -9.99192562E-01   # -sin(theta_tau)
  2  2    -4.01774162E-02   # cos(theta_tau)
#
BLOCK ALPHA  # Higgs mixing
          -2.20756168E-02   # Mixing angle in the neutral Higgs boson sector
#
BLOCK HMIX Q=  2.32317700E+03  # DRbar Higgs Parameters
         1    -9.44651852E+02   # mu(Q)MSSM           
         2     4.55082921E+01   # tan                 
         3     2.42803351E+02   # higgs               
         4     3.44562905E+06   # mA^2(Q)MSSM         
#
BLOCK GAUGE Q=  2.32317700E+03  # The gauge couplings
     1     3.63983508E-01   # gprime(Q) DRbar
     2     6.36991873E-01   # g(Q) DRbar
     3     1.03637226E+00   # g3(Q) DRbar
#
BLOCK AU Q=  2.32317700E+03  # The trilinear couplings
  1  1     0.00000000E+00   # A_u(Q) DRbar
  2  2     0.00000000E+00   # A_c(Q) DRbar
  3  3     3.52113000E+03   # A_t(Q) DRbar
#
BLOCK AD Q=  2.32317700E+03  # The trilinear couplings
  1  1     0.00000000E+00   # A_d(Q) DRbar
  2  2     0.00000000E+00   # A_s(Q) DRbar
  3  3    -1.94491000E+03   # A_b(Q) DRbar
#
BLOCK AE Q=  2.32317700E+03  # The trilinear couplings
  1  1     0.00000000E+00   # A_e(Q) DRbar
  2  2     0.00000000E+00   # A_mu(Q) DRbar
  3  3     3.46916000E+03   # A_tau(Q) DRbar
#
BLOCK Yu Q=  2.32317700E+03  # The Yukawa couplings
  1  1     0.00000000E+00   # y_u(Q) DRbar
  2  2     0.00000000E+00   # y_c(Q) DRbar
  3  3     8.44507109E-01   # y_t(Q) DRbar
#
BLOCK Yd Q=  2.32317700E+03  # The Yukawa couplings
  1  1     0.00000000E+00   # y_d(Q) DRbar
  2  2     0.00000000E+00   # y_s(Q) DRbar
  3  3     7.62240749E-01   # y_b(Q) DRbar
#
BLOCK Ye Q=  2.32317700E+03  # The Yukawa couplings
  1  1     0.00000000E+00   # y_e(Q) DRbar
  2  2     0.00000000E+00   # y_mu(Q) DRbar
  3  3     4.44260107E-01   # y_tau(Q) DRbar
#
BLOCK MSOFT Q=  2.32317700E+03  # The soft SUSY breaking masses at the scale Q
         1    -8.58880000E+02   # M_1(Q)              
         2     2.56853000E+03   # M_2(Q)              
         3     8.87180000E+02   # M_3(Q)              
        21     2.53672563E+06   # mH1^2(Q)            
        22    -8.13424146E+05   # mH2^2(Q)            
        31     2.47568000E+03   # meL(Q)              
        32     2.47568000E+03   # mmuL(Q)             
        33     2.65474000E+03   # mtauL(Q)            
        34     3.90117000E+03   # meR(Q)              
        35     3.90117000E+03   # mmuR(Q)             
        36     2.27660000E+03   # mtauR(Q)            
        41     1.33805000E+03   # mqL1(Q)             
        42     1.33805000E+03   # mqL2(Q)             
        43     2.48106000E+03   # mqL3(Q)             
        44     3.79554000E+03   # muR(Q)              
        45     3.79554000E+03   # mcR(Q)              
        46     2.17739000E+03   # mtR(Q)              
        47     3.44112000E+03   # mdR(Q)              
        48     3.44112000E+03   # msR(Q)              
        49     1.43252999E+03   # mbR(Q)              
#
Block HiggsBoundsInputHiggsCouplingsFermions
# ScalarNormEffCoupSq PseudoSNormEffCoupSq NP   IP1 IP2 IP2
    1.00959193E+00    0.00000000E+00        3  25   5   5  # h0-b-b eff. coupling^2, normalised to SM
    2.07099506E+03    0.00000000E+00        3  35   5   5  # H0-b-b eff. coupling^2, normalised to SM
    0.00000000E+00    2.07100465E+03        3  36   5   5  # A0-b-b eff. coupling^2, normalised to SM
#
    9.99995368E-01    0.00000000E+00        3  25   6   6  # h0-t-t eff. coupling^2, normalised to SM
    4.87488972E-04    0.00000000E+00        3  35   6   6  # H0-t-t eff. coupling^2, normalised to SM
    0.00000000E+00    4.82857438E-04        3  36   6   6  # A0-t-t eff. coupling^2, normalised to SM
#
    1.00959193E+00    0.00000000E+00        3  25  15  15  # h0-tau-tau eff. coupling^2, normalised to SM
    2.07099506E+03    0.00000000E+00        3  35  15  15  # H0-tau-tau eff. coupling^2, normalised to SM
    0.00000000E+00    2.07100465E+03        3  36  15  15  # A0-tau-tau eff. coupling^2, normalised to SM
#
Block HiggsBoundsInputHiggsCouplingsBosons
    9.99999989E-01        3  25  24  24  # h0-W-W eff. coupling^2, normalised to SM
    1.10534107E-08        3  35  24  24  # H0-W-W eff. coupling^2, normalised to SM
    0.00000000E+00        3  36  24  24  # A0-W-W eff. coupling^2, normalised to SM
#
    9.99999989E-01        3  25  23  23  # h0-Z-Z eff. coupling^2, normalised to SM
    1.10534107E-08        3  35  23  23  # H0-Z-Z eff. coupling^2, normalised to SM
    0.00000000E+00        3  36  23  23  # A0-Z-Z eff. coupling^2, normalised to SM
#
    8.85304701E-01        3  25  21  21  # h0-g-g eff. coupling^2, normalised to SM
    9.56175013E-10        3  35  21  21  # H0-g-g eff. coupling^2, normalised to SM
    2.37798304E-09        3  36  21  21  # A0-g-g eff. coupling^2, normalised to SM
#
    0.00000000E+00        3  25  25  23  # h0-h0-Z eff. coupling^2, normalised to SM
    0.00000000E+00        3  35  25  23  # H0-h0-Z eff. coupling^2, normalised to SM
    1.10534107E-08        3  36  25  23  # A0-h0-Z eff. coupling^2, normalised to SM
    0.00000000E+00        3  35  35  23  # H0-H0-Z eff. coupling^2, normalised to SM
    9.99999989E-01        3  36  35  23  # A0-H0-Z eff. coupling^2, normalised to SM
    0.00000000E+00        3  36  36  23  # A0-A0-Z eff. coupling^2, normalised to SM
#
    0.00000000E+00        4  25  21  21  23  # h0-g-g-Z eff. coupling^2, normalised to SM
    0.00000000E+00        4  35  21  21  23  # H0-g-g-Z eff. coupling^2, normalised to SM
    0.00000000E+00        4  36  21  21  23  # A0-g-g-Z eff. coupling^2, normalised to SM
#
#
#
#                             =================
#                             |The decay table|
#                             =================
#
# - The QCD corrections to the decays gluino -> squark  + quark
#                                     squark -> gaugino + quark_prime
#                                     squark -> squark_prime + Higgs
#                                     squark -> gluino  + quark
#   are included.
#
# - The multi-body decays for the inos, stops and sbottoms are included.
#
# - The loop induced decays for the gluino, neutralinos and stops
#   are included.
#
# - The SUSY decays of the top quark are included.
#
#
#         PDG            Width
DECAY         6     1.42856807E+00   # top decays
#          BR         NDA      ID1       ID2
     1.00000000E+00    2           5        24   # BR(t ->  b    W+)
#
#         PDG            Width
DECAY   1000021     3.94892158E-06   # gluino decays
#          BR         NDA      ID1       ID2
     1.13135810E-01    2     1000022        21   # BR(~g -> ~chi_10 g)
     8.69239431E-02    2     1000023        21   # BR(~g -> ~chi_20 g)
     5.52103758E-02    2     1000025        21   # BR(~g -> ~chi_30 g)
#           BR         NDA      ID1       ID2       ID3
     3.27355601E-02    3     1000022         1        -1   # BR(~g -> ~chi_10 d  db)
     1.09205577E-04    3     1000023         1        -1   # BR(~g -> ~chi_20 d  db)
     1.21149061E-04    3     1000025         1        -1   # BR(~g -> ~chi_30 d  db)
     3.83227583E-02    3     1000022         2        -2   # BR(~g -> ~chi_10 u  ub)
     1.63746623E-04    3     1000023         2        -2   # BR(~g -> ~chi_20 u  ub)
     4.42659241E-05    3     1000025         2        -2   # BR(~g -> ~chi_30 u  ub)
     3.27355601E-02    3     1000022         3        -3   # BR(~g -> ~chi_10 s  sb)
     1.09205577E-04    3     1000023         3        -3   # BR(~g -> ~chi_20 s  sb)
     1.21149061E-04    3     1000025         3        -3   # BR(~g -> ~chi_30 s  sb)
     3.83227583E-02    3     1000022         4        -4   # BR(~g -> ~chi_10 c  cb)
     1.63746623E-04    3     1000023         4        -4   # BR(~g -> ~chi_20 c  cb)
     4.42659241E-05    3     1000025         4        -4   # BR(~g -> ~chi_30 c  cb)
     4.18663399E-01    3     1000022         5        -5   # BR(~g -> ~chi_10 b  bb)
     1.21332654E-01    3     1000023         5        -5   # BR(~g -> ~chi_20 b  bb)
     6.05975243E-02    3     1000025         5        -5   # BR(~g -> ~chi_30 b  bb)
     2.85730652E-04    3     1000024         1        -2   # BR(~g -> ~chi_1+ d  ub)
     2.85730652E-04    3    -1000024         2        -1   # BR(~g -> ~chi_1- u  db)
     2.85730652E-04    3     1000024         3        -4   # BR(~g -> ~chi_1+ s  cb)
     2.85730652E-04    3    -1000024         4        -3   # BR(~g -> ~chi_1- c  sb)
#
#         PDG            Width
DECAY   1000006     1.02356943E+02   # stop1 decays
#          BR         NDA      ID1       ID2
     3.99742784E-02    2     1000022         6   # BR(~t_1 -> ~chi_10 t )
     9.47363999E-02    2     1000023         6   # BR(~t_1 -> ~chi_20 t )
     7.72623584E-02    2     1000025         6   # BR(~t_1 -> ~chi_30 t )
     1.78904132E-01    2     1000024         5   # BR(~t_1 -> ~chi_1+ b )
     6.08568802E-01    2     1000021         6   # BR(~t_1 -> ~g      t )
     5.54029152E-04    2     1000005        24   # BR(~t_1 -> ~b_1    W+)
#
#         PDG            Width
DECAY   2000006     1.63770723E+02   # stop2 decays
#          BR         NDA      ID1       ID2
     4.98508438E-03    2     1000022         6   # BR(~t_2 -> ~chi_10 t )
     7.58901747E-02    2     1000023         6   # BR(~t_2 -> ~chi_20 t )
     7.97428180E-02    2     1000025         6   # BR(~t_2 -> ~chi_30 t )
     1.34789887E-01    2     1000024         5   # BR(~t_2 -> ~chi_1+ b )
     6.01890683E-01    2     1000021         6   # BR(~t_2 -> ~g      t )
     4.14235177E-02    2     1000006        25   # BR(~t_2 -> ~t_1    h )
     4.84629581E-02    2     1000006        23   # BR(~t_2 -> ~t_1    Z )
     1.28148781E-02    2     1000005        24   # BR(~t_2 -> ~b_1    W+)
#
#         PDG            Width
DECAY   1000005     2.73118334E+01   # sbottom1 decays
#          BR         NDA      ID1       ID2
     2.49325652E-02    2     1000022         5   # BR(~b_1 -> ~chi_10 b )
     9.50127450E-02    2     1000023         5   # BR(~b_1 -> ~chi_20 b )
     8.27833578E-02    2     1000025         5   # BR(~b_1 -> ~chi_30 b )
     1.68744563E-01    2    -1000024         6   # BR(~b_1 -> ~chi_1- t )
     6.28526769E-01    2     1000021         5   # BR(~b_1 -> ~g      b )
#
#         PDG            Width
DECAY   2000005     1.55454217E+02   # sbottom2 decays
#          BR         NDA      ID1       ID2
     7.76228112E-03    2     1000022         5   # BR(~b_2 -> ~chi_10 b )
     6.64564278E-02    2     1000023         5   # BR(~b_2 -> ~chi_20 b )
     6.04846675E-02    2     1000025         5   # BR(~b_2 -> ~chi_30 b )
     1.60764779E-01    2    -1000024         6   # BR(~b_2 -> ~chi_1- t )
     6.04413205E-01    2     1000021         5   # BR(~b_2 -> ~g      b )
     7.99530250E-03    2     1000005        25   # BR(~b_2 -> ~b_1    h )
     6.97755969E-03    2     1000005        23   # BR(~b_2 -> ~b_1    Z )
     8.51457773E-02    2     1000006       -24   # BR(~b_2 -> ~t_1    W-)
#
#         PDG            Width
DECAY   1000002     1.88138456E+01   # sup_L decays
#          BR         NDA      ID1       ID2
     4.05734654E-03    2     1000022         2   # BR(~u_L -> ~chi_10 u)
     1.10424277E-04    2     1000023         2   # BR(~u_L -> ~chi_20 u)
     1.29526199E-04    2     1000025         2   # BR(~u_L -> ~chi_30 u)
     4.02074635E-04    2     1000024         1   # BR(~u_L -> ~chi_1+ d)
     9.95300628E-01    2     1000021         2   # BR(~u_L -> ~g      u)
#
#         PDG            Width
DECAY   2000002     2.43443311E+02   # sup_R decays
#          BR         NDA      ID1       ID2
     2.95883541E-02    2     1000022         2   # BR(~u_R -> ~chi_10 u)
     9.07066720E-06    2     1000023         2   # BR(~u_R -> ~chi_20 u)
     2.65774820E-03    2     1000025         2   # BR(~u_R -> ~chi_30 u)
     2.38692863E-09    2     1000035         2   # BR(~u_R -> ~chi_40 u)
     9.67744825E-01    2     1000021         2   # BR(~u_R -> ~g      u)
#
#         PDG            Width
DECAY   1000001     1.89768063E+01   # sdown_L decays
#          BR         NDA      ID1       ID2
     3.65673783E-03    2     1000022         1   # BR(~d_L -> ~chi_10 d)
     7.43953493E-05    2     1000023         1   # BR(~d_L -> ~chi_20 d)
     4.02188025E-04    2     1000025         1   # BR(~d_L -> ~chi_30 d)
     4.85499508E-05    2    -1000024         2   # BR(~d_L -> ~chi_1- u)
     9.95818129E-01    2     1000021         1   # BR(~d_L -> ~g      d)
#
#         PDG            Width
DECAY   2000001     2.07877832E+02   # sdown_R decays
#          BR         NDA      ID1       ID2
     7.67990128E-03    2     1000022         1   # BR(~d_R -> ~chi_10 d)
     2.33958696E-06    2     1000023         1   # BR(~d_R -> ~chi_20 d)
     6.84996040E-04    2     1000025         1   # BR(~d_R -> ~chi_30 d)
     4.36188945E-10    2     1000035         1   # BR(~d_R -> ~chi_40 d)
     9.91632763E-01    2     1000021         1   # BR(~d_R -> ~g      d)
#
#         PDG            Width
DECAY   1000004     1.49072901E+01   # scharm_L decays
#          BR         NDA      ID1       ID2
     5.30411160E-03    2     1000022         4   # BR(~c_L -> ~chi_10 c)
     1.43693660E-04    2     1000023         4   # BR(~c_L -> ~chi_20 c)
     1.68445502E-04    2     1000025         4   # BR(~c_L -> ~chi_30 c)
     5.23206024E-04    2     1000024         3   # BR(~c_L -> ~chi_1+ s)
     9.93860543E-01    2     1000021         4   # BR(~c_L -> ~g      c)
#
#         PDG            Width
DECAY   2000004     1.94503042E+02   # scharm_R decays
#          BR         NDA      ID1       ID2
     3.81932879E-02    2     1000022         4   # BR(~c_R -> ~chi_10 c)
     1.17087344E-05    2     1000023         4   # BR(~c_R -> ~chi_20 c)
     3.43072016E-03    2     1000025         4   # BR(~c_R -> ~chi_30 c)
     3.06937585E-09    2     1000035         4   # BR(~c_R -> ~chi_40 c)
     9.58364280E-01    2     1000021         4   # BR(~c_R -> ~g      c)
#
#         PDG            Width
DECAY   1000003     1.50342304E+01   # sstrange_L decays
#          BR         NDA      ID1       ID2
     4.78118567E-03    2     1000022         3   # BR(~s_L -> ~chi_10 s)
     9.68289862E-05    2     1000023         3   # BR(~s_L -> ~chi_20 s)
     5.23142195E-04    2     1000025         3   # BR(~s_L -> ~chi_30 s)
     6.31880474E-05    2    -1000024         4   # BR(~s_L -> ~chi_1- c)
     9.94535655E-01    2     1000021         3   # BR(~s_L -> ~g      s)
#
#         PDG            Width
DECAY   2000003     1.64895758E+02   # sstrange_R decays
#          BR         NDA      ID1       ID2
     9.98838414E-03    2     1000022         3   # BR(~s_R -> ~chi_10 s)
     3.04278401E-06    2     1000023         3   # BR(~s_R -> ~chi_20 s)
     8.90880161E-04    2     1000025         3   # BR(~s_R -> ~chi_30 s)
     5.62785073E-10    2     1000035         3   # BR(~s_R -> ~chi_40 s)
     9.89117692E-01    2     1000021         3   # BR(~s_R -> ~g      s)
#
#         PDG            Width
DECAY   1000011     2.57604888E+00   # selectron_L decays
#          BR         NDA      ID1       ID2
     9.28676234E-01    2     1000022        11   # BR(~e_L -> ~chi_10 e-)
     5.20764458E-03    2     1000023        11   # BR(~e_L -> ~chi_20 e-)
     6.44611990E-02    2     1000025        11   # BR(~e_L -> ~chi_30 e-)
     1.65492271E-03    2    -1000024        12   # BR(~e_L -> ~chi_1- nu_e)
#
#         PDG            Width
DECAY   2000011     1.86479517E+01   # selectron_R decays
#          BR         NDA      ID1       ID2
     9.17228009E-01    2     1000022        11   # BR(~e_R -> ~chi_10 e-)
     2.81495901E-04    2     1000023        11   # BR(~e_R -> ~chi_20 e-)
     8.24904171E-02    2     1000025        11   # BR(~e_R -> ~chi_30 e-)
     7.78973644E-08    2     1000035        11   # BR(~e_R -> ~chi_40 e-)
#
#         PDG            Width
DECAY   1000013     2.57604887E+00   # smuon_L decays
#          BR         NDA      ID1       ID2
     9.28676234E-01    2     1000022        13   # BR(~mu_L -> ~chi_10 mu-)
     5.20764457E-03    2     1000023        13   # BR(~mu_L -> ~chi_20 mu-)
     6.44611989E-02    2     1000025        13   # BR(~mu_L -> ~chi_30 mu-)
     1.65492272E-03    2    -1000024        14   # BR(~mu_L -> ~chi_1- nu_mu)
#
#         PDG            Width
DECAY   2000013     1.86479516E+01   # smuon_R decays
#          BR         NDA      ID1       ID2
     9.17228009E-01    2     1000022        13   # BR(~mu_R -> ~chi_10 mu-)
     2.81495901E-04    2     1000023        13   # BR(~mu_R -> ~chi_20 mu-)
     8.24904171E-02    2     1000025        13   # BR(~mu_R -> ~chi_30 mu-)
     7.78973642E-08    2     1000035        13   # BR(~mu_R -> ~chi_40 mu-)
#
#         PDG            Width
DECAY   1000015     2.08528987E+01   # stau_1 decays
#          BR         NDA      ID1       ID2
     4.05671710E-01    2     1000022        15   # BR(~tau_1 -> ~chi_10  tau-)
     1.45276071E-01    2     1000023        15   # BR(~tau_1 -> ~chi_20  tau-)
     1.59550919E-01    2     1000025        15   # BR(~tau_1 -> ~chi_30  tau-)
     2.89501299E-01    2    -1000024        16   # BR(~tau_1 -> ~chi_1-  nu_tau)
#
#         PDG            Width
DECAY   2000015     1.14187763E+01   # stau_2 decays
#          BR         NDA      ID1       ID2
     2.60282379E-01    2     1000022        15   # BR(~tau_2 -> ~chi_10  tau-)
     3.48962552E-01    2     1000023        15   # BR(~tau_2 -> ~chi_20  tau-)
     3.36596163E-01    2     1000025        15   # BR(~tau_2 -> ~chi_30  tau-)
     6.61510092E-03    2     1000035        15   # BR(~tau_2 -> ~chi_40  tau-)
     1.73097539E-04    2    -1000024        16   # BR(~tau_2 -> ~chi_1-  nu_tau)
     1.32104959E-02    2    -1000037        16   # BR(~tau_2 -> ~chi_2-  nu_tau)
     1.74718400E-02    2     1000015        25   # BR(~tau_2 -> ~tau_1   h)
     1.66883722E-02    2     1000015        23   # BR(~tau_2 -> ~tau_1   Z)
#
#         PDG            Width
DECAY   1000012     2.59079954E+00   # snu_eL decays
#          BR         NDA      ID1       ID2
     8.92224400E-01    2     1000022        12   # BR(~nu_eL -> ~chi_10 nu_e)
     1.54227842E-03    2     1000023        12   # BR(~nu_eL -> ~chi_20 nu_e)
     9.26497918E-02    2     1000025        12   # BR(~nu_eL -> ~chi_30 nu_e)
     1.35835301E-02    2     1000024        11   # BR(~nu_eL -> ~chi_1+ e-)
#
#         PDG            Width
DECAY   1000014     2.59079954E+00   # snu_muL decays
#          BR         NDA      ID1       ID2
     8.92224400E-01    2     1000022        14   # BR(~nu_muL -> ~chi_10 nu_mu)
     1.54227842E-03    2     1000023        14   # BR(~nu_muL -> ~chi_20 nu_mu)
     9.26497918E-02    2     1000025        14   # BR(~nu_muL -> ~chi_30 nu_mu)
     1.35835301E-02    2     1000024        13   # BR(~nu_muL -> ~chi_1+ mu-)
#
#         PDG            Width
DECAY   1000016     1.14010308E+01   # snu_tauL decays
#          BR         NDA      ID1       ID2
     2.23747992E-01    2     1000022        16   # BR(~nu_tauL -> ~chi_10 nu_tau)
     3.90593285E-04    2     1000023        16   # BR(~nu_tauL -> ~chi_20 nu_tau)
     2.34923170E-02    2     1000025        16   # BR(~nu_tauL -> ~chi_30 nu_tau)
     6.41032516E-03    2     1000035        16   # BR(~nu_tauL -> ~chi_40 nu_tau)
     7.00632509E-01    2     1000024        15   # BR(~nu_tauL -> ~chi_1+ tau-)
     1.27512104E-02    2     1000037        15   # BR(~nu_tauL -> ~chi_2+ tau-)
     3.25750533E-02    2    -1000015       -24   # BR(~nu_tauL -> ~tau_1+ W-)
#
#         PDG            Width
DECAY   1000024     5.86894405E-02   # chargino1+ decays
#          BR         NDA      ID1       ID2
     1.00000000E+00    2     1000022        24   # BR(~chi_1+ -> ~chi_10  W+)
#
#         PDG            Width
DECAY   1000037     7.72087374E+01   # chargino2+ decays
#          BR         NDA      ID1       ID2
     1.89234823E-01    2     1000002        -1   # BR(~chi_2+ -> ~u_L     db)
     1.89160813E-01    2    -1000001         2   # BR(~chi_2+ -> ~d_L*    u )
     1.89234817E-01    2     1000004        -3   # BR(~chi_2+ -> ~c_L     sb)
     1.89160718E-01    2    -1000003         4   # BR(~chi_2+ -> ~s_L*     c )
     4.68432226E-03    2     1000006        -5   # BR(~chi_2+ -> ~t_1     bb)
     5.35986469E-04    2     2000006        -5   # BR(~chi_2+ -> ~t_2     bb)
     1.01980523E-05    2    -1000005         6   # BR(~chi_2+ -> ~b_1*    t )
     2.77263657E-04    2     1000012       -11   # BR(~chi_2+ -> ~nu_eL   e+  )
     2.77263657E-04    2     1000014       -13   # BR(~chi_2+ -> ~nu_muL mu+ )
     2.63458462E-04    2    -1000011        12   # BR(~chi_2+ -> ~e_L+    nu_e)
     2.63458462E-04    2    -1000013        14   # BR(~chi_2+ -> ~mu_L+   nu_mu)
     4.70526286E-06    2    -1000015        16   # BR(~chi_2+ -> ~tau_1+  nu_tau)
     5.90554752E-02    2     1000024        23   # BR(~chi_2+ -> ~chi_1+  Z )
     5.31419574E-03    2     1000022        24   # BR(~chi_2+ -> ~chi_10  W+)
     5.75775866E-02    2     1000023        24   # BR(~chi_2+ -> ~chi_20  W+)
     5.20742133E-02    2     1000025        24   # BR(~chi_2+ -> ~chi_30  W+)
     6.28707023E-02    2     1000024        25   # BR(~chi_2+ -> ~chi_1+  h )
#
#         PDG            Width
DECAY   1000022     0.00000000E+00   # neutralino1 decays
#
#         PDG            Width
DECAY   1000023     2.67542316E-02   # neutralino2 decays
#          BR         NDA      ID1       ID2
     1.00000000E+00    2     1000022        23   # BR(~chi_20 -> ~chi_10   Z )
#
#         PDG            Width
DECAY   1000025     9.31111990E-04   # neutralino3 decays
#          BR         NDA      ID1       ID2
     1.00000000E+00    2     1000022        23   # BR(~chi_30 -> ~chi_10   Z )
#
#         PDG            Width
DECAY   1000035     7.72049230E+01   # neutralino4 decays
#          BR         NDA      ID1       ID2
     4.25663731E-03    2     1000022        23   # BR(~chi_40 -> ~chi_10   Z )
     1.12618973E-02    2     1000023        23   # BR(~chi_40 -> ~chi_20   Z )
     4.36016871E-02    2     1000025        23   # BR(~chi_40 -> ~chi_30   Z )
     5.72895337E-02    2     1000024       -24   # BR(~chi_40 -> ~chi_1+   W-)
     5.72895337E-02    2    -1000024        24   # BR(~chi_40 -> ~chi_1-   W+)
     1.24241944E-03    2     1000022        25   # BR(~chi_40 -> ~chi_10   h )
     5.11689962E-02    2     1000023        25   # BR(~chi_40 -> ~chi_20   h )
     1.03644925E-02    2     1000025        25   # BR(~chi_40 -> ~chi_30   h )
     9.46850449E-02    2     1000002        -2   # BR(~chi_40 -> ~u_L      ub)
     9.46850449E-02    2    -1000002         2   # BR(~chi_40 -> ~u_L*     u )
     9.44816299E-02    2     1000001        -1   # BR(~chi_40 -> ~d_L      db)
     9.44816299E-02    2    -1000001         1   # BR(~chi_40 -> ~d_L*     d )
     9.46849976E-02    2     1000004        -4   # BR(~chi_40 -> ~c_L      cb)
     9.46849976E-02    2    -1000004         4   # BR(~chi_40 -> ~c_L*     c )
     9.44816299E-02    2     1000003        -3   # BR(~chi_40 -> ~s _L      sb)
     9.44816299E-02    2    -1000003         3   # BR(~chi_40 -> ~s _L*     s )
     2.08502856E-03    2     1000006        -6   # BR(~chi_40 -> ~t_1      tb)
     2.08502856E-03    2    -1000006         6   # BR(~chi_40 -> ~t_1*     t )
     5.28530985E-06    2     1000005        -5   # BR(~chi_40 -> ~b_1      bb)
     5.28530985E-06    2    -1000005         5   # BR(~chi_40 -> ~b_1*     b )
     7.99299886E-04    2     2000005        -5   # BR(~chi_40 -> ~b_2      bb)
     7.99299886E-04    2    -2000005         5   # BR(~chi_40 -> ~b_2*     b )
     1.30632244E-04    2     1000011       -11   # BR(~chi_40 -> ~e_L-     e+)
     1.30632244E-04    2    -1000011        11   # BR(~chi_40 -> ~e_L+     e-)
     1.30632244E-04    2     1000013       -13   # BR(~chi_40 -> ~mu_L-    mu+)
     1.30632244E-04    2    -1000013        13   # BR(~chi_40 -> ~mu_L+    mu-)
     2.34144544E-06    2     1000015       -15   # BR(~chi_40 -> ~tau_1-   tau+)
     2.34144544E-06    2    -1000015        15   # BR(~chi_40 -> ~tau_1+   tau-)
     1.37939705E-04    2     1000012       -12   # BR(~chi_40 -> ~nu_eL    nu_eb)
     1.37939705E-04    2    -1000012        12   # BR(~chi_40 -> ~nu_eL*   nu_e )
     1.37939705E-04    2     1000014       -14   # BR(~chi_40 -> ~nu_muL   nu_mub)
     1.37939705E-04    2    -1000014        14   # BR(~chi_40 -> ~nu_muL*  nu_mu )
#
#         PDG            Width
DECAY        25     4.06433117E-03   # h decays
#          BR         NDA      ID1       ID2
     5.34332163E-01    2           5        -5   # BR(h -> b       bb     )
     6.53712650E-02    2         -15        15   # BR(h -> tau+    tau-   )
     2.31381982E-04    2         -13        13   # BR(h -> mu+     mu-    )
     2.51904367E-04    2           3        -3   # BR(h -> s       sb     )
     2.16239155E-02    2           4        -4   # BR(h -> c       cb     )
     8.22861696E-02    2          21        21   # BR(h -> g       g      )
     2.48586065E-03    2          22        22   # BR(h -> gam     gam    )
     1.84353981E-03    2          22        23   # BR(h -> Z       gam    )
     2.58267234E-01    2          24       -24   # BR(h -> W+      W-     )
     3.33065661E-02    2          23        23   # BR(h -> Z       Z      )
#
#         PDG            Width
DECAY        35     8.00782067E+01   # H decays
#          BR         NDA      ID1       ID2
     8.93184702E-01    2           5        -5   # BR(H -> b       bb     )
     1.04802799E-01    2         -15        15   # BR(H -> tau+    tau-   )
     3.70797085E-04    2         -13        13   # BR(H -> mu+     mu-    )
     2.84329163E-04    2           3        -3   # BR(H -> s       sb     )
     4.83009924E-09    2           4        -4   # BR(H -> c       cb     )
     4.64634789E-04    2           6        -6   # BR(H -> t       tb     )
     2.25811502E-05    2          21        21   # BR(H -> g       g      )
     1.44105172E-09    2          22        22   # BR(H -> gam     gam    )
     1.09579846E-08    2          23        22   # BR(H -> Z       gam    )
     2.57871474E-07    2          24       -24   # BR(H -> W+      W-     )
     1.28356251E-07    2          23        23   # BR(H -> Z       Z      )
     1.38040309E-06    2          25        25   # BR(H -> h       h      )
     8.88551913E-05    2     1000022   1000022   # BR(H -> ~chi_10 ~chi_10)
     7.79517178E-04    2     1000022   1000023   # BR(H -> ~chi_10 ~chi_20)
#
#         PDG            Width
DECAY        36     8.00790746E+01   # A decays
#          BR         NDA      ID1       ID2
     8.93204412E-01    2           5        -5   # BR(A -> b       bb     )
     1.04805236E-01    2         -15        15   # BR(A -> tau+    tau-   )
     3.70804269E-04    2         -13        13   # BR(A -> mu+     mu-    )
     2.84343255E-04    2           3        -3   # BR(A -> s       sb     )
     4.82825201E-09    2           4        -4   # BR(A -> c       cb     )
     4.72379114E-04    2           6        -6   # BR(A -> t       tb     )
     3.56165051E-05    2          21        21   # BR(A -> g       g      )
     2.78288386E-08    2          22        22   # BR(A -> gam     gam    )
     1.94796507E-08    2          23        22   # BR(A -> Z       gam    )
     2.59508196E-07    2          23        25   # BR(A -> Z       h      )
     8.24308200E-04    2     1000022   1000022   # BR(A -> ~chi_10 ~chi_10)
     2.58914694E-06    2     1000022   1000023   # BR(A -> ~chi_10 ~chi_20)
#
#         PDG            Width
DECAY        37     8.54342153E+01   # H+ decays
#          BR         NDA      ID1       ID2
     1.51716894E-03    2           4        -5   # BR(H+ -> c       bb     )
     9.83365214E-02    2         -15        16   # BR(H+ -> tau+    nu_tau )
     3.47917749E-04    2         -13        14   # BR(H+ -> mu+     nu_mu  )
     1.51716423E-05    2           2        -5   # BR(H+ -> u       bb     )
     1.33191320E-05    2           2        -3   # BR(H+ -> u       sb     )
     2.62165178E-04    2           4        -3   # BR(H+ -> c       sb     )
     8.98600156E-01    2           6        -5   # BR(H+ -> t       bb     )
     2.44425110E-07    2          24        25   # BR(H+ -> W+      h      )
     3.30673949E-13    2          24        36   # BR(H+ -> W+      A      )
     9.07335104E-04    2     1000024   1000022   # BR(H+ -> ~chi_1+ ~chi_10)
