#
#                              ======================
#                              | THE SUSYHIT OUTPUT |
#                              ======================
#
#
#              ------------------------------------------------------
#              |     This is the output of the SUSY-HIT package     |
#              |  created by A.Djouadi, M.Muehlleitner and M.Spira. |
#              |  In case of problems with SUSY-HIT email to        |
#              |           margarete.muehlleitner@cern.ch           |
#              |           michael.spira@psi.ch                     |
#              |           abdelhak.djouadi@cern.ch                 |
#              ------------------------------------------------------
#
#              ------------------------------------------------------
#              |  SUSY Les Houches Accord - MSSM Spectrum + Decays  |
#              |              based on the decay programs           |
#              |                                                    |
#              |                     SDECAY 1.3b                    |
#              |                                                    |
#              |  Authors: M.Muhlleitner, A.Djouadi and Y.Mambrini  |
#              |  Ref.:    Comput.Phys.Commun.168(2005)46           |
#              |           [hep-ph/0311167]                         |
#              |                                                    |
#              |                     HDECAY 3.4                     |
#              |                                                    |
#              |  By: A.Djouadi,J.Kalinowski,M.Muhlleitner,M.Spira  |
#              |  Ref.:    Comput.Phys.Commun.108(1998)56           |
#              |           [hep-ph/9704448]                         |
#              |                                                    |
#              |                                                    |
#              |  If not stated otherwise all DRbar couplings and   |
#              |  soft SUSY breaking masses are given at the scale  |
#              |  Q=  0.20722330E+04
#              |                                                    |
#              ------------------------------------------------------
#
#
BLOCK DCINFO  # Decay Program information
     1   SDECAY/HDECAY # decay calculator
     2   1.3b  /3.4    # version number
#
BLOCK SPINFO  # Spectrum calculator information
     1     SOFTSUSY    # spectrum calculator               
     2     3.4.0       # version number                    
#
BLOCK MODSEL  # Model selection
     1     0   #  nonUniversal                                     
#
BLOCK SMINPUTS  # Standard Model inputs
         1     1.27908970E+02   # alpha_em^-1(M_Z)^MSbar
         2     1.16637870E-05   # G_F [GeV^-2]
         3     1.18400000E-01   # alpha_S(M_Z)^MSbar
         4     9.11876000E+01   # M_Z pole mass
         5     4.18000000E+00   # mb(mb)^MSbar
         6     1.73200000E+02   # mt pole mass
         7     1.77700000E+00   # mtau pole mass
#
BLOCK MINPAR  # Input parameters - minimal models
         3     1.86800000E+01   # tanb                
#
BLOCK EXTPAR  # Input parameters - non-minimal models
         0    -1.00000000E+00   # Set                 
         1     2.53677000E+03   # M_1(MX)             
         2     9.39270000E+02   # M_2(MX)             
         3     1.18255000E+03   # M_3(MX)             
        11     2.75654000E+03   # At(MX)              
        12    -1.72230000E+02   # Ab(MX)              
        13    -4.02900000E+01   # Atau(MX)            
        23    -2.13500000E+02   # mu(MX)              
        26     2.27775000E+03   # mA(pole)            
        31     2.69480000E+02   # meL(MX)             
        32     2.69480000E+02   # mmuL(MX)            
        33     6.29660000E+02   # mtauL(MX)           
        34     1.14969000E+03   # meR(MX)             
        35     1.14969000E+03   # mmuR(MX)            
        36     3.70880000E+02   # mtauR(MX)           
        41     2.78429000E+03   # mqL1(MX)            
        42     2.78429000E+03   # mqL2(MX)            
        43     3.03871000E+03   # mqL3(MX)            
        44     2.92701000E+03   # muR(MX)             
        45     2.92701000E+03   # mcR(MX)             
        46     1.41089000E+03   # mtR(MX)             
        47     3.09065000E+03   # mdR(MX)             
        48     3.09065000E+03   # msR(MX)             
        49     5.58890000E+02   # mbR(MX)             
#
BLOCK MASS  # Mass Spectrum
# PDG code           mass       particle
        24     8.04047147E+01   # W+
        25     1.24616688E+02   # h
        35     2.27777555E+03   # H
        36     2.27774999E+03   # A
        37     2.27951271E+03   # H+
         5     4.81876030E+00   # b-quark pole mass calculated from mb(mb)_Msbar
   1000001     2.82153478E+03   # ~d_L
   2000001     3.12285376E+03   # ~d_R
   1000002     2.82056831E+03   # ~u_L
   2000002     2.96002282E+03   # ~u_R
   1000003     2.82153478E+03   # ~s_L
   2000003     3.12285376E+03   # ~s_R
   1000004     2.82056831E+03   # ~c_L
   2000004     2.96002282E+03   # ~c_R
   1000005     6.62689901E+02   # ~b_1
   2000005     3.05357525E+03   # ~b_2
   1000006     1.43589571E+03   # ~t_1
   2000006     3.05984958E+03   # ~t_2
   1000011     3.08404324E+02   # ~e_L
   2000011     1.16131842E+03   # ~e_R
   1000012     2.97835976E+02   # ~nu_eL
   1000013     3.08404324E+02   # ~mu_L
   2000013     1.16131842E+03   # ~mu_R
   1000014     2.97835976E+02   # ~nu_muL
   1000015     3.93093847E+02   # ~tau_1
   2000015     6.49186820E+02   # ~tau_2
   1000016     6.43905317E+02   # ~nu_tauL
   1000021     1.36753712E+03   # ~g
   1000022     2.19641329E+02   # ~chi_10
   1000023    -2.26511028E+02   # ~chi_20
   1000025     9.72658954E+02   # ~chi_30
   1000035     2.50797797E+03   # ~chi_40
   1000024     2.22987461E+02   # ~chi_1+
   1000037     9.72855272E+02   # ~chi_2+
#
BLOCK NMIX  # Neutralino Mixing Matrix
  1  1    -1.29636091E-02   # N_11
  1  2     6.89365209E-02   # N_12
  1  3     7.12067048E-01   # N_13
  1  4     6.98598755E-01   # N_14
  2  1    -1.22739523E-02   # N_21
  2  2     4.94540853E-02   # N_22
  2  3    -7.01962996E-01   # N_23
  2  4     7.10388342E-01   # N_24
  3  1     2.39046891E-03   # N_31
  3  2     9.96394135E-01   # N_32
  3  3    -1.44239252E-02   # N_33
  3  4    -8.35760926E-02   # N_34
  4  1     9.99837777E-01   # N_41
  4  2    -8.81328977E-04   # N_42
  4  3     6.49683834E-04   # N_43
  4  4     1.79783364E-02   # N_44
#
BLOCK UMIX  # Chargino Mixing Matrix U
  1  1     2.05578397E-02   # U_11
  1  2     9.99788665E-01   # U_12
  2  1    -9.99788665E-01   # U_21
  2  2     2.05578397E-02   # U_22
#
BLOCK VMIX  # Chargino Mixing Matrix V
  1  1     1.18749031E-01   # V_11
  1  2    -9.92924301E-01   # V_12
  2  1    -9.92924301E-01   # V_21
  2  2    -1.18749031E-01   # V_22
#
BLOCK STOPMIX  # Stop Mixing Matrix
  1  1    -5.16555396E-02   # cos(theta_t)
  1  2     9.98664961E-01   # sin(theta_t)
  2  1    -9.98664961E-01   # -sin(theta_t)
  2  2    -5.16555396E-02   # cos(theta_t)
#
BLOCK SBOTMIX  # Sbottom Mixing Matrix
  1  1    -9.38743063E-04   # cos(theta_b)
  1  2     9.99999559E-01   # sin(theta_b)
  2  1    -9.99999559E-01   # -sin(theta_b)
  2  2    -9.38743063E-04   # cos(theta_b)
#
BLOCK STAUMIX  # Stau Mixing Matrix
  1  1    -2.52348036E-02   # cos(theta_tau)
  1  2     9.99681552E-01   # sin(theta_tau)
  2  1    -9.99681552E-01   # -sin(theta_tau)
  2  2    -2.52348036E-02   # cos(theta_tau)
#
BLOCK ALPHA  # Higgs mixing
          -5.60026413E-02   # Mixing angle in the neutral Higgs boson sector
#
BLOCK HMIX Q=  2.07223300E+03  # DRbar Higgs Parameters
         1    -2.16931387E+02   # mu(Q)MSSM           
         2     1.79141968E+01   # tan                 
         3     2.42270796E+02   # higgs               
         4     5.14137524E+06   # mA^2(Q)MSSM         
#
BLOCK GAUGE Q=  2.07223300E+03  # The gauge couplings
     1     3.64697626E-01   # gprime(Q) DRbar
     2     6.41007440E-01   # g(Q) DRbar
     3     1.03340382E+00   # g3(Q) DRbar
#
BLOCK AU Q=  2.07223300E+03  # The trilinear couplings
  1  1     0.00000000E+00   # A_u(Q) DRbar
  2  2     0.00000000E+00   # A_c(Q) DRbar
  3  3     2.75654000E+03   # A_t(Q) DRbar
#
BLOCK AD Q=  2.07223300E+03  # The trilinear couplings
  1  1     0.00000000E+00   # A_d(Q) DRbar
  2  2     0.00000000E+00   # A_s(Q) DRbar
  3  3    -1.72229998E+02   # A_b(Q) DRbar
#
BLOCK AE Q=  2.07223300E+03  # The trilinear couplings
  1  1     0.00000000E+00   # A_e(Q) DRbar
  2  2     0.00000000E+00   # A_mu(Q) DRbar
  3  3    -4.02899998E+01   # A_tau(Q) DRbar
#
BLOCK Yu Q=  2.07223300E+03  # The Yukawa couplings
  1  1     0.00000000E+00   # y_u(Q) DRbar
  2  2     0.00000000E+00   # y_c(Q) DRbar
  3  3     8.53177250E-01   # y_t(Q) DRbar
#
BLOCK Yd Q=  2.07223300E+03  # The Yukawa couplings
  1  1     0.00000000E+00   # y_d(Q) DRbar
  2  2     0.00000000E+00   # y_s(Q) DRbar
  3  3     2.50664597E-01   # y_b(Q) DRbar
#
BLOCK Ye Q=  2.07223300E+03  # The Yukawa couplings
  1  1     0.00000000E+00   # y_e(Q) DRbar
  2  2     0.00000000E+00   # y_mu(Q) DRbar
  3  3     1.79493101E-01   # y_tau(Q) DRbar
#
BLOCK MSOFT Q=  2.07223300E+03  # The soft SUSY breaking masses at the scale Q
         1     2.53677000E+03   # M_1(Q)              
         2     9.39270000E+02   # M_2(Q)              
         3     1.18255000E+03   # M_3(Q)              
        21     5.11657854E+06   # mH1^2(Q)            
        22    -7.26952851E+03   # mH2^2(Q)            
        31     2.69480000E+02   # meL(Q)              
        32     2.69480000E+02   # mmuL(Q)             
        33     6.29660000E+02   # mtauL(Q)            
        34     1.14969000E+03   # meR(Q)              
        35     1.14969000E+03   # mmuR(Q)             
        36     3.70880000E+02   # mtauR(Q)            
        41     2.78429000E+03   # mqL1(Q)             
        42     2.78429000E+03   # mqL2(Q)             
        43     3.03871000E+03   # mqL3(Q)             
        44     2.92701000E+03   # muR(Q)              
        45     2.92701000E+03   # mcR(Q)              
        46     1.41089000E+03   # mtR(Q)              
        47     3.09065000E+03   # mdR(Q)              
        48     3.09065000E+03   # msR(Q)              
        49     5.58889995E+02   # mbR(Q)              
#
Block HiggsBoundsInputHiggsCouplingsFermions
# ScalarNormEffCoupSq PseudoSNormEffCoupSq NP   IP1 IP2 IP2
    1.00857642E+00    0.00000000E+00        3  25   5   5  # h0-b-b eff. coupling^2, normalised to SM
    3.20909871E+02    0.00000000E+00        3  35   5   5  # H0-b-b eff. coupling^2, normalised to SM
    0.00000000E+00    3.20918447E+02        3  36   5   5  # A0-b-b eff. coupling^2, normalised to SM
#
    9.99973275E-01    0.00000000E+00        3  25   6   6  # h0-t-t eff. coupling^2, normalised to SM
    3.14278108E-03    0.00000000E+00        3  35   6   6  # H0-t-t eff. coupling^2, normalised to SM
    0.00000000E+00    3.11605646E-03        3  36   6   6  # A0-t-t eff. coupling^2, normalised to SM
#
    1.00857642E+00    0.00000000E+00        3  25  15  15  # h0-tau-tau eff. coupling^2, normalised to SM
    3.20909871E+02    0.00000000E+00        3  35  15  15  # H0-tau-tau eff. coupling^2, normalised to SM
    0.00000000E+00    3.20918447E+02        3  36  15  15  # A0-tau-tau eff. coupling^2, normalised to SM
#
Block HiggsBoundsInputHiggsCouplingsBosons
    9.99999943E-01        3  25  24  24  # h0-W-W eff. coupling^2, normalised to SM
    5.70567748E-08        3  35  24  24  # H0-W-W eff. coupling^2, normalised to SM
    0.00000000E+00        3  36  24  24  # A0-W-W eff. coupling^2, normalised to SM
#
    9.99999943E-01        3  25  23  23  # h0-Z-Z eff. coupling^2, normalised to SM
    5.70567748E-08        3  35  23  23  # H0-Z-Z eff. coupling^2, normalised to SM
    0.00000000E+00        3  36  23  23  # A0-Z-Z eff. coupling^2, normalised to SM
#
    8.94984831E-01        3  25  21  21  # h0-g-g eff. coupling^2, normalised to SM
    3.31304470E-13        3  35  21  21  # H0-g-g eff. coupling^2, normalised to SM
    2.12667502E-11        3  36  21  21  # A0-g-g eff. coupling^2, normalised to SM
#
    0.00000000E+00        3  25  25  23  # h0-h0-Z eff. coupling^2, normalised to SM
    0.00000000E+00        3  35  25  23  # H0-h0-Z eff. coupling^2, normalised to SM
    5.70567748E-08        3  36  25  23  # A0-h0-Z eff. coupling^2, normalised to SM
    0.00000000E+00        3  35  35  23  # H0-H0-Z eff. coupling^2, normalised to SM
    9.99999943E-01        3  36  35  23  # A0-H0-Z eff. coupling^2, normalised to SM
    0.00000000E+00        3  36  36  23  # A0-A0-Z eff. coupling^2, normalised to SM
#
    0.00000000E+00        4  25  21  21  23  # h0-g-g-Z eff. coupling^2, normalised to SM
    0.00000000E+00        4  35  21  21  23  # H0-g-g-Z eff. coupling^2, normalised to SM
    0.00000000E+00        4  36  21  21  23  # A0-g-g-Z eff. coupling^2, normalised to SM
#
#
#
#                             =================
#                             |The decay table|
#                             =================
#
# - The QCD corrections to the decays gluino -> squark  + quark
#                                     squark -> gaugino + quark_prime
#                                     squark -> squark_prime + Higgs
#                                     squark -> gluino  + quark
#   are included.
#
# - The multi-body decays for the inos, stops and sbottoms are included.
#
# - The loop induced decays for the gluino, neutralinos and stops
#   are included.
#
# - The SUSY decays of the top quark are included.
#
#
#         PDG            Width
DECAY         6     1.44643025E+00   # top decays
#          BR         NDA      ID1       ID2
     1.00000000E+00    2           5        24   # BR(t ->  b    W+)
#
#         PDG            Width
DECAY   1000021     1.83100947E+01   # gluino decays
#          BR         NDA      ID1       ID2
     5.00000000E-01    2     1000005        -5   # BR(~g -> ~b_1  bb)
     5.00000000E-01    2    -1000005         5   # BR(~g -> ~b_1* b )
#
#         PDG            Width
DECAY   1000006     3.84738812E+01   # stop1 decays
#          BR         NDA      ID1       ID2
     2.43327167E-01    2     1000022         6   # BR(~t_1 -> ~chi_10 t )
     2.49490919E-01    2     1000023         6   # BR(~t_1 -> ~chi_20 t )
     1.78421930E-03    2     1000025         6   # BR(~t_1 -> ~chi_30 t )
     5.01493337E-01    2     1000024         5   # BR(~t_1 -> ~chi_1+ b )
     3.90430261E-03    2     1000037         5   # BR(~t_1 -> ~chi_2+ b )
     5.47370553E-08    2     1000005        24   # BR(~t_1 -> ~b_1    W+)
#
#         PDG            Width
DECAY   2000006     2.14176960E+02   # stop2 decays
#          BR         NDA      ID1       ID2
     9.99675115E-02    2     1000022         6   # BR(~t_2 -> ~chi_10 t )
     1.03321794E-01    2     1000023         6   # BR(~t_2 -> ~chi_20 t )
     4.73815668E-02    2     1000025         6   # BR(~t_2 -> ~chi_30 t )
     2.17513398E-04    2     1000035         6   # BR(~t_2 -> ~chi_40 t )
     2.16528379E-02    2     1000024         5   # BR(~t_2 -> ~chi_1+ b )
     9.12699503E-02    2     1000037         5   # BR(~t_2 -> ~chi_2+ b )
     5.16530204E-01    2     1000021         6   # BR(~t_2 -> ~g      t )
     6.49652423E-02    2     1000006        25   # BR(~t_2 -> ~t_1    h )
     1.38165123E-05    2     1000005        37   # BR(~t_2 -> ~b_1    H+)
     5.46153689E-02    2     1000006        23   # BR(~t_2 -> ~t_1    Z )
     6.41940698E-05    2     1000005        24   # BR(~t_2 -> ~b_1    W+)
#
#         PDG            Width
DECAY   1000005     1.19236078E+00   # sbottom1 decays
#          BR         NDA      ID1       ID2
     2.79264674E-01    2     1000022         5   # BR(~b_1 -> ~chi_10 b )
     2.66977086E-01    2     1000023         5   # BR(~b_1 -> ~chi_20 b )
     4.53758240E-01    2    -1000024         6   # BR(~b_1 -> ~chi_1- t )
#
#         PDG            Width
DECAY   2000005     2.10685178E+02   # sbottom2 decays
#          BR         NDA      ID1       ID2
     9.38754892E-03    2     1000022         5   # BR(~b_2 -> ~chi_10 b )
     8.98932484E-03    2     1000023         5   # BR(~b_2 -> ~chi_20 b )
     4.74421423E-02    2     1000025         5   # BR(~b_2 -> ~chi_30 b )
     2.27639688E-04    2     1000035         5   # BR(~b_2 -> ~chi_40 b )
     2.03391269E-01    2    -1000024         6   # BR(~b_2 -> ~chi_1- t )
     9.84264166E-02    2    -1000037         6   # BR(~b_2 -> ~chi_2- t )
     5.24777355E-01    2     1000021         5   # BR(~b_2 -> ~g      b )
     3.95275291E-05    2     1000005        25   # BR(~b_2 -> ~b_1    h )
     7.53426885E-06    2     1000005        35   # BR(~b_2 -> ~b_1    H )
     7.53220354E-06    2     1000005        36   # BR(~b_2 -> ~b_1    A )
     3.34196956E-05    2     1000005        23   # BR(~b_2 -> ~b_1    Z )
     1.07270290E-01    2     1000006       -24   # BR(~b_2 -> ~t_1    W-)
#
#         PDG            Width
DECAY   1000002     1.42224141E+02   # sup_L decays
#          BR         NDA      ID1       ID2
     3.41149198E-04    2     1000022         2   # BR(~u_L -> ~chi_10 u)
     1.71314578E-04    2     1000023         2   # BR(~u_L -> ~chi_20 u)
     6.04462705E-02    2     1000025         2   # BR(~u_L -> ~chi_30 u)
     1.26850606E-04    2     1000035         2   # BR(~u_L -> ~chi_40 u)
     2.17632230E-03    2     1000024         1   # BR(~u_L -> ~chi_1+ d)
     1.19929858E-01    2     1000037         1   # BR(~u_L -> ~chi_2+ d)
     8.16808235E-01    2     1000021         2   # BR(~u_L -> ~g      u)
#
#         PDG            Width
DECAY   2000002     1.29456688E+02   # sup_R decays
#          BR         NDA      ID1       ID2
     8.62367450E-06    2     1000022         2   # BR(~u_R -> ~chi_10 u)
     7.72533063E-06    2     1000023         2   # BR(~u_R -> ~chi_20 u)
     2.36481262E-07    2     1000025         2   # BR(~u_R -> ~chi_30 u)
     4.24375738E-03    2     1000035         2   # BR(~u_R -> ~chi_40 u)
     9.95739657E-01    2     1000021         2   # BR(~u_R -> ~g      u)
#
#         PDG            Width
DECAY   1000001     1.42260345E+02   # sdown_L decays
#          BR         NDA      ID1       ID2
     3.93522052E-04    2     1000022         1   # BR(~d_L -> ~chi_10 d)
     2.06854929E-04    2     1000023         1   # BR(~d_L -> ~chi_20 d)
     6.03530103E-02    2     1000025         1   # BR(~d_L -> ~chi_30 d)
     1.29899556E-04    2     1000035         1   # BR(~d_L -> ~chi_40 d)
     6.52322765E-05    2    -1000024         2   # BR(~d_L -> ~chi_1- u)
     1.21627370E-01    2    -1000037         2   # BR(~d_L -> ~chi_2- u)
     8.17224111E-01    2     1000021         1   # BR(~d_L -> ~g      d)
#
#         PDG            Width
DECAY   2000001     1.43824455E+02   # sdown_R decays
#          BR         NDA      ID1       ID2
     2.05119933E-06    2     1000022         1   # BR(~d_R -> ~chi_10 d)
     1.83764743E-06    2     1000023         1   # BR(~d_R -> ~chi_20 d)
     5.75543483E-08    2     1000025         1   # BR(~d_R -> ~chi_30 d)
     1.58411908E-03    2     1000035         1   # BR(~d_R -> ~chi_40 d)
     9.98411935E-01    2     1000021         1   # BR(~d_R -> ~g      d)
#
#         PDG            Width
DECAY   1000004     1.20452770E+02   # scharm_L decays
#          BR         NDA      ID1       ID2
     4.17848239E-04    2     1000022         4   # BR(~c_L -> ~chi_10 c)
     2.09823275E-04    2     1000023         4   # BR(~c_L -> ~chi_20 c)
     7.38304917E-02    2     1000025         4   # BR(~c_L -> ~chi_30 c)
     1.49441630E-04    2     1000035         4   # BR(~c_L -> ~chi_40 c)
     2.66557211E-03    2     1000024         3   # BR(~c_L -> ~chi_1+ s)
     1.46485154E-01    2     1000037         3   # BR(~c_L -> ~chi_2+ s)
     7.76241669E-01    2     1000021         4   # BR(~c_L -> ~g      c)
#
#         PDG            Width
DECAY   2000004     1.04306784E+02   # scharm_R decays
#          BR         NDA      ID1       ID2
     1.10938436E-05    2     1000022         4   # BR(~c_R -> ~chi_10 c)
     9.93787368E-06    2     1000023         4   # BR(~c_R -> ~chi_20 c)
     3.03489853E-07    2     1000025         4   # BR(~c_R -> ~chi_30 c)
     5.31033962E-03    2     1000035         4   # BR(~c_R -> ~chi_40 c)
     9.94668325E-01    2     1000021         4   # BR(~c_R -> ~g      c)
#
#         PDG            Width
DECAY   1000003     1.20469034E+02   # sstrange_L decays
#          BR         NDA      ID1       ID2
     4.82050950E-04    2     1000022         3   # BR(~s_L -> ~chi_10 s)
     2.53381484E-04    2     1000023         3   # BR(~s_L -> ~chi_20 s)
     7.37252357E-02    2     1000025         3   # BR(~s_L -> ~chi_30 s)
     1.53068639E-04    2     1000035         3   # BR(~s_L -> ~chi_40 s)
     7.99059289E-05    2    -1000024         4   # BR(~s_L -> ~chi_1- c)
     1.48575791E-01    2    -1000037         4   # BR(~s_L -> ~chi_2- c)
     7.76730566E-01    2     1000021         3   # BR(~s_L -> ~g      s)
#
#         PDG            Width
DECAY   2000003     1.15806796E+02   # sstrange_R decays
#          BR         NDA      ID1       ID2
     2.63842986E-06    2     1000022         3   # BR(~s_R -> ~chi_10 s)
     2.36367728E-06    2     1000023         3   # BR(~s_R -> ~chi_20 s)
     7.38810208E-08    2     1000025         3   # BR(~s_R -> ~chi_30 s)
     1.99789879E-03    2     1000035         3   # BR(~s_R -> ~chi_40 s)
     9.97997025E-01    2     1000021         3   # BR(~s_R -> ~g      s)
#
#         PDG            Width
DECAY   1000011     1.88500435E-03   # selectron_L decays
#          BR         NDA      ID1       ID2
     6.15417706E-01    2     1000022        11   # BR(~e_L -> ~chi_10 e-)
     2.55859810E-01    2     1000023        11   # BR(~e_L -> ~chi_20 e-)
     1.28722484E-01    2    -1000024        12   # BR(~e_L -> ~chi_1- nu_e)
#
#         PDG            Width
DECAY   2000011     2.25644140E-03   # selectron_R decays
#           BR         NDA      ID1       ID2
     4.25565011E-01    2     1000022        11   # BR(~e_R -> ~chi_10 e-)
     3.79693660E-01    2     1000023        11   # BR(~e_R -> ~chi_20 e-)
#           BR         NDA      ID1       ID2       ID3
     3.11490474E-04    3        11       -5        1000005   # BR(~e_R- -> e-  bb  ~b_1)
     2.32698266E-03    3        11       5        -1000005   # BR(~e_R- -> e-  b  ~b_1*)
     1.79973653E-02    3        11       -11        1000011   # BR(~e_R- -> e-  e+  ~e_L-)
     1.82765660E-03    3        11       11        -1000011   # BR(~e_R- -> e-  e-  ~e_L+)
     1.70795484E-02    3        11       -12        1000012   # BR(~e_R- -> e-  nu_eb  ~nu_eL)
     1.32682374E-03    3        11       12        -1000012   # BR(~e_R- -> e-  nu_e  ~nu_eL*)
     1.80337056E-02    3        11       -13        1000013   # BR(~e_R- -> e-  mu+  ~mu_L-)
     1.85965389E-03    3        11       13        -1000013   # BR(~e_R- -> e-  mu-  ~mu_L+)
     1.74092711E-02    3        11       -14        1000014   # BR(~e_R- -> e-  nu_mub  ~nu_muL)
     1.32310106E-03    3        11       14        -1000014   # BR(~e_R- -> e-  nu_mu  ~nu_muL*)
     4.39874043E-03    3        11       -15        1000015   # BR(~e_R- -> e-  tau+  ~tau_1-)
     4.54786905E-02    3        11       15        -1000015   # BR(~e_R- -> e-  tau-  ~tau_1+)
     2.12954789E-03    3        11       -15        2000015   # BR(~e_R- -> e-  tau+  ~tau_2-)
     3.30684414E-04    3        11       15        -2000015   # BR(~e_R- -> e-  tau-  ~tau_2+)
     1.97576591E-03    3        11       -16        1000016   # BR(~e_R- -> e-  nu_taub  ~nu_tau1)
     2.66973475E-04    3        11       16        -1000016   # BR(~e_R- -> e-  nu_tau  ~nu_tau1*)
     5.56495728E-03    3        11       23        1000022   # BR(~e_R- -> e-  Z  ~chi_10)
     7.36070523E-03    3        11       25        1000022   # BR(~e_R- -> e-  h  ~chi_10)
     7.83135782E-03    3        11       23        1000023   # BR(~e_R- -> e-  Z  ~chi_20)
     5.47632214E-03    3        11       25        1000023   # BR(~e_R- -> e-  h  ~chi_20)
     6.38616186E-08    3        11       23        1000025   # BR(~e_R- -> e-  Z  ~chi_30)
     3.52657065E-07    3        11       25        1000025   # BR(~e_R- -> e-  h  ~chi_30)
     2.10464142E-03    3        11       -24        1000024   # BR(~e_R- -> e-  W-  ~chi_1+)
     3.23252358E-02    3        11       24        -1000024   # BR(~e_R- -> e-  W+  ~chi_1-)
     8.05782060E-07    3        11       -24        1000037   # BR(~e_R- -> e-  W-  ~chi_2+)
     8.85243464E-07    3        11       24        -1000037   # BR(~e_R- -> e-  W+  ~chi_2-)
#
#         PDG            Width
DECAY   1000013     1.88500269E-03   # smuon_L decays
#          BR         NDA      ID1       ID2
     6.15417652E-01    2     1000022        13   # BR(~mu_L -> ~chi_10 mu-)
     2.55859751E-01    2     1000023        13   # BR(~mu_L -> ~chi_20 mu-)
     1.28722597E-01    2    -1000024        14   # BR(~mu_L -> ~chi_1- nu_mu)
#
#         PDG            Width
DECAY   2000013     2.25644758E-03   # smuon_R decays
#           BR         NDA      ID1       ID2
     4.25563838E-01    2     1000022        13   # BR(~mu_R -> ~chi_10 mu-)
     3.79692613E-01    2     1000023        13   # BR(~mu_R -> ~chi_20 mu-)
#           BR         NDA      ID1       ID2       ID3
     3.08998980E-04    3        13       -5        1000005   # BR(~mu_R- -> mu-  bb  ~b_1)
     2.32697628E-03    3        13       5        -1000005   # BR(~mu_R- -> mu-  b  ~b_1*)
     1.79973160E-02    3        13       -11        1000011   # BR(~mu_R- -> mu-  e+  ~e_L-)
     1.85964878E-03    3        13       11        -1000011   # BR(~mu_R- -> mu-  e-  ~e_L+)
     1.71278076E-02    3        13       -12        1000012   # BR(~mu_R- -> mu-  nu_eb  ~nu_eL)
     1.31281578E-03    3        13       12        -1000012   # BR(~mu_R- -> mu-  nu_e  ~nu_eL*)
     1.80336562E-02    3        13       -13        1000013   # BR(~mu_R- -> mu-  mu+  ~mu_L-)
     1.82765159E-03    3        13       13        -1000013   # BR(~mu_R- -> mu-  mu-  ~mu_L+)
     1.74092234E-02    3        13       -14        1000014   # BR(~mu_R- -> mu-  nu_mub  ~nu_muL)
     1.32309743E-03    3        13       14        -1000014   # BR(~mu_R- -> mu-  nu_mu  ~nu_muL*)
     4.36464825E-03    3        13       -15        1000015   # BR(~mu_R- -> mu-  tau+  ~tau_1-)
     4.54785659E-02    3        13       15        -1000015   # BR(~mu_R- -> mu-  tau-  ~tau_1+)
     2.12360351E-03    3        13       -15        2000015   # BR(~mu_R- -> mu-  tau+  ~tau_2-)
     3.30683507E-04    3        13       15        -2000015   # BR(~mu_R- -> mu-  tau-  ~tau_2+)
     1.97576050E-03    3        13       -16        1000016   # BR(~mu_R- -> mu-  nu_taub  ~nu_tau1)
     2.70394050E-04    3        13       16        -1000016   # BR(~mu_R- -> mu-  nu_tau  ~nu_tau1*)
     5.56494204E-03    3        13       23        1000022   # BR(~mu_R- -> mu-  Z  ~chi_10)
     7.36068506E-03    3        13       25        1000022   # BR(~mu_R- -> mu-  h  ~chi_10)
     7.83133637E-03    3        13       23        1000023   # BR(~mu_R- -> mu-  Z  ~chi_20)
     5.47630714E-03    3        13       25        1000023   # BR(~mu_R- -> mu-  h  ~chi_20)
     6.38525802E-08    3        13       23        1000025   # BR(~mu_R- -> mu-  Z  ~chi_30)
     3.53657673E-07    3        13       25        1000025   # BR(~mu_R- -> mu-  h  ~chi_30)
     2.11261279E-03    3        13       -24        1000024   # BR(~mu_R- -> mu-  W-  ~chi_1+)
     3.23247039E-02    3        13       24        -1000024   # BR(~mu_R- -> mu-  W+  ~chi_1-)
     8.06932107E-07    3        13       -24        1000037   # BR(~mu_R- -> mu-  W-  ~chi_2+)
     8.89628466E-07    3        13       24        -1000037   # BR(~mu_R- -> mu-  W+  ~chi_2-)
#
#         PDG            Width
DECAY   1000015     2.32672488E-01   # stau_1 decays
#          BR         NDA      ID1       ID2
     2.64280308E-01    2     1000022        15   # BR(~tau_1 -> ~chi_10  tau-)
     2.36309364E-01    2     1000023        15   # BR(~tau_1 -> ~chi_20  tau-)
     4.99410328E-01    2    -1000024        16   # BR(~tau_1 -> ~chi_1-  nu_tau)
#
#         PDG            Width
DECAY   2000015     3.59540446E-01   # stau_2 decays
#          BR         NDA      ID1       ID2
     4.76144254E-01    2     1000022        15   # BR(~tau_2 -> ~chi_10  tau-)
     4.54965843E-01    2     1000023        15   # BR(~tau_2 -> ~chi_20  tau-)
     2.08851228E-03    2    -1000024        16   # BR(~tau_2 -> ~chi_1-  nu_tau)
     3.45163402E-02    2     1000015        25   # BR(~tau_2 -> ~tau_1   h)
     3.22850498E-02    2     1000015        23   # BR(~tau_2 -> ~tau_1   Z)
#
#         PDG            Width
DECAY   1000012     8.79458042E-03   # snu_eL decays
#          BR         NDA      ID1       ID2
     1.67727049E-01    2     1000022        12   # BR(~nu_eL -> ~chi_10 nu_e)
     7.83668504E-02    2     1000023        12   # BR(~nu_eL -> ~chi_20 nu_e)
     7.53906101E-01    2     1000024        11   # BR(~nu_eL -> ~chi_1+ e-)
#
#         PDG            Width
DECAY   1000014     8.79457178E-03   # snu_muL decays
#          BR         NDA      ID1       ID2
     1.67727214E-01    2     1000022        14   # BR(~nu_muL -> ~chi_10 nu_mu)
     7.83669274E-02    2     1000023        14   # BR(~nu_muL -> ~chi_20 nu_mu)
     7.53905859E-01    2     1000024        13   # BR(~nu_muL -> ~chi_1+ mu-)
#
#         PDG            Width
DECAY   1000016     4.18341270E-01   # snu_tauL decays
#          BR         NDA      ID1       ID2
     2.86062042E-02    2     1000022        16   # BR(~nu_tauL -> ~chi_10 nu_tau)
     1.53854007E-02    2     1000023        16   # BR(~nu_tauL -> ~chi_20 nu_tau)
     9.02592445E-01    2     1000024        15   # BR(~nu_tauL -> ~chi_1+ tau-)
     5.34159498E-02    2    -1000015       -24   # BR(~nu_tauL -> ~tau_1+ W-)
#
#         PDG            Width
DECAY   1000024     4.62924049E-10   # chargino1+ decays
#           BR         NDA      ID1       ID2       ID3
     3.63614702E-01    3     1000022         2        -1   # BR(~chi_1+ -> ~chi_10 u    db)
     3.63614702E-01    3     1000022         4        -3   # BR(~chi_1+ -> ~chi_10 c    sb)
     1.21400788E-01    3     1000022       -11        12   # BR(~chi_1+ -> ~chi_10 e+   nu_e)
     1.21400788E-01    3     1000022       -13        14   # BR(~chi_1+ -> ~chi_10 mu+  nu_mu)
     2.99690209E-02    3     1000022       -15        16   # BR(~chi_1+ -> ~chi_10 tau+ nu_tau)
#
#         PDG            Width
DECAY   1000037     2.24875962E+01   # chargino2+ decays
#          BR         NDA      ID1       ID2
     6.89175351E-06    2    -1000005         6   # BR(~chi_2+ -> ~b_1*    t )
     1.43180303E-01    2     1000012       -11   # BR(~chi_2+ -> ~nu_eL   e+  )
     1.43180303E-01    2     1000014       -13   # BR(~chi_2+ -> ~nu_muL mu+ )
     5.50510018E-02    2     1000016       -15   # BR(~chi_2+ -> ~nu_tau1 tau+)
     1.43006268E-01    2    -1000011        12   # BR(~chi_2+ -> ~e_L+    nu_e)
     1.43006268E-01    2    -1000013        14   # BR(~chi_2+ -> ~mu_L+   nu_mu)
     4.69515830E-05    2    -1000015        16   # BR(~chi_2+ -> ~tau_1+  nu_tau)
     5.43662693E-02    2    -2000015        16   # BR(~chi_2+ -> ~tau_2+  nu_tau)
     8.07565587E-02    2     1000024        23   # BR(~chi_2+ -> ~chi_1+  Z )
     7.77523066E-02    2     1000022        24   # BR(~chi_2+ -> ~chi_10  W+)
     8.00479563E-02    2     1000023        24   # BR(~chi_2+ -> ~chi_20  W+)
     7.95989213E-02    2     1000024        25   # BR(~chi_2+ -> ~chi_1+  h )
#
#         PDG            Width
DECAY   1000022     0.00000000E+00   # neutralino1 decays
#
#         PDG            Width
DECAY   1000023     1.42552205E-08   # neutralino2 decays
#          BR         NDA      ID1       ID2
     3.27968580E-02    2     1000022        22   # BR(~chi_20 -> ~chi_10 gam)
#           BR         NDA      ID1       ID2       ID3
     1.23348197E-01    3     1000022        -2         2   # BR(~chi_20 -> ~chi_10 ub      u)
     1.60005733E-01    3     1000022        -1         1   # BR(~chi_20 -> ~chi_10 db      d)
     1.23348197E-01    3     1000022        -4         4   # BR(~chi_20 -> ~chi_10 cb      c)
     1.60005733E-01    3     1000022        -3         3   # BR(~chi_20 -> ~chi_10 sb      s)
     3.66670712E-02    3     1000022       -11        11   # BR(~chi_20 -> ~chi_10 e+      e-)
     3.66670712E-02    3     1000022       -13        13   # BR(~chi_20 -> ~chi_10 mu+     mu-)
     2.30504869E-02    3     1000022       -15        15   # BR(~chi_20 -> ~chi_10 tau+    tau-)
     7.34559628E-02    3     1000022       -12        12   # BR(~chi_20 -> ~chi_10 nu_eb   nu_e)
     7.34559628E-02    3     1000022       -14        14   # BR(~chi_20 -> ~chi_10 nu_mub  nu_mu)
     7.33646266E-02    3     1000022       -16        16   # BR(~chi_20 -> ~chi_10 nu_taub nu_tau)
     1.51702590E-02    3     1000024        -2         1   # BR(~chi_20 -> ~chi_1+ ub      d)
     1.51702590E-02    3    -1000024        -1         2   # BR(~chi_20 -> ~chi_1- db      u)
     1.51702590E-02    3     1000024        -4         3   # BR(~chi_20 -> ~chi_1+ cb      s)
     1.51702590E-02    3    -1000024        -3         4   # BR(~chi_20 -> ~chi_1- sb      c)
     5.06201410E-03    3     1000024       -12        11   # BR(~chi_20 -> ~chi_1+ nu_eb   e-)
     5.06201410E-03    3    -1000024        12       -11   # BR(~chi_20 -> ~chi_1- nu_e    e+)
     5.06201410E-03    3     1000024       -14        13   # BR(~chi_20 -> ~chi_1+ nu_mub  mu-)
     5.06201410E-03    3    -1000024        14       -13   # BR(~chi_20 -> ~chi_1- nu_mu   mu+)
     1.45250420E-03    3     1000024       -16        15   # BR(~chi_20 -> ~chi_1+ nu_taub tau-)
     1.45250420E-03    3    -1000024        16       -15   # BR(~chi_20 -> ~chi_1- nu_tau  tau+)
#
#         PDG            Width
DECAY   1000025     2.24789842E+01   # neutralino3 decays
#          BR         NDA      ID1       ID2
     2.66882033E-02    2     1000022        23   # BR(~chi_30 -> ~chi_10   Z )
     5.36574450E-02    2     1000023        23   # BR(~chi_30 -> ~chi_20   Z )
     8.03282335E-02    2     1000024       -24   # BR(~chi_30 -> ~chi_1+   W-)
     8.03282335E-02    2    -1000024        24   # BR(~chi_30 -> ~chi_1-   W+)
     5.13765096E-02    2     1000022        25   # BR(~chi_30 -> ~chi_10   h )
     2.57031680E-02    2     1000023        25   # BR(~chi_30 -> ~chi_20   h )
     3.82172689E-06    2     1000005        -5   # BR(~chi_30 -> ~b_1      bb)
     3.82172689E-06    2    -1000005         5   # BR(~chi_30 -> ~b_1*     b )
     7.12189064E-02    2     1000011       -11   # BR(~chi_30 -> ~e_L-     e+)
     7.12189064E-02    2    -1000011        11   # BR(~chi_30 -> ~e_L+     e-)
     7.12189064E-02    2     1000013       -13   # BR(~chi_30 -> ~mu_L-    mu+)
     7.12189064E-02    2    -1000013        13   # BR(~chi_30 -> ~mu_L+    mu-)
     2.39977062E-05    2     1000015       -15   # BR(~chi_30 -> ~tau_1-   tau+)
     2.39977062E-05    2    -1000015        15   # BR(~chi_30 -> ~tau_1+   tau-)
     2.70625508E-02    2     2000015       -15   # BR(~chi_30 -> ~tau_2-   tau+)
     2.70625508E-02    2    -2000015        15   # BR(~chi_30 -> ~tau_2+   tau-)
     7.19017337E-02    2     1000012       -12   # BR(~chi_30 -> ~nu_eL    nu_eb)
     7.19017337E-02    2    -1000012        12   # BR(~chi_30 -> ~nu_eL*   nu_e )
     7.19017337E-02    2     1000014       -14   # BR(~chi_30 -> ~nu_muL   nu_mub)
     7.19017337E-02    2    -1000014        14   # BR(~chi_30 -> ~nu_muL*  nu_mu )
     2.76274531E-02    2     1000016       -16   # BR(~chi_30 -> ~nu_tau1  nu_taub)
     2.76274531E-02    2    -1000016        16   # BR(~chi_30 -> ~nu_tau1* nu_tau )
#
#         PDG            Width
DECAY   1000035     6.57818308E+01   # neutralino4 decays
#          BR         NDA      ID1       ID2
     1.11636990E-02    2     1000022        23   # BR(~chi_40 -> ~chi_10   Z )
     1.33092915E-02    2     1000023        23   # BR(~chi_40 -> ~chi_20   Z )
     1.07121383E-04    2     1000025        23   # BR(~chi_40 -> ~chi_30   Z )
     2.32262052E-02    2     1000024       -24   # BR(~chi_40 -> ~chi_1+   W-)
     2.32262052E-02    2    -1000024        24   # BR(~chi_40 -> ~chi_1-   W+)
     6.01022830E-04    2     1000037       -24   # BR(~chi_40 -> ~chi_2+   W-)
     6.01022830E-04    2    -1000037        24   # BR(~chi_40 -> ~chi_2-   W+)
     1.26863952E-02    2     1000022        25   # BR(~chi_40 -> ~chi_10   h )
     2.66666407E-04    2     1000022        35   # BR(~chi_40 -> ~chi_10   H )
     4.60477735E-06    2     1000022        36   # BR(~chi_40 -> ~chi_10   A )
     1.15128285E-02    2     1000023        25   # BR(~chi_40 -> ~chi_20   h )
     9.23368601E-07    2     1000023        35   # BR(~chi_40 -> ~chi_20   H )
     1.58022681E-04    2     1000023        36   # BR(~chi_40 -> ~chi_20   A )
     5.34314292E-04    2     1000025        25   # BR(~chi_40 -> ~chi_30   h )
     1.91236184E-04    2     1000024       -37   # BR(~chi_40 -> ~chi_1+   H-)
     1.91236184E-04    2    -1000024        37   # BR(~chi_40 -> ~chi_1-   H+)
     5.97256489E-02    2     1000006        -6   # BR(~chi_40 -> ~t_1      tb)
     5.97256489E-02    2    -1000006         6   # BR(~chi_40 -> ~t_1*     t )
     2.90861996E-02    2     1000005        -5   # BR(~chi_40 -> ~b_1      bb)
     2.90861996E-02    2    -1000005         5   # BR(~chi_40 -> ~b_1*     b )
     2.43798747E-02    2     1000011       -11   # BR(~chi_40 -> ~e_L-     e+)
     2.43798747E-02    2    -1000011        11   # BR(~chi_40 -> ~e_L+     e-)
     6.22385133E-02    2     2000011       -11   # BR(~chi_40 -> ~e_R-     e+)
     6.22385133E-02    2    -2000011        11   # BR(~chi_40 -> ~e_R+     e-)
     2.43798747E-02    2     1000013       -13   # BR(~chi_40 -> ~mu_L-    mu+)
     2.43798747E-02    2    -1000013        13   # BR(~chi_40 -> ~mu_L+    mu-)
     6.22385133E-02    2     2000013       -13   # BR(~chi_40 -> ~mu_R-    mu+)
     6.22385133E-02    2    -2000013        13   # BR(~chi_40 -> ~mu_R+    mu-)
     9.59122629E-02    2     1000015       -15   # BR(~chi_40 -> ~tau_1-   tau+)
     9.59122629E-02    2    -1000015        15   # BR(~chi_40 -> ~tau_1+   tau-)
     2.19180595E-02    2     2000015       -15   # BR(~chi_40 -> ~tau_2-   tau+)
     2.19180595E-02    2    -2000015        15   # BR(~chi_40 -> ~tau_2+   tau-)
     2.45822010E-02    2     1000012       -12   # BR(~chi_40 -> ~nu_eL    nu_eb)
     2.45822010E-02    2    -1000012        12   # BR(~chi_40 -> ~nu_eL*   nu_e )
     2.45822010E-02    2     1000014       -14   # BR(~chi_40 -> ~nu_muL   nu_mub)
     2.45822010E-02    2    -1000014        14   # BR(~chi_40 -> ~nu_muL*  nu_mu )
     2.20662533E-02    2     1000016       -16   # BR(~chi_40 -> ~nu_tau1  nu_taub)
     2.20662533E-02    2    -1000016        16   # BR(~chi_40 -> ~nu_tau1* nu_tau )
#
#         PDG            Width
DECAY        25     3.95645885E-03   # h decays
#          BR         NDA      ID1       ID2
     5.99309979E-01    2           5        -5   # BR(h -> b       bb     )
     6.57656877E-02    2         -15        15   # BR(h -> tau+    tau-   )
     2.32802752E-04    2         -13        13   # BR(h -> mu+     mu-    )
     2.54226294E-04    2           3        -3   # BR(h -> s       sb     )
     2.18664667E-02    2           4        -4   # BR(h -> c       cb     )
     8.01923591E-02    2          21        21   # BR(h -> g       g      )
     2.32546880E-03    2          22        22   # BR(h -> gam     gam    )
     1.52608437E-03    2          22        23   # BR(h -> Z       gam    )
     2.03257248E-01    2          24       -24   # BR(h -> W+      W-     )
     2.52696774E-02    2          23        23   # BR(h -> Z       Z      )
#
#         PDG            Width
DECAY        35     2.94465055E+01   # H decays
#          BR         NDA      ID1       ID2
     3.00786420E-01    2           5        -5   # BR(H -> b       bb     )
     5.31696870E-02    2         -15        15   # BR(H -> tau+    tau-   )
     1.90725724E-04    2         -13        13   # BR(H -> mu+     mu-    )
     1.20121418E-04    2           3        -3   # BR(H -> s       sb     )
     1.03550832E-07    2           4        -4   # BR(H -> c       cb     )
     1.00900993E-02    2           6        -6   # BR(H -> t       tb     )
     4.51364231E-06    2          21        21   # BR(H -> g       g      )
     1.25949250E-08    2          22        22   # BR(H -> gam     gam    )
     5.77680752E-09    2          23        22   # BR(H -> Z       gam    )
     7.33345104E-06    2          24       -24   # BR(H -> W+      W-     )
     3.65511776E-06    2          23        23   # BR(H -> Z       Z      )
     2.93193968E-05    2          25        25   # BR(H -> h       h      )
     8.86678466E-03    2     1000024  -1000024   # BR(H -> ~chi_1+ ~chi_1-)
     6.73828091E-05    2     1000037  -1000037   # BR(H -> ~chi_2+ ~chi_2-)
     2.07593729E-01    2     1000024  -1000037   # BR(H -> ~chi_1+ ~chi_2-)
     2.07593729E-01    2     1000037  -1000024   # BR(H -> ~chi_2+ ~chi_1-)
     2.00834503E-03    2     1000022   1000022   # BR(H -> ~chi_10 ~chi_10)
     8.47458502E-04    2     1000023   1000023   # BR(H -> ~chi_20 ~chi_20)
     3.33101436E-05    2     1000025   1000025   # BR(H -> ~chi_30 ~chi_30)
     2.13283496E-05    2     1000022   1000023   # BR(H -> ~chi_10 ~chi_20)
     1.06334301E-01    2     1000022   1000025   # BR(H -> ~chi_10 ~chi_30)
     1.02192301E-01    2     1000023   1000025   # BR(H -> ~chi_20 ~chi_30)
     8.75003746E-08    2     1000005  -1000005   # BR(H -> ~b_1    ~b_1*  )
     1.24765712E-06    2     1000011  -1000011   # BR(H -> ~e_L-   ~e_L+  )
     1.24765712E-06    2     1000013  -1000013   # BR(H -> ~mu_L-  ~mu_L+ )
     2.13000410E-07    2     1000015  -1000015   # BR(H -> ~tau_1- ~tau_1+)
     9.48632224E-07    2     2000015  -2000015   # BR(H -> ~tau_2- ~tau_2+)
     1.19971981E-05    2     1000015  -2000015   # BR(H -> ~tau_1- ~tau_2+)
     1.19971981E-05    2     2000015  -1000015   # BR(H -> ~tau_2- ~tau_1+)
     4.06175563E-06    2     1000012  -1000012   # BR(H -> ~nu_eL  ~nu_eL*   )
     4.06175563E-06    2     1000014  -1000014   # BR(H -> ~nu_muL ~nu_muL*  )
     3.47105231E-06    2     1000016  -1000016   # BR(H -> ~nu_tauL ~nu_tauL*)
#
#         PDG            Width
DECAY        36     2.94506348E+01   # A decays
#          BR         NDA      ID1       ID2
     3.00775705E-01    2           5        -5   # BR(A -> b       bb     )
     5.31631625E-02    2         -15        15   # BR(A -> tau+    tau-   )
     1.90701820E-04    2         -13        13   # BR(A -> mu+     mu-    )
     1.20132989E-04    2           3        -3   # BR(A -> s       sb     )
     1.03601666E-07    2           4        -4   # BR(A -> c       cb     )
     1.01612402E-02    2           6        -6   # BR(A -> t       tb     )
     3.61557619E-05    2          21        21   # BR(A -> g       g      )
     2.11179516E-09    2          22        22   # BR(A -> gam     gam    )
     3.04184995E-08    2          23        22   # BR(A -> Z       gam    )
     7.40970681E-06    2          23        25   # BR(A -> Z       h      )
     8.87114381E-03    2     1000024  -1000024   # BR(A -> ~chi_1+ ~chi_1-)
     6.46405898E-05    2     1000037  -1000037   # BR(A -> ~chi_2+ ~chi_2-)
     2.07586866E-01    2     1000024  -1000037   # BR(A -> ~chi_1+ ~chi_2-)
     2.07586866E-01    2     1000037  -1000024   # BR(A -> ~chi_2+ ~chi_1-)
     1.67424152E-03    2     1000022   1000022   # BR(A -> ~chi_10 ~chi_10)
     1.10676679E-03    2     1000023   1000023   # BR(A -> ~chi_20 ~chi_20)
     3.20956779E-05    2     1000025   1000025   # BR(A -> ~chi_30 ~chi_30)
     1.06294392E-04    2     1000022   1000023   # BR(A -> ~chi_10 ~chi_20)
     1.04884807E-01    2     1000022   1000025   # BR(A -> ~chi_10 ~chi_30)
     1.03607555E-01    2     1000023   1000025   # BR(A -> ~chi_20 ~chi_30)
     1.20397688E-05    2     1000015  -2000015   # BR(A -> ~tau_1- ~tau_2+)
     1.20397688E-05    2    -1000015   2000015   # BR(A -> ~tau_1+ ~tau_2-)
#
#         PDG            Width
DECAY        37     2.94579494E+01   # H+ decays
#          BR         NDA      ID1       ID2
     5.05406511E-04    2           4        -5   # BR(H+ -> c       bb     )
     5.31910938E-02    2         -15        16   # BR(H+ -> tau+    nu_tau )
     1.90802013E-04    2         -13        14   # BR(H+ -> mu+     nu_mu  )
     5.05405342E-06    2           2        -5   # BR(H+ -> u       bb     )
     6.00461363E-06    2           2        -3   # BR(H+ -> u       sb     )
     1.18288307E-04    2           4        -3   # BR(H+ -> c       sb     )
     3.09786688E-01    2           6        -5   # BR(H+ -> t       bb     )
     7.43325786E-06    2          24        25   # BR(H+ -> W+      h      )
     7.59766846E-13    2          24        36   # BR(H+ -> W+      A      )
     5.41592563E-04    2     1000024   1000022   # BR(H+ -> ~chi_1+ ~chi_10)
     1.26263589E-03    2     1000024   1000023   # BR(H+ -> ~chi_1+ ~chi_20)
     2.10049483E-01    2     1000024   1000025   # BR(H+ -> ~chi_1+ ~chi_30)
     2.14577536E-01    2     1000037   1000022   # BR(H+ -> ~chi_2+ ~chi_10)
     2.07151532E-01    2     1000037   1000023   # BR(H+ -> ~chi_2+ ~chi_20)
     9.78892036E-10    2     1000037   1000025   # BR(H+ -> ~chi_2+ ~chi_30)
     4.87781598E-06    2    -1000011   1000012   # BR(H+ -> ~e_L+   ~nu_eL )
     4.87781598E-06    2    -1000013   1000014   # BR(H+ -> ~mu_L+  ~nu_muL)
     2.36026328E-05    2    -1000015   1000016   # BR(H+ -> ~tau_1+ ~nu_tauL)
     3.99904997E-06    2    -2000015   1000016   # BR(H+ -> ~tau_2+ ~nu_tauL)
     2.56909184E-03    2     1000006  -1000005   # BR(H+ -> ~t_1    ~b_1*  )
