#
#                              ======================
#                              | THE SUSYHIT OUTPUT |
#                              ======================
#
#
#              ------------------------------------------------------
#              |     This is the output of the SUSY-HIT package     |
#              |  created by A.Djouadi, M.Muehlleitner and M.Spira. |
#              |  In case of problems with SUSY-HIT email to        |
#              |           margarete.muehlleitner@cern.ch           |
#              |           michael.spira@psi.ch                     |
#              |           abdelhak.djouadi@cern.ch                 |
#              ------------------------------------------------------
#
#              ------------------------------------------------------
#              |  SUSY Les Houches Accord - MSSM Spectrum + Decays  |
#              |              based on the decay programs           |
#              |                                                    |
#              |                     SDECAY 1.3b                    |
#              |                                                    |
#              |  Authors: M.Muhlleitner, A.Djouadi and Y.Mambrini  |
#              |  Ref.:    Comput.Phys.Commun.168(2005)46           |
#              |           [hep-ph/0311167]                         |
#              |                                                    |
#              |                     HDECAY 3.4                     |
#              |                                                    |
#              |  By: A.Djouadi,J.Kalinowski,M.Muhlleitner,M.Spira  |
#              |  Ref.:    Comput.Phys.Commun.108(1998)56           |
#              |           [hep-ph/9704448]                         |
#              |                                                    |
#              |                                                    |
#              |  If not stated otherwise all DRbar couplings and   |
#              |  soft SUSY breaking masses are given at the scale  |
#              |  Q=  0.27735780E+04
#              |                                                    |
#              ------------------------------------------------------
#
#
BLOCK DCINFO  # Decay Program information
     1   SDECAY/HDECAY # decay calculator
     2   1.3b  /3.4    # version number
#
BLOCK SPINFO  # Spectrum calculator information
     1     SOFTSUSY    # spectrum calculator               
     2     3.4.0       # version number                    
#
BLOCK MODSEL  # Model selection
     1     0   #  nonUniversal                                     
#
BLOCK SMINPUTS  # Standard Model inputs
         1     1.27908970E+02   # alpha_em^-1(M_Z)^MSbar
         2     1.16637870E-05   # G_F [GeV^-2]
         3     1.18400000E-01   # alpha_S(M_Z)^MSbar
         4     9.11876000E+01   # M_Z pole mass
         5     4.18000000E+00   # mb(mb)^MSbar
         6     1.73200000E+02   # mt pole mass
         7     1.77700000E+00   # mtau pole mass
#
BLOCK MINPAR  # Input parameters - minimal models
         3     5.18000000E+01   # tanb                
#
BLOCK EXTPAR  # Input parameters - non-minimal models
         0    -1.00000000E+00   # Set                 
         1     1.91826000E+03   # M_1(MX)             
         2     2.78678000E+03   # M_2(MX)             
         3     2.75804000E+03   # M_3(MX)             
        11     4.19593000E+03   # At(MX)              
        12     3.70124000E+03   # Ab(MX)              
        13    -8.70380000E+02   # Atau(MX)            
        23    -1.04910000E+02   # mu(MX)              
        26     3.71638000E+03   # mA(pole)            
        31     3.03720000E+02   # meL(MX)             
        32     3.03720000E+02   # mmuL(MX)            
        33     3.01230000E+02   # mtauL(MX)           
        34     3.44261000E+03   # meR(MX)             
        35     3.44261000E+03   # mmuR(MX)            
        36     2.82830000E+03   # mtauR(MX)           
        41     3.40044000E+03   # mqL1(MX)            
        42     3.40044000E+03   # mqL2(MX)            
        43     2.10118000E+03   # mqL3(MX)            
        44     5.97180000E+02   # muR(MX)             
        45     5.97180000E+02   # mcR(MX)             
        46     3.66230000E+03   # mtR(MX)             
        47     3.73308000E+03   # mdR(MX)             
        48     3.73308000E+03   # msR(MX)             
        49     1.65252000E+03   # mbR(MX)             
#
BLOCK MASS  # Mass Spectrum
# PDG code           mass       particle
        24     8.03942898E+01   # W+
        25     1.27904001E+02   # h
        35     3.71639017E+03   # H
        36     3.71638222E+03   # A
        37     3.71713182E+03   # H+
         5     4.81876030E+00   # b-quark pole mass calculated from mb(mb)_Msbar
   1000001     3.48848390E+03   # ~d_L
   2000001     3.79680737E+03   # ~d_R
   1000002     3.48773285E+03   # ~u_L
   2000002     8.28463258E+02   # ~u_R
   1000003     3.48848390E+03   # ~s_L
   2000003     3.79680737E+03   # ~s_R
   1000004     3.48773285E+03   # ~c_L
   2000004     8.28463258E+02   # ~c_R
   1000005     1.73918325E+03   # ~b_1
   2000005     2.19061235E+03   # ~b_2
   1000006     2.18557253E+03   # ~t_1
   2000006     3.66501924E+03   # ~t_2
   1000011     4.19238965E+02   # ~e_L
   2000011     3.44327538E+03   # ~e_R
   1000012     4.11506049E+02   # ~nu_eL
   1000013     4.19238965E+02   # ~mu_L
   2000013     3.44327538E+03   # ~mu_R
   1000014     4.11506049E+02   # ~nu_muL
   1000015     3.89175045E+02   # ~tau_1
   2000015     2.81572695E+03   # ~tau_2
   1000016     3.80925727E+02   # ~nu_tauL
   1000021     2.91270714E+03   # ~g
   1000022     1.10493817E+02   # ~chi_10
   1000023    -1.13371776E+02   # ~chi_20
   1000025     1.89280611E+03   # ~chi_30
   1000035     2.79776028E+03   # ~chi_40
   1000024     1.12189092E+02   # ~chi_1+
   1000037     2.79792600E+03   # ~chi_2+
#
BLOCK NMIX  # Neutralino Mixing Matrix
  1  1    -1.68853703E-02   # N_11
  1  2     2.03327736E-02   # N_12
  1  3     7.11592617E-01   # N_13
  1  4     7.02095015E-01   # N_14
  2  1    -1.57776096E-02   # N_21
  2  2     1.97987414E-02   # N_22
  2  3    -7.02591467E-01   # N_23
  2  4     7.11142959E-01   # N_24
  3  1     9.99731836E-01   # N_31
  3  2     2.14139911E-03   # N_32
  3  3     9.29707626E-04   # N_33
  3  4     2.30392301E-02   # N_34
  4  1    -1.48572348E-03   # N_41
  4  2     9.99594919E-01   # N_42
  4  3    -5.60442744E-04   # N_43
  4  4    -2.84161216E-02   # N_44
#
BLOCK UMIX  # Chargino Mixing Matrix U
  1  1     7.93991150E-04   # U_11
  1  2     9.99999685E-01   # U_12
  2  1    -9.99999685E-01   # U_21
  2  2     7.93991150E-04   # U_22
#
BLOCK VMIX  # Chargino Mixing Matrix V
  1  1     4.01696626E-02   # V_11
  1  2    -9.99192873E-01   # V_12
  2  1    -9.99192873E-01   # V_21
  2  2    -4.01696626E-02   # V_22
#
BLOCK STOPMIX  # Stop Mixing Matrix
  1  1     9.97853901E-01   # cos(theta_t)
  1  2    -6.54797088E-02   # sin(theta_t)
  2  1     6.54797088E-02   # -sin(theta_t)
  2  2     9.97853901E-01   # cos(theta_t)
#
BLOCK SBOTMIX  # Sbottom Mixing Matrix
  1  1    -1.24563253E-02   # cos(theta_b)
  1  2     9.99922417E-01   # sin(theta_b)
  2  1    -9.99922417E-01   # -sin(theta_b)
  2  2    -1.24563253E-02   # cos(theta_b)
#
BLOCK STAUMIX  # Stau Mixing Matrix
  1  1     9.99999489E-01   # cos(theta_tau)
  1  2    -1.01094003E-03   # sin(theta_tau)
  2  1     1.01094003E-03   # -sin(theta_tau)
  2  2     9.99999489E-01   # cos(theta_tau)
#
BLOCK ALPHA  # Higgs mixing
          -1.94672158E-02   # Mixing angle in the neutral Higgs boson sector
#
BLOCK HMIX Q=  2.77357800E+03  # DRbar Higgs Parameters
         1    -1.08196512E+02   # mu(Q)MSSM           
         2     5.14490737E+01   # tan                 
         3     2.42901291E+02   # higgs               
         4     1.39605415E+07   # mA^2(Q)MSSM         
#
BLOCK GAUGE Q=  2.77357800E+03  # The gauge couplings
     1     3.65288169E-01   # gprime(Q) DRbar
     2     6.39188137E-01   # g(Q) DRbar
     3     1.01365971E+00   # g3(Q) DRbar
#
BLOCK AU Q=  2.77357800E+03  # The trilinear couplings
  1  1     0.00000000E+00   # A_u(Q) DRbar
  2  2     0.00000000E+00   # A_c(Q) DRbar
  3  3     4.19593001E+03   # A_t(Q) DRbar
#
BLOCK AD Q=  2.77357800E+03  # The trilinear couplings
  1  1     0.00000000E+00   # A_d(Q) DRbar
  2  2     0.00000000E+00   # A_s(Q) DRbar
  3  3     3.70124001E+03   # A_b(Q) DRbar
#
BLOCK AE Q=  2.77357800E+03  # The trilinear couplings
  1  1     0.00000000E+00   # A_e(Q) DRbar
  2  2     0.00000000E+00   # A_mu(Q) DRbar
  3  3    -8.70379995E+02   # A_tau(Q) DRbar
#
BLOCK Yu Q=  2.77357800E+03  # The Yukawa couplings
  1  1     0.00000000E+00   # y_u(Q) DRbar
  2  2     0.00000000E+00   # y_c(Q) DRbar
  3  3     8.36068215E-01   # y_t(Q) DRbar
#
BLOCK Yd Q=  2.77357800E+03  # The Yukawa couplings
  1  1     0.00000000E+00   # y_d(Q) DRbar
  2  2     0.00000000E+00   # y_s(Q) DRbar
  3  3     7.16604697E-01   # y_b(Q) DRbar
#
BLOCK Ye Q=  2.77357800E+03  # The Yukawa couplings
  1  1     0.00000000E+00   # y_e(Q) DRbar
  2  2     0.00000000E+00   # y_mu(Q) DRbar
  3  3     5.15258458E-01   # y_tau(Q) DRbar
#
BLOCK MSOFT Q=  2.77357800E+03  # The soft SUSY breaking masses at the scale Q
         1     1.91826000E+03   # M_1(Q)              
         2     2.78678000E+03   # M_2(Q)              
         3     2.75804000E+03   # M_3(Q)              
        21     1.43663641E+07   # mH1^2(Q)            
        22     7.29290160E+04   # mH2^2(Q)            
        31     3.03720000E+02   # meL(Q)              
        32     3.03720000E+02   # mmuL(Q)             
        33     3.01230005E+02   # mtauL(Q)            
        34     3.44261000E+03   # meR(Q)              
        35     3.44261000E+03   # mmuR(Q)             
        36     2.82830000E+03   # mtauR(Q)            
        41     3.40043999E+03   # mqL1(Q)             
        42     3.40043999E+03   # mqL2(Q)             
        43     2.10117998E+03   # mqL3(Q)             
        44     5.97179967E+02   # muR(Q)              
        45     5.97179967E+02   # mcR(Q)              
        46     3.66229999E+03   # mtR(Q)              
        47     3.73307999E+03   # mdR(Q)              
        48     3.73307999E+03   # msR(Q)              
        49     1.65251998E+03   # mbR(Q)              
#
Block HiggsBoundsInputHiggsCouplingsFermions
# ScalarNormEffCoupSq PseudoSNormEffCoupSq NP   IP1 IP2 IP2
    1.00339512E+00    0.00000000E+00        3  25   5   5  # h0-b-b eff. coupling^2, normalised to SM
    2.64700379E+03    0.00000000E+00        3  35   5   5  # H0-b-b eff. coupling^2, normalised to SM
    0.00000000E+00    2.64700718E+03        3  36   5   5  # A0-b-b eff. coupling^2, normalised to SM
#
    9.99998717E-01    0.00000000E+00        3  25   6   6  # h0-t-t eff. coupling^2, normalised to SM
    3.79067772E-04    0.00000000E+00        3  35   6   6  # H0-t-t eff. coupling^2, normalised to SM
    0.00000000E+00    3.77785148E-04        3  36   6   6  # A0-t-t eff. coupling^2, normalised to SM
#
    1.00339512E+00    0.00000000E+00        3  25  15  15  # h0-tau-tau eff. coupling^2, normalised to SM
    2.64700379E+03    0.00000000E+00        3  35  15  15  # H0-tau-tau eff. coupling^2, normalised to SM
    0.00000000E+00    2.64700718E+03        3  36  15  15  # A0-tau-tau eff. coupling^2, normalised to SM
#
Block HiggsBoundsInputHiggsCouplingsBosons
    9.99999999E-01        3  25  24  24  # h0-W-W eff. coupling^2, normalised to SM
    1.08682137E-09        3  35  24  24  # H0-W-W eff. coupling^2, normalised to SM
    0.00000000E+00        3  36  24  24  # A0-W-W eff. coupling^2, normalised to SM
#
    9.99999999E-01        3  25  23  23  # h0-Z-Z eff. coupling^2, normalised to SM
    1.08682137E-09        3  35  23  23  # H0-Z-Z eff. coupling^2, normalised to SM
    0.00000000E+00        3  36  23  23  # A0-Z-Z eff. coupling^2, normalised to SM
#
    8.84546781E-01        3  25  21  21  # h0-g-g eff. coupling^2, normalised to SM
    5.08499795E-13        3  35  21  21  # H0-g-g eff. coupling^2, normalised to SM
    1.20871174E-12        3  36  21  21  # A0-g-g eff. coupling^2, normalised to SM
#
    0.00000000E+00        3  25  25  23  # h0-h0-Z eff. coupling^2, normalised to SM
    0.00000000E+00        3  35  25  23  # H0-h0-Z eff. coupling^2, normalised to SM
    1.08682137E-09        3  36  25  23  # A0-h0-Z eff. coupling^2, normalised to SM
    0.00000000E+00        3  35  35  23  # H0-H0-Z eff. coupling^2, normalised to SM
    9.99999999E-01        3  36  35  23  # A0-H0-Z eff. coupling^2, normalised to SM
    0.00000000E+00        3  36  36  23  # A0-A0-Z eff. coupling^2, normalised to SM
#
    0.00000000E+00        4  25  21  21  23  # h0-g-g-Z eff. coupling^2, normalised to SM
    0.00000000E+00        4  35  21  21  23  # H0-g-g-Z eff. coupling^2, normalised to SM
    0.00000000E+00        4  36  21  21  23  # A0-g-g-Z eff. coupling^2, normalised to SM
#
#
#
#                             =================
#                             |The decay table|
#                             =================
#
# - The QCD corrections to the decays gluino -> squark  + quark
#                                     squark -> gaugino + quark_prime
#                                     squark -> squark_prime + Higgs
#                                     squark -> gluino  + quark
#   are included.
#
# - The multi-body decays for the inos, stops and sbottoms are included.
#
# - The loop induced decays for the gluino, neutralinos and stops
#   are included.
#
# - The SUSY decays of the top quark are included.
#
#
#         PDG            Width
DECAY         6     1.43869701E+00   # top decays
#          BR         NDA      ID1       ID2
     1.00000000E+00    2           5        24   # BR(t ->  b    W+)
#
#         PDG            Width
DECAY   1000021     1.54049208E+02   # gluino decays
#          BR         NDA      ID1       ID2
     1.78369961E-01    2     2000002        -2   # BR(~g -> ~u_R  ub)
     1.78369961E-01    2    -2000002         2   # BR(~g -> ~u_R* u )
     1.78369951E-01    2     2000004        -4   # BR(~g -> ~c_R  cb)
     1.78369951E-01    2    -2000004         4   # BR(~g -> ~c_R* c )
     7.43431763E-02    2     1000005        -5   # BR(~g -> ~b_1  bb)
     7.43431763E-02    2    -1000005         5   # BR(~g -> ~b_1* b )
     3.40527788E-02    2     2000005        -5   # BR(~g -> ~b_2  bb)
     3.40527788E-02    2    -2000005         5   # BR(~g -> ~b_2* b )
     3.48641331E-02    2     1000006        -6   # BR(~g -> ~t_1  tb)
     3.48641331E-02    2    -1000006         6   # BR(~g -> ~t_1* t )
#
#         PDG            Width
DECAY   1000006     5.19399950E+01   # stop1 decays
#          BR         NDA      ID1       ID2
     2.82797901E-01    2     1000022         6   # BR(~t_1 -> ~chi_10 t )
     2.89597162E-01    2     1000023         6   # BR(~t_1 -> ~chi_20 t )
     2.07161249E-04    2     1000025         6   # BR(~t_1 -> ~chi_30 t )
     4.26481452E-01    2     1000024         5   # BR(~t_1 -> ~chi_1+ b )
     9.16323751E-04    2     1000005        24   # BR(~t_1 -> ~b_1    W+)
#
#         PDG            Width
DECAY   2000006     2.07484591E+02   # stop2 decays
#          BR         NDA      ID1       ID2
     1.20649332E-01    2     1000022         6   # BR(~t_2 -> ~chi_10 t )
     1.23853271E-01    2     1000023         6   # BR(~t_2 -> ~chi_20 t )
     2.22863100E-02    2     1000025         6   # BR(~t_2 -> ~chi_30 t )
     2.24478296E-06    2     1000035         6   # BR(~t_2 -> ~chi_40 t )
     2.45495276E-01    2     1000024         5   # BR(~t_2 -> ~chi_1+ b )
     4.22121422E-06    2     1000037         5   # BR(~t_2 -> ~chi_2+ b )
     1.29744226E-01    2     1000021         6   # BR(~t_2 -> ~g      t )
     1.01559817E-01    2     1000006        25   # BR(~t_2 -> ~t_1    h )
     8.73348762E-02    2     1000006        23   # BR(~t_2 -> ~t_1    Z )
     4.60318272E-05    2     1000005        24   # BR(~t_2 -> ~b_1    W+)
     1.69024394E-01    2     2000005        24   # BR(~t_2 -> ~b_2    W+)
#
#         PDG            Width
DECAY   1000005     3.48859326E+01   # sbottom1 decays
#          BR         NDA      ID1       ID2
     2.55996908E-01    2     1000022         5   # BR(~b_1 -> ~chi_10 b )
     2.49123793E-01    2     1000023         5   # BR(~b_1 -> ~chi_20 b )
     4.94879299E-01    2    -1000024         6   # BR(~b_1 -> ~chi_1- t )
#
#         PDG            Width
DECAY   2000005     5.22233643E+01   # sbottom2 decays
#          BR         NDA      ID1       ID2
     2.15843723E-01    2     1000022         5   # BR(~b_2 -> ~chi_10 b )
     2.10634829E-01    2     1000023         5   # BR(~b_2 -> ~chi_20 b )
     3.88170993E-04    2     1000025         5   # BR(~b_2 -> ~chi_30 b )
     5.72142678E-01    2    -1000024         6   # BR(~b_2 -> ~chi_1- t )
     5.10494579E-04    2     1000005        25   # BR(~b_2 -> ~b_1    h )
     4.80104563E-04    2     1000005        23   # BR(~b_2 -> ~b_1    Z )
#
#         PDG            Width
DECAY   1000002     3.20693356E+01   # sup_L decays
#          BR         NDA      ID1       ID2
     1.22889816E-04    2     1000022         2   # BR(~u_L -> ~chi_10 u)
     1.18285254E-04    2     1000023         2   # BR(~u_L -> ~chi_20 u)
     7.85107407E-03    2     1000025         2   # BR(~u_L -> ~chi_30 u)
     5.51042168E-02    2     1000035         2   # BR(~u_L -> ~chi_40 u)
     1.35365161E-03    2     1000024         1   # BR(~u_L -> ~chi_1+ d)
     1.10135886E-01    2     1000037         1   # BR(~u_L -> ~chi_2+ d)
     8.25313996E-01    2     1000021         2   # BR(~u_L -> ~g      u)
#
#         PDG            Width
DECAY   2000002     1.10634961E-03   # sup_R decays
#           BR         NDA      ID1       ID2
     5.06307785E-01    2     1000022         2   # BR(~u_R -> ~chi_10 u)
     4.41221388E-01    2     1000023         2   # BR(~u_R -> ~chi_20 u)
#           BR         NDA      ID1       ID2       ID3
     1.86631783E-03    3        2       -11        1000011   # BR(~u_R -> u  e+  ~e_L-)
     2.07194903E-04    3        2       11        -1000011   # BR(~u_R -> u  e-  ~e_L+)
     1.97017288E-03    3        2       -12        1000012   # BR(~u_R -> u  nu_eb  ~nu_eL)
     2.06562191E-04    3        2       12        -1000012   # BR(~u_R -> u  nu_e  ~nu_eL*)
     1.84616145E-03    3        2       -13        1000013   # BR(~u_R -> u  mu+  ~mu_L-)
     2.04691174E-04    3        2       13        -1000013   # BR(~u_R -> u  mu-  ~mu_L+)
     1.97270373E-03    3        2       -14        1000014   # BR(~u_R -> u  nu_mub  ~nu_muL)
     2.05821015E-04    3        2       14        -1000014   # BR(~u_R -> u  nu_mu  ~nu_muL*)
     2.52099334E-03    3        2       -15        1000015   # BR(~u_R -> u  tau+  ~tau_1-)
     2.70682972E-04    3        2       15        -1000015   # BR(~u_R -> u  tau-  ~tau_1+)
     2.72038782E-03    3        2       -16        1000016   # BR(~u_R -> u  nu_taub  ~nu_tau1)
     2.67709228E-04    3        2       16        -1000016   # BR(~u_R -> u  nu_tau  ~nu_tau1*)
     5.12812582E-03    3        2       23        1000022   # BR(~u_R -> u  Z  ~chi_10)
     4.40403283E-03    3        2       25        1000022   # BR(~u_R -> u  h  ~chi_10)
     6.38586568E-03    3        2       23        1000023   # BR(~u_R -> u  Z  ~chi_20)
     3.09874923E-03    3        2       25        1000023   # BR(~u_R -> u  h  ~chi_20)
     1.04668541E-03    3        2       -24        1000024   # BR(~u_R -> u  W-  ~chi_1+)
     1.81479704E-02    3        2       24        -1000024   # BR(~u_R -> u  W+  ~chi_1-)
#
#         PDG            Width
DECAY   1000001     3.20969778E+01   # sdown_L decays
#          BR         NDA      ID1       ID2
     2.32478010E-04    2     1000022         1   # BR(~d_L -> ~chi_10 d)
     2.17981822E-04    2     1000023         1   # BR(~d_L -> ~chi_20 d)
     7.50360871E-03    2     1000025         1   # BR(~d_L -> ~chi_30 d)
     5.52153782E-02    2     1000035         1   # BR(~d_L -> ~chi_40 d)
     5.28521957E-07    2    -1000024         2   # BR(~d_L -> ~chi_1- u)
     1.10411293E-01    2    -1000037         2   # BR(~d_L -> ~chi_2- u)
     8.26418731E-01    2     1000021         1   # BR(~d_L -> ~g      d)
#
#         PDG            Width
DECAY   2000001     5.45114491E+01   # sdown_R decays
#          BR         NDA      ID1       ID2
     1.11435356E-05    2     1000022         1   # BR(~d_R -> ~chi_10 d)
     9.72867324E-06    2     1000023         1   # BR(~d_R -> ~chi_20 d)
     2.23223569E-02    2     1000025         1   # BR(~d_R -> ~chi_30 d)
     1.84783802E-08    2     1000035         1   # BR(~d_R -> ~chi_40 d)
     9.77656752E-01    2     1000021         1   # BR(~d_R -> ~g      d)
#
#         PDG            Width
DECAY   1000004     2.31144050E+01   # scharm_L decays
#          BR         NDA      ID1       ID2
     1.79291348E-04    2     1000022         4   # BR(~c_L -> ~chi_10 c)
     1.72569900E-04    2     1000023         4   # BR(~c_L -> ~chi_20 c)
     1.13195275E-02    2     1000025         4   # BR(~c_L -> ~chi_30 c)
     7.78373864E-02    2     1000035         4   # BR(~c_L -> ~chi_40 c)
     1.97490046E-03    2     1000024         3   # BR(~c_L -> ~chi_1+ s)
     1.55571624E-01    2     1000037         3   # BR(~c_L -> ~chi_2+ s)
     7.52944700E-01    2     1000021         4   # BR(~c_L -> ~g      c)
#
#         PDG            Width
DECAY   2000004     1.06463493E-03   # scharm_R decays
#           BR         NDA      ID1       ID2
     5.05069606E-01    2     1000022         4   # BR(~c_R -> ~chi_10 c)
     4.40130999E-01    2     1000023         4   # BR(~c_R -> ~chi_20 c)
#           BR         NDA      ID1       ID2       ID3
     1.93502950E-03    3        4       -11        1000011   # BR(~c_R -> c  e+  ~e_L-)
     2.13782202E-04    3        4       11        -1000011   # BR(~c_R -> c  e-  ~e_L+)
     2.05854602E-03    3        4       -12        1000012   # BR(~c_R -> c  nu_eb  ~nu_eL)
     2.14139132E-04    3        4       12        -1000012   # BR(~c_R -> c  nu_e  ~nu_eL*)
     1.89990009E-03    3        4       -13        1000013   # BR(~c_R -> c  mu+  ~mu_L-)
     2.11405801E-04    3        4       13        -1000013   # BR(~c_R -> c  mu-  ~mu_L+)
     2.03647273E-03    3        4       -14        1000014   # BR(~c_R -> c  nu_mub  ~nu_muL)
     2.15482316E-04    3        4       14        -1000014   # BR(~c_R -> c  nu_mu  ~nu_muL*)
     2.62381021E-03    3        4       -15        1000015   # BR(~c_R -> c  tau+  ~tau_1-)
     2.80640801E-04    3        4       15        -1000015   # BR(~c_R -> c  tau-  ~tau_1+)
     2.80631409E-03    3        4       -16        1000016   # BR(~c_R -> c  nu_taub  ~nu_tau1)
     2.78226828E-04    3        4       16        -1000016   # BR(~c_R -> c  nu_tau  ~nu_tau1*)
     5.44017469E-03    3        4       23        1000022   # BR(~c_R -> c  Z  ~chi_10)
     4.57189583E-03    3        4       25        1000022   # BR(~c_R -> c  h  ~chi_10)
     6.69797674E-03    3        4       23        1000023   # BR(~c_R -> c  Z  ~chi_20)
     3.21903772E-03    3        4       25        1000023   # BR(~c_R -> c  h  ~chi_20)
     1.08534857E-03    3        4       -24        1000024   # BR(~c_R -> c  W-  ~chi_1+)
     1.90112117E-02    3        4       24        -1000024   # BR(~c_R -> c  W+  ~chi_1-)
#
#         PDG            Width
DECAY   1000003     2.31202917E+01   # sstrange_L decays
#          BR         NDA      ID1       ID2
     3.39381084E-04    2     1000022         3   # BR(~s_L -> ~chi_10 s)
     3.18212352E-04    2     1000023         3   # BR(~s_L -> ~chi_20 s)
     1.08251446E-02    2     1000025         3   # BR(~s_L -> ~chi_30 s)
     7.80439365E-02    2     1000035         3   # BR(~s_L -> ~chi_40 s)
     7.71548789E-07    2    -1000024         4   # BR(~s_L -> ~chi_1- c)
     1.56058781E-01    2    -1000037         4   # BR(~s_L -> ~chi_2- c)
     7.54413773E-01    2     1000021         3   # BR(~s_L -> ~g      s)
#
#         PDG            Width
DECAY   2000003     3.63092757E+01   # sstrange_R decays
#          BR         NDA      ID1       ID2
     1.75580010E-05    2     1000022         3   # BR(~s_R -> ~chi_10 s)
     1.53284220E-05    2     1000023         3   # BR(~s_R -> ~chi_20 s)
     3.48162988E-02    2     1000025         3   # BR(~s_R -> ~chi_30 s)
     2.84404271E-08    2     1000035         3   # BR(~s_R -> ~chi_40 s)
     9.65150786E-01    2     1000021         3   # BR(~s_R -> ~g      s)
#
#         PDG            Width
DECAY   1000011     3.40385331E-04   # selectron_L decays
#          BR         NDA      ID1       ID2
     4.94654066E-01    2     1000022        11   # BR(~e_L -> ~chi_10 e-)
     4.99906297E-01    2     1000023        11   # BR(~e_L -> ~chi_20 e-)
     5.43963710E-03    2    -1000024        12   # BR(~e_L -> ~chi_1- nu_e)
#
#         PDG            Width
DECAY   2000011     8.90696768E+00   # selectron_R decays
#          BR         NDA      ID1       ID2
     5.83982081E-04    2     1000022        11   # BR(~e_R -> ~chi_10 e-)
     5.09816050E-04    2     1000023        11   # BR(~e_R -> ~chi_20 e-)
     9.98905679E-01    2     1000025        11   # BR(~e_R -> ~chi_30 e-)
     5.23104334E-07    2     1000035        11   # BR(~e_R -> ~chi_40 e-)
#
#         PDG            Width
DECAY   1000013     3.40385281E-04   # smuon_L decays
#          BR         NDA      ID1       ID2
     4.94654066E-01    2     1000022        13   # BR(~mu_L -> ~chi_10 mu-)
     4.99906296E-01    2     1000023        13   # BR(~mu_L -> ~chi_20 mu-)
     5.43963790E-03    2    -1000024        14   # BR(~mu_L -> ~chi_1- nu_mu)
#
#         PDG            Width
DECAY   2000013     8.90696764E+00   # smuon_R decays
#          BR         NDA      ID1       ID2
     5.83982082E-04    2     1000022        13   # BR(~mu_R -> ~chi_10 mu-)
     5.09816051E-04    2     1000023        13   # BR(~mu_R -> ~chi_20 mu-)
     9.98905679E-01    2     1000025        13   # BR(~mu_R -> ~chi_30 mu-)
     5.23104328E-07    2     1000035        13   # BR(~mu_R -> ~chi_40 mu-)
#
#         PDG            Width
DECAY   1000015     1.72994565E+00   # stau_1 decays
#          BR         NDA      ID1       ID2
     5.08717784E-01    2     1000022        15   # BR(~tau_1 -> ~chi_10  tau-)
     4.91278237E-01    2     1000023        15   # BR(~tau_1 -> ~chi_20  tau-)
     3.97935660E-06    2    -1000024        16   # BR(~tau_1 -> ~chi_1-  nu_tau)
#
#         PDG            Width
DECAY   2000015     3.41747353E+01   # stau_2 decays
#          BR         NDA      ID1       ID2
     2.19788014E-01    2     1000022        15   # BR(~tau_2 -> ~chi_10  tau-)
     2.14246929E-01    2     1000023        15   # BR(~tau_2 -> ~chi_20  tau-)
     1.31347106E-01    2     1000025        15   # BR(~tau_2 -> ~chi_30  tau-)
     2.72365983E-10    2     1000035        15   # BR(~tau_2 -> ~chi_40  tau-)
     4.33794657E-01    2    -1000024        16   # BR(~tau_2 -> ~chi_1-  nu_tau)
     2.89984922E-10    2    -1000037        16   # BR(~tau_2 -> ~chi_2-  nu_tau)
     3.96127755E-04    2     1000016       -24   # BR(~tau_2 -> ~nu_tauL W-)
     2.23586213E-04    2     1000015        25   # BR(~tau_2 -> ~tau_1   h)
     2.03579383E-04    2     1000015        23   # BR(~tau_2 -> ~tau_1   Z)
#
#         PDG            Width
DECAY   1000012     7.10485211E-03   # snu_eL decays
#          BR         NDA      ID1       ID2
     1.82188184E-01    2     1000022        12   # BR(~nu_eL -> ~chi_10 nu_e)
     1.66903316E-01    2     1000023        12   # BR(~nu_eL -> ~chi_20 nu_e)
     6.50908500E-01    2     1000024        11   # BR(~nu_eL -> ~chi_1+ e-)
#
#         PDG            Width
DECAY   1000014     7.10485140E-03   # snu_muL decays
#          BR         NDA      ID1       ID2
     1.82188202E-01    2     1000022        14   # BR(~nu_muL -> ~chi_10 nu_mu)
     1.66903333E-01    2     1000023        14   # BR(~nu_muL -> ~chi_20 nu_mu)
     6.50908465E-01    2     1000024        13   # BR(~nu_muL -> ~chi_1+ mu-)
#
#         PDG            Width
DECAY   1000016     1.68488355E+00   # snu_tauL decays
#          BR         NDA      ID1       ID2
     6.92826934E-04    2     1000022        16   # BR(~nu_tauL -> ~chi_10 nu_tau)
     6.33748848E-04    2     1000023        16   # BR(~nu_tauL -> ~chi_20 nu_tau)
     9.98673424E-01    2     1000024        15   # BR(~nu_tauL -> ~chi_1+ tau-)
#
#         PDG            Width
DECAY   1000024     9.19214156E-12   # chargino1+ decays
#           BR         NDA      ID1       ID2       ID3
     5.99988331E-01    3     1000022         2        -1   # BR(~chi_1+ -> ~chi_10 u    db)
     2.00005834E-01    3     1000022       -11        12   # BR(~chi_1+ -> ~chi_10 e+   nu_e)
     2.00005834E-01    3     1000022       -13        14   # BR(~chi_1+ -> ~chi_10 mu+  nu_mu)
#
#         PDG            Width
DECAY   1000037     9.77006169E+01   # chargino2+ decays
#          BR         NDA      ID1       ID2
     5.31088992E-02    2     1000006        -5   # BR(~chi_2+ -> ~t_1     bb)
     1.71058467E-05    2    -1000005         6   # BR(~chi_2+ -> ~b_1*    t )
     4.90364799E-02    2    -2000005         6   # BR(~chi_2+ -> ~b_2*    t )
     1.11224472E-01    2     1000012       -11   # BR(~chi_2+ -> ~nu_eL   e+  )
     1.11224472E-01    2     1000014       -13   # BR(~chi_2+ -> ~nu_muL mu+ )
     1.11929631E-01    2     1000016       -15   # BR(~chi_2+ -> ~nu_tau1 tau+)
     1.11217360E-01    2    -1000011        12   # BR(~chi_2+ -> ~e_L+    nu_e)
     1.11217360E-01    2    -1000013        14   # BR(~chi_2+ -> ~mu_L+   nu_mu)
     1.11924656E-01    2    -1000015        16   # BR(~chi_2+ -> ~tau_1+  nu_tau)
     5.82826632E-02    2     1000024        23   # BR(~chi_2+ -> ~chi_1+  Z )
     5.57686392E-02    2     1000022        24   # BR(~chi_2+ -> ~chi_10  W+)
     5.72226706E-02    2     1000023        24   # BR(~chi_2+ -> ~chi_20  W+)
     1.51048448E-04    2     1000025        24   # BR(~chi_2+ -> ~chi_30  W+)
     5.76745438E-02    2     1000024        25   # BR(~chi_2+ -> ~chi_1+  h )
#
#         PDG            Width
DECAY   1000022     0.00000000E+00   # neutralino1 decays
#
#         PDG            Width
DECAY   1000023     1.81380083E-10   # neutralino2 decays
#          BR         NDA      ID1       ID2
     2.33817669E-01    2     1000022        22   # BR(~chi_20 -> ~chi_10 gam)
#           BR         NDA      ID1       ID2       ID3
     1.25268878E-01    3     1000022        -2         2   # BR(~chi_20 -> ~chi_10 ub      u)
     1.62609425E-01    3     1000022        -1         1   # BR(~chi_20 -> ~chi_10 db      d)
     1.62609425E-01    3     1000022        -3         3   # BR(~chi_20 -> ~chi_10 sb      s)
     3.73578880E-02    3     1000022       -11        11   # BR(~chi_20 -> ~chi_10 e+      e-)
     3.73578880E-02    3     1000022       -13        13   # BR(~chi_20 -> ~chi_10 mu+     mu-)
     7.47043074E-02    3     1000022       -12        12   # BR(~chi_20 -> ~chi_10 nu_eb   nu_e)
     7.47043074E-02    3     1000022       -14        14   # BR(~chi_20 -> ~chi_10 nu_mub  nu_mu)
     7.47052510E-02    3     1000022       -16        16   # BR(~chi_20 -> ~chi_10 nu_taub nu_tau)
     5.05939138E-03    3     1000024        -2         1   # BR(~chi_20 -> ~chi_1+ ub      d)
     5.05939138E-03    3    -1000024        -1         2   # BR(~chi_20 -> ~chi_1- db      u)
     1.68654473E-03    3     1000024       -12        11   # BR(~chi_20 -> ~chi_1+ nu_eb   e-)
     1.68654473E-03    3    -1000024        12       -11   # BR(~chi_20 -> ~chi_1- nu_e    e+)
     1.68654473E-03    3     1000024       -14        13   # BR(~chi_20 -> ~chi_1+ nu_mub  mu-)
     1.68654473E-03    3    -1000024        14       -13   # BR(~chi_20 -> ~chi_1- nu_mu   mu+)
#
#         PDG            Width
DECAY   1000025     3.59953139E+01   # neutralino3 decays
#          BR         NDA      ID1       ID2
     1.45621013E-02    2     1000022        23   # BR(~chi_30 -> ~chi_10   Z )
     1.75234728E-02    2     1000023        23   # BR(~chi_30 -> ~chi_20   Z )
     3.14379323E-02    2     1000024       -24   # BR(~chi_30 -> ~chi_1+   W-)
     3.14379323E-02    2    -1000024        24   # BR(~chi_30 -> ~chi_1-   W+)
     1.80761583E-02    2     1000022        25   # BR(~chi_30 -> ~chi_10   h )
     1.58029978E-02    2     1000023        25   # BR(~chi_30 -> ~chi_20   h )
     1.21973145E-01    2     2000002        -2   # BR(~chi_30 -> ~u_R      ub)
     1.21973145E-01    2    -2000002         2   # BR(~chi_30 -> ~u_R*     u )
     1.21973094E-01    2     2000004        -4   # BR(~chi_30 -> ~c_R      cb)
     1.21973094E-01    2    -2000004         4   # BR(~chi_30 -> ~c_R*     c )
     1.12697833E-03    2     1000005        -5   # BR(~chi_30 -> ~b_1      bb)
     1.12697833E-03    2    -1000005         5   # BR(~chi_30 -> ~b_1*     b )
     3.17779556E-02    2     1000011       -11   # BR(~chi_30 -> ~e_L-     e+)
     3.17779556E-02    2    -1000011        11   # BR(~chi_30 -> ~e_L+     e-)
     3.17779556E-02    2     1000013       -13   # BR(~chi_30 -> ~mu_L-    mu+)
     3.17779556E-02    2    -1000013        13   # BR(~chi_30 -> ~mu_L+    mu-)
     3.22330667E-02    2     1000015       -15   # BR(~chi_30 -> ~tau_1-   tau+)
     3.22330667E-02    2    -1000015        15   # BR(~chi_30 -> ~tau_1+   tau-)
     3.14232513E-02    2     1000012       -12   # BR(~chi_30 -> ~nu_eL    nu_eb)
     3.14232513E-02    2    -1000012        12   # BR(~chi_30 -> ~nu_eL*   nu_e )
     3.14232513E-02    2     1000014       -14   # BR(~chi_30 -> ~nu_muL   nu_mub)
     3.14232513E-02    2    -1000014        14   # BR(~chi_30 -> ~nu_muL*  nu_mu )
     3.18710054E-02    2     1000016       -16   # BR(~chi_30 -> ~nu_tau1  nu_taub)
     3.18710054E-02    2    -1000016        16   # BR(~chi_30 -> ~nu_tau1* nu_tau )
#
#         PDG            Width
DECAY   1000035     9.76889748E+01   # neutralino4 decays
#          BR         NDA      ID1       ID2
     2.76591282E-02    2     1000022        23   # BR(~chi_40 -> ~chi_10   Z )
     3.06854035E-02    2     1000023        23   # BR(~chi_40 -> ~chi_20   Z )
     5.03172055E-06    2     1000025        23   # BR(~chi_40 -> ~chi_30   Z )
     5.65630542E-02    2     1000024       -24   # BR(~chi_40 -> ~chi_1+   W-)
     5.65630542E-02    2    -1000024        24   # BR(~chi_40 -> ~chi_1-   W+)
     2.95618088E-02    2     1000022        25   # BR(~chi_40 -> ~chi_10   h )
     2.79287348E-02    2     1000023        25   # BR(~chi_40 -> ~chi_20   h )
     1.34735146E-04    2     1000025        25   # BR(~chi_40 -> ~chi_30   h )
     1.81087318E-07    2     2000002        -2   # BR(~chi_40 -> ~u_R      ub)
     1.81087318E-07    2    -2000002         2   # BR(~chi_40 -> ~u_R*     u )
     1.81087305E-07    2     2000004        -4   # BR(~chi_40 -> ~c_R      cb)
     1.81087305E-07    2    -2000004         4   # BR(~chi_40 -> ~c_R*     c )
     2.49247403E-02    2     1000006        -6   # BR(~chi_40 -> ~t_1      tb)
     2.49247403E-02    2    -1000006         6   # BR(~chi_40 -> ~t_1*     t )
     8.80834333E-06    2     1000005        -5   # BR(~chi_40 -> ~b_1      bb)
     8.80834333E-06    2    -1000005         5   # BR(~chi_40 -> ~b_1*     b )
     2.61283211E-02    2     2000005        -5   # BR(~chi_40 -> ~b_2      bb)
     2.61283211E-02    2    -2000005         5   # BR(~chi_40 -> ~b_2*     b )
     5.54723416E-02    2     1000011       -11   # BR(~chi_40 -> ~e_L-     e+)
     5.54723416E-02    2    -1000011        11   # BR(~chi_40 -> ~e_L+     e-)
     5.54723416E-02    2     1000013       -13   # BR(~chi_40 -> ~mu_L-    mu+)
     5.54723416E-02    2    -1000013        13   # BR(~chi_40 -> ~mu_L+    mu-)
     5.58252796E-02    2     1000015       -15   # BR(~chi_40 -> ~tau_1-   tau+)
     5.58252796E-02    2    -1000015        15   # BR(~chi_40 -> ~tau_1+   tau-)
     5.57546400E-02    2     1000012       -12   # BR(~chi_40 -> ~nu_eL    nu_eb)
     5.57546400E-02    2    -1000012        12   # BR(~chi_40 -> ~nu_eL*   nu_e )
     5.57546400E-02    2     1000014       -14   # BR(~chi_40 -> ~nu_muL   nu_mub)
     5.57546400E-02    2    -1000014        14   # BR(~chi_40 -> ~nu_muL*  nu_mu )
     5.61080501E-02    2     1000016       -16   # BR(~chi_40 -> ~nu_tau1  nu_taub)
     5.61080501E-02    2    -1000016        16   # BR(~chi_40 -> ~nu_tau1* nu_tau )
#
#         PDG            Width
DECAY        25     4.35319534E-03   # h decays
#          BR         NDA      ID1       ID2
     5.38108042E-01    2           5        -5   # BR(h -> b       bb     )
     6.10333788E-02    2         -15        15   # BR(h -> tau+    tau-   )
     2.16023235E-04    2         -13        13   # BR(h -> mu+     mu-    )
     2.34739730E-04    2           3        -3   # BR(h -> s       sb     )
     2.02941538E-02    2           4        -4   # BR(h -> c       cb     )
     7.82820519E-02    2          21        21   # BR(h -> g       g      )
     2.37543263E-03    2          22        22   # BR(h -> gam     gam    )
     1.84476089E-03    2          22        23   # BR(h -> Z       gam    )
     2.63307515E-01    2          24       -24   # BR(h -> W+      W-     )
     3.43039016E-02    2          23        23   # BR(h -> Z       Z      )
#
#         PDG            Width
DECAY        35     1.42696063E+02   # H decays
#          BR         NDA      ID1       ID2
     7.67305406E-01    2           5        -5   # BR(H -> b       bb     )
     1.49366838E-01    2         -15        15   # BR(H -> tau+    tau-   )
     5.27049830E-04    2         -13        13   # BR(H -> mu+     mu-    )
     3.14963445E-04    2           3        -3   # BR(H -> s       sb     )
     3.93905019E-09    2           4        -4   # BR(H -> c       cb     )
     3.88572012E-04    2           6        -6   # BR(H -> t       tb     )
     1.05160057E-05    2          21        21   # BR(H -> g       g      )
     3.73980192E-09    2          22        22   # BR(H -> gam     gam    )
     6.42997034E-09    2          23        22   # BR(H -> Z       gam    )
     1.25812471E-07    2          24       -24   # BR(H -> W+      W-     )
     6.27952541E-08    2          23        23   # BR(H -> Z       Z      )
     4.48321683E-07    2          25        25   # BR(H -> h       h      )
     3.54724267E-04    2     1000024  -1000024   # BR(H -> ~chi_1+ ~chi_1-)
     2.04139537E-02    2     1000024  -1000037   # BR(H -> ~chi_1+ ~chi_2-)
     2.04139537E-02    2     1000037  -1000024   # BR(H -> ~chi_2+ ~chi_1-)
     9.96940528E-05    2     1000022   1000022   # BR(H -> ~chi_10 ~chi_10)
     8.31170751E-05    2     1000023   1000023   # BR(H -> ~chi_20 ~chi_20)
     7.17718619E-09    2     1000022   1000023   # BR(H -> ~chi_10 ~chi_20)
     8.65127284E-03    2     1000022   1000025   # BR(H -> ~chi_10 ~chi_30)
     9.69020102E-03    2     1000022   1000035   # BR(H -> ~chi_10 ~chi_40)
     8.47898815E-03    2     1000023   1000025   # BR(H -> ~chi_20 ~chi_30)
     1.07803775E-02    2     1000023   1000035   # BR(H -> ~chi_20 ~chi_40)
     1.53247065E-08    2     2000002  -2000002   # BR(H -> ~u_R    ~u_R*  )
     1.53247065E-08    2     2000004  -2000004   # BR(H -> ~c_R    ~c_R*  )
     9.97478637E-05    2     1000005  -1000005   # BR(H -> ~b_1    ~b_1*  )
     1.93895338E-08    2     1000011  -1000011   # BR(H -> ~e_L-   ~e_L+  )
     1.93895338E-08    2     1000013  -1000013   # BR(H -> ~mu_L-  ~mu_L+ )
     5.69519380E-08    2     1000015  -1000015   # BR(H -> ~tau_1- ~tau_1+)
     1.50982526E-03    2     1000015  -2000015   # BR(H -> ~tau_1- ~tau_2+)
     1.50982526E-03    2     2000015  -1000015   # BR(H -> ~tau_2- ~tau_1+)
     6.31085226E-08    2     1000012  -1000012   # BR(H -> ~nu_eL  ~nu_eL*   )
     6.31085226E-08    2     1000014  -1000014   # BR(H -> ~nu_muL ~nu_muL*  )
     6.33409669E-08    2     1000016  -1000016   # BR(H -> ~nu_tauL ~nu_tauL*)
#
#         PDG            Width
DECAY        36     1.42683986E+02   # A decays
#          BR         NDA      ID1       ID2
     7.67379945E-01    2           5        -5   # BR(A -> b       bb     )
     1.49379485E-01    2         -15        15   # BR(A -> tau+    tau-   )
     5.27093977E-04    2         -13        13   # BR(A -> mu+     mu-    )
     3.14998258E-04    2           3        -3   # BR(A -> s       sb     )
     3.96252532E-09    2           4        -4   # BR(A -> c       cb     )
     3.89428046E-04    2           6        -6   # BR(A -> t       tb     )
     1.62143621E-05    2          21        21   # BR(A -> g       g      )
     3.40817088E-09    2          22        22   # BR(A -> gam     gam    )
     1.21226806E-08    2          23        22   # BR(A -> Z       gam    )
     1.27613670E-07    2          23        25   # BR(A -> Z       h      )
     3.55505097E-04    2     1000024  -1000024   # BR(A -> ~chi_1+ ~chi_1-)
     2.04153741E-02    2     1000024  -1000037   # BR(A -> ~chi_1+ ~chi_2-)
     2.04153741E-02    2     1000037  -1000024   # BR(A -> ~chi_2+ ~chi_1-)
     9.26611743E-05    2     1000022   1000022   # BR(A -> ~chi_10 ~chi_10)
     9.02726594E-05    2     1000023   1000023   # BR(A -> ~chi_20 ~chi_20)
     1.94012748E-07    2     1000022   1000023   # BR(A -> ~chi_10 ~chi_20)
     8.69777925E-03    2     1000022   1000025   # BR(A -> ~chi_10 ~chi_30)
     1.10485663E-02    2     1000022   1000035   # BR(A -> ~chi_10 ~chi_40)
     8.43366246E-03    2     1000023   1000025   # BR(A -> ~chi_20 ~chi_30)
     9.42342082E-03    2     1000023   1000035   # BR(A -> ~chi_20 ~chi_40)
     1.50993889E-03    2     1000015  -2000015   # BR(A -> ~tau_1- ~tau_2+)
     1.50993889E-03    2    -1000015   2000015   # BR(A -> ~tau_1+ ~tau_2-)
#
#         PDG            Width
DECAY        37     1.48462824E+02   # H+ decays
#          BR         NDA      ID1       ID2
     1.30423460E-03    2           4        -5   # BR(H+ -> c       bb     )
     1.43593924E-01    2         -15        16   # BR(H+ -> tau+    nu_tau )
     5.06679297E-04    2         -13        14   # BR(H+ -> mu+     nu_mu  )
     1.30423359E-05    2           2        -5   # BR(H+ -> u       bb     )
     1.51512995E-05    2           2        -3   # BR(H+ -> u       sb     )
     2.98227244E-04    2           4        -3   # BR(H+ -> c       sb     )
     7.75590958E-01    2           6        -5   # BR(H+ -> t       bb     )
     1.22770427E-07    2          24        25   # BR(H+ -> W+      h      )
     2.09774757E-15    2          24        36   # BR(H+ -> W+      A      )
     1.16872127E-05    2     1000024   1000022   # BR(H+ -> ~chi_1+ ~chi_10)
     1.56257432E-05    2     1000024   1000023   # BR(H+ -> ~chi_1+ ~chi_20)
     1.67382222E-02    2     1000024   1000025   # BR(H+ -> ~chi_1+ ~chi_30)
     1.96364978E-02    2     1000024   1000035   # BR(H+ -> ~chi_1+ ~chi_40)
     1.99363983E-02    2     1000037   1000022   # BR(H+ -> ~chi_2+ ~chi_10)
     1.94210642E-02    2     1000037   1000023   # BR(H+ -> ~chi_2+ ~chi_20)
     7.31205339E-08    2    -1000011   1000012   # BR(H+ -> ~e_L+   ~nu_eL )
     7.31205339E-08    2    -1000013   1000014   # BR(H+ -> ~mu_L+  ~nu_muL)
     7.60557136E-11    2    -1000015   1000016   # BR(H+ -> ~tau_1+ ~nu_tauL)
     2.91801856E-03    2    -2000015   1000016   # BR(H+ -> ~tau_2+ ~nu_tauL)
