#
#                              ======================
#                              | THE SUSYHIT OUTPUT |
#                              ======================
#
#
#              ------------------------------------------------------
#              |     This is the output of the SUSY-HIT package     |
#              |  created by A.Djouadi, M.Muehlleitner and M.Spira. |
#              |  In case of problems with SUSY-HIT email to        |
#              |           margarete.muehlleitner@cern.ch           |
#              |           michael.spira@psi.ch                     |
#              |           abdelhak.djouadi@cern.ch                 |
#              ------------------------------------------------------
#
#              ------------------------------------------------------
#              |  SUSY Les Houches Accord - MSSM Spectrum + Decays  |
#              |              based on the decay programs           |
#              |                                                    |
#              |                     SDECAY 1.3b                    |
#              |                                                    |
#              |  Authors: M.Muhlleitner, A.Djouadi and Y.Mambrini  |
#              |  Ref.:    Comput.Phys.Commun.168(2005)46           |
#              |           [hep-ph/0311167]                         |
#              |                                                    |
#              |                     HDECAY 3.4                     |
#              |                                                    |
#              |  By: A.Djouadi,J.Kalinowski,M.Muhlleitner,M.Spira  |
#              |  Ref.:    Comput.Phys.Commun.108(1998)56           |
#              |           [hep-ph/9704448]                         |
#              |                                                    |
#              |                                                    |
#              |  If not stated otherwise all DRbar couplings and   |
#              |  soft SUSY breaking masses are given at the scale  |
#              |  Q=  0.24528440E+04
#              |                                                    |
#              ------------------------------------------------------
#
#
BLOCK DCINFO  # Decay Program information
     1   SDECAY/HDECAY # decay calculator
     2   1.3b  /3.4    # version number
#
BLOCK SPINFO  # Spectrum calculator information
     1     SOFTSUSY    # spectrum calculator               
     2     3.4.0       # version number                    
#
BLOCK MODSEL  # Model selection
     1     0   #  nonUniversal                                     
#
BLOCK SMINPUTS  # Standard Model inputs
         1     1.27908970E+02   # alpha_em^-1(M_Z)^MSbar
         2     1.16637870E-05   # G_F [GeV^-2]
         3     1.18400000E-01   # alpha_S(M_Z)^MSbar
         4     9.11876000E+01   # M_Z pole mass
         5     4.18000000E+00   # mb(mb)^MSbar
         6     1.73200000E+02   # mt pole mass
         7     1.77700000E+00   # mtau pole mass
#
BLOCK MINPAR  # Input parameters - minimal models
         3     2.37600000E+01   # tanb                
#
BLOCK EXTPAR  # Input parameters - non-minimal models
         0    -1.00000000E+00   # Set                 
         1     3.22770000E+02   # M_1(MX)             
         2    -3.39945000E+03   # M_2(MX)             
         3     2.15434000E+03   # M_3(MX)             
        11    -4.44410000E+03   # At(MX)              
        12     3.56558000E+03   # Ab(MX)              
        13    -3.52343000E+03   # Atau(MX)            
        23    -1.21710000E+02   # mu(MX)              
        26     1.54885000E+03   # mA(pole)            
        31     2.54248000E+03   # meL(MX)             
        32     2.54248000E+03   # mmuL(MX)            
        33     1.96290000E+02   # mtauL(MX)           
        34     2.37528000E+03   # meR(MX)             
        35     2.37528000E+03   # mmuR(MX)            
        36     1.92442000E+03   # mtauR(MX)           
        41     3.46351000E+03   # mqL1(MX)            
        42     3.46351000E+03   # mqL2(MX)            
        43     2.39265000E+03   # mqL3(MX)            
        44     1.24803000E+03   # muR(MX)             
        45     1.24803000E+03   # mcR(MX)             
        46     2.52063000E+03   # mtR(MX)             
        47     6.92010000E+02   # mdR(MX)             
        48     6.92010000E+02   # msR(MX)             
        49     1.93860000E+02   # mbR(MX)             
#
BLOCK MASS  # Mass Spectrum
# PDG code           mass       particle
        24     8.03894511E+01   # W+
        25     1.27941863E+02   # h
        35     1.54887655E+03   # H
        36     1.54884996E+03   # A
        37     1.55114036E+03   # H+
         5     4.81876030E+00   # b-quark pole mass calculated from mb(mb)_Msbar
   1000001     3.52853270E+03   # ~d_L
   2000001     8.53781986E+02   # ~d_R
   1000002     3.52779122E+03   # ~u_L
   2000002     1.36191003E+03   # ~u_R
   1000003     3.52853270E+03   # ~s_L
   2000003     8.53781986E+02   # ~s_R
   1000004     3.52779122E+03   # ~c_L
   2000004     1.36191003E+03   # ~c_R
   1000005     4.80786145E+02   # ~b_1
   2000005     2.43615084E+03   # ~b_2
   1000006     2.33638593E+03   # ~t_1
   2000006     2.59042597E+03   # ~t_2
   1000011     2.56202516E+03   # ~e_L
   2000011     2.37921962E+03   # ~e_R
   1000012     2.56048823E+03   # ~nu_eL
   1000013     2.56202516E+03   # ~mu_L
   2000013     2.37921962E+03   # ~mu_R
   1000014     2.56048823E+03   # ~nu_muL
   1000015     2.49722542E+02   # ~tau_1
   2000015     1.91843590E+03   # ~tau_2
   1000016     2.36911869E+02   # ~nu_tauL
   1000021     2.29132718E+03   # ~g
   1000022     1.23667863E+02   # ~chi_10
   1000023    -1.29124307E+02   # ~chi_20
   1000025     3.24298586E+02   # ~chi_30
   1000035    -3.39174784E+03   # ~chi_40
   1000024     1.27636345E+02   # ~chi_1+
   1000037     3.39191381E+03   # ~chi_2+
#
BLOCK NMIX  # Neutralino Mixing Matrix
  1  1    -1.48697467E-01   # N_11
  1  2    -1.45210691E-02   # N_12
  1  3     7.10806076E-01   # N_13
  1  4     6.87337562E-01   # N_14
  2  1    -7.26997784E-02   # N_21
  2  2    -1.75898994E-02   # N_22
  2  3    -7.01193960E-01   # N_23
  2  4     7.09036225E-01   # N_24
  3  1     9.86206734E-01   # N_31
  3  2    -3.19236827E-03   # N_32
  3  3     5.54831798E-02   # N_33
  3  4     1.55909281E-01   # N_34
  4  1    -2.89769759E-04   # N_41
  4  2     9.99734736E-01   # N_42
  4  3    -1.83563125E-03   # N_43
  4  4     2.29565615E-02   # N_44
#
BLOCK UMIX  # Chargino Mixing Matrix U
  1  1     2.59464233E-03   # U_11
  1  2     9.99996634E-01   # U_12
  2  1    -9.99996634E-01   # U_21
  2  2     2.59464233E-03   # U_22
#
BLOCK VMIX  # Chargino Mixing Matrix V
  1  1    -3.24596644E-02   # V_11
  1  2    -9.99473046E-01   # V_12
  2  1     9.99473046E-01   # V_21
  2  2    -3.24596644E-02   # V_22
#
BLOCK STOPMIX  # Stop Mixing Matrix
  1  1     7.85305758E-01   # cos(theta_t)
  1  2     6.19108122E-01   # sin(theta_t)
  2  1    -6.19108122E-01   # -sin(theta_t)
  2  2     7.85305758E-01   # cos(theta_t)
#
BLOCK SBOTMIX  # Sbottom Mixing Matrix
  1  1    -2.70095795E-03   # cos(theta_b)
  1  2     9.99996352E-01   # sin(theta_b)
  2  1    -9.99996352E-01   # -sin(theta_b)
  2  2    -2.70095795E-03   # cos(theta_b)
#
BLOCK STAUMIX  # Stau Mixing Matrix
  1  1     9.99999943E-01   # cos(theta_tau)
  1  2     3.37638856E-04   # sin(theta_tau)
  2  1    -3.37638856E-04   # -sin(theta_tau)
  2  2     9.99999943E-01   # cos(theta_tau)
#
BLOCK ALPHA  # Higgs mixing
          -4.41060983E-02   # Mixing angle in the neutral Higgs boson sector
#
BLOCK HMIX Q=  2.45284400E+03  # DRbar Higgs Parameters
         1    -1.23643016E+02   # mu(Q)MSSM           
         2     2.28933867E+01   # tan                 
         3     2.42829366E+02   # higgs               
         4     2.37064779E+06   # mA^2(Q)MSSM         
#
BLOCK GAUGE Q=  2.45284400E+03  # The gauge couplings
     1     3.65068769E-01   # gprime(Q) DRbar
     2     6.37979227E-01   # g(Q) DRbar
     3     1.02296131E+00   # g3(Q) DRbar
#
BLOCK AU Q=  2.45284400E+03  # The trilinear couplings
  1  1     0.00000000E+00   # A_u(Q) DRbar
  2  2     0.00000000E+00   # A_c(Q) DRbar
  3  3    -4.44409999E+03   # A_t(Q) DRbar
#
BLOCK AD Q=  2.45284400E+03  # The trilinear couplings
  1  1     0.00000000E+00   # A_d(Q) DRbar
  2  2     0.00000000E+00   # A_s(Q) DRbar
  3  3     3.56558000E+03   # A_b(Q) DRbar
#
BLOCK AE Q=  2.45284400E+03  # The trilinear couplings
  1  1     0.00000000E+00   # A_e(Q) DRbar
  2  2     0.00000000E+00   # A_mu(Q) DRbar
  3  3    -3.52343000E+03   # A_tau(Q) DRbar
#
BLOCK Yu Q=  2.45284400E+03  # The Yukawa couplings
  1  1     0.00000000E+00   # y_u(Q) DRbar
  2  2     0.00000000E+00   # y_c(Q) DRbar
  3  3     8.20705742E-01   # y_t(Q) DRbar
#
BLOCK Yd Q=  2.45284400E+03  # The Yukawa couplings
  1  1     0.00000000E+00   # y_d(Q) DRbar
  2  2     0.00000000E+00   # y_s(Q) DRbar
  3  3     3.23610396E-01   # y_b(Q) DRbar
#
BLOCK Ye Q=  2.45284400E+03  # The Yukawa couplings
  1  1     0.00000000E+00   # y_e(Q) DRbar
  2  2     0.00000000E+00   # y_mu(Q) DRbar
  3  3     2.36891321E-01   # y_tau(Q) DRbar
#
BLOCK MSOFT Q=  2.45284400E+03  # The soft SUSY breaking masses at the scale Q
         1     3.22770000E+02   # M_1(Q)              
         2    -3.39945000E+03   # M_2(Q)              
         3     2.15434000E+03   # M_3(Q)              
        21     2.39090112E+06   # mH1^2(Q)            
        22     9.95313274E+04   # mH2^2(Q)            
        31     2.54248000E+03   # meL(Q)              
        32     2.54248000E+03   # mmuL(Q)             
        33     1.96290000E+02   # mtauL(Q)            
        34     2.37528000E+03   # meR(Q)              
        35     2.37528000E+03   # mmuR(Q)             
        36     1.92442000E+03   # mtauR(Q)            
        41     3.46351000E+03   # mqL1(Q)             
        42     3.46351000E+03   # mqL2(Q)             
        43     2.39264999E+03   # mqL3(Q)             
        44     1.24802999E+03   # muR(Q)              
        45     1.24802999E+03   # mcR(Q)              
        46     2.52062998E+03   # mtR(Q)              
        47     6.92009984E+02   # mdR(Q)              
        48     6.92009984E+02   # msR(Q)              
        49     1.93859951E+02   # mbR(Q)              
#
Block HiggsBoundsInputHiggsCouplingsFermions
# ScalarNormEffCoupSq PseudoSNormEffCoupSq NP   IP1 IP2 IP2
    1.02085387E+00    0.00000000E+00        3  25   5   5  # h0-b-b eff. coupling^2, normalised to SM
    5.24086301E+02    0.00000000E+00        3  35   5   5  # H0-b-b eff. coupling^2, normalised to SM
    0.00000000E+00    5.24107155E+02        3  36   5   5  # A0-b-b eff. coupling^2, normalised to SM
#
    9.99960211E-01    0.00000000E+00        3  25   6   6  # h0-t-t eff. coupling^2, normalised to SM
    1.94779611E-03    0.00000000E+00        3  35   6   6  # H0-t-t eff. coupling^2, normalised to SM
    0.00000000E+00    1.90800677E-03        3  36   6   6  # A0-t-t eff. coupling^2, normalised to SM
#
    1.02085387E+00    0.00000000E+00        3  25  15  15  # h0-tau-tau eff. coupling^2, normalised to SM
    5.24086301E+02    0.00000000E+00        3  35  15  15  # H0-tau-tau eff. coupling^2, normalised to SM
    0.00000000E+00    5.24107155E+02        3  36  15  15  # A0-tau-tau eff. coupling^2, normalised to SM
#
Block HiggsBoundsInputHiggsCouplingsBosons
    9.99999795E-01        3  25  24  24  # h0-W-W eff. coupling^2, normalised to SM
    2.05309328E-07        3  35  24  24  # H0-W-W eff. coupling^2, normalised to SM
    0.00000000E+00        3  36  24  24  # A0-W-W eff. coupling^2, normalised to SM
#
    9.99999795E-01        3  25  23  23  # h0-Z-Z eff. coupling^2, normalised to SM
    2.05309328E-07        3  35  23  23  # H0-Z-Z eff. coupling^2, normalised to SM
    0.00000000E+00        3  36  23  23  # A0-Z-Z eff. coupling^2, normalised to SM
#
    8.83745307E-01        3  25  21  21  # h0-g-g eff. coupling^2, normalised to SM
    3.44521371E-10        3  35  21  21  # H0-g-g eff. coupling^2, normalised to SM
    4.77653799E-09        3  36  21  21  # A0-g-g eff. coupling^2, normalised to SM
#
    0.00000000E+00        3  25  25  23  # h0-h0-Z eff. coupling^2, normalised to SM
    0.00000000E+00        3  35  25  23  # H0-h0-Z eff. coupling^2, normalised to SM
    2.05309328E-07        3  36  25  23  # A0-h0-Z eff. coupling^2, normalised to SM
    0.00000000E+00        3  35  35  23  # H0-H0-Z eff. coupling^2, normalised to SM
    9.99999795E-01        3  36  35  23  # A0-H0-Z eff. coupling^2, normalised to SM
    0.00000000E+00        3  36  36  23  # A0-A0-Z eff. coupling^2, normalised to SM
#
    0.00000000E+00        4  25  21  21  23  # h0-g-g-Z eff. coupling^2, normalised to SM
    0.00000000E+00        4  35  21  21  23  # H0-g-g-Z eff. coupling^2, normalised to SM
    0.00000000E+00        4  36  21  21  23  # A0-g-g-Z eff. coupling^2, normalised to SM
#
#
#
#                             =================
#                             |The decay table|
#                             =================
#
# - The QCD corrections to the decays gluino -> squark  + quark
#                                     squark -> gaugino + quark_prime
#                                     squark -> squark_prime + Higgs
#                                     squark -> gluino  + quark
#   are included.
#
# - The multi-body decays for the inos, stops and sbottoms are included.
#
# - The loop induced decays for the gluino, neutralinos and stops
#   are included.
#
# - The SUSY decays of the top quark are included.
#
#
#         PDG            Width
DECAY         6     1.43347543E+00   # top decays
#          BR         NDA      ID1       ID2
     1.00000000E+00    2           5        24   # BR(t ->  b    W+)
#
#         PDG            Width
DECAY   1000021     1.58862944E+02   # gluino decays
#          BR         NDA      ID1       ID2
     1.18200942E-01    2     2000001        -1   # BR(~g -> ~d_R  db)
     1.18200942E-01    2    -2000001         1   # BR(~g -> ~d_R* d )
     6.66628050E-02    2     2000002        -2   # BR(~g -> ~u_R  ub)
     6.66628050E-02    2    -2000002         2   # BR(~g -> ~u_R* u )
     1.18200942E-01    2     2000003        -3   # BR(~g -> ~s_R  sb)
     1.18200942E-01    2    -2000003         3   # BR(~g -> ~s_R* s )
     6.66627533E-02    2     2000004        -4   # BR(~g -> ~c_R  cb)
     6.66627533E-02    2    -2000004         4   # BR(~g -> ~c_R* c )
     1.30272558E-01    2     1000005        -5   # BR(~g -> ~b_1  bb)
     1.30272558E-01    2    -1000005         5   # BR(~g -> ~b_1* b )
#
#         PDG            Width
DECAY   1000006     5.00968031E+01   # stop1 decays
#          BR         NDA      ID1       ID2
     3.05125037E-01    2     1000022         6   # BR(~t_1 -> ~chi_10 t )
     3.17226859E-01    2     1000023         6   # BR(~t_1 -> ~chi_20 t )
     2.96816223E-02    2     1000025         6   # BR(~t_1 -> ~chi_30 t )
     2.82482739E-01    2     1000024         5   # BR(~t_1 -> ~chi_1+ b )
     6.48560851E-02    2     1000005        37   # BR(~t_1 -> ~b_1    H+)
     6.27658099E-04    2     1000005        24   # BR(~t_1 -> ~b_1    W+)
#
#         PDG            Width
DECAY   2000006     7.84947517E+01   # stop2 decays
#          BR         NDA      ID1       ID2
     1.97102988E-01    2     1000022         6   # BR(~t_2 -> ~chi_10 t )
     2.14183258E-01    2     1000023         6   # BR(~t_2 -> ~chi_20 t )
     7.72257356E-02    2     1000025         6   # BR(~t_2 -> ~chi_30 t )
     3.08200084E-01    2     1000024         5   # BR(~t_2 -> ~chi_1+ b )
     3.18663537E-02    2     1000021         6   # BR(~t_2 -> ~g      t )
     5.58360286E-03    2     1000006        25   # BR(~t_2 -> ~t_1    h )
     2.52712066E-02    2     1000005        37   # BR(~t_2 -> ~b_1    H+)
     8.92089779E-02    2     1000006        23   # BR(~t_2 -> ~t_1    Z )
     3.48089449E-04    2     1000005        24   # BR(~t_2 -> ~b_1    W+)
     5.10097040E-02    2     2000005        24   # BR(~t_2 -> ~b_2    W+)
#
#         PDG            Width
DECAY   1000005     1.57522028E+00   # sbottom1 decays
#          BR         NDA      ID1       ID2
     2.84140148E-01    2     1000022         5   # BR(~b_1 -> ~chi_10 b )
     2.70026038E-01    2     1000023         5   # BR(~b_1 -> ~chi_20 b )
     5.21894925E-02    2     1000025         5   # BR(~b_1 -> ~chi_30 b )
     3.93644321E-01    2    -1000024         6   # BR(~b_1 -> ~chi_1- t )
#
#         PDG            Width
DECAY   2000005     4.53375170E+01   # sbottom2 decays
#          BR         NDA      ID1       ID2
     5.62702498E-02    2     1000022         5   # BR(~b_2 -> ~chi_10 b )
     5.47502023E-02    2     1000023         5   # BR(~b_2 -> ~chi_20 b )
     8.03849963E-03    2     1000025         5   # BR(~b_2 -> ~chi_30 b )
     7.08061984E-01    2    -1000024         6   # BR(~b_2 -> ~chi_1- t )
     3.96830716E-02    2     1000021         5   # BR(~b_2 -> ~g      b )
     7.10822225E-04    2     1000005        25   # BR(~b_2 -> ~b_1    h )
     5.93029742E-02    2     1000005        35   # BR(~b_2 -> ~b_1    H )
     5.93102898E-02    2     1000005        36   # BR(~b_2 -> ~b_1    A )
     6.64200374E-04    2     1000005        23   # BR(~b_2 -> ~b_1    Z )
     1.32077061E-02    2     1000006       -24   # BR(~b_2 -> ~t_1    W-)
#
#         PDG            Width
DECAY   1000002     9.88212892E+01   # sup_L decays
#          BR         NDA      ID1       ID2
     2.53780669E-04    2     1000022         2   # BR(~u_L -> ~chi_10 u)
     1.36526558E-04    2     1000023         2   # BR(~u_L -> ~chi_20 u)
     4.65640297E-03    2     1000025         2   # BR(~u_L -> ~chi_30 u)
     8.63628021E-04    2     1000035         2   # BR(~u_L -> ~chi_40 u)
     2.90755662E-04    2     1000024         1   # BR(~u_L -> ~chi_1+ d)
     1.72250397E-03    2     1000037         1   # BR(~u_L -> ~chi_2+ d)
     9.92076402E-01    2     1000021         2   # BR(~u_L -> ~g      u)
#
#         PDG            Width
DECAY   2000002     2.88114528E+00   # sup_R decays
#          BR         NDA      ID1       ID2
     2.43308494E-02    2     1000022         2   # BR(~u_R -> ~chi_10 u)
     5.80749169E-03    2     1000023         2   # BR(~u_R -> ~chi_20 u)
     9.69861659E-01    2     1000025         2   # BR(~u_R -> ~chi_30 u)
#
#         PDG            Width
DECAY   1000001     9.88729882E+01   # sdown_L decays
#          BR         NDA      ID1       ID2
     2.64315419E-05    2     1000022         1   # BR(~d_L -> ~chi_10 d)
     1.91177346E-06    2     1000023         1   # BR(~d_L -> ~chi_20 d)
     4.98200523E-03    2     1000025         1   # BR(~d_L -> ~chi_30 d)
     8.72248125E-04    2     1000035         1   # BR(~d_L -> ~chi_40 d)
     1.85721623E-06    2    -1000024         2   # BR(~d_L -> ~chi_1- u)
     1.74115738E-03    2    -1000037         2   # BR(~d_L -> ~chi_2- u)
     9.92374389E-01    2     1000021         1   # BR(~d_L -> ~g      d)
#
#         PDG            Width
DECAY   2000001     3.82933492E-01   # sdown_R decays
#          BR         NDA      ID1       ID2
     2.86508522E-02    2     1000022         1   # BR(~d_R -> ~chi_10 d)
     6.82245344E-03    2     1000023         1   # BR(~d_R -> ~chi_20 d)
     9.64526694E-01    2     1000025         1   # BR(~d_R -> ~chi_30 d)
#
#         PDG            Width
DECAY   1000004     6.62564627E+01   # scharm_L decays
#          BR         NDA      ID1       ID2
     3.95466179E-04    2     1000022         4   # BR(~c_L -> ~chi_10 c)
     2.12741798E-04    2     1000023         4   # BR(~c_L -> ~chi_20 c)
     7.24734814E-03    2     1000025         4   # BR(~c_L -> ~chi_30 c)
     1.23246848E-03    2     1000035         4   # BR(~c_L -> ~chi_40 c)
     4.53072969E-04    2     1000024         3   # BR(~c_L -> ~chi_1+ s)
     2.45819454E-03    2     1000037         3   # BR(~c_L -> ~chi_2+ s)
     9.88000708E-01    2     1000021         4   # BR(~c_L -> ~g      c)
#
#         PDG            Width
DECAY   2000004     2.86431820E+00   # scharm_R decays
#          BR         NDA      ID1       ID2
     2.43707576E-02    2     1000022         4   # BR(~c_R -> ~chi_10 c)
     5.81669790E-03    2     1000023         4   # BR(~c_R -> ~chi_20 c)
     9.69812545E-01    2     1000025         4   # BR(~c_R -> ~chi_30 c)
#
#         PDG            Width
DECAY   1000003     6.62798671E+01   # sstrange_L decays
#          BR         NDA      ID1       ID2
     4.11950003E-05    2     1000022         3   # BR(~s_L -> ~chi_10 s)
     2.97949951E-06    2     1000023         3   # BR(~s_L -> ~chi_20 s)
     7.75539910E-03    2     1000025         3   # BR(~s_L -> ~chi_30 s)
     1.24534649E-03    2     1000035         3   # BR(~s_L -> ~chi_40 s)
     2.89449890E-06    2    -1000024         4   # BR(~s_L -> ~chi_1- c)
     2.48562821E-03    2    -1000037         4   # BR(~s_L -> ~chi_2- c)
     9.88466557E-01    2     1000021         3   # BR(~s_L -> ~g      s)
#
#         PDG            Width
DECAY   2000003     3.71474785E-01   # sstrange_R decays
#          BR         NDA      ID1       ID2
     2.86994979E-02    2     1000022         3   # BR(~s_R -> ~chi_10 s)
     6.83365256E-03    2     1000023         3   # BR(~s_R -> ~chi_20 s)
     9.64466850E-01    2     1000025         3   # BR(~s_R -> ~chi_30 s)
#
#         PDG            Width
DECAY   1000011     3.30110174E+00   # selectron_L decays
#          BR         NDA      ID1       ID2
     3.10323842E-02    2     1000022        11   # BR(~e_L -> ~chi_10 e-)
     1.09530460E-02    2     1000023        11   # BR(~e_L -> ~chi_20 e-)
     9.57972472E-01    2     1000025        11   # BR(~e_L -> ~chi_30 e-)
     4.20982731E-05    2    -1000024        12   # BR(~e_L -> ~chi_1- nu_e)
#
#         PDG            Width
DECAY   2000011     1.21630220E+01   # selectron_R decays
#          BR         NDA      ID1       ID2
     2.28118129E-02    2     1000022        11   # BR(~e_R -> ~chi_10 e-)
     5.45012654E-03    2     1000023        11   # BR(~e_R -> ~chi_20 e-)
     9.71738061E-01    2     1000025        11   # BR(~e_R -> ~chi_30 e-)
#
#         PDG            Width
DECAY   1000013     3.30110173E+00   # smuon_L decays
#          BR         NDA      ID1       ID2
     3.10323842E-02    2     1000022        13   # BR(~mu_L -> ~chi_10 mu-)
     1.09530460E-02    2     1000023        13   # BR(~mu_L -> ~chi_20 mu-)
     9.57972472E-01    2     1000025        13   # BR(~mu_L -> ~chi_30 mu-)
     4.20982732E-05    2    -1000024        14   # BR(~mu_L -> ~chi_1- nu_mu)
#
#         PDG            Width
DECAY   2000013     1.21630219E+01   # smuon_R decays
#          BR         NDA      ID1       ID2
     2.28118130E-02    2     1000022        13   # BR(~mu_R -> ~chi_10 mu-)
     5.45012654E-03    2     1000023        13   # BR(~mu_R -> ~chi_20 mu-)
     9.71738061E-01    2     1000025        13   # BR(~mu_R -> ~chi_30 mu-)
#
#         PDG            Width
DECAY   1000015     1.60767516E-01   # stau_1 decays
#          BR         NDA      ID1       ID2
     5.32015279E-01    2     1000022        15   # BR(~tau_1 -> ~chi_10  tau-)
     4.67942865E-01    2     1000023        15   # BR(~tau_1 -> ~chi_20  tau-)
     4.18554396E-05    2    -1000024        16   # BR(~tau_1 -> ~chi_1-  nu_tau)
#
#         PDG            Width
DECAY   2000015     1.76211761E+01   # stau_2 decays
#          BR         NDA      ID1       ID2
     7.35749313E-02    2     1000022        15   # BR(~tau_2 -> ~chi_10  tau-)
     6.22450407E-02    2     1000023        15   # BR(~tau_2 -> ~chi_20  tau-)
     5.30216495E-01    2     1000025        15   # BR(~tau_2 -> ~chi_30  tau-)
     1.20472143E-01    2    -1000024        16   # BR(~tau_2 -> ~chi_1-  nu_tau)
     1.08355453E-01    2     1000016       -37   # BR(~tau_2 -> ~nu_tauL H-)
     2.71773428E-05    2     1000016       -24   # BR(~tau_2 -> ~nu_tauL W-)
     1.63718338E-05    2     1000015        25   # BR(~tau_2 -> ~tau_1   h)
     5.25357338E-02    2     1000015        35   # BR(~tau_2 -> ~tau_1   H)
     5.25427302E-02    2     1000015        36   # BR(~tau_2 -> ~tau_1   A)
     1.39242708E-05    2     1000015        23   # BR(~tau_2 -> ~tau_1   Z)
#
#         PDG            Width
DECAY   1000012     3.31173634E+00   # snu_eL decays
#          BR         NDA      ID1       ID2
     1.55153773E-02    2     1000022        12   # BR(~nu_eL -> ~chi_10 nu_e)
     1.79549347E-03    2     1000023        12   # BR(~nu_eL -> ~chi_20 nu_e)
     9.76125602E-01    2     1000025        12   # BR(~nu_eL -> ~chi_30 nu_e)
     6.56352717E-03    2     1000024        11   # BR(~nu_eL -> ~chi_1+ e-)
#
#         PDG            Width
DECAY   1000014     3.31173634E+00   # snu_muL decays
#          BR         NDA      ID1       ID2
     1.55153773E-02    2     1000022        14   # BR(~nu_muL -> ~chi_10 nu_mu)
     1.79549347E-03    2     1000023        14   # BR(~nu_muL -> ~chi_20 nu_mu)
     9.76125602E-01    2     1000025        14   # BR(~nu_muL -> ~chi_30 nu_mu)
     6.56352714E-03    2     1000024        13   # BR(~nu_muL -> ~chi_1+ mu-)
#
#         PDG            Width
DECAY   1000016     1.36760098E-01   # snu_tauL decays
#          BR         NDA      ID1       ID2
     1.84857506E-02    2     1000022        16   # BR(~nu_tauL -> ~chi_10 nu_tau)
     1.99799324E-03    2     1000023        16   # BR(~nu_tauL -> ~chi_20 nu_tau)
     9.79516256E-01    2     1000024        15   # BR(~nu_tauL -> ~chi_1+ tau-)
#
#         PDG            Width
DECAY   1000024     1.02744485E-09   # chargino1+ decays
#           BR         NDA      ID1       ID2       ID3
     3.58109735E-01    3     1000022         2        -1   # BR(~chi_1+ -> ~chi_10 u    db)
     3.58109735E-01    3     1000022         4        -3   # BR(~chi_1+ -> ~chi_10 c    sb)
     1.19369535E-01    3     1000022       -11        12   # BR(~chi_1+ -> ~chi_10 e+   nu_e)
     1.19369535E-01    3     1000022       -13        14   # BR(~chi_1+ -> ~chi_10 mu+  nu_mu)
     4.50414592E-02    3     1000022       -15        16   # BR(~chi_1+ -> ~chi_10 tau+ nu_tau)
#
#         PDG            Width
DECAY   1000037     1.00111554E+02   # chargino2+ decays
#          BR         NDA      ID1       ID2
     7.47077572E-02    2     1000006        -5   # BR(~chi_2+ -> ~t_1     bb)
     2.45425282E-02    2     2000006        -5   # BR(~chi_2+ -> ~t_2     bb)
     7.49927089E-07    2    -1000005         6   # BR(~chi_2+ -> ~b_1*    t )
     9.38307372E-02    2    -2000005         6   # BR(~chi_2+ -> ~b_2*    t )
     2.53552590E-02    2     1000012       -11   # BR(~chi_2+ -> ~nu_eL   e+  )
     2.53552590E-02    2     1000014       -13   # BR(~chi_2+ -> ~nu_muL mu+ )
     1.35696225E-01    2     1000016       -15   # BR(~chi_2+ -> ~nu_tau1 tau+)
     2.53011396E-02    2    -1000011        12   # BR(~chi_2+ -> ~e_L+    nu_e)
     2.53011396E-02    2    -1000013        14   # BR(~chi_2+ -> ~mu_L+   nu_mu)
     1.35690766E-01    2    -1000015        16   # BR(~chi_2+ -> ~tau_1+  nu_tau)
     2.48478182E-08    2    -2000015        16   # BR(~chi_2+ -> ~tau_2+  nu_tau)
     6.64337819E-02    2     1000024        23   # BR(~chi_2+ -> ~chi_1+  Z )
     6.13018922E-02    2     1000022        24   # BR(~chi_2+ -> ~chi_10  W+)
     6.50431061E-02    2     1000023        24   # BR(~chi_2+ -> ~chi_20  W+)
     2.61355943E-03    2     1000025        24   # BR(~chi_2+ -> ~chi_30  W+)
     6.87704483E-02    2     1000024        25   # BR(~chi_2+ -> ~chi_1+  h )
     4.25211482E-02    2     1000024        35   # BR(~chi_2+ -> ~chi_1+  H )
     4.25257021E-02    2     1000024        36   # BR(~chi_2+ -> ~chi_1+  A )
     4.29466835E-02    2     1000022        37   # BR(~chi_2+ -> ~chi_10  H+)
     4.18013864E-02    2     1000023        37   # BR(~chi_2+ -> ~chi_20  H+)
     2.60705448E-04    2     1000025        37   # BR(~chi_2+ -> ~chi_30  H+)
#
#         PDG            Width
DECAY   1000022     0.00000000E+00   # neutralino1 decays
#
#         PDG            Width
DECAY   1000023     4.02481475E-09   # neutralino2 decays
#          BR         NDA      ID1       ID2
     7.00874374E-02    2     1000022        22   # BR(~chi_20 -> ~chi_10 gam)
#           BR         NDA      ID1       ID2       ID3
     1.30454847E-01    3     1000022        -2         2   # BR(~chi_20 -> ~chi_10 ub      u)
     1.69368704E-01    3     1000022        -1         1   # BR(~chi_20 -> ~chi_10 db      d)
     1.30454847E-01    3     1000022        -4         4   # BR(~chi_20 -> ~chi_10 cb      c)
     1.69368704E-01    3     1000022        -3         3   # BR(~chi_20 -> ~chi_10 sb      s)
     3.89305966E-02    3     1000022       -11        11   # BR(~chi_20 -> ~chi_10 e+      e-)
     3.89305966E-02    3     1000022       -13        13   # BR(~chi_20 -> ~chi_10 mu+     mu-)
     1.64472182E-02    3     1000022       -15        15   # BR(~chi_20 -> ~chi_10 tau+    tau-)
     7.78510034E-02    3     1000022       -12        12   # BR(~chi_20 -> ~chi_10 nu_eb   nu_e)
     7.78510034E-02    3     1000022       -14        14   # BR(~chi_20 -> ~chi_10 nu_mub  nu_mu)
     7.78924730E-02    3     1000022       -16        16   # BR(~chi_20 -> ~chi_10 nu_taub nu_tau)
     7.08771395E-04    3     1000024        -2         1   # BR(~chi_20 -> ~chi_1+ ub      d)
     7.08771395E-04    3    -1000024        -1         2   # BR(~chi_20 -> ~chi_1- db      u)
     2.36256852E-04    3     1000024       -12        11   # BR(~chi_20 -> ~chi_1+ nu_eb   e-)
     2.36256852E-04    3    -1000024        12       -11   # BR(~chi_20 -> ~chi_1- nu_e    e+)
     2.36256852E-04    3     1000024       -14        13   # BR(~chi_20 -> ~chi_1+ nu_mub  mu-)
     2.36256852E-04    3    -1000024        14       -13   # BR(~chi_20 -> ~chi_1- nu_mu   mu+)
#
#         PDG            Width
DECAY   1000025     7.18844968E-01   # neutralino3 decays
#          BR         NDA      ID1       ID2
     5.18502078E-02    2     1000022        23   # BR(~chi_30 -> ~chi_10   Z )
     1.49318657E-01    2     1000023        23   # BR(~chi_30 -> ~chi_20   Z )
     2.12054502E-01    2     1000024       -24   # BR(~chi_30 -> ~chi_1+   W-)
     2.12054502E-01    2    -1000024        24   # BR(~chi_30 -> ~chi_1-   W+)
     1.31648464E-01    2     1000022        25   # BR(~chi_30 -> ~chi_10   h )
     1.98894127E-02    2     1000023        25   # BR(~chi_30 -> ~chi_20   h )
     4.76293884E-02    2     1000015       -15   # BR(~chi_30 -> ~tau_1-   tau+)
     4.76293884E-02    2    -1000015        15   # BR(~chi_30 -> ~tau_1+   tau-)
     6.39627390E-02    2     1000016       -16   # BR(~chi_30 -> ~nu_tau1  nu_taub)
     6.39627390E-02    2    -1000016        16   # BR(~chi_30 -> ~nu_tau1* nu_tau )
#
#         PDG            Width
DECAY   1000035     1.00087135E+02   # neutralino4 decays
#          BR         NDA      ID1       ID2
     3.66168055E-02    2     1000022        23   # BR(~chi_40 -> ~chi_10   Z )
     2.81902588E-02    2     1000023        23   # BR(~chi_40 -> ~chi_20   Z )
     1.65996525E-03    2     1000025        23   # BR(~chi_40 -> ~chi_30   Z )
     6.44440367E-02    2     1000024       -24   # BR(~chi_40 -> ~chi_1+   W-)
     6.44440367E-02    2    -1000024        24   # BR(~chi_40 -> ~chi_1-   W+)
     2.73642662E-02    2     1000022        25   # BR(~chi_40 -> ~chi_10   h )
     2.13647457E-02    2     1000022        35   # BR(~chi_40 -> ~chi_10   H )
     2.16706037E-02    2     1000022        36   # BR(~chi_40 -> ~chi_10   A )
     4.02826864E-02    2     1000023        25   # BR(~chi_40 -> ~chi_20   h )
     2.10717985E-02    2     1000023        35   # BR(~chi_40 -> ~chi_20   H )
     2.07641595E-02    2     1000023        36   # BR(~chi_40 -> ~chi_20   A )
     1.08984444E-03    2     1000025        25   # BR(~chi_40 -> ~chi_30   h )
     1.28023971E-04    2     1000025        35   # BR(~chi_40 -> ~chi_30   H )
     1.33468847E-04    2     1000025        36   # BR(~chi_40 -> ~chi_30   A )
     4.24735632E-02    2     1000024       -37   # BR(~chi_40 -> ~chi_1+   H-)
     4.24735632E-02    2    -1000024        37   # BR(~chi_40 -> ~chi_1-   H+)
     6.81173068E-09    2     2000002        -2   # BR(~chi_40 -> ~u_R      ub)
     6.81173068E-09    2    -2000002         2   # BR(~chi_40 -> ~u_R*     u )
     2.11782389E-09    2     2000001        -1   # BR(~chi_40 -> ~d_R      db)
     2.11782389E-09    2    -2000001         1   # BR(~chi_40 -> ~d_R*     d )
     6.81172995E-09    2     2000004        -4   # BR(~chi_40 -> ~c_R      cb)
     6.81172995E-09    2    -2000004         4   # BR(~chi_40 -> ~c_R*     c )
     2.11782389E-09    2     2000003        -3   # BR(~chi_40 -> ~s _R      sb)
     2.11782389E-09    2    -2000003         3   # BR(~chi_40 -> ~s _R*     s )
     3.65093186E-02    2     1000006        -6   # BR(~chi_40 -> ~t_1      tb)
     3.65093186E-02    2    -1000006         6   # BR(~chi_40 -> ~t_1*     t )
     1.18213571E-02    2     2000006        -6   # BR(~chi_40 -> ~t_2      tb)
     1.18213571E-02    2    -2000006         6   # BR(~chi_40 -> ~t_2*     t )
     3.80738088E-07    2     1000005        -5   # BR(~chi_40 -> ~b_1      bb)
     3.80738088E-07    2    -1000005         5   # BR(~chi_40 -> ~b_1*     b )
     4.82099610E-02    2     2000005        -5   # BR(~chi_40 -> ~b_2      bb)
     4.82099610E-02    2    -2000005         5   # BR(~chi_40 -> ~b_2*     b )
     1.26389285E-02    2     1000011       -11   # BR(~chi_40 -> ~e_L-     e+)
     1.26389285E-02    2    -1000011        11   # BR(~chi_40 -> ~e_L+     e-)
     1.94647227E-09    2     2000011       -11   # BR(~chi_40 -> ~e_R-     e+)
     1.94647227E-09    2    -2000011        11   # BR(~chi_40 -> ~e_R+     e-)
     1.26389285E-02    2     1000013       -13   # BR(~chi_40 -> ~mu_L-    mu+)
     1.26389285E-02    2    -1000013        13   # BR(~chi_40 -> ~mu_L+    mu-)
     1.94647227E-09    2     2000013       -13   # BR(~chi_40 -> ~mu_R-    mu+)
     1.94647227E-09    2    -2000013        13   # BR(~chi_40 -> ~mu_R+    mu-)
     6.78004323E-02    2     1000015       -15   # BR(~chi_40 -> ~tau_1-   tau+)
     6.78004323E-02    2    -1000015        15   # BR(~chi_40 -> ~tau_1+   tau-)
     1.59127926E-08    2     2000015       -15   # BR(~chi_40 -> ~tau_2-   tau+)
     1.59127926E-08    2    -2000015        15   # BR(~chi_40 -> ~tau_2+   tau-)
     1.26876611E-02    2     1000012       -12   # BR(~chi_40 -> ~nu_eL    nu_eb)
     1.26876611E-02    2    -1000012        12   # BR(~chi_40 -> ~nu_eL*   nu_e )
     1.26876611E-02    2     1000014       -14   # BR(~chi_40 -> ~nu_muL   nu_mub)
     1.26876611E-02    2    -1000014        14   # BR(~chi_40 -> ~nu_muL*  nu_mu )
     6.79194200E-02    2     1000016       -16   # BR(~chi_40 -> ~nu_tau1  nu_taub)
     6.79194200E-02    2    -1000016        16   # BR(~chi_40 -> ~nu_tau1* nu_tau )
#
#         PDG            Width
DECAY        25     4.41374790E-03   # h decays
#          BR         NDA      ID1       ID2
     5.41969569E-01    2           5        -5   # BR(h -> b       bb     )
     6.12419968E-02    2         -15        15   # BR(h -> tau+    tau-   )
     2.16800502E-04    2         -13        13   # BR(h -> mu+     mu-    )
     2.35591300E-04    2           3        -3   # BR(h -> s       sb     )
     2.00197278E-02    2           4        -4   # BR(h -> c       cb     )
     7.72410753E-02    2          21        21   # BR(h -> g       g      )
     2.35137274E-03    2          22        22   # BR(h -> gam     gam    )
     1.82492043E-03    2          22        23   # BR(h -> Z       gam    )
     2.60913846E-01    2          24       -24   # BR(h -> W+      W-     )
     3.39851002E-02    2          23        23   # BR(h -> Z       Z      )
#
#         PDG            Width
DECAY        35     1.33040427E+01   # H decays
#          BR         NDA      ID1       ID2
     7.37567770E-01    2           5        -5   # BR(H -> b       bb     )
     1.23460195E-01    2         -15        15   # BR(H -> tau+    tau-   )
     4.44114307E-04    2         -13        13   # BR(H -> mu+     mu-    )
     3.14161432E-04    2           3        -3   # BR(H -> s       sb     )
     1.01984182E-07    2           4        -4   # BR(H -> c       cb     )
     9.68456009E-03    2           6        -6   # BR(H -> t       tb     )
     2.65211617E-05    2          21        21   # BR(H -> g       g      )
     3.86481874E-08    2          22        22   # BR(H -> gam     gam    )
     1.58655696E-08    2          23        22   # BR(H -> Z       gam    )
     1.81993838E-05    2          24       -24   # BR(H -> W+      W-     )
     9.04734588E-06    2          23        23   # BR(H -> Z       Z      )
     6.41991474E-05    2          25        25   # BR(H -> h       h      )
     9.89482595E-04    2     1000024  -1000024   # BR(H -> ~chi_1+ ~chi_1-)
     2.20709416E-03    2     1000022   1000022   # BR(H -> ~chi_10 ~chi_10)
     1.93023461E-04    2     1000023   1000023   # BR(H -> ~chi_20 ~chi_20)
     8.10185037E-04    2     1000025   1000025   # BR(H -> ~chi_30 ~chi_30)
     3.75638473E-04    2     1000022   1000023   # BR(H -> ~chi_10 ~chi_20)
     6.50880393E-02    2     1000022   1000025   # BR(H -> ~chi_10 ~chi_30)
     5.87033470E-02    2     1000023   1000025   # BR(H -> ~chi_20 ~chi_30)
     3.42956921E-05    2     1000005  -1000005   # BR(H -> ~b_1    ~b_1*  )
     1.91677864E-06    2     1000015  -1000015   # BR(H -> ~tau_1- ~tau_1+)
     8.05304749E-06    2     1000016  -1000016   # BR(H -> ~nu_tauL ~nu_tauL*)
#
#         PDG            Width
DECAY        36     1.33070693E+01   # A decays
#          BR         NDA      ID1       ID2
     7.37463177E-01    2           5        -5   # BR(A -> b       bb     )
     1.23435615E-01    2         -15        15   # BR(A -> tau+    tau-   )
     4.44023407E-04    2         -13        13   # BR(A -> mu+     mu-    )
     3.14140274E-04    2           3        -3   # BR(A -> s       sb     )
     1.00793328E-07    2           4        -4   # BR(A -> c       cb     )
     9.83515963E-03    2           6        -6   # BR(A -> t       tb     )
     9.87143408E-05    2          21        21   # BR(A -> g       g      )
     1.31996792E-07    2          22        22   # BR(A -> gam     gam    )
     6.09737397E-08    2          23        22   # BR(A -> Z       gam    )
     1.82347746E-05    2          23        25   # BR(A -> Z       h      )
     1.03127102E-03    2     1000024  -1000024   # BR(A -> ~chi_1+ ~chi_1-)
     1.91057697E-03    2     1000022   1000022   # BR(A -> ~chi_10 ~chi_10)
     2.37116804E-04    2     1000023   1000023   # BR(A -> ~chi_20 ~chi_20)
     5.98316490E-04    2     1000025   1000025   # BR(A -> ~chi_30 ~chi_30)
     5.19548772E-04    2     1000022   1000023   # BR(A -> ~chi_10 ~chi_20)
     5.90982088E-02    2     1000022   1000025   # BR(A -> ~chi_10 ~chi_30)
     6.49956024E-02    2     1000023   1000025   # BR(A -> ~chi_20 ~chi_30)
#
#         PDG            Width
DECAY        37     1.35323572E+01   # H+ decays
#          BR         NDA      ID1       ID2
     1.25432590E-03    2           4        -5   # BR(H+ -> c       bb     )
     1.21560144E-01    2         -15        16   # BR(H+ -> tau+    nu_tau )
     4.37276945E-04    2         -13        14   # BR(H+ -> mu+     nu_mu  )
     1.25432055E-05    2           2        -5   # BR(H+ -> u       bb     )
     1.54346284E-05    2           2        -3   # BR(H+ -> u       sb     )
     3.03895135E-04    2           4        -3   # BR(H+ -> c       sb     )
     7.50398336E-01    2           6        -5   # BR(H+ -> t       bb     )
     1.80551971E-05    2          24        25   # BR(H+ -> W+      h      )
     6.12030614E-12    2          24        36   # BR(H+ -> W+      A      )
     4.42320740E-03    2     1000024   1000022   # BR(H+ -> ~chi_1+ ~chi_10)
     1.37467288E-03    2     1000024   1000023   # BR(H+ -> ~chi_1+ ~chi_20)
     1.20193459E-01    2     1000024   1000025   # BR(H+ -> ~chi_1+ ~chi_30)
     8.64964543E-06    2    -1000015   1000016   # BR(H+ -> ~tau_1+ ~nu_tauL)
