#
#                              ======================
#                              | THE SUSYHIT OUTPUT |
#                              ======================
#
#
#              ------------------------------------------------------
#              |     This is the output of the SUSY-HIT package     |
#              |  created by A.Djouadi, M.Muehlleitner and M.Spira. |
#              |  In case of problems with SUSY-HIT email to        |
#              |           margarete.muehlleitner@cern.ch           |
#              |           michael.spira@psi.ch                     |
#              |           abdelhak.djouadi@cern.ch                 |
#              ------------------------------------------------------
#
#              ------------------------------------------------------
#              |  SUSY Les Houches Accord - MSSM Spectrum + Decays  |
#              |              based on the decay programs           |
#              |                                                    |
#              |                     SDECAY 1.3b                    |
#              |                                                    |
#              |  Authors: M.Muhlleitner, A.Djouadi and Y.Mambrini  |
#              |  Ref.:    Comput.Phys.Commun.168(2005)46           |
#              |           [hep-ph/0311167]                         |
#              |                                                    |
#              |                     HDECAY 3.4                     |
#              |                                                    |
#              |  By: A.Djouadi,J.Kalinowski,M.Muhlleitner,M.Spira  |
#              |  Ref.:    Comput.Phys.Commun.108(1998)56           |
#              |           [hep-ph/9704448]                         |
#              |                                                    |
#              |                                                    |
#              |  If not stated otherwise all DRbar couplings and   |
#              |  soft SUSY breaking masses are given at the scale  |
#              |  Q=  0.23288550E+04
#              |                                                    |
#              ------------------------------------------------------
#
#
BLOCK DCINFO  # Decay Program information
     1   SDECAY/HDECAY # decay calculator
     2   1.3b  /3.4    # version number
#
BLOCK SPINFO  # Spectrum calculator information
     1     SOFTSUSY    # spectrum calculator               
     2     3.4.0       # version number                    
#
BLOCK MODSEL  # Model selection
     1     0   #  nonUniversal                                     
#
BLOCK SMINPUTS  # Standard Model inputs
         1     1.27908970E+02   # alpha_em^-1(M_Z)^MSbar
         2     1.16637870E-05   # G_F [GeV^-2]
         3     1.18400000E-01   # alpha_S(M_Z)^MSbar
         4     9.11876000E+01   # M_Z pole mass
         5     4.18000000E+00   # mb(mb)^MSbar
         6     1.73200000E+02   # mt pole mass
         7     1.77700000E+00   # mtau pole mass
#
BLOCK MINPAR  # Input parameters - minimal models
         3     1.69600000E+01   # tanb                
#
BLOCK EXTPAR  # Input parameters - non-minimal models
         0    -1.00000000E+00   # Set                 
         1    -4.46440000E+02   # M_1(MX)             
         2     1.07580000E+02   # M_2(MX)             
         3     2.15857000E+03   # M_3(MX)             
        11     3.38123000E+03   # At(MX)              
        12     1.25539000E+03   # Ab(MX)              
        13     1.17985000E+03   # Atau(MX)            
        23     2.59840000E+02   # mu(MX)              
        26     3.81391000E+03   # mA(pole)            
        31     3.19466000E+03   # meL(MX)             
        32     3.19466000E+03   # mmuL(MX)            
        33     1.05003000E+03   # mtauL(MX)           
        34     1.48493000E+03   # meR(MX)             
        35     1.48493000E+03   # mmuR(MX)            
        36     3.41553000E+03   # mtauR(MX)           
        41     1.55352000E+03   # mqL1(MX)            
        42     1.55352000E+03   # mqL2(MX)            
        43     1.51860000E+03   # mqL3(MX)            
        44     1.01749000E+03   # muR(MX)             
        45     1.01749000E+03   # mcR(MX)             
        46     3.56897000E+03   # mtR(MX)             
        47     5.94780000E+02   # mdR(MX)             
        48     5.94780000E+02   # msR(MX)             
        49     3.89117000E+03   # mbR(MX)             
#
BLOCK MASS  # Mass Spectrum
# PDG code           mass       particle
        24     8.03970220E+01   # W+
        25     1.27928894E+02   # h
        35     3.81393259E+03   # H
        36     3.81390979E+03   # A
        37     3.81516279E+03   # H+
         5     4.81876030E+00   # b-quark pole mass calculated from mb(mb)_Msbar
   1000001     1.65572865E+03   # ~d_L
   2000001     7.59735857E+02   # ~d_R
   1000002     1.65391427E+03   # ~u_L
   2000002     1.13987585E+03   # ~u_R
   1000003     1.65572865E+03   # ~s_L
   2000003     7.59735857E+02   # ~s_R
   1000004     1.65391427E+03   # ~c_L
   2000004     1.13987585E+03   # ~c_R
   1000005     1.60647081E+03   # ~b_1
   2000005     3.93231569E+03   # ~b_2
   1000006     1.60496922E+03   # ~t_1
   2000006     3.57382728E+03   # ~t_2
   1000011     3.20130360E+03   # ~e_L
   2000011     1.48686496E+03   # ~e_R
   1000012     3.19998897E+03   # ~nu_eL
   1000013     3.20130360E+03   # ~mu_L
   2000013     1.48686496E+03   # ~mu_R
   1000014     3.19998897E+03   # ~nu_muL
   1000015     1.05270726E+03   # ~tau_1
   2000015     3.41753892E+03   # ~tau_2
   1000016     1.04940234E+03   # ~nu_tauL
   1000021     2.22332582E+03   # ~g
   1000022     1.01827905E+02   # ~chi_10
   1000023    -2.72572170E+02   # ~chi_20
   1000025     2.92795436E+02   # ~chi_30
   1000035    -4.47278967E+02   # ~chi_40
   1000024     1.02326033E+02   # ~chi_1+
   1000037     2.98537763E+02   # ~chi_2+
#
BLOCK NMIX  # Neutralino Mixing Matrix
  1  1     1.24188842E-02   # N_11
  1  2     9.34414384E-01   # N_12
  1  3    -3.27726655E-01   # N_13
  1  4     1.38963197E-01   # N_14
  2  1     1.64100144E-01   # N_21
  2  2     1.35635871E-01   # N_22
  2  3     6.87381048E-01   # N_23
  2  4     6.94392791E-01   # N_24
  3  1    -4.24315347E-02   # N_31
  3  2     3.28731381E-01   # N_32
  3  3     6.42861436E-01   # N_33
  3  4    -6.90553704E-01   # N_34
  4  1     9.85452423E-01   # N_41
  4  2    -2.02076453E-02   # N_42
  4  3    -8.26541500E-02   # N_43
  4  4    -1.47117177E-01   # N_44
#
BLOCK UMIX  # Chargino Mixing Matrix U
  1  1     8.93956726E-01   # U_11
  1  2    -4.48153291E-01   # U_12
  2  1     4.48153291E-01   # U_21
  2  2     8.93956726E-01   # U_22
#
BLOCK VMIX  # Chargino Mixing Matrix V
  1  1     9.81325828E-01   # V_11
  1  2    -1.92352851E-01   # V_12
  2  1     1.92352851E-01   # V_21
  2  2     9.81325828E-01   # V_22
#
BLOCK STOPMIX  # Stop Mixing Matrix
  1  1     9.98975608E-01   # cos(theta_t)
  1  2    -4.52519018E-02   # sin(theta_t)
  2  1     4.52519018E-02   # -sin(theta_t)
  2  2     9.98975608E-01   # cos(theta_t)
#
BLOCK SBOTMIX  # Sbottom Mixing Matrix
  1  1     9.99999860E-01   # cos(theta_b)
  1  2     5.29150244E-04   # sin(theta_b)
  2  1    -5.29150244E-04   # -sin(theta_b)
  2  2     9.99999860E-01   # cos(theta_b)
#
BLOCK STAUMIX  # Stau Mixing Matrix
  1  1     9.99999860E-01   # cos(theta_tau)
  1  2     5.29150244E-04   # sin(theta_tau)
  2  1    -5.29150244E-04   # -sin(theta_tau)
  2  2     9.99999860E-01   # cos(theta_tau)
#
BLOCK ALPHA  # Higgs mixing
          -6.16489379E-02   # Mixing angle in the neutral Higgs boson sector
#
BLOCK HMIX Q=  2.32885500E+03  # DRbar Higgs Parameters
         1     2.63833010E+02   # mu(Q)MSSM           
         2     1.62283163E+01   # tan                 
         3     2.40926456E+02   # higgs               
         4     1.44569416E+07   # mA^2(Q)MSSM         
#
BLOCK GAUGE Q=  2.32885500E+03  # The gauge couplings
     1     3.64605911E-01   # gprime(Q) DRbar
     2     6.45968284E-01   # g(Q) DRbar
     3     1.02625764E+00   # g3(Q) DRbar
#
BLOCK AU Q=  2.32885500E+03  # The trilinear couplings
  1  1     0.00000000E+00   # A_u(Q) DRbar
  2  2     0.00000000E+00   # A_c(Q) DRbar
  3  3     3.38123001E+03   # A_t(Q) DRbar
#
BLOCK AD Q=  2.32885500E+03  # The trilinear couplings
  1  1     0.00000000E+00   # A_d(Q) DRbar
  2  2     0.00000000E+00   # A_s(Q) DRbar
  3  3     1.25539000E+03   # A_b(Q) DRbar
#
BLOCK AE Q=  2.32885500E+03  # The trilinear couplings
  1  1     0.00000000E+00   # A_e(Q) DRbar
  2  2     0.00000000E+00   # A_mu(Q) DRbar
  3  3     1.17985000E+03   # A_tau(Q) DRbar
#
BLOCK Yu Q=  2.32885500E+03  # The Yukawa couplings
  1  1     0.00000000E+00   # y_u(Q) DRbar
  2  2     0.00000000E+00   # y_c(Q) DRbar
  3  3     8.47205151E-01   # y_t(Q) DRbar
#
BLOCK Yd Q=  2.32885500E+03  # The Yukawa couplings
  1  1     0.00000000E+00   # y_d(Q) DRbar
  2  2     0.00000000E+00   # y_s(Q) DRbar
  3  3     2.15643014E-01   # y_b(Q) DRbar
#
BLOCK Ye Q=  2.32885500E+03  # The Yukawa couplings
  1  1     0.00000000E+00   # y_e(Q) DRbar
  2  2     0.00000000E+00   # y_mu(Q) DRbar
  3  3     1.67139960E-01   # y_tau(Q) DRbar
#
BLOCK MSOFT Q=  2.32885500E+03  # The soft SUSY breaking masses at the scale Q
         1    -4.46440000E+02   # M_1(Q)              
         2     1.07580000E+02   # M_2(Q)              
         3     2.15857000E+03   # M_3(Q)              
        21     1.43905215E+07   # mH1^2(Q)            
        22     1.24764069E+04   # mH2^2(Q)            
        31     3.19466000E+03   # meL(Q)              
        32     3.19466000E+03   # mmuL(Q)             
        33     1.05003000E+03   # mtauL(Q)            
        34     1.48493000E+03   # meR(Q)              
        35     1.48493000E+03   # mmuR(Q)             
        36     3.41553000E+03   # mtauR(Q)            
        41     1.55351999E+03   # mqL1(Q)             
        42     1.55351999E+03   # mqL2(Q)             
        43     1.51859999E+03   # mqL3(Q)             
        44     1.01748999E+03   # muR(Q)              
        45     1.01748999E+03   # mcR(Q)              
        46     3.56897000E+03   # mtR(Q)              
        47     5.94779983E+02   # mdR(Q)              
        48     5.94779983E+02   # msR(Q)              
        49     3.89117000E+03   # mbR(Q)              
#
Block HiggsBoundsInputHiggsCouplingsFermions
# ScalarNormEffCoupSq PseudoSNormEffCoupSq NP   IP1 IP2 IP2
    1.00344553E+00    0.00000000E+00        3  25   5   5  # h0-b-b eff. coupling^2, normalised to SM
    2.63354804E+02    0.00000000E+00        3  35   5   5  # H0-b-b eff. coupling^2, normalised to SM
    0.00000000E+00    2.63358250E+02        3  36   5   5  # A0-b-b eff. coupling^2, normalised to SM
#
    9.99986917E-01    0.00000000E+00        3  25   6   6  # h0-t-t eff. coupling^2, normalised to SM
    3.81019214E-03    0.00000000E+00        3  35   6   6  # H0-t-t eff. coupling^2, normalised to SM
    0.00000000E+00    3.79710907E-03        3  36   6   6  # A0-t-t eff. coupling^2, normalised to SM
#
    1.00344553E+00    0.00000000E+00        3  25  15  15  # h0-tau-tau eff. coupling^2, normalised to SM
    2.63354804E+02    0.00000000E+00        3  35  15  15  # H0-tau-tau eff. coupling^2, normalised to SM
    0.00000000E+00    2.63358250E+02        3  36  15  15  # A0-tau-tau eff. coupling^2, normalised to SM
#
Block HiggsBoundsInputHiggsCouplingsBosons
    9.99999989E-01        3  25  24  24  # h0-W-W eff. coupling^2, normalised to SM
    1.12502371E-08        3  35  24  24  # H0-W-W eff. coupling^2, normalised to SM
    0.00000000E+00        3  36  24  24  # A0-W-W eff. coupling^2, normalised to SM
#
    9.99999989E-01        3  25  23  23  # h0-Z-Z eff. coupling^2, normalised to SM
    1.12502371E-08        3  35  23  23  # H0-Z-Z eff. coupling^2, normalised to SM
    0.00000000E+00        3  36  23  23  # A0-Z-Z eff. coupling^2, normalised to SM
#
    8.91011990E-01        3  25  21  21  # h0-g-g eff. coupling^2, normalised to SM
    6.07861374E-16        3  35  21  21  # H0-g-g eff. coupling^2, normalised to SM
    1.53246238E-13        3  36  21  21  # A0-g-g eff. coupling^2, normalised to SM
#
    0.00000000E+00        3  25  25  23  # h0-h0-Z eff. coupling^2, normalised to SM
    0.00000000E+00        3  35  25  23  # H0-h0-Z eff. coupling^2, normalised to SM
    1.12502371E-08        3  36  25  23  # A0-h0-Z eff. coupling^2, normalised to SM
    0.00000000E+00        3  35  35  23  # H0-H0-Z eff. coupling^2, normalised to SM
    9.99999989E-01        3  36  35  23  # A0-H0-Z eff. coupling^2, normalised to SM
    0.00000000E+00        3  36  36  23  # A0-A0-Z eff. coupling^2, normalised to SM
#
    0.00000000E+00        4  25  21  21  23  # h0-g-g-Z eff. coupling^2, normalised to SM
    0.00000000E+00        4  35  21  21  23  # H0-g-g-Z eff. coupling^2, normalised to SM
    0.00000000E+00        4  36  21  21  23  # A0-g-g-Z eff. coupling^2, normalised to SM
#
#
#
#                             =================
#                             |The decay table|
#                             =================
#
# - The QCD corrections to the decays gluino -> squark  + quark
#                                     squark -> gaugino + quark_prime
#                                     squark -> squark_prime + Higgs
#                                     squark -> gluino  + quark
#   are included.
#
# - The multi-body decays for the inos, stops and sbottoms are included.
#
# - The loop induced decays for the gluino, neutralinos and stops
#   are included.
#
# - The SUSY decays of the top quark are included.
#
#
#         PDG            Width
DECAY         6     1.46925602E+00   # top decays
#          BR         NDA      ID1       ID2
     1.00000000E+00    2           5        24   # BR(t ->  b    W+)
#
#         PDG            Width
DECAY   1000021     1.82128266E+02   # gluino decays
#          BR         NDA      ID1       ID2
     2.54218735E-02    2     1000001        -1   # BR(~g -> ~d_L  db)
     2.54218735E-02    2    -1000001         1   # BR(~g -> ~d_L* d )
     9.99628580E-02    2     2000001        -1   # BR(~g -> ~d_R  db)
     9.99628580E-02    2    -2000001         1   # BR(~g -> ~d_R* d )
     2.55607320E-02    2     1000002        -2   # BR(~g -> ~u_L  ub)
     2.55607320E-02    2    -1000002         2   # BR(~g -> ~u_L* u )
     6.96304012E-02    2     2000002        -2   # BR(~g -> ~u_R  ub)
     6.96304012E-02    2    -2000002         2   # BR(~g -> ~u_R* u )
     2.54218735E-02    2     1000003        -3   # BR(~g -> ~s_L  sb)
     2.54218735E-02    2    -1000003         3   # BR(~g -> ~s_L* s )
     9.99628580E-02    2     2000003        -3   # BR(~g -> ~s_R  sb)
     9.99628580E-02    2    -2000003         3   # BR(~g -> ~s_R* s )
     2.55606587E-02    2     1000004        -4   # BR(~g -> ~c_L  cb)
     2.55606587E-02    2    -1000004         4   # BR(~g -> ~c_L* c )
     6.96303664E-02    2     2000004        -4   # BR(~g -> ~c_R  cb)
     6.96303664E-02    2    -2000004         4   # BR(~g -> ~c_R* c )
     2.93794421E-02    2     1000005        -5   # BR(~g -> ~b_1  bb)
     2.93794421E-02    2    -1000005         5   # BR(~g -> ~b_1* b )
     2.94689368E-02    2     1000006        -6   # BR(~g -> ~t_1  tb)
     2.94689368E-02    2    -1000006         6   # BR(~g -> ~t_1* t )
#
#         PDG            Width
DECAY   1000006     4.23851071E+01   # stop1 decays
#          BR         NDA      ID1       ID2
     1.39159016E-01    2     1000022         6   # BR(~t_1 -> ~chi_10 t )
     2.44682162E-01    2     1000023         6   # BR(~t_1 -> ~chi_20 t )
     2.61277601E-01    2     1000025         6   # BR(~t_1 -> ~chi_30 t )
     1.07953046E-02    2     1000035         6   # BR(~t_1 -> ~chi_40 t )
     2.99629184E-01    2     1000024         5   # BR(~t_1 -> ~chi_1+ b )
     4.44567315E-02    2     1000037         5   # BR(~t_1 -> ~chi_2+ b )
#
#         PDG            Width
DECAY   2000006     2.47139415E+02   # stop2 decays
#          BR         NDA      ID1       ID2
     5.36342013E-03    2     1000022         6   # BR(~t_2 -> ~chi_10 t )
     9.90670996E-02    2     1000023         6   # BR(~t_2 -> ~chi_20 t )
     9.43224628E-02    2     1000025         6   # BR(~t_2 -> ~chi_30 t )
     3.71881164E-02    2     1000035         6   # BR(~t_2 -> ~chi_40 t )
     1.05361808E-02    2     1000024         5   # BR(~t_2 -> ~chi_1+ b )
     1.93062242E-01    2     1000037         5   # BR(~t_2 -> ~chi_2+ b )
     3.02472866E-01    2     1000021         6   # BR(~t_2 -> ~g      t )
     7.19841552E-02    2     1000006        25   # BR(~t_2 -> ~t_1    h )
     6.29649183E-02    2     1000006        23   # BR(~t_2 -> ~t_1    Z )
     1.23038538E-01    2     1000005        24   # BR(~t_2 -> ~b_1    W+)
#
#         PDG            Width
DECAY   1000005     4.23339797E+01   # sbottom1 decays
#          BR         NDA      ID1       ID2
     1.39486156E-01    2     1000022         5   # BR(~b_1 -> ~chi_10 b )
     1.72636131E-02    2     1000023         5   # BR(~b_1 -> ~chi_20 b )
     3.02684231E-02    2     1000025         5   # BR(~b_1 -> ~chi_30 b )
     5.86360631E-03    2     1000035         5   # BR(~b_1 -> ~chi_40 b )
     2.61437897E-01    2    -1000024         6   # BR(~b_1 -> ~chi_1- t )
     5.45680304E-01    2    -1000037         6   # BR(~b_1 -> ~chi_2- t )
#
#         PDG            Width
DECAY   2000005     1.11151072E+02   # sbottom2 decays
#          BR         NDA      ID1       ID2
     3.49153330E-03    2     1000022         5   # BR(~b_2 -> ~chi_10 b )
     1.58737065E-02    2     1000023         5   # BR(~b_2 -> ~chi_20 b )
     1.34301640E-02    2     1000025         5   # BR(~b_2 -> ~chi_30 b )
     1.98925423E-02    2     1000035         5   # BR(~b_2 -> ~chi_40 b )
     6.49774691E-03    2    -1000024         6   # BR(~b_2 -> ~chi_1- t )
     2.57956780E-02    2    -1000037         6   # BR(~b_2 -> ~chi_2- t )
     9.14902386E-01    2     1000021         5   # BR(~b_2 -> ~g      b )
     3.04692189E-05    2     1000005        25   # BR(~b_2 -> ~b_1    h )
     2.90693637E-05    2     1000005        23   # BR(~b_2 -> ~b_1    Z )
     5.67035364E-05    2     1000006       -24   # BR(~b_2 -> ~t_1    W-)
     9.82198620E-10    2     2000006       -24   # BR(~b_2 -> ~t_2    W-)
#
#         PDG            Width
DECAY   1000002     2.03826210E+01   # sup_L decays
#          BR         NDA      ID1       ID2
     2.90479620E-01    2     1000022         2   # BR(~u_L -> ~chi_10 u)
     8.76577953E-03    2     1000023         2   # BR(~u_L -> ~chi_20 u)
     3.22525580E-02    2     1000025         2   # BR(~u_L -> ~chi_30 u)
     7.84202503E-03    2     1000035         2   # BR(~u_L -> ~chi_40 u)
     6.37519750E-01    2     1000024         1   # BR(~u_L -> ~chi_1+ d)
     2.31402666E-02    2     1000037         1   # BR(~u_L -> ~chi_2+ d)
#
#         PDG            Width
DECAY   2000002     1.96090734E+00   # sup_R decays
#          BR         NDA      ID1       ID2
     2.09951420E-04    2     1000022         2   # BR(~u_R -> ~chi_10 u)
     3.31647828E-02    2     1000023         2   # BR(~u_R -> ~chi_20 u)
     2.17651185E-03    2     1000025         2   # BR(~u_R -> ~chi_30 u)
     9.64448754E-01    2     1000035         2   # BR(~u_R -> ~chi_40 u)
#
#         PDG            Width
DECAY   1000001     2.02699548E+01   # sdown_L decays
#          BR         NDA      ID1       ID2
     2.89487735E-01    2     1000022         1   # BR(~d_L -> ~chi_10 d)
     3.49312553E-03    2     1000023         1   # BR(~d_L -> ~chi_20 d)
     3.57826488E-02    2     1000025         1   # BR(~d_L -> ~chi_30 d)
     1.22326448E-02    2     1000035         1   # BR(~d_L -> ~chi_40 d)
     5.32547861E-01    2    -1000024         2   # BR(~d_L -> ~chi_1- u)
     1.26455985E-01    2    -1000037         2   # BR(~d_L -> ~chi_2- u)
#
#         PDG            Width
DECAY   2000001     2.02400571E-01   # sdown_R decays
#          BR         NDA      ID1       ID2
     3.39130929E-04    2     1000022         1   # BR(~d_R -> ~chi_10 d)
     4.66837606E-02    2     1000023         1   # BR(~d_R -> ~chi_20 d)
     2.98153902E-03    2     1000025         1   # BR(~d_R -> ~chi_30 d)
     9.49995569E-01    2     1000035         1   # BR(~d_R -> ~chi_40 d)
#
#         PDG            Width
DECAY   1000004     2.05784058E+01   # scharm_L decays
#          BR         NDA      ID1       ID2
     2.90517651E-01    2     1000022         4   # BR(~c_L -> ~chi_10 c)
     8.75362751E-03    2     1000023         4   # BR(~c_L -> ~chi_20 c)
     3.22028044E-02    2     1000025         4   # BR(~c_L -> ~chi_30 c)
     7.82120003E-03    2     1000035         4   # BR(~c_L -> ~chi_40 c)
     6.37601116E-01    2     1000024         3   # BR(~c_L -> ~chi_1+ s)
     2.31036012E-02    2     1000037         3   # BR(~c_L -> ~chi_2+ s)
#
#         PDG            Width
DECAY   2000004     1.93136988E+00   # scharm_R decays
#          BR         NDA      ID1       ID2
     2.10582372E-04    2     1000022         4   # BR(~c_R -> ~chi_10 c)
     3.32117036E-02    2     1000023         4   # BR(~c_R -> ~chi_20 c)
     2.17924345E-03    2     1000025         4   # BR(~c_R -> ~chi_30 c)
     9.64398471E-01    2     1000035         4   # BR(~c_R -> ~chi_40 c)
#
#         PDG            Width
DECAY   1000003     2.04623530E+01   # sstrange_L decays
#          BR         NDA      ID1       ID2
     2.89580297E-01    2     1000022         3   # BR(~s_L -> ~chi_10 s)
     3.48894287E-03    2     1000023         3   # BR(~s_L -> ~chi_20 s)
     3.57342089E-02    2     1000025         3   # BR(~s_L -> ~chi_30 s)
     1.22024722E-02    2     1000035         3   # BR(~s_L -> ~chi_40 s)
     5.32714941E-01    2    -1000024         4   # BR(~s_L -> ~chi_1- c)
     1.26279138E-01    2    -1000037         4   # BR(~s_L -> ~chi_2- c)
#
#         PDG            Width
DECAY   2000003     1.94897238E-01   # sstrange_R decays
#          BR         NDA      ID1       ID2
     3.40754624E-04    2     1000022         3   # BR(~s_R -> ~chi_10 s)
     4.68336315E-02    2     1000023         3   # BR(~s_R -> ~chi_20 s)
     2.99048714E-03    2     1000025         3   # BR(~s_R -> ~chi_30 s)
     9.49835127E-01    2     1000035         3   # BR(~s_R -> ~chi_40 s)
#
#         PDG            Width
DECAY   1000011     4.37585314E+01   # selectron_L decays
#          BR         NDA      ID1       ID2
     2.68582651E-01    2     1000022        11   # BR(~e_L -> ~chi_10 e-)
     1.55928083E-02    2     1000023        11   # BR(~e_L -> ~chi_20 e-)
     2.77375274E-02    2     1000025        11   # BR(~e_L -> ~chi_30 e-)
     8.38718208E-02    2     1000035        11   # BR(~e_L -> ~chi_40 e-)
     4.84352753E-01    2    -1000024        12   # BR(~e_L -> ~chi_1- nu_e)
     1.19862440E-01    2    -1000037        12   # BR(~e_L -> ~chi_2- nu_e)
#
#         PDG            Width
DECAY   2000011     6.52982888E+00   # selectron_R decays
#          BR         NDA      ID1       ID2
     1.84017447E-04    2     1000022        11   # BR(~e_R -> ~chi_10 e-)
     3.02902901E-02    2     1000023        11   # BR(~e_R -> ~chi_20 e-)
     2.00355906E-03    2     1000025        11   # BR(~e_R -> ~chi_30 e-)
     9.67522133E-01    2     1000035        11   # BR(~e_R -> ~chi_40 e-)
#
#         PDG            Width
DECAY   1000013     4.37585313E+01   # smuon_L decays
#          BR         NDA      ID1       ID2
     2.68582651E-01    2     1000022        13   # BR(~mu_L -> ~chi_10 mu-)
     1.55928082E-02    2     1000023        13   # BR(~mu_L -> ~chi_20 mu-)
     2.77375273E-02    2     1000025        13   # BR(~mu_L -> ~chi_30 mu-)
     8.38718207E-02    2     1000035        13   # BR(~mu_L -> ~chi_40 mu-)
     4.84352753E-01    2    -1000024        14   # BR(~mu_L -> ~chi_1- nu_mu)
     1.19862440E-01    2    -1000037        14   # BR(~mu_L -> ~chi_2- nu_mu)
#
#         PDG            Width
DECAY   2000013     6.52982880E+00   # smuon_R decays
#          BR         NDA      ID1       ID2
     1.84017447E-04    2     1000022        13   # BR(~mu_R -> ~chi_10 mu-)
     3.02902901E-02    2     1000023        13   # BR(~mu_R -> ~chi_20 mu-)
     2.00355907E-03    2     1000025        13   # BR(~mu_R -> ~chi_30 mu-)
     9.67522133E-01    2     1000035        13   # BR(~mu_R -> ~chi_40 mu-)
#
#         PDG            Width
DECAY   1000015     1.40347794E+01   # stau_1 decays
#          BR         NDA      ID1       ID2
     2.75193699E-01    2     1000022        15   # BR(~tau_1 -> ~chi_10  tau-)
     3.12306037E-02    2     1000023        15   # BR(~tau_1 -> ~chi_20  tau-)
     3.92992895E-02    2     1000025        15   # BR(~tau_1 -> ~chi_30  tau-)
     6.02670865E-02    2     1000035        15   # BR(~tau_1 -> ~chi_40  tau-)
     4.88316367E-01    2    -1000024        16   # BR(~tau_1 -> ~chi_1-  nu_tau)
     1.05692954E-01    2    -1000037        16   # BR(~tau_1 -> ~chi_2-  nu_tau)
#
#         PDG            Width
DECAY   2000015     2.12358082E+01   # stau_2 decays
#          BR         NDA      ID1       ID2
     9.64211312E-03    2     1000022        15   # BR(~tau_2 -> ~chi_10  tau-)
     6.43690374E-02    2     1000023        15   # BR(~tau_2 -> ~chi_20  tau-)
     3.79919239E-02    2     1000025        15   # BR(~tau_2 -> ~chi_30  tau-)
     7.99172359E-01    2     1000035        15   # BR(~tau_2 -> ~chi_40  tau-)
     1.77852035E-02    2    -1000024        16   # BR(~tau_2 -> ~chi_1-  nu_tau)
     7.05350297E-02    2    -1000037        16   # BR(~tau_2 -> ~chi_2-  nu_tau)
     2.50541720E-04    2     1000016       -24   # BR(~tau_2 -> ~nu_tauL W-)
     1.25726041E-04    2     1000015        25   # BR(~tau_2 -> ~tau_1   h)
     1.28065536E-04    2     1000015        23   # BR(~tau_2 -> ~tau_1   Z)
#
#         PDG            Width
DECAY   1000012     4.37870973E+01   # snu_eL decays
#          BR         NDA      ID1       ID2
     2.60365552E-01    2     1000022        12   # BR(~nu_eL -> ~chi_10 nu_e)
     5.53076754E-04    2     1000023        12   # BR(~nu_eL -> ~chi_20 nu_e)
     3.71011073E-02    2     1000025        12   # BR(~nu_eL -> ~chi_30 nu_e)
     9.68901956E-02    2     1000035        12   # BR(~nu_eL -> ~chi_40 nu_e)
     5.83032424E-01    2     1000024        11   # BR(~nu_eL -> ~chi_1+ e-)
     2.20576442E-02    2     1000037        11   # BR(~nu_eL -> ~chi_2+ e-)
#
#         PDG            Width
DECAY   1000014     4.37870973E+01   # snu_muL decays
#          BR         NDA      ID1       ID2
     2.60365552E-01    2     1000022        14   # BR(~nu_muL -> ~chi_10 nu_mu)
     5.53076754E-04    2     1000023        14   # BR(~nu_muL -> ~chi_20 nu_mu)
     3.71011074E-02    2     1000025        14   # BR(~nu_muL -> ~chi_30 nu_mu)
     9.68901957E-02    2     1000035        14   # BR(~nu_muL -> ~chi_40 nu_mu)
     5.83032424E-01    2     1000024        13   # BR(~nu_muL -> ~chi_1+ mu-)
     2.20576442E-02    2     1000037        13   # BR(~nu_muL -> ~chi_2+ mu-)
#
#         PDG            Width
DECAY   1000016     1.41243280E+01   # snu_tauL decays
#          BR         NDA      ID1       ID2
     2.60266546E-01    2     1000022        16   # BR(~nu_tauL -> ~chi_10 nu_tau)
     4.96149472E-04    2     1000023        16   # BR(~nu_tauL -> ~chi_20 nu_tau)
     3.26187095E-02    2     1000025        16   # BR(~nu_tauL -> ~chi_30 nu_tau)
     6.86200349E-02    2     1000035        16   # BR(~nu_tauL -> ~chi_40 nu_tau)
     5.90800454E-01    2     1000024        15   # BR(~nu_tauL -> ~chi_1+ tau-)
     4.71981069E-02    2     1000037        15   # BR(~nu_tauL -> ~chi_2+ tau-)
#
#         PDG            Width
DECAY   1000024     2.09439000E-13   # chargino1+ decays
#           BR         NDA      ID1       ID2       ID3
     8.53531160E-02    3     1000022       -11        12   # BR(~chi_1+ -> ~chi_10 e+   nu_e)
     6.87412100E-02    3     1000022       -13        14   # BR(~chi_1+ -> ~chi_10 mu+  nu_mu)
     8.42201960E-01    2     1000022       211             # BR(~chi_1+ -> ~chi_10 pi+)
     3.70331870E-03    3     1000022       211        111   # BR(~chi_1+ -> ~chi_10 pi+ pi0)
     1.97348460E-07    4     1000022       211        111       111 # BR(~chi_1+ -> ~chi_10 pi+ pi0 pi0)
     1.97348460E-07    4     1000022       211        211      -211 # BR(~chi_1+ -> ~chi_10 pi+ pi+ pi-)
#
#         PDG            Width
DECAY   1000037     1.25590035E+00   # chargino2+ decays
#          BR         NDA      ID1       ID2
     3.73425562E-01    2     1000024        23   # BR(~chi_2+ -> ~chi_1+  Z )
     4.16940894E-01    2     1000022        24   # BR(~chi_2+ -> ~chi_10  W+)
     2.09633543E-01    2     1000024        25   # BR(~chi_2+ -> ~chi_1+  h )
#
#         PDG            Width
DECAY   1000022     0.00000000E+00   # neutralino1 decays
#
#         PDG            Width
DECAY   1000023     1.10831308E+00   # neutralino2 decays
#          BR         NDA      ID1       ID2
     2.60030584E-01    2     1000022        23   # BR(~chi_20 -> ~chi_10   Z )
     3.61221960E-01    2     1000024       -24   # BR(~chi_20 -> ~chi_1+   W-)
     3.61221960E-01    2    -1000024        24   # BR(~chi_20 -> ~chi_1-   W+)
     1.75254952E-02    2     1000022        25   # BR(~chi_20 -> ~chi_10   h )
#
#         PDG            Width
DECAY   1000025     1.43831500E+00   # neutralino3 decays
#          BR         NDA      ID1       ID2
     6.04954411E-02    2     1000022        23   # BR(~chi_30 -> ~chi_10   Z )
     3.88281378E-01    2     1000024       -24   # BR(~chi_30 -> ~chi_1+   W-)
     3.88281378E-01    2    -1000024        24   # BR(~chi_30 -> ~chi_1-   W+)
     1.62941802E-01    2     1000022        25   # BR(~chi_30 -> ~chi_10   h )
#
#         PDG            Width
DECAY   1000035     6.34012070E-01   # neutralino4 decays
#          BR         NDA      ID1       ID2
     8.35197293E-02    2     1000022        23   # BR(~chi_40 -> ~chi_10   Z )
     3.05103156E-02    2     1000023        23   # BR(~chi_40 -> ~chi_20   Z )
     1.11614464E-01    2     1000025        23   # BR(~chi_40 -> ~chi_30   Z )
     1.24665167E-01    2     1000024       -24   # BR(~chi_40 -> ~chi_1+   W-)
     1.24665167E-01    2    -1000024        24   # BR(~chi_40 -> ~chi_1-   W+)
     1.32856278E-01    2     1000037       -24   # BR(~chi_40 -> ~chi_2+   W-)
     1.32856278E-01    2    -1000037        24   # BR(~chi_40 -> ~chi_2-   W+)
     3.21108137E-02    2     1000022        25   # BR(~chi_40 -> ~chi_10   h )
     2.24829247E-01    2     1000023        25   # BR(~chi_40 -> ~chi_20   h )
     2.37253957E-03    2     1000025        25   # BR(~chi_40 -> ~chi_30   h )
#
#         PDG            Width
DECAY        25     4.48626504E-03   # h decays
#          BR         NDA      ID1       ID2
     5.50724779E-01    2           5        -5   # BR(h -> b       bb     )
     5.92324408E-02    2         -15        15   # BR(h -> tau+    tau-   )
     2.09651284E-04    2         -13        13   # BR(h -> mu+     mu-    )
     2.27788022E-04    2           3        -3   # BR(h -> s       sb     )
     1.96950450E-02    2           4        -4   # BR(h -> c       cb     )
     7.62813156E-02    2          21        21   # BR(h -> g       g      )
     2.38239430E-03    2          22        22   # BR(h -> gam     gam    )
     1.79394124E-03    2          22        23   # BR(h -> Z       gam    )
     2.56068110E-01    2          24       -24   # BR(h -> W+      W-     )
     3.33845352E-02    2          23        23   # BR(h -> Z       Z      )
#
#         PDG            Width
DECAY        35     6.56218266E+01   # H decays
#          BR         NDA      ID1       ID2
     1.60720274E-01    2           5        -5   # BR(H -> b       bb     )
     3.15306733E-02    2         -15        15   # BR(H -> tau+    tau-   )
     1.12011402E-04    2         -13        13   # BR(H -> mu+     mu-    )
     6.35028311E-05    2           3        -3   # BR(H -> s       sb     )
     8.80600843E-08    2           4        -4   # BR(H -> c       cb     )
     8.68976244E-03    2           6        -6   # BR(H -> t       tb     )
     8.75698452E-07    2          21        21   # BR(H -> g       g      )
     7.85699180E-08    2          22        22   # BR(H -> gam     gam    )
     2.78608058E-09    2          23        22   # BR(H -> Z       gam    )
     3.06133172E-06    2          24       -24   # BR(H -> W+      W-     )
     1.52803022E-06    2          23        23   # BR(H -> Z       Z      )
     1.08801116E-05    2          25        25   # BR(H -> h       h      )
     9.00903401E-02    2     1000024  -1000024   # BR(H -> ~chi_1+ ~chi_1-)
     9.92478531E-03    2     1000037  -1000037   # BR(H -> ~chi_2+ ~chi_2-)
     1.93742180E-01    2     1000024  -1000037   # BR(H -> ~chi_1+ ~chi_2-)
     1.93742180E-01    2     1000037  -1000024   # BR(H -> ~chi_2+ ~chi_1-)
     4.28847288E-02    2     1000022   1000022   # BR(H -> ~chi_10 ~chi_10)
     5.80489571E-04    2     1000023   1000023   # BR(H -> ~chi_20 ~chi_20)
     2.10913644E-02    2     1000025   1000025   # BR(H -> ~chi_30 ~chi_30)
     1.13888710E-03    2     1000035   1000035   # BR(H -> ~chi_40 ~chi_40)
     1.06877738E-01    2     1000022   1000023   # BR(H -> ~chi_10 ~chi_20)
     4.77395739E-02    2     1000022   1000025   # BR(H -> ~chi_10 ~chi_30)
     1.93022508E-03    2     1000022   1000035   # BR(H -> ~chi_10 ~chi_40)
     1.97756812E-02    2     1000023   1000025   # BR(H -> ~chi_20 ~chi_30)
     3.79807189E-02    2     1000023   1000035   # BR(H -> ~chi_20 ~chi_40)
     3.13146257E-02    2     1000025   1000035   # BR(H -> ~chi_30 ~chi_40)
     1.01061330E-06    2     1000002  -1000002   # BR(H -> ~u_L    ~u_L*  )
     2.90187752E-07    2     2000002  -2000002   # BR(H -> ~u_R    ~u_R*  )
     1.01061330E-06    2     1000004  -1000004   # BR(H -> ~c_L    ~c_L*  )
     2.90187752E-07    2     2000004  -2000004   # BR(H -> ~c_R    ~c_R*  )
     4.51997327E-05    2     1000006  -1000006   # BR(H -> ~t_1    ~t_1*  )
     1.47743806E-06    2     1000001  -1000001   # BR(H -> ~d_L    ~d_L*  )
     8.30010162E-08    2     2000001  -2000001   # BR(H -> ~d_R    ~d_R*  )
     1.47743806E-06    2     1000003  -1000003   # BR(H -> ~s_L    ~s_L*  )
     8.30010162E-08    2     2000003  -2000003   # BR(H -> ~s_R    ~s_R*  )
     1.13905232E-06    2     1000005  -1000005   # BR(H -> ~b_1    ~b_1*  )
     1.69986421E-07    2     2000011  -2000011   # BR(H -> ~e_R-   ~e_R+  )
     1.69986421E-07    2     2000013  -2000013   # BR(H -> ~mu_R-  ~mu_R+ )
     2.00064534E-07    2     1000015  -1000015   # BR(H -> ~tau_1- ~tau_1+)
     1.14298792E-06    2     1000016  -1000016   # BR(H -> ~nu_tauL ~nu_tauL*)
#
#         PDG            Width
DECAY        36     6.56209417E+01   # A decays
#          BR         NDA      ID1       ID2
     1.60741969E-01    2           5        -5   # BR(A -> b       bb     )
     3.15313511E-02    2         -15        15   # BR(A -> tau+    tau-   )
     1.12013709E-04    2         -13        13   # BR(A -> mu+     mu-    )
     6.35211209E-05    2           3        -3   # BR(A -> s       sb     )
     8.85741801E-08    2           4        -4   # BR(A -> c       cb     )
     8.70524374E-03    2           6        -6   # BR(A -> t       tb     )
     1.39041002E-05    2          21        21   # BR(A -> g       g      )
     8.41032493E-08    2          22        22   # BR(A -> gam     gam    )
     1.48572358E-08    2          23        22   # BR(A -> Z       gam    )
     3.10528126E-06    2          23        25   # BR(A -> Z       h      )
     9.95037539E-02    2     1000024  -1000024   # BR(A -> ~chi_1+ ~chi_1-)
     1.92249100E-02    2     1000037  -1000037   # BR(A -> ~chi_2+ ~chi_2-)
     1.84392729E-01    2     1000024  -1000037   # BR(A -> ~chi_1+ ~chi_2-)
     1.84392729E-01    2     1000037  -1000024   # BR(A -> ~chi_2+ ~chi_1-)
     4.77520643E-02    2     1000022   1000022   # BR(A -> ~chi_10 ~chi_10)
     4.61744816E-04    2     1000023   1000023   # BR(A -> ~chi_20 ~chi_20)
     2.81667531E-02    2     1000025   1000025   # BR(A -> ~chi_30 ~chi_30)
     7.75556329E-04    2     1000035   1000035   # BR(A -> ~chi_40 ~chi_40)
     8.19050139E-02    2     1000022   1000023   # BR(A -> ~chi_10 ~chi_20)
     6.52367012E-02    2     1000022   1000025   # BR(A -> ~chi_10 ~chi_30)
     3.18363681E-03    2     1000022   1000035   # BR(A -> ~chi_10 ~chi_40)
     1.59740950E-02    2     1000023   1000025   # BR(A -> ~chi_20 ~chi_30)
     3.05623888E-02    2     1000023   1000035   # BR(A -> ~chi_20 ~chi_40)
     3.72966291E-02    2     1000025   1000035   # BR(A -> ~chi_30 ~chi_40)
#
#         PDG            Width
DECAY        37     6.53672228E+01   # H+ decays
#          BR         NDA      ID1       ID2
     2.65277121E-04    2           4        -5   # BR(H+ -> c       bb     )
     3.16641375E-02    2         -15        16   # BR(H+ -> tau+    nu_tau )
     1.12485427E-04    2         -13        14   # BR(H+ -> mu+     nu_mu  )
     2.65276782E-06    2           2        -5   # BR(H+ -> u       bb     )
     3.19154154E-06    2           2        -3   # BR(H+ -> u       sb     )
     6.29045403E-05    2           4        -3   # BR(H+ -> c       sb     )
     1.66283889E-01    2           6        -5   # BR(H+ -> t       bb     )
     3.12161379E-06    2          24        25   # BR(H+ -> W+      h      )
     6.21718766E-14    2          24        36   # BR(H+ -> W+      A      )
     1.36414477E-05    2     1000024   1000022   # BR(H+ -> ~chi_1+ ~chi_10)
     2.29880038E-01    2     1000024   1000023   # BR(H+ -> ~chi_1+ ~chi_20)
     2.20698198E-01    2     1000024   1000025   # BR(H+ -> ~chi_1+ ~chi_30)
     3.68939061E-03    2     1000024   1000035   # BR(H+ -> ~chi_1+ ~chi_40)
     2.68695006E-01    2     1000037   1000022   # BR(H+ -> ~chi_2+ ~chi_10)
     1.36022680E-02    2     1000037   1000023   # BR(H+ -> ~chi_2+ ~chi_20)
     4.32041611E-03    2     1000037   1000025   # BR(H+ -> ~chi_2+ ~chi_30)
     6.06758645E-02    2     1000037   1000035   # BR(H+ -> ~chi_2+ ~chi_40)
     1.15150129E-06    2    -1000015   1000016   # BR(H+ -> ~tau_1+ ~nu_tauL)
     2.47335470E-06    2     1000002  -1000001   # BR(H+ -> ~u_L    ~d_L*  )
     2.47335470E-06    2     1000004  -1000003   # BR(H+ -> ~c_L    ~s_L*  )
     2.14198712E-05    2     1000006  -1000005   # BR(H+ -> ~t_1    ~b_1*  )
