#
#                              ======================
#                              | THE SUSYHIT OUTPUT |
#                              ======================
#
#
#              ------------------------------------------------------
#              |     This is the output of the SUSY-HIT package     |
#              |  created by A.Djouadi, M.Muehlleitner and M.Spira. |
#              |  In case of problems with SUSY-HIT email to        |
#              |           margarete.muehlleitner@cern.ch           |
#              |           michael.spira@psi.ch                     |
#              |           abdelhak.djouadi@cern.ch                 |
#              ------------------------------------------------------
#
#              ------------------------------------------------------
#              |  SUSY Les Houches Accord - MSSM Spectrum + Decays  |
#              |              based on the decay programs           |
#              |                                                    |
#              |                     SDECAY 1.3b                    |
#              |                                                    |
#              |  Authors: M.Muhlleitner, A.Djouadi and Y.Mambrini  |
#              |  Ref.:    Comput.Phys.Commun.168(2005)46           |
#              |           [hep-ph/0311167]                         |
#              |                                                    |
#              |                     HDECAY 3.4                     |
#              |                                                    |
#              |  By: A.Djouadi,J.Kalinowski,M.Muhlleitner,M.Spira  |
#              |  Ref.:    Comput.Phys.Commun.108(1998)56           |
#              |           [hep-ph/9704448]                         |
#              |                                                    |
#              |                                                    |
#              |  If not stated otherwise all DRbar couplings and   |
#              |  soft SUSY breaking masses are given at the scale  |
#              |  Q=  0.37062090E+04
#              |                                                    |
#              ------------------------------------------------------
#
#
BLOCK DCINFO  # Decay Program information
     1   SDECAY/HDECAY # decay calculator
     2   1.3b  /3.4    # version number
#
BLOCK SPINFO  # Spectrum calculator information
     1     SOFTSUSY    # spectrum calculator               
     2     3.4.0       # version number                    
#
BLOCK MODSEL  # Model selection
     1     0   #  nonUniversal                                     
#
BLOCK SMINPUTS  # Standard Model inputs
         1     1.27908970E+02   # alpha_em^-1(M_Z)^MSbar
         2     1.16637870E-05   # G_F [GeV^-2]
         3     1.18400000E-01   # alpha_S(M_Z)^MSbar
         4     9.11876000E+01   # M_Z pole mass
         5     4.18000000E+00   # mb(mb)^MSbar
         6     1.73200000E+02   # mt pole mass
         7     1.77700000E+00   # mtau pole mass
#
BLOCK MINPAR  # Input parameters - minimal models
         3     2.25200000E+01   # tanb                
#
BLOCK EXTPAR  # Input parameters - non-minimal models
         0    -1.00000000E+00   # Set                 
         1     3.94415000E+03   # M_1(MX)             
         2     4.62340000E+02   # M_2(MX)             
         3     3.75089000E+03   # M_3(MX)             
        11    -2.66086000E+03   # At(MX)              
        12    -3.28321000E+03   # Ab(MX)              
        13     1.90129000E+03   # Atau(MX)            
        23     1.31365000E+03   # mu(MX)              
        26     7.67060000E+02   # mA(pole)            
        31     3.08256000E+03   # meL(MX)             
        32     3.08256000E+03   # mmuL(MX)            
        33     1.03629000E+03   # mtauL(MX)           
        34     3.02971000E+03   # meR(MX)             
        35     3.02971000E+03   # mmuR(MX)            
        36     2.96226000E+03   # mtauR(MX)           
        41     1.51275000E+03   # mqL1(MX)            
        42     1.51275000E+03   # mqL2(MX)            
        43     3.73847000E+03   # mqL3(MX)            
        44     9.61580000E+02   # muR(MX)             
        45     9.61580000E+02   # mcR(MX)             
        46     3.67099000E+03   # mtR(MX)             
        47     4.22070000E+02   # mdR(MX)             
        48     4.22070000E+02   # msR(MX)             
        49     1.08280000E+02   # mbR(MX)             
#
BLOCK MASS  # Mass Spectrum
# PDG code           mass       particle
        24     8.03730682E+01   # W+
        25     1.24417038E+02   # h
        35     7.67142423E+02   # H
        36     7.67059995E+02   # A
        37     7.71383547E+02   # H+
         5     4.81876030E+00   # b-quark pole mass calculated from mb(mb)_Msbar
   1000001     1.71478215E+03   # ~d_L
   2000001     8.21909149E+02   # ~d_R
   1000002     1.71299658E+03   # ~u_L
   2000002     1.22221548E+03   # ~u_R
   1000003     1.71478215E+03   # ~s_L
   2000003     8.21909149E+02   # ~s_R
   1000004     1.71299658E+03   # ~c_L
   2000004     1.22221548E+03   # ~c_R
   1000005     6.88952203E+02   # ~b_1
   2000005     3.83776861E+03   # ~b_2
   1000006     3.72348024E+03   # ~t_1
   2000006     3.86421173E+03   # ~t_2
   1000011     3.09169520E+03   # ~e_L
   2000011     3.04563222E+03   # ~e_R
   1000012     3.09035149E+03   # ~nu_eL
   1000013     3.09169520E+03   # ~mu_L
   2000013     3.04563222E+03   # ~mu_R
   1000014     3.09035149E+03   # ~nu_muL
   1000015     1.04439020E+03   # ~tau_1
   2000015     2.97422092E+03   # ~tau_2
   1000016     1.04120609E+03   # ~nu_tauL
   1000021     3.82102832E+03   # ~g
   1000022     4.83533131E+02   # ~chi_10
   1000023    -1.34871290E+03   # ~chi_20
   1000025     1.35035131E+03   # ~chi_30
   1000035     3.87372521E+03   # ~chi_40
   1000024     4.83702506E+02   # ~chi_1+
   1000037     1.35266550E+03   # ~chi_2+
#
BLOCK NMIX  # Neutralino Mixing Matrix
  1  1    -3.89629109E-04   # N_11
  1  2     9.97393877E-01   # N_12
  1  3    -6.71179048E-02   # N_13
  1  4     2.64667593E-02   # N_14
  2  1    -5.68348164E-03   # N_21
  2  2     2.87595248E-02   # N_22
  2  3     7.06315965E-01   # N_23
  2  4     7.07289435E-01   # N_24
  3  1     1.29793508E-02   # N_31
  3  2     6.61683453E-02   # N_32
  3  3     7.04688819E-01   # N_33
  3  4    -7.06305143E-01   # N_34
  4  1     9.99899536E-01   # N_41
  4  2    -3.06785069E-04   # N_42
  4  3    -5.15873895E-03   # N_43
  4  4     1.31988870E-02   # N_44
#
BLOCK UMIX  # Chargino Mixing Matrix U
  1  1     9.95502490E-01   # U_11
  1  2    -9.47353809E-02   # U_12
  2  1     9.47353809E-02   # U_21
  2  2     9.95502490E-01   # U_22
#
BLOCK VMIX  # Chargino Mixing Matrix V
  1  1     9.99301690E-01   # V_11
  1  2    -3.73648648E-02   # V_12
  2  1     3.73648648E-02   # V_21
  2  2     9.99301690E-01   # V_22
#
BLOCK STOPMIX  # Stop Mixing Matrix
  1  1     4.14428658E-01   # cos(theta_t)
  1  2     9.10081803E-01   # sin(theta_t)
  2  1    -9.10081803E-01   # -sin(theta_t)
  2  2     4.14428658E-01   # cos(theta_t)
#
BLOCK SBOTMIX  # Sbottom Mixing Matrix
  1  1     4.96170074E-03   # cos(theta_b)
  1  2     9.99987691E-01   # sin(theta_b)
  2  1    -9.99987691E-01   # -sin(theta_b)
  2  2     4.96170074E-03   # cos(theta_b)
#
BLOCK STAUMIX  # Stau Mixing Matrix
  1  1     9.99979916E-01   # cos(theta_tau)
  1  2     6.33779115E-03   # sin(theta_tau)
  2  1    -6.33779115E-03   # -sin(theta_tau)
  2  2     9.99979916E-01   # cos(theta_tau)
#
BLOCK ALPHA  # Higgs mixing
          -4.80952307E-02   # Mixing angle in the neutral Higgs boson sector
#
BLOCK HMIX Q=  3.70620900E+03  # DRbar Higgs Parameters
         1     1.33469028E+03   # mu(Q)MSSM           
         2     2.15567226E+01   # tan                 
         3     2.42102422E+02   # higgs               
         4     8.42115239E+05   # mA^2(Q)MSSM         
#
BLOCK GAUGE Q=  3.70620900E+03  # The gauge couplings
     1     3.65618061E-01   # gprime(Q) DRbar
     2     6.40224776E-01   # g(Q) DRbar
     3     1.00504891E+00   # g3(Q) DRbar
#
BLOCK AU Q=  3.70620900E+03  # The trilinear couplings
  1  1     0.00000000E+00   # A_u(Q) DRbar
  2  2     0.00000000E+00   # A_c(Q) DRbar
  3  3    -2.66085997E+03   # A_t(Q) DRbar
#
BLOCK AD Q=  3.70620900E+03  # The trilinear couplings
  1  1     0.00000000E+00   # A_d(Q) DRbar
  2  2     0.00000000E+00   # A_s(Q) DRbar
  3  3    -3.28320999E+03   # A_b(Q) DRbar
#
BLOCK AE Q=  3.70620900E+03  # The trilinear couplings
  1  1     0.00000000E+00   # A_e(Q) DRbar
  2  2     0.00000000E+00   # A_mu(Q) DRbar
  3  3     1.90129000E+03   # A_tau(Q) DRbar
#
BLOCK Yu Q=  3.70620900E+03  # The Yukawa couplings
  1  1     0.00000000E+00   # y_u(Q) DRbar
  2  2     0.00000000E+00   # y_c(Q) DRbar
  3  3     8.11577192E-01   # y_t(Q) DRbar
#
BLOCK Yd Q=  3.70620900E+03  # The Yukawa couplings
  1  1     0.00000000E+00   # y_d(Q) DRbar
  2  2     0.00000000E+00   # y_s(Q) DRbar
  3  3     2.67254318E-01   # y_b(Q) DRbar
#
BLOCK Ye Q=  3.70620900E+03  # The Yukawa couplings
  1  1     0.00000000E+00   # y_e(Q) DRbar
  2  2     0.00000000E+00   # y_mu(Q) DRbar
  3  3     2.25194680E-01   # y_tau(Q) DRbar
#
BLOCK MSOFT Q=  3.70620900E+03  # The soft SUSY breaking masses at the scale Q
         1     3.94415000E+03   # M_1(Q)              
         2     4.62340000E+02   # M_2(Q)              
         3     3.75089000E+03   # M_3(Q)              
        21    -1.20502357E+06   # mH1^2(Q)            
        22    -1.48294167E+06   # mH2^2(Q)            
        31     3.08256000E+03   # meL(Q)              
        32     3.08256000E+03   # mmuL(Q)             
        33     1.03629000E+03   # mtauL(Q)            
        34     3.02971000E+03   # meR(Q)              
        35     3.02971000E+03   # mmuR(Q)             
        36     2.96226000E+03   # mtauR(Q)            
        41     1.51274996E+03   # mqL1(Q)             
        42     1.51274996E+03   # mqL2(Q)             
        43     3.73846997E+03   # mqL3(Q)             
        44     9.61579940E+02   # muR(Q)              
        45     9.61579940E+02   # mcR(Q)              
        46     3.67098995E+03   # mtR(Q)              
        47     4.22069864E+02   # mdR(Q)              
        48     4.22069864E+02   # msR(Q)              
        49     1.08279406E+02   # mbR(Q)              
#
Block HiggsBoundsInputHiggsCouplingsFermions
# ScalarNormEffCoupSq PseudoSNormEffCoupSq NP   IP1 IP2 IP2
    1.07638635E+00    0.00000000E+00        3  25   5   5  # h0-b-b eff. coupling^2, normalised to SM
    4.64615903E+02    0.00000000E+00        3  35   5   5  # H0-b-b eff. coupling^2, normalised to SM
    0.00000000E+00    4.64692289E+02        3  36   5   5  # A0-b-b eff. coupling^2, normalised to SM
#
    9.99835619E-01    0.00000000E+00        3  25   6   6  # h0-t-t eff. coupling^2, normalised to SM
    2.31634219E-03    0.00000000E+00        3  35   6   6  # H0-t-t eff. coupling^2, normalised to SM
    0.00000000E+00    2.15196168E-03        3  36   6   6  # A0-t-t eff. coupling^2, normalised to SM
#
    1.07638635E+00    0.00000000E+00        3  25  15  15  # h0-tau-tau eff. coupling^2, normalised to SM
    4.64615903E+02    0.00000000E+00        3  35  15  15  # H0-tau-tau eff. coupling^2, normalised to SM
    0.00000000E+00    4.64692289E+02        3  36  15  15  # A0-tau-tau eff. coupling^2, normalised to SM
#
Block HiggsBoundsInputHiggsCouplingsBosons
    9.99996975E-01        3  25  24  24  # h0-W-W eff. coupling^2, normalised to SM
    3.02489273E-06        3  35  24  24  # H0-W-W eff. coupling^2, normalised to SM
    0.00000000E+00        3  36  24  24  # A0-W-W eff. coupling^2, normalised to SM
#
    9.99996975E-01        3  25  23  23  # h0-Z-Z eff. coupling^2, normalised to SM
    3.02489273E-06        3  35  23  23  # H0-Z-Z eff. coupling^2, normalised to SM
    0.00000000E+00        3  36  23  23  # A0-Z-Z eff. coupling^2, normalised to SM
#
    8.83694479E-01        3  25  21  21  # h0-g-g eff. coupling^2, normalised to SM
    1.64667855E-04        3  35  21  21  # H0-g-g eff. coupling^2, normalised to SM
    5.49541095E-04        3  36  21  21  # A0-g-g eff. coupling^2, normalised to SM
#
    0.00000000E+00        3  25  25  23  # h0-h0-Z eff. coupling^2, normalised to SM
    0.00000000E+00        3  35  25  23  # H0-h0-Z eff. coupling^2, normalised to SM
    3.02489273E-06        3  36  25  23  # A0-h0-Z eff. coupling^2, normalised to SM
    0.00000000E+00        3  35  35  23  # H0-H0-Z eff. coupling^2, normalised to SM
    9.99996975E-01        3  36  35  23  # A0-H0-Z eff. coupling^2, normalised to SM
    0.00000000E+00        3  36  36  23  # A0-A0-Z eff. coupling^2, normalised to SM
#
    0.00000000E+00        4  25  21  21  23  # h0-g-g-Z eff. coupling^2, normalised to SM
    0.00000000E+00        4  35  21  21  23  # H0-g-g-Z eff. coupling^2, normalised to SM
    0.00000000E+00        4  36  21  21  23  # A0-g-g-Z eff. coupling^2, normalised to SM
#
#
#
#                             =================
#                             |The decay table|
#                             =================
#
# - The QCD corrections to the decays gluino -> squark  + quark
#                                     squark -> gaugino + quark_prime
#                                     squark -> squark_prime + Higgs
#                                     squark -> gluino  + quark
#   are included.
#
# - The multi-body decays for the inos, stops and sbottoms are included.
#
# - The loop induced decays for the gluino, neutralinos and stops
#   are included.
#
# - The SUSY decays of the top quark are included.
#
#
#         PDG            Width
DECAY         6     1.44431878E+00   # top decays
#          BR         NDA      ID1       ID2
     1.00000000E+00    2           5        24   # BR(t ->  b    W+)
#
#         PDG            Width
DECAY   1000021     5.43678755E+02   # gluino decays
#          BR         NDA      ID1       ID2
     4.61092496E-02    2     1000001        -1   # BR(~g -> ~d_L  db)
     4.61092496E-02    2    -1000001         1   # BR(~g -> ~d_L* d )
     6.57628290E-02    2     2000001        -1   # BR(~g -> ~d_R  db)
     6.57628290E-02    2    -2000001         1   # BR(~g -> ~d_R* d )
     4.61576704E-02    2     1000002        -2   # BR(~g -> ~u_L  ub)
     4.61576704E-02    2    -1000002         2   # BR(~g -> ~u_L* u )
     5.82609157E-02    2     2000002        -2   # BR(~g -> ~u_R  ub)
     5.82609157E-02    2    -2000002         2   # BR(~g -> ~u_R* u )
     4.61092496E-02    2     1000003        -3   # BR(~g -> ~s_L  sb)
     4.61092496E-02    2    -1000003         3   # BR(~g -> ~s_L* s )
     6.57628290E-02    2     2000003        -3   # BR(~g -> ~s_R  sb)
     6.57628290E-02    2    -2000003         3   # BR(~g -> ~s_R* s )
     4.61576654E-02    2     1000004        -4   # BR(~g -> ~c_L  cb)
     4.61576654E-02    2    -1000004         4   # BR(~g -> ~c_L* c )
     5.82609132E-02    2     2000004        -4   # BR(~g -> ~c_R  cb)
     5.82609132E-02    2    -2000004         4   # BR(~g -> ~c_R* c )
     6.74186780E-02    2     1000005        -5   # BR(~g -> ~b_1  bb)
     6.74186780E-02    2    -1000005         5   # BR(~g -> ~b_1* b )
#
#         PDG            Width
DECAY   1000006     7.63826216E+01   # stop1 decays
#          BR         NDA      ID1       ID2
     3.98878629E-02    2     1000022         6   # BR(~t_1 -> ~chi_10 t )
     2.51563290E-01    2     1000023         6   # BR(~t_1 -> ~chi_20 t )
     2.23777680E-01    2     1000025         6   # BR(~t_1 -> ~chi_30 t )
     8.04287078E-02    2     1000024         5   # BR(~t_1 -> ~chi_1+ b )
     3.96208264E-01    2     1000037         5   # BR(~t_1 -> ~chi_2+ b )
     6.51202164E-03    2     1000005        37   # BR(~t_1 -> ~b_1    H+)
     1.62217354E-03    2     1000005        24   # BR(~t_1 -> ~b_1    W+)
#
#         PDG            Width
DECAY   2000006     9.08598047E+01   # stop2 decays
#          BR         NDA      ID1       ID2
     1.32095725E-01    2     1000022         6   # BR(~t_2 -> ~chi_10 t )
     2.04417918E-01    2     1000023         6   # BR(~t_2 -> ~chi_20 t )
     2.27536232E-01    2     1000025         6   # BR(~t_2 -> ~chi_30 t )
     2.66480390E-01    2     1000024         5   # BR(~t_2 -> ~chi_1+ b )
     1.21738649E-01    2     1000037         5   # BR(~t_2 -> ~chi_2+ b )
     2.00774425E-03    2     1000006        25   # BR(~t_2 -> ~t_1    h )
     3.35704146E-02    2     1000005        37   # BR(~t_2 -> ~b_1    H+)
     4.74548160E-03    2     1000006        23   # BR(~t_2 -> ~t_1    Z )
     7.40744549E-03    2     1000005        24   # BR(~t_2 -> ~b_1    W+)
#
#         PDG            Width
DECAY   1000005     2.75281778E-03   # sbottom1 decays
#          BR         NDA      ID1       ID2
     5.21629288E-01    2     1000022         5   # BR(~b_1 -> ~chi_10 b )
     4.78370712E-01    2    -1000024         6   # BR(~b_1 -> ~chi_1- t )
#
#         PDG            Width
DECAY   2000005     9.28183723E+01   # sbottom2 decays
#          BR         NDA      ID1       ID2
     1.62629626E-01    2     1000022         5   # BR(~b_2 -> ~chi_10 b )
     2.26465245E-02    2     1000023         5   # BR(~b_2 -> ~chi_20 b )
     2.29621714E-02    2     1000025         5   # BR(~b_2 -> ~chi_30 b )
     3.22485219E-01    2    -1000024         6   # BR(~b_2 -> ~chi_1- t )
     4.17457480E-01    2    -1000037         6   # BR(~b_2 -> ~chi_2- t )
     1.60305817E-04    2     1000021         5   # BR(~b_2 -> ~g      b )
     4.28231399E-03    2     1000005        25   # BR(~b_2 -> ~b_1    h )
     1.90719840E-02    2     1000005        35   # BR(~b_2 -> ~b_1    H )
     1.91041234E-02    2     1000005        36   # BR(~b_2 -> ~b_1    A )
     4.40972854E-03    2     1000005        23   # BR(~b_2 -> ~b_1    Z )
     4.79052348E-03    2     1000006       -24   # BR(~b_2 -> ~t_1    W-)
#
#         PDG            Width
DECAY   1000002     1.80641073E+01   # sup_L decays
#          BR         NDA      ID1       ID2
     3.32320808E-01    2     1000022         2   # BR(~u_L -> ~chi_10 u)
     4.43598635E-05    2     1000023         2   # BR(~u_L -> ~chi_20 u)
     2.70688946E-04    2     1000025         2   # BR(~u_L -> ~chi_30 u)
     6.67205491E-01    2     1000024         1   # BR(~u_L -> ~chi_1+ d)
     1.58651698E-04    2     1000037         1   # BR(~u_L -> ~chi_2+ d)
#
#         PDG            Width
DECAY   2000002     5.61277233E-04   # sup_R decays
#           BR         NDA      ID1       ID2
     5.76616832E-04    2     1000022         2   # BR(~u_R -> ~chi_10 u)
#           BR         NDA      ID1       ID2       ID3
     1.14105822E-02    3        2       -1        2000001   # BR(~u_R -> u  db  ~d_R)
     1.60400235E-01    3        2       1        -2000001   # BR(~u_R -> u  d  ~d_R*)
     1.14843425E-02    3        2       -3        2000003   # BR(~u_R -> u  sb  ~s_R)
     1.62466950E-01    3        2       3        -2000003   # BR(~u_R -> u  s  ~s_R*)
     3.82520414E-02    3        2       -5        1000005   # BR(~u_R -> u  bb  ~b_1)
     6.15079286E-01    3        2       5        -1000005   # BR(~u_R -> u  b  ~b_1*)
     7.77672733E-06    3        2       -15        1000015   # BR(~u_R -> u  tau+  ~tau_1-)
     7.82144676E-07    3        2       15        -1000015   # BR(~u_R -> u  tau-  ~tau_1+)
     7.95649589E-06    3        2       -16        1000016   # BR(~u_R -> u  nu_taub  ~nu_tau1)
     6.39042488E-07    3        2       16        -1000016   # BR(~u_R -> u  nu_tau  ~nu_tau1*)
     1.40183844E-05    3        2       23        1000022   # BR(~u_R -> u  Z  ~chi_10)
     9.08499347E-05    3        2       25        1000022   # BR(~u_R -> u  h  ~chi_10)
     1.53831288E-04    3        2       -24        1000024   # BR(~u_R -> u  W-  ~chi_1+)
     5.40926982E-05    3        2       24        -1000024   # BR(~u_R -> u  W+  ~chi_1-)
#
#         PDG            Width
DECAY   1000001     1.80138980E+01   # sdown_L decays
#          BR         NDA      ID1       ID2
     3.33796682E-01    2     1000022         1   # BR(~d_L -> ~chi_10 d)
     5.21096883E-05    2     1000023         1   # BR(~d_L -> ~chi_20 d)
     2.35580278E-04    2     1000025         1   # BR(~d_L -> ~chi_30 d)
     6.64884924E-01    2    -1000024         2   # BR(~d_L -> ~chi_1- u)
     1.03070392E-03    2    -1000037         2   # BR(~d_L -> ~chi_2- u)
#
#         PDG            Width
DECAY   2000001     9.85135725E-07   # sdown_R decays
#           BR         NDA      ID1       ID2
     3.38655456E-02    2     1000022         1   # BR(~d_R -> ~chi_10 d)
#           BR         NDA      ID1       ID2       ID3
     3.57463435E-02    3        1       -5        1000005   # BR(~d_R -> d  bb  ~b_1)
     9.29445534E-01    3        1       5        -1000005   # BR(~d_R -> d  b  ~b_1*)
     1.45523095E-05    3        1       23        1000022   # BR(~d_R -> d  Z  ~chi_10)
     2.66064861E-04    3        1       25        1000022   # BR(~d_R -> d  h  ~chi_10)
     4.17597281E-04    3        1       -24        1000024   # BR(~d_R -> d  W-  ~chi_1+)
     2.44362268E-04    3        1       24        -1000024   # BR(~d_R -> d  W+  ~chi_1-)
#
#         PDG            Width
DECAY   1000004     1.77055100E+01   # scharm_L decays
#          BR         NDA      ID1       ID2
     3.32323070E-01    2     1000022         4   # BR(~c_L -> ~chi_10 c)
     4.36562930E-05    2     1000023         4   # BR(~c_L -> ~chi_20 c)
     2.66367679E-04    2     1000025         4   # BR(~c_L -> ~chi_30 c)
     6.67210809E-01    2     1000024         3   # BR(~c_L -> ~chi_1+ s)
     1.56097403E-04    2     1000037         3   # BR(~c_L -> ~chi_2+ s)
#
#         PDG            Width
DECAY   2000004     5.62993915E-04   # scharm_R decays
#           BR         NDA      ID1       ID2
     5.54284764E-04    2     1000022         4   # BR(~c_R -> ~chi_10 c)
#           BR         NDA      ID1       ID2       ID3
     1.13821834E-02    3        4       -1        2000001   # BR(~c_R -> c  db  ~d_R)
     1.62356995E-01    3        4       1        -2000001   # BR(~c_R -> c  d  ~d_R*)
     1.14230364E-02    3        4       -3        2000003   # BR(~c_R -> c  sb  ~s_R)
     1.62161611E-01    3        4       3        -2000003   # BR(~c_R -> c  s  ~s_R*)
     3.83041440E-02    3        4       -5        1000005   # BR(~c_R -> c  bb  ~b_1)
     6.13487981E-01    3        4       5        -1000005   # BR(~c_R -> c  b  ~b_1*)
     7.72086498E-06    3        4       -15        1000015   # BR(~c_R -> c  tau+  ~tau_1-)
     7.83791776E-07    3        4       15        -1000015   # BR(~c_R -> c  tau-  ~tau_1+)
     7.93845170E-06    3        4       -16        1000016   # BR(~c_R -> c  nu_taub  ~nu_tau1)
     6.38941187E-07    3        4       16        -1000016   # BR(~c_R -> c  nu_tau  ~nu_tau1*)
     1.40722658E-05    3        4       23        1000022   # BR(~c_R -> c  Z  ~chi_10)
     9.07381033E-05    3        4       25        1000022   # BR(~c_R -> c  h  ~chi_10)
     1.53737008E-04    3        4       -24        1000024   # BR(~c_R -> c  W-  ~chi_1+)
     5.41355763E-05    3        4       24        -1000024   # BR(~c_R -> c  W+  ~chi_1-)
#
#         PDG            Width
DECAY   1000003     1.76569734E+01   # sstrange_L decays
#          BR         NDA      ID1       ID2
     3.33804138E-01    2     1000022         3   # BR(~s_L -> ~chi_10 s)
     5.12887417E-05    2     1000023         3   # BR(~s_L -> ~chi_20 s)
     2.31844728E-04    2     1000025         3   # BR(~s_L -> ~chi_30 s)
     6.64898529E-01    2    -1000024         4   # BR(~s_L -> ~chi_1- c)
     1.01419951E-03    2    -1000037         4   # BR(~s_L -> ~chi_2- c)
#
#         PDG            Width
DECAY   2000003     9.78924687E-07   # sstrange_R decays
#           BR         NDA      ID1       ID2
     3.22084242E-02    2     1000022         3   # BR(~s_R -> ~chi_10 s)
#           BR         NDA      ID1       ID2       ID3
     3.68322512E-02    3        3       -5        1000005   # BR(~s_R -> s  bb  ~b_1)
     9.30010258E-01    3        3       5        -1000005   # BR(~s_R -> s  b  ~b_1*)
     1.48070635E-05    3        3       23        1000022   # BR(~s_R -> s  Z  ~chi_10)
     2.68110513E-04    3        3       25        1000022   # BR(~s_R -> s  h  ~chi_10)
     4.19143582E-04    3        3       -24        1000024   # BR(~s_R -> s  W-  ~chi_1+)
     2.47005723E-04    3        3       24        -1000024   # BR(~s_R -> s  W+  ~chi_1-)
#
#         PDG            Width
DECAY   1000011     3.59033388E+01   # selectron_L decays
#          BR         NDA      ID1       ID2
     3.32243556E-01    2     1000022        11   # BR(~e_L -> ~chi_10 e-)
     1.49838286E-04    2     1000023        11   # BR(~e_L -> ~chi_20 e-)
     1.24480623E-03    2     1000025        11   # BR(~e_L -> ~chi_30 e-)
     6.62241515E-01    2    -1000024        12   # BR(~e_L -> ~chi_1- nu_e)
     4.12028496E-03    2    -1000037        12   # BR(~e_L -> ~chi_2- nu_e)
#
#         PDG            Width
DECAY   2000011     1.00236088E-02   # selectron_R decays
#           BR         NDA      ID1       ID2
     2.33129691E-04    2     1000022        11   # BR(~e_R -> ~chi_10 e-)
#           BR         NDA      ID1       ID2       ID3
     2.24070996E-03    3        11       -1        1000001   # BR(~e_R- -> e-  db  ~d_L)
     8.76590476E-04    3        11       1        -1000001   # BR(~e_R- -> e-  d  ~d_L*)
     1.60580888E-02    3        11       -1        2000001   # BR(~e_R- -> e-  db  ~d_R)
     5.90256477E-02    3        11       1        -2000001   # BR(~e_R- -> e-  d  ~d_R*)
     2.14932571E-03    3        11       -2        1000002   # BR(~e_R- -> e-  ub  ~u_L)
     8.58982048E-04    3        11       2        -1000002   # BR(~e_R- -> e-  u  ~u_L*)
     3.86786843E-02    3        11       -2        2000002   # BR(~e_R- -> e-  ub  ~u_R)
     1.16784287E-01    3        11       2        -2000002   # BR(~e_R- -> e-  u  ~u_R*)
     2.21666671E-03    3        11       -3        1000003   # BR(~e_R- -> e-  sb  ~s_L)
     8.69098164E-04    3        11       3        -1000003   # BR(~e_R- -> e-  s  ~s_L*)
     1.63464081E-02    3        11       -3        2000003   # BR(~e_R- -> e-  sb  ~s_R)
     5.94566301E-02    3        11       3        -2000003   # BR(~e_R- -> e-  s  ~s_R*)
     2.18623856E-03    3        11       -4        1000004   # BR(~e_R- -> e-  cb  ~c_L)
     8.66484335E-04    3        11       4        -1000004   # BR(~e_R- -> e-  c  ~c_L*)
     3.76660750E-02    3        11       -4        2000004   # BR(~e_R- -> e-  cb  ~c_R)
     1.17881696E-01    3        11       4        -2000004   # BR(~e_R- -> e-  c  ~c_R*)
     3.13679440E-02    3        11       -5        1000005   # BR(~e_R- -> e-  bb  ~b_1)
     8.41223973E-02    3        11       5        -1000005   # BR(~e_R- -> e-  b  ~b_1*)
     3.12542125E-02    3        11       -15        1000015   # BR(~e_R- -> e-  tau+  ~tau_1-)
     1.02378297E-02    3        11       15        -1000015   # BR(~e_R- -> e-  tau-  ~tau_1+)
     2.18504139E-08    3        11       -15        2000015   # BR(~e_R- -> e-  tau+  ~tau_2-)
     3.55620424E-08    3        11       15        -2000015   # BR(~e_R- -> e-  tau-  ~tau_2+)
     3.14138358E-02    3        11       -16        1000016   # BR(~e_R- -> e-  nu_taub  ~nu_tau1)
     9.63764669E-03    3        11       16        -1000016   # BR(~e_R- -> e-  nu_tau  ~nu_tau1*)
     1.26940310E-02    3        11       23        1000022   # BR(~e_R- -> e-  Z  ~chi_10)
     3.61087517E-02    3        11       25        1000022   # BR(~e_R- -> e-  h  ~chi_10)
     9.92297307E-03    3        11       35        1000022   # BR(~e_R- -> e-  H  ~chi_10)
     2.60704509E-03    3        11       36        1000022   # BR(~e_R- -> e-  A  ~chi_10)
     2.59118254E-02    3        11       23        1000023   # BR(~e_R- -> e-  Z  ~chi_20)
     2.99034016E-03    3        11       25        1000023   # BR(~e_R- -> e-  h  ~chi_20)
     8.40665292E-04    3        11       35        1000023   # BR(~e_R- -> e-  H  ~chi_20)
     7.04287263E-03    3        11       36        1000023   # BR(~e_R- -> e-  A  ~chi_20)
     2.98984134E-03    3        11       23        1000025   # BR(~e_R- -> e-  Z  ~chi_30)
     2.53950454E-02    3        11       25        1000025   # BR(~e_R- -> e-  h  ~chi_30)
     7.01563693E-03    3        11       35        1000025   # BR(~e_R- -> e-  H  ~chi_30)
     8.21301008E-04    3        11       36        1000025   # BR(~e_R- -> e-  A  ~chi_30)
     4.67566134E-02    3        11       -24        1000024   # BR(~e_R- -> e-  W-  ~chi_1+)
     4.69212248E-02    3        11       24        -1000024   # BR(~e_R- -> e-  W+  ~chi_1-)
     1.21852322E-02    3        11       -37        1000024   # BR(~e_R- -> e-  H-  ~chi_1+)
     1.29404492E-02    3        11       37        -1000024   # BR(~e_R- -> e-  H+  ~chi_1-)
     1.54006410E-02    3        11       -24        1000037   # BR(~e_R- -> e-  W-  ~chi_2+)
     4.37946062E-02    3        11       24        -1000037   # BR(~e_R- -> e-  W+  ~chi_2-)
     1.09970373E-02    3        11       -37        1000037   # BR(~e_R- -> e-  H-  ~chi_2+)
     4.23520121E-03    3        11       37        -1000037   # BR(~e_R- -> e-  H+  ~chi_2-)
#
#         PDG            Width
DECAY   1000013     3.59033388E+01   # smuon_L decays
#          BR         NDA      ID1       ID2
     3.32243555E-01    2     1000022        13   # BR(~mu_L -> ~chi_10 mu-)
     1.49838285E-04    2     1000023        13   # BR(~mu_L -> ~chi_20 mu-)
     1.24480623E-03    2     1000025        13   # BR(~mu_L -> ~chi_30 mu-)
     6.62241515E-01    2    -1000024        14   # BR(~mu_L -> ~chi_1- nu_mu)
     4.12028496E-03    2    -1000037        14   # BR(~mu_L -> ~chi_2- nu_mu)
#
#         PDG            Width
DECAY   2000013     1.00237536E-02   # smuon_R decays
#           BR         NDA      ID1       ID2
     2.33126323E-04    2     1000022        13   # BR(~mu_R -> ~chi_10 mu-)
#           BR         NDA      ID1       ID2       ID3
     2.24067759E-03    3        13       -1        1000001   # BR(~mu_R- -> mu-  db  ~d_L)
     8.76577815E-04    3        13       1        -1000001   # BR(~mu_R- -> mu-  d  ~d_L*)
     1.60578569E-02    3        13       -1        2000001   # BR(~mu_R- -> mu-  db  ~d_R)
     5.90247949E-02    3        13       1        -2000001   # BR(~mu_R- -> mu-  d  ~d_R*)
     2.14929466E-03    3        13       -2        1000002   # BR(~mu_R- -> mu-  ub  ~u_L)
     8.73415327E-04    3        13       2        -1000002   # BR(~mu_R- -> mu-  u  ~u_L*)
     3.86781256E-02    3        13       -2        2000002   # BR(~mu_R- -> mu-  ub  ~u_R)
     1.16782600E-01    3        13       2        -2000002   # BR(~mu_R- -> mu-  u  ~u_R*)
     2.21663470E-03    3        13       -3        1000003   # BR(~mu_R- -> mu-  sb  ~s_L)
     8.69085611E-04    3        13       3        -1000003   # BR(~mu_R- -> mu-  s  ~s_L*)
     1.63461720E-02    3        13       -3        2000003   # BR(~mu_R- -> mu-  sb  ~s_R)
     5.94557713E-02    3        13       3        -2000003   # BR(~mu_R- -> mu-  s  ~s_R*)
     2.18620698E-03    3        13       -4        1000004   # BR(~mu_R- -> mu-  cb  ~c_L)
     8.66471820E-04    3        13       4        -1000004   # BR(~mu_R- -> mu-  c  ~c_L*)
     3.76655309E-02    3        13       -4        2000004   # BR(~mu_R- -> mu-  cb  ~c_R)
     1.17879993E-01    3        13       4        -2000004   # BR(~mu_R- -> mu-  c  ~c_R*)
     3.13674910E-02    3        13       -5        1000005   # BR(~mu_R- -> mu-  bb  ~b_1)
     8.41211822E-02    3        13       5        -1000005   # BR(~mu_R- -> mu-  b  ~b_1*)
     3.12537612E-02    3        13       -15        1000015   # BR(~mu_R- -> mu-  tau+  ~tau_1-)
     1.02376818E-02    3        13       15        -1000015   # BR(~mu_R- -> mu-  tau-  ~tau_1+)
     2.18690532E-08    3        13       -15        2000015   # BR(~mu_R- -> mu-  tau+  ~tau_2-)
     3.52542585E-08    3        13       15        -2000015   # BR(~mu_R- -> mu-  tau-  ~tau_2+)
     3.14133820E-02    3        13       -16        1000016   # BR(~mu_R- -> mu-  nu_taub  ~nu_tau1)
     9.63750748E-03    3        13       16        -1000016   # BR(~mu_R- -> mu-  nu_tau  ~nu_tau1*)
     1.26938476E-02    3        13       23        1000022   # BR(~mu_R- -> mu-  Z  ~chi_10)
     3.61082301E-02    3        13       25        1000022   # BR(~mu_R- -> mu-  h  ~chi_10)
     9.92282974E-03    3        13       35        1000022   # BR(~mu_R- -> mu-  H  ~chi_10)
     2.60700743E-03    3        13       36        1000022   # BR(~mu_R- -> mu-  A  ~chi_10)
     2.59124487E-02    3        13       23        1000023   # BR(~mu_R- -> mu-  Z  ~chi_20)
     2.99029698E-03    3        13       25        1000023   # BR(~mu_R- -> mu-  h  ~chi_20)
     8.40653149E-04    3        13       35        1000023   # BR(~mu_R- -> mu-  H  ~chi_20)
     7.04277090E-03    3        13       36        1000023   # BR(~mu_R- -> mu-  A  ~chi_20)
     2.98979816E-03    3        13       23        1000025   # BR(~mu_R- -> mu-  Z  ~chi_30)
     2.53946786E-02    3        13       25        1000025   # BR(~mu_R- -> mu-  h  ~chi_30)
     7.01553560E-03    3        13       35        1000025   # BR(~mu_R- -> mu-  H  ~chi_30)
     8.21289145E-04    3        13       36        1000025   # BR(~mu_R- -> mu-  A  ~chi_30)
     4.67559380E-02    3        13       -24        1000024   # BR(~mu_R- -> mu-  W-  ~chi_1+)
     4.69205469E-02    3        13       24        -1000024   # BR(~mu_R- -> mu-  W+  ~chi_1-)
     1.21850561E-02    3        13       -37        1000024   # BR(~mu_R- -> mu-  H-  ~chi_1+)
     1.29392645E-02    3        13       37        -1000024   # BR(~mu_R- -> mu-  H+  ~chi_1-)
     1.54004185E-02    3        13       -24        1000037   # BR(~mu_R- -> mu-  W-  ~chi_2+)
     4.37939737E-02    3        13       24        -1000037   # BR(~mu_R- -> mu-  W+  ~chi_2-)
     1.09968785E-02    3        13       -37        1000037   # BR(~mu_R- -> mu-  H-  ~chi_2+)
     4.23514003E-03    3        13       37        -1000037   # BR(~mu_R- -> mu-  H+  ~chi_2-)
#
#         PDG            Width
DECAY   1000015     7.82661089E+00   # stau_1 decays
#          BR         NDA      ID1       ID2
     3.34380628E-01    2     1000022        15   # BR(~tau_1 -> ~chi_10  tau-)
     6.65619372E-01    2    -1000024        16   # BR(~tau_1 -> ~chi_1-  nu_tau)
#
#         PDG            Width
DECAY   2000015     6.76079161E+00   # stau_2 decays
#          BR         NDA      ID1       ID2
     1.24558187E-03    2     1000022        15   # BR(~tau_2 -> ~chi_10  tau-)
     1.39925460E-01    2     1000023        15   # BR(~tau_2 -> ~chi_20  tau-)
     1.39440077E-01    2     1000025        15   # BR(~tau_2 -> ~chi_30  tau-)
     2.48096017E-03    2    -1000024        16   # BR(~tau_2 -> ~chi_1-  nu_tau)
     2.77650921E-01    2    -1000037        16   # BR(~tau_2 -> ~chi_2-  nu_tau)
     1.52363516E-01    2     1000016       -37   # BR(~tau_2 -> ~nu_tauL H-)
     6.64377855E-02    2     1000016       -24   # BR(~tau_2 -> ~nu_tauL W-)
     3.38210853E-02    2     1000015        25   # BR(~tau_2 -> ~tau_1   h)
     7.63432013E-02    2     1000015        35   # BR(~tau_2 -> ~tau_1   H)
     7.61890324E-02    2     1000015        36   # BR(~tau_2 -> ~tau_1   A)
     3.41023795E-02    2     1000015        23   # BR(~tau_2 -> ~tau_1   Z)
#
#         PDG            Width
DECAY   1000012     3.59405688E+01   # snu_eL decays
#          BR         NDA      ID1       ID2
     3.32036837E-01    2     1000022        12   # BR(~nu_eL -> ~chi_10 nu_e)
     2.35340953E-04    2     1000023        12   # BR(~nu_eL -> ~chi_20 nu_e)
     7.92254774E-04    2     1000025        12   # BR(~nu_eL -> ~chi_30 nu_e)
     6.66295815E-01    2     1000024        11   # BR(~nu_eL -> ~chi_1+ e-)
     6.39752359E-04    2     1000037        11   # BR(~nu_eL -> ~chi_2+ e-)
#
#         PDG            Width
DECAY   1000014     3.59405687E+01   # snu_muL decays
#          BR         NDA      ID1       ID2
     3.32036837E-01    2     1000022        14   # BR(~nu_muL -> ~chi_10 nu_mu)
     2.35340953E-04    2     1000023        14   # BR(~nu_muL -> ~chi_20 nu_mu)
     7.92254775E-04    2     1000025        14   # BR(~nu_muL -> ~chi_30 nu_mu)
     6.66295815E-01    2     1000024        13   # BR(~nu_muL -> ~chi_1+ mu-)
     6.39752358E-04    2     1000037        13   # BR(~nu_muL -> ~chi_2+ mu-)
#
#         PDG            Width
DECAY   1000016     7.81808366E+00   # snu_tauL decays
#          BR         NDA      ID1       ID2
     3.32454453E-01    2     1000022        16   # BR(~nu_tauL -> ~chi_10 nu_tau)
     6.67545547E-01    2     1000024        15   # BR(~nu_tauL -> ~chi_1+ tau-)
#
#         PDG            Width
DECAY   1000024     4.21421310E-15   # chargino1+ decays
#           BR         NDA      ID1       ID2       ID3
     1.93398660E-02    3     1000022       -11        12   # BR(~chi_1+ -> ~chi_10 e+   nu_e)
     2.54047460E-03    3     1000022       -13        14   # BR(~chi_1+ -> ~chi_10 mu+  nu_mu)
     9.78119660E-01    2     1000022       211             # BR(~chi_1+ -> ~chi_10 pi+)
#
#         PDG            Width
DECAY   1000037     1.20714268E+01   # chargino2+ decays
#          BR         NDA      ID1       ID2
     1.28674791E-01    2    -1000005         6   # BR(~chi_2+ -> ~b_1*    t )
     9.39499176E-03    2     1000016       -15   # BR(~chi_2+ -> ~nu_tau1 tau+)
     6.37802242E-04    2    -1000015        16   # BR(~chi_2+ -> ~tau_1+  nu_tau)
     2.25461411E-01    2     1000024        23   # BR(~chi_2+ -> ~chi_1+  Z )
     2.19735496E-01    2     1000022        24   # BR(~chi_2+ -> ~chi_10  W+)
     2.30166017E-01    2     1000024        25   # BR(~chi_2+ -> ~chi_1+  h )
     6.16757099E-02    2     1000024        35   # BR(~chi_2+ -> ~chi_1+  H )
     6.26805289E-02    2     1000024        36   # BR(~chi_2+ -> ~chi_1+  A )
     6.15732524E-02    2     1000022        37   # BR(~chi_2+ -> ~chi_10  H+)
#
#         PDG            Width
DECAY   1000022     0.00000000E+00   # neutralino1 decays
#
#         PDG            Width
DECAY   1000023     1.18421084E+01   # neutralino2 decays
#          BR         NDA      ID1       ID2
     1.92401645E-01    2     1000022        23   # BR(~chi_20 -> ~chi_10   Z )
     2.23251361E-01    2     1000024       -24   # BR(~chi_20 -> ~chi_1+   W-)
     2.23251361E-01    2    -1000024        24   # BR(~chi_20 -> ~chi_1-   W+)
     3.63406083E-02    2     1000022        25   # BR(~chi_20 -> ~chi_10   h )
     4.04483542E-03    2     1000022        35   # BR(~chi_20 -> ~chi_10   H )
     5.79009111E-02    2     1000022        36   # BR(~chi_20 -> ~chi_10   A )
     6.06457279E-02    2     1000024       -37   # BR(~chi_20 -> ~chi_1+   H-)
     6.06457279E-02    2    -1000024        37   # BR(~chi_20 -> ~chi_1-   H+)
     4.46802892E-07    2     2000002        -2   # BR(~chi_20 -> ~u_R      ub)
     4.46802892E-07    2    -2000002         2   # BR(~chi_20 -> ~u_R*     u )
     1.33545082E-06    2     2000001        -1   # BR(~chi_20 -> ~d_R      db)
     1.33545082E-06    2    -2000001         1   # BR(~chi_20 -> ~d_R*     d )
     4.46772737E-07    2     2000004        -4   # BR(~chi_20 -> ~c_R      cb)
     4.46772737E-07    2    -2000004         4   # BR(~chi_20 -> ~c_R*     c )
     1.33545082E-06    2     2000003        -3   # BR(~chi_20 -> ~s _R      sb)
     1.33545082E-06    2    -2000003         3   # BR(~chi_20 -> ~s _R*     s )
     6.60993666E-02    2     1000005        -5   # BR(~chi_20 -> ~b_1      bb)
     6.60993666E-02    2    -1000005         5   # BR(~chi_20 -> ~b_1*     b )
     4.61715851E-03    2     1000015       -15   # BR(~chi_20 -> ~tau_1-   tau+)
     4.61715851E-03    2    -1000015        15   # BR(~chi_20 -> ~tau_1+   tau-)
     3.88208818E-05    2     1000016       -16   # BR(~chi_20 -> ~nu_tau1  nu_taub)
     3.88208818E-05    2    -1000016        16   # BR(~chi_20 -> ~nu_tau1* nu_tau )
#
#         PDG            Width
DECAY   1000025     1.19799792E+01   # neutralino3 decays
#          BR         NDA      ID1       ID2
     3.66837515E-02    2     1000022        23   # BR(~chi_30 -> ~chi_10   Z )
     2.21948584E-01    2     1000024       -24   # BR(~chi_30 -> ~chi_1+   W-)
     2.21948584E-01    2    -1000024        24   # BR(~chi_30 -> ~chi_1-   W+)
     1.96630117E-01    2     1000022        25   # BR(~chi_30 -> ~chi_10   h )
     5.69106005E-02    2     1000022        35   # BR(~chi_30 -> ~chi_10   H )
     4.04680369E-03    2     1000022        36   # BR(~chi_30 -> ~chi_10   A )
     6.08137573E-02    2     1000024       -37   # BR(~chi_30 -> ~chi_1+   H-)
     6.08137573E-02    2    -1000024        37   # BR(~chi_30 -> ~chi_1-   H+)
     2.35683649E-06    2     2000002        -2   # BR(~chi_30 -> ~u_R      ub)
     2.35683649E-06    2    -2000002         2   # BR(~chi_30 -> ~u_R*     u )
     6.91219298E-06    2     2000001        -1   # BR(~chi_30 -> ~d_R      db)
     6.91219298E-06    2    -2000001         1   # BR(~chi_30 -> ~d_R*     d )
     2.35668160E-06    2     2000004        -4   # BR(~chi_30 -> ~c_R      cb)
     2.35668160E-06    2    -2000004         4   # BR(~chi_30 -> ~c_R*     c )
     6.91219298E-06    2     2000003        -3   # BR(~chi_30 -> ~s _R      sb)
     6.91219298E-06    2    -2000003         3   # BR(~chi_30 -> ~s _R*     s )
     6.52151665E-02    2     1000005        -5   # BR(~chi_30 -> ~b_1      bb)
     6.52151665E-02    2    -1000005         5   # BR(~chi_30 -> ~b_1*     b )
     4.73790205E-03    2     1000015       -15   # BR(~chi_30 -> ~tau_1-   tau+)
     4.73790205E-03    2    -1000015        15   # BR(~chi_30 -> ~tau_1+   tau-)
     1.30416266E-04    2     1000016       -16   # BR(~chi_30 -> ~nu_tau1  nu_taub)
     1.30416266E-04    2    -1000016        16   # BR(~chi_30 -> ~nu_tau1* nu_tau )
#
#         PDG            Width
DECAY   1000035     1.05596744E+02   # neutralino4 decays
#          BR         NDA      ID1       ID2
     1.62880759E-09    2     1000022        23   # BR(~chi_40 -> ~chi_10   Z )
     2.04297334E-02    2     1000023        23   # BR(~chi_40 -> ~chi_20   Z )
     3.93028247E-03    2     1000025        23   # BR(~chi_40 -> ~chi_30   Z )
     1.12342685E-06    2     1000024       -24   # BR(~chi_40 -> ~chi_1+   W-)
     1.12342685E-06    2    -1000024        24   # BR(~chi_40 -> ~chi_1-   W+)
     2.36428114E-02    2     1000037       -24   # BR(~chi_40 -> ~chi_2+   W-)
     2.36428114E-02    2    -1000037        24   # BR(~chi_40 -> ~chi_2-   W+)
     1.17007773E-06    2     1000022        25   # BR(~chi_40 -> ~chi_10   h )
     9.46322743E-05    2     1000022        35   # BR(~chi_40 -> ~chi_10   H )
     5.67311208E-05    2     1000022        36   # BR(~chi_40 -> ~chi_10   A )
     4.09689941E-03    2     1000023        25   # BR(~chi_40 -> ~chi_20   h )
     4.26660257E-03    2     1000023        35   # BR(~chi_40 -> ~chi_20   H )
     1.62886020E-02    2     1000023        36   # BR(~chi_40 -> ~chi_20   A )
     2.13560905E-02    2     1000025        25   # BR(~chi_40 -> ~chi_30   h )
     1.61607747E-02    2     1000025        35   # BR(~chi_40 -> ~chi_30   H )
     4.23021288E-03    2     1000025        36   # BR(~chi_40 -> ~chi_30   A )
     1.50313811E-04    2     1000024       -37   # BR(~chi_40 -> ~chi_1+   H-)
     1.50313811E-04    2    -1000024        37   # BR(~chi_40 -> ~chi_1-   H+)
     2.03553990E-02    2     1000037       -37   # BR(~chi_40 -> ~chi_2+   H-)
     2.03553990E-02    2    -1000037        37   # BR(~chi_40 -> ~chi_2-   H+)
     5.05717795E-03    2     1000002        -2   # BR(~chi_40 -> ~u_L      ub)
     5.05717795E-03    2    -1000002         2   # BR(~chi_40 -> ~u_L*     u )
     1.01469316E-01    2     2000002        -2   # BR(~chi_40 -> ~u_R      ub)
     1.01469316E-01    2    -2000002         2   # BR(~chi_40 -> ~u_R*     u )
     5.08477896E-03    2     1000001        -1   # BR(~chi_40 -> ~d_L      db)
     5.08477896E-03    2    -1000001         1   # BR(~chi_40 -> ~d_L*     d )
     2.84868972E-02    2     2000001        -1   # BR(~chi_40 -> ~d_R      db)
     2.84868972E-02    2    -2000001         1   # BR(~chi_40 -> ~d_R*     d )
     5.05717741E-03    2     1000004        -4   # BR(~chi_40 -> ~c_L      cb)
     5.05717741E-03    2    -1000004         4   # BR(~chi_40 -> ~c_L*     c )
     1.01469312E-01    2     2000004        -4   # BR(~chi_40 -> ~c_R      cb)
     1.01469312E-01    2    -2000004         4   # BR(~chi_40 -> ~c_R*     c )
     5.08477896E-03    2     1000003        -3   # BR(~chi_40 -> ~s _L      sb)
     5.08477896E-03    2    -1000003         3   # BR(~chi_40 -> ~s _L*     s )
     2.84868972E-02    2     2000003        -3   # BR(~chi_40 -> ~s _R      sb)
     2.84868972E-02    2    -2000003         3   # BR(~chi_40 -> ~s _R*     s )
     3.04854165E-02    2     1000005        -5   # BR(~chi_40 -> ~b_1      bb)
     3.04854165E-02    2    -1000005         5   # BR(~chi_40 -> ~b_1*     b )
     2.74238183E-06    2     2000005        -5   # BR(~chi_40 -> ~b_2      bb)
     2.74238183E-06    2    -2000005         5   # BR(~chi_40 -> ~b_2*     b )
     3.20978495E-03    2     1000011       -11   # BR(~chi_40 -> ~e_L-     e+)
     3.20978495E-03    2    -1000011        11   # BR(~chi_40 -> ~e_L+     e-)
     1.42216816E-02    2     2000011       -11   # BR(~chi_40 -> ~e_R-     e+)
     1.42216816E-02    2    -2000011        11   # BR(~chi_40 -> ~e_R+     e-)
     3.20978495E-03    2     1000013       -13   # BR(~chi_40 -> ~mu_L-    mu+)
     3.20978495E-03    2    -1000013        13   # BR(~chi_40 -> ~mu_L+    mu-)
     1.42216816E-02    2     2000013       -13   # BR(~chi_40 -> ~mu_R-    mu+)
     1.42216816E-02    2    -2000013        13   # BR(~chi_40 -> ~mu_R+    mu-)
     2.09473924E-02    2     1000015       -15   # BR(~chi_40 -> ~tau_1-   tau+)
     2.09473924E-02    2    -1000015        15   # BR(~chi_40 -> ~tau_1+   tau-)
     1.64355708E-02    2     2000015       -15   # BR(~chi_40 -> ~tau_2-   tau+)
     1.64355708E-02    2    -2000015        15   # BR(~chi_40 -> ~tau_2+   tau-)
     3.22650862E-03    2     1000012       -12   # BR(~chi_40 -> ~nu_eL    nu_eb)
     3.22650862E-03    2    -1000012        12   # BR(~chi_40 -> ~nu_eL*   nu_e )
     3.22650862E-03    2     1000014       -14   # BR(~chi_40 -> ~nu_muL   nu_mub)
     3.22650862E-03    2    -1000014        14   # BR(~chi_40 -> ~nu_muL*  nu_mu )
     2.10110785E-02    2     1000016       -16   # BR(~chi_40 -> ~nu_tau1  nu_taub)
     2.10110785E-02    2    -1000016        16   # BR(~chi_40 -> ~nu_tau1* nu_tau )
#
#         PDG            Width
DECAY        25     4.47809501E-03   # h decays
#          BR         NDA      ID1       ID2
     6.46713291E-01    2           5        -5   # BR(h -> b       bb     )
     6.18097834E-02    2         -15        15   # BR(h -> tau+    tau-   )
     2.19000516E-04    2         -13        13   # BR(h -> mu+     mu-    )
     2.36212123E-04    2           3        -3   # BR(h -> s       sb     )
     1.92918212E-02    2           4        -4   # BR(h -> c       cb     )
     7.00689591E-02    2          21        21   # BR(h -> g       g      )
     2.06503316E-03    2          22        22   # BR(h -> gam     gam    )
     1.32262395E-03    2          22        23   # BR(h -> Z       gam    )
     1.76502713E-01    2          24       -24   # BR(h -> W+      W-     )
     2.17705620E-02    2          23        23   # BR(h -> Z       Z      )
#
#         PDG            Width
DECAY        35     5.33245996E+00   # H decays
#          BR         NDA      ID1       ID2
     8.52740453E-01    2           5        -5   # BR(H -> b       bb     )
     1.32799817E-01    2         -15        15   # BR(H -> tau+    tau-   )
     4.82576307E-04    2         -13        13   # BR(H -> mu+     mu-    )
     2.56821437E-04    2           3        -3   # BR(H -> s       sb     )
     1.66669184E-07    2           4        -4   # BR(H -> c       cb     )
     1.31391110E-02    2           6        -6   # BR(H -> t       tb     )
     1.47144681E-04    2          21        21   # BR(H -> g       g      )
     1.32548866E-07    2          22        22   # BR(H -> gam     gam    )
     6.20235057E-08    2          23        22   # BR(H -> Z       gam    )
     7.72247588E-05    2          24       -24   # BR(H -> W+      W-     )
     3.78323585E-05    2          23        23   # BR(H -> Z       Z      )
     3.18659024E-04    2          25        25   # BR(H -> h       h      )
#
#         PDG            Width
DECAY        36     5.33999687E+00   # A decays
#          BR         NDA      ID1       ID2
     8.51703781E-01    2           5        -5   # BR(A -> b       bb     )
     1.32623236E-01    2         -15        15   # BR(A -> tau+    tau-   )
     4.81923247E-04    2         -13        13   # BR(A -> mu+     mu-    )
     2.56526566E-04    2           3        -3   # BR(A -> s       sb     )
     1.56019882E-07    2           4        -4   # BR(A -> c       cb     )
     1.45917556E-02    2           6        -6   # BR(A -> t       tb     )
     2.68409590E-04    2          21        21   # BR(A -> g       g      )
     1.63576257E-07    2          22        22   # BR(A -> gam     gam    )
     1.05170788E-07    2          23        22   # BR(A -> Z       gam    )
     7.39441019E-05    2          23        25   # BR(A -> Z       h      )
#
#         PDG            Width
DECAY        37     4.54411556E+00   # H+ decays
#          BR         NDA      ID1       ID2
     1.43897930E-03    2           4        -5   # BR(H+ -> c       bb     )
     1.56730076E-01    2         -15        16   # BR(H+ -> tau+    nu_tau )
     5.69522059E-04    2         -13        14   # BR(H+ -> mu+     nu_mu  )
     1.43895661E-05    2           2        -5   # BR(H+ -> u       bb     )
     1.50736162E-05    2           2        -3   # BR(H+ -> u       sb     )
     2.96869450E-04    2           4        -3   # BR(H+ -> c       sb     )
     8.40845673E-01    2           6        -5   # BR(H+ -> t       bb     )
     8.94161630E-05    2          24        25   # BR(H+ -> W+      h      )
     4.34676248E-10    2          24        36   # BR(H+ -> W+      A      )
