#
#                              ======================
#                              | THE SUSYHIT OUTPUT |
#                              ======================
#
#
#              ------------------------------------------------------
#              |     This is the output of the SUSY-HIT package     |
#              |  created by A.Djouadi, M.Muehlleitner and M.Spira. |
#              |  In case of problems with SUSY-HIT email to        |
#              |           margarete.muehlleitner@cern.ch           |
#              |           michael.spira@psi.ch                     |
#              |           abdelhak.djouadi@cern.ch                 |
#              ------------------------------------------------------
#
#              ------------------------------------------------------
#              |  SUSY Les Houches Accord - MSSM Spectrum + Decays  |
#              |              based on the decay programs           |
#              |                                                    |
#              |                     SDECAY 1.3b                    |
#              |                                                    |
#              |  Authors: M.Muhlleitner, A.Djouadi and Y.Mambrini  |
#              |  Ref.:    Comput.Phys.Commun.168(2005)46           |
#              |           [hep-ph/0311167]                         |
#              |                                                    |
#              |                     HDECAY 3.4                     |
#              |                                                    |
#              |  By: A.Djouadi,J.Kalinowski,M.Muhlleitner,M.Spira  |
#              |  Ref.:    Comput.Phys.Commun.108(1998)56           |
#              |           [hep-ph/9704448]                         |
#              |                                                    |
#              |                                                    |
#              |  If not stated otherwise all DRbar couplings and   |
#              |  soft SUSY breaking masses are given at the scale  |
#              |  Q=  0.24962360E+04
#              |                                                    |
#              ------------------------------------------------------
#
#
BLOCK DCINFO  # Decay Program information
     1   SDECAY/HDECAY # decay calculator
     2   1.3b  /3.4    # version number
#
BLOCK SPINFO  # Spectrum calculator information
     1     SOFTSUSY    # spectrum calculator               
     2     3.4.0       # version number                    
#
BLOCK MODSEL  # Model selection
     1     0   #  nonUniversal                                     
#
BLOCK SMINPUTS  # Standard Model inputs
         1     1.27908970E+02   # alpha_em^-1(M_Z)^MSbar
         2     1.16637870E-05   # G_F [GeV^-2]
         3     1.18400000E-01   # alpha_S(M_Z)^MSbar
         4     9.11876000E+01   # M_Z pole mass
         5     4.18000000E+00   # mb(mb)^MSbar
         6     1.73200000E+02   # mt pole mass
         7     1.77700000E+00   # mtau pole mass
#
BLOCK MINPAR  # Input parameters - minimal models
         3     1.62500000E+01   # tanb                
#
BLOCK EXTPAR  # Input parameters - non-minimal models
         0    -1.00000000E+00   # Set                 
         1     3.59265000E+03   # M_1(MX)             
         2    -1.14090000E+02   # M_2(MX)             
         3     2.77110000E+03   # M_3(MX)             
        11    -3.82739000E+03   # At(MX)              
        12    -3.24228000E+03   # Ab(MX)              
        13     5.80070000E+02   # Atau(MX)            
        23     2.16307000E+03   # mu(MX)              
        26     3.26123000E+03   # mA(pole)            
        31     2.88070000E+02   # meL(MX)             
        32     2.88070000E+02   # mmuL(MX)            
        33     3.88268000E+03   # mtauL(MX)           
        34     3.62390000E+02   # meR(MX)             
        35     3.62390000E+02   # mmuR(MX)            
        36     3.59050000E+02   # mtauR(MX)           
        41     2.36753000E+03   # mqL1(MX)            
        42     2.36753000E+03   # mqL2(MX)            
        43     3.16670000E+03   # mqL3(MX)            
        44     2.52533000E+03   # muR(MX)             
        45     2.52533000E+03   # mcR(MX)             
        46     1.96923000E+03   # mtR(MX)             
        47     6.45760000E+02   # mdR(MX)             
        48     6.45760000E+02   # msR(MX)             
        49     1.96386000E+03   # mbR(MX)             
#
BLOCK MASS  # Mass Spectrum
# PDG code           mass       particle
        24     8.03741773E+01   # W+
        25     1.26885212E+02   # h
        35     3.26119748E+03   # H
        36     3.26123013E+03   # A
        37     3.26245010E+03   # H+
         5     4.81876030E+00   # b-quark pole mass calculated from mb(mb)_Msbar
   1000001     2.46727143E+03   # ~d_L
   2000001     8.21897637E+02   # ~d_R
   1000002     2.46611685E+03   # ~u_L
   2000002     2.61864910E+03   # ~u_R
   1000003     2.46727143E+03   # ~s_L
   2000003     8.21897637E+02   # ~s_R
   1000004     2.46611685E+03   # ~c_L
   2000004     2.61864910E+03   # ~c_R
   1000005     2.06827833E+03   # ~b_1
   2000005     3.21378418E+03   # ~b_2
   1000006     2.05028320E+03   # ~t_1
   2000006     3.22445114E+03   # ~t_2
   1000011     2.86532525E+02   # ~e_L
   2000011     3.99411582E+02   # ~e_R
   1000012     2.75291194E+02   # ~nu_eL
   1000013     2.86532525E+02   # ~mu_L
   2000013     3.99411582E+02   # ~mu_R
   1000014     2.75291194E+02   # ~nu_muL
   1000015     3.98157662E+02   # ~tau_1
   2000015     3.89024395E+03   # ~tau_2
   1000016     3.88907186E+03   # ~nu_tauL
   1000021     2.85500758E+03   # ~g
   1000022    -1.25252258E+02   # ~chi_10
   1000023     2.19725872E+03   # ~chi_20
   1000025    -2.19868125E+03   # ~chi_30
   1000035     3.54767239E+03   # ~chi_40
   1000024     1.25407990E+02   # ~chi_1+
   1000037     2.20013239E+03   # ~chi_2+
#
BLOCK NMIX  # Neutralino Mixing Matrix
  1  1    -6.78680900E-05   # N_11
  1  2     9.99381019E-01   # N_12
  1  3    -3.51757348E-02   # N_13
  1  4     4.92253606E-04   # N_14
  2  1    -2.51787818E-02   # N_21
  2  2    -2.52201398E-02   # N_22
  2  3    -7.06593161E-01   # N_23
  2  4     7.06722066E-01   # N_24
  3  1    -5.15102995E-03   # N_31
  3  2     2.45220165E-02   # N_32
  3  3     7.06603361E-01   # N_33
  3  4     7.07166054E-01   # N_34
  4  1     9.99669691E-01   # N_41
  4  2    -4.41018347E-04   # N_42
  4  3    -1.41584840E-02   # N_43
  4  4     2.14441508E-02   # N_44
#
BLOCK UMIX  # Chargino Mixing Matrix U
  1  1     9.98763080E-01   # U_11
  1  2    -4.97223268E-02   # U_12
  2  1     4.97223268E-02   # U_21
  2  2     9.98763080E-01   # U_22
#
BLOCK VMIX  # Chargino Mixing Matrix V
  1  1    -9.99999754E-01   # V_11
  1  2     7.01988913E-04   # V_12
  2  1     7.01988913E-04   # V_21
  2  2     9.99999754E-01   # V_22
#
BLOCK STOPMIX  # Stop Mixing Matrix
  1  1     9.21065580E-02   # cos(theta_t)
  1  2     9.95749156E-01   # sin(theta_t)
  2  1    -9.95749156E-01   # -sin(theta_t)
  2  2     9.21065580E-02   # cos(theta_t)
#
BLOCK SBOTMIX  # Sbottom Mixing Matrix
  1  1     1.30810452E-02   # cos(theta_b)
  1  2     9.99914439E-01   # sin(theta_b)
  2  1    -9.99914439E-01   # -sin(theta_b)
  2  2     1.30810452E-02   # cos(theta_b)
#
BLOCK STAUMIX  # Stau Mixing Matrix
  1  1     3.97993626E-03   # cos(theta_tau)
  1  2     9.99992080E-01   # sin(theta_tau)
  2  1    -9.99992080E-01   # -sin(theta_tau)
  2  2     3.97993626E-03   # cos(theta_tau)
#
BLOCK ALPHA  # Higgs mixing
          -6.42470130E-02   # Mixing angle in the neutral Higgs boson sector
#
BLOCK HMIX Q=  2.49623600E+03  # DRbar Higgs Parameters
         1     2.19035534E+03   # mu(Q)MSSM           
         2     1.55702576E+01   # tan                 
         3     2.42932123E+02   # higgs               
         4     1.07212930E+07   # mA^2(Q)MSSM         
#
BLOCK GAUGE Q=  2.49623600E+03  # The gauge couplings
     1     3.64780741E-01   # gprime(Q) DRbar
     2     6.42950659E-01   # g(Q) DRbar
     3     1.01748534E+00   # g3(Q) DRbar
#
BLOCK AU Q=  2.49623600E+03  # The trilinear couplings
  1  1     0.00000000E+00   # A_u(Q) DRbar
  2  2     0.00000000E+00   # A_c(Q) DRbar
  3  3    -3.82738999E+03   # A_t(Q) DRbar
#
BLOCK AD Q=  2.49623600E+03  # The trilinear couplings
  1  1     0.00000000E+00   # A_d(Q) DRbar
  2  2     0.00000000E+00   # A_s(Q) DRbar
  3  3    -3.24228000E+03   # A_b(Q) DRbar
#
BLOCK AE Q=  2.49623600E+03  # The trilinear couplings
  1  1     0.00000000E+00   # A_e(Q) DRbar
  2  2     0.00000000E+00   # A_mu(Q) DRbar
  3  3     5.80070000E+02   # A_tau(Q) DRbar
#
BLOCK Yu Q=  2.49623600E+03  # The Yukawa couplings
  1  1     0.00000000E+00   # y_u(Q) DRbar
  2  2     0.00000000E+00   # y_c(Q) DRbar
  3  3     8.18700548E-01   # y_t(Q) DRbar
#
BLOCK Yd Q=  2.49623600E+03  # The Yukawa couplings
  1  1     0.00000000E+00   # y_d(Q) DRbar
  2  2     0.00000000E+00   # y_s(Q) DRbar
  3  3     1.94480002E-01   # y_b(Q) DRbar
#
BLOCK Ye Q=  2.49623600E+03  # The Yukawa couplings
  1  1     0.00000000E+00   # y_e(Q) DRbar
  2  2     0.00000000E+00   # y_mu(Q) DRbar
  3  3     1.59503063E-01   # y_tau(Q) DRbar
#
BLOCK MSOFT Q=  2.49623600E+03  # The soft SUSY breaking masses at the scale Q
         1     3.59265000E+03   # M_1(Q)              
         2    -1.14090000E+02   # M_2(Q)              
         3     2.77110000E+03   # M_3(Q)              
        21     5.75618355E+06   # mH1^2(Q)            
        22    -4.68529937E+06   # mH2^2(Q)            
        31     2.88069999E+02   # meL(Q)              
        32     2.88069999E+02   # mmuL(Q)             
        33     3.88268000E+03   # mtauL(Q)            
        34     3.62390000E+02   # meR(Q)              
        35     3.62390000E+02   # mmuR(Q)             
        36     3.59050001E+02   # mtauR(Q)            
        41     2.36752999E+03   # mqL1(Q)             
        42     2.36752999E+03   # mqL2(Q)             
        43     3.16669999E+03   # mqL3(Q)             
        44     2.52532999E+03   # muR(Q)              
        45     2.52532999E+03   # mcR(Q)              
        46     1.96922997E+03   # mtR(Q)              
        47     6.45759973E+02   # mdR(Q)              
        48     6.45759973E+02   # msR(Q)              
        49     1.96385999E+03   # mbR(Q)              
#
Block HiggsBoundsInputHiggsCouplingsFermions
# ScalarNormEffCoupSq PseudoSNormEffCoupSq NP   IP1 IP2 IP2
    1.00343113E+00    0.00000000E+00        3  25   5   5  # h0-b-b eff. coupling^2, normalised to SM
    2.42429491E+02    0.00000000E+00        3  35   5   5  # H0-b-b eff. coupling^2, normalised to SM
    0.00000000E+00    2.42432922E+02        3  36   5   5  # A0-b-b eff. coupling^2, normalised to SM
#
    9.99985847E-01    0.00000000E+00        3  25   6   6  # h0-t-t eff. coupling^2, normalised to SM
    4.13900521E-03    0.00000000E+00        3  35   6   6  # H0-t-t eff. coupling^2, normalised to SM
    0.00000000E+00    4.12485232E-03        3  36   6   6  # A0-t-t eff. coupling^2, normalised to SM
#
    1.00343113E+00    0.00000000E+00        3  25  15  15  # h0-tau-tau eff. coupling^2, normalised to SM
    2.42429491E+02    0.00000000E+00        3  35  15  15  # H0-tau-tau eff. coupling^2, normalised to SM
    0.00000000E+00    2.42432922E+02        3  36  15  15  # A0-tau-tau eff. coupling^2, normalised to SM
#
Block HiggsBoundsInputHiggsCouplingsBosons
    9.99999988E-01        3  25  24  24  # h0-W-W eff. coupling^2, normalised to SM
    1.21193933E-08        3  35  24  24  # H0-W-W eff. coupling^2, normalised to SM
    0.00000000E+00        3  36  24  24  # A0-W-W eff. coupling^2, normalised to SM
#
    9.99999988E-01        3  25  23  23  # h0-Z-Z eff. coupling^2, normalised to SM
    1.21193933E-08        3  35  23  23  # H0-Z-Z eff. coupling^2, normalised to SM
    0.00000000E+00        3  36  23  23  # A0-Z-Z eff. coupling^2, normalised to SM
#
    8.88118579E-01        3  25  21  21  # h0-g-g eff. coupling^2, normalised to SM
    1.15469530E-14        3  35  21  21  # H0-g-g eff. coupling^2, normalised to SM
    6.21743948E-13        3  36  21  21  # A0-g-g eff. coupling^2, normalised to SM
#
    0.00000000E+00        3  25  25  23  # h0-h0-Z eff. coupling^2, normalised to SM
    0.00000000E+00        3  35  25  23  # H0-h0-Z eff. coupling^2, normalised to SM
    1.21193933E-08        3  36  25  23  # A0-h0-Z eff. coupling^2, normalised to SM
    0.00000000E+00        3  35  35  23  # H0-H0-Z eff. coupling^2, normalised to SM
    9.99999988E-01        3  36  35  23  # A0-H0-Z eff. coupling^2, normalised to SM
    0.00000000E+00        3  36  36  23  # A0-A0-Z eff. coupling^2, normalised to SM
#
    0.00000000E+00        4  25  21  21  23  # h0-g-g-Z eff. coupling^2, normalised to SM
    0.00000000E+00        4  35  21  21  23  # H0-g-g-Z eff. coupling^2, normalised to SM
    0.00000000E+00        4  36  21  21  23  # A0-g-g-Z eff. coupling^2, normalised to SM
#
#
#
#                             =================
#                             |The decay table|
#                             =================
#
# - The QCD corrections to the decays gluino -> squark  + quark
#                                     squark -> gaugino + quark_prime
#                                     squark -> squark_prime + Higgs
#                                     squark -> gluino  + quark
#   are included.
#
# - The multi-body decays for the inos, stops and sbottoms are included.
#
# - The loop induced decays for the gluino, neutralinos and stops
#   are included.
#
# - The SUSY decays of the top quark are included.
#
#
#         PDG            Width
DECAY         6     1.45659374E+00   # top decays
#          BR         NDA      ID1       ID2
     1.00000000E+00    2           5        24   # BR(t ->  b    W+)
#
#         PDG            Width
DECAY   1000021     1.35481882E+02   # gluino decays
#          BR         NDA      ID1       ID2
     1.31554020E-02    2     1000001        -1   # BR(~g -> ~d_L  db)
     1.31554020E-02    2    -1000001         1   # BR(~g -> ~d_L* d )
     1.72632618E-01    2     2000001        -1   # BR(~g -> ~d_R  db)
     1.72632618E-01    2    -2000001         1   # BR(~g -> ~d_R* d )
     1.32281244E-02    2     1000002        -2   # BR(~g -> ~u_L  ub)
     1.32281244E-02    2    -1000002         2   # BR(~g -> ~u_L* u )
     5.17051431E-03    2     2000002        -2   # BR(~g -> ~u_R  ub)
     5.17051431E-03    2    -2000002         2   # BR(~g -> ~u_R* u )
     1.31554020E-02    2     1000003        -3   # BR(~g -> ~s_L  sb)
     1.31554020E-02    2    -1000003         3   # BR(~g -> ~s_L* s )
     1.72632618E-01    2     2000003        -3   # BR(~g -> ~s_R  sb)
     1.72632618E-01    2    -2000003         3   # BR(~g -> ~s_R* s )
     1.32280227E-02    2     1000004        -4   # BR(~g -> ~c_L  cb)
     1.32280227E-02    2    -1000004         4   # BR(~g -> ~c_L* c )
     5.17039963E-03    2     2000004        -4   # BR(~g -> ~c_R  cb)
     5.17039963E-03    2    -2000004         4   # BR(~g -> ~c_R* c )
     4.63171517E-02    2     1000005        -5   # BR(~g -> ~b_1  bb)
     4.63171517E-02    2    -1000005         5   # BR(~g -> ~b_1* b )
     4.53097464E-02    2     1000006        -6   # BR(~g -> ~t_1  tb)
     4.53097464E-02    2    -1000006         6   # BR(~g -> ~t_1* t )
#
#         PDG            Width
DECAY   1000006     2.16002495E-01   # stop1 decays
#          BR         NDA      ID1       ID2
     3.29784778E-01    2     1000022         6   # BR(~t_1 -> ~chi_10 t )
     6.70215222E-01    2     1000024         5   # BR(~t_1 -> ~chi_1+ b )
#
#         PDG            Width
DECAY   2000006     9.73597180E+01   # stop2 decays
#          BR         NDA      ID1       ID2
     1.33655308E-01    2     1000022         6   # BR(~t_2 -> ~chi_10 t )
     6.41024704E-02    2     1000023         6   # BR(~t_2 -> ~chi_20 t )
     6.04728048E-02    2     1000025         6   # BR(~t_2 -> ~chi_30 t )
     2.69260558E-01    2     1000024         5   # BR(~t_2 -> ~chi_1+ b )
     8.14363639E-03    2     1000037         5   # BR(~t_2 -> ~chi_2+ b )
     6.78943288E-02    2     1000021         6   # BR(~t_2 -> ~g      t )
     1.90729852E-01    2     1000006        25   # BR(~t_2 -> ~t_1    h )
     1.98216819E-01    2     1000006        23   # BR(~t_2 -> ~t_1    Z )
     7.52422370E-03    2     1000005        24   # BR(~t_2 -> ~b_1    W+)
#
#         PDG            Width
DECAY   1000005     1.98238825E-02   # sbottom1 decays
#          BR         NDA      ID1       ID2
     3.36751251E-01    2     1000022         5   # BR(~b_1 -> ~chi_10 b )
     6.63248749E-01    2    -1000024         6   # BR(~b_1 -> ~chi_1- t )
#
#         PDG            Width
DECAY   2000005     9.76604519E+01   # sbottom2 decays
#          BR         NDA      ID1       ID2
     1.34697354E-01    2     1000022         5   # BR(~b_2 -> ~chi_10 b )
     3.52779807E-03    2     1000023         5   # BR(~b_2 -> ~chi_20 b )
     3.52894009E-03    2     1000025         5   # BR(~b_2 -> ~chi_30 b )
     2.67429168E-01    2    -1000024         6   # BR(~b_2 -> ~chi_1- t )
     1.22954766E-01    2    -1000037         6   # BR(~b_2 -> ~chi_2- t )
     8.02881579E-02    2     1000021         5   # BR(~b_2 -> ~g      b )
     3.98895562E-03    2     1000005        25   # BR(~b_2 -> ~b_1    h )
     3.78319097E-03    2     1000005        23   # BR(~b_2 -> ~b_1    Z )
     3.79801669E-01    2     1000006       -24   # BR(~b_2 -> ~t_1    W-)
#
#         PDG            Width
DECAY   1000002     2.96306196E+01   # sup_L decays
#          BR         NDA      ID1       ID2
     3.33048017E-01    2     1000022         2   # BR(~u_L -> ~chi_10 u)
     1.33909009E-05    2     1000023         2   # BR(~u_L -> ~chi_20 u)
     8.17961304E-06    2     1000025         2   # BR(~u_L -> ~chi_30 u)
     6.66930398E-01    2     1000024         1   # BR(~u_L -> ~chi_1+ d)
     1.43928892E-08    2     1000037         1   # BR(~u_L -> ~chi_2+ d)
#
#         PDG            Width
DECAY   2000002     3.03638247E-01   # sup_R decays
#           BR         NDA      ID1       ID2
     9.06061464E-08    2     1000022         2   # BR(~u_R -> ~chi_10 u)
#           BR         NDA      ID1       ID2       ID3
     1.79305474E-05    3        2       -1        1000001   # BR(~u_R -> u  db  ~d_L)
     1.42841030E-05    3        2       1        -1000001   # BR(~u_R -> u  d  ~d_L*)
     1.48937101E-01    3        2       -1        2000001   # BR(~u_R -> u  db  ~d_R)
     3.36057795E-01    3        2       1        -2000001   # BR(~u_R -> u  d  ~d_R*)
     1.87482969E-05    3        2       -2        1000002   # BR(~u_R -> u  ub  ~u_L)
     1.48472732E-05    3        2       2        -1000002   # BR(~u_R -> u  u  ~u_L*)
     1.82822818E-05    3        2       -3        1000003   # BR(~u_R -> u  sb  ~s_L)
     1.44329643E-05    3        2       3        -1000003   # BR(~u_R -> u  s  ~s_L*)
     1.46947891E-01    3        2       -3        2000003   # BR(~u_R -> u  sb  ~s_R)
     3.38165567E-01    3        2       3        -2000003   # BR(~u_R -> u  s  ~s_R*)
     1.85951541E-05    3        2       -4        1000004   # BR(~u_R -> u  cb  ~c_L)
     1.49286199E-05    3        2       4        -1000004   # BR(~u_R -> u  c  ~c_L*)
     3.31150640E-03    3        2       -5        1000005   # BR(~u_R -> u  bb  ~b_1)
     4.75269506E-03    3        2       5        -1000005   # BR(~u_R -> u  b  ~b_1*)
     2.55666078E-03    3        2       -6        1000006   # BR(~u_R -> u  tb  ~t_1)
     3.65895934E-03    3        2       6        -1000006   # BR(~u_R -> u  t  ~t_1*)
     8.26411041E-04    3        2       -11        1000011   # BR(~u_R -> u  e+  ~e_L-)
     1.56436156E-04    3        2       11        -1000011   # BR(~u_R -> u  e-  ~e_L+)
     5.78714972E-04    3        2       -11        2000011   # BR(~u_R -> u  e+  ~e_R-)
     2.83090160E-03    3        2       11        -2000011   # BR(~u_R -> u  e-  ~e_R+)
     8.28321208E-04    3        2       -12        1000012   # BR(~u_R -> u  nu_eb  ~nu_eL)
     1.55211013E-04    3        2       12        -1000012   # BR(~u_R -> u  nu_e  ~nu_eL*)
     8.18539832E-04    3        2       -13        1000013   # BR(~u_R -> u  mu+  ~mu_L-)
     1.56307713E-04    3        2       13        -1000013   # BR(~u_R -> u  mu-  ~mu_L+)
     5.84610145E-04    3        2       -13        2000013   # BR(~u_R -> u  mu+  ~mu_R-)
     2.89831735E-03    3        2       13        -2000013   # BR(~u_R -> u  mu-  ~mu_R+)
     8.16695532E-04    3        2       -14        1000014   # BR(~u_R -> u  nu_mub  ~nu_muL)
     1.53900243E-04    3        2       14        -1000014   # BR(~u_R -> u  nu_mu  ~nu_muL*)
     6.00681902E-04    3        2       -15        1000015   # BR(~u_R -> u  tau+  ~tau_1-)
     2.93434707E-03    3        2       15        -1000015   # BR(~u_R -> u  tau-  ~tau_1+)
     1.79450384E-04    3        2       23        1000022   # BR(~u_R -> u  Z  ~chi_10)
     1.99062537E-04    3        2       25        1000022   # BR(~u_R -> u  h  ~chi_10)
     6.70468894E-07    3        2       23        1000023   # BR(~u_R -> u  Z  ~chi_20)
     4.12530375E-06    3        2       25        1000023   # BR(~u_R -> u  h  ~chi_20)
     4.50898400E-06    3        2       23        1000025   # BR(~u_R -> u  Z  ~chi_30)
     1.18002263E-07    3        2       25        1000025   # BR(~u_R -> u  h  ~chi_30)
     3.72153380E-04    3        2       -24        1000024   # BR(~u_R -> u  W-  ~chi_1+)
     3.70473749E-04    3        2       24        -1000024   # BR(~u_R -> u  W+  ~chi_1-)
     3.28446765E-06    3        2       -24        1000037   # BR(~u_R -> u  W-  ~chi_2+)
     6.44187620E-06    3        2       24        -1000037   # BR(~u_R -> u  W+  ~chi_2-)
#
#         PDG            Width
DECAY   1000001     2.95970494E+01   # sdown_L decays
#          BR         NDA      ID1       ID2
     3.33586969E-01    2     1000022         1   # BR(~d_L -> ~chi_10 d)
     6.28899195E-06    2     1000023         1   # BR(~d_L -> ~chi_20 d)
     9.67266384E-06    2     1000025         1   # BR(~d_L -> ~chi_30 d)
     6.66324229E-01    2    -1000024         2   # BR(~d_L -> ~chi_1- u)
     7.28411382E-05    2    -1000037         2   # BR(~d_L -> ~chi_2- u)
#
#         PDG            Width
DECAY   2000001     3.52357170E-06   # sdown_R decays
#           BR         NDA      ID1       ID2
     6.28108203E-04    2     1000022         1   # BR(~d_R -> ~chi_10 d)
#           BR         NDA      ID1       ID2       ID3
     1.15902282E-01    3        1       -11        1000011   # BR(~d_R -> d  e+  ~e_L-)
     2.79296147E-03    3        1       11        -1000011   # BR(~d_R -> d  e-  ~e_L+)
     4.76505132E-03    3        1       -11        2000011   # BR(~d_R -> d  e+  ~e_R-)
     1.64486506E-01    3        1       11        -2000011   # BR(~d_R -> d  e-  ~e_R+)
     1.25812680E-01    3        1       -12        1000012   # BR(~d_R -> d  nu_eb  ~nu_eL)
     2.91635899E-03    3        1       12        -1000012   # BR(~d_R -> d  nu_e  ~nu_eL*)
     1.14276091E-01    3        1       -13        1000013   # BR(~d_R -> d  mu+  ~mu_L-)
     2.80417168E-03    3        1       13        -1000013   # BR(~d_R -> d  mu-  ~mu_L+)
     4.87147742E-03    3        1       -13        2000013   # BR(~d_R -> d  mu+  ~mu_R-)
     1.61832949E-01    3        1       13        -2000013   # BR(~d_R -> d  mu-  ~mu_R+)
     1.24322715E-01    3        1       -14        1000014   # BR(~d_R -> d  nu_mub  ~nu_muL)
     2.89450616E-03    3        1       14        -1000014   # BR(~d_R -> d  nu_mu  ~nu_muL*)
     4.82266332E-03    3        1       -15        1000015   # BR(~d_R -> d  tau+  ~tau_1-)
     1.66759768E-01    3        1       15        -1000015   # BR(~d_R -> d  tau-  ~tau_1+)
     1.01609966E-05    3        1       23        1000022   # BR(~d_R -> d  Z  ~chi_10)
     1.31193584E-05    3        1       25        1000022   # BR(~d_R -> d  h  ~chi_10)
     5.81852782E-05    3        1       -24        1000024   # BR(~d_R -> d  W-  ~chi_1+)
     3.02448790E-05    3        1       24        -1000024   # BR(~d_R -> d  W+  ~chi_1-)
#
#         PDG            Width
DECAY   1000004     3.02530335E+01   # scharm_L decays
#          BR         NDA      ID1       ID2
     3.33048414E-01    2     1000022         4   # BR(~c_L -> ~chi_10 c)
     1.28056744E-05    2     1000023         4   # BR(~c_L -> ~chi_20 c)
     7.82067139E-06    2     1000025         4   # BR(~c_L -> ~chi_30 c)
     6.66930946E-01    2     1000024         3   # BR(~c_L -> ~chi_1+ s)
     1.37589061E-08    2     1000037         3   # BR(~c_L -> ~chi_2+ s)
#
#         PDG            Width
DECAY   2000004     3.06020236E-01   # scharm_R decays
#           BR         NDA      ID1       ID2
     9.23230724E-08    2     1000022         4   # BR(~c_R -> ~chi_10 c)
#           BR         NDA      ID1       ID2       ID3
     1.78779027E-05    3        4       -1        1000001   # BR(~c_R -> c  db  ~d_L)
     1.40307715E-05    3        4       1        -1000001   # BR(~c_R -> c  d  ~d_L*)
     1.47620957E-01    3        4       -1        2000001   # BR(~c_R -> c  db  ~d_R)
     3.40696424E-01    3        4       1        -2000001   # BR(~c_R -> c  d  ~d_R*)
     1.83331014E-05    3        4       -2        1000002   # BR(~c_R -> c  ub  ~u_L)
     1.47500049E-05    3        4       2        -1000002   # BR(~c_R -> c  u  ~u_L*)
     1.81187364E-05    3        4       -3        1000003   # BR(~c_R -> c  sb  ~s_L)
     1.45101515E-05    3        4       3        -1000003   # BR(~c_R -> c  s  ~s_L*)
     1.46065503E-01    3        4       -3        2000003   # BR(~c_R -> c  sb  ~s_R)
     3.36088885E-01    3        4       3        -2000003   # BR(~c_R -> c  s  ~s_R*)
     1.86667394E-05    3        4       -4        1000004   # BR(~c_R -> c  cb  ~c_L)
     1.48192814E-05    3        4       4        -1000004   # BR(~c_R -> c  c  ~c_L*)
     3.22779308E-03    3        4       -5        1000005   # BR(~c_R -> c  bb  ~b_1)
     4.67779523E-03    3        4       5        -1000005   # BR(~c_R -> c  b  ~b_1*)
     2.51052025E-03    3        4       -6        1000006   # BR(~c_R -> c  tb  ~t_1)
     3.63832149E-03    3        4       6        -1000006   # BR(~c_R -> c  t  ~t_1*)
     8.19978454E-04    3        4       -11        1000011   # BR(~c_R -> c  e+  ~e_L-)
     1.55218493E-04    3        4       11        -1000011   # BR(~c_R -> c  e-  ~e_L+)
     5.74210393E-04    3        4       -11        2000011   # BR(~c_R -> c  e+  ~e_R-)
     2.80860512E-03    3        4       11        -2000011   # BR(~c_R -> c  e-  ~e_R+)
     8.22625338E-04    3        4       -12        1000012   # BR(~c_R -> c  nu_eb  ~nu_eL)
     1.54002887E-04    3        4       12        -1000012   # BR(~c_R -> c  nu_e  ~nu_eL*)
     8.12168513E-04    3        4       -13        1000013   # BR(~c_R -> c  mu+  ~mu_L-)
     1.57492853E-04    3        4       13        -1000013   # BR(~c_R -> c  mu-  ~mu_L+)
     5.66139032E-04    3        4       -13        2000013   # BR(~c_R -> c  mu+  ~mu_R-)
     2.84742608E-03    3        4       13        -2000013   # BR(~c_R -> c  mu-  ~mu_R+)
     8.15076818E-04    3        4       -14        1000014   # BR(~c_R -> c  nu_mub  ~nu_muL)
     1.55414559E-04    3        4       14        -1000014   # BR(~c_R -> c  nu_mu  ~nu_muL*)
     5.97509506E-04    3        4       -15        1000015   # BR(~c_R -> c  tau+  ~tau_1-)
     2.92621171E-03    3        4       15        -1000015   # BR(~c_R -> c  tau-  ~tau_1+)
     1.77357553E-04    3        4       23        1000022   # BR(~c_R -> c  Z  ~chi_10)
     1.97509814E-04    3        4       25        1000022   # BR(~c_R -> c  h  ~chi_10)
     6.66361162E-07    3        4       23        1000023   # BR(~c_R -> c  Z  ~chi_20)
     4.11966221E-06    3        4       25        1000023   # BR(~c_R -> c  h  ~chi_20)
     4.45689481E-06    3        4       23        1000025   # BR(~c_R -> c  Z  ~chi_30)
     1.16802733E-07    3        4       25        1000025   # BR(~c_R -> c  h  ~chi_30)
     3.69060561E-04    3        4       -24        1000024   # BR(~c_R -> c  W-  ~chi_1+)
     3.67590070E-04    3        4       24        -1000024   # BR(~c_R -> c  W+  ~chi_1-)
     3.25138629E-06    3        4       -24        1000037   # BR(~c_R -> c  W-  ~chi_2+)
     6.39271450E-06    3        4       24        -1000037   # BR(~c_R -> c  W+  ~chi_2-)
#
#         PDG            Width
DECAY   1000003     3.02199074E+01   # sstrange_L decays
#          BR         NDA      ID1       ID2
     3.33588622E-01    2     1000022         3   # BR(~s_L -> ~chi_10 s)
     6.01503448E-06    2     1000023         3   # BR(~s_L -> ~chi_20 s)
     9.24958635E-06    2     1000025         3   # BR(~s_L -> ~chi_30 s)
     6.66326473E-01    2    -1000024         4   # BR(~s_L -> ~chi_1- c)
     6.96405298E-05    2    -1000037         4   # BR(~s_L -> ~chi_2- c)
#
#         PDG            Width
DECAY   2000003     3.52501268E-06   # sstrange_R decays
#           BR         NDA      ID1       ID2
     6.02781287E-04    2     1000022         3   # BR(~s_R -> ~chi_10 s)
#           BR         NDA      ID1       ID2       ID3
     1.15854902E-01    3        3       -11        1000011   # BR(~s_R -> s  e+  ~e_L-)
     2.79181975E-03    3        3       11        -1000011   # BR(~s_R -> s  e-  ~e_L+)
     4.76310344E-03    3        3       -11        2000011   # BR(~s_R -> s  e+  ~e_R-)
     1.64419267E-01    3        3       11        -2000011   # BR(~s_R -> s  e-  ~e_R+)
     1.25761250E-01    3        3       -12        1000012   # BR(~s_R -> s  nu_eb  ~nu_eL)
     2.91516682E-03    3        3       12        -1000012   # BR(~s_R -> s  nu_e  ~nu_eL*)
     1.14229376E-01    3        3       -13        1000013   # BR(~s_R -> s  mu+  ~mu_L-)
     2.80302538E-03    3        3       13        -1000013   # BR(~s_R -> s  mu-  ~mu_L+)
     4.86948603E-03    3        3       -13        2000013   # BR(~s_R -> s  mu+  ~mu_R-)
     1.62115729E-01    3        3       13        -2000013   # BR(~s_R -> s  mu-  ~mu_R+)
     1.24271893E-01    3        3       -14        1000014   # BR(~s_R -> s  nu_mub  ~nu_muL)
     2.92084056E-03    3        3       14        -1000014   # BR(~s_R -> s  nu_mu  ~nu_muL*)
     4.87799664E-03    3        3       -15        1000015   # BR(~s_R -> s  tau+  ~tau_1-)
     1.66691599E-01    3        3       15        -1000015   # BR(~s_R -> s  tau-  ~tau_1+)
     1.03630833E-05    3        3       23        1000022   # BR(~s_R -> s  Z  ~chi_10)
     1.31139954E-05    3        3       25        1000022   # BR(~s_R -> s  h  ~chi_10)
     5.80536919E-05    3        3       -24        1000024   # BR(~s_R -> s  W-  ~chi_1+)
     3.02325154E-05    3        3       24        -1000024   # BR(~s_R -> s  W+  ~chi_1-)
#
#         PDG            Width
DECAY   1000011     2.30627270E+00   # selectron_L decays
#          BR         NDA      ID1       ID2
     3.33852616E-01    2     1000022        11   # BR(~e_L -> ~chi_10 e-)
     6.66147384E-01    2    -1000024        12   # BR(~e_L -> ~chi_1- nu_e)
#
#         PDG            Width
DECAY   2000011     5.23818727E-08   # selectron_R decays
#           BR         NDA      ID1       ID2
     1.51175189E-01    2     1000022        11   # BR(~e_R -> ~chi_10 e-)
#           BR         NDA      ID1       ID2       ID3
     1.61448981E-01    3        11       -11        1000011   # BR(~e_R- -> e-  e+  ~e_L-)
     1.55212091E-03    3        11       11        -1000011   # BR(~e_R- -> e-  e-  ~e_L+)
     2.56195499E-01    3        11       -12        1000012   # BR(~e_R- -> e-  nu_eb  ~nu_eL)
     2.23875157E-03    3        11       12        -1000012   # BR(~e_R- -> e-  nu_e  ~nu_eL*)
     1.63369493E-01    3        11       -13        1000013   # BR(~e_R- -> e-  mu+  ~mu_L-)
     1.56953151E-03    3        11       13        -1000013   # BR(~e_R- -> e-  mu-  ~mu_L+)
     2.58944541E-01    3        11       -14        1000014   # BR(~e_R- -> e-  nu_mub  ~nu_muL)
     2.24180607E-03    3        11       14        -1000014   # BR(~e_R- -> e-  nu_mu  ~nu_muL*)
     9.64379419E-05    3        11       23        1000022   # BR(~e_R- -> e-  Z  ~chi_10)
     3.86125943E-05    3        11       25        1000022   # BR(~e_R- -> e-  h  ~chi_10)
     6.43753235E-04    3        11       -24        1000024   # BR(~e_R- -> e-  W-  ~chi_1+)
     4.85282383E-04    3        11       24        -1000024   # BR(~e_R- -> e-  W+  ~chi_1-)
#
#         PDG            Width
DECAY   1000013     2.30627238E+00   # smuon_L decays
#          BR         NDA      ID1       ID2
     3.33852524E-01    2     1000022        13   # BR(~mu_L -> ~chi_10 mu-)
     6.66147476E-01    2    -1000024        14   # BR(~mu_L -> ~chi_1- nu_mu)
#
#         PDG            Width
DECAY   2000013     5.25386626E-08   # smuon_R decays
#           BR         NDA      ID1       ID2
     1.50724015E-01    2     1000022        13   # BR(~mu_R -> ~chi_10 mu-)
#           BR         NDA      ID1       ID2       ID3
     1.63957352E-01    3        13       -11        1000011   # BR(~mu_R- -> mu-  e+  ~e_L-)
     1.54845967E-03    3        13       11        -1000011   # BR(~mu_R- -> mu-  e-  ~e_L+)
     2.54650563E-01    3        13       -12        1000012   # BR(~mu_R- -> mu-  nu_eb  ~nu_eL)
     2.22331507E-03    3        13       12        -1000012   # BR(~mu_R- -> mu-  nu_e  ~nu_eL*)
     1.62651647E-01    3        13       -13        1000013   # BR(~mu_R- -> mu-  mu+  ~mu_L-)
     1.53496484E-03    3        13       13        -1000013   # BR(~mu_R- -> mu-  mu-  ~mu_L+)
     2.59218627E-01    3        13       -14        1000014   # BR(~mu_R- -> mu-  nu_mub  ~nu_muL)
     2.22921548E-03    3        13       14        -1000014   # BR(~mu_R- -> mu-  nu_mu  ~nu_muL*)
     9.59426783E-05    3        13       23        1000022   # BR(~mu_R- -> mu-  Z  ~chi_10)
     3.85944350E-05    3        13       25        1000022   # BR(~mu_R- -> mu-  h  ~chi_10)
     6.44934575E-04    3        13       -24        1000024   # BR(~mu_R- -> mu-  W-  ~chi_1+)
     4.82368579E-04    3        13       24        -1000024   # BR(~mu_R- -> mu-  W+  ~chi_1-)
#
#         PDG            Width
DECAY   1000015     1.06077714E-03   # stau_1 decays
#          BR         NDA      ID1       ID2
     3.33690805E-01    2     1000022        15   # BR(~tau_1 -> ~chi_10  tau-)
     6.66309195E-01    2    -1000024        16   # BR(~tau_1 -> ~chi_1-  nu_tau)
#
#         PDG            Width
DECAY   2000015     4.95054529E+01   # stau_2 decays
#          BR         NDA      ID1       ID2
     3.22050441E-01    2     1000022        15   # BR(~tau_2 -> ~chi_10  tau-)
     9.44827806E-03    2     1000023        15   # BR(~tau_2 -> ~chi_20  tau-)
     9.27465321E-03    2     1000025        15   # BR(~tau_2 -> ~chi_30  tau-)
     2.94190791E-03    2     1000035        15   # BR(~tau_2 -> ~chi_40  tau-)
     6.43252551E-01    2    -1000024        16   # BR(~tau_2 -> ~chi_1-  nu_tau)
     7.68731670E-04    2    -1000037        16   # BR(~tau_2 -> ~chi_2-  nu_tau)
     5.99552352E-03    2     1000015        25   # BR(~tau_2 -> ~tau_1   h)
     1.56290863E-04    2     1000015        35   # BR(~tau_2 -> ~tau_1   H)
     1.56186892E-04    2     1000015        36   # BR(~tau_2 -> ~tau_1   A)
     5.95543564E-03    2     1000015        23   # BR(~tau_2 -> ~tau_1   Z)
#
#         PDG            Width
DECAY   1000012     2.13286053E+00   # snu_eL decays
#          BR         NDA      ID1       ID2
     3.33364160E-01    2     1000022        12   # BR(~nu_eL -> ~chi_10 nu_e)
     6.66635840E-01    2     1000024        11   # BR(~nu_eL -> ~chi_1+ e-)
#
#         PDG            Width
DECAY   1000014     2.13285987E+00   # snu_muL decays
#          BR         NDA      ID1       ID2
     3.33364264E-01    2     1000022        14   # BR(~nu_muL -> ~chi_10 nu_mu)
     6.66635736E-01    2     1000024        13   # BR(~nu_muL -> ~chi_1+ mu-)
#
#         PDG            Width
DECAY   1000016     4.95112613E+01   # snu_tauL decays
#          BR         NDA      ID1       ID2
     3.21952406E-01    2     1000022        16   # BR(~nu_tauL -> ~chi_10 nu_tau)
     1.79000932E-05    2     1000023        16   # BR(~nu_tauL -> ~chi_20 nu_tau)
     1.12618983E-04    2     1000025        16   # BR(~nu_tauL -> ~chi_30 nu_tau)
     2.93225423E-03    2     1000035        16   # BR(~nu_tauL -> ~chi_40 nu_tau)
     6.44747643E-01    2     1000024        15   # BR(~nu_tauL -> ~chi_1+ tau-)
     1.83360373E-02    2     1000037        15   # BR(~nu_tauL -> ~chi_2+ tau-)
     3.10538744E-04    2    -1000015       -37   # BR(~nu_tauL -> ~tau_1+ H-)
     1.15906025E-02    2    -1000015       -24   # BR(~nu_tauL -> ~tau_1+ W-)
#
#         PDG            Width
DECAY   1000024     2.56328830E-15   # chargino1+ decays
#           BR         NDA      ID1       ID2       ID3
     2.08654610E-02    3     1000022       -11        12   # BR(~chi_1+ -> ~chi_10 e+   nu_e)
     1.71199490E-03    3     1000022       -13        14   # BR(~chi_1+ -> ~chi_10 mu+  nu_mu)
     9.77422540E-01    2     1000022       211             # BR(~chi_1+ -> ~chi_10 pi+)
#
#         PDG            Width
DECAY   1000037     1.41330010E+01   # chargino2+ decays
#          BR         NDA      ID1       ID2
     5.35243704E-02    2     1000006        -5   # BR(~chi_2+ -> ~t_1     bb)
     3.05649699E-07    2     1000012       -11   # BR(~chi_2+ -> ~nu_eL   e+  )
     3.05649699E-07    2     1000014       -13   # BR(~chi_2+ -> ~nu_muL mu+ )
     1.52937607E-03    2    -1000011        12   # BR(~chi_2+ -> ~e_L+    nu_e)
     1.52937607E-03    2    -1000013        14   # BR(~chi_2+ -> ~mu_L+   nu_mu)
     3.67074398E-02    2    -1000015        16   # BR(~chi_2+ -> ~tau_1+  nu_tau)
     3.00821924E-01    2     1000024        23   # BR(~chi_2+ -> ~chi_1+  Z )
     2.93376273E-01    2     1000022        24   # BR(~chi_2+ -> ~chi_10  W+)
     3.12510630E-01    2     1000024        25   # BR(~chi_2+ -> ~chi_1+  h )
#
#         PDG            Width
DECAY   1000022     0.00000000E+00   # neutralino1 decays
#
#         PDG            Width
DECAY   1000023     1.31765464E+01   # neutralino2 decays
#          BR         NDA      ID1       ID2
     1.56412634E-01    2     1000022        23   # BR(~chi_20 -> ~chi_10   Z )
     3.13926951E-01    2     1000024       -24   # BR(~chi_20 -> ~chi_1+   W-)
     3.13926951E-01    2    -1000024        24   # BR(~chi_20 -> ~chi_1-   W+)
     1.69795650E-01    2     1000022        25   # BR(~chi_20 -> ~chi_10   h )
     6.84777379E-05    2     2000001        -1   # BR(~chi_20 -> ~d_R      db)
     6.84777379E-05    2    -2000001         1   # BR(~chi_20 -> ~d_R*     d )
     6.84777379E-05    2     2000003        -3   # BR(~chi_20 -> ~s _R      sb)
     6.84777379E-05    2    -2000003         3   # BR(~chi_20 -> ~s _R*     s )
     1.22371816E-03    2     1000005        -5   # BR(~chi_20 -> ~b_1      bb)
     1.22371816E-03    2    -1000005         5   # BR(~chi_20 -> ~b_1*     b )
     5.17036109E-04    2     1000011       -11   # BR(~chi_20 -> ~e_L-     e+)
     5.17036109E-04    2    -1000011        11   # BR(~chi_20 -> ~e_L+     e-)
     2.61672051E-04    2     2000011       -11   # BR(~chi_20 -> ~e_R-     e+)
     2.61672051E-04    2    -2000011        11   # BR(~chi_20 -> ~e_R+     e-)
     5.17036109E-04    2     1000013       -13   # BR(~chi_20 -> ~mu_L-    mu+)
     5.17036109E-04    2    -1000013        13   # BR(~chi_20 -> ~mu_L+    mu-)
     2.61672051E-04    2     2000013       -13   # BR(~chi_20 -> ~mu_R-    mu+)
     2.61672051E-04    2    -2000013        13   # BR(~chi_20 -> ~mu_R+    mu-)
     1.99713810E-02    2     1000015       -15   # BR(~chi_20 -> ~tau_1-   tau+)
     1.99713810E-02    2    -1000015        15   # BR(~chi_20 -> ~tau_1+   tau-)
     3.97180913E-05    2     1000012       -12   # BR(~chi_20 -> ~nu_eL    nu_eb)
     3.97180913E-05    2    -1000012        12   # BR(~chi_20 -> ~nu_eL*   nu_e )
     3.97180913E-05    2     1000014       -14   # BR(~chi_20 -> ~nu_muL   nu_mub)
     3.97180913E-05    2    -1000014        14   # BR(~chi_20 -> ~nu_muL*  nu_mu )
#
#         PDG            Width
DECAY   1000025     1.32317767E+01   # neutralino3 decays
#          BR         NDA      ID1       ID2
     1.65254695E-01    2     1000022        23   # BR(~chi_30 -> ~chi_10   Z )
     3.13323600E-01    2     1000024       -24   # BR(~chi_30 -> ~chi_1+   W-)
     3.13323600E-01    2    -1000024        24   # BR(~chi_30 -> ~chi_1-   W+)
     1.64684522E-01    2     1000022        25   # BR(~chi_30 -> ~chi_10   h )
     2.85690275E-06    2     2000001        -1   # BR(~chi_30 -> ~d_R      db)
     2.85690275E-06    2    -2000001         1   # BR(~chi_30 -> ~d_R*     d )
     2.85690275E-06    2     2000003        -3   # BR(~chi_30 -> ~s _R      sb)
     2.85690275E-06    2    -2000003         3   # BR(~chi_30 -> ~s _R*     s )
     1.23627926E-03    2     1000005        -5   # BR(~chi_30 -> ~b_1      bb)
     1.23627926E-03    2    -1000005         5   # BR(~chi_30 -> ~b_1*     b )
     1.54021390E-04    2     1000011       -11   # BR(~chi_30 -> ~e_L-     e+)
     1.54021390E-04    2    -1000011        11   # BR(~chi_30 -> ~e_L+     e-)
     1.09138747E-05    2     2000011       -11   # BR(~chi_30 -> ~e_R-     e+)
     1.09138747E-05    2    -2000011        11   # BR(~chi_30 -> ~e_R+     e-)
     1.54021390E-04    2     1000013       -13   # BR(~chi_30 -> ~mu_L-    mu+)
     1.54021390E-04    2    -1000013        13   # BR(~chi_30 -> ~mu_L+    mu-)
     1.09138747E-05    2     2000013       -13   # BR(~chi_30 -> ~mu_R-    mu+)
     1.09138747E-05    2    -2000013        13   # BR(~chi_30 -> ~mu_R+    mu-)
     1.96362903E-02    2     1000015       -15   # BR(~chi_30 -> ~tau_1-   tau+)
     1.96362903E-02    2    -1000015        15   # BR(~chi_30 -> ~tau_1+   tau-)
     2.49318648E-04    2     1000012       -12   # BR(~chi_30 -> ~nu_eL    nu_eb)
     2.49318648E-04    2    -1000012        12   # BR(~chi_30 -> ~nu_eL*   nu_e )
     2.49318648E-04    2     1000014       -14   # BR(~chi_30 -> ~nu_muL   nu_mub)
     2.49318648E-04    2    -1000014        14   # BR(~chi_30 -> ~nu_muL*  nu_mu )
#
#         PDG            Width
DECAY   1000035     1.18238466E+02   # neutralino4 decays
#          BR         NDA      ID1       ID2
     2.92177466E-05    2     1000022        23   # BR(~chi_40 -> ~chi_10   Z )
     7.71871229E-04    2     1000023        23   # BR(~chi_40 -> ~chi_20   Z )
     1.81500225E-02    2     1000025        23   # BR(~chi_40 -> ~chi_30   Z )
     4.51420744E-05    2     1000024       -24   # BR(~chi_40 -> ~chi_1+   W-)
     4.51420744E-05    2    -1000024        24   # BR(~chi_40 -> ~chi_1-   W+)
     1.84217096E-02    2     1000037       -24   # BR(~chi_40 -> ~chi_2+   W-)
     1.84217096E-02    2    -1000037        24   # BR(~chi_40 -> ~chi_2-   W+)
     2.45873702E-05    2     1000022        25   # BR(~chi_40 -> ~chi_10   h )
     3.77517256E-08    2     1000022        35   # BR(~chi_40 -> ~chi_10   H )
     3.85754592E-08    2     1000022        36   # BR(~chi_40 -> ~chi_10   A )
     1.80284691E-02    2     1000023        25   # BR(~chi_40 -> ~chi_20   h )
     7.58881990E-04    2     1000025        25   # BR(~chi_40 -> ~chi_30   h )
     7.46118876E-08    2     1000024       -37   # BR(~chi_40 -> ~chi_1+   H-)
     7.46118876E-08    2    -1000024        37   # BR(~chi_40 -> ~chi_1-   H+)
     1.70707515E-03    2     1000002        -2   # BR(~chi_40 -> ~u_L      ub)
     1.70707515E-03    2    -1000002         2   # BR(~chi_40 -> ~u_L*     u )
     2.13695331E-02    2     2000002        -2   # BR(~chi_40 -> ~u_R      ub)
     2.13695331E-02    2    -2000002         2   # BR(~chi_40 -> ~u_R*     u )
     1.72010636E-03    2     1000001        -1   # BR(~chi_40 -> ~d_L      db)
     1.72010636E-03    2    -1000001         1   # BR(~chi_40 -> ~d_L*     d )
     2.26380563E-02    2     2000001        -1   # BR(~chi_40 -> ~d_R      db)
     2.26380563E-02    2    -2000001         1   # BR(~chi_40 -> ~d_R*     d )
     1.70707385E-03    2     1000004        -4   # BR(~chi_40 -> ~c_L      cb)
     1.70707385E-03    2    -1000004         4   # BR(~chi_40 -> ~c_L*     c )
     2.13695096E-02    2     2000004        -4   # BR(~chi_40 -> ~c_R      cb)
     2.13695096E-02    2    -2000004         4   # BR(~chi_40 -> ~c_R*     c )
     1.72010636E-03    2     1000003        -3   # BR(~chi_40 -> ~s _L      sb)
     1.72010636E-03    2    -1000003         3   # BR(~chi_40 -> ~s _L*     s )
     2.26380563E-02    2     2000003        -3   # BR(~chi_40 -> ~s _R      sb)
     2.26380563E-02    2    -2000003         3   # BR(~chi_40 -> ~s _R*     s )
     4.51950751E-02    2     1000006        -6   # BR(~chi_40 -> ~t_1      tb)
     4.51950751E-02    2    -1000006         6   # BR(~chi_40 -> ~t_1*     t )
     3.24244716E-04    2     2000006        -6   # BR(~chi_40 -> ~t_2      tb)
     3.24244716E-04    2    -2000006         6   # BR(~chi_40 -> ~t_2*     t )
     1.15228051E-02    2     1000005        -5   # BR(~chi_40 -> ~b_1      bb)
     1.15228051E-02    2    -1000005         5   # BR(~chi_40 -> ~b_1*     b )
     2.14284042E-04    2     2000005        -5   # BR(~chi_40 -> ~b_2      bb)
     2.14284042E-04    2    -2000005         5   # BR(~chi_40 -> ~b_2*     b )
     1.95556170E-02    2     1000011       -11   # BR(~chi_40 -> ~e_L-     e+)
     1.95556170E-02    2    -1000011        11   # BR(~chi_40 -> ~e_L+     e-)
     7.73769888E-02    2     2000011       -11   # BR(~chi_40 -> ~e_R-     e+)
     7.73769888E-02    2    -2000011        11   # BR(~chi_40 -> ~e_R+     e-)
     1.95556170E-02    2     1000013       -13   # BR(~chi_40 -> ~mu_L-    mu+)
     1.95556170E-02    2    -1000013        13   # BR(~chi_40 -> ~mu_L+    mu-)
     7.73769888E-02    2     2000013       -13   # BR(~chi_40 -> ~mu_R-    mu+)
     7.73769888E-02    2    -2000013        13   # BR(~chi_40 -> ~mu_R+    mu-)
     7.73876579E-02    2     1000015       -15   # BR(~chi_40 -> ~tau_1-   tau+)
     7.73876579E-02    2    -1000015        15   # BR(~chi_40 -> ~tau_1+   tau-)
     1.96363575E-02    2     1000012       -12   # BR(~chi_40 -> ~nu_eL    nu_eb)
     1.96363575E-02    2    -1000012        12   # BR(~chi_40 -> ~nu_eL*   nu_e )
     1.96363575E-02    2     1000014       -14   # BR(~chi_40 -> ~nu_muL   nu_mub)
     1.96363575E-02    2    -1000014        14   # BR(~chi_40 -> ~nu_muL*  nu_mu )
#
#         PDG            Width
DECAY        25     4.62439254E-03   # h decays
#          BR         NDA      ID1       ID2
     5.96017645E-01    2           5        -5   # BR(h -> b       bb     )
     5.69934007E-02    2         -15        15   # BR(h -> tau+    tau-   )
     2.01741510E-04    2         -13        13   # BR(h -> mu+     mu-    )
     2.19435024E-04    2           3        -3   # BR(h -> s       sb     )
     1.89813856E-02    2           4        -4   # BR(h -> c       cb     )
     7.21049854E-02    2          21        21   # BR(h -> g       g      )
     2.14606029E-03    2          22        22   # BR(h -> gam     gam    )
     1.59205427E-03    2          22        23   # BR(h -> Z       gam    )
     2.23150544E-01    2          24       -24   # BR(h -> W+      W-     )
     2.85927480E-02    2          23        23   # BR(h -> Z       Z      )
#
#         PDG            Width
DECAY        35     2.29189908E+01   # H decays
#          BR         NDA      ID1       ID2
     3.75540199E-01    2           5        -5   # BR(H -> b       bb     )
     7.17219485E-02    2         -15        15   # BR(H -> tau+    tau-   )
     2.63229065E-04    2         -13        13   # BR(H -> mu+     mu-    )
     1.09915124E-04    2           3        -3   # BR(H -> s       sb     )
     2.39035246E-07    2           4        -4   # BR(H -> c       cb     )
     2.35309882E-02    2           6        -6   # BR(H -> t       tb     )
     5.78785764E-06    2          21        21   # BR(H -> g       g      )
     6.23324699E-09    2          22        22   # BR(H -> gam     gam    )
     9.30343626E-09    2          23        22   # BR(H -> Z       gam    )
     5.89725043E-06    2          24       -24   # BR(H -> W+      W-     )
     2.94268539E-06    2          23        23   # BR(H -> Z       Z      )
     2.95848919E-05    2          25        25   # BR(H -> h       h      )
     2.93910539E-03    2     1000024  -1000024   # BR(H -> ~chi_1+ ~chi_1-)
     1.74715486E-01    2     1000024  -1000037   # BR(H -> ~chi_1+ ~chi_2-)
     1.74715486E-01    2     1000037  -1000024   # BR(H -> ~chi_2+ ~chi_1-)
     1.46929239E-03    2     1000022   1000022   # BR(H -> ~chi_10 ~chi_10)
     8.46893090E-02    2     1000022   1000023   # BR(H -> ~chi_10 ~chi_20)
     9.02450658E-02    2     1000022   1000025   # BR(H -> ~chi_10 ~chi_30)
     2.85235386E-07    2     2000001  -2000001   # BR(H -> ~d_R    ~d_R*  )
     2.85235386E-07    2     2000003  -2000003   # BR(H -> ~s_R    ~s_R*  )
     1.50232559E-06    2     1000011  -1000011   # BR(H -> ~e_L-   ~e_L+  )
     9.60589009E-07    2     2000011  -2000011   # BR(H -> ~e_R-   ~e_R+  )
     1.50232559E-06    2     1000013  -1000013   # BR(H -> ~mu_L-  ~mu_L+ )
     9.60589009E-07    2     2000013  -2000013   # BR(H -> ~mu_R-  ~mu_R+ )
     2.02054949E-07    2     1000015  -1000015   # BR(H -> ~tau_1- ~tau_1+)
     4.90467241E-06    2     1000012  -1000012   # BR(H -> ~nu_eL  ~nu_eL*   )
     4.90467241E-06    2     1000014  -1000014   # BR(H -> ~nu_muL ~nu_muL*  )
#
#         PDG            Width
DECAY        36     2.29243241E+01   # A decays
#          BR         NDA      ID1       ID2
     3.75509889E-01    2           5        -5   # BR(A -> b       bb     )
     7.17070790E-02    2         -15        15   # BR(A -> tau+    tau-   )
     2.63174111E-04    2         -13        13   # BR(A -> mu+     mu-    )
     1.09924182E-04    2           3        -3   # BR(A -> s       sb     )
     2.40372811E-07    2           4        -4   # BR(A -> c       cb     )
     2.36165396E-02    2           6        -6   # BR(A -> t       tb     )
     4.24626571E-05    2          21        21   # BR(A -> g       g      )
     2.97403093E-08    2          22        22   # BR(A -> gam     gam    )
     4.34619305E-08    2          23        22   # BR(A -> Z       gam    )
     5.97607413E-06    2          23        25   # BR(A -> Z       h      )
     2.96671410E-03    2     1000024  -1000024   # BR(A -> ~chi_1+ ~chi_1-)
     1.74685488E-01    2     1000024  -1000037   # BR(A -> ~chi_1+ ~chi_2-)
     1.74685488E-01    2     1000037  -1000024   # BR(A -> ~chi_2+ ~chi_1-)
     1.48303174E-03    2     1000022   1000022   # BR(A -> ~chi_10 ~chi_10)
     9.05460831E-02    2     1000022   1000023   # BR(A -> ~chi_10 ~chi_20)
     8.43778370E-02    2     1000022   1000025   # BR(A -> ~chi_10 ~chi_30)
#
#         PDG            Width
DECAY        37     2.16656400E+01   # H+ decays
#          BR         NDA      ID1       ID2
     5.73216715E-04    2           4        -5   # BR(H+ -> c       bb     )
     7.59013466E-02    2         -15        16   # BR(H+ -> tau+    nu_tau )
     2.78567608E-04    2         -13        14   # BR(H+ -> mu+     nu_mu  )
     5.73215734E-06    2           2        -5   # BR(H+ -> u       bb     )
     5.81891284E-06    2           2        -3   # BR(H+ -> u       sb     )
     1.14777825E-04    2           4        -3   # BR(H+ -> c       sb     )
     3.65170136E-01    2           6        -5   # BR(H+ -> t       bb     )
     6.33371941E-06    2          24        25   # BR(H+ -> W+      h      )
     1.64110804E-13    2          24        36   # BR(H+ -> W+      A      )
     1.76487684E-11    2     1000024   1000022   # BR(H+ -> ~chi_1+ ~chi_10)
     1.86412189E-01    2     1000024   1000023   # BR(H+ -> ~chi_1+ ~chi_20)
     1.85694420E-01    2     1000024   1000025   # BR(H+ -> ~chi_1+ ~chi_30)
     1.85824969E-01    2     1000037   1000022   # BR(H+ -> ~chi_2+ ~chi_10)
     6.24624092E-06    2    -1000011   1000012   # BR(H+ -> ~e_L+   ~nu_eL )
     6.24624092E-06    2    -1000013   1000014   # BR(H+ -> ~mu_L+  ~nu_muL)
