#
#                              ======================
#                              | THE SUSYHIT OUTPUT |
#                              ======================
#
#
#              ------------------------------------------------------
#              |     This is the output of the SUSY-HIT package     |
#              |  created by A.Djouadi, M.Muehlleitner and M.Spira. |
#              |  In case of problems with SUSY-HIT email to        |
#              |           margarete.muehlleitner@cern.ch           |
#              |           michael.spira@psi.ch                     |
#              |           abdelhak.djouadi@cern.ch                 |
#              ------------------------------------------------------
#
#              ------------------------------------------------------
#              |  SUSY Les Houches Accord - MSSM Spectrum + Decays  |
#              |              based on the decay programs           |
#              |                                                    |
#              |                     SDECAY 1.3b                    |
#              |                                                    |
#              |  Authors: M.Muhlleitner, A.Djouadi and Y.Mambrini  |
#              |  Ref.:    Comput.Phys.Commun.168(2005)46           |
#              |           [hep-ph/0311167]                         |
#              |                                                    |
#              |                     HDECAY 3.4                     |
#              |                                                    |
#              |  By: A.Djouadi,J.Kalinowski,M.Muhlleitner,M.Spira  |
#              |  Ref.:    Comput.Phys.Commun.108(1998)56           |
#              |           [hep-ph/9704448]                         |
#              |                                                    |
#              |                                                    |
#              |  If not stated otherwise all DRbar couplings and   |
#              |  soft SUSY breaking masses are given at the scale  |
#              |  Q=  0.23589190E+04
#              |                                                    |
#              ------------------------------------------------------
#
#
BLOCK DCINFO  # Decay Program information
     1   SDECAY/HDECAY # decay calculator
     2   1.3b  /3.4    # version number
#
BLOCK SPINFO  # Spectrum calculator information
     1     SOFTSUSY    # spectrum calculator               
     2     3.4.0       # version number                    
#
BLOCK MODSEL  # Model selection
     1     0   #  nonUniversal                                     
#
BLOCK SMINPUTS  # Standard Model inputs
         1     1.27908970E+02   # alpha_em^-1(M_Z)^MSbar
         2     1.16637870E-05   # G_F [GeV^-2]
         3     1.18400000E-01   # alpha_S(M_Z)^MSbar
         4     9.11876000E+01   # M_Z pole mass
         5     4.18000000E+00   # mb(mb)^MSbar
         6     1.73200000E+02   # mt pole mass
         7     1.77700000E+00   # mtau pole mass
#
BLOCK MINPAR  # Input parameters - minimal models
         3     1.77200000E+01   # tanb                
#
BLOCK EXTPAR  # Input parameters - non-minimal models
         0    -1.00000000E+00   # Set                 
         1     2.50079000E+03   # M_1(MX)             
         2    -1.73390000E+02   # M_2(MX)             
         3     1.99127000E+03   # M_3(MX)             
        11     3.60989000E+03   # At(MX)              
        12    -1.60952000E+03   # Ab(MX)              
        13     1.54777000E+03   # Atau(MX)            
        23    -9.99210000E+02   # mu(MX)              
        26     3.13862000E+03   # mA(pole)            
        31     3.37276000E+03   # meL(MX)             
        32     3.37276000E+03   # mmuL(MX)            
        33     1.53058000E+03   # mtauL(MX)           
        34     3.55923000E+03   # meR(MX)             
        35     3.55923000E+03   # mmuR(MX)            
        36     2.05344000E+03   # mtauR(MX)           
        41     1.84664000E+03   # mqL1(MX)            
        42     1.84664000E+03   # mqL2(MX)            
        43     3.89428000E+03   # mqL3(MX)            
        44     1.25465000E+03   # muR(MX)             
        45     1.25465000E+03   # mcR(MX)             
        46     1.42765000E+03   # mtR(MX)             
        47     2.90555000E+03   # mdR(MX)             
        48     2.90555000E+03   # msR(MX)             
        49     2.85415000E+03   # mbR(MX)             
#
BLOCK MASS  # Mass Spectrum
# PDG code           mass       particle
        24     8.03936553E+01   # W+
        25     1.26913929E+02   # h
        35     3.13862576E+03   # H
        36     3.13861998E+03   # A
        37     3.13978174E+03   # H+
         5     4.81876030E+00   # b-quark pole mass calculated from mb(mb)_Msbar
   1000001     1.93636490E+03   # ~d_L
   2000001     2.95761664E+03   # ~d_R
   1000002     1.93487514E+03   # ~u_L
   2000002     1.36505996E+03   # ~u_R
   1000003     1.93636490E+03   # ~s_L
   2000003     2.95761664E+03   # ~s_R
   1000004     1.93487514E+03   # ~c_L
   2000004     1.36505996E+03   # ~c_R
   1000005     2.90547254E+03   # ~b_1
   2000005     3.91881360E+03   # ~b_2
   1000006     1.52826832E+03   # ~t_1
   2000006     3.92353683E+03   # ~t_2
   1000011     3.38009822E+03   # ~e_L
   2000011     3.56464081E+03   # ~e_R
   1000012     3.37884626E+03   # ~nu_eL
   1000013     3.38009822E+03   # ~mu_L
   2000013     3.56464081E+03   # ~mu_R
   1000014     3.37884626E+03   # ~nu_muL
   1000015     1.53491395E+03   # ~tau_1
   2000015     2.06168095E+03   # ~tau_2
   1000016     1.53275195E+03   # ~nu_tauL
   1000021     2.13309447E+03   # ~g
   1000022    -1.85386655E+02   # ~chi_10
   1000023     1.03031358E+03   # ~chi_20
   1000025    -1.03279965E+03   # ~chi_30
   1000035     2.47191367E+03   # ~chi_40
   1000024     1.85549685E+02   # ~chi_1+
   1000037     1.03518048E+03   # ~chi_2+
#
BLOCK NMIX  # Neutralino Mixing Matrix
  1  1     3.94596992E-04   # N_11
  1  2     9.96730862E-01   # N_12
  1  3     7.86440861E-02   # N_13
  1  4    -1.85078785E-02   # N_14
  2  1    -2.03310800E-02   # N_21
  2  2    -4.25423039E-02   # N_22
  2  3     7.05659635E-01   # N_23
  2  4     7.06980395E-01   # N_24
  3  1     9.51038173E-03   # N_31
  3  2    -6.86831542E-02   # N_32
  3  3     7.04131739E-01   # N_33
  3  4    -7.06675789E-01   # N_34
  4  1     9.99747990E-01   # N_41
  4  2    -6.05187482E-04   # N_42
  4  3     7.62114873E-03   # N_43
  4  4     2.11070538E-02   # N_44
#
BLOCK UMIX  # Chargino Mixing Matrix U
  1  1     9.93828341E-01   # U_11
  1  2     1.10928935E-01   # U_12
  2  1    -1.10928935E-01   # U_21
  2  2     9.93828341E-01   # U_22
#
BLOCK VMIX  # Chargino Mixing Matrix V
  1  1    -9.99658473E-01   # V_11
  1  2    -2.61330732E-02   # V_12
  2  1     2.61330732E-02   # V_21
  2  2    -9.99658473E-01   # V_22
#
BLOCK STOPMIX  # Stop Mixing Matrix
  1  1    -3.92296280E-02   # cos(theta_t)
  1  2     9.99230222E-01   # sin(theta_t)
  2  1    -9.99230222E-01   # -sin(theta_t)
  2  2    -3.92296280E-02   # cos(theta_t)
#
BLOCK SBOTMIX  # Sbottom Mixing Matrix
  1  1    -5.41519049E-03   # cos(theta_b)
  1  2     9.99985338E-01   # sin(theta_b)
  2  1    -9.99985338E-01   # -sin(theta_b)
  2  2    -5.41519049E-03   # cos(theta_b)
#
BLOCK STAUMIX  # Stau Mixing Matrix
  1  1     9.99841692E-01   # cos(theta_tau)
  1  2    -1.77930025E-02   # sin(theta_tau)
  2  1     1.77930025E-02   # -sin(theta_tau)
  2  2     9.99841692E-01   # cos(theta_tau)
#
BLOCK ALPHA  # Higgs mixing
          -5.89877071E-02   # Mixing angle in the neutral Higgs boson sector
#
BLOCK HMIX Q=  2.35891900E+03  # DRbar Higgs Parameters
         1    -1.01568979E+03   # mu(Q)MSSM           
         2     1.69698822E+01   # tan                 
         3     2.42126282E+02   # higgs               
         4     1.02002923E+07   # mA^2(Q)MSSM         
#
BLOCK GAUGE Q=  2.35891900E+03  # The gauge couplings
     1     3.64278160E-01   # gprime(Q) DRbar
     2     6.41896568E-01   # g(Q) DRbar
     3     1.02398775E+00   # g3(Q) DRbar
#
BLOCK AU Q=  2.35891900E+03  # The trilinear couplings
  1  1     0.00000000E+00   # A_u(Q) DRbar
  2  2     0.00000000E+00   # A_c(Q) DRbar
  3  3     3.60989001E+03   # A_t(Q) DRbar
#
BLOCK AD Q=  2.35891900E+03  # The trilinear couplings
  1  1     0.00000000E+00   # A_d(Q) DRbar
  2  2     0.00000000E+00   # A_s(Q) DRbar
  3  3    -1.60952000E+03   # A_b(Q) DRbar
#
BLOCK AE Q=  2.35891900E+03  # The trilinear couplings
  1  1     0.00000000E+00   # A_e(Q) DRbar
  2  2     0.00000000E+00   # A_mu(Q) DRbar
  3  3     1.54777000E+03   # A_tau(Q) DRbar
#
BLOCK Yu Q=  2.35891900E+03  # The Yukawa couplings
  1  1     0.00000000E+00   # y_u(Q) DRbar
  2  2     0.00000000E+00   # y_c(Q) DRbar
  3  3     8.47297816E-01   # y_t(Q) DRbar
#
BLOCK Yd Q=  2.35891900E+03  # The Yukawa couplings
  1  1     0.00000000E+00   # y_d(Q) DRbar
  2  2     0.00000000E+00   # y_s(Q) DRbar
  3  3     2.43404163E-01   # y_b(Q) DRbar
#
BLOCK Ye Q=  2.35891900E+03  # The Yukawa couplings
  1  1     0.00000000E+00   # y_e(Q) DRbar
  2  2     0.00000000E+00   # y_mu(Q) DRbar
  3  3     1.75281444E-01   # y_tau(Q) DRbar
#
BLOCK MSOFT Q=  2.35891900E+03  # The soft SUSY breaking masses at the scale Q
         1     2.50079000E+03   # M_1(Q)              
         2    -1.73390000E+02   # M_2(Q)              
         3     1.99127000E+03   # M_3(Q)              
        21     8.77195249E+06   # mH1^2(Q)            
        22    -1.03926130E+06   # mH2^2(Q)            
        31     3.37276000E+03   # meL(Q)              
        32     3.37276000E+03   # mmuL(Q)             
        33     1.53058000E+03   # mtauL(Q)            
        34     3.55923000E+03   # meR(Q)              
        35     3.55923000E+03   # mmuR(Q)             
        36     2.05344000E+03   # mtauR(Q)            
        41     1.84664000E+03   # mqL1(Q)             
        42     1.84664000E+03   # mqL2(Q)             
        43     3.89428000E+03   # mqL3(Q)             
        44     1.25464999E+03   # muR(Q)              
        45     1.25464999E+03   # mcR(Q)              
        46     1.42764999E+03   # mtR(Q)              
        47     2.90555000E+03   # mdR(Q)              
        48     2.90555000E+03   # msR(Q)              
        49     2.85415000E+03   # mbR(Q)              
#
Block HiggsBoundsInputHiggsCouplingsFermions
# ScalarNormEffCoupSq PseudoSNormEffCoupSq NP   IP1 IP2 IP2
    1.00434376E+00    0.00000000E+00        3  25   5   5  # h0-b-b eff. coupling^2, normalised to SM
    2.87972558E+02    0.00000000E+00        3  35   5   5  # H0-b-b eff. coupling^2, normalised to SM
    0.00000000E+00    2.87976902E+02        3  36   5   5  # A0-b-b eff. coupling^2, normalised to SM
#
    9.99984916E-01    0.00000000E+00        3  25   6   6  # h0-t-t eff. coupling^2, normalised to SM
    3.48758444E-03    0.00000000E+00        3  35   6   6  # H0-t-t eff. coupling^2, normalised to SM
    0.00000000E+00    3.47250072E-03        3  36   6   6  # A0-t-t eff. coupling^2, normalised to SM
#
    1.00434376E+00    0.00000000E+00        3  25  15  15  # h0-tau-tau eff. coupling^2, normalised to SM
    2.87972558E+02    0.00000000E+00        3  35  15  15  # H0-tau-tau eff. coupling^2, normalised to SM
    0.00000000E+00    2.87976902E+02        3  36  15  15  # A0-tau-tau eff. coupling^2, normalised to SM
#
Block HiggsBoundsInputHiggsCouplingsBosons
    9.99999984E-01        3  25  24  24  # h0-W-W eff. coupling^2, normalised to SM
    1.63446558E-08        3  35  24  24  # H0-W-W eff. coupling^2, normalised to SM
    0.00000000E+00        3  36  24  24  # A0-W-W eff. coupling^2, normalised to SM
#
    9.99999984E-01        3  25  23  23  # h0-Z-Z eff. coupling^2, normalised to SM
    1.63446558E-08        3  35  23  23  # H0-Z-Z eff. coupling^2, normalised to SM
    0.00000000E+00        3  36  23  23  # A0-Z-Z eff. coupling^2, normalised to SM
#
    8.89766289E-01        3  25  21  21  # h0-g-g eff. coupling^2, normalised to SM
    2.58367540E-14        3  35  21  21  # H0-g-g eff. coupling^2, normalised to SM
    8.47467721E-13        3  36  21  21  # A0-g-g eff. coupling^2, normalised to SM
#
    0.00000000E+00        3  25  25  23  # h0-h0-Z eff. coupling^2, normalised to SM
    0.00000000E+00        3  35  25  23  # H0-h0-Z eff. coupling^2, normalised to SM
    1.63446558E-08        3  36  25  23  # A0-h0-Z eff. coupling^2, normalised to SM
    0.00000000E+00        3  35  35  23  # H0-H0-Z eff. coupling^2, normalised to SM
    9.99999984E-01        3  36  35  23  # A0-H0-Z eff. coupling^2, normalised to SM
    0.00000000E+00        3  36  36  23  # A0-A0-Z eff. coupling^2, normalised to SM
#
    0.00000000E+00        4  25  21  21  23  # h0-g-g-Z eff. coupling^2, normalised to SM
    0.00000000E+00        4  35  21  21  23  # H0-g-g-Z eff. coupling^2, normalised to SM
    0.00000000E+00        4  36  21  21  23  # A0-g-g-Z eff. coupling^2, normalised to SM
#
#
#
#                             =================
#                             |The decay table|
#                             =================
#
# - The QCD corrections to the decays gluino -> squark  + quark
#                                     squark -> gaugino + quark_prime
#                                     squark -> squark_prime + Higgs
#                                     squark -> gluino  + quark
#   are included.
#
# - The multi-body decays for the inos, stops and sbottoms are included.
#
# - The loop induced decays for the gluino, neutralinos and stops
#   are included.
#
# - The SUSY decays of the top quark are included.
#
#
#         PDG            Width
DECAY         6     1.45094381E+00   # top decays
#          BR         NDA      ID1       ID2
     1.00000000E+00    2           5        24   # BR(t ->  b    W+)
#
#         PDG            Width
DECAY   1000021     4.65859488E+01   # gluino decays
#          BR         NDA      ID1       ID2
     1.48216650E-02    2     1000001        -1   # BR(~g -> ~d_L  db)
     1.48216650E-02    2    -1000001         1   # BR(~g -> ~d_L* d )
     1.50359780E-02    2     1000002        -2   # BR(~g -> ~u_L  ub)
     1.50359780E-02    2    -1000002         2   # BR(~g -> ~u_L* u )
     1.66925889E-01    2     2000002        -2   # BR(~g -> ~u_R  ub)
     1.66925889E-01    2    -2000002         2   # BR(~g -> ~u_R* u )
     1.48216650E-02    2     1000003        -3   # BR(~g -> ~s_L  sb)
     1.48216650E-02    2    -1000003         3   # BR(~g -> ~s_L* s )
     1.50355358E-02    2     1000004        -4   # BR(~g -> ~c_L  cb)
     1.50355358E-02    2    -1000004         4   # BR(~g -> ~c_L* c )
     1.66925669E-01    2     2000004        -4   # BR(~g -> ~c_R  cb)
     1.66925669E-01    2    -2000004         4   # BR(~g -> ~c_R* c )
     1.06433598E-01    2     1000006        -6   # BR(~g -> ~t_1  tb)
     1.06433598E-01    2    -1000006         6   # BR(~g -> ~t_1* t )
#
#         PDG            Width
DECAY   1000006     1.23507623E+01   # stop1 decays
#          BR         NDA      ID1       ID2
     2.59718909E-03    2     1000022         6   # BR(~t_1 -> ~chi_10 t )
     2.44357368E-01    2     1000023         6   # BR(~t_1 -> ~chi_20 t )
     2.32094985E-01    2     1000025         6   # BR(~t_1 -> ~chi_30 t )
     5.34835495E-03    2     1000024         5   # BR(~t_1 -> ~chi_1+ b )
     5.15602103E-01    2     1000037         5   # BR(~t_1 -> ~chi_2+ b )
#
#         PDG            Width
DECAY   2000006     2.47701083E+02   # stop2 decays
#          BR         NDA      ID1       ID2
     6.37533668E-02    2     1000022         6   # BR(~t_2 -> ~chi_10 t )
     9.74983571E-02    2     1000023         6   # BR(~t_2 -> ~chi_20 t )
     9.85405386E-02    2     1000025         6   # BR(~t_2 -> ~chi_30 t )
     8.36719065E-04    2     1000035         6   # BR(~t_2 -> ~chi_40 t )
     1.28850768E-01    2     1000024         5   # BR(~t_2 -> ~chi_1+ b )
     1.66236585E-02    2     1000037         5   # BR(~t_2 -> ~chi_2+ b )
     4.36122189E-01    2     1000021         6   # BR(~t_2 -> ~g      t )
     8.30363949E-02    2     1000006        25   # BR(~t_2 -> ~t_1    h )
     7.43249429E-02    2     1000006        23   # BR(~t_2 -> ~t_1    Z )
     4.13064298E-04    2     1000005        24   # BR(~t_2 -> ~b_1    W+)
#
#         PDG            Width
DECAY   1000005     3.96939559E+01   # sbottom1 decays
#          BR         NDA      ID1       ID2
     6.73365902E-04    2     1000022         5   # BR(~b_1 -> ~chi_10 b )
     3.28217894E-02    2     1000023         5   # BR(~b_1 -> ~chi_20 b )
     3.25816063E-02    2     1000025         5   # BR(~b_1 -> ~chi_30 b )
     3.27258256E-03    2     1000035         5   # BR(~b_1 -> ~chi_40 b )
     1.32997876E-03    2    -1000024         6   # BR(~b_1 -> ~chi_1- t )
     6.40442192E-02    2    -1000037         6   # BR(~b_1 -> ~chi_2- t )
     8.65269803E-01    2     1000021         5   # BR(~b_1 -> ~g      b )
     6.65481454E-06    2     1000006       -24   # BR(~b_1 -> ~t_1    W-)
#
#         PDG            Width
DECAY   2000005     2.44193974E+02   # sbottom2 decays
#          BR         NDA      ID1       ID2
     6.51260290E-02    2     1000022         5   # BR(~b_2 -> ~chi_10 b )
     8.25302089E-03    2     1000023         5   # BR(~b_2 -> ~chi_20 b )
     8.42287177E-03    2     1000025         5   # BR(~b_2 -> ~chi_30 b )
     8.59261436E-04    2     1000035         5   # BR(~b_2 -> ~chi_40 b )
     1.28893767E-01    2    -1000024         6   # BR(~b_2 -> ~chi_1- t )
     1.99593471E-01    2    -1000037         6   # BR(~b_2 -> ~chi_2- t )
     4.42086120E-01    2     1000021         5   # BR(~b_2 -> ~g      b )
     2.31963030E-04    2     1000005        25   # BR(~b_2 -> ~b_1    h )
     2.12334873E-04    2     1000005        23   # BR(~b_2 -> ~b_1    Z )
     1.46321161E-01    2     1000006       -24   # BR(~b_2 -> ~t_1    W-)
#
#         PDG            Width
DECAY   1000002     2.27545170E+01   # sup_L decays
#          BR         NDA      ID1       ID2
     3.31606284E-01    2     1000022         2   # BR(~u_L -> ~chi_10 u)
     3.78303874E-04    2     1000023         2   # BR(~u_L -> ~chi_20 u)
     7.83472454E-04    2     1000025         2   # BR(~u_L -> ~chi_30 u)
     6.66993595E-01    2     1000024         1   # BR(~u_L -> ~chi_1+ d)
     2.38344880E-04    2     1000037         1   # BR(~u_L -> ~chi_2+ d)
#
#         PDG            Width
DECAY   2000002     3.03809730E-04   # sup_R decays
#           BR         NDA      ID1       ID2
     1.58277883E-03    2     1000022         2   # BR(~u_R -> ~chi_10 u)
     8.21025649E-01    2     1000023         2   # BR(~u_R -> ~chi_20 u)
     1.77391572E-01    2     1000025         2   # BR(~u_R -> ~chi_30 u)
#
#         PDG            Width
DECAY   1000001     2.26838115E+01   # sdown_L decays
#          BR         NDA      ID1       ID2
     3.32778976E-01    2     1000022         1   # BR(~d_L -> ~chi_10 d)
     2.64569999E-04    2     1000023         1   # BR(~d_L -> ~chi_20 d)
     8.74415095E-04    2     1000025         1   # BR(~d_L -> ~chi_30 d)
     6.61765868E-01    2    -1000024         2   # BR(~d_L -> ~chi_1- u)
     4.31617035E-03    2    -1000037         2   # BR(~d_L -> ~chi_2- u)
#
#         PDG            Width
DECAY   2000001     5.46823038E+01   # sdown_R decays
#          BR         NDA      ID1       ID2
     4.67878445E-09    2     1000022         1   # BR(~d_R -> ~chi_10 d)
     9.71860466E-06    2     1000023         1   # BR(~d_R -> ~chi_20 d)
     2.12376395E-06    2     1000025         1   # BR(~d_R -> ~chi_30 d)
     2.85143480E-03    2     1000035         1   # BR(~d_R -> ~chi_40 d)
     9.97136718E-01    2     1000021         1   # BR(~d_R -> ~g      d)
#
#         PDG            Width
DECAY   1000004     2.33273545E+01   # scharm_L decays
#          BR         NDA      ID1       ID2
     3.31609786E-01    2     1000022         4   # BR(~c_L -> ~chi_10 c)
     3.75493451E-04    2     1000023         4   # BR(~c_L -> ~chi_20 c)
     7.77622646E-04    2     1000025         4   # BR(~c_L -> ~chi_30 c)
     6.67000541E-01    2     1000024         3   # BR(~c_L -> ~chi_1+ s)
     2.36557258E-04    2     1000037         3   # BR(~c_L -> ~chi_2+ s)
#
#         PDG            Width
DECAY   2000004     2.98623673E-04   # scharm_R decays
#           BR         NDA      ID1       ID2
     1.60919444E-03    2     1000022         4   # BR(~c_R -> ~chi_10 c)
     8.21029173E-01    2     1000023         4   # BR(~c_R -> ~chi_20 c)
     1.77361632E-01    2     1000025         4   # BR(~c_R -> ~chi_30 c)
#
#         PDG            Width
DECAY   1000003     2.32560367E+01   # sstrange_L decays
#          BR         NDA      ID1       ID2
     3.32793064E-01    2     1000022         3   # BR(~s_L -> ~chi_10 s)
     2.62614604E-04    2     1000023         3   # BR(~s_L -> ~chi_20 s)
     8.67919715E-04    2     1000025         3   # BR(~s_L -> ~chi_30 s)
     6.61792456E-01    2    -1000024         4   # BR(~s_L -> ~chi_1- c)
     4.28394578E-03    2    -1000037         4   # BR(~s_L -> ~chi_2- c)
#
#         PDG            Width
DECAY   2000003     3.80395458E+01   # sstrange_R decays
#          BR         NDA      ID1       ID2
     7.04658443E-09    2     1000022         3   # BR(~s_R -> ~chi_10 s)
     1.45558964E-05    2     1000023         3   # BR(~s_R -> ~chi_20 s)
     3.18078363E-06    2     1000025         3   # BR(~s_R -> ~chi_30 s)
     4.14352587E-03    2     1000035         3   # BR(~s_R -> ~chi_40 s)
     9.95838730E-01    2     1000021         3   # BR(~s_R -> ~g      s)
#
#         PDG            Width
DECAY   1000011     4.22097740E+01   # selectron_L decays
#          BR         NDA      ID1       ID2
     3.24250540E-01    2     1000022        11   # BR(~e_L -> ~chi_10 e-)
     7.89807155E-04    2     1000023        11   # BR(~e_L -> ~chi_20 e-)
     1.08050997E-03    2     1000025        11   # BR(~e_L -> ~chi_30 e-)
     2.28127758E-02    2     1000035        11   # BR(~e_L -> ~chi_40 e-)
     6.44433208E-01    2    -1000024        12   # BR(~e_L -> ~chi_1- nu_e)
     6.63315918E-03    2    -1000037        12   # BR(~e_L -> ~chi_2- nu_e)
#
#         PDG            Width
DECAY   2000011     5.07742755E+00   # selectron_R decays
#          BR         NDA      ID1       ID2
     5.74054995E-07    2     1000022        11   # BR(~e_R -> ~chi_10 e-)
     1.28689774E-03    2     1000023        11   # BR(~e_R -> ~chi_20 e-)
     2.81343177E-04    2     1000025        11   # BR(~e_R -> ~chi_30 e-)
     9.98431185E-01    2     1000035        11   # BR(~e_R -> ~chi_40 e-)
#
#         PDG            Width
DECAY   1000013     4.22097740E+01   # smuon_L decays
#          BR         NDA      ID1       ID2
     3.24250539E-01    2     1000022        13   # BR(~mu_L -> ~chi_10 mu-)
     7.89807153E-04    2     1000023        13   # BR(~mu_L -> ~chi_20 mu-)
     1.08050997E-03    2     1000025        13   # BR(~mu_L -> ~chi_30 mu-)
     2.28127756E-02    2     1000035        13   # BR(~mu_L -> ~chi_40 mu-)
     6.44433209E-01    2    -1000024        14   # BR(~mu_L -> ~chi_1- nu_mu)
     6.63315919E-03    2    -1000037        14   # BR(~mu_L -> ~chi_2- nu_mu)
#
#         PDG            Width
DECAY   2000013     5.07742751E+00   # smuon_R decays
#          BR         NDA      ID1       ID2
     5.74054997E-07    2     1000022        13   # BR(~mu_R -> ~chi_10 mu-)
     1.28689774E-03    2     1000023        13   # BR(~mu_R -> ~chi_20 mu-)
     2.81343178E-04    2     1000025        13   # BR(~mu_R -> ~chi_30 mu-)
     9.98431185E-01    2     1000035        13   # BR(~mu_R -> ~chi_40 mu-)
#
#         PDG            Width
DECAY   1000015     1.84910826E+01   # stau_1 decays
#          BR         NDA      ID1       ID2
     3.28901245E-01    2     1000022        15   # BR(~tau_1 -> ~chi_10  tau-)
     7.88802966E-03    2     1000023        15   # BR(~tau_1 -> ~chi_20  tau-)
     7.87750291E-03    2     1000025        15   # BR(~tau_1 -> ~chi_30  tau-)
     6.53057550E-01    2    -1000024        16   # BR(~tau_1 -> ~chi_1-  nu_tau)
     2.27567192E-03    2    -1000037        16   # BR(~tau_1 -> ~chi_2-  nu_tau)
#
#         PDG            Width
DECAY   2000015     1.72834796E+00   # stau_2 decays
#          BR         NDA      ID1       ID2
     7.71653402E-04    2     1000022        15   # BR(~tau_2 -> ~chi_10  tau-)
     2.06688222E-01    2     1000023        15   # BR(~tau_2 -> ~chi_20  tau-)
     2.05139979E-01    2     1000025        15   # BR(~tau_2 -> ~chi_30  tau-)
     1.52807791E-03    2    -1000024        16   # BR(~tau_2 -> ~chi_1-  nu_tau)
     4.08553483E-01    2    -1000037        16   # BR(~tau_2 -> ~chi_2-  nu_tau)
     8.78862240E-02    2     1000016       -24   # BR(~tau_2 -> ~nu_tauL W-)
     4.52410744E-02    2     1000015        25   # BR(~tau_2 -> ~tau_1   h)
     4.41912862E-02    2     1000015        23   # BR(~tau_2 -> ~tau_1   Z)
#
#         PDG            Width
DECAY   1000012     4.22342432E+01   # snu_eL decays
#          BR         NDA      ID1       ID2
     3.23650212E-01    2     1000022        12   # BR(~nu_eL -> ~chi_10 nu_e)
     2.59304832E-04    2     1000023        12   # BR(~nu_eL -> ~chi_20 nu_e)
     1.47890593E-03    2     1000025        12   # BR(~nu_eL -> ~chi_30 nu_e)
     2.28495718E-02    2     1000035        12   # BR(~nu_eL -> ~chi_40 nu_e)
     6.51394272E-01    2     1000024        11   # BR(~nu_eL -> ~chi_1+ e-)
     3.67732901E-04    2     1000037        11   # BR(~nu_eL -> ~chi_2+ e-)
#
#         PDG            Width
DECAY   1000014     4.22342432E+01   # snu_muL decays
#          BR         NDA      ID1       ID2
     3.23650213E-01    2     1000022        14   # BR(~nu_muL -> ~chi_10 nu_mu)
     2.59304832E-04    2     1000023        14   # BR(~nu_muL -> ~chi_20 nu_mu)
     1.47890593E-03    2     1000025        14   # BR(~nu_muL -> ~chi_30 nu_mu)
     2.28495718E-02    2     1000035        14   # BR(~nu_muL -> ~chi_40 nu_mu)
     6.51394272E-01    2     1000024        13   # BR(~nu_muL -> ~chi_1+ mu-)
     3.67732901E-04    2     1000037        13   # BR(~nu_muL -> ~chi_2+ mu-)
#
#         PDG            Width
DECAY   1000016     1.85467439E+01   # snu_tauL decays
#          BR         NDA      ID1       ID2
     3.26583846E-01    2     1000022        16   # BR(~nu_tauL -> ~chi_10 nu_tau)
     9.78312107E-05    2     1000023        16   # BR(~nu_tauL -> ~chi_20 nu_tau)
     5.54078550E-04    2     1000025        16   # BR(~nu_tauL -> ~chi_30 nu_tau)
     6.57861617E-01    2     1000024        15   # BR(~nu_tauL -> ~chi_1+ tau-)
     1.49026270E-02    2     1000037        15   # BR(~nu_tauL -> ~chi_2+ tau-)
#
#         PDG            Width
DECAY   1000024     3.42505280E-15   # chargino1+ decays
#           BR         NDA      ID1       ID2       ID3
     1.96450050E-02    3     1000022       -11        12   # BR(~chi_1+ -> ~chi_10 e+   nu_e)
     2.11701370E-03    3     1000022       -13        14   # BR(~chi_1+ -> ~chi_10 mu+  nu_mu)
     9.78237980E-01    2     1000022       211             # BR(~chi_1+ -> ~chi_10 pi+)
#
#         PDG            Width
DECAY   1000037     6.25154918E+00   # chargino2+ decays
#          BR         NDA      ID1       ID2
     3.35033896E-01    2     1000024        23   # BR(~chi_2+ -> ~chi_1+  Z )
     3.28155064E-01    2     1000022        24   # BR(~chi_2+ -> ~chi_10  W+)
     3.36811040E-01    2     1000024        25   # BR(~chi_2+ -> ~chi_1+  h )
#
#         PDG            Width
DECAY   1000022     0.00000000E+00   # neutralino1 decays
#
#         PDG            Width
DECAY   1000023     6.16886857E+00   # neutralino2 decays
#          BR         NDA      ID1       ID2
     2.43898123E-01    2     1000022        23   # BR(~chi_20 -> ~chi_10   Z )
     3.31069418E-01    2     1000024       -24   # BR(~chi_20 -> ~chi_1+   W-)
     3.31069418E-01    2    -1000024        24   # BR(~chi_20 -> ~chi_1-   W+)
     9.39630420E-02    2     1000022        25   # BR(~chi_20 -> ~chi_10   h )
#
#         PDG            Width
DECAY   1000025     6.23204062E+00   # neutralino3 decays
#          BR         NDA      ID1       ID2
     9.42094741E-02    2     1000022        23   # BR(~chi_30 -> ~chi_10   Z )
     3.30251637E-01    2     1000024       -24   # BR(~chi_30 -> ~chi_1+   W-)
     3.30251637E-01    2    -1000024        24   # BR(~chi_30 -> ~chi_1-   W+)
     2.45287253E-01    2     1000022        25   # BR(~chi_30 -> ~chi_10   h )
#
#         PDG            Width
DECAY   1000035     3.24969480E+01   # neutralino4 decays
#          BR         NDA      ID1       ID2
     1.45845105E-04    2     1000022        23   # BR(~chi_40 -> ~chi_10   Z )
     7.82069236E-03    2     1000023        23   # BR(~chi_40 -> ~chi_20   Z )
     3.48600114E-02    2     1000025        23   # BR(~chi_40 -> ~chi_30   Z )
     2.86911329E-04    2     1000024       -24   # BR(~chi_40 -> ~chi_1+   W-)
     2.86911329E-04    2    -1000024        24   # BR(~chi_40 -> ~chi_1-   W+)
     4.14690201E-02    2     1000037       -24   # BR(~chi_40 -> ~chi_2+   W-)
     4.14690201E-02    2    -1000037        24   # BR(~chi_40 -> ~chi_2-   W+)
     1.49540388E-04    2     1000022        25   # BR(~chi_40 -> ~chi_10   h )
     3.66974640E-02    2     1000023        25   # BR(~chi_40 -> ~chi_20   h )
     7.69709342E-03    2     1000025        25   # BR(~chi_40 -> ~chi_30   h )
     2.43981116E-03    2     1000002        -2   # BR(~chi_40 -> ~u_L      ub)
     2.43981116E-03    2    -1000002         2   # BR(~chi_40 -> ~u_L*     u )
     1.24294761E-01    2     2000002        -2   # BR(~chi_40 -> ~u_R      ub)
     1.24294761E-01    2    -2000002         2   # BR(~chi_40 -> ~u_R*     u )
     2.45942092E-03    2     1000001        -1   # BR(~chi_40 -> ~d_L      db)
     2.45942092E-03    2    -1000001         1   # BR(~chi_40 -> ~d_L*     d )
     2.43980263E-03    2     1000004        -4   # BR(~chi_40 -> ~c_L      cb)
     2.43980263E-03    2    -1000004         4   # BR(~chi_40 -> ~c_L*     c )
     1.24294693E-01    2     2000004        -4   # BR(~chi_40 -> ~c_R      cb)
     1.24294693E-01    2    -2000004         4   # BR(~chi_40 -> ~c_R*     c )
     2.45942092E-03    2     1000003        -3   # BR(~chi_40 -> ~s _L      sb)
     2.45942092E-03    2    -1000003         3   # BR(~chi_40 -> ~s _L*     s )
     9.96097431E-02    2     1000006        -6   # BR(~chi_40 -> ~t_1      tb)
     9.96097431E-02    2    -1000006         6   # BR(~chi_40 -> ~t_1*     t )
     1.89205791E-02    2     1000015       -15   # BR(~chi_40 -> ~tau_1-   tau+)
     1.89205791E-02    2    -1000015        15   # BR(~chi_40 -> ~tau_1+   tau-)
     1.85896651E-02    2     2000015       -15   # BR(~chi_40 -> ~tau_2-   tau+)
     1.85896651E-02    2    -2000015        15   # BR(~chi_40 -> ~tau_2+   tau-)
     1.90508483E-02    2     1000016       -16   # BR(~chi_40 -> ~nu_tau1  nu_taub)
     1.90508483E-02    2    -1000016        16   # BR(~chi_40 -> ~nu_tau1* nu_tau )
#
#         PDG            Width
DECAY        25     4.23214734E-03   # h decays
#          BR         NDA      ID1       ID2
     5.58164103E-01    2           5        -5   # BR(h -> b       bb     )
     6.23447431E-02    2         -15        15   # BR(h -> tau+    tau-   )
     2.20672491E-04    2         -13        13   # BR(h -> mu+     mu-    )
     2.40227190E-04    2           3        -3   # BR(h -> s       sb     )
     2.07443762E-02    2           4        -4   # BR(h -> c       cb     )
     7.89139404E-02    2          21        21   # BR(h -> g       g      )
     2.38029846E-03    2          22        22   # BR(h -> gam     gam    )
     1.74506810E-03    2          22        23   # BR(h -> Z       gam    )
     2.43895446E-01    2          24       -24   # BR(h -> W+      W-     )
     3.13511257E-02    2          23        23   # BR(h -> Z       Z      )
#
#         PDG            Width
DECAY        35     4.51947018E+01   # H decays
#          BR         NDA      ID1       ID2
     2.47612094E-01    2           5        -5   # BR(H -> b       bb     )
     4.10255570E-02    2         -15        15   # BR(H -> tau+    tau-   )
     1.45972442E-04    2         -13        13   # BR(H -> mu+     mu-    )
     1.02563704E-04    2           3        -3   # BR(H -> s       sb     )
     9.88002180E-08    2           4        -4   # BR(H -> c       cb     )
     9.71888267E-03    2           6        -6   # BR(H -> t       tb     )
     3.73123416E-06    2          21        21   # BR(H -> g       g      )
     6.99833873E-08    2          22        22   # BR(H -> gam     gam    )
     3.72249539E-09    2          23        22   # BR(H -> Z       gam    )
     3.59425817E-06    2          24       -24   # BR(H -> W+      W-     )
     1.79334786E-06    2          23        23   # BR(H -> Z       Z      )
     1.38923338E-05    2          25        25   # BR(H -> h       h      )
     6.87467467E-03    2     1000024  -1000024   # BR(H -> ~chi_1+ ~chi_1-)
     9.40350456E-05    2     1000037  -1000037   # BR(H -> ~chi_2+ ~chi_2-)
     2.30315748E-01    2     1000024  -1000037   # BR(H -> ~chi_1+ ~chi_2-)
     2.30315748E-01    2     1000037  -1000024   # BR(H -> ~chi_2+ ~chi_1-)
     3.43336999E-03    2     1000022   1000022   # BR(H -> ~chi_10 ~chi_10)
     1.41078215E-04    2     1000023   1000023   # BR(H -> ~chi_20 ~chi_20)
     5.98419609E-04    2     1000025   1000025   # BR(H -> ~chi_30 ~chi_30)
     1.33234061E-01    2     1000022   1000023   # BR(H -> ~chi_10 ~chi_20)
     9.47428585E-02    2     1000022   1000025   # BR(H -> ~chi_10 ~chi_30)
     5.37432341E-05    2     1000022   1000035   # BR(H -> ~chi_10 ~chi_40)
     1.28152964E-03    2     1000023   1000025   # BR(H -> ~chi_20 ~chi_30)
     2.88614742E-07    2     2000002  -2000002   # BR(H -> ~u_R    ~u_R*  )
     2.88614742E-07    2     2000004  -2000004   # BR(H -> ~c_R    ~c_R*  )
     2.83441636E-04    2     1000006  -1000006   # BR(H -> ~t_1    ~t_1*  )
     1.98725231E-06    2     1000015  -1000015   # BR(H -> ~tau_1- ~tau_1+)
     4.74520668E-07    2     1000016  -1000016   # BR(H -> ~nu_tauL ~nu_tauL*)
#
#         PDG            Width
DECAY        36     4.51837248E+01   # A decays
#          BR         NDA      ID1       ID2
     2.47698726E-01    2           5        -5   # BR(A -> b       bb     )
     4.10361230E-02    2         -15        15   # BR(A -> tau+    tau-   )
     1.46009843E-04    2         -13        13   # BR(A -> mu+     mu-    )
     1.02614938E-04    2           3        -3   # BR(A -> s       sb     )
     9.93084437E-08    2           4        -4   # BR(A -> c       cb     )
     9.75594570E-03    2           6        -6   # BR(A -> t       tb     )
     2.13745599E-05    2          21        21   # BR(A -> g       g      )
     1.01229072E-07    2          22        22   # BR(A -> gam     gam    )
     2.08992119E-08    2          23        22   # BR(A -> Z       gam    )
     3.64298144E-06    2          23        25   # BR(A -> Z       h      )
     7.37023340E-03    2     1000024  -1000024   # BR(A -> ~chi_1+ ~chi_1-)
     4.66393338E-04    2     1000037  -1000037   # BR(A -> ~chi_2+ ~chi_2-)
     2.29936900E-01    2     1000024  -1000037   # BR(A -> ~chi_1+ ~chi_2-)
     2.29936900E-01    2     1000037  -1000024   # BR(A -> ~chi_2+ ~chi_1-)
     3.68175110E-03    2     1000022   1000022   # BR(A -> ~chi_10 ~chi_10)
     1.95751821E-04    2     1000023   1000023   # BR(A -> ~chi_20 ~chi_20)
     1.33846211E-03    2     1000025   1000025   # BR(A -> ~chi_30 ~chi_30)
     9.62865710E-02    2     1000022   1000023   # BR(A -> ~chi_10 ~chi_20)
     1.31319976E-01    2     1000022   1000025   # BR(A -> ~chi_10 ~chi_30)
     4.00869628E-05    2     1000022   1000035   # BR(A -> ~chi_10 ~chi_40)
     6.62315060E-04    2     1000023   1000025   # BR(A -> ~chi_20 ~chi_30)
#
#         PDG            Width
DECAY        37     4.53006712E+01   # H+ decays
#          BR         NDA      ID1       ID2
     4.20739476E-04    2           4        -5   # BR(H+ -> c       bb     )
     4.09453362E-02    2         -15        16   # BR(H+ -> tau+    nu_tau )
     1.45686816E-04    2         -13        14   # BR(H+ -> mu+     nu_mu  )
     4.20738865E-06    2           2        -5   # BR(H+ -> u       bb     )
     5.12005847E-06    2           2        -3   # BR(H+ -> u       sb     )
     1.00873295E-04    2           4        -3   # BR(H+ -> c       sb     )
     2.59537013E-01    2           6        -5   # BR(H+ -> t       bb     )
     3.63969579E-06    2          24        25   # BR(H+ -> W+      h      )
     6.14670246E-14    2          24        36   # BR(H+ -> W+      A      )
     9.36603753E-10    2     1000024   1000022   # BR(H+ -> ~chi_1+ ~chi_10)
     2.32173781E-01    2     1000024   1000023   # BR(H+ -> ~chi_1+ ~chi_20)
     2.31440673E-01    2     1000024   1000025   # BR(H+ -> ~chi_1+ ~chi_30)
     9.28721807E-05    2     1000024   1000035   # BR(H+ -> ~chi_1+ ~chi_40)
     2.34147939E-01    2     1000037   1000022   # BR(H+ -> ~chi_2+ ~chi_10)
     6.03392104E-04    2     1000037   1000023   # BR(H+ -> ~chi_2+ ~chi_20)
     3.76503442E-04    2     1000037   1000025   # BR(H+ -> ~chi_2+ ~chi_30)
     2.22321021E-06    2    -1000015   1000016   # BR(H+ -> ~tau_1+ ~nu_tauL)
