#
#                              ======================
#                              | THE SUSYHIT OUTPUT |
#                              ======================
#
#
#              ------------------------------------------------------
#              |     This is the output of the SUSY-HIT package     |
#              |  created by A.Djouadi, M.Muehlleitner and M.Spira. |
#              |  In case of problems with SUSY-HIT email to        |
#              |           margarete.muehlleitner@cern.ch           |
#              |           michael.spira@psi.ch                     |
#              |           abdelhak.djouadi@cern.ch                 |
#              ------------------------------------------------------
#
#              ------------------------------------------------------
#              |  SUSY Les Houches Accord - MSSM Spectrum + Decays  |
#              |              based on the decay programs           |
#              |                                                    |
#              |                     SDECAY 1.3b                    |
#              |                                                    |
#              |  Authors: M.Muhlleitner, A.Djouadi and Y.Mambrini  |
#              |  Ref.:    Comput.Phys.Commun.168(2005)46           |
#              |           [hep-ph/0311167]                         |
#              |                                                    |
#              |                     HDECAY 3.4                     |
#              |                                                    |
#              |  By: A.Djouadi,J.Kalinowski,M.Muhlleitner,M.Spira  |
#              |  Ref.:    Comput.Phys.Commun.108(1998)56           |
#              |           [hep-ph/9704448]                         |
#              |                                                    |
#              |                                                    |
#              |  If not stated otherwise all DRbar couplings and   |
#              |  soft SUSY breaking masses are given at the scale  |
#              |  Q=  0.34698340E+04
#              |                                                    |
#              ------------------------------------------------------
#
#
BLOCK DCINFO  # Decay Program information
     1   SDECAY/HDECAY # decay calculator
     2   1.3b  /3.4    # version number
#
BLOCK SPINFO  # Spectrum calculator information
     1     SOFTSUSY    # spectrum calculator               
     2     3.4.0       # version number                    
#
BLOCK MODSEL  # Model selection
     1     0   #  nonUniversal                                     
#
BLOCK SMINPUTS  # Standard Model inputs
         1     1.27908970E+02   # alpha_em^-1(M_Z)^MSbar
         2     1.16637870E-05   # G_F [GeV^-2]
         3     1.18400000E-01   # alpha_S(M_Z)^MSbar
         4     9.11876000E+01   # M_Z pole mass
         5     4.18000000E+00   # mb(mb)^MSbar
         6     1.73200000E+02   # mt pole mass
         7     1.77700000E+00   # mtau pole mass
#
BLOCK MINPAR  # Input parameters - minimal models
         3     1.84200000E+01   # tanb                
#
BLOCK EXTPAR  # Input parameters - non-minimal models
         0    -1.00000000E+00   # Set                 
         1    -2.48100000E+02   # M_1(MX)             
         2    -3.06179000E+03   # M_2(MX)             
         3     3.44975000E+03   # M_3(MX)             
        11     5.05811000E+03   # At(MX)              
        12    -2.86044000E+03   # Ab(MX)              
        13    -3.03200000E+01   # Atau(MX)            
        23     1.20732000E+03   # mu(MX)              
        26     3.19209000E+03   # mA(pole)            
        31     2.08006000E+03   # meL(MX)             
        32     2.08006000E+03   # mmuL(MX)            
        33     5.71580000E+02   # mtauL(MX)           
        34     2.53700000E+02   # meR(MX)             
        35     2.53700000E+02   # mmuR(MX)            
        36     3.15628000E+03   # mtauR(MX)           
        41     1.48700000E+03   # mqL1(MX)            
        42     1.48700000E+03   # mqL2(MX)            
        43     3.19343000E+03   # mqL3(MX)            
        44     3.08360000E+02   # muR(MX)             
        45     3.08360000E+02   # mcR(MX)             
        46     3.77094000E+03   # mtR(MX)             
        47     3.82136000E+03   # mdR(MX)             
        48     3.82136000E+03   # msR(MX)             
        49     1.65000000E+03   # mbR(MX)             
#
BLOCK MASS  # Mass Spectrum
# PDG code           mass       particle
        24     8.04090109E+01   # W+
        25     1.27616275E+02   # h
        35     3.19211409E+03   # H
        36     3.19208997E+03   # A
        37     3.19288618E+03   # H+
         5     4.81876030E+00   # b-quark pole mass calculated from mb(mb)_Msbar
   1000001     1.70325420E+03   # ~d_L
   2000001     3.92487808E+03   # ~d_R
   1000002     1.70151754E+03   # ~u_L
   2000002     7.23827916E+02   # ~u_R
   1000003     1.70325420E+03   # ~s_L
   2000003     3.92487808E+03   # ~s_R
   1000004     1.70151754E+03   # ~c_L
   2000004     7.23827916E+02   # ~c_R
   1000005     1.81597712E+03   # ~b_1
   2000005     3.29762348E+03   # ~b_2
   1000006     3.28051596E+03   # ~t_1
   2000006     3.78683719E+03   # ~t_2
   1000011     2.11508836E+03   # ~e_L
   2000011     2.42872656E+02   # ~e_R
   1000012     2.11332239E+03   # ~nu_eL
   1000013     2.11508836E+03   # ~mu_L
   2000013     2.42872656E+02   # ~mu_R
   1000014     2.11332239E+03   # ~nu_muL
   1000015     6.53208996E+02   # ~tau_1
   2000015     3.15578731E+03   # ~tau_2
   1000016     6.48397308E+02   # ~nu_tauL
   1000021     3.54511015E+03   # ~g
   1000022    -2.40688877E+02   # ~chi_10
   1000023    -1.24747124E+03   # ~chi_20
   1000025     1.24983597E+03   # ~chi_30
   1000035    -3.03059924E+03   # ~chi_40
   1000024     1.24784522E+03   # ~chi_1+
   1000037     3.03076470E+03   # ~chi_2+
#
BLOCK NMIX  # Neutralino Mixing Matrix
  1  1     9.99335226E-01   # N_11
  1  2    -8.60606766E-05   # N_12
  1  3     3.60985469E-02   # N_13
  1  4     5.09838919E-03   # N_14
  2  1    -2.91350642E-02   # N_21
  2  2    -2.89285095E-02   # N_22
  2  3     7.06740770E-01   # N_23
  2  4     7.06280237E-01   # N_24
  3  1     2.19098932E-02   # N_31
  3  2    -1.36041286E-02   # N_32
  3  3    -7.06467844E-01   # N_33
  3  4     7.07275102E-01   # N_34
  4  1    -4.59000104E-04   # N_41
  4  2     9.99488900E-01   # N_42
  4  3     1.08427260E-02   # N_43
  4  4     3.00693032E-02   # N_44
#
BLOCK UMIX  # Chargino Mixing Matrix U
  1  1    -1.54527692E-02   # U_11
  1  2     9.99880599E-01   # U_12
  2  1    -9.99880599E-01   # U_21
  2  2    -1.54527692E-02   # U_22
#
BLOCK VMIX  # Chargino Mixing Matrix V
  1  1     4.26902025E-02   # V_11
  1  2     9.99088358E-01   # V_12
  2  1     9.99088358E-01   # V_21
  2  2    -4.26902025E-02   # V_22
#
BLOCK STOPMIX  # Stop Mixing Matrix
  1  1     9.82493160E-01   # cos(theta_t)
  1  2    -1.86298660E-01   # sin(theta_t)
  2  1     1.86298660E-01   # -sin(theta_t)
  2  2     9.82493160E-01   # cos(theta_t)
#
BLOCK SBOTMIX  # Sbottom Mixing Matrix
  1  1     6.66313867E-03   # cos(theta_b)
  1  2     9.99977801E-01   # sin(theta_b)
  2  1    -9.99977801E-01   # -sin(theta_b)
  2  2     6.66313867E-03   # cos(theta_b)
#
BLOCK STAUMIX  # Stau Mixing Matrix
  1  1     9.99992757E-01   # cos(theta_tau)
  1  2     3.80604093E-03   # sin(theta_tau)
  2  1    -3.80604093E-03   # -sin(theta_tau)
  2  2     9.99992757E-01   # cos(theta_tau)
#
BLOCK ALPHA  # Higgs mixing
          -5.70317074E-02   # Mixing angle in the neutral Higgs boson sector
#
BLOCK HMIX Q=  3.46983400E+03  # DRbar Higgs Parameters
         1     1.22769631E+03   # mu(Q)MSSM           
         2     1.75584984E+01   # tan                 
         3     2.42445645E+02   # higgs               
         4     9.45912933E+06   # mA^2(Q)MSSM         
#
BLOCK GAUGE Q=  3.46983400E+03  # The gauge couplings
     1     3.66178922E-01   # gprime(Q) DRbar
     2     6.36558122E-01   # g(Q) DRbar
     3     1.00648460E+00   # g3(Q) DRbar
#
BLOCK AU Q=  3.46983400E+03  # The trilinear couplings
  1  1     0.00000000E+00   # A_u(Q) DRbar
  2  2     0.00000000E+00   # A_c(Q) DRbar
  3  3     5.05811002E+03   # A_t(Q) DRbar
#
BLOCK AD Q=  3.46983400E+03  # The trilinear couplings
  1  1     0.00000000E+00   # A_d(Q) DRbar
  2  2     0.00000000E+00   # A_s(Q) DRbar
  3  3    -2.86043999E+03   # A_b(Q) DRbar
#
BLOCK AE Q=  3.46983400E+03  # The trilinear couplings
  1  1     0.00000000E+00   # A_e(Q) DRbar
  2  2     0.00000000E+00   # A_mu(Q) DRbar
  3  3    -3.03199991E+01   # A_tau(Q) DRbar
#
BLOCK Yu Q=  3.46983400E+03  # The Yukawa couplings
  1  1     0.00000000E+00   # y_u(Q) DRbar
  2  2     0.00000000E+00   # y_c(Q) DRbar
  3  3     8.31754085E-01   # y_t(Q) DRbar
#
BLOCK Yd Q=  3.46983400E+03  # The Yukawa couplings
  1  1     0.00000000E+00   # y_d(Q) DRbar
  2  2     0.00000000E+00   # y_s(Q) DRbar
  3  3     2.10237501E-01   # y_b(Q) DRbar
#
BLOCK Ye Q=  3.46983400E+03  # The Yukawa couplings
  1  1     0.00000000E+00   # y_e(Q) DRbar
  2  2     0.00000000E+00   # y_mu(Q) DRbar
  3  3     1.72357979E-01   # y_tau(Q) DRbar
#
BLOCK MSOFT Q=  3.46983400E+03  # The soft SUSY breaking masses at the scale Q
         1    -2.48100000E+02   # M_1(Q)              
         2    -3.06179000E+03   # M_2(Q)              
         3     3.44975000E+03   # M_3(Q)              
        21     8.48702640E+06   # mH1^2(Q)            
        22    -1.27990119E+06   # mH2^2(Q)            
        31     2.08006000E+03   # meL(Q)              
        32     2.08006000E+03   # mmuL(Q)             
        33     5.71580000E+02   # mtauL(Q)            
        34     2.53700001E+02   # meR(Q)              
        35     2.53700001E+02   # mmuR(Q)             
        36     3.15628000E+03   # mtauR(Q)            
        41     1.48699997E+03   # mqL1(Q)             
        42     1.48699997E+03   # mqL2(Q)             
        43     3.19342998E+03   # mqL3(Q)             
        44     3.08359859E+02   # muR(Q)              
        45     3.08359859E+02   # mcR(Q)              
        46     3.77093999E+03   # mtR(Q)              
        47     3.82135999E+03   # mdR(Q)              
        48     3.82135999E+03   # msR(Q)              
        49     1.64999997E+03   # mbR(Q)              
#
Block HiggsBoundsInputHiggsCouplingsFermions
# ScalarNormEffCoupSq PseudoSNormEffCoupSq NP   IP1 IP2 IP2
    1.00494656E+00    0.00000000E+00        3  25   5   5  # h0-b-b eff. coupling^2, normalised to SM
    3.08295920E+02    0.00000000E+00        3  35   5   5  # H0-b-b eff. coupling^2, normalised to SM
    0.00000000E+00    3.08300866E+02        3  36   5   5  # A0-b-b eff. coupling^2, normalised to SM
#
    9.99983955E-01    0.00000000E+00        3  25   6   6  # h0-t-t eff. coupling^2, normalised to SM
    3.25962938E-03    0.00000000E+00        3  35   6   6  # H0-t-t eff. coupling^2, normalised to SM
    0.00000000E+00    3.24358479E-03        3  36   6   6  # A0-t-t eff. coupling^2, normalised to SM
#
    1.00494656E+00    0.00000000E+00        3  25  15  15  # h0-tau-tau eff. coupling^2, normalised to SM
    3.08295920E+02    0.00000000E+00        3  35  15  15  # H0-tau-tau eff. coupling^2, normalised to SM
    0.00000000E+00    3.08300866E+02        3  36  15  15  # A0-tau-tau eff. coupling^2, normalised to SM
#
Block HiggsBoundsInputHiggsCouplingsBosons
    9.99999980E-01        3  25  24  24  # h0-W-W eff. coupling^2, normalised to SM
    1.97926122E-08        3  35  24  24  # H0-W-W eff. coupling^2, normalised to SM
    0.00000000E+00        3  36  24  24  # A0-W-W eff. coupling^2, normalised to SM
#
    9.99999980E-01        3  25  23  23  # h0-Z-Z eff. coupling^2, normalised to SM
    1.97926122E-08        3  35  23  23  # H0-Z-Z eff. coupling^2, normalised to SM
    0.00000000E+00        3  36  23  23  # A0-Z-Z eff. coupling^2, normalised to SM
#
    8.83037188E-01        3  25  21  21  # h0-g-g eff. coupling^2, normalised to SM
    4.71946529E-15        3  35  21  21  # H0-g-g eff. coupling^2, normalised to SM
    7.20152750E-13        3  36  21  21  # A0-g-g eff. coupling^2, normalised to SM
#
    0.00000000E+00        3  25  25  23  # h0-h0-Z eff. coupling^2, normalised to SM
    0.00000000E+00        3  35  25  23  # H0-h0-Z eff. coupling^2, normalised to SM
    1.97926122E-08        3  36  25  23  # A0-h0-Z eff. coupling^2, normalised to SM
    0.00000000E+00        3  35  35  23  # H0-H0-Z eff. coupling^2, normalised to SM
    9.99999980E-01        3  36  35  23  # A0-H0-Z eff. coupling^2, normalised to SM
    0.00000000E+00        3  36  36  23  # A0-A0-Z eff. coupling^2, normalised to SM
#
    0.00000000E+00        4  25  21  21  23  # h0-g-g-Z eff. coupling^2, normalised to SM
    0.00000000E+00        4  35  21  21  23  # H0-g-g-Z eff. coupling^2, normalised to SM
    0.00000000E+00        4  36  21  21  23  # A0-g-g-Z eff. coupling^2, normalised to SM
#
#
#
#                             =================
#                             |The decay table|
#                             =================
#
# - The QCD corrections to the decays gluino -> squark  + quark
#                                     squark -> gaugino + quark_prime
#                                     squark -> squark_prime + Higgs
#                                     squark -> gluino  + quark
#   are included.
#
# - The multi-body decays for the inos, stops and sbottoms are included.
#
# - The loop induced decays for the gluino, neutralinos and stops
#   are included.
#
# - The SUSY decays of the top quark are included.
#
#
#         PDG            Width
DECAY         6     1.42622995E+00   # top decays
#          BR         NDA      ID1       ID2
     1.00000000E+00    2           5        24   # BR(t ->  b    W+)
#
#         PDG            Width
DECAY   1000021     3.37595916E+02   # gluino decays
#          BR         NDA      ID1       ID2
     6.17888554E-02    2     1000001        -1   # BR(~g -> ~d_L  db)
     6.17888554E-02    2    -1000001         1   # BR(~g -> ~d_L* d )
     6.18644683E-02    2     1000002        -2   # BR(~g -> ~u_L  ub)
     6.18644683E-02    2    -1000002         2   # BR(~g -> ~u_L* u )
     9.59143637E-02    2     2000002        -2   # BR(~g -> ~u_R  ub)
     9.59143637E-02    2    -2000002         2   # BR(~g -> ~u_R* u )
     6.17888554E-02    2     1000003        -3   # BR(~g -> ~s_L  sb)
     6.17888554E-02    2    -1000003         3   # BR(~g -> ~s_L* s )
     6.18644584E-02    2     1000004        -4   # BR(~g -> ~c_L  cb)
     6.18644584E-02    2    -1000004         4   # BR(~g -> ~c_L* c )
     9.59143619E-02    2     2000004        -4   # BR(~g -> ~c_R  cb)
     9.59143619E-02    2    -2000004         4   # BR(~g -> ~c_R* c )
     5.67755016E-02    2     1000005        -5   # BR(~g -> ~b_1  bb)
     5.67755016E-02    2    -1000005         5   # BR(~g -> ~b_1* b )
     1.96850875E-03    2     2000005        -5   # BR(~g -> ~b_2  bb)
     1.96850875E-03    2    -2000005         5   # BR(~g -> ~b_2* b )
     2.12062645E-03    2     1000006        -6   # BR(~g -> ~t_1  tb)
     2.12062645E-03    2    -1000006         6   # BR(~g -> ~t_1* t )
#
#         PDG            Width
DECAY   1000006     3.83216052E+01   # stop1 decays
#          BR         NDA      ID1       ID2
     1.97941524E-02    2     1000022         6   # BR(~t_1 -> ~chi_10 t )
     4.20159750E-01    2     1000023         6   # BR(~t_1 -> ~chi_20 t )
     4.38265004E-01    2     1000025         6   # BR(~t_1 -> ~chi_30 t )
     5.33781536E-03    2     1000035         6   # BR(~t_1 -> ~chi_40 t )
     9.43129237E-02    2     1000024         5   # BR(~t_1 -> ~chi_1+ b )
     1.39588586E-02    2     1000037         5   # BR(~t_1 -> ~chi_2+ b )
     8.17149594E-03    2     1000005        24   # BR(~t_1 -> ~b_1    W+)
#
#         PDG            Width
DECAY   2000006     1.26054042E+02   # stop2 decays
#          BR         NDA      ID1       ID2
     6.77075634E-02    2     1000022         6   # BR(~t_2 -> ~chi_10 t )
     1.64740081E-01    2     1000023         6   # BR(~t_2 -> ~chi_20 t )
     1.60296939E-01    2     1000025         6   # BR(~t_2 -> ~chi_30 t )
     8.95537252E-04    2     1000035         6   # BR(~t_2 -> ~chi_40 t )
     3.13352930E-01    2     1000024         5   # BR(~t_2 -> ~chi_1+ b )
     1.81626499E-03    2     1000037         5   # BR(~t_2 -> ~chi_2+ b )
     2.12695515E-02    2     1000021         6   # BR(~t_2 -> ~g      t )
     7.46413598E-02    2     1000006        25   # BR(~t_2 -> ~t_1    h )
     6.88296728E-02    2     1000006        23   # BR(~t_2 -> ~t_1    Z )
     1.88418669E-04    2     1000005        24   # BR(~t_2 -> ~b_1    W+)
     1.26261681E-01    2     2000005        24   # BR(~t_2 -> ~b_2    W+)
#
#         PDG            Width
DECAY   1000005     1.89465234E+00   # sbottom1 decays
#          BR         NDA      ID1       ID2
     5.49215927E-01    2     1000022         5   # BR(~b_1 -> ~chi_10 b )
     1.17551140E-01    2     1000023         5   # BR(~b_1 -> ~chi_20 b )
     1.16500730E-01    2     1000025         5   # BR(~b_1 -> ~chi_30 b )
     2.16732203E-01    2    -1000024         6   # BR(~b_1 -> ~chi_1- t )
#
#         PDG            Width
DECAY   2000005     3.67840873E+01   # sbottom2 decays
#          BR         NDA      ID1       ID2
     1.31964350E-02    2     1000022         5   # BR(~b_2 -> ~chi_10 b )
     2.90461348E-02    2     1000023         5   # BR(~b_2 -> ~chi_20 b )
     2.89711420E-02    2     1000025         5   # BR(~b_2 -> ~chi_30 b )
     8.71522686E-03    2     1000035         5   # BR(~b_2 -> ~chi_40 b )
     8.96558637E-01    2    -1000024         6   # BR(~b_2 -> ~chi_1- t )
     1.39763560E-02    2    -1000037         6   # BR(~b_2 -> ~chi_2- t )
     4.84325286E-03    2     1000005        25   # BR(~b_2 -> ~b_1    h )
     4.69281583E-03    2     1000005        23   # BR(~b_2 -> ~b_1    Z )
#
#         PDG            Width
DECAY   1000002     2.52850912E-01   # sup_L decays
#          BR         NDA      ID1       ID2
     9.70645692E-01    2     1000022         2   # BR(~u_L -> ~chi_10 u)
     7.10934322E-03    2     1000023         2   # BR(~u_L -> ~chi_20 u)
     5.23047853E-04    2     1000025         2   # BR(~u_L -> ~chi_30 u)
     2.17219166E-02    2     1000024         1   # BR(~u_L -> ~chi_1+ d)
#
#         PDG            Width
DECAY   2000002     1.43459352E+00   # sup_R decays
#          BR         NDA      ID1       ID2
     1.00000000E+00    2     1000022         2   # BR(~u_R -> ~chi_10 u)
#
#         PDG            Width
DECAY   1000001     2.48156125E-01   # sdown_L decays
#          BR         NDA      ID1       ID2
     9.91829917E-01    2     1000022         1   # BR(~d_L -> ~chi_10 d)
     3.33177475E-03    2     1000023         1   # BR(~d_L -> ~chi_20 d)
     1.92188276E-03    2     1000025         1   # BR(~d_L -> ~chi_30 d)
     2.91642503E-03    2    -1000024         2   # BR(~d_L -> ~chi_1- u)
#
#         PDG            Width
DECAY   2000001     1.22779841E+01   # sdown_R decays
#          BR         NDA      ID1       ID2
     1.78837601E-01    2     1000022         1   # BR(~d_R -> ~chi_10 d)
     1.24384685E-04    2     1000023         1   # BR(~d_R -> ~chi_20 d)
     7.02829352E-05    2     1000025         1   # BR(~d_R -> ~chi_30 d)
     6.36508069E-09    2     1000035         1   # BR(~d_R -> ~chi_40 d)
     8.20967725E-01    2     1000021         1   # BR(~d_R -> ~g      d)
#
#         PDG            Width
DECAY   1000004     2.48848262E-01   # scharm_L decays
#          BR         NDA      ID1       ID2
     9.71004314E-01    2     1000022         4   # BR(~c_L -> ~chi_10 c)
     7.02254613E-03    2     1000023         4   # BR(~c_L -> ~chi_20 c)
     5.16608328E-04    2     1000025         4   # BR(~c_L -> ~chi_30 c)
     2.14565317E-02    2     1000024         3   # BR(~c_L -> ~chi_1+ s)
#
#         PDG            Width
DECAY   2000004     1.35594347E+00   # scharm_R decays
#          BR         NDA      ID1       ID2
     1.00000000E+00    2     1000022         4   # BR(~c_R -> ~chi_10 c)
#
#         PDG            Width
DECAY   1000003     2.44306045E-01   # sstrange_L decays
#          BR         NDA      ID1       ID2
     9.91931630E-01    2     1000022         3   # BR(~s_L -> ~chi_10 s)
     3.29040252E-03    2     1000023         3   # BR(~s_L -> ~chi_20 s)
     1.89782189E-03    2     1000025         3   # BR(~s_L -> ~chi_30 s)
     2.88014536E-03    2    -1000024         4   # BR(~s_L -> ~chi_1- c)
#
#         PDG            Width
DECAY   2000003     9.46198530E+00   # sstrange_R decays
#          BR         NDA      ID1       ID2
     2.43723842E-01    2     1000022         3   # BR(~s_R -> ~chi_10 s)
     1.68686344E-04    2     1000023         3   # BR(~s_R -> ~chi_20 s)
     9.53142891E-05    2     1000025         3   # BR(~s_R -> ~chi_30 s)
     8.44634640E-09    2     1000035         3   # BR(~s_R -> ~chi_40 s)
     7.56012148E-01    2     1000021         3   # BR(~s_R -> ~g      s)
#
#         PDG            Width
DECAY   1000011     2.75331678E+00   # selectron_L decays
#          BR         NDA      ID1       ID2
     9.96621404E-01    2     1000022        11   # BR(~e_L -> ~chi_10 e-)
     2.74879730E-03    2     1000023        11   # BR(~e_L -> ~chi_20 e-)
     1.31282376E-06    2     1000025        11   # BR(~e_L -> ~chi_30 e-)
     6.28485856E-04    2    -1000024        12   # BR(~e_L -> ~chi_1- nu_e)
#
#         PDG            Width
DECAY   2000011     4.14719255E-04   # selectron_R decays
#          BR         NDA      ID1       ID2
     1.00000000E+00    2     1000022        11   # BR(~e_R -> ~chi_10 e-)
#
#         PDG            Width
DECAY   1000013     2.75331676E+00   # smuon_L decays
#          BR         NDA      ID1       ID2
     9.96621404E-01    2     1000022        13   # BR(~mu_L -> ~chi_10 mu-)
     2.74879728E-03    2     1000023        13   # BR(~mu_L -> ~chi_20 mu-)
     1.31282375E-06    2     1000025        13   # BR(~mu_L -> ~chi_30 mu-)
     6.28485859E-04    2    -1000024        14   # BR(~mu_L -> ~chi_1- nu_mu)
#
#         PDG            Width
DECAY   2000013     4.14229177E-04   # smuon_R decays
#          BR         NDA      ID1       ID2
     1.00000000E+00    2     1000022        13   # BR(~mu_R -> ~chi_10 mu-)
#
#         PDG            Width
DECAY   1000015     6.50078615E-01   # stau_1 decays
#          BR         NDA      ID1       ID2
     1.00000000E+00    2     1000022        15   # BR(~tau_1 -> ~chi_10  tau-)
#
#         PDG            Width
DECAY   2000015     1.98003332E+01   # stau_2 decays
#          BR         NDA      ID1       ID2
     8.39413758E-01    2     1000022        15   # BR(~tau_2 -> ~chi_10  tau-)
     3.39918106E-02    2     1000023        15   # BR(~tau_2 -> ~chi_20  tau-)
     3.37392959E-02    2     1000025        15   # BR(~tau_2 -> ~chi_30  tau-)
     2.46498081E-07    2     1000035        15   # BR(~tau_2 -> ~chi_40  tau-)
     6.69963364E-02    2    -1000024        16   # BR(~tau_2 -> ~chi_1-  nu_tau)
     4.94696360E-07    2    -1000037        16   # BR(~tau_2 -> ~chi_2-  nu_tau)
     1.25662904E-02    2     1000016       -24   # BR(~tau_2 -> ~nu_tauL W-)
     6.80655508E-03    2     1000015        25   # BR(~tau_2 -> ~tau_1   h)
     6.48521291E-03    2     1000015        23   # BR(~tau_2 -> ~tau_1   Z)
#
#         PDG            Width
DECAY   1000012     2.75942660E+00   # snu_eL decays
#          BR         NDA      ID1       ID2
     9.94135988E-01    2     1000022        12   # BR(~nu_eL -> ~chi_10 nu_e)
     1.94049576E-04    2     1000023        12   # BR(~nu_eL -> ~chi_20 nu_e)
     8.96448784E-04    2     1000025        12   # BR(~nu_eL -> ~chi_30 nu_e)
     4.77351360E-03    2     1000024        11   # BR(~nu_eL -> ~chi_1+ e-)
#
#         PDG            Width
DECAY   1000014     2.75942660E+00   # snu_muL decays
#          BR         NDA      ID1       ID2
     9.94135988E-01    2     1000022        14   # BR(~nu_muL -> ~chi_10 nu_mu)
     1.94049576E-04    2     1000023        14   # BR(~nu_muL -> ~chi_20 nu_mu)
     8.96448784E-04    2     1000025        14   # BR(~nu_muL -> ~chi_30 nu_mu)
     4.77351355E-03    2     1000024        13   # BR(~nu_muL -> ~chi_1+ mu-)
#
#         PDG            Width
DECAY   1000016     6.42247981E-01   # snu_tauL decays
#          BR         NDA      ID1       ID2
     1.00000000E+00    2     1000022        16   # BR(~nu_tauL -> ~chi_10 nu_tau)
#
#         PDG            Width
DECAY   1000024     9.19079136E-01   # chargino1+ decays
#          BR         NDA      ID1       ID2
     2.18805643E-01    2     1000016       -15   # BR(~chi_1+ -> ~nu_tau1 tau+)
     7.83627393E-04    2    -1000015        16   # BR(~chi_1+ -> ~tau_1+  nu_tau)
     7.80410729E-01    2     1000022        24   # BR(~chi_1+ -> ~chi_10  W+)
#
#         PDG            Width
DECAY   1000037     1.23765997E+02   # chargino2+ decays
#          BR         NDA      ID1       ID2
     1.37093583E-01    2     1000002        -1   # BR(~chi_2+ -> ~u_L     db)
     1.37055540E-01    2    -1000001         2   # BR(~chi_2+ -> ~d_L*    u )
     1.37093579E-01    2     1000004        -3   # BR(~chi_2+ -> ~c_L     sb)
     1.37055488E-01    2    -1000003         4   # BR(~chi_2+ -> ~s_L*     c )
     2.85751443E-07    2    -1000005         6   # BR(~chi_2+ -> ~b_1*    t )
     2.60075967E-02    2     1000012       -11   # BR(~chi_2+ -> ~nu_eL   e+  )
     2.60075967E-02    2     1000014       -13   # BR(~chi_2+ -> ~nu_muL mu+ )
     8.97125982E-02    2     1000016       -15   # BR(~chi_2+ -> ~nu_tau1 tau+)
     2.59664931E-02    2    -1000011        12   # BR(~chi_2+ -> ~e_L+    nu_e)
     2.59664931E-02    2    -1000013        14   # BR(~chi_2+ -> ~mu_L+   nu_mu)
     8.97199187E-02    2    -1000015        16   # BR(~chi_2+ -> ~tau_1+  nu_tau)
     4.26728419E-02    2     1000024        23   # BR(~chi_2+ -> ~chi_1+  Z )
     1.37178933E-05    2     1000022        24   # BR(~chi_2+ -> ~chi_10  W+)
     4.06741440E-02    2     1000023        24   # BR(~chi_2+ -> ~chi_20  W+)
     4.12011128E-02    2     1000025        24   # BR(~chi_2+ -> ~chi_30  W+)
     4.37590112E-02    2     1000024        25   # BR(~chi_2+ -> ~chi_1+  h )
#
#         PDG            Width
DECAY   1000022     0.00000000E+00   # neutralino1 decays
#
#         PDG            Width
DECAY   1000023     9.80968503E-01   # neutralino2 decays
#          BR         NDA      ID1       ID2
     2.75297473E-01    2     1000022        23   # BR(~chi_20 -> ~chi_10   Z )
     5.03441509E-01    2     1000022        25   # BR(~chi_20 -> ~chi_10   h )
     1.74953549E-03    2     2000002        -2   # BR(~chi_20 -> ~u_R      ub)
     1.74953549E-03    2    -2000002         2   # BR(~chi_20 -> ~u_R*     u )
     1.74953123E-03    2     2000004        -4   # BR(~chi_20 -> ~c_R      cb)
     1.74953123E-03    2    -2000004         4   # BR(~chi_20 -> ~c_R*     c )
     2.66538659E-03    2     2000011       -11   # BR(~chi_20 -> ~e_R-     e+)
     2.66538659E-03    2    -2000011        11   # BR(~chi_20 -> ~e_R+     e-)
     2.66538659E-03    2     2000013       -13   # BR(~chi_20 -> ~mu_R-    mu+)
     2.66538659E-03    2    -2000013        13   # BR(~chi_20 -> ~mu_R+    mu-)
     1.01598526E-01    2     1000015       -15   # BR(~chi_20 -> ~tau_1-   tau+)
     1.01598526E-01    2    -1000015        15   # BR(~chi_20 -> ~tau_1+   tau-)
     2.02143250E-04    2     1000016       -16   # BR(~chi_20 -> ~nu_tau1  nu_taub)
     2.02143250E-04    2    -1000016        16   # BR(~chi_20 -> ~nu_tau1* nu_tau )
#
#         PDG            Width
DECAY   1000025     9.62835545E-01   # neutralino3 decays
#          BR         NDA      ID1       ID2
     4.91489852E-01    2     1000022        23   # BR(~chi_30 -> ~chi_10   Z )
     2.94237874E-01    2     1000022        25   # BR(~chi_30 -> ~chi_10   h )
     1.01370947E-03    2     2000002        -2   # BR(~chi_30 -> ~u_R      ub)
     1.01370947E-03    2    -2000002         2   # BR(~chi_30 -> ~u_R*     u )
     1.01370703E-03    2     2000004        -4   # BR(~chi_30 -> ~c_R      cb)
     1.01370703E-03    2    -2000004         4   # BR(~chi_30 -> ~c_R*     c )
     1.53908838E-03    2     2000011       -11   # BR(~chi_30 -> ~e_R-     e+)
     1.53908838E-03    2    -2000011        11   # BR(~chi_30 -> ~e_R+     e-)
     1.53908838E-03    2     2000013       -13   # BR(~chi_30 -> ~mu_R-    mu+)
     1.53908838E-03    2    -2000013        13   # BR(~chi_30 -> ~mu_R+    mu-)
     1.01070753E-01    2     1000015       -15   # BR(~chi_30 -> ~tau_1-   tau+)
     1.01070753E-01    2    -1000015        15   # BR(~chi_30 -> ~tau_1+   tau-)
     9.59790871E-04    2     1000016       -16   # BR(~chi_30 -> ~nu_tau1  nu_taub)
     9.59790871E-04    2    -1000016        16   # BR(~chi_30 -> ~nu_tau1* nu_tau )
#
#         PDG            Width
DECAY   1000035     1.23872067E+02   # neutralino4 decays
#          BR         NDA      ID1       ID2
     4.03371312E-06    2     1000022        23   # BR(~chi_40 -> ~chi_10   Z )
     7.67707123E-03    2     1000023        23   # BR(~chi_40 -> ~chi_20   Z )
     3.45579538E-02    2     1000025        23   # BR(~chi_40 -> ~chi_30   Z )
     4.16174761E-02    2     1000024       -24   # BR(~chi_40 -> ~chi_1+   W-)
     4.16174761E-02    2    -1000024        24   # BR(~chi_40 -> ~chi_1-   W+)
     1.09507284E-05    2     1000022        25   # BR(~chi_40 -> ~chi_10   h )
     3.58740124E-02    2     1000023        25   # BR(~chi_40 -> ~chi_20   h )
     7.78701917E-03    2     1000025        25   # BR(~chi_40 -> ~chi_30   h )
     6.85206718E-02    2     1000002        -2   # BR(~chi_40 -> ~u_L      ub)
     6.85206718E-02    2    -1000002         2   # BR(~chi_40 -> ~u_L*     u )
     1.60306969E-08    2     2000002        -2   # BR(~chi_40 -> ~u_R      ub)
     1.60306969E-08    2    -2000002         2   # BR(~chi_40 -> ~u_R*     u )
     6.84172223E-02    2     1000001        -1   # BR(~chi_40 -> ~d_L      db)
     6.84172223E-02    2    -1000001         1   # BR(~chi_40 -> ~d_L*     d )
     6.85206458E-02    2     1000004        -4   # BR(~chi_40 -> ~c_L      cb)
     6.85206458E-02    2    -1000004         4   # BR(~chi_40 -> ~c_L*     c )
     1.60306963E-08    2     2000004        -4   # BR(~chi_40 -> ~c_R      cb)
     1.60306963E-08    2    -2000004         4   # BR(~chi_40 -> ~c_R*     c )
     6.84172223E-02    2     1000003        -3   # BR(~chi_40 -> ~s _L      sb)
     6.84172223E-02    2    -1000003         3   # BR(~chi_40 -> ~s _L*     s )
     1.55888387E-07    2     1000005        -5   # BR(~chi_40 -> ~b_1      bb)
     1.55888387E-07    2    -1000005         5   # BR(~chi_40 -> ~b_1*     b )
     1.29517270E-02    2     1000011       -11   # BR(~chi_40 -> ~e_L-     e+)
     1.29517270E-02    2    -1000011        11   # BR(~chi_40 -> ~e_L+     e-)
     1.35737882E-08    2     2000011       -11   # BR(~chi_40 -> ~e_R-     e+)
     1.35737882E-08    2    -2000011        11   # BR(~chi_40 -> ~e_R+     e-)
     1.29517270E-02    2     1000013       -13   # BR(~chi_40 -> ~mu_L-    mu+)
     1.29517270E-02    2    -1000013        13   # BR(~chi_40 -> ~mu_L+    mu-)
     1.35737882E-08    2     2000013       -13   # BR(~chi_40 -> ~mu_R-    mu+)
     1.35737882E-08    2    -2000013        13   # BR(~chi_40 -> ~mu_R+    mu-)
     4.47610943E-02    2     1000015       -15   # BR(~chi_40 -> ~tau_1-   tau+)
     4.47610943E-02    2    -1000015        15   # BR(~chi_40 -> ~tau_1+   tau-)
     1.30065555E-02    2     1000012       -12   # BR(~chi_40 -> ~nu_eL    nu_eb)
     1.30065555E-02    2    -1000012        12   # BR(~chi_40 -> ~nu_eL*   nu_e )
     1.30065555E-02    2     1000014       -14   # BR(~chi_40 -> ~nu_muL   nu_mub)
     1.30065555E-02    2    -1000014        14   # BR(~chi_40 -> ~nu_muL*  nu_mu )
     4.48733665E-02    2     1000016       -16   # BR(~chi_40 -> ~nu_tau1  nu_taub)
     4.48733665E-02    2    -1000016        16   # BR(~chi_40 -> ~nu_tau1* nu_tau )
#
#         PDG            Width
DECAY        25     4.64881419E-03   # h decays
#          BR         NDA      ID1       ID2
     5.77123049E-01    2           5        -5   # BR(h -> b       bb     )
     5.71182263E-02    2         -15        15   # BR(h -> tau+    tau-   )
     2.02156167E-04    2         -13        13   # BR(h -> mu+     mu-    )
     2.19673065E-04    2           3        -3   # BR(h -> s       sb     )
     1.89690004E-02    2           4        -4   # BR(h -> c       cb     )
     7.27526051E-02    2          21        21   # BR(h -> g       g      )
     2.19808860E-03    2          22        22   # BR(h -> gam     gam    )
     1.68709049E-03    2          22        23   # BR(h -> Z       gam    )
     2.38685380E-01    2          24       -24   # BR(h -> W+      W-     )
     3.10447310E-02    2          23        23   # BR(h -> Z       Z      )
#
#         PDG            Width
DECAY        35     1.52085012E+01   # H decays
#          BR         NDA      ID1       ID2
     6.47442135E-01    2           5        -5   # BR(H -> b       bb     )
     1.44804688E-01    2         -15        15   # BR(H -> tau+    tau-   )
     5.00727266E-04    2         -13        13   # BR(H -> mu+     mu-    )
     2.58972159E-04    2           3        -3   # BR(H -> s       sb     )
     2.78465338E-07    2           4        -4   # BR(H -> c       cb     )
     2.74014848E-02    2           6        -6   # BR(H -> t       tb     )
     5.09348643E-06    2          21        21   # BR(H -> g       g      )
     4.93414900E-08    2          22        22   # BR(H -> gam     gam    )
     1.00483632E-08    2          23        22   # BR(H -> Z       gam    )
     1.36086262E-05    2          24       -24   # BR(H -> W+      W-     )
     6.79025287E-06    2          23        23   # BR(H -> Z       Z      )
     5.20083202E-05    2          25        25   # BR(H -> h       h      )
     8.16829245E-04    2     1000024  -1000024   # BR(H -> ~chi_1+ ~chi_1-)
     6.49121299E-04    2     1000022   1000022   # BR(H -> ~chi_10 ~chi_10)
     4.28386606E-05    2     1000023   1000023   # BR(H -> ~chi_20 ~chi_20)
     1.21513349E-04    2     1000025   1000025   # BR(H -> ~chi_30 ~chi_30)
     9.32620191E-02    2     1000022   1000023   # BR(H -> ~chi_10 ~chi_20)
     8.45544944E-02    2     1000022   1000025   # BR(H -> ~chi_10 ~chi_30)
     5.56083521E-05    2     1000023   1000025   # BR(H -> ~chi_20 ~chi_30)
     1.42036876E-06    2     2000002  -2000002   # BR(H -> ~u_R    ~u_R*  )
     1.42036876E-06    2     2000004  -2000004   # BR(H -> ~c_R    ~c_R*  )
     1.18134000E-06    2     2000011  -2000011   # BR(H -> ~e_R-   ~e_R+  )
     1.18134000E-06    2     2000013  -2000013   # BR(H -> ~mu_R-  ~mu_R+ )
     1.00842589E-06    2     1000015  -1000015   # BR(H -> ~tau_1- ~tau_1+)
     5.51870737E-06    2     1000016  -1000016   # BR(H -> ~nu_tauL ~nu_tauL*)
#
#         PDG            Width
DECAY        36     1.52317810E+01   # A decays
#          BR         NDA      ID1       ID2
     6.46527283E-01    2           5        -5   # BR(A -> b       bb     )
     1.44584692E-01    2         -15        15   # BR(A -> tau+    tau-   )
     4.99966000E-04    2         -13        13   # BR(A -> mu+     mu-    )
     2.58637985E-04    2           3        -3   # BR(A -> s       sb     )
     2.79233785E-07    2           4        -4   # BR(A -> c       cb     )
     2.74329751E-02    2           6        -6   # BR(A -> t       tb     )
     6.28207102E-05    2          21        21   # BR(A -> g       g      )
     1.14752673E-07    2          22        22   # BR(A -> gam     gam    )
     6.11074470E-08    2          23        22   # BR(A -> Z       gam    )
     1.37692301E-05    2          23        25   # BR(A -> Z       h      )
     1.93184156E-03    2     1000024  -1000024   # BR(A -> ~chi_1+ ~chi_1-)
     6.42191917E-04    2     1000022   1000022   # BR(A -> ~chi_10 ~chi_10)
     8.74993280E-05    2     1000023   1000023   # BR(A -> ~chi_20 ~chi_20)
     3.94248734E-04    2     1000025   1000025   # BR(A -> ~chi_30 ~chi_30)
     8.53059261E-02    2     1000022   1000023   # BR(A -> ~chi_10 ~chi_20)
     9.22474601E-02    2     1000022   1000025   # BR(A -> ~chi_10 ~chi_30)
     1.02330389E-05    2     1000023   1000025   # BR(A -> ~chi_20 ~chi_30)
#
#         PDG            Width
DECAY        37     1.40859762E+01   # H+ decays
#          BR         NDA      ID1       ID2
     1.04186235E-03    2           4        -5   # BR(H+ -> c       bb     )
     1.56384736E-01    2         -15        16   # BR(H+ -> tau+    nu_tau )
     5.40769912E-04    2         -13        14   # BR(H+ -> mu+     nu_mu  )
     1.04186078E-05    2           2        -5   # BR(H+ -> u       bb     )
     1.39901522E-05    2           2        -3   # BR(H+ -> u       sb     )
     2.75658246E-04    2           4        -3   # BR(H+ -> c       sb     )
     6.48187568E-01    2           6        -5   # BR(H+ -> t       bb     )
     1.49086253E-05    2          24        25   # BR(H+ -> W+      h      )
     2.98936758E-14    2          24        36   # BR(H+ -> W+      A      )
     1.93062309E-01    2     1000024   1000022   # BR(H+ -> ~chi_1+ ~chi_10)
     3.49796831E-04    2     1000024   1000023   # BR(H+ -> ~chi_1+ ~chi_20)
     1.11930250E-04    2     1000024   1000025   # BR(H+ -> ~chi_1+ ~chi_30)
     6.05178939E-06    2    -1000015   1000016   # BR(H+ -> ~tau_1+ ~nu_tauL)
