#
#                              ======================
#                              | THE SUSYHIT OUTPUT |
#                              ======================
#
#
#              ------------------------------------------------------
#              |     This is the output of the SUSY-HIT package     |
#              |  created by A.Djouadi, M.Muehlleitner and M.Spira. |
#              |  In case of problems with SUSY-HIT email to        |
#              |           margarete.muehlleitner@cern.ch           |
#              |           michael.spira@psi.ch                     |
#              |           abdelhak.djouadi@cern.ch                 |
#              ------------------------------------------------------
#
#              ------------------------------------------------------
#              |  SUSY Les Houches Accord - MSSM Spectrum + Decays  |
#              |              based on the decay programs           |
#              |                                                    |
#              |                     SDECAY 1.3b                    |
#              |                                                    |
#              |  Authors: M.Muhlleitner, A.Djouadi and Y.Mambrini  |
#              |  Ref.:    Comput.Phys.Commun.168(2005)46           |
#              |           [hep-ph/0311167]                         |
#              |                                                    |
#              |                     HDECAY 3.4                     |
#              |                                                    |
#              |  By: A.Djouadi,J.Kalinowski,M.Muhlleitner,M.Spira  |
#              |  Ref.:    Comput.Phys.Commun.108(1998)56           |
#              |           [hep-ph/9704448]                         |
#              |                                                    |
#              |                                                    |
#              |  If not stated otherwise all DRbar couplings and   |
#              |  soft SUSY breaking masses are given at the scale  |
#              |  Q=  0.19215810E+04
#              |                                                    |
#              ------------------------------------------------------
#
#
BLOCK DCINFO  # Decay Program information
     1   SDECAY/HDECAY # decay calculator
     2   1.3b  /3.4    # version number
#
BLOCK SPINFO  # Spectrum calculator information
     1     SOFTSUSY    # spectrum calculator               
     2     3.4.0       # version number                    
#
BLOCK MODSEL  # Model selection
     1     0   #  nonUniversal                                     
#
BLOCK SMINPUTS  # Standard Model inputs
         1     1.27908970E+02   # alpha_em^-1(M_Z)^MSbar
         2     1.16637870E-05   # G_F [GeV^-2]
         3     1.18400000E-01   # alpha_S(M_Z)^MSbar
         4     9.11876000E+01   # M_Z pole mass
         5     4.18000000E+00   # mb(mb)^MSbar
         6     1.73200000E+02   # mt pole mass
         7     1.77700000E+00   # mtau pole mass
#
BLOCK MINPAR  # Input parameters - minimal models
         3     5.25100000E+01   # tanb                
#
BLOCK EXTPAR  # Input parameters - non-minimal models
         0    -1.00000000E+00   # Set                 
         1    -3.99940000E+02   # M_1(MX)             
         2    -2.49323000E+03   # M_2(MX)             
         3     3.30556000E+03   # M_3(MX)             
        11     3.15625000E+03   # At(MX)              
        12    -7.35130000E+02   # Ab(MX)              
        13    -3.29490000E+02   # Atau(MX)            
        23     9.67600000E+02   # mu(MX)              
        26     3.75597000E+03   # mA(pole)            
        31     1.10449000E+03   # meL(MX)             
        32     1.10449000E+03   # mmuL(MX)            
        33     9.66970000E+02   # mtauL(MX)           
        34     9.59830000E+02   # meR(MX)             
        35     9.59830000E+02   # mmuR(MX)            
        36     1.31604000E+03   # mtauR(MX)           
        41     2.27303000E+03   # mqL1(MX)            
        42     2.27303000E+03   # mqL2(MX)            
        43     1.11654000E+03   # mqL3(MX)            
        44     7.05240000E+02   # muR(MX)             
        45     7.05240000E+02   # mcR(MX)             
        46     3.30483000E+03   # mtR(MX)             
        47     9.42820000E+02   # mdR(MX)             
        48     9.42820000E+02   # msR(MX)             
        49     4.26690000E+02   # mbR(MX)             
#
BLOCK MASS  # Mass Spectrum
# PDG code           mass       particle
        24     8.04020863E+01   # W+
        25     1.26288240E+02   # h
        35     3.75596216E+03   # H
        36     3.75597001E+03   # A
        37     3.75661187E+03   # H+
         5     4.81876030E+00   # b-quark pole mass calculated from mb(mb)_Msbar
   1000001     2.34090137E+03   # ~d_L
   2000001     9.65089129E+02   # ~d_R
   1000002     2.33965189E+03   # ~u_L
   2000002     7.21775168E+02   # ~u_R
   1000003     2.34090137E+03   # ~s_L
   2000003     9.65089129E+02   # ~s_R
   1000004     2.33965189E+03   # ~c_L
   2000004     7.21775168E+02   # ~c_R
   1000005     4.12477329E+02   # ~b_1
   2000005     1.17536470E+03   # ~b_2
   1000006     1.16989699E+03   # ~t_1
   2000006     3.33300338E+03   # ~t_2
   1000011     1.12641901E+03   # ~e_L
   2000011     9.56240986E+02   # ~e_R
   1000012     1.12332211E+03   # ~nu_eL
   1000013     1.12641901E+03   # ~mu_L
   2000013     9.56240986E+02   # ~mu_R
   1000014     1.12332211E+03   # ~nu_muL
   1000015     9.86389431E+02   # ~tau_1
   2000015     1.31401773E+03   # ~tau_2
   1000016     9.87238004E+02   # ~nu_tauL
   1000021     3.27473378E+03   # ~g
   1000022    -3.93158091E+02   # ~chi_10
   1000023    -9.79447708E+02   # ~chi_20
   1000025     9.82039166E+02   # ~chi_30
   1000035    -2.47883234E+03   # ~chi_40
   1000024     9.79189382E+02   # ~chi_1+
   1000037     2.47899802E+03   # ~chi_2+
#
BLOCK NMIX  # Neutralino Mixing Matrix
  1  1     9.98410217E-01   # N_11
  1  2    -7.63386470E-04   # N_12
  1  3     5.25231517E-02   # N_13
  1  4     2.04395512E-02   # N_14
  2  1    -5.16062906E-02   # N_21
  2  2    -3.69599766E-02   # N_22
  2  3     7.05919447E-01   # N_23
  2  4     7.05442049E-01   # N_24
  3  1     2.26547135E-02   # N_31
  3  2    -1.65522976E-02   # N_32
  3  3    -7.06194128E-01   # N_33
  3  4     7.07462111E-01   # N_34
  4  1    -7.70839461E-04   # N_41
  4  2     9.99179363E-01   # N_42
  4  3     1.44535874E-02   # N_43
  4  4     3.78298929E-02   # N_44
#
BLOCK UMIX  # Chargino Mixing Matrix U
  1  1    -2.06003831E-02   # U_11
  1  2     9.99787790E-01   # U_12
  2  1    -9.99787790E-01   # U_21
  2  2    -2.06003831E-02   # U_22
#
BLOCK VMIX  # Chargino Mixing Matrix V
  1  1     5.38700329E-02   # V_11
  1  2     9.98547956E-01   # V_12
  2  1     9.98547956E-01   # V_21
  2  2    -5.38700329E-02   # V_22
#
BLOCK STOPMIX  # Stop Mixing Matrix
  1  1     9.98869627E-01   # cos(theta_t)
  1  2    -4.75338643E-02   # sin(theta_t)
  2  1     4.75338643E-02   # -sin(theta_t)
  2  2     9.98869627E-01   # cos(theta_t)
#
BLOCK SBOTMIX  # Sbottom Mixing Matrix
  1  1     7.38103405E-02   # cos(theta_b)
  1  2     9.97272297E-01   # sin(theta_b)
  2  1    -9.97272297E-01   # -sin(theta_b)
  2  2     7.38103405E-02   # cos(theta_b)
#
BLOCK STAUMIX  # Stau Mixing Matrix
  1  1     9.94505977E-01   # cos(theta_tau)
  1  2     1.04679806E-01   # sin(theta_tau)
  2  1    -1.04679806E-01   # -sin(theta_tau)
  2  2     9.94505977E-01   # cos(theta_tau)
#
BLOCK ALPHA  # Higgs mixing
          -1.95486573E-02   # Mixing angle in the neutral Higgs boson sector
#
BLOCK HMIX Q=  1.92158100E+03  # DRbar Higgs Parameters
         1     9.74612439E+02   # mu(Q)MSSM           
         2     5.12631402E+01   # tan                 
         3     2.43589578E+02   # higgs               
         4     1.29084596E+07   # mA^2(Q)MSSM         
#
BLOCK GAUGE Q=  1.92158100E+03  # The gauge couplings
     1     3.63917472E-01   # gprime(Q) DRbar
     2     6.36524167E-01   # g(Q) DRbar
     3     1.02180531E+00   # g3(Q) DRbar
#
BLOCK AU Q=  1.92158100E+03  # The trilinear couplings
  1  1     0.00000000E+00   # A_u(Q) DRbar
  2  2     0.00000000E+00   # A_c(Q) DRbar
  3  3     3.15625001E+03   # A_t(Q) DRbar
#
BLOCK AD Q=  1.92158100E+03  # The trilinear couplings
  1  1     0.00000000E+00   # A_d(Q) DRbar
  2  2     0.00000000E+00   # A_s(Q) DRbar
  3  3    -7.35129995E+02   # A_b(Q) DRbar
#
BLOCK AE Q=  1.92158100E+03  # The trilinear couplings
  1  1     0.00000000E+00   # A_e(Q) DRbar
  2  2     0.00000000E+00   # A_mu(Q) DRbar
  3  3    -3.29489998E+02   # A_tau(Q) DRbar
#
BLOCK Yu Q=  1.92158100E+03  # The Yukawa couplings
  1  1     0.00000000E+00   # y_u(Q) DRbar
  2  2     0.00000000E+00   # y_c(Q) DRbar
  3  3     8.42111524E-01   # y_t(Q) DRbar
#
BLOCK Yd Q=  1.92158100E+03  # The Yukawa couplings
  1  1     0.00000000E+00   # y_d(Q) DRbar
  2  2     0.00000000E+00   # y_s(Q) DRbar
  3  3     4.93136053E-01   # y_b(Q) DRbar
#
BLOCK Ye Q=  1.92158100E+03  # The Yukawa couplings
  1  1     0.00000000E+00   # y_e(Q) DRbar
  2  2     0.00000000E+00   # y_mu(Q) DRbar
  3  3     4.73412323E-01   # y_tau(Q) DRbar
#
BLOCK MSOFT Q=  1.92158100E+03  # The soft SUSY breaking masses at the scale Q
         1    -3.99940000E+02   # M_1(Q)              
         2    -2.49323000E+03   # M_2(Q)              
         3     3.30556000E+03   # M_3(Q)              
        21     1.32096141E+07   # mH1^2(Q)            
        22    -9.87107277E+05   # mH2^2(Q)            
        31     1.10449000E+03   # meL(Q)              
        32     1.10449000E+03   # mmuL(Q)             
        33     9.66970001E+02   # mtauL(Q)            
        34     9.59830000E+02   # meR(Q)              
        35     9.59830000E+02   # mmuR(Q)             
        36     1.31604000E+03   # mtauR(Q)            
        41     2.27302999E+03   # mqL1(Q)             
        42     2.27302999E+03   # mqL2(Q)             
        43     1.11653998E+03   # mqL3(Q)             
        44     7.05239978E+02   # muR(Q)              
        45     7.05239978E+02   # mcR(Q)              
        46     3.30482999E+03   # mtR(Q)              
        47     9.42819984E+02   # mdR(Q)              
        48     9.42819984E+02   # msR(Q)              
        49     4.26689954E+02   # mbR(Q)              
#
Block HiggsBoundsInputHiggsCouplingsFermions
# ScalarNormEffCoupSq PseudoSNormEffCoupSq NP   IP1 IP2 IP2
    1.00450982E+00    0.00000000E+00        3  25   5   5  # h0-b-b eff. coupling^2, normalised to SM
    2.62790503E+03    0.00000000E+00        3  35   5   5  # H0-b-b eff. coupling^2, normalised to SM
    0.00000000E+00    2.62790954E+03        3  36   5   5  # A0-b-b eff. coupling^2, normalised to SM
#
    9.99998284E-01    0.00000000E+00        3  25   6   6  # h0-t-t eff. coupling^2, normalised to SM
    3.82246726E-04    0.00000000E+00        3  35   6   6  # H0-t-t eff. coupling^2, normalised to SM
    0.00000000E+00    3.80530602E-04        3  36   6   6  # A0-t-t eff. coupling^2, normalised to SM
#
    1.00450982E+00    0.00000000E+00        3  25  15  15  # h0-tau-tau eff. coupling^2, normalised to SM
    2.62790503E+03    0.00000000E+00        3  35  15  15  # H0-tau-tau eff. coupling^2, normalised to SM
    0.00000000E+00    2.62790954E+03        3  36  15  15  # A0-tau-tau eff. coupling^2, normalised to SM
#
Block HiggsBoundsInputHiggsCouplingsBosons
    9.99999998E-01        3  25  24  24  # h0-W-W eff. coupling^2, normalised to SM
    1.93050433E-09        3  35  24  24  # H0-W-W eff. coupling^2, normalised to SM
    0.00000000E+00        3  36  24  24  # A0-W-W eff. coupling^2, normalised to SM
#
    9.99999998E-01        3  25  23  23  # h0-Z-Z eff. coupling^2, normalised to SM
    1.93050433E-09        3  35  23  23  # H0-Z-Z eff. coupling^2, normalised to SM
    0.00000000E+00        3  36  23  23  # A0-Z-Z eff. coupling^2, normalised to SM
#
    8.19636408E-01        3  25  21  21  # h0-g-g eff. coupling^2, normalised to SM
    6.21209695E-13        3  35  21  21  # H0-g-g eff. coupling^2, normalised to SM
    1.08514213E-12        3  36  21  21  # A0-g-g eff. coupling^2, normalised to SM
#
    0.00000000E+00        3  25  25  23  # h0-h0-Z eff. coupling^2, normalised to SM
    0.00000000E+00        3  35  25  23  # H0-h0-Z eff. coupling^2, normalised to SM
    1.93050433E-09        3  36  25  23  # A0-h0-Z eff. coupling^2, normalised to SM
    0.00000000E+00        3  35  35  23  # H0-H0-Z eff. coupling^2, normalised to SM
    9.99999998E-01        3  36  35  23  # A0-H0-Z eff. coupling^2, normalised to SM
    0.00000000E+00        3  36  36  23  # A0-A0-Z eff. coupling^2, normalised to SM
#
    0.00000000E+00        4  25  21  21  23  # h0-g-g-Z eff. coupling^2, normalised to SM
    0.00000000E+00        4  35  21  21  23  # H0-g-g-Z eff. coupling^2, normalised to SM
    0.00000000E+00        4  36  21  21  23  # A0-g-g-Z eff. coupling^2, normalised to SM
#
#
#
#                             =================
#                             |The decay table|
#                             =================
#
# - The QCD corrections to the decays gluino -> squark  + quark
#                                     squark -> gaugino + quark_prime
#                                     squark -> squark_prime + Higgs
#                                     squark -> gluino  + quark
#   are included.
#
# - The multi-body decays for the inos, stops and sbottoms are included.
#
# - The loop induced decays for the gluino, neutralinos and stops
#   are included.
#
# - The SUSY decays of the top quark are included.
#
#
#         PDG            Width
DECAY         6     1.42638444E+00   # top decays
#          BR         NDA      ID1       ID2
     1.00000000E+00    2           5        24   # BR(t ->  b    W+)
#
#         PDG            Width
DECAY   1000021     4.61616684E+02   # gluino decays
#          BR         NDA      ID1       ID2
     1.72749991E-02    2     1000001        -1   # BR(~g -> ~d_L  db)
     1.72749991E-02    2    -1000001         1   # BR(~g -> ~d_L* d )
     6.02376677E-02    2     2000001        -1   # BR(~g -> ~d_R  db)
     6.02376677E-02    2    -2000001         1   # BR(~g -> ~d_R* d )
     1.73135513E-02    2     1000002        -2   # BR(~g -> ~u_L  ub)
     1.73135513E-02    2    -1000002         2   # BR(~g -> ~u_L* u )
     6.53930371E-02    2     2000002        -2   # BR(~g -> ~u_R  ub)
     6.53930371E-02    2    -2000002         2   # BR(~g -> ~u_R* u )
     1.72749991E-02    2     1000003        -3   # BR(~g -> ~s_L  sb)
     1.72749991E-02    2    -1000003         3   # BR(~g -> ~s_L* s )
     6.02376677E-02    2     2000003        -3   # BR(~g -> ~s_R  sb)
     6.02376677E-02    2    -2000003         3   # BR(~g -> ~s_R* s )
     1.73135333E-02    2     1000004        -4   # BR(~g -> ~c_L  cb)
     1.73135333E-02    2    -1000004         4   # BR(~g -> ~c_L* c )
     6.53930353E-02    2     2000004        -4   # BR(~g -> ~c_R  cb)
     6.53930353E-02    2    -2000004         4   # BR(~g -> ~c_R* c )
     6.94221810E-02    2     1000005        -5   # BR(~g -> ~b_1  bb)
     6.94221810E-02    2    -1000005         5   # BR(~g -> ~b_1* b )
     5.47433465E-02    2     2000005        -5   # BR(~g -> ~b_2  bb)
     5.47433465E-02    2    -2000005         5   # BR(~g -> ~b_2* b )
     5.53959819E-02    2     1000006        -6   # BR(~g -> ~t_1  tb)
     5.53959819E-02    2    -1000006         6   # BR(~g -> ~t_1* t )
#
#         PDG            Width
DECAY   1000006     4.76888776E+00   # stop1 decays
#          BR         NDA      ID1       ID2
     3.22612968E-02    2     1000022         6   # BR(~t_1 -> ~chi_10 t )
     5.05284347E-02    2     1000023         6   # BR(~t_1 -> ~chi_20 t )
     5.96936049E-02    2     1000025         6   # BR(~t_1 -> ~chi_30 t )
     1.09246615E-01    2     1000024         5   # BR(~t_1 -> ~chi_1+ b )
     7.48270048E-01    2     1000005        24   # BR(~t_1 -> ~b_1    W+)
#
#         PDG            Width
DECAY   2000006     1.56546412E+02   # stop2 decays
#          BR         NDA      ID1       ID2
     4.78358430E-02    2     1000022         6   # BR(~t_2 -> ~chi_10 t )
     1.24656603E-01    2     1000023         6   # BR(~t_2 -> ~chi_20 t )
     1.24026302E-01    2     1000025         6   # BR(~t_2 -> ~chi_30 t )
     2.35828669E-04    2     1000035         6   # BR(~t_2 -> ~chi_40 t )
     2.48680921E-01    2     1000024         5   # BR(~t_2 -> ~chi_1+ b )
     4.82308771E-04    2     1000037         5   # BR(~t_2 -> ~chi_2+ b )
     1.15260648E-01    2     1000006        25   # BR(~t_2 -> ~t_1    h )
     1.15190110E-01    2     1000006        23   # BR(~t_2 -> ~t_1    Z )
     1.72980585E-03    2     1000005        24   # BR(~t_2 -> ~b_1    W+)
     2.21901630E-01    2     2000005        24   # BR(~t_2 -> ~b_2    W+)
#
#         PDG            Width
DECAY   1000005     2.22972377E-03   # sbottom1 decays
#          BR         NDA      ID1       ID2
     1.00000000E+00    2     1000022         5   # BR(~b_1 -> ~chi_10 b )
#
#         PDG            Width
DECAY   2000005     4.89838427E+00   # sbottom2 decays
#          BR         NDA      ID1       ID2
     2.71434847E-02    2     1000022         5   # BR(~b_2 -> ~chi_10 b )
     5.38979186E-02    2     1000023         5   # BR(~b_2 -> ~chi_20 b )
     5.33249558E-02    2     1000025         5   # BR(~b_2 -> ~chi_30 b )
     1.43318400E-01    2    -1000024         6   # BR(~b_2 -> ~chi_1- t )
     3.43153273E-01    2     1000005        25   # BR(~b_2 -> ~b_1    h )
     3.79161968E-01    2     1000005        23   # BR(~b_2 -> ~b_1    Z )
#
#         PDG            Width
DECAY   1000002     3.70146344E-01   # sup_L decays
#          BR         NDA      ID1       ID2
     8.59218460E-01    2     1000022         2   # BR(~u_L -> ~chi_10 u)
     3.78516354E-02    2     1000023         2   # BR(~u_L -> ~chi_20 u)
     2.58175855E-03    2     1000025         2   # BR(~u_L -> ~chi_30 u)
     1.00348146E-01    2     1000024         1   # BR(~u_L -> ~chi_1+ d)
#
#         PDG            Width
DECAY   2000002     8.81770334E-01   # sup_R decays
#          BR         NDA      ID1       ID2
     1.00000000E+00    2     1000022         2   # BR(~u_R -> ~chi_10 u)
#
#         PDG            Width
DECAY   1000001     3.36295446E-01   # sdown_L decays
#          BR         NDA      ID1       ID2
     9.61545105E-01    2     1000022         1   # BR(~d_L -> ~chi_10 d)
     1.40118817E-02    2     1000023         1   # BR(~d_L -> ~chi_20 d)
     8.27594841E-03    2     1000025         1   # BR(~d_L -> ~chi_30 d)
     1.61670653E-02    2    -1000024         2   # BR(~d_L -> ~chi_1- u)
#
#         PDG            Width
DECAY   2000001     4.08434586E-01   # sdown_R decays
#          BR         NDA      ID1       ID2
     1.00000000E+00    2     1000022         1   # BR(~d_R -> ~chi_10 d)
#
#         PDG            Width
DECAY   1000004     3.72024224E-01   # scharm_L decays
#          BR         NDA      ID1       ID2
     8.59585679E-01    2     1000022         4   # BR(~c_L -> ~chi_10 c)
     3.77528337E-02    2     1000023         4   # BR(~c_L -> ~chi_20 c)
     2.57497606E-03    2     1000025         4   # BR(~c_L -> ~chi_30 c)
     1.00086511E-01    2     1000024         3   # BR(~c_L -> ~chi_1+ s)
#
#         PDG            Width
DECAY   2000004     8.33427955E-01   # scharm_R decays
#          BR         NDA      ID1       ID2
     1.00000000E+00    2     1000022         4   # BR(~c_R -> ~chi_10 c)
#
#         PDG            Width
DECAY   1000003     3.38118510E-01   # sstrange_L decays
#          BR         NDA      ID1       ID2
     9.61657452E-01    2     1000022         3   # BR(~s_L -> ~chi_10 s)
     1.39709910E-02    2     1000023         3   # BR(~s_L -> ~chi_20 s)
     8.25165759E-03    2     1000025         3   # BR(~s_L -> ~chi_30 s)
     1.61198991E-02    2    -1000024         4   # BR(~s_L -> ~chi_1- c)
#
#         PDG            Width
DECAY   2000003     3.91817824E-01   # sstrange_R decays
#          BR         NDA      ID1       ID2
     1.00000000E+00    2     1000022         3   # BR(~s_R -> ~chi_10 s)
#
#         PDG            Width
DECAY   1000011     1.13911748E+00   # selectron_L decays
#          BR         NDA      ID1       ID2
     9.98747565E-01    2     1000022        11   # BR(~e_L -> ~chi_10 e-)
     1.04753770E-03    2     1000023        11   # BR(~e_L -> ~chi_20 e-)
     2.97311215E-06    2     1000025        11   # BR(~e_L -> ~chi_30 e-)
     2.01923906E-04    2    -1000024        12   # BR(~e_L -> ~chi_1- nu_e)
#
#         PDG            Width
DECAY   2000011     3.46822618E+00   # selectron_R decays
#          BR         NDA      ID1       ID2
     1.00000000E+00    2     1000022        11   # BR(~e_R -> ~chi_10 e-)
#
#         PDG            Width
DECAY   1000013     1.13911745E+00   # smuon_L decays
#          BR         NDA      ID1       ID2
     9.98747566E-01    2     1000022        13   # BR(~mu_L -> ~chi_10 mu-)
     1.04753742E-03    2     1000023        13   # BR(~mu_L -> ~chi_20 mu-)
     2.97311131E-06    2     1000025        13   # BR(~mu_L -> ~chi_30 mu-)
     2.01923911E-04    2    -1000024        14   # BR(~mu_L -> ~chi_1- nu_mu)
#
#         PDG            Width
DECAY   2000013     3.46822605E+00   # smuon_R decays
#          BR         NDA      ID1       ID2
     1.00000000E+00    2     1000022        13   # BR(~mu_R -> ~chi_10 mu-)
#
#         PDG            Width
DECAY   1000015     9.70881218E-01   # stau_1 decays
#          BR         NDA      ID1       ID2
     9.99362457E-01    2     1000022        15   # BR(~tau_1 -> ~chi_10  tau-)
     4.75322696E-04    2     1000023        15   # BR(~tau_1 -> ~chi_20  tau-)
     1.45469743E-04    2     1000025        15   # BR(~tau_1 -> ~chi_30  tau-)
     1.67508194E-05    2    -1000024        16   # BR(~tau_1 -> ~chi_1-  nu_tau)
#
#         PDG            Width
DECAY   2000015     1.03258616E+01   # stau_2 decays
#          BR         NDA      ID1       ID2
     5.48151611E-01    2     1000022        15   # BR(~tau_2 -> ~chi_10  tau-)
     5.59845987E-02    2     1000023        15   # BR(~tau_2 -> ~chi_20  tau-)
     5.57372651E-02    2     1000025        15   # BR(~tau_2 -> ~chi_30  tau-)
     1.10281883E-01    2    -1000024        16   # BR(~tau_2 -> ~chi_1-  nu_tau)
     1.12713153E-01    2     1000016       -24   # BR(~tau_2 -> ~nu_tauL W-)
     6.08357631E-02    2     1000015        25   # BR(~tau_2 -> ~tau_1   h)
     5.62957262E-02    2     1000015        23   # BR(~tau_2 -> ~tau_1   Z)
#
#         PDG            Width
DECAY   1000012     1.14065066E+00   # snu_eL decays
#          BR         NDA      ID1       ID2
     9.98466741E-01    2     1000022        12   # BR(~nu_eL -> ~chi_10 nu_e)
     1.26808035E-05    2     1000023        12   # BR(~nu_eL -> ~chi_20 nu_e)
     1.91988944E-04    2     1000025        12   # BR(~nu_eL -> ~chi_30 nu_e)
     1.32858950E-03    2     1000024        11   # BR(~nu_eL -> ~chi_1+ e-)
#
#         PDG            Width
DECAY   1000014     1.14065066E+00   # snu_muL decays
#          BR         NDA      ID1       ID2
     9.98466741E-01    2     1000022        14   # BR(~nu_muL -> ~chi_10 nu_mu)
     1.26808035E-05    2     1000023        14   # BR(~nu_muL -> ~chi_20 nu_mu)
     1.91988944E-04    2     1000025        14   # BR(~nu_muL -> ~chi_30 nu_mu)
     1.32858909E-03    2     1000024        13   # BR(~nu_muL -> ~chi_1+ mu-)
#
#         PDG            Width
DECAY   1000016     9.21446282E-01   # snu_tauL decays
#          BR         NDA      ID1       ID2
     9.98726093E-01    2     1000022        16   # BR(~nu_tauL -> ~chi_10 nu_tau)
     5.93067388E-08    2     1000023        16   # BR(~nu_tauL -> ~chi_20 nu_tau)
     4.14762712E-07    2     1000025        16   # BR(~nu_tauL -> ~chi_30 nu_tau)
     1.27343304E-03    2     1000024        15   # BR(~nu_tauL -> ~chi_1+ tau-)
#
#         PDG            Width
DECAY   1000024     5.81209549E+00   # chargino1+ decays
#          BR         NDA      ID1       ID2
     9.07025336E-01    2    -1000005         6   # BR(~chi_1+ -> ~b_1*    t )
     9.29746640E-02    2     1000022        24   # BR(~chi_1+ -> ~chi_10  W+)
#
#         PDG            Width
DECAY   1000037     9.51623843E+01   # chargino2+ decays
#          BR         NDA      ID1       ID2
     3.96890524E-03    2     1000002        -1   # BR(~chi_2+ -> ~u_L     db)
     3.91116508E-03    2    -1000001         2   # BR(~chi_2+ -> ~d_L*    u )
     3.96889067E-03    2     1000004        -3   # BR(~chi_2+ -> ~c_L     sb)
     3.91093118E-03    2    -1000003         4   # BR(~chi_2+ -> ~s_L*     c )
     1.88107818E-01    2     1000006        -5   # BR(~chi_2+ -> ~t_1     bb)
     9.79496009E-04    2    -1000005         6   # BR(~chi_2+ -> ~b_1*    t )
     1.84061395E-01    2    -2000005         6   # BR(~chi_2+ -> ~b_2*    t )
     6.61074356E-02    2     1000012       -11   # BR(~chi_2+ -> ~nu_eL   e+  )
     6.61074356E-02    2     1000014       -13   # BR(~chi_2+ -> ~nu_muL mu+ )
     7.41332375E-02    2     1000016       -15   # BR(~chi_2+ -> ~nu_tau1 tau+)
     6.60827404E-02    2    -1000011        12   # BR(~chi_2+ -> ~e_L+    nu_e)
     6.60827404E-02    2    -1000013        14   # BR(~chi_2+ -> ~mu_L+   nu_mu)
     7.32925450E-02    2    -1000015        16   # BR(~chi_2+ -> ~tau_1+  nu_tau)
     7.80267874E-04    2    -2000015        16   # BR(~chi_2+ -> ~tau_2+  nu_tau)
     5.11824230E-02    2     1000024        23   # BR(~chi_2+ -> ~chi_1+  Z )
     2.48893841E-08    2     1000022        24   # BR(~chi_2+ -> ~chi_10  W+)
     4.85901776E-02    2     1000023        24   # BR(~chi_2+ -> ~chi_20  W+)
     4.94461882E-02    2     1000025        24   # BR(~chi_2+ -> ~chi_30  W+)
     4.92861822E-02    2     1000024        25   # BR(~chi_2+ -> ~chi_1+  h )
#
#         PDG            Width
DECAY   1000022     0.00000000E+00   # neutralino1 decays
#
#         PDG            Width
DECAY   1000023     5.39082534E+00   # neutralino2 decays
#          BR         NDA      ID1       ID2
     1.74744274E-02    2     1000022        23   # BR(~chi_20 -> ~chi_10   Z )
     9.09209178E-02    2     1000022        25   # BR(~chi_20 -> ~chi_10   h )
     3.73242329E-04    2     2000002        -2   # BR(~chi_20 -> ~u_R      ub)
     3.73242329E-04    2    -2000002         2   # BR(~chi_20 -> ~u_R*     u )
     4.18289242E-07    2     2000001        -1   # BR(~chi_20 -> ~d_R      db)
     4.18289242E-07    2    -2000001         1   # BR(~chi_20 -> ~d_R*     d )
     3.73237402E-04    2     2000004        -4   # BR(~chi_20 -> ~c_R      cb)
     3.73237402E-04    2    -2000004         4   # BR(~chi_20 -> ~c_R*     c )
     4.18289242E-07    2     2000003        -3   # BR(~chi_20 -> ~s _R      sb)
     4.18289242E-07    2    -2000003         3   # BR(~chi_20 -> ~s _R*     s )
     4.45049420E-01    2     1000005        -5   # BR(~chi_20 -> ~b_1      bb)
     4.45049420E-01    2    -1000005         5   # BR(~chi_20 -> ~b_1*     b )
     2.79537997E-06    2     2000011       -11   # BR(~chi_20 -> ~e_R-     e+)
     2.79537997E-06    2    -2000011        11   # BR(~chi_20 -> ~e_R+     e-)
     2.79537997E-06    2     2000013       -13   # BR(~chi_20 -> ~mu_R-    mu+)
     2.79537997E-06    2    -2000013        13   # BR(~chi_20 -> ~mu_R+    mu-)
#
#         PDG            Width
DECAY   1000025     5.36326099E+00   # neutralino3 decays
#          BR         NDA      ID1       ID2
     8.67243403E-02    2     1000022        23   # BR(~chi_30 -> ~chi_10   Z )
     1.76121183E-02    2     1000022        25   # BR(~chi_30 -> ~chi_10   h )
     7.33820108E-05    2     2000002        -2   # BR(~chi_30 -> ~u_R      ub)
     7.33820108E-05    2    -2000002         2   # BR(~chi_30 -> ~u_R*     u )
     1.11544640E-07    2     2000001        -1   # BR(~chi_30 -> ~d_R      db)
     1.11544640E-07    2    -2000001         1   # BR(~chi_30 -> ~d_R*     d )
     7.33810640E-05    2     2000004        -4   # BR(~chi_30 -> ~c_R      cb)
     7.33810640E-05    2    -2000004         4   # BR(~chi_30 -> ~c_R*     c )
     1.11544640E-07    2     2000003        -3   # BR(~chi_30 -> ~s _R      sb)
     1.11544640E-07    2    -2000003         3   # BR(~chi_30 -> ~s _R*     s )
     4.47683453E-01    2     1000005        -5   # BR(~chi_30 -> ~b_1      bb)
     4.47683453E-01    2    -1000005         5   # BR(~chi_30 -> ~b_1*     b )
     6.65654671E-07    2     2000011       -11   # BR(~chi_30 -> ~e_R-     e+)
     6.65654671E-07    2    -2000011        11   # BR(~chi_30 -> ~e_R+     e-)
     6.65654671E-07    2     2000013       -13   # BR(~chi_30 -> ~mu_R-    mu+)
     6.65654671E-07    2    -2000013        13   # BR(~chi_30 -> ~mu_R+    mu-)
#
#         PDG            Width
DECAY   1000035     9.53423504E+01   # neutralino4 decays
#          BR         NDA      ID1       ID2
     9.44471581E-09    2     1000022        23   # BR(~chi_40 -> ~chi_10   Z )
     8.42564786E-03    2     1000023        23   # BR(~chi_40 -> ~chi_20   Z )
     4.18799178E-02    2     1000025        23   # BR(~chi_40 -> ~chi_30   Z )
     5.03326977E-02    2     1000024       -24   # BR(~chi_40 -> ~chi_1+   W-)
     5.03326977E-02    2    -1000024        24   # BR(~chi_40 -> ~chi_1-   W+)
     2.88336667E-07    2     1000022        25   # BR(~chi_40 -> ~chi_10   h )
     4.08567636E-02    2     1000023        25   # BR(~chi_40 -> ~chi_20   h )
     8.24827299E-03    2     1000025        25   # BR(~chi_40 -> ~chi_30   h )
     1.97827350E-03    2     1000002        -2   # BR(~chi_40 -> ~u_L      ub)
     1.97827350E-03    2    -1000002         2   # BR(~chi_40 -> ~u_L*     u )
     4.51079841E-08    2     2000002        -2   # BR(~chi_40 -> ~u_R      ub)
     4.51079841E-08    2    -2000002         2   # BR(~chi_40 -> ~u_R*     u )
     1.94576424E-03    2     1000001        -1   # BR(~chi_40 -> ~d_L      db)
     1.94576424E-03    2    -1000001         1   # BR(~chi_40 -> ~d_L*     d )
     9.70309834E-09    2     2000001        -1   # BR(~chi_40 -> ~d_R      db)
     9.70309834E-09    2    -2000001         1   # BR(~chi_40 -> ~d_R*     d )
     1.97815705E-03    2     1000004        -4   # BR(~chi_40 -> ~c_L      cb)
     1.97815705E-03    2    -1000004         4   # BR(~chi_40 -> ~c_L*     c )
     4.51079803E-08    2     2000004        -4   # BR(~chi_40 -> ~c_R      cb)
     4.51079803E-08    2    -2000004         4   # BR(~chi_40 -> ~c_R*     c )
     1.94576424E-03    2     1000003        -3   # BR(~chi_40 -> ~s _L      sb)
     1.94576424E-03    2    -1000003         3   # BR(~chi_40 -> ~s _L*     s )
     9.70309834E-09    2     2000003        -3   # BR(~chi_40 -> ~s _R      sb)
     9.70309834E-09    2    -2000003         3   # BR(~chi_40 -> ~s _R*     s )
     9.16695393E-02    2     1000006        -6   # BR(~chi_40 -> ~t_1      tb)
     9.16695393E-02    2    -1000006         6   # BR(~chi_40 -> ~t_1*     t )
     4.99482020E-04    2     1000005        -5   # BR(~chi_40 -> ~b_1      bb)
     4.99482020E-04    2    -1000005         5   # BR(~chi_40 -> ~b_1*     b )
     9.40622659E-02    2     2000005        -5   # BR(~chi_40 -> ~b_2      bb)
     9.40622659E-02    2    -2000005         5   # BR(~chi_40 -> ~b_2*     b )
     3.29053362E-02    2     1000011       -11   # BR(~chi_40 -> ~e_L-     e+)
     3.29053362E-02    2    -1000011        11   # BR(~chi_40 -> ~e_L+     e-)
     2.94900334E-08    2     2000011       -11   # BR(~chi_40 -> ~e_R-     e+)
     2.94900334E-08    2    -2000011        11   # BR(~chi_40 -> ~e_R+     e-)
     3.29053362E-02    2     1000013       -13   # BR(~chi_40 -> ~mu_L-    mu+)
     3.29053362E-02    2    -1000013        13   # BR(~chi_40 -> ~mu_L+    mu-)
     2.94900334E-08    2     2000013       -13   # BR(~chi_40 -> ~mu_R-    mu+)
     2.94900334E-08    2    -2000013        13   # BR(~chi_40 -> ~mu_R+    mu-)
     3.65071488E-02    2     1000015       -15   # BR(~chi_40 -> ~tau_1-   tau+)
     3.65071488E-02    2    -1000015        15   # BR(~chi_40 -> ~tau_1+   tau-)
     3.88047403E-04    2     2000015       -15   # BR(~chi_40 -> ~tau_2-   tau+)
     3.88047403E-04    2    -2000015        15   # BR(~chi_40 -> ~tau_2+   tau-)
     3.30577148E-02    2     1000012       -12   # BR(~chi_40 -> ~nu_eL    nu_eb)
     3.30577148E-02    2    -1000012        12   # BR(~chi_40 -> ~nu_eL*   nu_e )
     3.30577148E-02    2     1000014       -14   # BR(~chi_40 -> ~nu_muL   nu_mub)
     3.30577148E-02    2    -1000014        14   # BR(~chi_40 -> ~nu_muL*  nu_mu )
     3.70611392E-02    2     1000016       -16   # BR(~chi_40 -> ~nu_tau1  nu_taub)
     3.70611392E-02    2    -1000016        16   # BR(~chi_40 -> ~nu_tau1* nu_tau )
#
#         PDG            Width
DECAY        25     5.93525996E-03   # h decays
#          BR         NDA      ID1       ID2
     7.01430072E-01    2           5        -5   # BR(h -> b       bb     )
     4.42643825E-02    2         -15        15   # BR(h -> tau+    tau-   )
     1.56673719E-04    2         -13        13   # BR(h -> mu+     mu-    )
     1.70428402E-04    2           3        -3   # BR(h -> s       sb     )
     1.47333995E-02    2           4        -4   # BR(h -> c       cb     )
     5.32196045E-02    2          21        21   # BR(h -> g       g      )
     1.66114112E-03    2          22        22   # BR(h -> gam     gam    )
     1.17939482E-03    2          22        23   # BR(h -> Z       gam    )
     1.62462821E-01    2          24       -24   # BR(h -> W+      W-     )
     2.07220824E-02    2          23        23   # BR(h -> Z       Z      )
#
#         PDG            Width
DECAY        35     1.17525773E+02   # H decays
#          BR         NDA      ID1       ID2
     6.69808192E-01    2           5        -5   # BR(H -> b       bb     )
     2.12264872E-01    2         -15        15   # BR(H -> tau+    tau-   )
     7.46486496E-04    2         -13        13   # BR(H -> mu+     mu-    )
     2.26188913E-04    2           3        -3   # BR(H -> s       sb     )
     4.86744104E-09    2           4        -4   # BR(H -> c       cb     )
     4.80222620E-04    2           6        -6   # BR(H -> t       tb     )
     1.47165346E-05    2          21        21   # BR(H -> g       g      )
     1.27444864E-08    2          22        22   # BR(H -> gam     gam    )
     7.68256835E-09    2          23        22   # BR(H -> Z       gam    )
     2.80118646E-07    2          24       -24   # BR(H -> W+      W-     )
     1.39814559E-07    2          23        23   # BR(H -> Z       Z      )
     9.76549724E-07    2          25        25   # BR(H -> h       h      )
     4.95898344E-04    2     1000024  -1000024   # BR(H -> ~chi_1+ ~chi_1-)
     2.33856008E-02    2     1000024  -1000037   # BR(H -> ~chi_1+ ~chi_2-)
     2.33856008E-02    2     1000037  -1000024   # BR(H -> ~chi_2+ ~chi_1-)
     2.03163803E-04    2     1000022   1000022   # BR(H -> ~chi_10 ~chi_10)
     7.62121260E-06    2     1000023   1000023   # BR(H -> ~chi_20 ~chi_20)
     6.61666961E-05    2     1000025   1000025   # BR(H -> ~chi_30 ~chi_30)
     1.60478597E-02    2     1000022   1000023   # BR(H -> ~chi_10 ~chi_20)
     1.65332946E-02    2     1000022   1000025   # BR(H -> ~chi_10 ~chi_30)
     6.04803299E-05    2     1000022   1000035   # BR(H -> ~chi_10 ~chi_40)
     2.31922960E-05    2     1000023   1000025   # BR(H -> ~chi_20 ~chi_30)
     3.81872683E-03    2     1000023   1000035   # BR(H -> ~chi_20 ~chi_40)
     1.94850037E-02    2     1000025   1000035   # BR(H -> ~chi_30 ~chi_40)
     1.91109484E-08    2     2000002  -2000002   # BR(H -> ~u_R    ~u_R*  )
     1.91109484E-08    2     2000004  -2000004   # BR(H -> ~c_R    ~c_R*  )
     3.46309119E-04    2     1000006  -1000006   # BR(H -> ~t_1    ~t_1*  )
     4.43957934E-09    2     2000001  -2000001   # BR(H -> ~d_R    ~d_R*  )
     4.43957934E-09    2     2000003  -2000003   # BR(H -> ~s_R    ~s_R*  )
     1.31326978E-04    2     1000005  -1000005   # BR(H -> ~b_1    ~b_1*  )
     1.11140363E-04    2     2000005  -2000005   # BR(H -> ~b_2    ~b_2*  )
     5.71028567E-03    2     1000005  -2000005   # BR(H -> ~b_1    ~b_2*  )
     5.71028567E-03    2     2000005  -1000005   # BR(H -> ~b_2    ~b_1*  )
     1.93026430E-08    2     1000011  -1000011   # BR(H -> ~e_L-   ~e_L+  )
     1.33622863E-08    2     2000011  -2000011   # BR(H -> ~e_R-   ~e_R+  )
     1.93026430E-08    2     1000013  -1000013   # BR(H -> ~mu_L-  ~mu_L+ )
     1.33622863E-08    2     2000013  -2000013   # BR(H -> ~mu_R-  ~mu_R+ )
     2.08652805E-05    2     1000015  -1000015   # BR(H -> ~tau_1- ~tau_1+)
     1.95428603E-05    2     2000015  -2000015   # BR(H -> ~tau_2- ~tau_2+)
     4.47614738E-04    2     1000015  -2000015   # BR(H -> ~tau_1- ~tau_2+)
     4.47614738E-04    2     2000015  -1000015   # BR(H -> ~tau_2- ~tau_1+)
     6.27926801E-08    2     1000012  -1000012   # BR(H -> ~nu_eL  ~nu_eL*   )
     6.27926801E-08    2     1000014  -1000014   # BR(H -> ~nu_muL ~nu_muL*  )
     6.66551731E-08    2     1000016  -1000016   # BR(H -> ~nu_tauL ~nu_tauL*)
#
#         PDG            Width
DECAY        36     1.17498287E+02   # A decays
#          BR         NDA      ID1       ID2
     6.69977360E-01    2           5        -5   # BR(A -> b       bb     )
     2.12315490E-01    2         -15        15   # BR(A -> tau+    tau-   )
     7.46663845E-04    2         -13        13   # BR(A -> mu+     mu-    )
     2.26248772E-04    2           3        -3   # BR(A -> s       sb     )
     4.89177124E-09    2           4        -4   # BR(A -> c       cb     )
     4.80760906E-04    2           6        -6   # BR(A -> t       tb     )
     1.94551652E-05    2          21        21   # BR(A -> g       g      )
     1.00353135E-08    2          22        22   # BR(A -> gam     gam    )
     1.46261737E-08    2          23        22   # BR(A -> Z       gam    )
     2.84214183E-07    2          23        25   # BR(A -> Z       h      )
     6.61189486E-04    2     1000024  -1000024   # BR(A -> ~chi_1+ ~chi_1-)
     2.33231354E-02    2     1000024  -1000037   # BR(A -> ~chi_1+ ~chi_2-)
     2.33231354E-02    2     1000037  -1000024   # BR(A -> ~chi_2+ ~chi_1-)
     2.06163221E-04    2     1000022   1000022   # BR(A -> ~chi_10 ~chi_10)
     9.68487871E-06    2     1000023   1000023   # BR(A -> ~chi_20 ~chi_20)
     9.85072359E-05    2     1000025   1000025   # BR(A -> ~chi_30 ~chi_30)
     1.67180449E-02    2     1000022   1000023   # BR(A -> ~chi_10 ~chi_20)
     1.58833608E-02    2     1000022   1000025   # BR(A -> ~chi_10 ~chi_30)
     1.00712041E-04    2     1000022   1000035   # BR(A -> ~chi_10 ~chi_40)
     1.44662777E-05    2     1000023   1000025   # BR(A -> ~chi_20 ~chi_30)
     1.95092167E-02    2     1000023   1000035   # BR(A -> ~chi_20 ~chi_40)
     3.78185649E-03    2     1000025   1000035   # BR(A -> ~chi_30 ~chi_40)
     5.83385346E-03    2     1000005  -2000005   # BR(A -> ~b_1    ~b_2*  )
     5.83385346E-03    2    -1000005   2000005   # BR(A -> ~b_1*   ~b_2   )
     4.68263650E-04    2     1000015  -2000015   # BR(A -> ~tau_1- ~tau_2+)
     4.68263650E-04    2    -1000015   2000015   # BR(A -> ~tau_1+ ~tau_2-)
#
#         PDG            Width
DECAY        37     8.63982505E+01   # H+ decays
#          BR         NDA      ID1       ID2
     6.75589625E-04    2           4        -5   # BR(H+ -> c       bb     )
     2.88790218E-01    2         -15        16   # BR(H+ -> tau+    nu_tau )
     1.01560755E-03    2         -13        14   # BR(H+ -> mu+     nu_mu  )
     6.75589101E-06    2           2        -5   # BR(H+ -> u       bb     )
     1.53991869E-05    2           2        -3   # BR(H+ -> u       sb     )
     3.03109150E-04    2           4        -3   # BR(H+ -> c       sb     )
     4.02214377E-01    2           6        -5   # BR(H+ -> t       bb     )
     3.86871972E-07    2          24        25   # BR(H+ -> W+      h      )
     1.65949671E-15    2          24        36   # BR(H+ -> W+      A      )
     4.45932474E-02    2     1000024   1000022   # BR(H+ -> ~chi_1+ ~chi_10)
     2.62761937E-04    2     1000024   1000023   # BR(H+ -> ~chi_1+ ~chi_20)
     8.40203579E-05    2     1000024   1000025   # BR(H+ -> ~chi_1+ ~chi_30)
     3.18670985E-02    2     1000024   1000035   # BR(H+ -> ~chi_1+ ~chi_40)
     2.19085462E-04    2     1000037   1000022   # BR(H+ -> ~chi_2+ ~chi_10)
     3.18696613E-02    2     1000037   1000023   # BR(H+ -> ~chi_2+ ~chi_20)
     3.16548440E-02    2     1000037   1000025   # BR(H+ -> ~chi_2+ ~chi_30)
     1.02931615E-07    2    -1000011   1000012   # BR(H+ -> ~e_L+   ~nu_eL )
     1.02931615E-07    2    -1000013   1000014   # BR(H+ -> ~mu_L+  ~nu_muL)
     1.60052352E-05    2    -1000015   1000016   # BR(H+ -> ~tau_1+ ~nu_tauL)
     1.25850047E-03    2    -2000015   1000016   # BR(H+ -> ~tau_2+ ~nu_tauL)
     1.64351628E-01    2     1000006  -1000005   # BR(H+ -> ~t_1    ~b_1*  )
     1.60682823E-04    2     1000006  -2000005   # BR(H+ -> ~t_1    ~b_2*  )
     6.40814428E-04    2     2000006  -1000005   # BR(H+ -> ~t_2    ~b_1*  )
