#
#                              ======================
#                              | THE SUSYHIT OUTPUT |
#                              ======================
#
#
#              ------------------------------------------------------
#              |     This is the output of the SUSY-HIT package     |
#              |  created by A.Djouadi, M.Muehlleitner and M.Spira. |
#              |  In case of problems with SUSY-HIT email to        |
#              |           margarete.muehlleitner@cern.ch           |
#              |           michael.spira@psi.ch                     |
#              |           abdelhak.djouadi@cern.ch                 |
#              ------------------------------------------------------
#
#              ------------------------------------------------------
#              |  SUSY Les Houches Accord - MSSM Spectrum + Decays  |
#              |              based on the decay programs           |
#              |                                                    |
#              |                     SDECAY 1.3b                    |
#              |                                                    |
#              |  Authors: M.Muhlleitner, A.Djouadi and Y.Mambrini  |
#              |  Ref.:    Comput.Phys.Commun.168(2005)46           |
#              |           [hep-ph/0311167]                         |
#              |                                                    |
#              |                     HDECAY 3.4                     |
#              |                                                    |
#              |  By: A.Djouadi,J.Kalinowski,M.Muhlleitner,M.Spira  |
#              |  Ref.:    Comput.Phys.Commun.108(1998)56           |
#              |           [hep-ph/9704448]                         |
#              |                                                    |
#              |                                                    |
#              |  If not stated otherwise all DRbar couplings and   |
#              |  soft SUSY breaking masses are given at the scale  |
#              |  Q=  0.23264170E+04
#              |                                                    |
#              ------------------------------------------------------
#
#
BLOCK DCINFO  # Decay Program information
     1   SDECAY/HDECAY # decay calculator
     2   1.3b  /3.4    # version number
#
BLOCK SPINFO  # Spectrum calculator information
     1     SOFTSUSY    # spectrum calculator               
     2     3.4.0       # version number                    
#
BLOCK MODSEL  # Model selection
     1     0   #  nonUniversal                                     
#
BLOCK SMINPUTS  # Standard Model inputs
         1     1.27908970E+02   # alpha_em^-1(M_Z)^MSbar
         2     1.16637870E-05   # G_F [GeV^-2]
         3     1.18400000E-01   # alpha_S(M_Z)^MSbar
         4     9.11876000E+01   # M_Z pole mass
         5     4.18000000E+00   # mb(mb)^MSbar
         6     1.73200000E+02   # mt pole mass
         7     1.77700000E+00   # mtau pole mass
#
BLOCK MINPAR  # Input parameters - minimal models
         3     2.01800000E+01   # tanb                
#
BLOCK EXTPAR  # Input parameters - non-minimal models
         0    -1.00000000E+00   # Set                 
         1     2.58860000E+02   # M_1(MX)             
         2     4.17190000E+02   # M_2(MX)             
         3     2.10974000E+03   # M_3(MX)             
        11     2.26794000E+03   # At(MX)              
        12     2.51072000E+03   # Ab(MX)              
        13    -6.66570000E+02   # Atau(MX)            
        23    -2.61430000E+02   # mu(MX)              
        26     2.65372000E+03   # mA(pole)            
        31     5.36050000E+02   # meL(MX)             
        32     5.36050000E+02   # mmuL(MX)            
        33     1.68263000E+03   # mtauL(MX)           
        34     5.07420000E+02   # meR(MX)             
        35     5.07420000E+02   # mmuR(MX)            
        36     4.50000000E+02   # mtauR(MX)           
        41     3.16188000E+03   # mqL1(MX)            
        42     3.16188000E+03   # mqL2(MX)            
        43     2.05570000E+03   # mqL3(MX)            
        44     3.65499000E+03   # muR(MX)             
        45     3.65499000E+03   # mcR(MX)             
        46     2.62830000E+03   # mtR(MX)             
        47     2.26721000E+03   # mdR(MX)             
        48     2.26721000E+03   # msR(MX)             
        49     4.14020000E+02   # mbR(MX)             
#
BLOCK MASS  # Mass Spectrum
# PDG code           mass       particle
        24     8.03949164E+01   # W+
        25     1.24554377E+02   # h
        35     2.65373844E+03   # H
        36     2.65372001E+03   # A
        37     2.65539650E+03   # H+
         5     4.81876030E+00   # b-quark pole mass calculated from mb(mb)_Msbar
   1000001     3.21660875E+03   # ~d_L
   2000001     2.34144456E+03   # ~d_R
   1000002     3.21577119E+03   # ~u_L
   2000002     3.69899779E+03   # ~u_R
   1000003     3.21660875E+03   # ~s_L
   2000003     2.34144456E+03   # ~s_R
   1000004     3.21577119E+03   # ~c_L
   2000004     3.69899779E+03   # ~c_R
   1000005     6.05668404E+02   # ~b_1
   2000005     2.11767782E+03   # ~b_2
   1000006     2.11343300E+03   # ~t_1
   2000006     2.64968794E+03   # ~t_2
   1000011     5.44341620E+02   # ~e_L
   2000011     5.10689071E+02   # ~e_R
   1000012     5.38227855E+02   # ~nu_eL
   1000013     5.44341620E+02   # ~mu_L
   2000013     5.10689071E+02   # ~mu_R
   1000014     5.38227855E+02   # ~nu_muL
   1000015     4.48003710E+02   # ~tau_1
   2000015     1.68590140E+03   # ~tau_2
   1000016     1.68370512E+03   # ~nu_tauL
   1000021     2.29386907E+03   # ~g
   1000022     2.29896871E+02   # ~chi_10
   1000023    -2.79269666E+02   # ~chi_20
   1000025     2.83960242E+02   # ~chi_30
   1000035     4.59443962E+02   # ~chi_40
   1000024     2.62301346E+02   # ~chi_1+
   1000037     4.59531205E+02   # ~chi_2+
#
BLOCK NMIX  # Neutralino Mixing Matrix
  1  1    -7.13518971E-01   # N_11
  1  2     1.54365327E-01   # N_12
  1  3     5.26207168E-01   # N_13
  1  4     4.36082606E-01   # N_14
  2  1    -6.05811290E-02   # N_21
  2  2     8.31106426E-02   # N_22
  2  3    -6.95697756E-01   # N_23
  2  4     7.10934019E-01   # N_24
  3  1     6.95979479E-01   # N_31
  3  2     2.38540385E-01   # N_32
  3  3     4.68097017E-01   # N_33
  3  4     4.89485681E-01   # N_34
  4  1    -5.32275223E-02   # N_41
  4  2     9.55176660E-01   # N_42
  4  3    -1.41406614E-01   # N_43
  4  4    -2.54575233E-01   # N_44
#
BLOCK UMIX  # Chargino Mixing Matrix U
  1  1     2.00068257E-01   # U_11
  1  2     9.79781962E-01   # U_12
  2  1    -9.79781962E-01   # U_21
  2  2     2.00068257E-01   # U_22
#
BLOCK VMIX  # Chargino Mixing Matrix V
  1  1     3.58828100E-01   # V_11
  1  2    -9.33403661E-01   # V_12
  2  1    -9.33403661E-01   # V_21
  2  2    -3.58828100E-01   # V_22
#
BLOCK STOPMIX  # Stop Mixing Matrix
  1  1     9.93256933E-01   # cos(theta_t)
  1  2    -1.15933882E-01   # sin(theta_t)
  2  1     1.15933882E-01   # -sin(theta_t)
  2  2     9.93256933E-01   # cos(theta_t)
#
BLOCK SBOTMIX  # Sbottom Mixing Matrix
  1  1    -4.57699825E-03   # cos(theta_b)
  1  2     9.99989525E-01   # sin(theta_b)
  2  1    -9.99989525E-01   # -sin(theta_b)
  2  2    -4.57699825E-03   # cos(theta_b)
#
BLOCK STAUMIX  # Stau Mixing Matrix
  1  1    -3.04697589E-03   # cos(theta_tau)
  1  2     9.99995358E-01   # sin(theta_tau)
  2  1    -9.99995358E-01   # -sin(theta_tau)
  2  2    -3.04697589E-03   # cos(theta_tau)
#
BLOCK ALPHA  # Higgs mixing
          -5.17633929E-02   # Mixing angle in the neutral Higgs boson sector
#
BLOCK HMIX Q=  2.32641700E+03  # DRbar Higgs Parameters
         1    -2.65771370E+02   # mu(Q)MSSM           
         2     1.93604128E+01   # tan                 
         3     2.41498037E+02   # higgs               
         4     6.96338049E+06   # mA^2(Q)MSSM         
#
BLOCK GAUGE Q=  2.32641700E+03  # The gauge couplings
     1     3.64905246E-01   # gprime(Q) DRbar
     2     6.42471553E-01   # g(Q) DRbar
     3     1.02160183E+00   # g3(Q) DRbar
#
BLOCK AU Q=  2.32641700E+03  # The trilinear couplings
  1  1     0.00000000E+00   # A_u(Q) DRbar
  2  2     0.00000000E+00   # A_c(Q) DRbar
  3  3     2.26794001E+03   # A_t(Q) DRbar
#
BLOCK AD Q=  2.32641700E+03  # The trilinear couplings
  1  1     0.00000000E+00   # A_d(Q) DRbar
  2  2     0.00000000E+00   # A_s(Q) DRbar
  3  3     2.51072000E+03   # A_b(Q) DRbar
#
BLOCK AE Q=  2.32641700E+03  # The trilinear couplings
  1  1     0.00000000E+00   # A_e(Q) DRbar
  2  2     0.00000000E+00   # A_mu(Q) DRbar
  3  3    -6.66570000E+02   # A_tau(Q) DRbar
#
BLOCK Yu Q=  2.32641700E+03  # The Yukawa couplings
  1  1     0.00000000E+00   # y_u(Q) DRbar
  2  2     0.00000000E+00   # y_c(Q) DRbar
  3  3     8.45512259E-01   # y_t(Q) DRbar
#
BLOCK Yd Q=  2.32641700E+03  # The Yukawa couplings
  1  1     0.00000000E+00   # y_d(Q) DRbar
  2  2     0.00000000E+00   # y_s(Q) DRbar
  3  3     2.75863532E-01   # y_b(Q) DRbar
#
BLOCK Ye Q=  2.32641700E+03  # The Yukawa couplings
  1  1     0.00000000E+00   # y_e(Q) DRbar
  2  2     0.00000000E+00   # y_mu(Q) DRbar
  3  3     1.96244270E-01   # y_tau(Q) DRbar
#
BLOCK MSOFT Q=  2.32641700E+03  # The soft SUSY breaking masses at the scale Q
         1     2.58860000E+02   # M_1(Q)              
         2     4.17190000E+02   # M_2(Q)              
         3     2.10974000E+03   # M_3(Q)              
        21     6.98483979E+06   # mH1^2(Q)            
        22     7.36971099E+04   # mH2^2(Q)            
        31     5.36050000E+02   # meL(Q)              
        32     5.36050000E+02   # mmuL(Q)             
        33     1.68263000E+03   # mtauL(Q)            
        34     5.07420000E+02   # meR(Q)              
        35     5.07420000E+02   # mmuR(Q)             
        36     4.50000000E+02   # mtauR(Q)            
        41     3.16188000E+03   # mqL1(Q)             
        42     3.16188000E+03   # mqL2(Q)             
        43     2.05569999E+03   # mqL3(Q)             
        44     3.65499000E+03   # muR(Q)              
        45     3.65499000E+03   # mcR(Q)              
        46     2.62829999E+03   # mtR(Q)              
        47     2.26721000E+03   # mdR(Q)              
        48     2.26721000E+03   # msR(Q)              
        49     4.14019980E+02   # mbR(Q)              
#
Block HiggsBoundsInputHiggsCouplingsFermions
# ScalarNormEffCoupSq PseudoSNormEffCoupSq NP   IP1 IP2 IP2
    1.00610634E+00    0.00000000E+00        3  25   5   5  # h0-b-b eff. coupling^2, normalised to SM
    3.74819477E+02    0.00000000E+00        3  35   5   5  # H0-b-b eff. coupling^2, normalised to SM
    0.00000000E+00    3.74825584E+02        3  36   5   5  # A0-b-b eff. coupling^2, normalised to SM
#
    9.99983709E-01    0.00000000E+00        3  25   6   6  # h0-t-t eff. coupling^2, normalised to SM
    2.68419869E-03    0.00000000E+00        3  35   6   6  # H0-t-t eff. coupling^2, normalised to SM
    0.00000000E+00    2.66790754E-03        3  36   6   6  # A0-t-t eff. coupling^2, normalised to SM
#
    1.00610634E+00    0.00000000E+00        3  25  15  15  # h0-tau-tau eff. coupling^2, normalised to SM
    3.74819477E+02    0.00000000E+00        3  35  15  15  # H0-tau-tau eff. coupling^2, normalised to SM
    0.00000000E+00    3.74825584E+02        3  36  15  15  # A0-tau-tau eff. coupling^2, normalised to SM
#
Block HiggsBoundsInputHiggsCouplingsBosons
    9.99999975E-01        3  25  24  24  # h0-W-W eff. coupling^2, normalised to SM
    2.47943923E-08        3  35  24  24  # H0-W-W eff. coupling^2, normalised to SM
    0.00000000E+00        3  36  24  24  # A0-W-W eff. coupling^2, normalised to SM
#
    9.99999975E-01        3  25  23  23  # h0-Z-Z eff. coupling^2, normalised to SM
    2.47943923E-08        3  35  23  23  # H0-Z-Z eff. coupling^2, normalised to SM
    0.00000000E+00        3  36  23  23  # A0-Z-Z eff. coupling^2, normalised to SM
#
    8.94826858E-01        3  25  21  21  # h0-g-g eff. coupling^2, normalised to SM
    5.29969725E-14        3  35  21  21  # H0-g-g eff. coupling^2, normalised to SM
    4.30916022E-12        3  36  21  21  # A0-g-g eff. coupling^2, normalised to SM
#
    0.00000000E+00        3  25  25  23  # h0-h0-Z eff. coupling^2, normalised to SM
    0.00000000E+00        3  35  25  23  # H0-h0-Z eff. coupling^2, normalised to SM
    2.47943923E-08        3  36  25  23  # A0-h0-Z eff. coupling^2, normalised to SM
    0.00000000E+00        3  35  35  23  # H0-H0-Z eff. coupling^2, normalised to SM
    9.99999975E-01        3  36  35  23  # A0-H0-Z eff. coupling^2, normalised to SM
    0.00000000E+00        3  36  36  23  # A0-A0-Z eff. coupling^2, normalised to SM
#
    0.00000000E+00        4  25  21  21  23  # h0-g-g-Z eff. coupling^2, normalised to SM
    0.00000000E+00        4  35  21  21  23  # H0-g-g-Z eff. coupling^2, normalised to SM
    0.00000000E+00        4  36  21  21  23  # A0-g-g-Z eff. coupling^2, normalised to SM
#
#
#
#                             =================
#                             |The decay table|
#                             =================
#
# - The QCD corrections to the decays gluino -> squark  + quark
#                                     squark -> gaugino + quark_prime
#                                     squark -> squark_prime + Higgs
#                                     squark -> gluino  + quark
#   are included.
#
# - The multi-body decays for the inos, stops and sbottoms are included.
#
# - The loop induced decays for the gluino, neutralinos and stops
#   are included.
#
# - The SUSY decays of the top quark are included.
#
#
#         PDG            Width
DECAY         6     1.45348745E+00   # top decays
#          BR         NDA      ID1       ID2
     1.00000000E+00    2           5        24   # BR(t ->  b    W+)
#
#         PDG            Width
DECAY   1000021     4.20341295E+01   # gluino decays
#          BR         NDA      ID1       ID2
     4.83003246E-01    2     1000005        -5   # BR(~g -> ~b_1  bb)
     4.83003246E-01    2    -1000005         5   # BR(~g -> ~b_1* b )
     1.26682218E-02    2     2000005        -5   # BR(~g -> ~b_2  bb)
     1.26682218E-02    2    -2000005         5   # BR(~g -> ~b_2* b )
     4.32853273E-03    2     1000006        -6   # BR(~g -> ~t_1  tb)
     4.32853273E-03    2    -1000006         6   # BR(~g -> ~t_1* t )
#
#         PDG            Width
DECAY   1000006     5.58197439E+01   # stop1 decays
#          BR         NDA      ID1       ID2
     8.39064384E-02    2     1000022         6   # BR(~t_1 -> ~chi_10 t )
     2.53844577E-01    2     1000023         6   # BR(~t_1 -> ~chi_20 t )
     1.46393932E-01    2     1000025         6   # BR(~t_1 -> ~chi_30 t )
     1.73622024E-01    2     1000035         6   # BR(~t_1 -> ~chi_40 t )
     6.64612636E-02    2     1000024         5   # BR(~t_1 -> ~chi_1+ b )
     2.74064368E-01    2     1000037         5   # BR(~t_1 -> ~chi_2+ b )
     1.70739714E-03    2     1000005        24   # BR(~t_1 -> ~b_1    W+)
#
#         PDG            Width
DECAY   2000006     1.03754302E+02   # stop2 decays
#          BR         NDA      ID1       ID2
     1.06451525E-01    2     1000022         6   # BR(~t_2 -> ~chi_10 t )
     1.82562005E-01    2     1000023         6   # BR(~t_2 -> ~chi_20 t )
     1.10122158E-01    2     1000025         6   # BR(~t_2 -> ~chi_30 t )
     1.27388752E-02    2     1000035         6   # BR(~t_2 -> ~chi_40 t )
     3.27828076E-01    2     1000024         5   # BR(~t_2 -> ~chi_1+ b )
     2.57070715E-02    2     1000037         5   # BR(~t_2 -> ~chi_2+ b )
     8.42255111E-02    2     1000021         6   # BR(~t_2 -> ~g      t )
     4.48998196E-02    2     1000006        25   # BR(~t_2 -> ~t_1    h )
     3.57537180E-02    2     1000006        23   # BR(~t_2 -> ~t_1    Z )
     2.72136925E-05    2     1000005        24   # BR(~t_2 -> ~b_1    W+)
     6.96840264E-02    2     2000005        24   # BR(~t_2 -> ~b_2    W+)
#
#         PDG            Width
DECAY   1000005     1.26743442E+00   # sbottom1 decays
#          BR         NDA      ID1       ID2
     2.55760284E-01    2     1000022         5   # BR(~b_1 -> ~chi_10 b )
     2.17340349E-01    2     1000023         5   # BR(~b_1 -> ~chi_20 b )
     1.77206890E-01    2     1000025         5   # BR(~b_1 -> ~chi_30 b )
     2.45023642E-03    2     1000035         5   # BR(~b_1 -> ~chi_40 b )
     3.47242241E-01    2    -1000024         6   # BR(~b_1 -> ~chi_1- t )
#
#         PDG            Width
DECAY   2000005     5.59734126E+01   # sbottom2 decays
#          BR         NDA      ID1       ID2
     2.79637127E-02    2     1000022         5   # BR(~b_2 -> ~chi_10 b )
     2.81839594E-02    2     1000023         5   # BR(~b_2 -> ~chi_20 b )
     1.38780978E-02    2     1000025         5   # BR(~b_2 -> ~chi_30 b )
     1.32549749E-01    2     1000035         5   # BR(~b_2 -> ~chi_40 b )
     4.56932173E-01    2    -1000024         6   # BR(~b_2 -> ~chi_1- t )
     3.38690399E-01    2    -1000037         6   # BR(~b_2 -> ~chi_2- t )
     9.09856499E-04    2     1000005        25   # BR(~b_2 -> ~b_1    h )
     8.92052676E-04    2     1000005        23   # BR(~b_2 -> ~b_1    Z )
#
#         PDG            Width
DECAY   1000002     9.22026044E+01   # sup_L decays
#          BR         NDA      ID1       ID2
     5.03247411E-05    2     1000022         2   # BR(~u_L -> ~chi_10 u)
     6.91747431E-04    2     1000023         2   # BR(~u_L -> ~chi_20 u)
     1.84728104E-02    2     1000025         2   # BR(~u_L -> ~chi_30 u)
     1.17419646E-01    2     1000035         2   # BR(~u_L -> ~chi_40 u)
     3.47657869E-02    2     1000024         1   # BR(~u_L -> ~chi_1+ d)
     2.29059399E-01    2     1000037         1   # BR(~u_L -> ~chi_2+ d)
     5.99540285E-01    2     1000021         2   # BR(~u_L -> ~g      u)
#
#         PDG            Width
DECAY   2000002     1.08101199E+02   # sup_R decays
#          BR         NDA      ID1       ID2
     3.90400547E-02    2     1000022         2   # BR(~u_R -> ~chi_10 u)
     2.80469366E-04    2     1000023         2   # BR(~u_R -> ~chi_20 u)
     3.70037393E-02    2     1000025         2   # BR(~u_R -> ~chi_30 u)
     2.12487867E-04    2     1000035         2   # BR(~u_R -> ~chi_40 u)
     9.23463249E-01    2     1000021         2   # BR(~u_R -> ~g      u)
#
#         PDG            Width
DECAY   1000001     9.22229248E+01   # sdown_L decays
#          BR         NDA      ID1       ID2
     1.13442028E-02    2     1000022         1   # BR(~d_L -> ~chi_10 d)
     1.20571709E-03    2     1000023         1   # BR(~d_L -> ~chi_20 d)
     1.53594370E-03    2     1000025         1   # BR(~d_L -> ~chi_30 d)
     1.22489492E-01    2     1000035         1   # BR(~d_L -> ~chi_40 d)
     1.08083482E-02    2    -1000024         2   # BR(~d_L -> ~chi_1- u)
     2.52404997E-01    2    -1000037         2   # BR(~d_L -> ~chi_2- u)
     6.00211299E-01    2     1000021         1   # BR(~d_L -> ~g      d)
#
#         PDG            Width
DECAY   2000001     1.55660277E+00   # sdown_R decays
#          BR         NDA      ID1       ID2
     4.22902467E-01    2     1000022         1   # BR(~d_R -> ~chi_10 d)
     3.02167465E-03    2     1000023         1   # BR(~d_R -> ~chi_20 d)
     3.98434896E-01    2     1000025         1   # BR(~d_R -> ~chi_30 d)
     2.22214662E-03    2     1000035         1   # BR(~d_R -> ~chi_40 d)
     1.73418816E-01    2     1000021         1   # BR(~d_R -> ~g      d)
#
#         PDG            Width
DECAY   1000004     8.15590701E+01   # scharm_L decays
#          BR         NDA      ID1       ID2
     5.95596128E-05    2     1000022         4   # BR(~c_L -> ~chi_10 c)
     8.18409627E-04    2     1000023         4   # BR(~c_L -> ~chi_20 c)
     2.18545770E-02    2     1000025         4   # BR(~c_L -> ~chi_30 c)
     1.38759311E-01    2     1000035         4   # BR(~c_L -> ~chi_40 c)
     4.11363253E-02    2     1000024         3   # BR(~c_L -> ~chi_1+ s)
     2.70688287E-01    2     1000037         3   # BR(~c_L -> ~chi_2+ s)
     5.26683531E-01    2     1000021         4   # BR(~c_L -> ~g      c)
#
#         PDG            Width
DECAY   2000004     8.61982864E+01   # scharm_R decays
#          BR         NDA      ID1       ID2
     5.10472785E-02    2     1000022         4   # BR(~c_R -> ~chi_10 c)
     3.66634007E-04    2     1000023         4   # BR(~c_R -> ~chi_20 c)
     4.83706810E-02    2     1000025         4   # BR(~c_R -> ~chi_30 c)
     2.77517932E-04    2     1000035         4   # BR(~c_R -> ~chi_40 c)
     8.99937889E-01    2     1000021         4   # BR(~c_R -> ~g      c)
#
#         PDG            Width
DECAY   1000003     8.15571665E+01   # sstrange_L decays
#          BR         NDA      ID1       ID2
     1.34291017E-02    2     1000022         3   # BR(~s_L -> ~chi_10 s)
     1.42682700E-03    2     1000023         3   # BR(~s_L -> ~chi_20 s)
     1.81755457E-03    2     1000025         3   # BR(~s_L -> ~chi_30 s)
     1.44784856E-01    2     1000035         3   # BR(~s_L -> ~chi_40 s)
     1.27919027E-02    2    -1000024         4   # BR(~s_L -> ~chi_1- c)
     2.98347159E-01    2    -1000037         4   # BR(~s_L -> ~chi_2- c)
     5.27402599E-01    2     1000021         3   # BR(~s_L -> ~g      s)
#
#         PDG            Width
DECAY   2000003     1.55472529E+00   # sstrange_R decays
#          BR         NDA      ID1       ID2
     4.42695266E-01    2     1000022         3   # BR(~s_R -> ~chi_10 s)
     3.16182328E-03    2     1000023         3   # BR(~s_R -> ~chi_20 s)
     4.16899172E-01    2     1000025         3   # BR(~s_R -> ~chi_30 s)
     2.32207481E-03    2     1000035         3   # BR(~s_R -> ~chi_40 s)
     1.34921664E-01    2     1000021         3   # BR(~s_R -> ~g      s)
#
#         PDG            Width
DECAY   1000011     1.19147782E+00   # selectron_L decays
#          BR         NDA      ID1       ID2
     7.97116795E-02    2     1000022        11   # BR(~e_L -> ~chi_10 e-)
     2.41534244E-03    2     1000023        11   # BR(~e_L -> ~chi_20 e-)
     3.99263022E-01    2     1000025        11   # BR(~e_L -> ~chi_30 e-)
     1.32743261E-01    2     1000035        11   # BR(~e_L -> ~chi_40 e-)
     8.85276014E-02    2    -1000024        12   # BR(~e_L -> ~chi_1- nu_e)
     2.97339094E-01    2    -1000037        12   # BR(~e_L -> ~chi_2- nu_e)
#
#         PDG            Width
DECAY   2000011     1.50638501E+00   # selectron_R decays
#          BR         NDA      ID1       ID2
     5.81362122E-01    2     1000022        11   # BR(~e_R -> ~chi_10 e-)
     3.23890165E-03    2     1000023        11   # BR(~e_R -> ~chi_20 e-)
     4.15214069E-01    2     1000025        11   # BR(~e_R -> ~chi_30 e-)
     1.84907533E-04    2     1000035        11   # BR(~e_R -> ~chi_40 e-)
#
#         PDG            Width
DECAY   1000013     1.19147760E+00   # smuon_L decays
#          BR         NDA      ID1       ID2
     7.97116855E-02    2     1000022        13   # BR(~mu_L -> ~chi_10 mu-)
     2.41534255E-03    2     1000023        13   # BR(~mu_L -> ~chi_20 mu-)
     3.99263039E-01    2     1000025        13   # BR(~mu_L -> ~chi_30 mu-)
     1.32743165E-01    2     1000035        13   # BR(~mu_L -> ~chi_40 mu-)
     8.85276180E-02    2    -1000024        14   # BR(~mu_L -> ~chi_1- nu_mu)
     2.97339150E-01    2    -1000037        14   # BR(~mu_L -> ~chi_2- nu_mu)
#
#         PDG            Width
DECAY   2000013     1.50638478E+00   # smuon_R decays
#          BR         NDA      ID1       ID2
     5.81362133E-01    2     1000022        13   # BR(~mu_R -> ~chi_10 mu-)
     3.23890158E-03    2     1000023        13   # BR(~mu_R -> ~chi_20 mu-)
     4.15214058E-01    2     1000025        13   # BR(~mu_R -> ~chi_30 mu-)
     1.84907126E-04    2     1000035        13   # BR(~mu_R -> ~chi_40 mu-)
#
#         PDG            Width
DECAY   1000015     1.35490595E+00   # stau_1 decays
#          BR         NDA      ID1       ID2
     5.24103546E-01    2     1000022        15   # BR(~tau_1 -> ~chi_10  tau-)
     4.82942013E-02    2     1000023        15   # BR(~tau_1 -> ~chi_20  tau-)
     3.22135125E-01    2     1000025        15   # BR(~tau_1 -> ~chi_30  tau-)
     1.05467127E-01    2    -1000024        16   # BR(~tau_1 -> ~chi_1-  nu_tau)
#
#         PDG            Width
DECAY   2000015     2.12990037E+01   # stau_2 decays
#          BR         NDA      ID1       ID2
     3.56261849E-02    2     1000022        15   # BR(~tau_2 -> ~chi_10  tau-)
     2.85618357E-02    2     1000023        15   # BR(~tau_2 -> ~chi_20  tau-)
     1.35898079E-01    2     1000025        15   # BR(~tau_2 -> ~chi_30  tau-)
     2.39396630E-01    2     1000035        15   # BR(~tau_2 -> ~chi_40  tau-)
     2.45476991E-02    2    -1000024        16   # BR(~tau_2 -> ~chi_1-  nu_tau)
     5.34902935E-01    2    -1000037        16   # BR(~tau_2 -> ~chi_2-  nu_tau)
     5.25066544E-04    2     1000015        25   # BR(~tau_2 -> ~tau_1   h)
     5.41569944E-04    2     1000015        23   # BR(~tau_2 -> ~tau_1   Z)
#
#         PDG            Width
DECAY   1000012     1.27892157E+00   # snu_eL decays
#          BR         NDA      ID1       ID2
     3.61705548E-01    2     1000022        12   # BR(~nu_eL -> ~chi_10 nu_e)
     1.27442322E-02    2     1000023        12   # BR(~nu_eL -> ~chi_20 nu_e)
     2.21124728E-02    2     1000025        12   # BR(~nu_eL -> ~chi_30 nu_e)
     1.23523131E-01    2     1000035        12   # BR(~nu_eL -> ~chi_40 nu_e)
     2.58707863E-01    2     1000024        11   # BR(~nu_eL -> ~chi_1+ e-)
     2.21206752E-01    2     1000037        11   # BR(~nu_eL -> ~chi_2+ e-)
#
#         PDG            Width
DECAY   1000014     1.27892123E+00   # snu_muL decays
#          BR         NDA      ID1       ID2
     3.61705644E-01    2     1000022        14   # BR(~nu_muL -> ~chi_10 nu_mu)
     1.27442356E-02    2     1000023        14   # BR(~nu_muL -> ~chi_20 nu_mu)
     2.21124787E-02    2     1000025        14   # BR(~nu_muL -> ~chi_30 nu_mu)
     1.23523164E-01    2     1000035        14   # BR(~nu_muL -> ~chi_40 nu_mu)
     2.58707898E-01    2     1000024        13   # BR(~nu_muL -> ~chi_1+ mu-)
     2.21206579E-01    2     1000037        13   # BR(~nu_muL -> ~chi_2+ mu-)
#
#         PDG            Width
DECAY   1000016     2.13448512E+01   # snu_tauL decays
#          BR         NDA      ID1       ID2
     9.76845815E-02    2     1000022        16   # BR(~nu_tauL -> ~chi_10 nu_tau)
     4.23024667E-03    2     1000023        16   # BR(~nu_tauL -> ~chi_20 nu_tau)
     7.51215079E-03    2     1000025        16   # BR(~nu_tauL -> ~chi_30 nu_tau)
     2.69402803E-01    2     1000035        16   # BR(~nu_tauL -> ~chi_40 nu_tau)
     1.34683569E-01    2     1000024        15   # BR(~nu_tauL -> ~chi_1+ tau-)
     4.85437514E-01    2     1000037        15   # BR(~nu_tauL -> ~chi_2+ tau-)
     1.04913493E-03    2    -1000015       -24   # BR(~nu_tauL -> ~tau_1+ W-)
#
#         PDG            Width
DECAY   1000024     2.23181234E-05   # chargino1+ decays
#           BR         NDA      ID1       ID2       ID3
     3.33359067E-01    3     1000022         2        -1   # BR(~chi_1+ -> ~chi_10 u    db)
     3.33359067E-01    3     1000022         4        -3   # BR(~chi_1+ -> ~chi_10 c    sb)
     1.11508588E-01    3     1000022       -11        12   # BR(~chi_1+ -> ~chi_10 e+   nu_e)
     1.11508588E-01    3     1000022       -13        14   # BR(~chi_1+ -> ~chi_10 mu+  nu_mu)
     1.10264691E-01    3     1000022       -15        16   # BR(~chi_1+ -> ~chi_10 tau+ nu_tau)
#
#         PDG            Width
DECAY   1000037     2.02388735E+00   # chargino2+ decays
#          BR         NDA      ID1       ID2
     7.73051088E-06    2    -1000015        16   # BR(~chi_2+ -> ~tau_1+  nu_tau)
     2.69901489E-01    2     1000024        23   # BR(~chi_2+ -> ~chi_1+  Z )
     7.91839859E-02    2     1000022        24   # BR(~chi_2+ -> ~chi_10  W+)
     2.50560398E-01    2     1000023        24   # BR(~chi_2+ -> ~chi_20  W+)
     2.03133685E-01    2     1000025        24   # BR(~chi_2+ -> ~chi_30  W+)
     1.97212711E-01    2     1000024        25   # BR(~chi_2+ -> ~chi_1+  h )
#
#         PDG            Width
DECAY   1000022     0.00000000E+00   # neutralino1 decays
#
#         PDG            Width
DECAY   1000023     1.31499963E-04   # neutralino2 decays
#          BR         NDA      ID1       ID2
     8.05546171E-03    2     1000022        22   # BR(~chi_20 -> ~chi_10 gam)
#           BR         NDA      ID1       ID2       ID3
     1.14386485E-01    3     1000022        -2         2   # BR(~chi_20 -> ~chi_10 ub      u)
     1.48331686E-01    3     1000022        -1         1   # BR(~chi_20 -> ~chi_10 db      d)
     1.14386485E-01    3     1000022        -4         4   # BR(~chi_20 -> ~chi_10 cb      c)
     1.48331686E-01    3     1000022        -3         3   # BR(~chi_20 -> ~chi_10 sb      s)
     1.37350655E-01    3     1000022        -5         5   # BR(~chi_20 -> ~chi_10 bb      b)
     3.38680091E-02    3     1000022       -11        11   # BR(~chi_20 -> ~chi_10 e+      e-)
     3.38680091E-02    3     1000022       -13        13   # BR(~chi_20 -> ~chi_10 mu+     mu-)
     3.39320455E-02    3     1000022       -15        15   # BR(~chi_20 -> ~chi_10 tau+    tau-)
     6.82886544E-02    3     1000022       -12        12   # BR(~chi_20 -> ~chi_10 nu_eb   nu_e)
     6.82886544E-02    3     1000022       -14        14   # BR(~chi_20 -> ~chi_10 nu_mub  nu_mu)
     6.79792651E-02    3     1000022       -16        16   # BR(~chi_20 -> ~chi_10 nu_taub nu_tau)
     3.84190983E-03    3     1000024        -2         1   # BR(~chi_20 -> ~chi_1+ ub      d)
     3.84190983E-03    3    -1000024        -1         2   # BR(~chi_20 -> ~chi_1- db      u)
     3.84190983E-03    3     1000024        -4         3   # BR(~chi_20 -> ~chi_1+ cb      s)
     3.84190983E-03    3    -1000024        -3         4   # BR(~chi_20 -> ~chi_1- sb      c)
     1.28211924E-03    3     1000024       -12        11   # BR(~chi_20 -> ~chi_1+ nu_eb   e-)
     1.28211924E-03    3    -1000024        12       -11   # BR(~chi_20 -> ~chi_1- nu_e    e+)
     1.28211924E-03    3     1000024       -14        13   # BR(~chi_20 -> ~chi_1+ nu_mub  mu-)
     1.28211924E-03    3    -1000024        14       -13   # BR(~chi_20 -> ~chi_1- nu_mu   mu+)
     1.21839314E-03    3     1000024       -16        15   # BR(~chi_20 -> ~chi_1+ nu_taub tau-)
     1.21839314E-03    3    -1000024        16       -15   # BR(~chi_20 -> ~chi_1- nu_tau  tau+)
#
#         PDG            Width
DECAY   1000025     9.28817091E-06   # neutralino3 decays
#          BR         NDA      ID1       ID2
     9.81801380E-02    2     1000022        22   # BR(~chi_30 -> ~chi_10 gam)
     1.12850184E-05    2     1000023        22   # BR(~chi_30 -> ~chi_20 gam)
#           BR         NDA      ID1       ID2       ID3
     2.16757435E-02    3     1000022        -2         2   # BR(~chi_30 -> ~chi_10 ub      u)
     2.80162988E-02    3     1000022        -1         1   # BR(~chi_30 -> ~chi_10 db      d)
     2.16757435E-02    3     1000022        -4         4   # BR(~chi_30 -> ~chi_10 cb      c)
     2.80162988E-02    3     1000022        -3         3   # BR(~chi_30 -> ~chi_10 sb      s)
     2.95968208E-02    3     1000022        -5         5   # BR(~chi_30 -> ~chi_10 bb      b)
     2.15796950E-03    3     1000022       -11        11   # BR(~chi_30 -> ~chi_10 e+      e-)
     2.15796950E-03    3     1000022       -13        13   # BR(~chi_30 -> ~chi_10 mu+     mu-)
     6.65720976E-03    3     1000022       -15        15   # BR(~chi_30 -> ~chi_10 tau+    tau-)
     1.44455606E-02    3     1000022       -12        12   # BR(~chi_30 -> ~chi_10 nu_eb   nu_e)
     1.44455606E-02    3     1000022       -14        14   # BR(~chi_30 -> ~chi_10 nu_mub  nu_mu)
     1.29582835E-02    3     1000022       -16        16   # BR(~chi_30 -> ~chi_10 nu_taub nu_tau)
     1.32093638E-05    3     1000023        -2         2   # BR(~chi_30 -> ~chi_20 ub      u)
     1.71297239E-05    3     1000023        -1         1   # BR(~chi_30 -> ~chi_20 db      d)
     1.32093638E-05    3     1000023        -4         4   # BR(~chi_30 -> ~chi_20 cb      c)
     1.71297239E-05    3     1000023        -3         3   # BR(~chi_30 -> ~chi_20 sb      s)
     3.93662669E-06    3     1000023       -11        11   # BR(~chi_30 -> ~chi_20 e+      e-)
     3.93662669E-06    3     1000023       -13        13   # BR(~chi_30 -> ~chi_20 mu+     mu-)
     9.77966236E-07    3     1000023       -15        15   # BR(~chi_30 -> ~chi_20 tau+    tau-)
     7.83415606E-06    3     1000023       -12        12   # BR(~chi_30 -> ~chi_20 nu_eb   nu_e)
     7.83415606E-06    3     1000023       -14        14   # BR(~chi_30 -> ~chi_20 nu_mub  nu_mu)
     7.84598843E-06    3     1000023       -16        16   # BR(~chi_30 -> ~chi_20 nu_taub nu_tau)
     1.20302982E-01    3     1000024        -2         1   # BR(~chi_30 -> ~chi_1+ ub      d)
     1.20302982E-01    3    -1000024        -1         2   # BR(~chi_30 -> ~chi_1- db      u)
     1.20302982E-01    3     1000024        -4         3   # BR(~chi_30 -> ~chi_1+ cb      s)
     1.20302982E-01    3    -1000024        -3         4   # BR(~chi_30 -> ~chi_1- sb      c)
     4.01589659E-02    3     1000024       -12        11   # BR(~chi_30 -> ~chi_1+ nu_eb   e-)
     4.01589659E-02    3    -1000024        12       -11   # BR(~chi_30 -> ~chi_1- nu_e    e+)
     4.01589659E-02    3     1000024       -14        13   # BR(~chi_30 -> ~chi_1+ nu_mub  mu-)
     4.01589659E-02    3    -1000024        14       -13   # BR(~chi_30 -> ~chi_1- nu_mu   mu+)
     3.90321417E-02    3     1000024       -16        15   # BR(~chi_30 -> ~chi_1+ nu_taub tau-)
     3.90321417E-02    3    -1000024        16       -15   # BR(~chi_30 -> ~chi_1- nu_tau  tau+)
#
#         PDG            Width
DECAY   1000035     2.01950075E+00   # neutralino4 decays
#          BR         NDA      ID1       ID2
     1.04078776E-02    2     1000022        23   # BR(~chi_40 -> ~chi_10   Z )
     2.01265344E-01    2     1000023        23   # BR(~chi_40 -> ~chi_20   Z )
     1.62478008E-02    2     1000025        23   # BR(~chi_40 -> ~chi_30   Z )
     2.96980704E-01    2     1000024       -24   # BR(~chi_40 -> ~chi_1+   W-)
     2.96980704E-01    2    -1000024        24   # BR(~chi_40 -> ~chi_1-   W+)
     4.39448095E-02    2     1000022        25   # BR(~chi_40 -> ~chi_10   h )
     8.39588641E-03    2     1000023        25   # BR(~chi_40 -> ~chi_20   h )
     1.25758716E-01    2     1000025        25   # BR(~chi_40 -> ~chi_30   h )
     9.07842704E-06    2     1000015       -15   # BR(~chi_40 -> ~tau_1-   tau+)
     9.07842704E-06    2    -1000015        15   # BR(~chi_40 -> ~tau_1+   tau-)
#
#         PDG            Width
DECAY        25     3.85888349E-03   # h decays
#          BR         NDA      ID1       ID2
     5.90859541E-01    2           5        -5   # BR(h -> b       bb     )
     6.72225938E-02    2         -15        15   # BR(h -> tau+    tau-   )
     2.37966301E-04    2         -13        13   # BR(h -> mu+     mu-    )
     2.59927623E-04    2           3        -3   # BR(h -> s       sb     )
     2.24106150E-02    2           4        -4   # BR(h -> c       cb     )
     8.20910499E-02    2          21        21   # BR(h -> g       g      )
     2.38274493E-03    2          22        22   # BR(h -> gam     gam    )
     1.55533135E-03    2          22        23   # BR(h -> Z       gam    )
     2.07274247E-01    2          24       -24   # BR(h -> W+      W-     )
     2.57059840E-02    2          23        23   # BR(h -> Z       Z      )
#
#         PDG            Width
DECAY        35     4.83080723E+01   # H decays
#          BR         NDA      ID1       ID2
     2.41419926E-01    2           5        -5   # BR(H -> b       bb     )
     4.31615445E-02    2         -15        15   # BR(H -> tau+    tau-   )
     1.57032433E-04    2         -13        13   # BR(H -> mu+     mu-    )
     9.89778555E-05    2           3        -3   # BR(H -> s       sb     )
     6.15142125E-08    2           4        -4   # BR(H -> c       cb     )
     6.02631164E-03    2           6        -6   # BR(H -> t       tb     )
     2.35276747E-06    2          21        21   # BR(H -> g       g      )
     3.36164035E-08    2          22        22   # BR(H -> gam     gam    )
     2.86215308E-09    2          23        22   # BR(H -> Z       gam    )
     3.07822286E-06    2          24       -24   # BR(H -> W+      W-     )
     1.53514690E-06    2          23        23   # BR(H -> Z       Z      )
     1.32859791E-05    2          25        25   # BR(H -> h       h      )
     5.71372826E-02    2     1000024  -1000024   # BR(H -> ~chi_1+ ~chi_1-)
     1.61204803E-02    2     1000037  -1000037   # BR(H -> ~chi_2+ ~chi_2-)
     1.78127912E-01    2     1000024  -1000037   # BR(H -> ~chi_1+ ~chi_2-)
     1.78127912E-01    2     1000037  -1000024   # BR(H -> ~chi_2+ ~chi_1-)
     3.84635452E-02    2     1000022   1000022   # BR(H -> ~chi_10 ~chi_10)
     2.51652000E-03    2     1000023   1000023   # BR(H -> ~chi_20 ~chi_20)
     1.89417615E-03    2     1000025   1000025   # BR(H -> ~chi_30 ~chi_30)
     8.87503405E-03    2     1000035   1000035   # BR(H -> ~chi_40 ~chi_40)
     1.91636626E-02    2     1000022   1000023   # BR(H -> ~chi_10 ~chi_20)
     8.01268110E-03    2     1000022   1000025   # BR(H -> ~chi_10 ~chi_30)
     4.35313695E-02    2     1000022   1000035   # BR(H -> ~chi_10 ~chi_40)
     4.79465209E-03    2     1000023   1000025   # BR(H -> ~chi_20 ~chi_30)
     9.83163142E-02    2     1000023   1000035   # BR(H -> ~chi_20 ~chi_40)
     5.25472630E-02    2     1000025   1000035   # BR(H -> ~chi_30 ~chi_40)
     6.96323033E-06    2     1000005  -1000005   # BR(H -> ~b_1    ~b_1*  )
     5.28581098E-07    2     1000011  -1000011   # BR(H -> ~e_L-   ~e_L+  )
     3.45058918E-07    2     2000011  -2000011   # BR(H -> ~e_R-   ~e_R+  )
     5.28581098E-07    2     1000013  -1000013   # BR(H -> ~mu_L-  ~mu_L+ )
     3.45058918E-07    2     2000013  -2000013   # BR(H -> ~mu_R-  ~mu_R+ )
     3.31279388E-08    2     1000015  -1000015   # BR(H -> ~tau_1- ~tau_1+)
     7.37431939E-04    2     1000015  -2000015   # BR(H -> ~tau_1- ~tau_2+)
     7.37431939E-04    2     2000015  -1000015   # BR(H -> ~tau_2- ~tau_1+)
     1.72245693E-06    2     1000012  -1000012   # BR(H -> ~nu_eL  ~nu_eL*   )
     1.72245693E-06    2     1000014  -1000014   # BR(H -> ~nu_muL ~nu_muL*  )
#
#         PDG            Width
DECAY        36     4.83112567E+01   # A decays
#          BR         NDA      ID1       ID2
     2.41423863E-01    2           5        -5   # BR(A -> b       bb     )
     4.31591763E-02    2         -15        15   # BR(A -> tau+    tau-   )
     1.57023500E-04    2         -13        13   # BR(A -> mu+     mu-    )
     9.89909064E-05    2           3        -3   # BR(A -> s       sb     )
     6.17015528E-08    2           4        -4   # BR(A -> c       cb     )
     6.05746297E-03    2           6        -6   # BR(A -> t       tb     )
     2.12132369E-05    2          21        21   # BR(A -> g       g      )
     1.19497489E-08    2          22        22   # BR(A -> gam     gam    )
     1.83391181E-08    2          23        22   # BR(A -> Z       gam    )
     3.11553227E-06    2          23        25   # BR(A -> Z       h      )
     5.32676559E-02    2     1000024  -1000024   # BR(A -> ~chi_1+ ~chi_1-)
     1.23920952E-02    2     1000037  -1000037   # BR(A -> ~chi_2+ ~chi_2-)
     1.81924981E-01    2     1000024  -1000037   # BR(A -> ~chi_1+ ~chi_2-)
     1.81924981E-01    2     1000037  -1000024   # BR(A -> ~chi_2+ ~chi_1-)
     3.34000415E-02    2     1000022   1000022   # BR(A -> ~chi_10 ~chi_10)
     3.25372046E-03    2     1000023   1000023   # BR(A -> ~chi_20 ~chi_20)
     1.59845415E-03    2     1000025   1000025   # BR(A -> ~chi_30 ~chi_30)
     6.94031538E-03    2     1000035   1000035   # BR(A -> ~chi_40 ~chi_40)
     2.45895162E-02    2     1000022   1000023   # BR(A -> ~chi_10 ~chi_20)
     6.58378558E-03    2     1000022   1000025   # BR(A -> ~chi_10 ~chi_30)
     4.03970363E-02    2     1000022   1000035   # BR(A -> ~chi_10 ~chi_40)
     4.83428998E-03    2     1000023   1000025   # BR(A -> ~chi_20 ~chi_30)
     1.11064503E-01    2     1000023   1000035   # BR(A -> ~chi_20 ~chi_40)
     4.54330001E-02    2     1000025   1000035   # BR(A -> ~chi_30 ~chi_40)
     7.37343860E-04    2     1000015  -2000015   # BR(A -> ~tau_1- ~tau_2+)
     7.37343860E-04    2    -1000015   2000015   # BR(A -> ~tau_1+ ~tau_2-)
#
#         PDG            Width
DECAY        37     4.90109131E+01   # H+ decays
#          BR         NDA      ID1       ID2
     4.25332852E-04    2           4        -5   # BR(H+ -> c       bb     )
     4.25699332E-02    2         -15        16   # BR(H+ -> tau+    nu_tau )
     1.54879691E-04    2         -13        14   # BR(H+ -> mu+     nu_mu  )
     4.25332125E-06    2           2        -5   # BR(H+ -> u       bb     )
     4.88021274E-06    2           2        -3   # BR(H+ -> u       sb     )
     9.61157201E-05    2           4        -3   # BR(H+ -> c       sb     )
     2.58402147E-01    2           6        -5   # BR(H+ -> t       bb     )
     3.07936411E-06    2          24        25   # BR(H+ -> W+      h      )
     3.55433891E-13    2          24        36   # BR(H+ -> W+      A      )
     3.06516902E-02    2     1000024   1000022   # BR(H+ -> ~chi_1+ ~chi_10)
     1.33712646E-02    2     1000024   1000023   # BR(H+ -> ~chi_1+ ~chi_20)
     4.77221832E-02    2     1000024   1000025   # BR(H+ -> ~chi_1+ ~chi_30)
     1.89659099E-01    2     1000024   1000035   # BR(H+ -> ~chi_1+ ~chi_40)
     9.91032292E-02    2     1000037   1000022   # BR(H+ -> ~chi_2+ ~chi_10)
     1.91412096E-01    2     1000037   1000023   # BR(H+ -> ~chi_2+ ~chi_20)
     1.24935485E-01    2     1000037   1000025   # BR(H+ -> ~chi_2+ ~chi_30)
     2.23986059E-05    2     1000037   1000035   # BR(H+ -> ~chi_2+ ~chi_40)
     2.04197799E-06    2    -1000011   1000012   # BR(H+ -> ~e_L+   ~nu_eL )
     2.04197799E-06    2    -1000013   1000014   # BR(H+ -> ~mu_L+  ~nu_muL)
     1.45784966E-03    2    -1000015   1000016   # BR(H+ -> ~tau_1+ ~nu_tauL)
