#
#                              ======================
#                              | THE SUSYHIT OUTPUT |
#                              ======================
#
#
#              ------------------------------------------------------
#              |     This is the output of the SUSY-HIT package     |
#              |  created by A.Djouadi, M.Muehlleitner and M.Spira. |
#              |  In case of problems with SUSY-HIT email to        |
#              |           margarete.muehlleitner@cern.ch           |
#              |           michael.spira@psi.ch                     |
#              |           abdelhak.djouadi@cern.ch                 |
#              ------------------------------------------------------
#
#              ------------------------------------------------------
#              |  SUSY Les Houches Accord - MSSM Spectrum + Decays  |
#              |              based on the decay programs           |
#              |                                                    |
#              |                     SDECAY 1.3b                    |
#              |                                                    |
#              |  Authors: M.Muhlleitner, A.Djouadi and Y.Mambrini  |
#              |  Ref.:    Comput.Phys.Commun.168(2005)46           |
#              |           [hep-ph/0311167]                         |
#              |                                                    |
#              |                     HDECAY 3.4                     |
#              |                                                    |
#              |  By: A.Djouadi,J.Kalinowski,M.Muhlleitner,M.Spira  |
#              |  Ref.:    Comput.Phys.Commun.108(1998)56           |
#              |           [hep-ph/9704448]                         |
#              |                                                    |
#              |                                                    |
#              |  If not stated otherwise all DRbar couplings and   |
#              |  soft SUSY breaking masses are given at the scale  |
#              |  Q=  0.12294080E+04
#              |                                                    |
#              ------------------------------------------------------
#
#
BLOCK DCINFO  # Decay Program information
     1   SDECAY/HDECAY # decay calculator
     2   1.3b  /3.4    # version number
#
BLOCK SPINFO  # Spectrum calculator information
     1     SOFTSUSY    # spectrum calculator               
     2     3.4.0       # version number                    
#
BLOCK MODSEL  # Model selection
     1     0   #  nonUniversal                                     
#
BLOCK SMINPUTS  # Standard Model inputs
         1     1.27908970E+02   # alpha_em^-1(M_Z)^MSbar
         2     1.16637870E-05   # G_F [GeV^-2]
         3     1.18400000E-01   # alpha_S(M_Z)^MSbar
         4     9.11876000E+01   # M_Z pole mass
         5     4.18000000E+00   # mb(mb)^MSbar
         6     1.73200000E+02   # mt pole mass
         7     1.77700000E+00   # mtau pole mass
#
BLOCK MINPAR  # Input parameters - minimal models
         3     1.06400000E+01   # tanb                
#
BLOCK EXTPAR  # Input parameters - non-minimal models
         0    -1.00000000E+00   # Set                 
         1     6.79180000E+02   # M_1(MX)             
         2    -1.98237000E+03   # M_2(MX)             
         3     1.08075000E+03   # M_3(MX)             
        11     2.44527000E+03   # At(MX)              
        12    -6.11360000E+02   # Ab(MX)              
        13     3.08770000E+03   # Atau(MX)            
        23     1.18924000E+03   # mu(MX)              
        26     1.41951000E+03   # mA(pole)            
        31     3.81887000E+03   # meL(MX)             
        32     3.81887000E+03   # mmuL(MX)            
        33     1.99896000E+03   # mtauL(MX)           
        34     3.49986000E+03   # meR(MX)             
        35     3.49986000E+03   # mmuR(MX)            
        36     2.74860000E+03   # mtauR(MX)           
        41     2.41262000E+03   # mqL1(MX)            
        42     2.41262000E+03   # mqL2(MX)            
        43     8.64070000E+02   # mqL3(MX)            
        44     3.90756000E+03   # muR(MX)             
        45     3.90756000E+03   # mcR(MX)             
        46     1.76595000E+03   # mtR(MX)             
        47     1.78593000E+03   # mdR(MX)             
        48     1.78593000E+03   # msR(MX)             
        49     2.24139000E+03   # mbR(MX)             
#
BLOCK MASS  # Mass Spectrum
# PDG code           mass       particle
        24     8.04247147E+01   # W+
        25     1.25610842E+02   # h
        35     1.41944834E+03   # H
        36     1.41950993E+03   # A
        37     1.42199220E+03   # H+
         5     4.81876030E+00   # b-quark pole mass calculated from mb(mb)_Msbar
   1000001     2.43783017E+03   # ~d_L
   2000001     1.80484698E+03   # ~d_R
   1000002     2.43669710E+03   # ~u_L
   2000002     3.94400034E+03   # ~u_R
   1000003     2.43783017E+03   # ~s_L
   2000003     1.80484698E+03   # ~s_R
   1000004     2.43669710E+03   # ~c_L
   2000004     3.94400034E+03   # ~c_R
   1000005     9.19250769E+02   # ~b_1
   2000005     2.25841572E+03   # ~b_2
   1000006     9.02821987E+02   # ~t_1
   2000006     1.78434953E+03   # ~t_2
   1000011     3.82726125E+03   # ~e_L
   2000011     3.49316996E+03   # ~e_R
   1000012     3.82612877E+03   # ~nu_eL
   1000013     3.82726125E+03   # ~mu_L
   2000013     3.49316996E+03   # ~mu_R
   1000014     3.82612877E+03   # ~nu_muL
   1000015     2.01547355E+03   # ~tau_1
   2000015     2.73870298E+03   # ~tau_2
   1000016     2.01365064E+03   # ~nu_tauL
   1000021     1.22239824E+03   # ~g
   1000022     6.83251043E+02   # ~chi_10
   1000023    -1.20281320E+03   # ~chi_20
   1000025     1.21057895E+03   # ~chi_30
   1000035    -2.00609422E+03   # ~chi_40
   1000024     1.20461056E+03   # ~chi_1+
   1000037     2.00625849E+03   # ~chi_2+
#
BLOCK NMIX  # Neutralino Mixing Matrix
  1  1     9.97857387E-01   # N_11
  1  2     1.16682016E-03   # N_12
  1  3     5.54658030E-02   # N_13
  1  4    -3.46816720E-02   # N_14
  2  1    -1.47252011E-02   # N_21
  2  2    -6.44715180E-02   # N_22
  2  3     7.06716775E-01   # N_23
  2  4     7.04399029E-01   # N_24
  3  1     6.37417773E-02   # N_31
  3  2    -1.92525919E-02   # N_32
  3  3    -7.04592492E-01   # N_33
  3  4     7.06481241E-01   # N_34
  4  1    -8.88495855E-04   # N_41
  4  2     9.97733130E-01   # N_42
  4  3     3.20057057E-02   # N_43
  4  4     5.91899127E-02   # N_44
#
BLOCK UMIX  # Chargino Mixing Matrix U
  1  1    -4.63576807E-02   # U_11
  1  2     9.98924905E-01   # U_12
  2  1    -9.98924905E-01   # U_21
  2  2    -4.63576807E-02   # U_22
#
BLOCK VMIX  # Chargino Mixing Matrix V
  1  1     8.53040158E-02   # V_11
  1  2     9.96354969E-01   # V_12
  2  1     9.96354969E-01   # V_21
  2  2    -8.53040158E-02   # V_22
#
BLOCK STOPMIX  # Stop Mixing Matrix
  1  1     9.90091960E-01   # cos(theta_t)
  1  2    -1.40420478E-01   # sin(theta_t)
  2  1     1.40420478E-01   # -sin(theta_t)
  2  2     9.90091960E-01   # cos(theta_t)
#
BLOCK SBOTMIX  # Sbottom Mixing Matrix
  1  1     9.99980227E-01   # cos(theta_b)
  1  2     6.28852996E-03   # sin(theta_b)
  2  1    -6.28852996E-03   # -sin(theta_b)
  2  2     9.99980227E-01   # cos(theta_b)
#
BLOCK STAUMIX  # Stau Mixing Matrix
  1  1     9.99989044E-01   # cos(theta_tau)
  1  2     4.68101271E-03   # sin(theta_tau)
  2  1    -4.68101271E-03   # -sin(theta_tau)
  2  2     9.99989044E-01   # cos(theta_tau)
#
BLOCK ALPHA  # Higgs mixing
          -9.88022592E-02   # Mixing angle in the neutral Higgs boson sector
#
BLOCK HMIX Q=  1.22940800E+03  # DRbar Higgs Parameters
         1     1.20455984E+03   # mu(Q)MSSM           
         2     1.02248494E+01   # tan                 
         3     2.43792317E+02   # higgs               
         4     1.98130257E+06   # mA^2(Q)MSSM         
#
BLOCK GAUGE Q=  1.22940800E+03  # The gauge couplings
     1     3.61843123E-01   # gprime(Q) DRbar
     2     6.36269741E-01   # g(Q) DRbar
     3     1.04781086E+00   # g3(Q) DRbar
#
BLOCK AU Q=  1.22940800E+03  # The trilinear couplings
  1  1     0.00000000E+00   # A_u(Q) DRbar
  2  2     0.00000000E+00   # A_c(Q) DRbar
  3  3     2.44527000E+03   # A_t(Q) DRbar
#
BLOCK AD Q=  1.22940800E+03  # The trilinear couplings
  1  1     0.00000000E+00   # A_d(Q) DRbar
  2  2     0.00000000E+00   # A_s(Q) DRbar
  3  3    -6.11360000E+02   # A_b(Q) DRbar
#
BLOCK AE Q=  1.22940800E+03  # The trilinear couplings
  1  1     0.00000000E+00   # A_e(Q) DRbar
  2  2     0.00000000E+00   # A_mu(Q) DRbar
  3  3     3.08770000E+03   # A_tau(Q) DRbar
#
BLOCK Yu Q=  1.22940800E+03  # The Yukawa couplings
  1  1     0.00000000E+00   # y_u(Q) DRbar
  2  2     0.00000000E+00   # y_c(Q) DRbar
  3  3     8.77696432E-01   # y_t(Q) DRbar
#
BLOCK Yd Q=  1.22940800E+03  # The Yukawa couplings
  1  1     0.00000000E+00   # y_d(Q) DRbar
  2  2     0.00000000E+00   # y_s(Q) DRbar
  3  3     1.27536586E-01   # y_b(Q) DRbar
#
BLOCK Ye Q=  1.22940800E+03  # The Yukawa couplings
  1  1     0.00000000E+00   # y_e(Q) DRbar
  2  2     0.00000000E+00   # y_mu(Q) DRbar
  3  3     1.03219174E-01   # y_tau(Q) DRbar
#
BLOCK MSOFT Q=  1.22940800E+03  # The soft SUSY breaking masses at the scale Q
         1     6.79180000E+02   # M_1(Q)              
         2    -1.98237000E+03   # M_2(Q)              
         3     1.08075000E+03   # M_3(Q)              
        21     4.94702221E+05   # mH1^2(Q)            
        22    -1.39409888E+06   # mH2^2(Q)            
        31     3.81887000E+03   # meL(Q)              
        32     3.81887000E+03   # mmuL(Q)             
        33     1.99896000E+03   # mtauL(Q)            
        34     3.49986000E+03   # meR(Q)              
        35     3.49986000E+03   # mmuR(Q)             
        36     2.74860000E+03   # mtauR(Q)            
        41     2.41262000E+03   # mqL1(Q)             
        42     2.41262000E+03   # mqL2(Q)             
        43     8.64069999E+02   # mqL3(Q)             
        44     3.90756000E+03   # muR(Q)              
        45     3.90756000E+03   # mcR(Q)              
        46     1.76595000E+03   # mtR(Q)              
        47     1.78593000E+03   # mdR(Q)              
        48     1.78593000E+03   # msR(Q)              
        49     2.24139000E+03   # mbR(Q)              
#
Block HiggsBoundsInputHiggsCouplingsFermions
# ScalarNormEffCoupSq PseudoSNormEffCoupSq NP   IP1 IP2 IP2
    1.02699481E+00    0.00000000E+00        3  25   5   5  # h0-b-b eff. coupling^2, normalised to SM
    1.04520550E+02    0.00000000E+00        3  35   5   5  # H0-b-b eff. coupling^2, normalised to SM
    0.00000000E+00    1.04547545E+02        3  36   5   5  # A0-b-b eff. coupling^2, normalised to SM
#
    9.99741794E-01    0.00000000E+00        3  25   6   6  # h0-t-t eff. coupling^2, normalised to SM
    9.82323219E-03    0.00000000E+00        3  35   6   6  # H0-t-t eff. coupling^2, normalised to SM
    0.00000000E+00    9.56502611E-03        3  36   6   6  # A0-t-t eff. coupling^2, normalised to SM
#
    1.02699481E+00    0.00000000E+00        3  25  15  15  # h0-tau-tau eff. coupling^2, normalised to SM
    1.04520550E+02    0.00000000E+00        3  35  15  15  # H0-tau-tau eff. coupling^2, normalised to SM
    0.00000000E+00    1.04547545E+02        3  36  15  15  # A0-tau-tau eff. coupling^2, normalised to SM
#
Block HiggsBoundsInputHiggsCouplingsBosons
    9.99998280E-01        3  25  24  24  # h0-W-W eff. coupling^2, normalised to SM
    1.71964620E-06        3  35  24  24  # H0-W-W eff. coupling^2, normalised to SM
    0.00000000E+00        3  36  24  24  # A0-W-W eff. coupling^2, normalised to SM
#
    9.99998280E-01        3  25  23  23  # h0-Z-Z eff. coupling^2, normalised to SM
    1.71964620E-06        3  35  23  23  # H0-Z-Z eff. coupling^2, normalised to SM
    0.00000000E+00        3  36  23  23  # A0-Z-Z eff. coupling^2, normalised to SM
#
    8.80596569E-01        3  25  21  21  # h0-g-g eff. coupling^2, normalised to SM
    2.61903715E-09        3  35  21  21  # H0-g-g eff. coupling^2, normalised to SM
    3.00138859E-08        3  36  21  21  # A0-g-g eff. coupling^2, normalised to SM
#
    0.00000000E+00        3  25  25  23  # h0-h0-Z eff. coupling^2, normalised to SM
    0.00000000E+00        3  35  25  23  # H0-h0-Z eff. coupling^2, normalised to SM
    1.71964620E-06        3  36  25  23  # A0-h0-Z eff. coupling^2, normalised to SM
    0.00000000E+00        3  35  35  23  # H0-H0-Z eff. coupling^2, normalised to SM
    9.99998280E-01        3  36  35  23  # A0-H0-Z eff. coupling^2, normalised to SM
    0.00000000E+00        3  36  36  23  # A0-A0-Z eff. coupling^2, normalised to SM
#
    0.00000000E+00        4  25  21  21  23  # h0-g-g-Z eff. coupling^2, normalised to SM
    0.00000000E+00        4  35  21  21  23  # H0-g-g-Z eff. coupling^2, normalised to SM
    0.00000000E+00        4  36  21  21  23  # A0-g-g-Z eff. coupling^2, normalised to SM
#
#
#
#                             =================
#                             |The decay table|
#                             =================
#
# - The QCD corrections to the decays gluino -> squark  + quark
#                                     squark -> gaugino + quark_prime
#                                     squark -> squark_prime + Higgs
#                                     squark -> gluino  + quark
#   are included.
#
# - The multi-body decays for the inos, stops and sbottoms are included.
#
# - The loop induced decays for the gluino, neutralinos and stops
#   are included.
#
# - The SUSY decays of the top quark are included.
#
#
#         PDG            Width
DECAY         6     1.42424341E+00   # top decays
#          BR         NDA      ID1       ID2
     1.00000000E+00    2           5        24   # BR(t ->  b    W+)
#
#         PDG            Width
DECAY   1000021     1.09527340E+01   # gluino decays
#          BR         NDA      ID1       ID2
     2.36743047E-01    2     1000005        -5   # BR(~g -> ~b_1  bb)
     2.36743047E-01    2    -1000005         5   # BR(~g -> ~b_1* b )
     2.63256953E-01    2     1000006        -6   # BR(~g -> ~t_1  tb)
     2.63256953E-01    2    -1000006         6   # BR(~g -> ~t_1* t )
#
#         PDG            Width
DECAY   1000006     1.08070004E-02   # stop1 decays
#          BR         NDA      ID1       ID2
     1.00000000E+00    2     1000022         6   # BR(~t_1 -> ~chi_10 t )
#
#         PDG            Width
DECAY   2000006     1.04467093E+02   # stop2 decays
#          BR         NDA      ID1       ID2
     2.79032323E-02    2     1000022         6   # BR(~t_2 -> ~chi_10 t )
     3.83843159E-02    2     1000023         6   # BR(~t_2 -> ~chi_20 t )
     3.33855991E-02    2     1000025         6   # BR(~t_2 -> ~chi_30 t )
     7.41396214E-02    2     1000024         5   # BR(~t_2 -> ~chi_1+ b )
     2.79915671E-01    2     1000021         6   # BR(~t_2 -> ~g      t )
     1.49132053E-01    2     1000006        25   # BR(~t_2 -> ~t_1    h )
     1.36271273E-01    2     1000006        23   # BR(~t_2 -> ~t_1    Z )
     2.60868234E-01    2     1000005        24   # BR(~t_2 -> ~b_1    W+)
#
#         PDG            Width
DECAY   1000005     2.63790190E-02   # sbottom1 decays
#          BR         NDA      ID1       ID2
     1.00000000E+00    2     1000022         5   # BR(~b_1 -> ~chi_10 b )
#
#         PDG            Width
DECAY   2000005     6.79147086E+01   # sbottom2 decays
#          BR         NDA      ID1       ID2
     1.58308282E-02    2     1000022         5   # BR(~b_2 -> ~chi_10 b )
     2.74968124E-03    2     1000023         5   # BR(~b_2 -> ~chi_20 b )
     2.76465568E-03    2     1000025         5   # BR(~b_2 -> ~chi_30 b )
     1.40328279E-06    2     1000035         5   # BR(~b_2 -> ~chi_40 b )
     5.41844567E-03    2    -1000024         6   # BR(~b_2 -> ~chi_1- t )
     2.17179330E-06    2    -1000037         6   # BR(~b_2 -> ~chi_2- t )
     9.68186890E-01    2     1000021         5   # BR(~b_2 -> ~g      b )
     1.39088961E-03    2     1000005        25   # BR(~b_2 -> ~b_1    h )
     1.23807008E-03    2     1000005        23   # BR(~b_2 -> ~b_1    Z )
     2.41278600E-03    2     1000006       -24   # BR(~b_2 -> ~t_1    W-)
     4.17886094E-06    2     2000006       -24   # BR(~b_2 -> ~t_2    W-)
#
#         PDG            Width
DECAY   1000002     9.79097074E+01   # sup_L decays
#          BR         NDA      ID1       ID2
     2.97311422E-03    2     1000022         2   # BR(~u_L -> ~chi_10 u)
     2.50922825E-04    2     1000023         2   # BR(~u_L -> ~chi_20 u)
     2.82714656E-06    2     1000025         2   # BR(~u_L -> ~chi_30 u)
     1.02246083E-02    2     1000035         2   # BR(~u_L -> ~chi_40 u)
     8.05613821E-04    2     1000024         1   # BR(~u_L -> ~chi_1+ d)
     2.03858200E-02    2     1000037         1   # BR(~u_L -> ~chi_2+ d)
     9.65357094E-01    2     1000021         2   # BR(~u_L -> ~g      u)
#
#         PDG            Width
DECAY   2000002     2.31536553E+02   # sup_R decays
#          BR         NDA      ID1       ID2
     3.57827829E-02    2     1000022         2   # BR(~u_R -> ~chi_10 u)
     6.81404318E-06    2     1000023         2   # BR(~u_R -> ~chi_20 u)
     1.27343520E-04    2     1000025         2   # BR(~u_R -> ~chi_30 u)
     1.65851728E-08    2     1000035         2   # BR(~u_R -> ~chi_40 u)
     9.64083043E-01    2     1000021         2   # BR(~u_R -> ~g      u)
#
#         PDG            Width
DECAY   1000001     9.79754095E+01   # sdown_L decays
#          BR         NDA      ID1       ID2
     2.90053205E-03    2     1000022         1   # BR(~d_L -> ~chi_10 d)
     2.11081538E-04    2     1000023         1   # BR(~d_L -> ~chi_20 d)
     5.40306287E-05    2     1000025         1   # BR(~d_L -> ~chi_30 d)
     1.02687966E-02    2     1000035         1   # BR(~d_L -> ~chi_40 d)
     2.38014239E-04    2    -1000024         2   # BR(~d_L -> ~chi_1- u)
     2.05658256E-02    2    -1000037         2   # BR(~d_L -> ~chi_2- u)
     9.65761719E-01    2     1000021         1   # BR(~d_L -> ~g      d)
#
#         PDG            Width
DECAY   2000001     3.73619996E+01   # sdown_R decays
#          BR         NDA      ID1       ID2
     1.96194302E-02    2     1000022         1   # BR(~d_R -> ~chi_10 d)
     1.81739142E-06    2     1000023         1   # BR(~d_R -> ~chi_20 d)
     3.33626385E-05    2     1000025         1   # BR(~d_R -> ~chi_30 d)
     9.80345390E-01    2     1000021         1   # BR(~d_R -> ~g      d)
#
#         PDG            Width
DECAY   1000004     8.29238907E+01   # scharm_L decays
#          BR         NDA      ID1       ID2
     3.63891130E-03    2     1000022         4   # BR(~c_L -> ~chi_10 c)
     3.06255136E-04    2     1000023         4   # BR(~c_L -> ~chi_20 c)
     3.45035883E-06    2     1000025         4   # BR(~c_L -> ~chi_30 c)
     1.22248238E-02    2     1000035         4   # BR(~c_L -> ~chi_40 c)
     9.83251150E-04    2     1000024         3   # BR(~c_L -> ~chi_1+ s)
     2.43737704E-02    2     1000037         3   # BR(~c_L -> ~chi_2+ s)
     9.58469538E-01    2     1000021         4   # BR(~c_L -> ~g      c)
#
#         PDG            Width
DECAY   2000004     1.96293465E+02   # scharm_R decays
#          BR         NDA      ID1       ID2
     4.35832363E-02    2     1000022         4   # BR(~c_R -> ~chi_10 c)
     8.29809132E-06    2     1000023         4   # BR(~c_R -> ~chi_20 c)
     1.55077740E-04    2     1000025         4   # BR(~c_R -> ~chi_30 c)
     2.01801991E-08    2     1000035         4   # BR(~c_R -> ~chi_40 c)
     9.56253368E-01    2     1000021         4   # BR(~c_R -> ~g      c)
#
#         PDG            Width
DECAY   1000003     8.29717194E+01   # sstrange_L decays
#          BR         NDA      ID1       ID2
     3.55039278E-03    2     1000022         3   # BR(~s_L -> ~chi_10 s)
     2.57652909E-04    2     1000023         3   # BR(~s_L -> ~chi_20 s)
     6.59473909E-05    2     1000025         3   # BR(~s_L -> ~chi_30 s)
     1.22796901E-02    2     1000035         3   # BR(~s_L -> ~chi_40 s)
     2.90523372E-04    2    -1000024         4   # BR(~s_L -> ~chi_1- c)
     2.45927009E-02    2    -1000037         4   # BR(~s_L -> ~chi_2- c)
     9.58963093E-01    2     1000021         3   # BR(~s_L -> ~g      s)
#
#         PDG            Width
DECAY   2000003     3.15650490E+01   # sstrange_R decays
#          BR         NDA      ID1       ID2
     2.41866338E-02    2     1000022         3   # BR(~s_R -> ~chi_10 s)
     2.21744251E-06    2     1000023         3   # BR(~s_R -> ~chi_20 s)
     4.06949997E-05    2     1000025         3   # BR(~s_R -> ~chi_30 s)
     9.75770454E-01    2     1000021         3   # BR(~s_R -> ~g      s)
#
#         PDG            Width
DECAY   1000011     2.90338449E+01   # selectron_L decays
#          BR         NDA      ID1       ID2
     1.60883916E-01    2     1000022        11   # BR(~e_L -> ~chi_10 e-)
     2.28794698E-03    2     1000023        11   # BR(~e_L -> ~chi_20 e-)
     1.24207996E-04    2     1000025        11   # BR(~e_L -> ~chi_30 e-)
     2.77676450E-01    2     1000035        11   # BR(~e_L -> ~chi_40 e-)
     1.85194142E-03    2    -1000024        12   # BR(~e_L -> ~chi_1- nu_e)
     5.57175537E-01    2    -1000037        12   # BR(~e_L -> ~chi_2- nu_e)
#
#         PDG            Width
DECAY   2000011     1.68203435E+01   # selectron_R decays
#          BR         NDA      ID1       ID2
     9.96414063E-01    2     1000022        11   # BR(~e_R -> ~chi_10 e-)
     1.82258831E-04    2     1000023        11   # BR(~e_R -> ~chi_20 e-)
     3.40329488E-03    2     1000025        11   # BR(~e_R -> ~chi_30 e-)
     3.83612661E-07    2     1000035        11   # BR(~e_R -> ~chi_40 e-)
#
#         PDG            Width
DECAY   1000013     2.90338449E+01   # smuon_L decays
#          BR         NDA      ID1       ID2
     1.60883916E-01    2     1000022        13   # BR(~mu_L -> ~chi_10 mu-)
     2.28794698E-03    2     1000023        13   # BR(~mu_L -> ~chi_20 mu-)
     1.24207996E-04    2     1000025        13   # BR(~mu_L -> ~chi_30 mu-)
     2.77676450E-01    2     1000035        13   # BR(~mu_L -> ~chi_40 mu-)
     1.85194142E-03    2    -1000024        14   # BR(~mu_L -> ~chi_1- nu_mu)
     5.57175538E-01    2    -1000037        14   # BR(~mu_L -> ~chi_2- nu_mu)
#
#         PDG            Width
DECAY   2000013     1.68203434E+01   # smuon_R decays
#          BR         NDA      ID1       ID2
     9.96414063E-01    2     1000022        13   # BR(~mu_R -> ~chi_10 mu-)
     1.82258830E-04    2     1000023        13   # BR(~mu_R -> ~chi_20 mu-)
     3.40329488E-03    2     1000025        13   # BR(~mu_R -> ~chi_30 mu-)
     3.83612660E-07    2     1000035        13   # BR(~mu_R -> ~chi_40 mu-)
#
#         PDG            Width
DECAY   1000015     2.26851515E+00   # stau_1 decays
#          BR         NDA      ID1       ID2
     9.07013245E-01    2     1000022        15   # BR(~tau_1 -> ~chi_10  tau-)
     4.70424411E-02    2     1000023        15   # BR(~tau_1 -> ~chi_20  tau-)
     3.84867053E-02    2     1000025        15   # BR(~tau_1 -> ~chi_30  tau-)
     3.00353656E-04    2     1000035        15   # BR(~tau_1 -> ~chi_40  tau-)
     6.56297936E-03    2    -1000024        16   # BR(~tau_1 -> ~chi_1-  nu_tau)
     5.94275522E-04    2    -1000037        16   # BR(~tau_1 -> ~chi_2-  nu_tau)
#
#         PDG            Width
DECAY   2000015     1.33396261E+01   # stau_2 decays
#          BR         NDA      ID1       ID2
     9.36574893E-01    2     1000022        15   # BR(~tau_2 -> ~chi_10  tau-)
     1.42613635E-02    2     1000023        15   # BR(~tau_2 -> ~chi_20  tau-)
     1.68535341E-02    2     1000025        15   # BR(~tau_2 -> ~chi_30  tau-)
     2.58014065E-05    2     1000035        15   # BR(~tau_2 -> ~chi_40  tau-)
     2.81702283E-02    2    -1000024        16   # BR(~tau_2 -> ~chi_1-  nu_tau)
     5.28086316E-05    2    -1000037        16   # BR(~tau_2 -> ~chi_2-  nu_tau)
     1.99842380E-03    2     1000016       -24   # BR(~tau_2 -> ~nu_tauL W-)
     1.04659697E-03    2     1000015        25   # BR(~tau_2 -> ~tau_1   h)
     1.01635060E-03    2     1000015        23   # BR(~tau_2 -> ~tau_1   Z)
#
#         PDG            Width
DECAY   1000012     2.90452569E+01   # snu_eL decays
#          BR         NDA      ID1       ID2
     1.59450024E-01    2     1000022        12   # BR(~nu_eL -> ~chi_10 nu_e)
     1.35571421E-03    2     1000023        12   # BR(~nu_eL -> ~chi_20 nu_e)
     1.32333100E-03    2     1000025        12   # BR(~nu_eL -> ~chi_30 nu_e)
     2.77923187E-01    2     1000035        12   # BR(~nu_eL -> ~chi_40 nu_e)
     6.26566334E-03    2     1000024        11   # BR(~nu_eL -> ~chi_1+ e-)
     5.53682081E-01    2     1000037        11   # BR(~nu_eL -> ~chi_2+ e-)
#
#         PDG            Width
DECAY   1000014     2.90452569E+01   # snu_muL decays
#          BR         NDA      ID1       ID2
     1.59450024E-01    2     1000022        14   # BR(~nu_muL -> ~chi_10 nu_mu)
     1.35571421E-03    2     1000023        14   # BR(~nu_muL -> ~chi_20 nu_mu)
     1.32333100E-03    2     1000025        14   # BR(~nu_muL -> ~chi_30 nu_mu)
     2.77923187E-01    2     1000035        14   # BR(~nu_muL -> ~chi_40 nu_mu)
     6.26566334E-03    2     1000024        13   # BR(~nu_muL -> ~chi_1+ mu-)
     5.53682080E-01    2     1000037        13   # BR(~nu_muL -> ~chi_2+ mu-)
#
#         PDG            Width
DECAY   1000016     2.28286048E+00   # snu_tauL decays
#          BR         NDA      ID1       ID2
     8.91974931E-01    2     1000022        16   # BR(~nu_tauL -> ~chi_10 nu_tau)
     4.62445954E-03    2     1000023        16   # BR(~nu_tauL -> ~chi_20 nu_tau)
     4.46202265E-03    2     1000025        16   # BR(~nu_tauL -> ~chi_30 nu_tau)
     1.98631744E-04    2     1000035        16   # BR(~nu_tauL -> ~chi_40 nu_tau)
     9.83736358E-02    2     1000024        15   # BR(~nu_tauL -> ~chi_1+ tau-)
     3.66319545E-04    2     1000037        15   # BR(~nu_tauL -> ~chi_2+ tau-)
#
#         PDG            Width
DECAY   1000024     5.19458638E+00   # chargino1+ decays
#          BR         NDA      ID1       ID2
     6.14940058E-02    2     1000006        -5   # BR(~chi_1+ -> ~t_1     bb)
     8.03208591E-01    2    -1000005         6   # BR(~chi_1+ -> ~b_1*    t )
     1.35297404E-01    2     1000022        24   # BR(~chi_1+ -> ~chi_10  W+)
#
#         PDG            Width
DECAY   1000037     4.08287870E+01   # chargino2+ decays
#          BR         NDA      ID1       ID2
     3.55285325E-01    2     1000006        -5   # BR(~chi_2+ -> ~t_1     bb)
     1.70471476E-03    2     2000006        -5   # BR(~chi_2+ -> ~t_2     bb)
     3.54112212E-01    2    -1000005         6   # BR(~chi_2+ -> ~b_1*    t )
     7.64561190E-02    2     1000024        23   # BR(~chi_2+ -> ~chi_1+  Z )
     8.28850771E-04    2     1000022        24   # BR(~chi_2+ -> ~chi_10  W+)
     6.95259195E-02    2     1000023        24   # BR(~chi_2+ -> ~chi_20  W+)
     7.32165295E-02    2     1000025        24   # BR(~chi_2+ -> ~chi_30  W+)
     6.88703295E-02    2     1000024        25   # BR(~chi_2+ -> ~chi_1+  h )
#
#         PDG            Width
DECAY   1000022     0.00000000E+00   # neutralino1 decays
#
#         PDG            Width
DECAY   1000023     6.38508053E+00   # neutralino2 decays
#          BR         NDA      ID1       ID2
     1.05204520E-01    2     1000022        23   # BR(~chi_20 -> ~chi_10   Z )
     5.51450932E-03    2     1000022        25   # BR(~chi_20 -> ~chi_10   h )
     4.36060191E-01    2     1000006        -6   # BR(~chi_20 -> ~t_1      tb)
     4.36060191E-01    2    -1000006         6   # BR(~chi_20 -> ~t_1*     t )
     8.58029394E-03    2     1000005        -5   # BR(~chi_20 -> ~b_1      bb)
     8.58029394E-03    2    -1000005         5   # BR(~chi_20 -> ~b_1*     b )
#
#         PDG            Width
DECAY   1000025     4.81599433E+00   # neutralino3 decays
#          BR         NDA      ID1       ID2
     8.25931621E-03    2     1000022        23   # BR(~chi_30 -> ~chi_10   Z )
     1.54299416E-01    2     1000022        25   # BR(~chi_30 -> ~chi_10   h )
     4.07695723E-01    2     1000006        -6   # BR(~chi_30 -> ~t_1      tb)
     4.07695723E-01    2    -1000006         6   # BR(~chi_30 -> ~t_1*     t )
     1.10249110E-02    2     1000005        -5   # BR(~chi_30 -> ~b_1      bb)
     1.10249110E-02    2    -1000005         5   # BR(~chi_30 -> ~b_1*     b )
#
#         PDG            Width
DECAY   1000035     4.11770805E+01   # neutralino4 decays
#          BR         NDA      ID1       ID2
     6.32596453E-04    2     1000022        23   # BR(~chi_40 -> ~chi_10   Z )
     6.11433445E-03    2     1000023        23   # BR(~chi_40 -> ~chi_20   Z )
     6.56861793E-02    2     1000025        23   # BR(~chi_40 -> ~chi_30   Z )
     7.70546155E-02    2     1000024       -24   # BR(~chi_40 -> ~chi_1+   W-)
     7.70546155E-02    2    -1000024        24   # BR(~chi_40 -> ~chi_1-   W+)
     1.89858769E-04    2     1000022        25   # BR(~chi_40 -> ~chi_10   h )
     6.22817078E-02    2     1000023        25   # BR(~chi_40 -> ~chi_20   h )
     5.56715103E-03    2     1000025        25   # BR(~chi_40 -> ~chi_30   h )
     1.22082066E-09    2     2000001        -1   # BR(~chi_40 -> ~d_R      db)
     1.22082066E-09    2    -2000001         1   # BR(~chi_40 -> ~d_R*     d )
     1.22082066E-09    2     2000003        -3   # BR(~chi_40 -> ~s _R      sb)
     1.22082066E-09    2    -2000003         3   # BR(~chi_40 -> ~s _R*     s )
     1.69314748E-01    2     1000006        -6   # BR(~chi_40 -> ~t_1      tb)
     1.69314748E-01    2    -1000006         6   # BR(~chi_40 -> ~t_1*     t )
     4.82234785E-04    2     2000006        -6   # BR(~chi_40 -> ~t_2      tb)
     4.82234785E-04    2    -2000006         6   # BR(~chi_40 -> ~t_2*     t )
     1.82912485E-01    2     1000005        -5   # BR(~chi_40 -> ~b_1      bb)
     1.82912485E-01    2    -1000005         5   # BR(~chi_40 -> ~b_1*     b )
#
#         PDG            Width
DECAY        25     4.34626407E-03   # h decays
#          BR         NDA      ID1       ID2
     6.08573022E-01    2           5        -5   # BR(h -> b       bb     )
     6.14597515E-02    2         -15        15   # BR(h -> tau+    tau-   )
     2.17509457E-04    2         -13        13   # BR(h -> mu+     mu-    )
     2.36843232E-04    2           3        -3   # BR(h -> s       sb     )
     2.00280771E-02    2           4        -4   # BR(h -> c       cb     )
     7.41377239E-02    2          21        21   # BR(h -> g       g      )
     2.21342252E-03    2          22        22   # BR(h -> gam     gam    )
     1.51917958E-03    2          22        23   # BR(h -> Z       gam    )
     2.05574122E-01    2          24       -24   # BR(h -> W+      W-     )
     2.60403486E-02    2          23        23   # BR(h -> Z       Z      )
#
#         PDG            Width
DECAY        35     2.55451801E+00   # H decays
#          BR         NDA      ID1       ID2
     6.38585134E-01    2           5        -5   # BR(H -> b       bb     )
     1.23393253E-01    2         -15        15   # BR(H -> tau+    tau-   )
     4.31334109E-04    2         -13        13   # BR(H -> mu+     mu-    )
     2.73852126E-04    2           3        -3   # BR(H -> s       sb     )
     2.48611513E-06    2           4        -4   # BR(H -> c       cb     )
     2.33793304E-01    2           6        -6   # BR(H -> t       tb     )
     1.72657436E-04    2          21        21   # BR(H -> g       g      )
     9.93199903E-07    2          22        22   # BR(H -> gam     gam    )
     2.49307624E-07    2          23        22   # BR(H -> Z       gam    )
     6.09085509E-04    2          24       -24   # BR(H -> W+      W-     )
     3.02516316E-04    2          23        23   # BR(H -> Z       Z      )
     2.36421771E-03    2          25        25   # BR(H -> h       h      )
     7.09166794E-05    2     1000022   1000022   # BR(H -> ~chi_10 ~chi_10)
#
#         PDG            Width
DECAY        36     2.56333611E+00   # A decays
#          BR         NDA      ID1       ID2
     6.36782214E-01    2           5        -5   # BR(A -> b       bb     )
     1.23006247E-01    2         -15        15   # BR(A -> tau+    tau-   )
     4.29979222E-04    2         -13        13   # BR(A -> mu+     mu-    )
     2.73179301E-04    2           3        -3   # BR(A -> s       sb     )
     2.43464945E-06    2           4        -4   # BR(A -> c       cb     )
     2.37077616E-01    2           6        -6   # BR(A -> t       tb     )
     5.82728083E-04    2          21        21   # BR(A -> g       g      )
     1.34192443E-06    2          22        22   # BR(A -> gam     gam    )
     5.27127388E-07    2          23        22   # BR(A -> Z       gam    )
     6.07260434E-04    2          23        25   # BR(A -> Z       h      )
     1.23647243E-03    2     1000022   1000022   # BR(A -> ~chi_10 ~chi_10)
#
#         PDG            Width
DECAY        37     2.38559099E+00   # H+ decays
#          BR         NDA      ID1       ID2
     1.04523245E-03    2           4        -5   # BR(H+ -> c       bb     )
     1.32402298E-01    2         -15        16   # BR(H+ -> tau+    nu_tau )
     4.62823945E-04    2         -13        14   # BR(H+ -> mu+     nu_mu  )
     1.04522314E-05    2           2        -5   # BR(H+ -> u       bb     )
     1.46603684E-05    2           2        -3   # BR(H+ -> u       sb     )
     2.91067438E-04    2           4        -3   # BR(H+ -> c       sb     )
     8.65115596E-01    2           6        -5   # BR(H+ -> t       bb     )
     6.57869203E-04    2          24        25   # BR(H+ -> W+      h      )
     5.18917846E-11    2          24        36   # BR(H+ -> W+      A      )
