#
#                              ======================
#                              | THE SUSYHIT OUTPUT |
#                              ======================
#
#
#              ------------------------------------------------------
#              |     This is the output of the SUSY-HIT package     |
#              |  created by A.Djouadi, M.Muehlleitner and M.Spira. |
#              |  In case of problems with SUSY-HIT email to        |
#              |           margarete.muehlleitner@cern.ch           |
#              |           michael.spira@psi.ch                     |
#              |           abdelhak.djouadi@cern.ch                 |
#              ------------------------------------------------------
#
#              ------------------------------------------------------
#              |  SUSY Les Houches Accord - MSSM Spectrum + Decays  |
#              |              based on the decay programs           |
#              |                                                    |
#              |                     SDECAY 1.3b                    |
#              |                                                    |
#              |  Authors: M.Muhlleitner, A.Djouadi and Y.Mambrini  |
#              |  Ref.:    Comput.Phys.Commun.168(2005)46           |
#              |           [hep-ph/0311167]                         |
#              |                                                    |
#              |                     HDECAY 3.4                     |
#              |                                                    |
#              |  By: A.Djouadi,J.Kalinowski,M.Muhlleitner,M.Spira  |
#              |  Ref.:    Comput.Phys.Commun.108(1998)56           |
#              |           [hep-ph/9704448]                         |
#              |                                                    |
#              |                                                    |
#              |  If not stated otherwise all DRbar couplings and   |
#              |  soft SUSY breaking masses are given at the scale  |
#              |  Q=  0.35890900E+04
#              |                                                    |
#              ------------------------------------------------------
#
#
BLOCK DCINFO  # Decay Program information
     1   SDECAY/HDECAY # decay calculator
     2   1.3b  /3.4    # version number
#
BLOCK SPINFO  # Spectrum calculator information
     1     SOFTSUSY    # spectrum calculator               
     2     3.4.0       # version number                    
#
BLOCK MODSEL  # Model selection
     1     0   #  nonUniversal                                     
#
BLOCK SMINPUTS  # Standard Model inputs
         1     1.27908970E+02   # alpha_em^-1(M_Z)^MSbar
         2     1.16637870E-05   # G_F [GeV^-2]
         3     1.18400000E-01   # alpha_S(M_Z)^MSbar
         4     9.11876000E+01   # M_Z pole mass
         5     4.18000000E+00   # mb(mb)^MSbar
         6     1.73200000E+02   # mt pole mass
         7     1.77700000E+00   # mtau pole mass
#
BLOCK MINPAR  # Input parameters - minimal models
         3     1.55700000E+01   # tanb                
#
BLOCK EXTPAR  # Input parameters - non-minimal models
         0    -1.00000000E+00   # Set                 
         1     2.03140000E+02   # M_1(MX)             
         2     1.99090000E+02   # M_2(MX)             
         3     2.18670000E+03   # M_3(MX)             
        11     2.60010000E+03   # At(MX)              
        12    -6.94080000E+02   # Ab(MX)              
        13    -8.41920000E+02   # Atau(MX)            
        23    -9.23080000E+02   # mu(MX)              
        26     3.92400000E+03   # mA(pole)            
        31     2.73123000E+03   # meL(MX)             
        32     2.73123000E+03   # mmuL(MX)            
        33     1.59326000E+03   # mtauL(MX)           
        34     3.22050000E+03   # meR(MX)             
        35     3.22050000E+03   # mmuR(MX)            
        36     3.40211000E+03   # mtauR(MX)           
        41     2.92920000E+03   # mqL1(MX)            
        42     2.92920000E+03   # mqL2(MX)            
        43     3.90009000E+03   # mqL3(MX)            
        44     3.14018000E+03   # muR(MX)             
        45     3.14018000E+03   # mcR(MX)             
        46     3.29960000E+03   # mtR(MX)             
        47     2.46540000E+02   # mdR(MX)             
        48     2.46540000E+02   # msR(MX)             
        49     4.67370000E+02   # mbR(MX)             
#
BLOCK MASS  # Mass Spectrum
# PDG code           mass       particle
        24     8.03834291E+01   # W+
        25     1.25177143E+02   # h
        35     3.92402234E+03   # H
        36     3.92399990E+03   # A
        37     3.92522053E+03   # H+
         5     4.81876030E+00   # b-quark pole mass calculated from mb(mb)_Msbar
   1000001     3.01430966E+03   # ~d_L
   2000001     6.40589606E+02   # ~d_R
   1000002     3.01340834E+03   # ~u_L
   2000002     3.21035441E+03   # ~u_R
   1000003     3.01430966E+03   # ~s_L
   2000003     6.40589606E+02   # ~s_R
   1000004     3.01340834E+03   # ~c_L
   2000004     3.21035441E+03   # ~c_R
   1000005     7.55463069E+02   # ~b_1
   2000005     3.93494675E+03   # ~b_2
   1000006     3.30921241E+03   # ~t_1
   2000006     3.94031794E+03   # ~t_2
   1000011     2.73371860E+03   # ~e_L
   2000011     3.22879444E+03   # ~e_R
   1000012     2.73223570E+03   # ~nu_eL
   1000013     2.73371860E+03   # ~mu_L
   2000013     3.22879444E+03   # ~mu_R
   1000014     2.73223570E+03   # ~nu_muL
   1000015     1.59011247E+03   # ~tau_1
   2000015     3.40839386E+03   # ~tau_2
   1000016     1.58782429E+03   # ~nu_tauL
   1000021     2.40148006E+03   # ~g
   1000022     2.00657234E+02   # ~chi_10
   1000023     2.16651520E+02   # ~chi_20
   1000025    -9.58785924E+02   # ~chi_30
   1000035     9.59632506E+02   # ~chi_40
   1000024     2.16737180E+02   # ~chi_1+
   1000037     9.61863608E+02   # ~chi_2+
#
BLOCK NMIX  # Neutralino Mixing Matrix
  1  1     9.98642291E-01   # N_11
  1  2    -1.63236158E-02   # N_12
  1  3    -4.89426497E-02   # N_13
  1  4    -7.19247968E-03   # N_14
  2  1     2.04903710E-02   # N_21
  2  2     9.96175835E-01   # N_22
  2  3     8.39066527E-02   # N_23
  2  4     1.31728626E-02   # N_24
  3  1    -2.86150395E-02   # N_31
  3  2     5.05906898E-02   # N_32
  3  3    -7.04665737E-01   # N_33
  3  4     7.07154835E-01   # N_34
  4  1     3.84044186E-02   # N_41
  4  2    -6.93385005E-02   # N_42
  4  3     7.02858798E-01   # N_43
  4  4     7.06899416E-01   # N_44
#
BLOCK UMIX  # Chargino Mixing Matrix U
  1  1     9.92817272E-01   # U_11
  1  2     1.19640566E-01   # U_12
  2  1    -1.19640566E-01   # U_21
  2  2     9.92817272E-01   # U_22
#
BLOCK VMIX  # Chargino Mixing Matrix V
  1  1     9.99824753E-01   # V_11
  1  2    -1.87206678E-02   # V_12
  2  1    -1.87206678E-02   # V_21
  2  2    -9.99824753E-01   # V_22
#
BLOCK STOPMIX  # Stop Mixing Matrix
  1  1    -7.40835263E-02   # cos(theta_t)
  1  2     9.97252040E-01   # sin(theta_t)
  2  1    -9.97252040E-01   # -sin(theta_t)
  2  2    -7.40835263E-02   # cos(theta_t)
#
BLOCK SBOTMIX  # Sbottom Mixing Matrix
  1  1    -2.12965893E-03   # cos(theta_b)
  1  2     9.99997732E-01   # sin(theta_b)
  2  1    -9.99997732E-01   # -sin(theta_b)
  2  2    -2.12965893E-03   # cos(theta_b)
#
BLOCK STAUMIX  # Stau Mixing Matrix
  1  1     9.99996740E-01   # cos(theta_tau)
  1  2    -2.55342699E-03   # sin(theta_tau)
  2  1     2.55342699E-03   # -sin(theta_tau)
  2  2     9.99996740E-01   # cos(theta_tau)
#
BLOCK ALPHA  # Higgs mixing
          -6.74008928E-02   # Mixing angle in the neutral Higgs boson sector
#
BLOCK HMIX Q=  3.58909000E+03  # DRbar Higgs Parameters
         1    -9.38871599E+02   # mu(Q)MSSM           
         2     1.48353786E+01   # tan                 
         3     2.41463303E+02   # higgs               
         4     1.53075816E+07   # mA^2(Q)MSSM         
#
BLOCK GAUGE Q=  3.58909000E+03  # The gauge couplings
     1     3.65502066E-01   # gprime(Q) DRbar
     2     6.42093766E-01   # g(Q) DRbar
     3     1.01307275E+00   # g3(Q) DRbar
#
BLOCK AU Q=  3.58909000E+03  # The trilinear couplings
  1  1     0.00000000E+00   # A_u(Q) DRbar
  2  2     0.00000000E+00   # A_c(Q) DRbar
  3  3     2.60010002E+03   # A_t(Q) DRbar
#
BLOCK AD Q=  3.58909000E+03  # The trilinear couplings
  1  1     0.00000000E+00   # A_d(Q) DRbar
  2  2     0.00000000E+00   # A_s(Q) DRbar
  3  3    -6.94079994E+02   # A_b(Q) DRbar
#
BLOCK AE Q=  3.58909000E+03  # The trilinear couplings
  1  1     0.00000000E+00   # A_e(Q) DRbar
  2  2     0.00000000E+00   # A_mu(Q) DRbar
  3  3    -8.41919999E+02   # A_tau(Q) DRbar
#
BLOCK Yu Q=  3.58909000E+03  # The Yukawa couplings
  1  1     0.00000000E+00   # y_u(Q) DRbar
  2  2     0.00000000E+00   # y_c(Q) DRbar
  3  3     8.28371828E-01   # y_t(Q) DRbar
#
BLOCK Yd Q=  3.58909000E+03  # The Yukawa couplings
  1  1     0.00000000E+00   # y_d(Q) DRbar
  2  2     0.00000000E+00   # y_s(Q) DRbar
  3  3     2.08865962E-01   # y_b(Q) DRbar
#
BLOCK Ye Q=  3.58909000E+03  # The Yukawa couplings
  1  1     0.00000000E+00   # y_e(Q) DRbar
  2  2     0.00000000E+00   # y_mu(Q) DRbar
  3  3     1.50999014E-01   # y_tau(Q) DRbar
#
BLOCK MSOFT Q=  3.58909000E+03  # The soft SUSY breaking masses at the scale Q
         1     2.03140000E+02   # M_1(Q)              
         2     1.99090000E+02   # M_2(Q)              
         3     2.18670000E+03   # M_3(Q)              
        21     1.44472826E+07   # mH1^2(Q)            
        22    -5.26598947E+05   # mH2^2(Q)            
        31     2.73123000E+03   # meL(Q)              
        32     2.73123000E+03   # mmuL(Q)             
        33     1.59326000E+03   # mtauL(Q)            
        34     3.22050000E+03   # meR(Q)              
        35     3.22050000E+03   # mmuR(Q)             
        36     3.40211000E+03   # mtauR(Q)            
        41     2.92919999E+03   # mqL1(Q)             
        42     2.92919999E+03   # mqL2(Q)             
        43     3.90008999E+03   # mqL3(Q)             
        44     3.14017999E+03   # muR(Q)              
        45     3.14017999E+03   # mcR(Q)              
        46     3.29959999E+03   # mtR(Q)              
        47     2.46539919E+02   # mdR(Q)              
        48     2.46539919E+02   # msR(Q)              
        49     4.67369955E+02   # mbR(Q)              
#
Block HiggsBoundsInputHiggsCouplingsFermions
# ScalarNormEffCoupSq PseudoSNormEffCoupSq NP   IP1 IP2 IP2
    1.00285841E+00    0.00000000E+00        3  25   5   5  # h0-b-b eff. coupling^2, normalised to SM
    2.20085600E+02    0.00000000E+00        3  35   5   5  # H0-b-b eff. coupling^2, normalised to SM
    0.00000000E+00    2.20088458E+02        3  36   5   5  # A0-b-b eff. coupling^2, normalised to SM
#
    9.99987012E-01    0.00000000E+00        3  25   6   6  # h0-t-t eff. coupling^2, normalised to SM
    4.55661518E-03    0.00000000E+00        3  35   6   6  # H0-t-t eff. coupling^2, normalised to SM
    0.00000000E+00    4.54362763E-03        3  36   6   6  # A0-t-t eff. coupling^2, normalised to SM
#
    1.00285841E+00    0.00000000E+00        3  25  15  15  # h0-tau-tau eff. coupling^2, normalised to SM
    2.20085600E+02    0.00000000E+00        3  35  15  15  # H0-tau-tau eff. coupling^2, normalised to SM
    0.00000000E+00    2.20088458E+02        3  36  15  15  # A0-tau-tau eff. coupling^2, normalised to SM
#
Block HiggsBoundsInputHiggsCouplingsBosons
    9.99999991E-01        3  25  24  24  # h0-W-W eff. coupling^2, normalised to SM
    9.26775394E-09        3  35  24  24  # H0-W-W eff. coupling^2, normalised to SM
    0.00000000E+00        3  36  24  24  # A0-W-W eff. coupling^2, normalised to SM
#
    9.99999991E-01        3  25  23  23  # h0-Z-Z eff. coupling^2, normalised to SM
    9.26775394E-09        3  35  23  23  # H0-Z-Z eff. coupling^2, normalised to SM
    0.00000000E+00        3  36  23  23  # A0-Z-Z eff. coupling^2, normalised to SM
#
    8.93645967E-01        3  25  21  21  # h0-g-g eff. coupling^2, normalised to SM
    1.45117667E-15        3  35  21  21  # H0-g-g eff. coupling^2, normalised to SM
    1.28770311E-13        3  36  21  21  # A0-g-g eff. coupling^2, normalised to SM
#
    0.00000000E+00        3  25  25  23  # h0-h0-Z eff. coupling^2, normalised to SM
    0.00000000E+00        3  35  25  23  # H0-h0-Z eff. coupling^2, normalised to SM
    9.26775394E-09        3  36  25  23  # A0-h0-Z eff. coupling^2, normalised to SM
    0.00000000E+00        3  35  35  23  # H0-H0-Z eff. coupling^2, normalised to SM
    9.99999991E-01        3  36  35  23  # A0-H0-Z eff. coupling^2, normalised to SM
    0.00000000E+00        3  36  36  23  # A0-A0-Z eff. coupling^2, normalised to SM
#
    0.00000000E+00        4  25  21  21  23  # h0-g-g-Z eff. coupling^2, normalised to SM
    0.00000000E+00        4  35  21  21  23  # H0-g-g-Z eff. coupling^2, normalised to SM
    0.00000000E+00        4  36  21  21  23  # A0-g-g-Z eff. coupling^2, normalised to SM
#
#
#
#                             =================
#                             |The decay table|
#                             =================
#
# - The QCD corrections to the decays gluino -> squark  + quark
#                                     squark -> gaugino + quark_prime
#                                     squark -> squark_prime + Higgs
#                                     squark -> gluino  + quark
#   are included.
#
# - The multi-body decays for the inos, stops and sbottoms are included.
#
# - The loop induced decays for the gluino, neutralinos and stops
#   are included.
#
# - The SUSY decays of the top quark are included.
#
#
#         PDG            Width
DECAY         6     1.45229650E+00   # top decays
#          BR         NDA      ID1       ID2
     1.00000000E+00    2           5        24   # BR(t ->  b    W+)
#
#         PDG            Width
DECAY   1000021     1.29966473E+02   # gluino decays
#          BR         NDA      ID1       ID2
     1.72921247E-01    2     2000001        -1   # BR(~g -> ~d_R  db)
     1.72921247E-01    2    -2000001         1   # BR(~g -> ~d_R* d )
     1.72921247E-01    2     2000003        -3   # BR(~g -> ~s_R  sb)
     1.72921247E-01    2    -2000003         3   # BR(~g -> ~s_R* s )
     1.54157506E-01    2     1000005        -5   # BR(~g -> ~b_1  bb)
     1.54157506E-01    2    -1000005         5   # BR(~g -> ~b_1* b )
#
#         PDG            Width
DECAY   1000006     1.21692639E+02   # stop1 decays
#          BR         NDA      ID1       ID2
     6.27842941E-02    2     1000022         6   # BR(~t_1 -> ~chi_10 t )
     3.07773523E-04    2     1000023         6   # BR(~t_1 -> ~chi_20 t )
     1.53038394E-01    2     1000025         6   # BR(~t_1 -> ~chi_30 t )
     1.57292526E-01    2     1000035         6   # BR(~t_1 -> ~chi_40 t )
     5.54352830E-04    2     1000024         5   # BR(~t_1 -> ~chi_1+ b )
     3.10097881E-01    2     1000037         5   # BR(~t_1 -> ~chi_2+ b )
     3.15920780E-01    2     1000021         6   # BR(~t_1 -> ~g      t )
     3.99853604E-06    2     1000005        24   # BR(~t_1 -> ~b_1    W+)
#
#         PDG            Width
DECAY   2000006     1.90564667E+02   # stop2 decays
#          BR         NDA      ID1       ID2
     2.88959988E-03    2     1000022         6   # BR(~t_2 -> ~chi_10 t )
     8.38321684E-02    2     1000023         6   # BR(~t_2 -> ~chi_20 t )
     1.26111953E-01    2     1000025         6   # BR(~t_2 -> ~chi_30 t )
     1.23113628E-01    2     1000035         6   # BR(~t_2 -> ~chi_40 t )
     1.68444683E-01    2     1000024         5   # BR(~t_2 -> ~chi_1+ b )
     1.64488421E-02    2     1000037         5   # BR(~t_2 -> ~chi_2+ b )
     4.46004871E-01    2     1000021         6   # BR(~t_2 -> ~g      t )
     1.81532943E-02    2     1000006        25   # BR(~t_2 -> ~t_1    h )
     1.41807136E-02    2     1000006        23   # BR(~t_2 -> ~t_1    Z )
     8.20246164E-04    2     1000005        24   # BR(~t_2 -> ~b_1    W+)
#
#         PDG            Width
DECAY   1000005     3.98227484E-01   # sbottom1 decays
#          BR         NDA      ID1       ID2
     9.69396058E-01    2     1000022         5   # BR(~b_1 -> ~chi_10 b )
     1.12319753E-02    2     1000023         5   # BR(~b_1 -> ~chi_20 b )
     1.93719666E-02    2    -1000024         6   # BR(~b_1 -> ~chi_1- t )
#
#         PDG            Width
DECAY   2000005     1.88738360E+02   # sbottom2 decays
#          BR         NDA      ID1       ID2
     3.64136044E-03    2     1000022         5   # BR(~b_2 -> ~chi_10 b )
     8.37916472E-02    2     1000023         5   # BR(~b_2 -> ~chi_20 b )
     8.19578989E-03    2     1000025         5   # BR(~b_2 -> ~chi_30 b )
     8.35832456E-03    2     1000035         5   # BR(~b_2 -> ~chi_40 b )
     1.66912969E-01    2    -1000024         6   # BR(~b_2 -> ~chi_1- t )
     2.53679866E-01    2    -1000037         6   # BR(~b_2 -> ~chi_2- t )
     4.47035514E-01    2     1000021         5   # BR(~b_2 -> ~g      b )
     4.44929116E-04    2     1000005        25   # BR(~b_2 -> ~b_1    h )
     4.26337904E-04    2     1000005        23   # BR(~b_2 -> ~b_1    Z )
     2.75132615E-02    2     1000006       -24   # BR(~b_2 -> ~t_1    W-)
#
#         PDG            Width
DECAY   1000002     6.79242990E+01   # sup_L decays
#          BR         NDA      ID1       ID2
     5.15194007E-03    2     1000022         2   # BR(~u_L -> ~chi_10 u)
     1.71602926E-01    2     1000023         2   # BR(~u_L -> ~chi_20 u)
     2.87031923E-04    2     1000025         2   # BR(~u_L -> ~chi_30 u)
     5.41669116E-04    2     1000035         2   # BR(~u_L -> ~chi_40 u)
     3.43039219E-01    2     1000024         1   # BR(~u_L -> ~chi_1+ d)
     9.85037170E-05    2     1000037         1   # BR(~u_L -> ~chi_2+ d)
     4.79278710E-01    2     1000021         2   # BR(~u_L -> ~g      u)
#
#         PDG            Width
DECAY   2000002     5.77056482E+01   # sup_R decays
#          BR         NDA      ID1       ID2
     1.24116130E-01    2     1000022         2   # BR(~u_R -> ~chi_10 u)
     5.21906544E-05    2     1000023         2   # BR(~u_R -> ~chi_20 u)
     8.55972789E-05    2     1000025         2   # BR(~u_R -> ~chi_30 u)
     1.54129400E-04    2     1000035         2   # BR(~u_R -> ~chi_40 u)
     8.75591953E-01    2     1000021         2   # BR(~u_R -> ~g      u)
#
#         PDG            Width
DECAY   1000001     6.79476809E+01   # sdown_L decays
#          BR         NDA      ID1       ID2
     7.27745874E-03    2     1000022         1   # BR(~d_L -> ~chi_10 d)
     1.68939347E-01    2     1000023         1   # BR(~d_L -> ~chi_20 d)
     4.41704481E-04    2     1000025         1   # BR(~d_L -> ~chi_30 d)
     8.26073201E-04    2     1000035         1   # BR(~d_L -> ~chi_40 d)
     3.38236747E-01    2    -1000024         2   # BR(~d_L -> ~chi_1- u)
     4.02354131E-03    2    -1000037         2   # BR(~d_L -> ~chi_2- u)
     4.80255128E-01    2     1000021         1   # BR(~d_L -> ~g      d)
#
#         PDG            Width
DECAY   2000001     3.21094911E-01   # sdown_R decays
#          BR         NDA      ID1       ID2
     9.99594164E-01    2     1000022         1   # BR(~d_R -> ~chi_10 d)
     4.05835757E-04    2     1000023         1   # BR(~d_R -> ~chi_20 d)
#
#         PDG            Width
DECAY   1000004     5.89647625E+01   # scharm_L decays
#          BR         NDA      ID1       ID2
     6.22896585E-03    2     1000022         4   # BR(~c_L -> ~chi_10 c)
     2.07451341E-01    2     1000023         4   # BR(~c_L -> ~chi_20 c)
     3.45290699E-04    2     1000025         4   # BR(~c_L -> ~chi_30 c)
     6.51607922E-04    2     1000035         4   # BR(~c_L -> ~chi_40 c)
     4.14701186E-01    2     1000024         3   # BR(~c_L -> ~chi_1+ s)
     1.18494683E-04    2     1000037         3   # BR(~c_L -> ~chi_2+ s)
     3.70503114E-01    2     1000021         4   # BR(~c_L -> ~g      c)
#
#         PDG            Width
DECAY   2000004     4.14294474E+01   # scharm_R decays
#          BR         NDA      ID1       ID2
     1.81142776E-01    2     1000022         4   # BR(~c_R -> ~chi_10 c)
     7.61615642E-05    2     1000023         4   # BR(~c_R -> ~chi_20 c)
     1.24348664E-04    2     1000025         4   # BR(~c_R -> ~chi_30 c)
     2.23905377E-04    2     1000035         4   # BR(~c_R -> ~chi_40 c)
     8.18432808E-01    2     1000021         4   # BR(~c_R -> ~g      c)
#
#         PDG            Width
DECAY   1000003     5.89582791E+01   # sstrange_L decays
#          BR         NDA      ID1       ID2
     8.80276949E-03    2     1000022         3   # BR(~s_L -> ~chi_10 s)
     2.04322792E-01    2     1000023         3   # BR(~s_L -> ~chi_20 s)
     5.31596033E-04    2     1000025         3   # BR(~s_L -> ~chi_30 s)
     9.94182385E-04    2     1000035         3   # BR(~s_L -> ~chi_40 s)
     4.09078244E-01    2    -1000024         4   # BR(~s_L -> ~chi_1- c)
     4.84227568E-03    2    -1000037         4   # BR(~s_L -> ~chi_2- c)
     3.71428141E-01    2     1000021         3   # BR(~s_L -> ~g      s)
#
#         PDG            Width
DECAY   2000003     3.07024156E-01   # sstrange_R decays
#          BR         NDA      ID1       ID2
     9.99594215E-01    2     1000022         3   # BR(~s_R -> ~chi_10 s)
     4.05784640E-04    2     1000023         3   # BR(~s_R -> ~chi_20 s)
#
#         PDG            Width
DECAY   1000011     3.67264978E+01   # selectron_L decays
#          BR         NDA      ID1       ID2
     9.20607870E-02    2     1000022        11   # BR(~e_L -> ~chi_10 e-)
     3.06183365E-01    2     1000023        11   # BR(~e_L -> ~chi_20 e-)
     2.76249336E-04    2     1000025        11   # BR(~e_L -> ~chi_30 e-)
     5.28956592E-04    2     1000035        11   # BR(~e_L -> ~chi_40 e-)
     5.94241529E-01    2    -1000024        12   # BR(~e_L -> ~chi_1- nu_e)
     6.70911318E-03    2    -1000037        12   # BR(~e_L -> ~chi_2- nu_e)
#
#         PDG            Width
DECAY   2000011     1.70238252E+01   # selectron_R decays
#          BR         NDA      ID1       ID2
     9.97658376E-01    2     1000022        11   # BR(~e_R -> ~chi_10 e-)
     4.19472167E-04    2     1000023        11   # BR(~e_R -> ~chi_20 e-)
     6.86327584E-04    2     1000025        11   # BR(~e_R -> ~chi_30 e-)
     1.23582430E-03    2     1000035        11   # BR(~e_R -> ~chi_40 e-)
#
#         PDG            Width
DECAY   1000013     3.67264977E+01   # smuon_L decays
#          BR         NDA      ID1       ID2
     9.20607868E-02    2     1000022        13   # BR(~mu_L -> ~chi_10 mu-)
     3.06183364E-01    2     1000023        13   # BR(~mu_L -> ~chi_20 mu-)
     2.76249335E-04    2     1000025        13   # BR(~mu_L -> ~chi_30 mu-)
     5.28956591E-04    2     1000035        13   # BR(~mu_L -> ~chi_40 mu-)
     5.94241530E-01    2    -1000024        14   # BR(~mu_L -> ~chi_1- nu_mu)
     6.70911319E-03    2    -1000037        14   # BR(~mu_L -> ~chi_2- nu_mu)
#
#         PDG            Width
DECAY   2000013     1.70238251E+01   # smuon_R decays
#          BR         NDA      ID1       ID2
     9.97658376E-01    2     1000022        13   # BR(~mu_R -> ~chi_10 mu-)
     4.19472167E-04    2     1000023        13   # BR(~mu_R -> ~chi_20 mu-)
     6.86327584E-04    2     1000025        13   # BR(~mu_R -> ~chi_30 mu-)
     1.23582430E-03    2     1000035        13   # BR(~mu_R -> ~chi_40 mu-)
#
#         PDG            Width
DECAY   1000015     2.10692150E+01   # stau_1 decays
#          BR         NDA      ID1       ID2
     9.14692883E-02    2     1000022        15   # BR(~tau_1 -> ~chi_10  tau-)
     3.03095712E-01    2     1000023        15   # BR(~tau_1 -> ~chi_20  tau-)
     7.02697161E-03    2     1000025        15   # BR(~tau_1 -> ~chi_30  tau-)
     7.09879918E-03    2     1000035        15   # BR(~tau_1 -> ~chi_40  tau-)
     5.87782055E-01    2    -1000024        16   # BR(~tau_1 -> ~chi_1-  nu_tau)
     3.52717387E-03    2    -1000037        16   # BR(~tau_1 -> ~chi_2-  nu_tau)
#
#         PDG            Width
DECAY   2000015     2.07695354E+01   # stau_2 decays
#          BR         NDA      ID1       ID2
     8.64048646E-01    2     1000022        15   # BR(~tau_2 -> ~chi_10  tau-)
     7.93836777E-04    2     1000023        15   # BR(~tau_2 -> ~chi_20  tau-)
     3.19988574E-02    2     1000025        15   # BR(~tau_2 -> ~chi_30  tau-)
     3.23236533E-02    2     1000035        15   # BR(~tau_2 -> ~chi_40  tau-)
     8.75024902E-04    2    -1000024        16   # BR(~tau_2 -> ~chi_1-  nu_tau)
     6.23144941E-02    2    -1000037        16   # BR(~tau_2 -> ~chi_2-  nu_tau)
     3.77433930E-03    2     1000016       -24   # BR(~tau_2 -> ~nu_tauL W-)
     1.93603044E-03    2     1000015        25   # BR(~tau_2 -> ~tau_1   h)
     1.93511761E-03    2     1000015        23   # BR(~tau_2 -> ~tau_1   Z)
#
#         PDG            Width
DECAY   1000012     3.67526183E+01   # snu_eL decays
#          BR         NDA      ID1       ID2
     1.03138938E-01    2     1000022        12   # BR(~nu_eL -> ~chi_10 nu_e)
     2.91803405E-01    2     1000023        12   # BR(~nu_eL -> ~chi_20 nu_e)
     1.04850262E-03    2     1000025        12   # BR(~nu_eL -> ~chi_30 nu_e)
     1.94874881E-03    2     1000035        12   # BR(~nu_eL -> ~chi_40 nu_e)
     6.01896394E-01    2     1000024        11   # BR(~nu_eL -> ~chi_1+ e-)
     1.64011084E-04    2     1000037        11   # BR(~nu_eL -> ~chi_2+ e-)
#
#         PDG            Width
DECAY   1000014     3.67526182E+01   # snu_muL decays
#          BR         NDA      ID1       ID2
     1.03138938E-01    2     1000022        14   # BR(~nu_muL -> ~chi_10 nu_mu)
     2.91803406E-01    2     1000023        14   # BR(~nu_muL -> ~chi_20 nu_mu)
     1.04850262E-03    2     1000025        14   # BR(~nu_muL -> ~chi_30 nu_mu)
     1.94874882E-03    2     1000035        14   # BR(~nu_muL -> ~chi_40 nu_mu)
     6.01896393E-01    2     1000024        13   # BR(~nu_muL -> ~chi_1+ mu-)
     1.64011084E-04    2     1000037        13   # BR(~nu_muL -> ~chi_2+ mu-)
#
#         PDG            Width
DECAY   1000016     2.11033948E+01   # snu_tauL decays
#          BR         NDA      ID1       ID2
     1.02177911E-01    2     1000022        16   # BR(~nu_tauL -> ~chi_10 nu_tau)
     2.88048706E-01    2     1000023        16   # BR(~nu_tauL -> ~chi_20 nu_tau)
     5.57186900E-04    2     1000025        16   # BR(~nu_tauL -> ~chi_30 nu_tau)
     1.03400279E-03    2     1000035        16   # BR(~nu_tauL -> ~chi_40 nu_tau)
     5.94619130E-01    2     1000024        15   # BR(~nu_tauL -> ~chi_1+ tau-)
     1.35630626E-02    2     1000037        15   # BR(~nu_tauL -> ~chi_2+ tau-)
#
#         PDG            Width
DECAY   1000024     1.67885981E-09   # chargino1+ decays
#           BR         NDA      ID1       ID2       ID3
     3.36949318E-01    3     1000022         2        -1   # BR(~chi_1+ -> ~chi_10 u    db)
     4.47469348E-09    3     1000023         2        -1   # BR(~chi_1+ -> ~chi_20 u    db)
     3.36949318E-01    3     1000022         4        -3   # BR(~chi_1+ -> ~chi_10 c    sb)
     1.11219328E-01    3     1000022       -11        12   # BR(~chi_1+ -> ~chi_10 e+   nu_e)
     1.49179545E-09    3     1000023       -11        12   # BR(~chi_1+ -> ~chi_20 e+   nu_e)
     1.11219328E-01    3     1000022       -13        14   # BR(~chi_1+ -> ~chi_10 mu+  nu_mu)
     1.49179545E-09    3     1000023       -13        14   # BR(~chi_1+ -> ~chi_20 mu+  nu_mu)
     1.03662699E-01    3     1000022       -15        16   # BR(~chi_1+ -> ~chi_10 tau+ nu_tau)
#
#         PDG            Width
DECAY   1000037     5.97420801E+00   # chargino2+ decays
#          BR         NDA      ID1       ID2
     1.80340846E-02    2    -1000005         6   # BR(~chi_2+ -> ~b_1*    t )
     2.99408523E-01    2     1000024        23   # BR(~chi_2+ -> ~chi_1+  Z )
     8.85087789E-02    2     1000022        24   # BR(~chi_2+ -> ~chi_10  W+)
     2.99888073E-01    2     1000023        24   # BR(~chi_2+ -> ~chi_20  W+)
     2.94160541E-01    2     1000024        25   # BR(~chi_2+ -> ~chi_1+  h )
#
#         PDG            Width
DECAY   1000022     0.00000000E+00   # neutralino1 decays
#
#         PDG            Width
DECAY   1000023     6.27552144E-11   # neutralino2 decays
#          BR         NDA      ID1       ID2
     3.55033972E-01    2     1000022        22   # BR(~chi_20 -> ~chi_10 gam)
#           BR         NDA      ID1       ID2       ID3
     9.68244574E-02    3     1000022        -2         2   # BR(~chi_20 -> ~chi_10 ub      u)
     1.25824035E-01    3     1000022        -1         1   # BR(~chi_20 -> ~chi_10 db      d)
     9.68244574E-02    3     1000022        -4         4   # BR(~chi_20 -> ~chi_10 cb      c)
     1.25824035E-01    3     1000022        -3         3   # BR(~chi_20 -> ~chi_10 sb      s)
     4.06499025E-02    3     1000022        -5         5   # BR(~chi_20 -> ~chi_10 bb      b)
     2.09974368E-02    3     1000022       -11        11   # BR(~chi_20 -> ~chi_10 e+      e-)
     2.09974368E-02    3     1000022       -13        13   # BR(~chi_20 -> ~chi_10 mu+     mu-)
     1.18834133E-02    3     1000022       -15        15   # BR(~chi_20 -> ~chi_10 tau+    tau-)
     4.15381496E-02    3     1000022       -12        12   # BR(~chi_20 -> ~chi_10 nu_eb   nu_e)
     4.15381496E-02    3     1000022       -14        14   # BR(~chi_20 -> ~chi_10 nu_mub  nu_mu)
     2.20645544E-02    3     1000022       -16        16   # BR(~chi_20 -> ~chi_10 nu_taub nu_tau)
#
#         PDG            Width
DECAY   1000025     6.01427841E+00   # neutralino3 decays
#          BR         NDA      ID1       ID2
     6.46917870E-02    2     1000022        23   # BR(~chi_30 -> ~chi_10   Z )
     1.88887602E-01    2     1000023        23   # BR(~chi_30 -> ~chi_20   Z )
     2.91558103E-01    2     1000024       -24   # BR(~chi_30 -> ~chi_1+   W-)
     2.91558103E-01    2    -1000024        24   # BR(~chi_30 -> ~chi_1-   W+)
     3.61866895E-02    2     1000022        25   # BR(~chi_30 -> ~chi_10   h )
     9.73901704E-02    2     1000023        25   # BR(~chi_30 -> ~chi_20   h )
     3.66287875E-05    2     2000001        -1   # BR(~chi_30 -> ~d_R      db)
     3.66287875E-05    2    -2000001         1   # BR(~chi_30 -> ~d_R*     d )
     3.66287875E-05    2     2000003        -3   # BR(~chi_30 -> ~s _R      sb)
     3.66287875E-05    2    -2000003         3   # BR(~chi_30 -> ~s _R*     s )
     1.47905153E-02    2     1000005        -5   # BR(~chi_30 -> ~b_1      bb)
     1.47905153E-02    2    -1000005         5   # BR(~chi_30 -> ~b_1*     b )
#
#         PDG            Width
DECAY   1000035     6.06892805E+00   # neutralino4 decays
#          BR         NDA      ID1       ID2
     3.61582313E-02    2     1000022        23   # BR(~chi_40 -> ~chi_10   Z )
     1.01546071E-01    2     1000023        23   # BR(~chi_40 -> ~chi_20   Z )
     2.90020024E-01    2     1000024       -24   # BR(~chi_40 -> ~chi_1+   W-)
     2.90020024E-01    2    -1000024        24   # BR(~chi_40 -> ~chi_1-   W+)
     6.49143764E-02    2     1000022        25   # BR(~chi_40 -> ~chi_10   h )
     1.87586828E-01    2     1000023        25   # BR(~chi_40 -> ~chi_20   h )
     6.56230462E-05    2     2000001        -1   # BR(~chi_40 -> ~d_R      db)
     6.56230462E-05    2    -2000001         1   # BR(~chi_40 -> ~d_R*     d )
     6.56230462E-05    2     2000003        -3   # BR(~chi_40 -> ~s _R      sb)
     6.56230462E-05    2    -2000003         3   # BR(~chi_40 -> ~s _R*     s )
     1.47459759E-02    2     1000005        -5   # BR(~chi_40 -> ~b_1      bb)
     1.47459759E-02    2    -1000005         5   # BR(~chi_40 -> ~b_1*     b )
#
#         PDG            Width
DECAY        25     3.94364025E-03   # h decays
#          BR         NDA      ID1       ID2
     5.81484578E-01    2           5        -5   # BR(h -> b       bb     )
     6.58927136E-02    2         -15        15   # BR(h -> tau+    tau-   )
     2.33233656E-04    2         -13        13   # BR(h -> mu+     mu-    )
     2.54580187E-04    2           3        -3   # BR(h -> s       sb     )
     2.20170166E-02    2           4        -4   # BR(h -> c       cb     )
     8.14696404E-02    2          21        21   # BR(h -> g       g      )
     2.39374652E-03    2          22        22   # BR(h -> gam     gam    )
     1.60877392E-03    2          22        23   # BR(h -> Z       gam    )
     2.17450100E-01    2          24       -24   # BR(h -> W+      W-     )
     2.71956167E-02    2          23        23   # BR(h -> Z       Z      )
#
#         PDG            Width
DECAY        35     6.06531564E+01   # H decays
#          BR         NDA      ID1       ID2
     1.69216678E-01    2           5        -5   # BR(H -> b       bb     )
     2.97856575E-02    2         -15        15   # BR(H -> tau+    tau-   )
     1.04835937E-04    2         -13        13   # BR(H -> mu+     mu-    )
     7.28213090E-05    2           3        -3   # BR(H -> s       sb     )
     1.16797009E-07    2           4        -4   # BR(H -> c       cb     )
     1.15295942E-02    2           6        -6   # BR(H -> t       tb     )
     1.63576104E-06    2          21        21   # BR(H -> g       g      )
     1.93805832E-09    2          22        22   # BR(H -> gam     gam    )
     4.00089649E-09    2          23        22   # BR(H -> Z       gam    )
     2.97207294E-06    2          24       -24   # BR(H -> W+      W-     )
     1.48354662E-06    2          23        23   # BR(H -> Z       Z      )
     1.18327718E-05    2          25        25   # BR(H -> h       h      )
     7.83520589E-03    2     1000024  -1000024   # BR(H -> ~chi_1+ ~chi_1-)
     2.57075622E-04    2     1000037  -1000037   # BR(H -> ~chi_2+ ~chi_2-)
     2.36150449E-01    2     1000024  -1000037   # BR(H -> ~chi_1+ ~chi_2-)
     2.36150449E-01    2     1000037  -1000024   # BR(H -> ~chi_2+ ~chi_1-)
     3.99129802E-04    2     1000022   1000022   # BR(H -> ~chi_10 ~chi_10)
     3.74272830E-03    2     1000023   1000023   # BR(H -> ~chi_20 ~chi_20)
     6.80243197E-04    2     1000025   1000025   # BR(H -> ~chi_30 ~chi_30)
     1.65065526E-03    2     1000035   1000035   # BR(H -> ~chi_40 ~chi_40)
     2.44552075E-03    2     1000022   1000023   # BR(H -> ~chi_10 ~chi_20)
     3.17361393E-02    2     1000022   1000025   # BR(H -> ~chi_10 ~chi_30)
     3.91302912E-02    2     1000022   1000035   # BR(H -> ~chi_10 ~chi_40)
     1.01569433E-01    2     1000023   1000025   # BR(H -> ~chi_20 ~chi_30)
     1.24716791E-01    2     1000023   1000035   # BR(H -> ~chi_20 ~chi_40)
     2.80682757E-03    2     1000025   1000035   # BR(H -> ~chi_30 ~chi_40)
     1.07689835E-07    2     2000001  -2000001   # BR(H -> ~d_R    ~d_R*  )
     1.07689835E-07    2     2000003  -2000003   # BR(H -> ~s_R    ~s_R*  )
     6.92616141E-08    2     1000005  -1000005   # BR(H -> ~b_1    ~b_1*  )
     1.31334413E-07    2     1000015  -1000015   # BR(H -> ~tau_1- ~tau_1+)
     1.01002525E-06    2     1000016  -1000016   # BR(H -> ~nu_tauL ~nu_tauL*)
#
#         PDG            Width
DECAY        36     6.06570574E+01   # A decays
#          BR         NDA      ID1       ID2
     1.69227975E-01    2           5        -5   # BR(A -> b       bb     )
     2.97839810E-02    2         -15        15   # BR(A -> tau+    tau-   )
     1.04829954E-04    2         -13        13   # BR(A -> mu+     mu-    )
     7.28403307E-05    2           3        -3   # BR(A -> s       sb     )
     1.17539035E-07    2           4        -4   # BR(A -> c       cb     )
     1.15524581E-02    2           6        -6   # BR(A -> t       tb     )
     1.54074237E-05    2          21        21   # BR(A -> g       g      )
     6.65870839E-10    2          22        22   # BR(A -> gam     gam    )
     1.71554975E-08    2          23        22   # BR(A -> Z       gam    )
     3.01531282E-06    2          23        25   # BR(A -> Z       h      )
     7.60589012E-03    2     1000024  -1000024   # BR(A -> ~chi_1+ ~chi_1-)
     5.27170161E-05    2     1000037  -1000037   # BR(A -> ~chi_2+ ~chi_2-)
     2.36360444E-01    2     1000024  -1000037   # BR(A -> ~chi_1+ ~chi_2-)
     2.36360444E-01    2     1000037  -1000024   # BR(A -> ~chi_2+ ~chi_1-)
     3.87645455E-04    2     1000022   1000022   # BR(A -> ~chi_10 ~chi_10)
     3.63156843E-03    2     1000023   1000023   # BR(A -> ~chi_20 ~chi_20)
     1.17198622E-03    2     1000025   1000025   # BR(A -> ~chi_30 ~chi_30)
     1.65327284E-03    2     1000035   1000035   # BR(A -> ~chi_40 ~chi_40)
     2.37400791E-03    2     1000022   1000023   # BR(A -> ~chi_10 ~chi_20)
     3.95631558E-02    2     1000022   1000025   # BR(A -> ~chi_10 ~chi_30)
     3.13669335E-02    2     1000022   1000035   # BR(A -> ~chi_10 ~chi_40)
     1.26067924E-01    2     1000023   1000025   # BR(A -> ~chi_20 ~chi_30)
     1.00416428E-01    2     1000023   1000035   # BR(A -> ~chi_20 ~chi_40)
     2.22694090E-03    2     1000025   1000035   # BR(A -> ~chi_30 ~chi_40)
#
#         PDG            Width
DECAY        37     6.09285397E+01   # H+ decays
#          BR         NDA      ID1       ID2
     2.91182385E-04    2           4        -5   # BR(H+ -> c       bb     )
     2.96604946E-02    2         -15        16   # BR(H+ -> tau+    nu_tau )
     1.04395322E-04    2         -13        14   # BR(H+ -> mu+     nu_mu  )
     2.91181993E-06    2           2        -5   # BR(H+ -> u       bb     )
     3.62948757E-06    2           2        -3   # BR(H+ -> u       sb     )
     7.15516100E-05    2           4        -3   # BR(H+ -> c       sb     )
     1.84410885E-01    2           6        -5   # BR(H+ -> t       bb     )
     3.00577687E-06    2          24        25   # BR(H+ -> W+      h      )
     5.85201470E-14    2          24        36   # BR(H+ -> W+      A      )
     4.59751738E-03    2     1000024   1000022   # BR(H+ -> ~chi_1+ ~chi_10)
     1.93888935E-06    2     1000024   1000023   # BR(H+ -> ~chi_1+ ~chi_20)
     2.35949622E-01    2     1000024   1000025   # BR(H+ -> ~chi_1+ ~chi_30)
     2.35460831E-01    2     1000024   1000035   # BR(H+ -> ~chi_1+ ~chi_40)
     6.13593040E-02    2     1000037   1000022   # BR(H+ -> ~chi_2+ ~chi_10)
     2.45569012E-01    2     1000037   1000023   # BR(H+ -> ~chi_2+ ~chi_20)
     1.46622527E-03    2     1000037   1000025   # BR(H+ -> ~chi_2+ ~chi_30)
     1.04656435E-03    2     1000037   1000035   # BR(H+ -> ~chi_2+ ~chi_40)
     9.28825128E-07    2    -1000015   1000016   # BR(H+ -> ~tau_1+ ~nu_tauL)
