#
#                              ======================
#                              | THE SUSYHIT OUTPUT |
#                              ======================
#
#
#              ------------------------------------------------------
#              |     This is the output of the SUSY-HIT package     |
#              |  created by A.Djouadi, M.Muehlleitner and M.Spira. |
#              |  In case of problems with SUSY-HIT email to        |
#              |           margarete.muehlleitner@cern.ch           |
#              |           michael.spira@psi.ch                     |
#              |           abdelhak.djouadi@cern.ch                 |
#              ------------------------------------------------------
#
#              ------------------------------------------------------
#              |  SUSY Les Houches Accord - MSSM Spectrum + Decays  |
#              |              based on the decay programs           |
#              |                                                    |
#              |                     SDECAY 1.3b                    |
#              |                                                    |
#              |  Authors: M.Muhlleitner, A.Djouadi and Y.Mambrini  |
#              |  Ref.:    Comput.Phys.Commun.168(2005)46           |
#              |           [hep-ph/0311167]                         |
#              |                                                    |
#              |                     HDECAY 3.4                     |
#              |                                                    |
#              |  By: A.Djouadi,J.Kalinowski,M.Muhlleitner,M.Spira  |
#              |  Ref.:    Comput.Phys.Commun.108(1998)56           |
#              |           [hep-ph/9704448]                         |
#              |                                                    |
#              |                                                    |
#              |  If not stated otherwise all DRbar couplings and   |
#              |  soft SUSY breaking masses are given at the scale  |
#              |  Q=  0.27431190E+04
#              |                                                    |
#              ------------------------------------------------------
#
#
BLOCK DCINFO  # Decay Program information
     1   SDECAY/HDECAY # decay calculator
     2   1.3b  /3.4    # version number
#
BLOCK SPINFO  # Spectrum calculator information
     1     SOFTSUSY    # spectrum calculator               
     2     3.4.0       # version number                    
#
BLOCK MODSEL  # Model selection
     1     0   #  nonUniversal                                     
#
BLOCK SMINPUTS  # Standard Model inputs
         1     1.27908970E+02   # alpha_em^-1(M_Z)^MSbar
         2     1.16637870E-05   # G_F [GeV^-2]
         3     1.18400000E-01   # alpha_S(M_Z)^MSbar
         4     9.11876000E+01   # M_Z pole mass
         5     4.18000000E+00   # mb(mb)^MSbar
         6     1.73200000E+02   # mt pole mass
         7     1.77700000E+00   # mtau pole mass
#
BLOCK MINPAR  # Input parameters - minimal models
         3     3.28300000E+01   # tanb                
#
BLOCK EXTPAR  # Input parameters - non-minimal models
         0    -1.00000000E+00   # Set                 
         1    -6.91200000E+02   # M_1(MX)             
         2    -2.59137000E+03   # M_2(MX)             
         3     1.24195000E+03   # M_3(MX)             
        11     3.78089000E+03   # At(MX)              
        12    -1.80575000E+03   # Ab(MX)              
        13     2.01030000E+03   # Atau(MX)            
        23    -2.59593000E+03   # mu(MX)              
        26     3.08804000E+03   # mA(pole)            
        31     3.18402000E+03   # meL(MX)             
        32     3.18402000E+03   # mmuL(MX)            
        33     3.05736000E+03   # mtauL(MX)           
        34     3.25426000E+03   # meR(MX)             
        35     3.25426000E+03   # mmuR(MX)            
        36     2.98826000E+03   # mtauR(MX)           
        41     2.22065000E+03   # mqL1(MX)            
        42     2.22065000E+03   # mqL2(MX)            
        43     2.41600000E+03   # mqL3(MX)            
        44     8.48260000E+02   # muR(MX)             
        45     8.48260000E+02   # mcR(MX)             
        46     3.11509000E+03   # mtR(MX)             
        47     5.73150000E+02   # mdR(MX)             
        48     5.73150000E+02   # msR(MX)             
        49     2.61144000E+03   # mbR(MX)             
#
BLOCK MASS  # Mass Spectrum
# PDG code           mass       particle
        24     8.04037188E+01   # W+
        25     1.26746881E+02   # h
        35     3.08799417E+03   # H
        36     3.08804000E+03   # A
        37     3.08905973E+03   # H+
         5     4.81876030E+00   # b-quark pole mass calculated from mb(mb)_Msbar
   1000001     2.28571005E+03   # ~d_L
   2000001     7.04570849E+02   # ~d_R
   1000002     2.28449083E+03   # ~u_L
   2000002     9.51088445E+02   # ~u_R
   1000003     2.28571005E+03   # ~s_L
   2000003     7.04570849E+02   # ~s_R
   1000004     2.28449083E+03   # ~c_L
   2000004     9.51088445E+02   # ~c_R
   1000005     2.43429171E+03   # ~b_1
   2000005     2.64138752E+03   # ~b_2
   1000006     2.44350111E+03   # ~t_1
   2000006     3.10842731E+03   # ~t_2
   1000011     3.20047912E+03   # ~e_L
   2000011     3.25732531E+03   # ~e_R
   1000012     3.19917596E+03   # ~nu_eL
   1000013     3.20047912E+03   # ~mu_L
   2000013     3.25732531E+03   # ~mu_R
   1000014     3.19917596E+03   # ~nu_muL
   1000015     2.97701125E+03   # ~tau_1
   2000015     3.07958505E+03   # ~tau_2
   1000016     3.07012639E+03   # ~nu_tauL
   1000021     1.39142241E+03   # ~g
   1000022    -6.82605999E+02   # ~chi_10
   1000023    -2.57031948E+03   # ~chi_20
   1000025     2.69098592E+03   # ~chi_30
   1000035    -2.71721715E+03   # ~chi_40
   1000024     2.57052996E+03   # ~chi_1+
   1000037     2.71778009E+03   # ~chi_2+
#
BLOCK NMIX  # Neutralino Mixing Matrix
  1  1     9.99830912E-01   # N_11
  1  2    -2.36998392E-04   # N_12
  1  3    -1.76712633E-02   # N_13
  1  4     5.08111185E-03   # N_14
  2  1     6.79811652E-03   # N_21
  2  2     9.14733761E-01   # N_22
  2  3     2.92123656E-01   # N_23
  2  4    -2.79069349E-01   # N_24
  3  1     8.89798086E-03   # N_31
  3  2    -1.00765152E-02   # N_32
  3  3     7.06914871E-01   # N_33
  3  4     7.07170881E-01   # N_34
  4  1     1.45862593E-02   # N_41
  4  2    -4.03931373E-01   # N_42
  4  3     6.43912153E-01   # N_43
  4  4    -6.49618215E-01   # N_44
#
BLOCK UMIX  # Chargino Mixing Matrix U
  1  1     9.02105004E-01   # U_11
  1  2     4.31516584E-01   # U_12
  2  1    -4.31516584E-01   # U_21
  2  2     9.02105004E-01   # U_22
#
BLOCK VMIX  # Chargino Mixing Matrix V
  1  1    -9.10722905E-01   # V_11
  1  2    -4.13017906E-01   # V_12
  2  1     4.13017906E-01   # V_21
  2  2    -9.10722905E-01   # V_22
#
BLOCK STOPMIX  # Stop Mixing Matrix
  1  1     9.90091828E-01   # cos(theta_t)
  1  2    -1.40421409E-01   # sin(theta_t)
  2  1     1.40421409E-01   # -sin(theta_t)
  2  2     9.90091828E-01   # cos(theta_t)
#
BLOCK SBOTMIX  # Sbottom Mixing Matrix
  1  1     9.49973544E-01   # cos(theta_b)
  1  2    -3.12330379E-01   # sin(theta_b)
  2  1     3.12330379E-01   # -sin(theta_b)
  2  2     9.49973544E-01   # cos(theta_b)
#
BLOCK STAUMIX  # Stau Mixing Matrix
  1  1    -2.84081738E-01   # cos(theta_tau)
  1  2     9.58800066E-01   # sin(theta_tau)
  2  1    -9.58800066E-01   # -sin(theta_tau)
  2  2    -2.84081738E-01   # cos(theta_tau)
#
BLOCK ALPHA  # Higgs mixing
          -3.08205106E-02   # Mixing angle in the neutral Higgs boson sector
#
BLOCK HMIX Q=  2.74311900E+03  # DRbar Higgs Parameters
         1    -2.70847658E+03   # mu(Q)MSSM           
         2     3.24798024E+01   # tan                 
         3     2.42786658E+02   # higgs               
         4     1.05545120E+07   # mA^2(Q)MSSM         
#
BLOCK GAUGE Q=  2.74311900E+03  # The gauge couplings
     1     3.64656161E-01   # gprime(Q) DRbar
     2     6.35245838E-01   # g(Q) DRbar
     3     1.03091470E+00   # g3(Q) DRbar
#
BLOCK AU Q=  2.74311900E+03  # The trilinear couplings
  1  1     0.00000000E+00   # A_u(Q) DRbar
  2  2     0.00000000E+00   # A_c(Q) DRbar
  3  3     3.78089001E+03   # A_t(Q) DRbar
#
BLOCK AD Q=  2.74311900E+03  # The trilinear couplings
  1  1     0.00000000E+00   # A_d(Q) DRbar
  2  2     0.00000000E+00   # A_s(Q) DRbar
  3  3    -1.80574999E+03   # A_b(Q) DRbar
#
BLOCK AE Q=  2.74311900E+03  # The trilinear couplings
  1  1     0.00000000E+00   # A_e(Q) DRbar
  2  2     0.00000000E+00   # A_mu(Q) DRbar
  3  3     2.01030000E+03   # A_tau(Q) DRbar
#
BLOCK Yu Q=  2.74311900E+03  # The Yukawa couplings
  1  1     0.00000000E+00   # y_u(Q) DRbar
  2  2     0.00000000E+00   # y_c(Q) DRbar
  3  3     8.36154501E-01   # y_t(Q) DRbar
#
BLOCK Yd Q=  2.74311900E+03  # The Yukawa couplings
  1  1     0.00000000E+00   # y_d(Q) DRbar
  2  2     0.00000000E+00   # y_s(Q) DRbar
  3  3     7.05812645E-01   # y_b(Q) DRbar
#
BLOCK Ye Q=  2.74311900E+03  # The Yukawa couplings
  1  1     0.00000000E+00   # y_e(Q) DRbar
  2  2     0.00000000E+00   # y_mu(Q) DRbar
  3  3     3.51283269E-01   # y_tau(Q) DRbar
#
BLOCK MSOFT Q=  2.74311900E+03  # The soft SUSY breaking masses at the scale Q
         1    -6.91200000E+02   # M_1(Q)              
         2    -2.59137000E+03   # M_2(Q)              
         3     1.24195000E+03   # M_3(Q)              
        21     2.43815321E+06   # mH1^2(Q)            
        22    -7.21428023E+06   # mH2^2(Q)            
        31     3.18402000E+03   # meL(Q)              
        32     3.18402000E+03   # mmuL(Q)             
        33     3.05736000E+03   # mtauL(Q)            
        34     3.25426000E+03   # meR(Q)              
        35     3.25426000E+03   # mmuR(Q)             
        36     2.98826000E+03   # mtauR(Q)            
        41     2.22065000E+03   # mqL1(Q)             
        42     2.22065000E+03   # mqL2(Q)             
        43     2.41600000E+03   # mqL3(Q)             
        44     8.48259994E+02   # muR(Q)              
        45     8.48259994E+02   # mcR(Q)              
        46     3.11509000E+03   # mtR(Q)              
        47     5.73149991E+02   # mdR(Q)              
        48     5.73149991E+02   # msR(Q)              
        49     2.61143999E+03   # mbR(Q)              
#
Block HiggsBoundsInputHiggsCouplingsFermions
# ScalarNormEffCoupSq PseudoSNormEffCoupSq NP   IP1 IP2 IP2
    1.00272163E+00    0.00000000E+00        3  25   5   5  # h0-b-b eff. coupling^2, normalised to SM
    1.05493484E+03    0.00000000E+00        3  35   5   5  # H0-b-b eff. coupling^2, normalised to SM
    0.00000000E+00    1.05493756E+03        3  36   5   5  # A0-b-b eff. coupling^2, normalised to SM
#
    9.99997420E-01    0.00000000E+00        3  25   6   6  # h0-t-t eff. coupling^2, normalised to SM
    9.50503290E-04    0.00000000E+00        3  35   6   6  # H0-t-t eff. coupling^2, normalised to SM
    0.00000000E+00    9.47923398E-04        3  36   6   6  # A0-t-t eff. coupling^2, normalised to SM
#
    1.00272163E+00    0.00000000E+00        3  25  15  15  # h0-tau-tau eff. coupling^2, normalised to SM
    1.05493484E+03    0.00000000E+00        3  35  15  15  # H0-tau-tau eff. coupling^2, normalised to SM
    0.00000000E+00    1.05493756E+03        3  36  15  15  # A0-tau-tau eff. coupling^2, normalised to SM
#
Block HiggsBoundsInputHiggsCouplingsBosons
    9.99999998E-01        3  25  24  24  # h0-W-W eff. coupling^2, normalised to SM
    1.75299301E-09        3  35  24  24  # H0-W-W eff. coupling^2, normalised to SM
    0.00000000E+00        3  36  24  24  # A0-W-W eff. coupling^2, normalised to SM
#
    9.99999998E-01        3  25  23  23  # h0-Z-Z eff. coupling^2, normalised to SM
    1.75299301E-09        3  35  23  23  # H0-Z-Z eff. coupling^2, normalised to SM
    0.00000000E+00        3  36  23  23  # A0-Z-Z eff. coupling^2, normalised to SM
#
    8.85659582E-01        3  25  21  21  # h0-g-g eff. coupling^2, normalised to SM
    2.80347492E-13        3  35  21  21  # H0-g-g eff. coupling^2, normalised to SM
    1.94768901E-12        3  36  21  21  # A0-g-g eff. coupling^2, normalised to SM
#
    0.00000000E+00        3  25  25  23  # h0-h0-Z eff. coupling^2, normalised to SM
    0.00000000E+00        3  35  25  23  # H0-h0-Z eff. coupling^2, normalised to SM
    1.75299301E-09        3  36  25  23  # A0-h0-Z eff. coupling^2, normalised to SM
    0.00000000E+00        3  35  35  23  # H0-H0-Z eff. coupling^2, normalised to SM
    9.99999998E-01        3  36  35  23  # A0-H0-Z eff. coupling^2, normalised to SM
    0.00000000E+00        3  36  36  23  # A0-A0-Z eff. coupling^2, normalised to SM
#
    0.00000000E+00        4  25  21  21  23  # h0-g-g-Z eff. coupling^2, normalised to SM
    0.00000000E+00        4  35  21  21  23  # H0-g-g-Z eff. coupling^2, normalised to SM
    0.00000000E+00        4  36  21  21  23  # A0-g-g-Z eff. coupling^2, normalised to SM
#
#
#
#                             =================
#                             |The decay table|
#                             =================
#
# - The QCD corrections to the decays gluino -> squark  + quark
#                                     squark -> gaugino + quark_prime
#                                     squark -> squark_prime + Higgs
#                                     squark -> gluino  + quark
#   are included.
#
# - The multi-body decays for the inos, stops and sbottoms are included.
#
# - The loop induced decays for the gluino, neutralinos and stops
#   are included.
#
# - The SUSY decays of the top quark are included.
#
#
#         PDG            Width
DECAY         6     1.42058898E+00   # top decays
#          BR         NDA      ID1       ID2
     1.00000000E+00    2           5        24   # BR(t ->  b    W+)
#
#         PDG            Width
DECAY   1000021     4.98830764E+01   # gluino decays
#          BR         NDA      ID1       ID2
     1.65195444E-01    2     2000001        -1   # BR(~g -> ~d_R  db)
     1.65195444E-01    2    -2000001         1   # BR(~g -> ~d_R* d )
     8.48047384E-02    2     2000002        -2   # BR(~g -> ~u_R  ub)
     8.48047384E-02    2    -2000002         2   # BR(~g -> ~u_R* u )
     1.65195444E-01    2     2000003        -3   # BR(~g -> ~s_R  sb)
     1.65195444E-01    2    -2000003         3   # BR(~g -> ~s_R* s )
     8.48043740E-02    2     2000004        -4   # BR(~g -> ~c_R  cb)
     8.48043740E-02    2    -2000004         4   # BR(~g -> ~c_R* c )
#
#         PDG            Width
DECAY   1000006     5.98867125E+01   # stop1 decays
#          BR         NDA      ID1       ID2
     6.99334938E-03    2     1000022         6   # BR(~t_1 -> ~chi_10 t )
     9.93006651E-01    2     1000021         6   # BR(~t_1 -> ~g      t )
#
#         PDG            Width
DECAY   2000006     1.65471535E+02   # stop2 decays
#          BR         NDA      ID1       ID2
     3.88018223E-02    2     1000022         6   # BR(~t_2 -> ~chi_10 t )
     1.21976760E-03    2     1000023         6   # BR(~t_2 -> ~chi_20 t )
     6.57539014E-03    2     1000025         6   # BR(~t_2 -> ~chi_30 t )
     6.65653618E-03    2     1000035         6   # BR(~t_2 -> ~chi_40 t )
     2.61334025E-03    2     1000024         5   # BR(~t_2 -> ~chi_1+ b )
     1.31660262E-02    2     1000037         5   # BR(~t_2 -> ~chi_2+ b )
     6.82343931E-01    2     1000021         6   # BR(~t_2 -> ~g      t )
     6.96931780E-02    2     1000006        25   # BR(~t_2 -> ~t_1    h )
     6.10038657E-02    2     1000006        23   # BR(~t_2 -> ~t_1    Z )
     1.13479033E-01    2     1000005        24   # BR(~t_2 -> ~b_1    W+)
     4.44711026E-03    2     2000005        24   # BR(~t_2 -> ~b_2    W+)
#
#         PDG            Width
DECAY   1000005     6.25696058E+01   # sbottom1 decays
#          BR         NDA      ID1       ID2
     7.63081607E-03    2     1000022         5   # BR(~b_1 -> ~chi_10 b )
     9.92369184E-01    2     1000021         5   # BR(~b_1 -> ~g      b )
#
#         PDG            Width
DECAY   2000005     8.38602675E+01   # sbottom2 decays
#          BR         NDA      ID1       ID2
     1.39877184E-02    2     1000022         5   # BR(~b_2 -> ~chi_10 b )
     1.66855762E-05    2     1000023         5   # BR(~b_2 -> ~chi_20 b )
     9.28501326E-01    2     1000021         5   # BR(~b_2 -> ~g      b )
     1.22850439E-02    2     1000005        25   # BR(~b_2 -> ~b_1    h )
     1.53590218E-02    2     1000005        23   # BR(~b_2 -> ~b_1    Z )
     2.98502040E-02    2     1000006       -24   # BR(~b_2 -> ~t_1    W-)
#
#         PDG            Width
DECAY   1000002     7.44722559E+01   # sup_L decays
#          BR         NDA      ID1       ID2
     3.58915805E-03    2     1000022         2   # BR(~u_L -> ~chi_10 u)
     9.96410842E-01    2     1000021         2   # BR(~u_L -> ~g      u)
#
#         PDG            Width
DECAY   2000002     5.31351906E-01   # sup_R decays
#          BR         NDA      ID1       ID2
     1.00000000E+00    2     1000022         2   # BR(~u_R -> ~chi_10 u)
#
#         PDG            Width
DECAY   1000001     7.46068160E+01   # sdown_L decays
#          BR         NDA      ID1       ID2
     3.60319150E-03    2     1000022         1   # BR(~d_L -> ~chi_10 d)
     9.96396808E-01    2     1000021         1   # BR(~d_L -> ~g      d)
#
#         PDG            Width
DECAY   2000001     1.72457002E-03   # sdown_R decays
#          BR         NDA      ID1       ID2
     1.00000000E+00    2     1000022         1   # BR(~d_R -> ~chi_10 d)
#
#         PDG            Width
DECAY   1000004     5.12430349E+01   # scharm_L decays
#          BR         NDA      ID1       ID2
     5.41905557E-03    2     1000022         4   # BR(~c_L -> ~chi_10 c)
     9.94580944E-01    2     1000021         4   # BR(~c_L -> ~g      c)
#
#         PDG            Width
DECAY   2000004     5.25654846E-01   # scharm_R decays
#          BR         NDA      ID1       ID2
     1.00000000E+00    2     1000022         4   # BR(~c_R -> ~chi_10 c)
#
#         PDG            Width
DECAY   1000003     5.13361162E+01   # sstrange_L decays
#          BR         NDA      ID1       ID2
     5.44014514E-03    2     1000022         3   # BR(~s_L -> ~chi_10 s)
     9.94559855E-01    2     1000021         3   # BR(~s_L -> ~g      s)
#
#         PDG            Width
DECAY   2000003     1.55985416E-03   # sstrange_R decays
#          BR         NDA      ID1       ID2
     1.00000000E+00    2     1000022         3   # BR(~s_R -> ~chi_10 s)
#
#         PDG            Width
DECAY   1000011     8.38166728E+00   # selectron_L decays
#          BR         NDA      ID1       ID2
     4.59629327E-01    2     1000022        11   # BR(~e_L -> ~chi_10 e-)
     1.63030350E-01    2     1000023        11   # BR(~e_L -> ~chi_20 e-)
     3.24953646E-06    2     1000025        11   # BR(~e_L -> ~chi_30 e-)
     1.86939013E-02    2     1000035        11   # BR(~e_L -> ~chi_40 e-)
     3.14244070E-01    2    -1000024        12   # BR(~e_L -> ~chi_1- nu_e)
     4.43991023E-02    2    -1000037        12   # BR(~e_L -> ~chi_2- nu_e)
#
#         PDG            Width
DECAY   2000011     1.57489036E+01   # selectron_R decays
#          BR         NDA      ID1       ID2
     9.99962530E-01    2     1000022        11   # BR(~e_R -> ~chi_10 e-)
     7.20074986E-06    2     1000023        11   # BR(~e_R -> ~chi_20 e-)
     8.73408402E-06    2     1000025        11   # BR(~e_R -> ~chi_30 e-)
     2.15353615E-05    2     1000035        11   # BR(~e_R -> ~chi_40 e-)
#
#         PDG            Width
DECAY   1000013     8.38166724E+00   # smuon_L decays
#          BR         NDA      ID1       ID2
     4.59629328E-01    2     1000022        13   # BR(~mu_L -> ~chi_10 mu-)
     1.63030347E-01    2     1000023        13   # BR(~mu_L -> ~chi_20 mu-)
     3.24953639E-06    2     1000025        13   # BR(~mu_L -> ~chi_30 mu-)
     1.86939009E-02    2     1000035        13   # BR(~mu_L -> ~chi_40 mu-)
     3.14244071E-01    2    -1000024        14   # BR(~mu_L -> ~chi_1- nu_mu)
     4.43991025E-02    2    -1000037        14   # BR(~mu_L -> ~chi_2- nu_mu)
#
#         PDG            Width
DECAY   2000013     1.57489035E+01   # smuon_R decays
#          BR         NDA      ID1       ID2
     9.99962530E-01    2     1000022        13   # BR(~mu_R -> ~chi_10 mu-)
     7.20074977E-06    2     1000023        13   # BR(~mu_R -> ~chi_20 mu-)
     8.73408386E-06    2     1000025        13   # BR(~mu_R -> ~chi_30 mu-)
     2.15353611E-05    2     1000035        13   # BR(~mu_R -> ~chi_40 mu-)
#
#         PDG            Width
DECAY   1000015     1.41276498E+01   # stau_1 decays
#          BR         NDA      ID1       ID2
     9.43346045E-01    2     1000022        15   # BR(~tau_1 -> ~chi_10  tau-)
     1.27973388E-02    2     1000023        15   # BR(~tau_1 -> ~chi_20  tau-)
     8.54955606E-03    2     1000025        15   # BR(~tau_1 -> ~chi_30  tau-)
     3.59966367E-03    2     1000035        15   # BR(~tau_1 -> ~chi_40  tau-)
     2.57680925E-02    2    -1000024        16   # BR(~tau_1 -> ~chi_1-  nu_tau)
     5.93930378E-03    2    -1000037        16   # BR(~tau_1 -> ~chi_2-  nu_tau)
#
#         PDG            Width
DECAY   2000015     7.69670128E+00   # stau_2 decays
#          BR         NDA      ID1       ID2
     5.87668141E-01    2     1000022        15   # BR(~tau_2 -> ~chi_10  tau-)
     1.05476179E-01    2     1000023        15   # BR(~tau_2 -> ~chi_20  tau-)
     2.77905141E-02    2     1000025        15   # BR(~tau_2 -> ~chi_30  tau-)
     4.04105297E-02    2     1000035        15   # BR(~tau_2 -> ~chi_40  tau-)
     1.87739890E-01    2    -1000024        16   # BR(~tau_2 -> ~chi_1-  nu_tau)
     4.84772364E-02    2    -1000037        16   # BR(~tau_2 -> ~chi_2-  nu_tau)
     2.43750960E-03    2     1000015        23   # BR(~tau_2 -> ~tau_1   Z)
#
#         PDG            Width
DECAY   1000012     8.38024666E+00   # snu_eL decays
#          BR         NDA      ID1       ID2
     4.60243940E-01    2     1000022        12   # BR(~nu_eL -> ~chi_10 nu_e)
     1.59759736E-01    2     1000023        12   # BR(~nu_eL -> ~chi_20 nu_e)
     3.02210353E-05    2     1000025        12   # BR(~nu_eL -> ~chi_30 nu_e)
     2.02200665E-02    2     1000035        12   # BR(~nu_eL -> ~chi_40 nu_e)
     3.19252866E-01    2     1000024        11   # BR(~nu_eL -> ~chi_1+ e-)
     4.04931707E-02    2     1000037        11   # BR(~nu_eL -> ~chi_2+ e-)
#
#         PDG            Width
DECAY   1000014     8.38024661E+00   # snu_muL decays
#          BR         NDA      ID1       ID2
     4.60243943E-01    2     1000022        14   # BR(~nu_muL -> ~chi_10 nu_mu)
     1.59759737E-01    2     1000023        14   # BR(~nu_muL -> ~chi_20 nu_mu)
     3.02210355E-05    2     1000025        14   # BR(~nu_muL -> ~chi_30 nu_mu)
     2.02200667E-02    2     1000035        14   # BR(~nu_muL -> ~chi_40 nu_mu)
     3.19252862E-01    2     1000024        13   # BR(~nu_muL -> ~chi_1+ mu-)
     4.04931699E-02    2     1000037        13   # BR(~nu_muL -> ~chi_2+ mu-)
#
#         PDG            Width
DECAY   1000016     7.15972484E+00   # snu_tauL decays
#          BR         NDA      ID1       ID2
     5.12747140E-01    2     1000022        16   # BR(~nu_tauL -> ~chi_10 nu_tau)
     1.27739748E-01    2     1000023        16   # BR(~nu_tauL -> ~chi_20 nu_tau)
     2.13118739E-05    2     1000025        16   # BR(~nu_tauL -> ~chi_30 nu_tau)
     1.37385014E-02    2     1000035        16   # BR(~nu_tauL -> ~chi_40 nu_tau)
     2.72308564E-01    2     1000024        15   # BR(~nu_tauL -> ~chi_1+ tau-)
     6.79061519E-02    2     1000037        15   # BR(~nu_tauL -> ~chi_2+ tau-)
     5.53858267E-03    2    -1000015       -24   # BR(~nu_tauL -> ~tau_1+ W-)
#
#         PDG            Width
DECAY   1000024     5.12764528E+00   # chargino1+ decays
#          BR         NDA      ID1       ID2
     2.21721683E-01    2     1000002        -1   # BR(~chi_1+ -> ~u_L     db)
     2.15834800E-01    2    -1000001         2   # BR(~chi_1+ -> ~d_L*    u )
     2.21721491E-01    2     1000004        -3   # BR(~chi_1+ -> ~c_L     sb)
     2.15831790E-01    2    -1000003         4   # BR(~chi_1+ -> ~s_L*     c )
     6.82737354E-02    2     1000006        -5   # BR(~chi_1+ -> ~t_1     bb)
     5.66165008E-02    2     1000022        24   # BR(~chi_1+ -> ~chi_10  W+)
#
#         PDG            Width
DECAY   1000037     7.31115429E+00   # chargino2+ decays
#          BR         NDA      ID1       ID2
     6.51517285E-02    2     1000002        -1   # BR(~chi_2+ -> ~u_L     db)
     7.07592910E-02    2    -1000001         2   # BR(~chi_2+ -> ~d_L*    u )
     6.51517051E-02    2     1000004        -3   # BR(~chi_2+ -> ~c_L     sb)
     7.07588823E-02    2    -1000003         4   # BR(~chi_2+ -> ~s_L*     c )
     1.69975229E-01    2     1000006        -5   # BR(~chi_2+ -> ~t_1     bb)
     1.64912593E-01    2    -1000005         6   # BR(~chi_2+ -> ~b_1*    t )
     7.32938781E-02    2     1000024        23   # BR(~chi_2+ -> ~chi_1+  Z )
     1.88920305E-01    2     1000022        24   # BR(~chi_2+ -> ~chi_10  W+)
     9.77882410E-02    2     1000023        24   # BR(~chi_2+ -> ~chi_20  W+)
     3.32881466E-02    2     1000024        25   # BR(~chi_2+ -> ~chi_1+  h )
#
#         PDG            Width
DECAY   1000022     0.00000000E+00   # neutralino1 decays
#
#         PDG            Width
DECAY   1000023     5.25756898E+00   # neutralino2 decays
#          BR         NDA      ID1       ID2
     1.16945960E-02    2     1000022        23   # BR(~chi_20 -> ~chi_10   Z )
     4.22465042E-02    2     1000022        25   # BR(~chi_20 -> ~chi_10   h )
     1.09245077E-01    2     1000002        -2   # BR(~chi_20 -> ~u_L      ub)
     1.09245077E-01    2    -1000002         2   # BR(~chi_20 -> ~u_L*     u )
     5.73259408E-05    2     2000002        -2   # BR(~chi_20 -> ~u_R      ub)
     5.73259408E-05    2    -2000002         2   # BR(~chi_20 -> ~u_R*     u )
     1.07770647E-01    2     1000001        -1   # BR(~chi_20 -> ~d_L      db)
     1.07770647E-01    2    -1000001         1   # BR(~chi_20 -> ~d_L*     d )
     1.64373569E-05    2     2000001        -1   # BR(~chi_20 -> ~d_R      db)
     1.64373569E-05    2    -2000001         1   # BR(~chi_20 -> ~d_R*     d )
     1.09243565E-01    2     1000004        -4   # BR(~chi_20 -> ~c_L      cb)
     1.09243565E-01    2    -1000004         4   # BR(~chi_20 -> ~c_L*     c )
     5.73259324E-05    2     2000004        -4   # BR(~chi_20 -> ~c_R      cb)
     5.73259324E-05    2    -2000004         4   # BR(~chi_20 -> ~c_R*     c )
     1.07770647E-01    2     1000003        -3   # BR(~chi_20 -> ~s _L      sb)
     1.07770647E-01    2    -1000003         3   # BR(~chi_20 -> ~s _L*     s )
     1.64373569E-05    2     2000003        -3   # BR(~chi_20 -> ~s _R      sb)
     1.64373569E-05    2    -2000003         3   # BR(~chi_20 -> ~s _R*     s )
     3.88519865E-02    2     1000005        -5   # BR(~chi_20 -> ~b_1      bb)
     3.88519865E-02    2    -1000005         5   # BR(~chi_20 -> ~b_1*     b )
#
#         PDG            Width
DECAY   1000025     4.90602443E+00   # neutralino3 decays
#          BR         NDA      ID1       ID2
     2.69598747E-01    2     1000022        23   # BR(~chi_30 -> ~chi_10   Z )
     3.93698770E-02    2     1000023        23   # BR(~chi_30 -> ~chi_20   Z )
     6.09900677E-02    2     1000024       -24   # BR(~chi_30 -> ~chi_1+   W-)
     6.09900677E-02    2    -1000024        24   # BR(~chi_30 -> ~chi_1-   W+)
     8.82151278E-02    2     1000022        25   # BR(~chi_30 -> ~chi_10   h )
     1.79299779E-05    2     1000002        -2   # BR(~chi_30 -> ~u_L      ub)
     1.79299779E-05    2    -1000002         2   # BR(~chi_30 -> ~u_L*     u )
     1.13328437E-04    2     2000002        -2   # BR(~chi_30 -> ~u_R      ub)
     1.13328437E-04    2    -2000002         2   # BR(~chi_30 -> ~u_R*     u )
     3.52850559E-05    2     1000001        -1   # BR(~chi_30 -> ~d_L      db)
     3.52850559E-05    2    -1000001         1   # BR(~chi_30 -> ~d_L*     d )
     3.20674741E-05    2     2000001        -1   # BR(~chi_30 -> ~d_R      db)
     3.20674741E-05    2    -2000001         1   # BR(~chi_30 -> ~d_R*     d )
     1.79298599E-05    2     1000004        -4   # BR(~chi_30 -> ~c_L      cb)
     1.79298599E-05    2    -1000004         4   # BR(~chi_30 -> ~c_L*     c )
     1.13328423E-04    2     2000004        -4   # BR(~chi_30 -> ~c_R      cb)
     1.13328423E-04    2    -2000004         4   # BR(~chi_30 -> ~c_R*     c )
     3.52850559E-05    2     1000003        -3   # BR(~chi_30 -> ~s _L      sb)
     3.52850559E-05    2    -1000003         3   # BR(~chi_30 -> ~s _L*     s )
     3.20674741E-05    2     2000003        -3   # BR(~chi_30 -> ~s _R      sb)
     3.20674741E-05    2    -2000003         3   # BR(~chi_30 -> ~s _R*     s )
     1.02362315E-01    2     1000006        -6   # BR(~chi_30 -> ~t_1      tb)
     1.02362315E-01    2    -1000006         6   # BR(~chi_30 -> ~t_1*     t )
     1.31885333E-01    2     1000005        -5   # BR(~chi_30 -> ~b_1      bb)
     1.31885333E-01    2    -1000005         5   # BR(~chi_30 -> ~b_1*     b )
     5.77318567E-03    2     2000005        -5   # BR(~chi_30 -> ~b_2      bb)
     5.77318567E-03    2    -2000005         5   # BR(~chi_30 -> ~b_2*     b )
#
#         PDG            Width
DECAY   1000035     6.97503350E+00   # neutralino4 decays
#          BR         NDA      ID1       ID2
     4.96261346E-02    2     1000022        23   # BR(~chi_40 -> ~chi_10   Z )
     6.92244375E-05    2     1000023        23   # BR(~chi_40 -> ~chi_20   Z )
     7.27160254E-02    2     1000024       -24   # BR(~chi_40 -> ~chi_1+   W-)
     7.27160254E-02    2    -1000024        24   # BR(~chi_40 -> ~chi_1-   W+)
     1.66579791E-01    2     1000022        25   # BR(~chi_40 -> ~chi_10   h )
     3.78886673E-02    2     1000023        25   # BR(~chi_40 -> ~chi_20   h )
     3.21401300E-02    2     1000002        -2   # BR(~chi_40 -> ~u_L      ub)
     3.21401300E-02    2    -1000002         2   # BR(~chi_40 -> ~u_L*     u )
     2.17500893E-04    2     2000002        -2   # BR(~chi_40 -> ~u_R      ub)
     2.17500893E-04    2    -2000002         2   # BR(~chi_40 -> ~u_R*     u )
     3.28736816E-02    2     1000001        -1   # BR(~chi_40 -> ~d_L      db)
     3.28736816E-02    2    -1000001         1   # BR(~chi_40 -> ~d_L*     d )
     6.13832952E-05    2     2000001        -1   # BR(~chi_40 -> ~d_R      db)
     6.13832952E-05    2    -2000001         1   # BR(~chi_40 -> ~d_R*     d )
     3.21399450E-02    2     1000004        -4   # BR(~chi_40 -> ~c_L      cb)
     3.21399450E-02    2    -1000004         4   # BR(~chi_40 -> ~c_L*     c )
     2.17500868E-04    2     2000004        -4   # BR(~chi_40 -> ~c_R      cb)
     2.17500868E-04    2    -2000004         4   # BR(~chi_40 -> ~c_R*     c )
     3.28736816E-02    2     1000003        -3   # BR(~chi_40 -> ~s _L      sb)
     3.28736816E-02    2    -1000003         3   # BR(~chi_40 -> ~s _L*     s )
     6.13832952E-05    2     2000003        -3   # BR(~chi_40 -> ~s _R      sb)
     6.13832952E-05    2    -2000003         3   # BR(~chi_40 -> ~s _R*     s )
     7.64496881E-02    2     1000006        -6   # BR(~chi_40 -> ~t_1      tb)
     7.64496881E-02    2    -1000006         6   # BR(~chi_40 -> ~t_1*     t )
     8.43580702E-02    2     1000005        -5   # BR(~chi_40 -> ~b_1      bb)
     8.43580702E-02    2    -1000005         5   # BR(~chi_40 -> ~b_1*     b )
     8.80910112E-03    2     2000005        -5   # BR(~chi_40 -> ~b_2      bb)
     8.80910112E-03    2    -2000005         5   # BR(~chi_40 -> ~b_2*     b )
#
#         PDG            Width
DECAY        25     4.02699114E-03   # h decays
#          BR         NDA      ID1       ID2
     5.41983473E-01    2           5        -5   # BR(h -> b       bb     )
     6.53222918E-02    2         -15        15   # BR(h -> tau+    tau-   )
     2.31210305E-04    2         -13        13   # BR(h -> mu+     mu-    )
     2.52428858E-04    2           3        -3   # BR(h -> s       sb     )
     2.17784197E-02    2           4        -4   # BR(h -> c       cb     )
     8.24194546E-02    2          21        21   # BR(h -> g       g      )
     2.48108536E-03    2          22        22   # BR(h -> gam     gam    )
     1.80853702E-03    2          22        23   # BR(h -> Z       gam    )
     2.51432444E-01    2          24       -24   # BR(h -> W+      W-     )
     3.22906554E-02    2          23        23   # BR(h -> Z       Z      )
#
#         PDG            Width
DECAY        35     8.12560926E+01   # H decays
#          BR         NDA      ID1       ID2
     9.21680793E-01    2           5        -5   # BR(H -> b       bb     )
     7.58222486E-02    2         -15        15   # BR(H -> tau+    tau-   )
     2.69046744E-04    2         -13        13   # BR(H -> mu+     mu-    )
     7.47474588E-04    2           3        -3   # BR(H -> s       sb     )
     1.47669538E-08    2           4        -4   # BR(H -> c       cb     )
     1.45212800E-03    2           6        -6   # BR(H -> t       tb     )
     6.37383652E-06    2          21        21   # BR(H -> g       g      )
     3.28344018E-09    2          22        22   # BR(H -> gam     gam    )
     3.39144803E-09    2          23        22   # BR(H -> Z       gam    )
     2.04172672E-07    2          24       -24   # BR(H -> W+      W-     )
     1.01867440E-07    2          23        23   # BR(H -> Z       Z      )
     9.99093110E-07    2          25        25   # BR(H -> h       h      )
     2.04261854E-05    2     1000022   1000022   # BR(H -> ~chi_10 ~chi_10)
     7.12987787E-08    2     2000002  -2000002   # BR(H -> ~u_R    ~u_R*  )
     7.12987787E-08    2     2000004  -2000004   # BR(H -> ~c_R    ~c_R*  )
     2.01339862E-08    2     2000001  -2000001   # BR(H -> ~d_R    ~d_R*  )
     2.01339862E-08    2     2000003  -2000003   # BR(H -> ~s_R    ~s_R*  )
#
#         PDG            Width
DECAY        36     8.12594387E+01   # A decays
#          BR         NDA      ID1       ID2
     9.21659515E-01    2           5        -5   # BR(A -> b       bb     )
     7.58205567E-02    2         -15        15   # BR(A -> tau+    tau-   )
     2.69040384E-04    2         -13        13   # BR(A -> mu+     mu-    )
     7.47504131E-04    2           3        -3   # BR(A -> s       sb     )
     1.48628842E-08    2           4        -4   # BR(A -> c       cb     )
     1.46003838E-03    2           6        -6   # BR(A -> t       tb     )
     1.68005065E-05    2          21        21   # BR(A -> g       g      )
     6.55877514E-09    2          22        22   # BR(A -> gam     gam    )
     1.27863857E-08    2          23        22   # BR(A -> Z       gam    )
     2.06871538E-07    2          23        25   # BR(A -> Z       h      )
     2.63037724E-05    2     1000022   1000022   # BR(A -> ~chi_10 ~chi_10)
#
#         PDG            Width
DECAY        37     8.55133142E+01   # H+ decays
#          BR         NDA      ID1       ID2
     1.55529363E-03    2           4        -5   # BR(H+ -> c       bb     )
     7.20726412E-02    2         -15        16   # BR(H+ -> tau+    nu_tau )
     2.55741344E-04    2         -13        14   # BR(H+ -> mu+     nu_mu  )
     1.55529189E-05    2           2        -5   # BR(H+ -> u       bb     )
     3.55346374E-05    2           2        -3   # BR(H+ -> u       sb     )
     6.99443086E-04    2           4        -3   # BR(H+ -> c       sb     )
     9.25365596E-01    2           6        -5   # BR(H+ -> t       bb     )
     1.96891664E-07    2          24        25   # BR(H+ -> W+      h      )
     1.69654965E-14    2          24        36   # BR(H+ -> W+      A      )
