#
#                              ======================
#                              | THE SUSYHIT OUTPUT |
#                              ======================
#
#
#              ------------------------------------------------------
#              |     This is the output of the SUSY-HIT package     |
#              |  created by A.Djouadi, M.Muehlleitner and M.Spira. |
#              |  In case of problems with SUSY-HIT email to        |
#              |           margarete.muehlleitner@cern.ch           |
#              |           michael.spira@psi.ch                     |
#              |           abdelhak.djouadi@cern.ch                 |
#              ------------------------------------------------------
#
#              ------------------------------------------------------
#              |  SUSY Les Houches Accord - MSSM Spectrum + Decays  |
#              |              based on the decay programs           |
#              |                                                    |
#              |                     SDECAY 1.3b                    |
#              |                                                    |
#              |  Authors: M.Muhlleitner, A.Djouadi and Y.Mambrini  |
#              |  Ref.:    Comput.Phys.Commun.168(2005)46           |
#              |           [hep-ph/0311167]                         |
#              |                                                    |
#              |                     HDECAY 3.4                     |
#              |                                                    |
#              |  By: A.Djouadi,J.Kalinowski,M.Muhlleitner,M.Spira  |
#              |  Ref.:    Comput.Phys.Commun.108(1998)56           |
#              |           [hep-ph/9704448]                         |
#              |                                                    |
#              |                                                    |
#              |  If not stated otherwise all DRbar couplings and   |
#              |  soft SUSY breaking masses are given at the scale  |
#              |  Q=  0.18683590E+04
#              |                                                    |
#              ------------------------------------------------------
#
#
BLOCK DCINFO  # Decay Program information
     1   SDECAY/HDECAY # decay calculator
     2   1.3b  /3.4    # version number
#
BLOCK SPINFO  # Spectrum calculator information
     1     SOFTSUSY    # spectrum calculator               
     2     3.4.0       # version number                    
#
BLOCK MODSEL  # Model selection
     1     0   #  nonUniversal                                     
#
BLOCK SMINPUTS  # Standard Model inputs
         1     1.27908970E+02   # alpha_em^-1(M_Z)^MSbar
         2     1.16637870E-05   # G_F [GeV^-2]
         3     1.18400000E-01   # alpha_S(M_Z)^MSbar
         4     9.11876000E+01   # M_Z pole mass
         5     4.18000000E+00   # mb(mb)^MSbar
         6     1.73200000E+02   # mt pole mass
         7     1.77700000E+00   # mtau pole mass
#
BLOCK MINPAR  # Input parameters - minimal models
         3     6.55000000E+00   # tanb                
#
BLOCK EXTPAR  # Input parameters - non-minimal models
         0    -1.00000000E+00   # Set                 
         1    -3.54170000E+02   # M_1(MX)             
         2     4.51690000E+02   # M_2(MX)             
         3     2.20406000E+03   # M_3(MX)             
        11    -4.24115000E+03   # At(MX)              
        12     2.35730000E+02   # Ab(MX)              
        13    -7.71390000E+02   # Atau(MX)            
        23     3.68950000E+02   # mu(MX)              
        26     3.82569000E+03   # mA(pole)            
        31     3.79562000E+03   # meL(MX)             
        32     3.79562000E+03   # mmuL(MX)            
        33     2.19952000E+03   # mtauL(MX)           
        34     1.43957000E+03   # meR(MX)             
        35     1.43957000E+03   # mmuR(MX)            
        36     1.47439000E+03   # mtauR(MX)           
        41     1.00093000E+03   # mqL1(MX)            
        42     1.00093000E+03   # mqL2(MX)            
        43     2.43491000E+03   # mqL3(MX)            
        44     1.99596000E+03   # muR(MX)             
        45     1.99596000E+03   # mcR(MX)             
        46     1.44653000E+03   # mtR(MX)             
        47     1.41489000E+03   # mdR(MX)             
        48     1.41489000E+03   # msR(MX)             
        49     3.57994000E+03   # mbR(MX)             
#
BLOCK MASS  # Mass Spectrum
# PDG code           mass       particle
        24     8.03758537E+01   # W+
        25     1.27385865E+02   # h
        35     3.82582981E+03   # H
        36     3.82568983E+03   # A
        37     3.82678867E+03   # H+
         5     4.81876030E+00   # b-quark pole mass calculated from mb(mb)_Msbar
   1000001     1.09451877E+03   # ~d_L
   2000001     1.49385876E+03   # ~d_R
   1000002     1.09186213E+03   # ~u_L
   2000002     2.06802130E+03   # ~u_R
   1000003     1.09451877E+03   # ~s_L
   2000003     1.49385876E+03   # ~s_R
   1000004     1.09186213E+03   # ~c_L
   2000004     2.06802130E+03   # ~c_R
   1000005     2.45217976E+03   # ~b_1
   2000005     3.61506174E+03   # ~b_2
   1000006     1.44587229E+03   # ~t_1
   2000006     2.47534900E+03   # ~t_2
   1000011     3.80400135E+03   # ~e_L
   2000011     1.43746905E+03   # ~e_R
   1000012     3.80290715E+03   # ~nu_eL
   1000013     3.80400135E+03   # ~mu_L
   2000013     1.43746905E+03   # ~mu_R
   1000014     3.80290715E+03   # ~nu_muL
   1000015     1.47235204E+03   # ~tau_1
   2000015     2.20555612E+03   # ~tau_2
   1000016     2.20391414E+03   # ~nu_tauL
   1000021     2.25666256E+03   # ~g
   1000022    -3.38575879E+02   # ~chi_10
   1000023     3.49497151E+02   # ~chi_20
   1000025    -3.98286164E+02   # ~chi_30
   1000035     5.05452647E+02   # ~chi_40
   1000024     3.50512871E+02   # ~chi_1+
   1000037     5.05946964E+02   # ~chi_2+
#
BLOCK NMIX  # Neutralino Mixing Matrix
  1  1     8.59008668E-01   # N_11
  1  2     2.59631905E-02   # N_12
  1  3     3.88902893E-01   # N_13
  1  4     3.31940598E-01   # N_14
  2  1    -4.42631537E-02   # N_21
  2  2    -4.53178915E-01   # N_22
  2  3     6.48598908E-01   # N_23
  2  4    -6.09909092E-01   # N_24
  3  1    -5.09638865E-01   # N_31
  3  2     4.76359713E-02   # N_32
  3  3     5.87705909E-01   # N_33
  3  4     6.26578651E-01   # N_34
  4  1    -2.03250830E-02   # N_41
  4  2     8.89767159E-01   # N_42
  4  3     2.87533930E-01   # N_43
  4  4    -3.53872198E-01   # N_44
#
BLOCK UMIX  # Chargino Mixing Matrix U
  1  1    -4.08262090E-01   # U_11
  1  2     9.12864758E-01   # U_12
  2  1    -9.12864758E-01   # U_21
  2  2    -4.08262090E-01   # U_22
#
BLOCK VMIX  # Chargino Mixing Matrix V
  1  1    -5.04440855E-01   # V_11
  1  2     8.63446249E-01   # V_12
  2  1    -8.63446249E-01   # V_21
  2  2    -5.04440855E-01   # V_22
#
BLOCK STOPMIX  # Stop Mixing Matrix
  1  1     1.55589269E-01   # cos(theta_t)
  1  2     9.87821836E-01   # sin(theta_t)
  2  1    -9.87821836E-01   # -sin(theta_t)
  2  2     1.55589269E-01   # cos(theta_t)
#
BLOCK SBOTMIX  # Sbottom Mixing Matrix
  1  1     9.99999741E-01   # cos(theta_b)
  1  2     7.19722122E-04   # sin(theta_b)
  2  1    -7.19722122E-04   # -sin(theta_b)
  2  2     9.99999741E-01   # cos(theta_b)
#
BLOCK STAUMIX  # Stau Mixing Matrix
  1  1     2.06001136E-03   # cos(theta_tau)
  1  2     9.99997878E-01   # sin(theta_tau)
  2  1    -9.99997878E-01   # -sin(theta_tau)
  2  2     2.06001136E-03   # cos(theta_tau)
#
BLOCK ALPHA  # Higgs mixing
          -1.58306790E-01   # Mixing angle in the neutral Higgs boson sector
#
BLOCK HMIX Q=  1.86835900E+03  # DRbar Higgs Parameters
         1     3.73171179E+02   # mu(Q)MSSM           
         2     6.27413257E+00   # tan                 
         3     2.41398697E+02   # higgs               
         4     1.46662013E+07   # mA^2(Q)MSSM         
#
BLOCK GAUGE Q=  1.86835900E+03  # The gauge couplings
     1     3.63854305E-01   # gprime(Q) DRbar
     2     6.41240102E-01   # g(Q) DRbar
     3     1.03023701E+00   # g3(Q) DRbar
#
BLOCK AU Q=  1.86835900E+03  # The trilinear couplings
  1  1     0.00000000E+00   # A_u(Q) DRbar
  2  2     0.00000000E+00   # A_c(Q) DRbar
  3  3    -4.24114999E+03   # A_t(Q) DRbar
#
BLOCK AD Q=  1.86835900E+03  # The trilinear couplings
  1  1     0.00000000E+00   # A_d(Q) DRbar
  2  2     0.00000000E+00   # A_s(Q) DRbar
  3  3     2.35730001E+02   # A_b(Q) DRbar
#
BLOCK AE Q=  1.86835900E+03  # The trilinear couplings
  1  1     0.00000000E+00   # A_e(Q) DRbar
  2  2     0.00000000E+00   # A_mu(Q) DRbar
  3  3    -7.71390000E+02   # A_tau(Q) DRbar
#
BLOCK Yu Q=  1.86835900E+03  # The Yukawa couplings
  1  1     0.00000000E+00   # y_u(Q) DRbar
  2  2     0.00000000E+00   # y_c(Q) DRbar
  3  3     8.35965819E-01   # y_t(Q) DRbar
#
BLOCK Yd Q=  1.86835900E+03  # The Yukawa couplings
  1  1     0.00000000E+00   # y_d(Q) DRbar
  2  2     0.00000000E+00   # y_s(Q) DRbar
  3  3     8.68899090E-02   # y_b(Q) DRbar
#
BLOCK Ye Q=  1.86835900E+03  # The Yukawa couplings
  1  1     0.00000000E+00   # y_e(Q) DRbar
  2  2     0.00000000E+00   # y_mu(Q) DRbar
  3  3     6.52783918E-02   # y_tau(Q) DRbar
#
BLOCK MSOFT Q=  1.86835900E+03  # The soft SUSY breaking masses at the scale Q
         1    -3.54170000E+02   # M_1(Q)              
         2     4.51690000E+02   # M_2(Q)              
         3     2.20406000E+03   # M_3(Q)              
        21     1.40849844E+07   # mH1^2(Q)            
        22     2.63209919E+05   # mH2^2(Q)            
        31     3.79562000E+03   # meL(Q)              
        32     3.79562000E+03   # mmuL(Q)             
        33     2.19952000E+03   # mtauL(Q)            
        34     1.43957000E+03   # meR(Q)              
        35     1.43957000E+03   # mmuR(Q)             
        36     1.47439000E+03   # mtauR(Q)            
        41     1.00092999E+03   # mqL1(Q)             
        42     1.00092999E+03   # mqL2(Q)             
        43     2.43490999E+03   # mqL3(Q)             
        44     1.99596000E+03   # muR(Q)              
        45     1.99596000E+03   # mcR(Q)              
        46     1.44652998E+03   # mtR(Q)              
        47     1.41488999E+03   # mdR(Q)              
        48     1.41488999E+03   # msR(Q)              
        49     3.57994000E+03   # mbR(Q)              
#
Block HiggsBoundsInputHiggsCouplingsFermions
# ScalarNormEffCoupSq PseudoSNormEffCoupSq NP   IP1 IP2 IP2
    1.00316009E+00    0.00000000E+00        3  25   5   5  # h0-b-b eff. coupling^2, normalised to SM
    3.93615794E+01    0.00000000E+00        3  35   5   5  # H0-b-b eff. coupling^2, normalised to SM
    0.00000000E+00    3.93647395E+01        3  36   5   5  # A0-b-b eff. coupling^2, normalised to SM
#
    9.99919723E-01    0.00000000E+00        3  25   6   6  # h0-t-t eff. coupling^2, normalised to SM
    2.54837224E-02    0.00000000E+00        3  35   6   6  # H0-t-t eff. coupling^2, normalised to SM
    0.00000000E+00    2.54034451E-02        3  36   6   6  # A0-t-t eff. coupling^2, normalised to SM
#
    1.00316009E+00    0.00000000E+00        3  25  15  15  # h0-tau-tau eff. coupling^2, normalised to SM
    3.93615794E+01    0.00000000E+00        3  35  15  15  # H0-tau-tau eff. coupling^2, normalised to SM
    0.00000000E+00    3.93647395E+01        3  36  15  15  # A0-tau-tau eff. coupling^2, normalised to SM
#
Block HiggsBoundsInputHiggsCouplingsBosons
    9.99999937E-01        3  25  24  24  # h0-W-W eff. coupling^2, normalised to SM
    6.33234214E-08        3  35  24  24  # H0-W-W eff. coupling^2, normalised to SM
    0.00000000E+00        3  36  24  24  # A0-W-W eff. coupling^2, normalised to SM
#
    9.99999937E-01        3  25  23  23  # h0-Z-Z eff. coupling^2, normalised to SM
    6.33234214E-08        3  35  23  23  # H0-Z-Z eff. coupling^2, normalised to SM
    0.00000000E+00        3  36  23  23  # A0-Z-Z eff. coupling^2, normalised to SM
#
    8.72233263E-01        3  25  21  21  # h0-g-g eff. coupling^2, normalised to SM
    3.35010798E-13        3  35  21  21  # H0-g-g eff. coupling^2, normalised to SM
    1.13980351E-12        3  36  21  21  # A0-g-g eff. coupling^2, normalised to SM
#
    0.00000000E+00        3  25  25  23  # h0-h0-Z eff. coupling^2, normalised to SM
    0.00000000E+00        3  35  25  23  # H0-h0-Z eff. coupling^2, normalised to SM
    6.33234214E-08        3  36  25  23  # A0-h0-Z eff. coupling^2, normalised to SM
    0.00000000E+00        3  35  35  23  # H0-H0-Z eff. coupling^2, normalised to SM
    9.99999937E-01        3  36  35  23  # A0-H0-Z eff. coupling^2, normalised to SM
    0.00000000E+00        3  36  36  23  # A0-A0-Z eff. coupling^2, normalised to SM
#
    0.00000000E+00        4  25  21  21  23  # h0-g-g-Z eff. coupling^2, normalised to SM
    0.00000000E+00        4  35  21  21  23  # H0-g-g-Z eff. coupling^2, normalised to SM
    0.00000000E+00        4  36  21  21  23  # A0-g-g-Z eff. coupling^2, normalised to SM
#
#
#
#                             =================
#                             |The decay table|
#                             =================
#
# - The QCD corrections to the decays gluino -> squark  + quark
#                                     squark -> gaugino + quark_prime
#                                     squark -> squark_prime + Higgs
#                                     squark -> gluino  + quark
#   are included.
#
# - The multi-body decays for the inos, stops and sbottoms are included.
#
# - The loop induced decays for the gluino, neutralinos and stops
#   are included.
#
# - The SUSY decays of the top quark are included.
#
#
#         PDG            Width
DECAY         6     1.44877816E+00   # top decays
#          BR         NDA      ID1       ID2
     1.00000000E+00    2           5        24   # BR(t ->  b    W+)
#
#         PDG            Width
DECAY   1000021     1.53553479E+02   # gluino decays
#          BR         NDA      ID1       ID2
     8.74811617E-02    2     1000001        -1   # BR(~g -> ~d_L  db)
     8.74811617E-02    2    -1000001         1   # BR(~g -> ~d_L* d )
     4.72071658E-02    2     2000001        -1   # BR(~g -> ~d_R  db)
     4.72071658E-02    2    -2000001         1   # BR(~g -> ~d_R* d )
     8.77422991E-02    2     1000002        -2   # BR(~g -> ~u_L  ub)
     8.77422991E-02    2    -1000002         2   # BR(~g -> ~u_L* u )
     3.83867251E-03    2     2000002        -2   # BR(~g -> ~u_R  ub)
     3.83867251E-03    2    -2000002         2   # BR(~g -> ~u_R* u )
     8.74811617E-02    2     1000003        -3   # BR(~g -> ~s_L  sb)
     8.74811617E-02    2    -1000003         3   # BR(~g -> ~s_L* s )
     4.72071658E-02    2     2000003        -3   # BR(~g -> ~s_R  sb)
     4.72071658E-02    2    -2000003         3   # BR(~g -> ~s_R* s )
     8.77422626E-02    2     1000004        -4   # BR(~g -> ~c_L  cb)
     8.77422626E-02    2    -1000004         4   # BR(~g -> ~c_L* c )
     3.83854150E-03    2     2000004        -4   # BR(~g -> ~c_R  cb)
     3.83854150E-03    2    -2000004         4   # BR(~g -> ~c_R* c )
     4.74615693E-02    2     1000006        -6   # BR(~g -> ~t_1  tb)
     4.74615693E-02    2    -1000006         6   # BR(~g -> ~t_1* t )
#
#         PDG            Width
DECAY   1000006     3.71124092E+01   # stop1 decays
#          BR         NDA      ID1       ID2
     9.08109152E-02    2     1000022         6   # BR(~t_1 -> ~chi_10 t )
     1.91108706E-01    2     1000023         6   # BR(~t_1 -> ~chi_20 t )
     2.22495588E-01    2     1000025         6   # BR(~t_1 -> ~chi_30 t )
     3.02280203E-02    2     1000035         6   # BR(~t_1 -> ~chi_40 t )
     4.00182922E-01    2     1000024         5   # BR(~t_1 -> ~chi_1+ b )
     6.51738484E-02    2     1000037         5   # BR(~t_1 -> ~chi_2+ b )
#
#         PDG            Width
DECAY   2000006     1.26045346E+02   # stop2 decays
#          BR         NDA      ID1       ID2
     3.89497515E-02    2     1000022         6   # BR(~t_2 -> ~chi_10 t )
     1.00171770E-01    2     1000023         6   # BR(~t_2 -> ~chi_20 t )
     9.12285498E-02    2     1000025         6   # BR(~t_2 -> ~chi_30 t )
     1.02914789E-01    2     1000035         6   # BR(~t_2 -> ~chi_40 t )
     1.84072296E-02    2     1000024         5   # BR(~t_2 -> ~chi_1+ b )
     1.35053325E-01    2     1000037         5   # BR(~t_2 -> ~chi_2+ b )
     1.42171687E-02    2     1000021         6   # BR(~t_2 -> ~g      t )
     2.38098887E-01    2     1000006        25   # BR(~t_2 -> ~t_1    h )
     2.60958530E-01    2     1000006        23   # BR(~t_2 -> ~t_1    Z )
#
#         PDG            Width
DECAY   1000005     1.25949665E+02   # sbottom1 decays
#          BR         NDA      ID1       ID2
     1.85817653E-03    2     1000022         5   # BR(~b_1 -> ~chi_10 b )
     1.63037866E-02    2     1000023         5   # BR(~b_1 -> ~chi_20 b )
     2.51767174E-03    2     1000025         5   # BR(~b_1 -> ~chi_30 b )
     5.85240194E-02    2     1000035         5   # BR(~b_1 -> ~chi_40 b )
     2.13973517E-01    2    -1000024         6   # BR(~b_1 -> ~chi_1- t )
     1.88089053E-01    2    -1000037         6   # BR(~b_1 -> ~chi_2- t )
     2.56914800E-02    2     1000021         5   # BR(~b_1 -> ~g      b )
     4.93042296E-01    2     1000006       -24   # BR(~b_1 -> ~t_1    W-)
#
#         PDG            Width
DECAY   2000005     7.89636914E+01   # sbottom2 decays
#          BR         NDA      ID1       ID2
     2.04417995E-02    2     1000022         5   # BR(~b_2 -> ~chi_10 b )
     2.87657430E-03    2     1000023         5   # BR(~b_2 -> ~chi_20 b )
     9.11704282E-03    2     1000025         5   # BR(~b_2 -> ~chi_30 b )
     5.70135684E-04    2     1000035         5   # BR(~b_2 -> ~chi_40 b )
     5.57105971E-03    2    -1000024         6   # BR(~b_2 -> ~chi_1- t )
     1.12295535E-03    2    -1000037         6   # BR(~b_2 -> ~chi_2- t )
     9.60237931E-01    2     1000021         5   # BR(~b_2 -> ~g      b )
     1.55193912E-05    2     1000005        25   # BR(~b_2 -> ~b_1    h )
     1.57047689E-05    2     1000005        23   # BR(~b_2 -> ~b_1    Z )
     2.80885823E-06    2     1000006       -24   # BR(~b_2 -> ~t_1    W-)
     2.84686663E-05    2     2000006       -24   # BR(~b_2 -> ~t_2    W-)
#
#         PDG            Width
DECAY   1000002     9.17231914E+00   # sup_L decays
#          BR         NDA      ID1       ID2
     1.43724632E-02    2     1000022         2   # BR(~u_L -> ~chi_10 u)
     8.50351374E-02    2     1000023         2   # BR(~u_L -> ~chi_20 u)
     8.85716783E-04    2     1000025         2   # BR(~u_L -> ~chi_30 u)
     2.40468872E-01    2     1000035         2   # BR(~u_L -> ~chi_40 u)
     2.02878490E-01    2     1000024         1   # BR(~u_L -> ~chi_1+ d)
     4.56359320E-01    2     1000037         1   # BR(~u_L -> ~chi_2+ d)
#
#         PDG            Width
DECAY   2000002     4.44748022E+00   # sup_R decays
#          BR         NDA      ID1       ID2
     7.41892193E-01    2     1000022         2   # BR(~u_R -> ~chi_10 u)
     1.96288854E-03    2     1000023         2   # BR(~u_R -> ~chi_20 u)
     2.55756754E-01    2     1000025         2   # BR(~u_R -> ~chi_30 u)
     3.88164500E-04    2     1000035         2   # BR(~u_R -> ~chi_40 u)
#
#         PDG            Width
DECAY   1000001     9.04766466E+00   # sdown_L decays
#          BR         NDA      ID1       ID2
     7.67222504E-03    2     1000022         1   # BR(~d_L -> ~chi_10 d)
     8.03386900E-02    2     1000023         1   # BR(~d_L -> ~chi_20 d)
     7.86503541E-03    2     1000025         1   # BR(~d_L -> ~chi_30 d)
     2.49259049E-01    2     1000035         1   # BR(~d_L -> ~chi_40 d)
     1.35182080E-01    2    -1000024         2   # BR(~d_L -> ~chi_1- u)
     5.19682921E-01    2    -1000037         2   # BR(~d_L -> ~chi_2- u)
#
#         PDG            Width
DECAY   2000001     7.78262842E-01   # sdown_R decays
#          BR         NDA      ID1       ID2
     7.45833493E-01    2     1000022         1   # BR(~d_R -> ~chi_10 d)
     1.96642572E-03    2     1000023         1   # BR(~d_R -> ~chi_20 d)
     2.51835796E-01    2     1000025         1   # BR(~d_R -> ~chi_30 d)
     3.64285204E-04    2     1000035         1   # BR(~d_R -> ~chi_40 d)
#
#         PDG            Width
DECAY   1000004     9.00253627E+00   # scharm_L decays
#          BR         NDA      ID1       ID2
     1.43900088E-02    2     1000022         4   # BR(~c_L -> ~chi_10 c)
     8.51313517E-02    2     1000023         4   # BR(~c_L -> ~chi_20 c)
     8.86344686E-04    2     1000025         4   # BR(~c_L -> ~chi_30 c)
     2.40350475E-01    2     1000035         4   # BR(~c_L -> ~chi_40 c)
     2.03107357E-01    2     1000024         3   # BR(~c_L -> ~chi_1+ s)
     4.56134463E-01    2     1000037         3   # BR(~c_L -> ~chi_2+ s)
#
#         PDG            Width
DECAY   2000004     4.56030640E+00   # scharm_R decays
#          BR         NDA      ID1       ID2
     7.41974450E-01    2     1000022         4   # BR(~c_R -> ~chi_10 c)
     1.96294852E-03    2     1000023         4   # BR(~c_R -> ~chi_20 c)
     2.55674848E-01    2     1000025         4   # BR(~c_R -> ~chi_30 c)
     3.87753496E-04    2     1000035         4   # BR(~c_R -> ~chi_40 c)
#
#         PDG            Width
DECAY   1000003     8.88032193E+00   # sstrange_L decays
#          BR         NDA      ID1       ID2
     7.68251112E-03    2     1000022         3   # BR(~s_L -> ~chi_10 s)
     8.04392419E-02    2     1000023         3   # BR(~s_L -> ~chi_20 s)
     7.87156756E-03    2     1000025         3   # BR(~s_L -> ~chi_30 s)
     2.49168509E-01    2     1000035         3   # BR(~s_L -> ~chi_40 s)
     1.35349748E-01    2    -1000024         4   # BR(~s_L -> ~chi_1- c)
     5.19488422E-01    2    -1000037         4   # BR(~s_L -> ~chi_2- c)
#
#         PDG            Width
DECAY   2000003     7.78364982E-01   # sstrange_R decays
#          BR         NDA      ID1       ID2
     7.45915302E-01    2     1000022         3   # BR(~s_R -> ~chi_10 s)
     1.96648402E-03    2     1000023         3   # BR(~s_R -> ~chi_20 s)
     2.51754335E-01    2     1000025         3   # BR(~s_R -> ~chi_30 s)
     3.63879133E-04    2     1000035         3   # BR(~s_R -> ~chi_40 s)
#
#         PDG            Width
DECAY   1000011     5.01251726E+01   # selectron_L decays
#          BR         NDA      ID1       ID2
     8.05199052E-02    2     1000022        11   # BR(~e_L -> ~chi_10 e-)
     6.98159399E-02    2     1000023        11   # BR(~e_L -> ~chi_20 e-)
     1.77152434E-02    2     1000025        11   # BR(~e_L -> ~chi_30 e-)
     2.31033343E-01    2     1000035        11   # BR(~e_L -> ~chi_40 e-)
     1.01725131E-01    2    -1000024        12   # BR(~e_L -> ~chi_1- nu_e)
     4.99190438E-01    2    -1000037        12   # BR(~e_L -> ~chi_2- nu_e)
#
#         PDG            Width
DECAY   2000011     6.67649857E+00   # selectron_R decays
#          BR         NDA      ID1       ID2
     7.46594601E-01    2     1000022        11   # BR(~e_R -> ~chi_10 e-)
     1.96708736E-03    2     1000023        11   # BR(~e_R -> ~chi_20 e-)
     2.51078485E-01    2     1000025        11   # BR(~e_R -> ~chi_30 e-)
     3.59826605E-04    2     1000035        11   # BR(~e_R -> ~chi_40 e-)
#
#         PDG            Width
DECAY   1000013     5.01251726E+01   # smuon_L decays
#          BR         NDA      ID1       ID2
     8.05199052E-02    2     1000022        13   # BR(~mu_L -> ~chi_10 mu-)
     6.98159398E-02    2     1000023        13   # BR(~mu_L -> ~chi_20 mu-)
     1.77152434E-02    2     1000025        13   # BR(~mu_L -> ~chi_30 mu-)
     2.31033342E-01    2     1000035        13   # BR(~mu_L -> ~chi_40 mu-)
     1.01725131E-01    2    -1000024        14   # BR(~mu_L -> ~chi_1- nu_mu)
     4.99190438E-01    2    -1000037        14   # BR(~mu_L -> ~chi_2- nu_mu)
#
#         PDG            Width
DECAY   2000013     6.67649848E+00   # smuon_R decays
#          BR         NDA      ID1       ID2
     7.46594601E-01    2     1000022        13   # BR(~mu_R -> ~chi_10 mu-)
     1.96708736E-03    2     1000023        13   # BR(~mu_R -> ~chi_20 mu-)
     2.51078485E-01    2     1000025        13   # BR(~mu_R -> ~chi_30 mu-)
     3.59826604E-04    2     1000035        13   # BR(~mu_R -> ~chi_40 mu-)
#
#         PDG            Width
DECAY   1000015     7.09801966E+00   # stau_1 decays
#          BR         NDA      ID1       ID2
     7.25771037E-01    2     1000022        15   # BR(~tau_1 -> ~chi_10  tau-)
     8.62329788E-03    2     1000023        15   # BR(~tau_1 -> ~chi_20  tau-)
     2.48866068E-01    2     1000025        15   # BR(~tau_1 -> ~chi_30  tau-)
     1.38442974E-03    2     1000035        15   # BR(~tau_1 -> ~chi_40  tau-)
     1.32771095E-02    2    -1000024        16   # BR(~tau_1 -> ~chi_1-  nu_tau)
     2.07805727E-03    2    -1000037        16   # BR(~tau_1 -> ~chi_2-  nu_tau)
#
#         PDG            Width
DECAY   2000015     2.74992923E+01   # stau_2 decays
#          BR         NDA      ID1       ID2
     8.33782013E-02    2     1000022        15   # BR(~tau_2 -> ~chi_10  tau-)
     7.39842427E-02    2     1000023        15   # BR(~tau_2 -> ~chi_20  tau-)
     2.01496874E-02    2     1000025        15   # BR(~tau_2 -> ~chi_30  tau-)
     2.27699750E-01    2     1000035        15   # BR(~tau_2 -> ~chi_40  tau-)
     1.03804874E-01    2    -1000024        16   # BR(~tau_2 -> ~chi_1-  nu_tau)
     4.90802162E-01    2    -1000037        16   # BR(~tau_2 -> ~chi_2-  nu_tau)
     9.15781771E-05    2     1000015        25   # BR(~tau_2 -> ~tau_1   h)
     8.95043987E-05    2     1000015        23   # BR(~tau_2 -> ~tau_1   Z)
#
#         PDG            Width
DECAY   1000012     5.01427666E+01   # snu_eL decays
#          BR         NDA      ID1       ID2
     6.50131133E-02    2     1000022        12   # BR(~nu_eL -> ~chi_10 nu_e)
     5.58852178E-02    2     1000023        12   # BR(~nu_eL -> ~chi_20 nu_e)
     3.44235938E-02    2     1000025        12   # BR(~nu_eL -> ~chi_30 nu_e)
     2.43167992E-01    2     1000035        12   # BR(~nu_eL -> ~chi_40 nu_e)
     1.55199037E-01    2     1000024        11   # BR(~nu_eL -> ~chi_1+ e-)
     4.46311046E-01    2     1000037        11   # BR(~nu_eL -> ~chi_2+ e-)
#
#         PDG            Width
DECAY   1000014     5.01427666E+01   # snu_muL decays
#          BR         NDA      ID1       ID2
     6.50131133E-02    2     1000022        14   # BR(~nu_muL -> ~chi_10 nu_mu)
     5.58852178E-02    2     1000023        14   # BR(~nu_muL -> ~chi_20 nu_mu)
     3.44235938E-02    2     1000025        14   # BR(~nu_muL -> ~chi_30 nu_mu)
     2.43167992E-01    2     1000035        14   # BR(~nu_muL -> ~chi_40 nu_mu)
     1.55199037E-01    2     1000024        13   # BR(~nu_muL -> ~chi_1+ mu-)
     4.46311046E-01    2     1000037        13   # BR(~nu_muL -> ~chi_2+ mu-)
#
#         PDG            Width
DECAY   1000016     2.75302850E+01   # snu_tauL decays
#          BR         NDA      ID1       ID2
     6.64729283E-02    2     1000022        16   # BR(~nu_tauL -> ~chi_10 nu_tau)
     5.70188534E-02    2     1000023        16   # BR(~nu_tauL -> ~chi_20 nu_tau)
     3.47593837E-02    2     1000025        16   # BR(~nu_tauL -> ~chi_30 nu_tau)
     2.38744078E-01    2     1000035        16   # BR(~nu_tauL -> ~chi_40 nu_tau)
     1.63672791E-01    2     1000024        15   # BR(~nu_tauL -> ~chi_1+ tau-)
     4.39157951E-01    2     1000037        15   # BR(~nu_tauL -> ~chi_2+ tau-)
     1.74014837E-04    2    -1000015       -24   # BR(~nu_tauL -> ~tau_1+ W-)
#
#         PDG            Width
DECAY   1000024     5.93492303E-08   # chargino1+ decays
#           BR         NDA      ID1       ID2       ID3
     3.37429220E-01    3     1000022         2        -1   # BR(~chi_1+ -> ~chi_10 u    db)
     1.07701833E-05    3     1000023         2        -1   # BR(~chi_1+ -> ~chi_20 u    db)
     3.37429220E-01    3     1000022         4        -3   # BR(~chi_1+ -> ~chi_10 c    sb)
     1.12218301E-01    3     1000022       -11        12   # BR(~chi_1+ -> ~chi_10 e+   nu_e)
     3.58318836E-06    3     1000023       -11        12   # BR(~chi_1+ -> ~chi_20 e+   nu_e)
     1.12218301E-01    3     1000022       -13        14   # BR(~chi_1+ -> ~chi_10 mu+  nu_mu)
     3.58318836E-06    3     1000023       -13        14   # BR(~chi_1+ -> ~chi_20 mu+  nu_mu)
     1.00687021E-01    3     1000022       -15        16   # BR(~chi_1+ -> ~chi_10 tau+ nu_tau)
#
#         PDG            Width
DECAY   1000037     1.72087452E+00   # chargino2+ decays
#          BR         NDA      ID1       ID2
     3.08118275E-01    2     1000024        23   # BR(~chi_2+ -> ~chi_1+  Z )
     1.55718551E-01    2     1000022        24   # BR(~chi_2+ -> ~chi_10  W+)
     3.61123657E-01    2     1000023        24   # BR(~chi_2+ -> ~chi_20  W+)
     6.28053713E-02    2     1000025        24   # BR(~chi_2+ -> ~chi_30  W+)
     1.12234145E-01    2     1000024        25   # BR(~chi_2+ -> ~chi_1+  h )
#
#         PDG            Width
DECAY   1000022     0.00000000E+00   # neutralino1 decays
#
#         PDG            Width
DECAY   1000023     2.72844990E-08   # neutralino2 decays
#          BR         NDA      ID1       ID2
     1.41850541E-03    2     1000022        22   # BR(~chi_20 -> ~chi_10 gam)
#           BR         NDA      ID1       ID2       ID3
     1.37294605E-01    3     1000022        -2         2   # BR(~chi_20 -> ~chi_10 ub      u)
     1.77846741E-01    3     1000022        -1         1   # BR(~chi_20 -> ~chi_10 db      d)
     1.37294605E-01    3     1000022        -4         4   # BR(~chi_20 -> ~chi_10 cb      c)
     1.77846741E-01    3     1000022        -3         3   # BR(~chi_20 -> ~chi_10 sb      s)
     8.69723888E-03    3     1000022        -5         5   # BR(~chi_20 -> ~chi_10 bb      b)
     4.06244739E-02    3     1000022       -11        11   # BR(~chi_20 -> ~chi_10 e+      e-)
     4.06244739E-02    3     1000022       -13        13   # BR(~chi_20 -> ~chi_10 mu+     mu-)
     3.46405995E-02    3     1000022       -15        15   # BR(~chi_20 -> ~chi_10 tau+    tau-)
     8.12581698E-02    3     1000022       -12        12   # BR(~chi_20 -> ~chi_10 nu_eb   nu_e)
     8.12581698E-02    3     1000022       -14        14   # BR(~chi_20 -> ~chi_10 nu_mub  nu_mu)
     8.11956769E-02    3     1000022       -16        16   # BR(~chi_20 -> ~chi_10 nu_taub nu_tau)
#
#         PDG            Width
DECAY   1000025     5.48492277E-04   # neutralino3 decays
#          BR         NDA      ID1       ID2
     1.27880066E-03    2     1000022        22   # BR(~chi_30 -> ~chi_10 gam)
     7.17606577E-04    2     1000023        22   # BR(~chi_30 -> ~chi_20 gam)
#           BR         NDA      ID1       ID2       ID3
     2.87366187E-04    3     1000022        -2         2   # BR(~chi_30 -> ~chi_10 ub      u)
     3.60016565E-04    3     1000022        -1         1   # BR(~chi_30 -> ~chi_10 db      d)
     2.87366187E-04    3     1000022        -4         4   # BR(~chi_30 -> ~chi_10 cb      c)
     3.60016565E-04    3     1000022        -3         3   # BR(~chi_30 -> ~chi_10 sb      s)
     3.42603162E-04    3     1000022        -5         5   # BR(~chi_30 -> ~chi_10 bb      b)
     7.29192667E-05    3     1000022       -11        11   # BR(~chi_30 -> ~chi_10 e+      e-)
     7.29192667E-05    3     1000022       -13        13   # BR(~chi_30 -> ~chi_10 mu+     mu-)
     7.23664428E-05    3     1000022       -15        15   # BR(~chi_30 -> ~chi_10 tau+    tau-)
     1.67855628E-04    3     1000022       -12        12   # BR(~chi_30 -> ~chi_10 nu_eb   nu_e)
     1.67855628E-04    3     1000022       -14        14   # BR(~chi_30 -> ~chi_10 nu_mub  nu_mu)
     1.69584766E-04    3     1000022       -16        16   # BR(~chi_30 -> ~chi_10 nu_taub nu_tau)
     3.53997458E-02    3     1000023        -2         2   # BR(~chi_30 -> ~chi_20 ub      u)
     4.58727086E-02    3     1000023        -1         1   # BR(~chi_30 -> ~chi_20 db      d)
     3.53997458E-02    3     1000023        -4         4   # BR(~chi_30 -> ~chi_20 cb      c)
     4.58727086E-02    3     1000023        -3         3   # BR(~chi_30 -> ~chi_20 sb      s)
     4.20040836E-02    3     1000023        -5         5   # BR(~chi_30 -> ~chi_20 bb      b)
     1.05236688E-02    3     1000023       -11        11   # BR(~chi_30 -> ~chi_20 e+      e-)
     1.05236688E-02    3     1000023       -13        13   # BR(~chi_30 -> ~chi_20 mu+     mu-)
     1.04229159E-02    3     1000023       -15        15   # BR(~chi_30 -> ~chi_20 tau+    tau-)
     2.10292874E-02    3     1000023       -12        12   # BR(~chi_30 -> ~chi_20 nu_eb   nu_e)
     2.10292874E-02    3     1000023       -14        14   # BR(~chi_30 -> ~chi_20 nu_mub  nu_mu)
     2.10357478E-02    3     1000023       -16        16   # BR(~chi_30 -> ~chi_20 nu_taub nu_tau)
     1.16145524E-01    3     1000024        -2         1   # BR(~chi_30 -> ~chi_1+ ub      d)
     1.16145524E-01    3    -1000024        -1         2   # BR(~chi_30 -> ~chi_1- db      u)
     1.16145524E-01    3     1000024        -4         3   # BR(~chi_30 -> ~chi_1+ cb      s)
     1.16145524E-01    3    -1000024        -3         4   # BR(~chi_30 -> ~chi_1- sb      c)
     3.87415138E-02    3     1000024       -12        11   # BR(~chi_30 -> ~chi_1+ nu_eb   e-)
     3.87415138E-02    3    -1000024        12       -11   # BR(~chi_30 -> ~chi_1- nu_e    e+)
     3.87415138E-02    3     1000024       -14        13   # BR(~chi_30 -> ~chi_1+ nu_mub  mu-)
     3.87415138E-02    3    -1000024        14       -13   # BR(~chi_30 -> ~chi_1- nu_mu   mu+)
     3.84905025E-02    3     1000024       -16        15   # BR(~chi_30 -> ~chi_1+ nu_taub tau-)
     3.84905025E-02    3    -1000024        16       -15   # BR(~chi_30 -> ~chi_1- nu_tau  tau+)
#
#         PDG            Width
DECAY   1000035     1.73401547E+00   # neutralino4 decays
#          BR         NDA      ID1       ID2
     1.27471547E-01    2     1000022        23   # BR(~chi_40 -> ~chi_10   Z )
     3.97705690E-03    2     1000023        23   # BR(~chi_40 -> ~chi_20   Z )
     2.96365230E-02    2     1000025        23   # BR(~chi_40 -> ~chi_30   Z )
     3.64695529E-01    2     1000024       -24   # BR(~chi_40 -> ~chi_1+   W-)
     3.64695529E-01    2    -1000024        24   # BR(~chi_40 -> ~chi_1-   W+)
     1.70281442E-03    2     1000022        25   # BR(~chi_40 -> ~chi_10   h )
     1.07821001E-01    2     1000023        25   # BR(~chi_40 -> ~chi_20   h )
#
#         PDG            Width
DECAY        25     4.38776022E-03   # h decays
#          BR         NDA      ID1       ID2
     5.58923748E-01    2           5        -5   # BR(h -> b       bb     )
     6.02876880E-02    2         -15        15   # BR(h -> tau+    tau-   )
     2.13387231E-04    2         -13        13   # BR(h -> mu+     mu-    )
     2.32055847E-04    2           3        -3   # BR(h -> s       sb     )
     2.00671252E-02    2           4        -4   # BR(h -> c       cb     )
     7.61975763E-02    2          21        21   # BR(h -> g       g      )
     2.35471102E-03    2          22        22   # BR(h -> gam     gam    )
     1.75105480E-03    2          22        23   # BR(h -> Z       gam    )
     2.47971862E-01    2          24       -24   # BR(h -> W+      W-     )
     3.20007912E-02    2          23        23   # BR(h -> Z       Z      )
#
#         PDG            Width
DECAY        35     5.68573726E+01   # H decays
#          BR         NDA      ID1       ID2
     2.91539225E-02    2           5        -5   # BR(H -> b       bb     )
     5.47083724E-03    2         -15        15   # BR(H -> tau+    tau-   )
     1.93756433E-05    2         -13        13   # BR(H -> mu+     mu-    )
     1.13502338E-05    2           3        -3   # BR(H -> s       sb     )
     6.81607385E-07    2           4        -4   # BR(H -> c       cb     )
     6.72636439E-02    2           6        -6   # BR(H -> t       tb     )
     2.40185658E-05    2          21        21   # BR(H -> g       g      )
     2.26651733E-07    2          22        22   # BR(H -> gam     gam    )
     4.26918368E-08    2          23        22   # BR(H -> Z       gam    )
     2.00742224E-05    2          24       -24   # BR(H -> W+      W-     )
     1.00199082E-05    2          23        23   # BR(H -> Z       Z      )
     7.21857754E-05    2          25        25   # BR(H -> h       h      )
     8.63718140E-02    2     1000024  -1000024   # BR(H -> ~chi_1+ ~chi_1-)
     3.88478320E-02    2     1000037  -1000037   # BR(H -> ~chi_2+ ~chi_2-)
     2.10554353E-01    2     1000024  -1000037   # BR(H -> ~chi_1+ ~chi_2-)
     2.10554353E-01    2     1000037  -1000024   # BR(H -> ~chi_2+ ~chi_1-)
     1.95408452E-02    2     1000022   1000022   # BR(H -> ~chi_10 ~chi_10)
     2.96349109E-02    2     1000023   1000023   # BR(H -> ~chi_20 ~chi_20)
     2.53296674E-02    2     1000025   1000025   # BR(H -> ~chi_30 ~chi_30)
     2.16149510E-02    2     1000035   1000035   # BR(H -> ~chi_40 ~chi_40)
     5.04118071E-02    2     1000022   1000023   # BR(H -> ~chi_10 ~chi_20)
     6.47695639E-03    2     1000022   1000025   # BR(H -> ~chi_10 ~chi_30)
     2.39722114E-02    2     1000022   1000035   # BR(H -> ~chi_10 ~chi_40)
     3.83456127E-03    2     1000023   1000025   # BR(H -> ~chi_20 ~chi_30)
     4.06223974E-02    2     1000023   1000035   # BR(H -> ~chi_20 ~chi_40)
     1.29868961E-01    2     1000025   1000035   # BR(H -> ~chi_30 ~chi_40)
     1.22755337E-05    2     1000002  -1000002   # BR(H -> ~u_L    ~u_L*  )
     1.22755337E-05    2     1000004  -1000004   # BR(H -> ~c_L    ~c_L*  )
     2.01349310E-04    2     1000006  -1000006   # BR(H -> ~t_1    ~t_1*  )
     1.80011726E-05    2     1000001  -1000001   # BR(H -> ~d_L    ~d_L*  )
     4.18403603E-07    2     2000001  -2000001   # BR(H -> ~d_R    ~d_R*  )
     1.80011726E-05    2     1000003  -1000003   # BR(H -> ~s_L    ~s_L*  )
     4.18403603E-07    2     2000003  -2000003   # BR(H -> ~s_R    ~s_R*  )
     1.32588771E-06    2     2000011  -2000011   # BR(H -> ~e_R-   ~e_R+  )
     1.32588771E-06    2     2000013  -2000013   # BR(H -> ~mu_R-  ~mu_R+ )
     1.26758339E-06    2     1000015  -1000015   # BR(H -> ~tau_1- ~tau_1+)
     2.56705855E-05    2     1000015  -2000015   # BR(H -> ~tau_1- ~tau_2+)
     2.56705855E-05    2     2000015  -1000015   # BR(H -> ~tau_2- ~tau_1+)
#
#         PDG            Width
DECAY        36     5.68495153E+01   # A decays
#          BR         NDA      ID1       ID2
     2.91806917E-02    2           5        -5   # BR(A -> b       bb     )
     5.47183790E-03    2         -15        15   # BR(A -> tau+    tau-   )
     1.93791691E-05    2         -13        13   # BR(A -> mu+     mu-    )
     1.13725969E-05    2           3        -3   # BR(A -> s       sb     )
     6.85849267E-07    2           4        -4   # BR(A -> c       cb     )
     6.74069340E-02    2           6        -6   # BR(A -> t       tb     )
     4.43027224E-05    2          21        21   # BR(A -> g       g      )
     2.18266483E-07    2          22        22   # BR(A -> gam     gam    )
     6.04820324E-08    2          23        22   # BR(A -> Z       gam    )
     2.03640130E-05    2          23        25   # BR(A -> Z       h      )
     1.46048247E-01    2     1000024  -1000024   # BR(A -> ~chi_1+ ~chi_1-)
     9.73562937E-02    2     1000037  -1000037   # BR(A -> ~chi_2+ ~chi_2-)
     1.51524232E-01    2     1000024  -1000037   # BR(A -> ~chi_1+ ~chi_2-)
     1.51524232E-01    2     1000037  -1000024   # BR(A -> ~chi_2+ ~chi_1-)
     1.16647908E-02    2     1000022   1000022   # BR(A -> ~chi_10 ~chi_10)
     5.61324449E-02    2     1000023   1000023   # BR(A -> ~chi_20 ~chi_20)
     1.33249731E-02    2     1000025   1000025   # BR(A -> ~chi_30 ~chi_30)
     5.15040400E-02    2     1000035   1000035   # BR(A -> ~chi_40 ~chi_40)
     5.80679264E-02    2     1000022   1000023   # BR(A -> ~chi_10 ~chi_20)
     2.95911454E-03    2     1000022   1000025   # BR(A -> ~chi_10 ~chi_30)
     6.05709332E-03    2     1000022   1000035   # BR(A -> ~chi_10 ~chi_40)
     2.31323292E-04    2     1000023   1000025   # BR(A -> ~chi_20 ~chi_30)
     7.42896470E-02    2     1000023   1000035   # BR(A -> ~chi_20 ~chi_40)
     7.71084572E-02    2     1000025   1000035   # BR(A -> ~chi_30 ~chi_40)
     2.56693307E-05    2     1000015  -2000015   # BR(A -> ~tau_1- ~tau_2+)
     2.56693307E-05    2    -1000015   2000015   # BR(A -> ~tau_1+ ~tau_2-)
#
#         PDG            Width
DECAY        37     5.67378447E+01   # H+ decays
#          BR         NDA      ID1       ID2
     4.81746729E-05    2           4        -5   # BR(H+ -> c       bb     )
     5.48418224E-03    2         -15        16   # BR(H+ -> tau+    nu_tau )
     1.94228881E-05    2         -13        14   # BR(H+ -> mu+     nu_mu  )
     4.81735294E-07    2           2        -5   # BR(H+ -> u       bb     )
     5.69779293E-07    2           2        -3   # BR(H+ -> u       sb     )
     1.18742757E-05    2           4        -3   # BR(H+ -> c       sb     )
     9.51017698E-02    2           6        -5   # BR(H+ -> t       bb     )
     2.04295306E-05    2          24        25   # BR(H+ -> W+      h      )
     3.71546848E-14    2          24        36   # BR(H+ -> W+      A      )
     1.20636873E-01    2     1000024   1000022   # BR(H+ -> ~chi_1+ ~chi_10)
     1.00025183E-03    2     1000024   1000023   # BR(H+ -> ~chi_1+ ~chi_20)
     7.72945537E-03    2     1000024   1000025   # BR(H+ -> ~chi_1+ ~chi_30)
     2.57005190E-01    2     1000024   1000035   # BR(H+ -> ~chi_1+ ~chi_40)
     2.76547659E-02    2     1000037   1000022   # BR(H+ -> ~chi_2+ ~chi_10)
     2.90465635E-01    2     1000037   1000023   # BR(H+ -> ~chi_2+ ~chi_20)
     1.94668680E-01    2     1000037   1000025   # BR(H+ -> ~chi_2+ ~chi_30)
     4.02657096E-05    2     1000037   1000035   # BR(H+ -> ~chi_2+ ~chi_40)
     5.19411908E-05    2    -1000015   1000016   # BR(H+ -> ~tau_1+ ~nu_tauL)
     3.00183744E-05    2     1000002  -1000001   # BR(H+ -> ~u_L    ~d_L*  )
     3.00183744E-05    2     1000004  -1000003   # BR(H+ -> ~c_L    ~s_L*  )
