#
#                              ======================
#                              | THE SUSYHIT OUTPUT |
#                              ======================
#
#
#              ------------------------------------------------------
#              |     This is the output of the SUSY-HIT package     |
#              |  created by A.Djouadi, M.Muehlleitner and M.Spira. |
#              |  In case of problems with SUSY-HIT email to        |
#              |           margarete.muehlleitner@cern.ch           |
#              |           michael.spira@psi.ch                     |
#              |           abdelhak.djouadi@cern.ch                 |
#              ------------------------------------------------------
#
#              ------------------------------------------------------
#              |  SUSY Les Houches Accord - MSSM Spectrum + Decays  |
#              |              based on the decay programs           |
#              |                                                    |
#              |                     SDECAY 1.3b                    |
#              |                                                    |
#              |  Authors: M.Muhlleitner, A.Djouadi and Y.Mambrini  |
#              |  Ref.:    Comput.Phys.Commun.168(2005)46           |
#              |           [hep-ph/0311167]                         |
#              |                                                    |
#              |                     HDECAY 3.4                     |
#              |                                                    |
#              |  By: A.Djouadi,J.Kalinowski,M.Muhlleitner,M.Spira  |
#              |  Ref.:    Comput.Phys.Commun.108(1998)56           |
#              |           [hep-ph/9704448]                         |
#              |                                                    |
#              |                                                    |
#              |  If not stated otherwise all DRbar couplings and   |
#              |  soft SUSY breaking masses are given at the scale  |
#              |  Q=  0.36423420E+04
#              |                                                    |
#              ------------------------------------------------------
#
#
BLOCK DCINFO  # Decay Program information
     1   SDECAY/HDECAY # decay calculator
     2   1.3b  /3.4    # version number
#
BLOCK SPINFO  # Spectrum calculator information
     1     SOFTSUSY    # spectrum calculator               
     2     3.4.0       # version number                    
#
BLOCK MODSEL  # Model selection
     1     0   #  nonUniversal                                     
#
BLOCK SMINPUTS  # Standard Model inputs
         1     1.27908970E+02   # alpha_em^-1(M_Z)^MSbar
         2     1.16637870E-05   # G_F [GeV^-2]
         3     1.18400000E-01   # alpha_S(M_Z)^MSbar
         4     9.11876000E+01   # M_Z pole mass
         5     4.18000000E+00   # mb(mb)^MSbar
         6     1.73200000E+02   # mt pole mass
         7     1.77700000E+00   # mtau pole mass
#
BLOCK MINPAR  # Input parameters - minimal models
         3     2.43100000E+01   # tanb                
#
BLOCK EXTPAR  # Input parameters - non-minimal models
         0    -1.00000000E+00   # Set                 
         1    -5.49190000E+02   # M_1(MX)             
         2     5.34070000E+02   # M_2(MX)             
         3     1.69325000E+03   # M_3(MX)             
        11     2.37484000E+03   # At(MX)              
        12     2.75576000E+03   # Ab(MX)              
        13     2.39293000E+03   # Atau(MX)            
        23    -1.77204000E+03   # mu(MX)              
        26     1.41079000E+03   # mA(pole)            
        31     1.11031000E+03   # meL(MX)             
        32     1.11031000E+03   # mmuL(MX)            
        33     1.79522000E+03   # mtauL(MX)           
        34     2.54432000E+03   # meR(MX)             
        35     2.54432000E+03   # mmuR(MX)            
        36     2.44261000E+03   # mtauR(MX)           
        41     1.73114000E+03   # mqL1(MX)            
        42     1.73114000E+03   # mqL2(MX)            
        43     3.78965000E+03   # mqL3(MX)            
        44     9.11420000E+02   # muR(MX)             
        45     9.11420000E+02   # mcR(MX)             
        46     3.49721000E+03   # mtR(MX)             
        47     3.45843000E+03   # mdR(MX)             
        48     3.45843000E+03   # msR(MX)             
        49     3.61832000E+03   # mbR(MX)             
#
BLOCK MASS  # Mass Spectrum
# PDG code           mass       particle
        24     8.03837646E+01   # W+
        25     1.24224539E+02   # h
        35     1.41081021E+03   # H
        36     1.41078589E+03   # A
        37     1.41294528E+03   # H+
         5     4.81876030E+00   # b-quark pole mass calculated from mb(mb)_Msbar
   1000001     1.83365891E+03   # ~d_L
   2000001     3.50794839E+03   # ~d_R
   1000002     1.83209712E+03   # ~u_L
   2000002     1.07742541E+03   # ~u_R
   1000003     1.83365891E+03   # ~s_L
   2000003     3.50794839E+03   # ~s_R
   1000004     1.83209712E+03   # ~c_L
   2000004     1.07742541E+03   # ~c_R
   1000005     3.65554328E+03   # ~b_1
   2000005     3.81278824E+03   # ~b_2
   1000006     3.49821053E+03   # ~t_1
   2000006     3.81928452E+03   # ~t_2
   1000011     1.12465581E+03   # ~e_L
   2000011     2.54036620E+03   # ~e_R
   1000012     1.12158016E+03   # ~nu_eL
   1000013     1.12465581E+03   # ~mu_L
   2000013     2.54036620E+03   # ~mu_R
   1000014     1.12158016E+03   # ~nu_muL
   1000015     1.80260624E+03   # ~tau_1
   2000015     2.43324404E+03   # ~tau_2
   1000016     1.80118185E+03   # ~nu_tauL
   1000021     1.89338878E+03   # ~g
   1000022    -5.38764039E+02   # ~chi_10
   1000023     5.59475957E+02   # ~chi_20
   1000025    -1.82263386E+03   # ~chi_30
   1000035     1.82304229E+03   # ~chi_40
   1000024     5.59123754E+02   # ~chi_1+
   1000037     1.82434279E+03   # ~chi_2+
#
BLOCK NMIX  # Neutralino Mixing Matrix
  1  1     9.99595730E-01   # N_11
  1  2     7.40826006E-04   # N_12
  1  3    -2.69393501E-02   # N_13
  1  4     9.06083987E-03   # N_14
  2  1     3.94745937E-04   # N_21
  2  2     9.98860733E-01   # N_22
  2  3     4.61706549E-02   # N_23
  2  4     1.20561755E-02   # N_24
  3  1    -2.54616634E-02   # N_31
  3  2     2.41230796E-02   # N_32
  3  3    -7.06290543E-01   # N_33
  3  4     7.07052650E-01   # N_34
  4  1     1.26461099E-02   # N_41
  4  2    -4.11675208E-02   # N_42
  4  3     7.05900992E-01   # N_43
  4  4     7.07000071E-01   # N_44
#
BLOCK UMIX  # Chargino Mixing Matrix U
  1  1     9.97869153E-01   # U_11
  1  2     6.52468649E-02   # U_12
  2  1    -6.52468649E-02   # U_21
  2  2     9.97869153E-01   # U_22
#
BLOCK VMIX  # Chargino Mixing Matrix V
  1  1     9.99855018E-01   # V_11
  1  2    -1.70277254E-02   # V_12
  2  1    -1.70277254E-02   # V_21
  2  2    -9.99855018E-01   # V_22
#
BLOCK STOPMIX  # Stop Mixing Matrix
  1  1    -1.35744256E-01   # cos(theta_t)
  1  2     9.90743911E-01   # sin(theta_t)
  2  1    -9.90743911E-01   # -sin(theta_t)
  2  2    -1.35744256E-01   # cos(theta_t)
#
BLOCK SBOTMIX  # Sbottom Mixing Matrix
  1  1    -9.71980940E-02   # cos(theta_b)
  1  2     9.95265055E-01   # sin(theta_b)
  2  1    -9.95265055E-01   # -sin(theta_b)
  2  2    -9.71980940E-02   # cos(theta_b)
#
BLOCK STAUMIX  # Stau Mixing Matrix
  1  1     9.99579746E-01   # cos(theta_tau)
  1  2    -2.89884699E-02   # sin(theta_tau)
  2  1     2.89884699E-02   # -sin(theta_tau)
  2  2     9.99579746E-01   # cos(theta_tau)
#
BLOCK ALPHA  # Higgs mixing
          -4.32769655E-02   # Mixing angle in the neutral Higgs boson sector
#
BLOCK HMIX Q=  3.64234200E+03  # DRbar Higgs Parameters
         1    -1.80791386E+03   # mu(Q)MSSM           
         2     2.33293554E+01   # tan                 
         3     2.42212424E+02   # higgs               
         4     1.74674502E+06   # mA^2(Q)MSSM         
#
BLOCK GAUGE Q=  3.64234200E+03  # The gauge couplings
     1     3.65750882E-01   # gprime(Q) DRbar
     2     6.40434687E-01   # g(Q) DRbar
     3     1.01683640E+00   # g3(Q) DRbar
#
BLOCK AU Q=  3.64234200E+03  # The trilinear couplings
  1  1     0.00000000E+00   # A_u(Q) DRbar
  2  2     0.00000000E+00   # A_c(Q) DRbar
  3  3     2.37484001E+03   # A_t(Q) DRbar
#
BLOCK AD Q=  3.64234200E+03  # The trilinear couplings
  1  1     0.00000000E+00   # A_d(Q) DRbar
  2  2     0.00000000E+00   # A_s(Q) DRbar
  3  3     2.75576001E+03   # A_b(Q) DRbar
#
BLOCK AE Q=  3.64234200E+03  # The trilinear couplings
  1  1     0.00000000E+00   # A_e(Q) DRbar
  2  2     0.00000000E+00   # A_mu(Q) DRbar
  3  3     2.39293000E+03   # A_tau(Q) DRbar
#
BLOCK Yu Q=  3.64234200E+03  # The Yukawa couplings
  1  1     0.00000000E+00   # y_u(Q) DRbar
  2  2     0.00000000E+00   # y_c(Q) DRbar
  3  3     8.22713107E-01   # y_t(Q) DRbar
#
BLOCK Yd Q=  3.64234200E+03  # The Yukawa couplings
  1  1     0.00000000E+00   # y_d(Q) DRbar
  2  2     0.00000000E+00   # y_s(Q) DRbar
  3  3     3.40061247E-01   # y_b(Q) DRbar
#
BLOCK Ye Q=  3.64234200E+03  # The Yukawa couplings
  1  1     0.00000000E+00   # y_e(Q) DRbar
  2  2     0.00000000E+00   # y_mu(Q) DRbar
  3  3     2.32582572E-01   # y_tau(Q) DRbar
#
BLOCK MSOFT Q=  3.64234200E+03  # The soft SUSY breaking masses at the scale Q
         1    -5.49190000E+02   # M_1(Q)              
         2     5.34070000E+02   # M_2(Q)              
         3     1.69325000E+03   # M_3(Q)              
        21    -1.31259358E+06   # mH1^2(Q)            
        22    -2.97814417E+06   # mH2^2(Q)            
        31     1.11031000E+03   # meL(Q)              
        32     1.11031000E+03   # mmuL(Q)             
        33     1.79522000E+03   # mtauL(Q)            
        34     2.54432000E+03   # meR(Q)              
        35     2.54432000E+03   # mmuR(Q)             
        36     2.44261000E+03   # mtauR(Q)            
        41     1.73113999E+03   # mqL1(Q)             
        42     1.73113999E+03   # mqL2(Q)             
        43     3.78965000E+03   # mqL3(Q)             
        44     9.11419986E+02   # muR(Q)              
        45     9.11419986E+02   # mcR(Q)              
        46     3.49720999E+03   # mtR(Q)              
        47     3.45843000E+03   # mdR(Q)              
        48     3.45843000E+03   # msR(Q)              
        49     3.61832000E+03   # mbR(Q)              
#
Block HiggsBoundsInputHiggsCouplingsFermions
# ScalarNormEffCoupSq PseudoSNormEffCoupSq NP   IP1 IP2 IP2
    1.02057555E+00    0.00000000E+00        3  25   5   5  # h0-b-b eff. coupling^2, normalised to SM
    5.44238248E+02    0.00000000E+00        3  35   5   5  # H0-b-b eff. coupling^2, normalised to SM
    0.00000000E+00    5.44258823E+02        3  36   5   5  # A0-b-b eff. coupling^2, normalised to SM
#
    9.99962195E-01    0.00000000E+00        3  25   6   6  # h0-t-t eff. coupling^2, normalised to SM
    1.87516583E-03    0.00000000E+00        3  35   6   6  # H0-t-t eff. coupling^2, normalised to SM
    0.00000000E+00    1.83736112E-03        3  36   6   6  # A0-t-t eff. coupling^2, normalised to SM
#
    1.02057555E+00    0.00000000E+00        3  25  15  15  # h0-tau-tau eff. coupling^2, normalised to SM
    5.44238248E+02    0.00000000E+00        3  35  15  15  # H0-tau-tau eff. coupling^2, normalised to SM
    0.00000000E+00    5.44258823E+02        3  36  15  15  # A0-tau-tau eff. coupling^2, normalised to SM
#
Block HiggsBoundsInputHiggsCouplingsBosons
    9.99999808E-01        3  25  24  24  # h0-W-W eff. coupling^2, normalised to SM
    1.92491527E-07        3  35  24  24  # H0-W-W eff. coupling^2, normalised to SM
    0.00000000E+00        3  36  24  24  # A0-W-W eff. coupling^2, normalised to SM
#
    9.99999808E-01        3  25  23  23  # h0-Z-Z eff. coupling^2, normalised to SM
    1.92491527E-07        3  35  23  23  # H0-Z-Z eff. coupling^2, normalised to SM
    0.00000000E+00        3  36  23  23  # A0-Z-Z eff. coupling^2, normalised to SM
#
    8.87947718E-01        3  25  21  21  # h0-g-g eff. coupling^2, normalised to SM
    2.83846807E-09        3  35  21  21  # H0-g-g eff. coupling^2, normalised to SM
    2.85377695E-08        3  36  21  21  # A0-g-g eff. coupling^2, normalised to SM
#
    0.00000000E+00        3  25  25  23  # h0-h0-Z eff. coupling^2, normalised to SM
    0.00000000E+00        3  35  25  23  # H0-h0-Z eff. coupling^2, normalised to SM
    1.92491527E-07        3  36  25  23  # A0-h0-Z eff. coupling^2, normalised to SM
    0.00000000E+00        3  35  35  23  # H0-H0-Z eff. coupling^2, normalised to SM
    9.99999808E-01        3  36  35  23  # A0-H0-Z eff. coupling^2, normalised to SM
    0.00000000E+00        3  36  36  23  # A0-A0-Z eff. coupling^2, normalised to SM
#
    0.00000000E+00        4  25  21  21  23  # h0-g-g-Z eff. coupling^2, normalised to SM
    0.00000000E+00        4  35  21  21  23  # H0-g-g-Z eff. coupling^2, normalised to SM
    0.00000000E+00        4  36  21  21  23  # A0-g-g-Z eff. coupling^2, normalised to SM
#
#
#
#                             =================
#                             |The decay table|
#                             =================
#
# - The QCD corrections to the decays gluino -> squark  + quark
#                                     squark -> gaugino + quark_prime
#                                     squark -> squark_prime + Higgs
#                                     squark -> gluino  + quark
#   are included.
#
# - The multi-body decays for the inos, stops and sbottoms are included.
#
# - The loop induced decays for the gluino, neutralinos and stops
#   are included.
#
# - The SUSY decays of the top quark are included.
#
#
#         PDG            Width
DECAY         6     1.44478609E+00   # top decays
#          BR         NDA      ID1       ID2
     1.00000000E+00    2           5        24   # BR(t ->  b    W+)
#
#         PDG            Width
DECAY   1000021     3.72994089E+01   # gluino decays
#          BR         NDA      ID1       ID2
     2.07257178E-03    2     1000001        -1   # BR(~g -> ~d_L  db)
     2.07257178E-03    2    -1000001         1   # BR(~g -> ~d_L* d )
     2.18054553E-03    2     1000002        -2   # BR(~g -> ~u_L  ub)
     2.18054553E-03    2    -1000002         2   # BR(~g -> ~u_L* u )
     2.45747353E-01    2     2000002        -2   # BR(~g -> ~u_R  ub)
     2.45747353E-01    2    -2000002         2   # BR(~g -> ~u_R* u )
     2.07257178E-03    2     1000003        -3   # BR(~g -> ~s_L  sb)
     2.07257178E-03    2    -1000003         3   # BR(~g -> ~s_L* s )
     2.17984725E-03    2     1000004        -4   # BR(~g -> ~c_L  cb)
     2.17984725E-03    2    -1000004         4   # BR(~g -> ~c_L* c )
     2.45747111E-01    2     2000004        -4   # BR(~g -> ~c_R  cb)
     2.45747111E-01    2    -2000004         4   # BR(~g -> ~c_R* c )
#
#         PDG            Width
DECAY   1000006     1.50813207E+02   # stop1 decays
#          BR         NDA      ID1       ID2
     5.13631953E-02    2     1000022         6   # BR(~t_1 -> ~chi_10 t )
     1.15958510E-03    2     1000023         6   # BR(~t_1 -> ~chi_20 t )
     8.00741248E-02    2     1000025         6   # BR(~t_1 -> ~chi_30 t )
     8.45734852E-02    2     1000035         6   # BR(~t_1 -> ~chi_40 t )
     2.34193173E-03    2     1000024         5   # BR(~t_1 -> ~chi_1+ b )
     1.63525644E-01    2     1000037         5   # BR(~t_1 -> ~chi_2+ b )
     6.16962034E-01    2     1000021         6   # BR(~t_1 -> ~g      t )
#
#         PDG            Width
DECAY   2000006     2.03897373E+02   # stop2 decays
#          BR         NDA      ID1       ID2
     3.20210920E-03    2     1000022         6   # BR(~t_2 -> ~chi_10 t )
     7.17899387E-02    2     1000023         6   # BR(~t_2 -> ~chi_20 t )
     7.65606000E-02    2     1000025         6   # BR(~t_2 -> ~chi_30 t )
     7.30840561E-02    2     1000035         6   # BR(~t_2 -> ~chi_40 t )
     1.44662891E-01    2     1000024         5   # BR(~t_2 -> ~chi_1+ b )
     2.73735317E-02    2     1000037         5   # BR(~t_2 -> ~chi_2+ b )
     5.89611695E-01    2     1000021         6   # BR(~t_2 -> ~g      t )
     7.16976083E-03    2     1000006        25   # BR(~t_2 -> ~t_1    h )
     5.92059363E-03    2     1000006        23   # BR(~t_2 -> ~t_1    Z )
     6.24823381E-04    2     1000005        24   # BR(~t_2 -> ~b_1    W+)
#
#         PDG            Width
DECAY   1000005     1.19463474E+02   # sbottom1 decays
#          BR         NDA      ID1       ID2
     1.74963978E-02    2     1000022         5   # BR(~b_1 -> ~chi_10 b )
     2.06285979E-03    2     1000023         5   # BR(~b_1 -> ~chi_20 b )
     1.95497105E-02    2     1000025         5   # BR(~b_1 -> ~chi_30 b )
     1.94591430E-02    2     1000035         5   # BR(~b_1 -> ~chi_40 b )
     4.09599655E-03    2    -1000024         6   # BR(~b_1 -> ~chi_1- t )
     3.89446926E-02    2    -1000037         6   # BR(~b_1 -> ~chi_2- t )
     8.98374143E-01    2     1000021         5   # BR(~b_1 -> ~g      b )
     1.70566501E-05    2     1000006       -24   # BR(~b_1 -> ~t_1    W-)
#
#         PDG            Width
DECAY   2000005     2.01236997E+02   # sbottom2 decays
#          BR         NDA      ID1       ID2
     2.60877192E-03    2     1000022         5   # BR(~b_2 -> ~chi_10 b )
     7.27256704E-02    2     1000023         5   # BR(~b_2 -> ~chi_20 b )
     1.31688955E-02    2     1000025         5   # BR(~b_2 -> ~chi_30 b )
     1.32318034E-02    2     1000035         5   # BR(~b_2 -> ~chi_40 b )
     1.44371749E-01    2    -1000024         6   # BR(~b_2 -> ~chi_1- t )
     1.51937490E-01    2    -1000037         6   # BR(~b_2 -> ~chi_2- t )
     5.90097678E-01    2     1000021         5   # BR(~b_2 -> ~g      b )
     2.62453917E-04    2     1000005        25   # BR(~b_2 -> ~b_1    h )
     2.38983099E-04    2     1000005        23   # BR(~b_2 -> ~b_1    Z )
     1.13565047E-02    2     1000006       -24   # BR(~b_2 -> ~t_1    W-)
#
#         PDG            Width
DECAY   1000002     1.81151890E+01   # sup_L decays
#          BR         NDA      ID1       ID2
     1.22028473E-02    2     1000022         2   # BR(~u_L -> ~chi_10 u)
     3.28805882E-01    2     1000023         2   # BR(~u_L -> ~chi_20 u)
     1.88065673E-08    2     1000025         2   # BR(~u_L -> ~chi_30 u)
     6.97692071E-08    2     1000035         2   # BR(~u_L -> ~chi_40 u)
     6.58991162E-01    2     1000024         1   # BR(~u_L -> ~chi_1+ d)
     1.98990112E-08    2     1000037         1   # BR(~u_L -> ~chi_2+ d)
#
#         PDG            Width
DECAY   2000002     1.44867454E+00   # sup_R decays
#          BR         NDA      ID1       ID2
     9.99999852E-01    2     1000022         2   # BR(~u_R -> ~chi_10 u)
     1.47965432E-07    2     1000023         2   # BR(~u_R -> ~chi_20 u)
#
#         PDG            Width
DECAY   1000001     1.80819407E+01   # sdown_L decays
#          BR         NDA      ID1       ID2
     1.20489281E-02    2     1000022         1   # BR(~d_L -> ~chi_10 d)
     3.29663890E-01    2     1000023         1   # BR(~d_L -> ~chi_20 d)
     5.72756745E-08    2     1000025         1   # BR(~d_L -> ~chi_30 d)
     1.20385805E-07    2     1000035         1   # BR(~d_L -> ~chi_40 d)
     6.58286586E-01    2    -1000024         2   # BR(~d_L -> ~chi_1- u)
     4.18369860E-07    2    -1000037         2   # BR(~d_L -> ~chi_2- u)
#
#         PDG            Width
DECAY   2000001     1.43027236E+02   # sdown_R decays
#          BR         NDA      ID1       ID2
     1.33227718E-02    2     1000022         1   # BR(~d_R -> ~chi_10 d)
     2.06999243E-09    2     1000023         1   # BR(~d_R -> ~chi_20 d)
     4.85700847E-06    2     1000025         1   # BR(~d_R -> ~chi_30 d)
     1.19775065E-06    2     1000035         1   # BR(~d_R -> ~chi_40 d)
     9.86671171E-01    2     1000021         1   # BR(~d_R -> ~g      d)
#
#         PDG            Width
DECAY   1000004     1.86512095E+01   # scharm_L decays
#          BR         NDA      ID1       ID2
     1.22048354E-02    2     1000022         4   # BR(~c_L -> ~chi_10 c)
     3.28804215E-01    2     1000023         4   # BR(~c_L -> ~chi_20 c)
     1.55810080E-08    2     1000025         4   # BR(~c_L -> ~chi_30 c)
     5.76122122E-08    2     1000035         4   # BR(~c_L -> ~chi_40 c)
     6.58990860E-01    2     1000024         3   # BR(~c_L -> ~chi_1+ s)
     1.65601795E-08    2     1000037         3   # BR(~c_L -> ~chi_2+ s)
#
#         PDG            Width
DECAY   2000004     1.43235169E+00   # scharm_R decays
#          BR         NDA      ID1       ID2
     9.99999852E-01    2     1000022         4   # BR(~c_R -> ~chi_10 c)
     1.47907406E-07    2     1000023         4   # BR(~c_R -> ~chi_20 c)
#
#         PDG            Width
DECAY   1000003     1.86194408E+01   # sstrange_L decays
#          BR         NDA      ID1       ID2
     1.20509141E-02    2     1000022         3   # BR(~s_L -> ~chi_10 s)
     3.29662852E-01    2     1000023         3   # BR(~s_L -> ~chi_20 s)
     4.84697750E-08    2     1000025         3   # BR(~s_L -> ~chi_30 s)
     1.01707278E-07    2     1000035         3   # BR(~s_L -> ~chi_40 s)
     6.58285738E-01    2    -1000024         4   # BR(~s_L -> ~chi_1- c)
     3.46204985E-07    2    -1000037         4   # BR(~s_L -> ~chi_2- c)
#
#         PDG            Width
DECAY   2000003     9.86161613E+01   # sstrange_R decays
#          BR         NDA      ID1       ID2
     2.00404982E-02    2     1000022         3   # BR(~s_R -> ~chi_10 s)
     3.11350211E-09    2     1000023         3   # BR(~s_R -> ~chi_20 s)
     7.26884635E-06    2     1000025         3   # BR(~s_R -> ~chi_30 s)
     1.79251117E-06    2     1000035         3   # BR(~s_R -> ~chi_40 s)
     9.79950437E-01    2     1000021         3   # BR(~s_R -> ~g      s)
#
#         PDG            Width
DECAY   1000011     8.66287406E+00   # selectron_L decays
#          BR         NDA      ID1       ID2
     1.02745738E-01    2     1000022        11   # BR(~e_L -> ~chi_10 e-)
     2.99405878E-01    2     1000023        11   # BR(~e_L -> ~chi_20 e-)
     5.97848384E-01    2    -1000024        12   # BR(~e_L -> ~chi_1- nu_e)
#
#         PDG            Width
DECAY   2000011     1.23251746E+01   # selectron_R decays
#          BR         NDA      ID1       ID2
     9.99791112E-01    2     1000022        11   # BR(~e_R -> ~chi_10 e-)
     1.54769069E-07    2     1000023        11   # BR(~e_R -> ~chi_20 e-)
     1.67462612E-04    2     1000025        11   # BR(~e_R -> ~chi_30 e-)
     4.12710111E-05    2     1000035        11   # BR(~e_R -> ~chi_40 e-)
#
#         PDG            Width
DECAY   1000013     8.66287395E+00   # smuon_L decays
#          BR         NDA      ID1       ID2
     1.02745736E-01    2     1000022        13   # BR(~mu_L -> ~chi_10 mu-)
     2.99405872E-01    2     1000023        13   # BR(~mu_L -> ~chi_20 mu-)
     5.97848392E-01    2    -1000024        14   # BR(~mu_L -> ~chi_1- nu_mu)
#
#         PDG            Width
DECAY   2000013     1.23251746E+01   # smuon_R decays
#          BR         NDA      ID1       ID2
     9.99791112E-01    2     1000022        13   # BR(~mu_R -> ~chi_10 mu-)
     1.54769069E-07    2     1000023        13   # BR(~mu_R -> ~chi_20 mu-)
     1.67462610E-04    2     1000025        13   # BR(~mu_R -> ~chi_30 mu-)
     4.12710107E-05    2     1000035        13   # BR(~mu_R -> ~chi_40 mu-)
#
#         PDG            Width
DECAY   1000015     1.99736603E+01   # stau_1 decays
#          BR         NDA      ID1       ID2
     1.00231775E-01    2     1000022        15   # BR(~tau_1 -> ~chi_10  tau-)
     3.00474903E-01    2     1000023        15   # BR(~tau_1 -> ~chi_20  tau-)
     5.99293322E-01    2    -1000024        16   # BR(~tau_1 -> ~chi_1-  nu_tau)
#
#         PDG            Width
DECAY   2000015     1.41009718E+01   # stau_2 decays
#          BR         NDA      ID1       ID2
     8.29245519E-01    2     1000022        15   # BR(~tau_2 -> ~chi_10  tau-)
     1.82882676E-05    2     1000023        15   # BR(~tau_2 -> ~chi_20  tau-)
     1.80809165E-02    2     1000025        15   # BR(~tau_2 -> ~chi_30  tau-)
     1.79662156E-02    2     1000035        15   # BR(~tau_2 -> ~chi_40  tau-)
     3.47047135E-05    2    -1000024        16   # BR(~tau_2 -> ~chi_1-  nu_tau)
     3.57935508E-02    2    -1000037        16   # BR(~tau_2 -> ~chi_2-  nu_tau)
     4.88386207E-02    2     1000016       -24   # BR(~tau_2 -> ~nu_tauL W-)
     2.52070649E-02    2     1000015        25   # BR(~tau_2 -> ~tau_1   h)
     2.48151196E-02    2     1000015        23   # BR(~tau_2 -> ~tau_1   Z)
#
#         PDG            Width
DECAY   1000012     8.62193618E+00   # snu_eL decays
#          BR         NDA      ID1       ID2
     1.02083462E-01    2     1000022        12   # BR(~nu_eL -> ~chi_10 nu_e)
     2.98652389E-01    2     1000023        12   # BR(~nu_eL -> ~chi_20 nu_e)
     5.99264149E-01    2     1000024        11   # BR(~nu_eL -> ~chi_1+ e-)
#
#         PDG            Width
DECAY   1000014     8.62193601E+00   # snu_muL decays
#          BR         NDA      ID1       ID2
     1.02083464E-01    2     1000022        14   # BR(~nu_muL -> ~chi_10 nu_mu)
     2.98652394E-01    2     1000023        14   # BR(~nu_muL -> ~chi_20 nu_mu)
     5.99264142E-01    2     1000024        13   # BR(~nu_muL -> ~chi_1+ mu-)
#
#         PDG            Width
DECAY   1000016     1.99678822E+01   # snu_tauL decays
#          BR         NDA      ID1       ID2
     9.91756242E-02    2     1000022        16   # BR(~nu_tauL -> ~chi_10 nu_tau)
     2.99614295E-01    2     1000023        16   # BR(~nu_tauL -> ~chi_20 nu_tau)
     6.01210080E-01    2     1000024        15   # BR(~nu_tauL -> ~chi_1+ tau-)
#
#         PDG            Width
DECAY   1000024     1.55053610E-11   # chargino1+ decays
#           BR         NDA      ID1       ID2       ID3
     3.08620520E-01    3     1000022         2        -1   # BR(~chi_1+ -> ~chi_10 u    db)
     3.08620520E-01    3     1000022         4        -3   # BR(~chi_1+ -> ~chi_10 c    sb)
     1.85166770E-01    3     1000022       -11        12   # BR(~chi_1+ -> ~chi_10 e+   nu_e)
     1.85166770E-01    3     1000022       -13        14   # BR(~chi_1+ -> ~chi_10 mu+  nu_mu)
     1.24254204E-02    3     1000022       -15        16   # BR(~chi_1+ -> ~chi_10 tau+ nu_tau)
#
#         PDG            Width
DECAY   1000037     1.12000674E+01   # chargino2+ decays
#          BR         NDA      ID1       ID2
     7.45561084E-05    2     1000012       -11   # BR(~chi_2+ -> ~nu_eL   e+  )
     7.45561084E-05    2     1000014       -13   # BR(~chi_2+ -> ~nu_muL mu+ )
     5.59165997E-05    2     1000016       -15   # BR(~chi_2+ -> ~nu_tau1 tau+)
     1.08739138E-03    2    -1000011        12   # BR(~chi_2+ -> ~e_L+    nu_e)
     1.08739138E-03    2    -1000013        14   # BR(~chi_2+ -> ~mu_L+   nu_mu)
     1.11628738E-06    2    -1000015        16   # BR(~chi_2+ -> ~tau_1+  nu_tau)
     2.96270468E-01    2     1000024        23   # BR(~chi_2+ -> ~chi_1+  Z )
     1.04918399E-01    2     1000022        24   # BR(~chi_2+ -> ~chi_10  W+)
     2.88112528E-01    2     1000023        24   # BR(~chi_2+ -> ~chi_20  W+)
     3.08317678E-01    2     1000024        25   # BR(~chi_2+ -> ~chi_1+  h )
#
#         PDG            Width
DECAY   1000022     0.00000000E+00   # neutralino1 decays
#
#         PDG            Width
DECAY   1000023     3.71570003E-11   # neutralino2 decays
#          BR         NDA      ID1       ID2
     5.85558885E-01    2     1000022        22   # BR(~chi_20 -> ~chi_10 gam)
#           BR         NDA      ID1       ID2       ID3
     4.04332737E-02    3     1000022        -2         2   # BR(~chi_20 -> ~chi_10 ub      u)
     5.04206233E-02    3     1000022        -1         1   # BR(~chi_20 -> ~chi_10 db      d)
     4.04332737E-02    3     1000022        -4         4   # BR(~chi_20 -> ~chi_10 cb      c)
     5.04206233E-02    3     1000022        -3         3   # BR(~chi_20 -> ~chi_10 sb      s)
     1.58220208E-02    3     1000022        -5         5   # BR(~chi_20 -> ~chi_10 bb      b)
     6.67634635E-02    3     1000022       -11        11   # BR(~chi_20 -> ~chi_10 e+      e-)
     6.67634635E-02    3     1000022       -13        13   # BR(~chi_20 -> ~chi_10 mu+     mu-)
     4.75591261E-03    3     1000022       -15        15   # BR(~chi_20 -> ~chi_10 tau+    tau-)
     3.88286148E-02    3     1000022       -12        12   # BR(~chi_20 -> ~chi_10 nu_eb   nu_e)
     3.88286148E-02    3     1000022       -14        14   # BR(~chi_20 -> ~chi_10 nu_mub  nu_mu)
     1.80864970E-04    3     1000022       -16        16   # BR(~chi_20 -> ~chi_10 nu_taub nu_tau)
     2.36666058E-04    3     1000024        -2         1   # BR(~chi_20 -> ~chi_1+ ub      d)
     2.36666058E-04    3    -1000024        -1         2   # BR(~chi_20 -> ~chi_1- db      u)
     7.92583726E-05    3     1000024       -12        11   # BR(~chi_20 -> ~chi_1+ nu_eb   e-)
     7.92583726E-05    3    -1000024        12       -11   # BR(~chi_20 -> ~chi_1- nu_e    e+)
     7.92583726E-05    3     1000024       -14        13   # BR(~chi_20 -> ~chi_1+ nu_mub  mu-)
     7.92583726E-05    3    -1000024        14       -13   # BR(~chi_20 -> ~chi_1- nu_mu   mu+)
#
#         PDG            Width
DECAY   1000025     1.10284427E+01   # neutralino3 decays
#          BR         NDA      ID1       ID2
     2.17391996E-02    2     1000022        23   # BR(~chi_30 -> ~chi_10   Z )
     2.23328125E-01    2     1000023        23   # BR(~chi_30 -> ~chi_20   Z )
     2.92487249E-01    2     1000024       -24   # BR(~chi_30 -> ~chi_1+   W-)
     2.92487249E-01    2    -1000024        24   # BR(~chi_30 -> ~chi_1-   W+)
     9.01956512E-02    2     1000022        25   # BR(~chi_30 -> ~chi_10   h )
     7.82644439E-02    2     1000023        25   # BR(~chi_30 -> ~chi_20   h )
     1.57446266E-04    2     2000002        -2   # BR(~chi_30 -> ~u_R      ub)
     1.57446266E-04    2    -2000002         2   # BR(~chi_30 -> ~u_R*     u )
     1.57446061E-04    2     2000004        -4   # BR(~chi_30 -> ~c_R      cb)
     1.57446061E-04    2    -2000004         4   # BR(~chi_30 -> ~c_R*     c )
     1.18698947E-05    2     1000011       -11   # BR(~chi_30 -> ~e_L-     e+)
     1.18698947E-05    2    -1000011        11   # BR(~chi_30 -> ~e_L+     e-)
     1.18698947E-05    2     1000013       -13   # BR(~chi_30 -> ~mu_L-    mu+)
     1.18698947E-05    2    -1000013        13   # BR(~chi_30 -> ~mu_L+    mu-)
     2.10019818E-05    2     1000015       -15   # BR(~chi_30 -> ~tau_1-   tau+)
     2.10019818E-05    2    -1000015        15   # BR(~chi_30 -> ~tau_1+   tau-)
     1.94565713E-04    2     1000012       -12   # BR(~chi_30 -> ~nu_eL    nu_eb)
     1.94565713E-04    2    -1000012        12   # BR(~chi_30 -> ~nu_eL*   nu_e )
     1.94565713E-04    2     1000014       -14   # BR(~chi_30 -> ~nu_muL   nu_mub)
     1.94565713E-04    2    -1000014        14   # BR(~chi_30 -> ~nu_muL*  nu_mu )
     2.75989891E-07    2     1000016       -16   # BR(~chi_30 -> ~nu_tau1  nu_taub)
     2.75989891E-07    2    -1000016        16   # BR(~chi_30 -> ~nu_tau1* nu_tau )
#
#         PDG            Width
DECAY   1000035     1.11416674E+01   # neutralino4 decays
#          BR         NDA      ID1       ID2
     8.64620529E-02    2     1000022        23   # BR(~chi_40 -> ~chi_10   Z )
     7.65953990E-02    2     1000023        23   # BR(~chi_40 -> ~chi_20   Z )
     2.90010913E-01    2     1000024       -24   # BR(~chi_40 -> ~chi_1+   W-)
     2.90010913E-01    2    -1000024        24   # BR(~chi_40 -> ~chi_1-   W+)
     2.21547082E-02    2     1000022        25   # BR(~chi_40 -> ~chi_10   h )
     2.32769411E-01    2     1000023        25   # BR(~chi_40 -> ~chi_20   h )
     3.84704772E-05    2     2000002        -2   # BR(~chi_40 -> ~u_R      ub)
     3.84704772E-05    2    -2000002         2   # BR(~chi_40 -> ~u_R*     u )
     3.84704272E-05    2     2000004        -4   # BR(~chi_40 -> ~c_R      cb)
     3.84704272E-05    2    -2000004         4   # BR(~chi_40 -> ~c_R*     c )
     1.47569896E-04    2     1000011       -11   # BR(~chi_40 -> ~e_L-     e+)
     1.47569896E-04    2    -1000011        11   # BR(~chi_40 -> ~e_L+     e-)
     1.47569896E-04    2     1000013       -13   # BR(~chi_40 -> ~mu_L-    mu+)
     1.47569896E-04    2    -1000013        13   # BR(~chi_40 -> ~mu_L+    mu-)
     2.19912043E-05    2     1000015       -15   # BR(~chi_40 -> ~tau_1-   tau+)
     2.19912043E-05    2    -1000015        15   # BR(~chi_40 -> ~tau_1+   tau-)
     3.01892797E-04    2     1000012       -12   # BR(~chi_40 -> ~nu_eL    nu_eb)
     3.01892797E-04    2    -1000012        12   # BR(~chi_40 -> ~nu_eL*   nu_e )
     3.01892797E-04    2     1000014       -14   # BR(~chi_40 -> ~nu_muL   nu_mub)
     3.01892797E-04    2    -1000014        14   # BR(~chi_40 -> ~nu_muL*  nu_mu )
     4.44153358E-07    2     1000016       -16   # BR(~chi_40 -> ~nu_tau1  nu_taub)
     4.44153358E-07    2    -1000016        16   # BR(~chi_40 -> ~nu_tau1* nu_tau )
#
#         PDG            Width
DECAY        25     3.82228328E-03   # h decays
#          BR         NDA      ID1       ID2
     5.95364532E-01    2           5        -5   # BR(h -> b       bb     )
     6.86820510E-02    2         -15        15   # BR(h -> tau+    tau-   )
     2.43152862E-04    2         -13        13   # BR(h -> mu+     mu-    )
     2.66262969E-04    2           3        -3   # BR(h -> s       sb     )
     2.25766190E-02    2           4        -4   # BR(h -> c       cb     )
     8.19117042E-02    2          21        21   # BR(h -> g       g      )
     2.39980609E-03    2          22        22   # BR(h -> gam     gam    )
     1.52322995E-03    2          22        23   # BR(h -> Z       gam    )
     2.02141171E-01    2          24       -24   # BR(h -> W+      W-     )
     2.48914702E-02    2          23        23   # BR(h -> Z       Z      )
#
#         PDG            Width
DECAY        35     1.27582359E+01   # H decays
#          BR         NDA      ID1       ID2
     8.58708261E-01    2           5        -5   # BR(H -> b       bb     )
     1.29227375E-01    2         -15        15   # BR(H -> tau+    tau-   )
     4.64190856E-04    2         -13        13   # BR(H -> mu+     mu-    )
     3.94272898E-04    2           3        -3   # BR(H -> s       sb     )
     9.45280979E-08    2           4        -4   # BR(H -> c       cb     )
     8.88263623E-03    2           6        -6   # BR(H -> t       tb     )
     3.38598806E-05    2          21        21   # BR(H -> g       g      )
     9.64782859E-09    2          22        22   # BR(H -> gam     gam    )
     1.83872842E-08    2          23        22   # BR(H -> Z       gam    )
     1.34003064E-05    2          24       -24   # BR(H -> W+      W-     )
     6.65502653E-06    2          23        23   # BR(H -> Z       Z      )
     5.68467306E-05    2          25        25   # BR(H -> h       h      )
     9.23510048E-04    2     1000024  -1000024   # BR(H -> ~chi_1+ ~chi_1-)
     5.07206132E-05    2     1000022   1000022   # BR(H -> ~chi_10 ~chi_10)
     4.59877518E-04    2     1000023   1000023   # BR(H -> ~chi_20 ~chi_20)
     7.78271534E-04    2     1000022   1000023   # BR(H -> ~chi_10 ~chi_20)
#
#         PDG            Width
DECAY        36     1.27848133E+01   # A decays
#          BR         NDA      ID1       ID2
     8.56988519E-01    2           5        -5   # BR(A -> b       bb     )
     1.28962118E-01    2         -15        15   # BR(A -> tau+    tau-   )
     4.63234977E-04    2         -13        13   # BR(A -> mu+     mu-    )
     3.93512008E-04    2           3        -3   # BR(A -> s       sb     )
     9.32758662E-08    2           4        -4   # BR(A -> c       cb     )
     9.08138669E-03    2           6        -6   # BR(A -> t       tb     )
     1.07120928E-04    2          21        21   # BR(A -> g       g      )
     1.17701792E-07    2          22        22   # BR(A -> gam     gam    )
     6.21326046E-08    2          23        22   # BR(A -> Z       gam    )
     1.33801300E-05    2          23        25   # BR(A -> Z       h      )
     2.37028267E-03    2     1000024  -1000024   # BR(A -> ~chi_1+ ~chi_1-)
     1.28727715E-04    2     1000022   1000022   # BR(A -> ~chi_10 ~chi_10)
     1.18270582E-03    2     1000023   1000023   # BR(A -> ~chi_20 ~chi_20)
     3.08738944E-04    2     1000022   1000023   # BR(A -> ~chi_10 ~chi_20)
#
#         PDG            Width
DECAY        37     1.31736661E+01   # H+ decays
#          BR         NDA      ID1       ID2
     1.46293571E-03    2           4        -5   # BR(H+ -> c       bb     )
     1.25347056E-01    2         -15        16   # BR(H+ -> tau+    nu_tau )
     4.50249582E-04    2         -13        14   # BR(H+ -> mu+     nu_mu  )
     1.46292833E-05    2           2        -5   # BR(H+ -> u       bb     )
     1.90759545E-05    2           2        -3   # BR(H+ -> u       sb     )
     3.75559118E-04    2           4        -3   # BR(H+ -> c       sb     )
     8.71256508E-01    2           6        -5   # BR(H+ -> t       bb     )
     1.30837529E-05    2          24        25   # BR(H+ -> W+      h      )
     4.68255235E-12    2          24        36   # BR(H+ -> W+      A      )
     1.06090323E-03    2     1000024   1000022   # BR(H+ -> ~chi_1+ ~chi_10)
     1.83264610E-10    2     1000024   1000023   # BR(H+ -> ~chi_1+ ~chi_20)
