#
#                              ======================
#                              | THE SUSYHIT OUTPUT |
#                              ======================
#
#
#              ------------------------------------------------------
#              |     This is the output of the SUSY-HIT package     |
#              |  created by A.Djouadi, M.Muehlleitner and M.Spira. |
#              |  In case of problems with SUSY-HIT email to        |
#              |           margarete.muehlleitner@cern.ch           |
#              |           michael.spira@psi.ch                     |
#              |           abdelhak.djouadi@cern.ch                 |
#              ------------------------------------------------------
#
#              ------------------------------------------------------
#              |  SUSY Les Houches Accord - MSSM Spectrum + Decays  |
#              |              based on the decay programs           |
#              |                                                    |
#              |                     SDECAY 1.3b                    |
#              |                                                    |
#              |  Authors: M.Muhlleitner, A.Djouadi and Y.Mambrini  |
#              |  Ref.:    Comput.Phys.Commun.168(2005)46           |
#              |           [hep-ph/0311167]                         |
#              |                                                    |
#              |                     HDECAY 3.4                     |
#              |                                                    |
#              |  By: A.Djouadi,J.Kalinowski,M.Muhlleitner,M.Spira  |
#              |  Ref.:    Comput.Phys.Commun.108(1998)56           |
#              |           [hep-ph/9704448]                         |
#              |                                                    |
#              |                                                    |
#              |  If not stated otherwise all DRbar couplings and   |
#              |  soft SUSY breaking masses are given at the scale  |
#              |  Q=  0.14832840E+04
#              |                                                    |
#              ------------------------------------------------------
#
#
BLOCK DCINFO  # Decay Program information
     1   SDECAY/HDECAY # decay calculator
     2   1.3b  /3.4    # version number
#
BLOCK SPINFO  # Spectrum calculator information
     1     SOFTSUSY    # spectrum calculator               
     2     3.4.0       # version number                    
#
BLOCK MODSEL  # Model selection
     1     0   #  nonUniversal                                     
#
BLOCK SMINPUTS  # Standard Model inputs
         1     1.27908970E+02   # alpha_em^-1(M_Z)^MSbar
         2     1.16637870E-05   # G_F [GeV^-2]
         3     1.18400000E-01   # alpha_S(M_Z)^MSbar
         4     9.11876000E+01   # M_Z pole mass
         5     4.18000000E+00   # mb(mb)^MSbar
         6     1.73200000E+02   # mt pole mass
         7     1.77700000E+00   # mtau pole mass
#
BLOCK MINPAR  # Input parameters - minimal models
         3     6.53000000E+00   # tanb                
#
BLOCK EXTPAR  # Input parameters - non-minimal models
         0    -1.00000000E+00   # Set                 
         1     2.31659000E+03   # M_1(MX)             
         2    -7.03370000E+02   # M_2(MX)             
         3     1.73035000E+03   # M_3(MX)             
        11    -3.16292000E+03   # At(MX)              
        12    -6.29000000E+01   # Ab(MX)              
        13     8.23660000E+02   # Atau(MX)            
        23     2.74856000E+03   # mu(MX)              
        26     1.15090000E+03   # mA(pole)            
        31     9.93980000E+02   # meL(MX)             
        32     9.93980000E+02   # mmuL(MX)            
        33     2.55500000E+03   # mtauL(MX)           
        34     1.29446000E+03   # meR(MX)             
        35     1.29446000E+03   # mmuR(MX)            
        36     3.94779000E+03   # mtauR(MX)           
        41     2.91887000E+03   # mqL1(MX)            
        42     2.91887000E+03   # mqL2(MX)            
        43     3.06946000E+03   # mqL3(MX)            
        44     1.25471000E+03   # muR(MX)             
        45     1.25471000E+03   # mcR(MX)             
        46     7.22340000E+02   # mtR(MX)             
        47     2.22781000E+03   # mdR(MX)             
        48     2.22781000E+03   # msR(MX)             
        49     2.29827000E+03   # mbR(MX)             
#
BLOCK MASS  # Mass Spectrum
# PDG code           mass       particle
        24     8.03896939E+01   # W+
        25     1.24811836E+02   # h
        35     1.15075752E+03   # H
        36     1.15090000E+03   # A
        37     1.15360495E+03   # H+
         5     4.81876030E+00   # b-quark pole mass calculated from mb(mb)_Msbar
   1000001     2.95241655E+03   # ~d_L
   2000001     2.26789043E+03   # ~d_R
   1000002     2.95154867E+03   # ~u_L
   2000002     1.31062911E+03   # ~u_R
   1000003     2.95241655E+03   # ~s_L
   2000003     2.26789043E+03   # ~s_R
   1000004     2.95154867E+03   # ~c_L
   2000004     1.31062911E+03   # ~c_R
   1000005     2.33666709E+03   # ~b_1
   2000005     3.08677139E+03   # ~b_2
   1000006     8.37006321E+02   # ~t_1
   2000006     3.09447624E+03   # ~t_2
   1000011     9.94391092E+02   # ~e_L
   2000011     1.31061251E+03   # ~e_R
   1000012     9.91149803E+02   # ~nu_eL
   1000013     9.94391092E+02   # ~mu_L
   2000013     1.31061251E+03   # ~mu_R
   1000014     9.91149803E+02   # ~nu_muL
   1000015     2.55781564E+03   # ~tau_1
   2000015     3.95351480E+03   # ~tau_2
   1000016     2.55635113E+03   # ~nu_tauL
   1000021     1.86849151E+03   # ~g
   1000022    -7.41386344E+02   # ~chi_10
   1000023     2.29419274E+03   # ~chi_20
   1000025    -2.77292110E+03   # ~chi_30
   1000035     2.77570547E+03   # ~chi_40
   1000024     7.41550133E+02   # ~chi_1+
   1000037     2.77427933E+03   # ~chi_2+
#
BLOCK NMIX  # Neutralino Mixing Matrix
  1  1    -4.73742112E-05   # N_11
  1  2     9.99604811E-01   # N_12
  1  3    -2.79915258E-02   # N_13
  1  4    -2.58722185E-03   # N_14
  2  1     9.96407874E-01   # N_21
  2  2     1.68183915E-03   # N_22
  2  3     6.35452421E-02   # N_23
  2  4    -5.59510646E-02   # N_24
  3  1    -5.39511336E-03   # N_31
  3  2     2.16191531E-02   # N_32
  3  3     7.06686927E-01   # N_33
  3  4     7.07175433E-01   # N_34
  4  1     8.45117655E-02   # N_41
  4  2    -1.78886867E-02   # N_42
  4  3    -7.04110832E-01   # N_43
  4  4     7.04816070E-01   # N_44
#
BLOCK UMIX  # Chargino Mixing Matrix U
  1  1     9.99217216E-01   # U_11
  1  2    -3.95595258E-02   # U_12
  2  1     3.95595258E-02   # U_21
  2  2     9.99217216E-01   # U_22
#
BLOCK VMIX  # Chargino Mixing Matrix V
  1  1    -9.99993396E-01   # V_11
  1  2    -3.63422897E-03   # V_12
  2  1    -3.63422897E-03   # V_21
  2  2     9.99993396E-01   # V_22
#
BLOCK STOPMIX  # Stop Mixing Matrix
  1  1     5.95748721E-02   # cos(theta_t)
  1  2     9.98223840E-01   # sin(theta_t)
  2  1    -9.98223840E-01   # -sin(theta_t)
  2  2     5.95748721E-02   # cos(theta_t)
#
BLOCK SBOTMIX  # Sbottom Mixing Matrix
  1  1     9.95360916E-03   # cos(theta_b)
  1  2     9.99950462E-01   # sin(theta_b)
  2  1    -9.99950462E-01   # -sin(theta_b)
  2  2     9.95360916E-03   # cos(theta_b)
#
BLOCK STAUMIX  # Stau Mixing Matrix
  1  1     9.99994884E-01   # cos(theta_tau)
  1  2     3.19874566E-03   # sin(theta_tau)
  2  1    -3.19874566E-03   # -sin(theta_tau)
  2  2     9.99994884E-01   # cos(theta_tau)
#
BLOCK ALPHA  # Higgs mixing
          -1.60429716E-01   # Mixing angle in the neutral Higgs boson sector
#
BLOCK HMIX Q=  1.48328400E+03  # DRbar Higgs Parameters
         1     2.77752817E+03   # mu(Q)MSSM           
         2     6.27364277E+00   # tan                 
         3     2.43927848E+02   # higgs               
         4     1.81795231E+06   # mA^2(Q)MSSM         
#
BLOCK GAUGE Q=  1.48328400E+03  # The gauge couplings
     1     3.62856531E-01   # gprime(Q) DRbar
     2     6.37047028E-01   # g(Q) DRbar
     3     1.03592353E+00   # g3(Q) DRbar
#
BLOCK AU Q=  1.48328400E+03  # The trilinear couplings
  1  1     0.00000000E+00   # A_u(Q) DRbar
  2  2     0.00000000E+00   # A_c(Q) DRbar
  3  3    -3.16292000E+03   # A_t(Q) DRbar
#
BLOCK AD Q=  1.48328400E+03  # The trilinear couplings
  1  1     0.00000000E+00   # A_d(Q) DRbar
  2  2     0.00000000E+00   # A_s(Q) DRbar
  3  3    -6.28999994E+01   # A_b(Q) DRbar
#
BLOCK AE Q=  1.48328400E+03  # The trilinear couplings
  1  1     0.00000000E+00   # A_e(Q) DRbar
  2  2     0.00000000E+00   # A_mu(Q) DRbar
  3  3     8.23660000E+02   # A_tau(Q) DRbar
#
BLOCK Yu Q=  1.48328400E+03  # The Yukawa couplings
  1  1     0.00000000E+00   # y_u(Q) DRbar
  2  2     0.00000000E+00   # y_c(Q) DRbar
  3  3     8.40635423E-01   # y_t(Q) DRbar
#
BLOCK Yd Q=  1.48328400E+03  # The Yukawa couplings
  1  1     0.00000000E+00   # y_d(Q) DRbar
  2  2     0.00000000E+00   # y_s(Q) DRbar
  3  3     8.46103894E-02   # y_b(Q) DRbar
#
BLOCK Ye Q=  1.48328400E+03  # The Yukawa couplings
  1  1     0.00000000E+00   # y_e(Q) DRbar
  2  2     0.00000000E+00   # y_mu(Q) DRbar
  3  3     6.44107454E-02   # y_tau(Q) DRbar
#
BLOCK MSOFT Q=  1.48328400E+03  # The soft SUSY breaking masses at the scale Q
         1     2.31659000E+03   # M_1(Q)              
         2    -7.03370000E+02   # M_2(Q)              
         3     1.73035000E+03   # M_3(Q)              
        21    -6.46472527E+06   # mH1^2(Q)            
        22    -7.80477399E+06   # mH2^2(Q)            
        31     9.93980000E+02   # meL(Q)              
        32     9.93980000E+02   # mmuL(Q)             
        33     2.55500000E+03   # mtauL(Q)            
        34     1.29446000E+03   # meR(Q)              
        35     1.29446000E+03   # mmuR(Q)             
        36     3.94779000E+03   # mtauR(Q)            
        41     2.91887000E+03   # mqL1(Q)             
        42     2.91887000E+03   # mqL2(Q)             
        43     3.06946000E+03   # mqL3(Q)             
        44     1.25471000E+03   # muR(Q)              
        45     1.25471000E+03   # mcR(Q)              
        46     7.22339985E+02   # mtR(Q)              
        47     2.22781000E+03   # mdR(Q)              
        48     2.22781000E+03   # msR(Q)              
        49     2.29827000E+03   # mbR(Q)              
#
Block HiggsBoundsInputHiggsCouplingsFermions
# ScalarNormEffCoupSq PseudoSNormEffCoupSq NP   IP1 IP2 IP2
    1.02985608E+00    0.00000000E+00        3  25   5   5  # h0-b-b eff. coupling^2, normalised to SM
    3.93287375E+01    0.00000000E+00        3  35   5   5  # H0-b-b eff. coupling^2, normalised to SM
    0.00000000E+00    3.93585936E+01        3  36   5   5  # A0-b-b eff. coupling^2, normalised to SM
#
    9.99241434E-01    0.00000000E+00        3  25   6   6  # h0-t-t eff. coupling^2, normalised to SM
    2.61659777E-02    0.00000000E+00        3  35   6   6  # H0-t-t eff. coupling^2, normalised to SM
    0.00000000E+00    2.54074119E-02        3  36   6   6  # A0-t-t eff. coupling^2, normalised to SM
#
    1.02985608E+00    0.00000000E+00        3  25  15  15  # h0-tau-tau eff. coupling^2, normalised to SM
    3.93287375E+01    0.00000000E+00        3  35  15  15  # H0-tau-tau eff. coupling^2, normalised to SM
    0.00000000E+00    3.93585936E+01        3  36  15  15  # A0-tau-tau eff. coupling^2, normalised to SM
#
Block HiggsBoundsInputHiggsCouplingsBosons
    9.99994419E-01        3  25  24  24  # h0-W-W eff. coupling^2, normalised to SM
    5.58107542E-06        3  35  24  24  # H0-W-W eff. coupling^2, normalised to SM
    0.00000000E+00        3  36  24  24  # A0-W-W eff. coupling^2, normalised to SM
#
    9.99994419E-01        3  25  23  23  # h0-Z-Z eff. coupling^2, normalised to SM
    5.58107542E-06        3  35  23  23  # H0-Z-Z eff. coupling^2, normalised to SM
    0.00000000E+00        3  36  23  23  # A0-Z-Z eff. coupling^2, normalised to SM
#
    8.78799156E-01        3  25  21  21  # h0-g-g eff. coupling^2, normalised to SM
    1.15487176E-05        3  35  21  21  # H0-g-g eff. coupling^2, normalised to SM
    3.25393978E-05        3  36  21  21  # A0-g-g eff. coupling^2, normalised to SM
#
    0.00000000E+00        3  25  25  23  # h0-h0-Z eff. coupling^2, normalised to SM
    0.00000000E+00        3  35  25  23  # H0-h0-Z eff. coupling^2, normalised to SM
    5.58107542E-06        3  36  25  23  # A0-h0-Z eff. coupling^2, normalised to SM
    0.00000000E+00        3  35  35  23  # H0-H0-Z eff. coupling^2, normalised to SM
    9.99994419E-01        3  36  35  23  # A0-H0-Z eff. coupling^2, normalised to SM
    0.00000000E+00        3  36  36  23  # A0-A0-Z eff. coupling^2, normalised to SM
#
    0.00000000E+00        4  25  21  21  23  # h0-g-g-Z eff. coupling^2, normalised to SM
    0.00000000E+00        4  35  21  21  23  # H0-g-g-Z eff. coupling^2, normalised to SM
    0.00000000E+00        4  36  21  21  23  # A0-g-g-Z eff. coupling^2, normalised to SM
#
#
#
#                             =================
#                             |The decay table|
#                             =================
#
# - The QCD corrections to the decays gluino -> squark  + quark
#                                     squark -> gaugino + quark_prime
#                                     squark -> squark_prime + Higgs
#                                     squark -> gluino  + quark
#   are included.
#
# - The multi-body decays for the inos, stops and sbottoms are included.
#
# - The loop induced decays for the gluino, neutralinos and stops
#   are included.
#
# - The SUSY decays of the top quark are included.
#
#
#         PDG            Width
DECAY         6     1.42927860E+00   # top decays
#          BR         NDA      ID1       ID2
     1.00000000E+00    2           5        24   # BR(t ->  b    W+)
#
#         PDG            Width
DECAY   1000021     4.18557622E+01   # gluino decays
#          BR         NDA      ID1       ID2
     1.06129981E-01    2     2000002        -2   # BR(~g -> ~u_R  ub)
     1.06129981E-01    2    -2000002         2   # BR(~g -> ~u_R* u )
     1.06129637E-01    2     2000004        -4   # BR(~g -> ~c_R  cb)
     1.06129637E-01    2    -2000004         4   # BR(~g -> ~c_R* c )
     2.87740381E-01    2     1000006        -6   # BR(~g -> ~t_1  tb)
     2.87740381E-01    2    -1000006         6   # BR(~g -> ~t_1* t )
#
#         PDG            Width
DECAY   1000006     9.37566677E-04   # stop1 decays
#          BR         NDA      ID1       ID2
     1.00000000E+00    2     1000024         5   # BR(~t_1 -> ~chi_1+ b )
#
#         PDG            Width
DECAY   2000006     1.74279150E+02   # stop2 decays
#          BR         NDA      ID1       ID2
     6.29819631E-02    2     1000022         6   # BR(~t_2 -> ~chi_10 t )
     6.55404193E-04    2     1000023         6   # BR(~t_2 -> ~chi_20 t )
     3.82594796E-03    2     1000025         6   # BR(~t_2 -> ~chi_30 t )
     4.18260256E-03    2     1000035         6   # BR(~t_2 -> ~chi_40 t )
     1.26986605E-01    2     1000024         5   # BR(~t_2 -> ~chi_1+ b )
     1.29474810E-04    2     1000037         5   # BR(~t_2 -> ~chi_2+ b )
     3.96692676E-01    2     1000021         6   # BR(~t_2 -> ~g      t )
     1.51231265E-01    2     1000006        25   # BR(~t_2 -> ~t_1    h )
     4.89948155E-02    2     1000006        35   # BR(~t_2 -> ~t_1    H )
     5.00859687E-02    2     1000006        36   # BR(~t_2 -> ~t_1    A )
     1.53415018E-01    2     1000006        23   # BR(~t_2 -> ~t_1    Z )
     8.18258785E-04    2     1000005        24   # BR(~t_2 -> ~b_1    W+)
#
#         PDG            Width
DECAY   1000005     1.73116274E+01   # sbottom1 decays
#          BR         NDA      ID1       ID2
     1.01917606E-04    2     1000022         5   # BR(~b_1 -> ~chi_10 b )
     9.99266845E-05    2     1000023         5   # BR(~b_1 -> ~chi_20 b )
     2.00786555E-04    2    -1000024         6   # BR(~b_1 -> ~chi_1- t )
     9.99214621E-01    2     1000021         5   # BR(~b_1 -> ~g      b )
     2.76094489E-04    2     1000006       -37   # BR(~b_1 -> ~t_1    H-)
     1.06653331E-04    2     1000006       -24   # BR(~b_1 -> ~t_1    W-)
#
#         PDG            Width
DECAY   2000005     1.74238985E+02   # sbottom2 decays
#          BR         NDA      ID1       ID2
     6.34426929E-02    2     1000022         5   # BR(~b_2 -> ~chi_10 b )
     5.03751398E-04    2     1000023         5   # BR(~b_2 -> ~chi_20 b )
     4.82297580E-05    2     1000025         5   # BR(~b_2 -> ~chi_30 b )
     4.96459428E-05    2     1000035         5   # BR(~b_2 -> ~chi_40 b )
     1.25844570E-01    2    -1000024         6   # BR(~b_2 -> ~chi_1- t )
     7.78637585E-03    2    -1000037         6   # BR(~b_2 -> ~chi_2- t )
     4.04848025E-01    2     1000021         5   # BR(~b_2 -> ~g      b )
     4.20792230E-04    2     1000005        25   # BR(~b_2 -> ~b_1    h )
     9.98319617E-02    2     1000006       -37   # BR(~b_2 -> ~t_1    H-)
     4.09013113E-04    2     1000005        23   # BR(~b_2 -> ~b_1    Z )
     2.96814942E-01    2     1000006       -24   # BR(~b_2 -> ~t_1    W-)
#
#         PDG            Width
DECAY   1000002     1.09255614E+02   # sup_L decays
#          BR         NDA      ID1       ID2
     9.18814582E-02    2     1000022         2   # BR(~u_L -> ~chi_10 u)
     6.10656839E-04    2     1000023         2   # BR(~u_L -> ~chi_20 u)
     6.54154814E-07    2     1000025         2   # BR(~u_L -> ~chi_30 u)
     5.08453717E-09    2     1000035         2   # BR(~u_L -> ~chi_40 u)
     1.83898341E-01    2     1000024         1   # BR(~u_L -> ~chi_1+ d)
     4.01541631E-08    2     1000037         1   # BR(~u_L -> ~chi_2+ d)
     7.23608845E-01    2     1000021         2   # BR(~u_L -> ~g      u)
#
#         PDG            Width
DECAY   2000002     1.08890003E-03   # sup_R decays
#           BR         NDA      ID1       ID2
     2.91379923E-06    2     1000022         2   # BR(~u_R -> ~chi_10 u)
#           BR         NDA      ID1       ID2       ID3
     2.52419867E-01    3        2       -6        1000006   # BR(~u_R -> u  tb  ~t_1)
     7.46349510E-01    3        2       6        -1000006   # BR(~u_R -> u  t  ~t_1*)
     2.38773068E-04    3        2       -11        1000011   # BR(~u_R -> u  e+  ~e_L-)
     6.05969313E-05    3        2       11        -1000011   # BR(~u_R -> u  e-  ~e_L+)
     1.45183209E-25    3        2       -11        2000011   # BR(~u_R -> u  e+  ~e_R-)
     4.38387353E-25    3        2       11        -2000011   # BR(~u_R -> u  e-  ~e_R+)
     2.47552570E-04    3        2       -12        1000012   # BR(~u_R -> u  nu_eb  ~nu_eL)
     6.37726131E-05    3        2       12        -1000012   # BR(~u_R -> u  nu_e  ~nu_eL*)
     2.42024055E-04    3        2       -13        1000013   # BR(~u_R -> u  mu+  ~mu_L-)
     6.08118270E-05    3        2       13        -1000013   # BR(~u_R -> u  mu-  ~mu_L+)
     2.49811731E-04    3        2       -14        1000014   # BR(~u_R -> u  nu_mub  ~nu_muL)
     6.28570102E-05    3        2       14        -1000014   # BR(~u_R -> u  nu_mu  ~nu_muL*)
     2.13261084E-07    3        2       23        1000022   # BR(~u_R -> u  Z  ~chi_10)
     2.04701988E-07    3        2       25        1000022   # BR(~u_R -> u  h  ~chi_10)
     6.21691601E-07    3        2       -24        1000024   # BR(~u_R -> u  W-  ~chi_1+)
     4.69611524E-07    3        2       24        -1000024   # BR(~u_R -> u  W+  ~chi_1-)
#
#         PDG            Width
DECAY   1000001     1.09320189E+02   # sdown_L decays
#          BR         NDA      ID1       ID2
     9.18653538E-02    2     1000022         1   # BR(~d_L -> ~chi_10 d)
     5.90190445E-04    2     1000023         1   # BR(~d_L -> ~chi_20 d)
     7.97393106E-07    2     1000025         1   # BR(~d_L -> ~chi_30 d)
     1.73854463E-06    2     1000035         1   # BR(~d_L -> ~chi_40 d)
     1.83574190E-01    2    -1000024         2   # BR(~d_L -> ~chi_1- u)
     4.79800400E-06    2    -1000037         2   # BR(~d_L -> ~chi_2- u)
     7.23962932E-01    2     1000021         1   # BR(~d_L -> ~g      d)
#
#         PDG            Width
DECAY   2000001     1.74534881E+01   # sdown_R decays
#          BR         NDA      ID1       ID2
     1.29327120E-10    2     1000022         1   # BR(~d_R -> ~chi_10 d)
     1.00000000E+00    2     1000021         1   # BR(~d_R -> ~g      d)
#
#         PDG            Width
DECAY   1000004     9.17750685E+01   # scharm_L decays
#          BR         NDA      ID1       ID2
     1.13869868E-01    2     1000022         4   # BR(~c_L -> ~chi_10 c)
     7.41017145E-04    2     1000023         4   # BR(~c_L -> ~chi_20 c)
     7.58635924E-07    2     1000025         4   # BR(~c_L -> ~chi_30 c)
     5.89285450E-09    2     1000035         4   # BR(~c_L -> ~chi_40 c)
     2.27907512E-01    2     1000024         3   # BR(~c_L -> ~chi_1+ s)
     4.65549449E-08    2     1000037         3   # BR(~c_L -> ~chi_2+ s)
     6.57480793E-01    2     1000021         4   # BR(~c_L -> ~g      c)
#
#         PDG            Width
DECAY   2000004     1.09254741E-03   # scharm_R decays
#           BR         NDA      ID1       ID2
     2.89871970E-06    2     1000022         4   # BR(~c_R -> ~chi_10 c)
#           BR         NDA      ID1       ID2       ID3
     2.53151487E-01    3        4       -6        1000006   # BR(~c_R -> c  tb  ~t_1)
     7.45624396E-01    3        4       6        -1000006   # BR(~c_R -> c  t  ~t_1*)
     2.36786064E-04    3        4       -11        1000011   # BR(~c_R -> c  e+  ~e_L-)
     5.98427122E-05    3        4       11        -1000011   # BR(~c_R -> c  e-  ~e_L+)
     2.46781054E-04    3        4       -12        1000012   # BR(~c_R -> c  nu_eb  ~nu_eL)
     6.33739091E-05    3        4       12        -1000012   # BR(~c_R -> c  nu_e  ~nu_eL*)
     2.36621311E-04    3        4       -13        1000013   # BR(~c_R -> c  mu+  ~mu_L-)
     6.11442576E-05    3        4       13        -1000013   # BR(~c_R -> c  mu-  ~mu_L+)
     2.52355182E-04    3        4       -14        1000014   # BR(~c_R -> c  nu_mub  ~nu_muL)
     6.28055127E-05    3        4       14        -1000014   # BR(~c_R -> c  nu_mu  ~nu_muL*)
     2.13208140E-07    3        4       23        1000022   # BR(~c_R -> c  Z  ~chi_10)
     2.04723382E-07    3        4       25        1000022   # BR(~c_R -> c  h  ~chi_10)
     6.21803682E-07    3        4       -24        1000024   # BR(~c_R -> c  W-  ~chi_1+)
     4.68940750E-07    3        4       24        -1000024   # BR(~c_R -> c  W+  ~chi_1-)
#
#         PDG            Width
DECAY   1000003     9.18184591E+01   # sstrange_L decays
#          BR         NDA      ID1       ID2
     1.13862711E-01    2     1000022         3   # BR(~s_L -> ~chi_10 s)
     7.16287242E-04    2     1000023         3   # BR(~s_L -> ~chi_20 s)
     9.25073127E-07    2     1000025         3   # BR(~s_L -> ~chi_30 s)
     2.01564015E-06    2     1000035         3   # BR(~s_L -> ~chi_40 s)
     2.27531146E-01    2    -1000024         4   # BR(~s_L -> ~chi_1- c)
     5.56432437E-06    2    -1000037         4   # BR(~s_L -> ~chi_2- c)
     6.57881351E-01    2     1000021         3   # BR(~s_L -> ~g      s)
#
#         PDG            Width
DECAY   2000003     1.33211926E+01   # sstrange_R decays
#          BR         NDA      ID1       ID2
     1.77411758E-10    2     1000022         3   # BR(~s_R -> ~chi_10 s)
     1.00000000E+00    2     1000021         3   # BR(~s_R -> ~g      s)
#
#         PDG            Width
DECAY   1000011     2.37051240E+00   # selectron_L decays
#          BR         NDA      ID1       ID2
     3.33739705E-01    2     1000022        11   # BR(~e_L -> ~chi_10 e-)
     6.66260295E-01    2    -1000024        12   # BR(~e_L -> ~chi_1- nu_e)
#
#         PDG            Width
DECAY   2000011     1.71679617E-05   # selectron_R decays
#           BR         NDA      ID1       ID2
     4.15046054E-04    2     1000022        11   # BR(~e_R -> ~chi_10 e-)
#           BR         NDA      ID1       ID2       ID3
     1.59523888E-01    3        11       -6        1000006   # BR(~e_R- -> e-  tb  ~t_1)
     6.64493562E-01    3        11       6        -1000006   # BR(~e_R- -> e-  t  ~t_1*)
     3.39393815E-02    3        11       -11        1000011   # BR(~e_R- -> e-  e+  ~e_L-)
     8.57585792E-03    3        11       11        -1000011   # BR(~e_R- -> e-  e-  ~e_L+)
     3.62145497E-02    3        11       -12        1000012   # BR(~e_R- -> e-  nu_eb  ~nu_eL)
     8.96728471E-03    3        11       12        -1000012   # BR(~e_R- -> e-  nu_e  ~nu_eL*)
     3.43849789E-02    3        11       -13        1000013   # BR(~e_R- -> e-  mu+  ~mu_L-)
     8.67254966E-03    3        11       13        -1000013   # BR(~e_R- -> e-  mu-  ~mu_L+)
     3.56658532E-02    3        11       -14        1000014   # BR(~e_R- -> e-  nu_mub  ~nu_muL)
     8.93350085E-03    3        11       14        -1000014   # BR(~e_R- -> e-  nu_mu  ~nu_muL*)
     2.93238073E-05    3        11       23        1000022   # BR(~e_R- -> e-  Z  ~chi_10)
     2.92247857E-05    3        11       25        1000022   # BR(~e_R- -> e-  h  ~chi_10)
     8.85311856E-05    3        11       -24        1000024   # BR(~e_R- -> e-  W-  ~chi_1+)
     6.64668307E-05    3        11       24        -1000024   # BR(~e_R- -> e-  W+  ~chi_1-)
#
#         PDG            Width
DECAY   1000013     2.37051231E+00   # smuon_L decays
#          BR         NDA      ID1       ID2
     3.33739679E-01    2     1000022        13   # BR(~mu_L -> ~chi_10 mu-)
     6.66260321E-01    2    -1000024        14   # BR(~mu_L -> ~chi_1- nu_mu)
#
#         PDG            Width
DECAY   2000013     1.70921345E-05   # smuon_R decays
#           BR         NDA      ID1       ID2
     4.16887343E-04    2     1000022        13   # BR(~mu_R -> ~chi_10 mu-)
#           BR         NDA      ID1       ID2       ID3
     1.59067318E-01    3        13       -6        1000006   # BR(~mu_R- -> mu-  tb  ~t_1)
     6.64516185E-01    3        13       6        -1000006   # BR(~mu_R- -> mu-  t  ~t_1*)
     3.40899494E-02    3        13       -11        1000011   # BR(~mu_R- -> mu-  e+  ~e_L-)
     8.71102436E-03    3        13       11        -1000011   # BR(~mu_R- -> mu-  e-  ~e_L+)
     3.63752111E-02    3        13       -12        1000012   # BR(~mu_R- -> mu-  nu_eb  ~nu_eL)
     9.00706697E-03    3        13       12        -1000012   # BR(~mu_R- -> mu-  nu_e  ~nu_eL*)
     3.39583099E-02    3        13       -13        1000013   # BR(~mu_R- -> mu-  mu+  ~mu_L-)
     8.72155552E-03    3        13       13        -1000013   # BR(~mu_R- -> mu-  mu-  ~mu_L+)
     3.59756121E-02    3        13       -14        1000014   # BR(~mu_R- -> mu-  nu_mub  ~nu_muL)
     8.94563520E-03    3        13       14        -1000014   # BR(~mu_R- -> mu-  nu_mu  ~nu_muL*)
     2.94538988E-05    3        13       23        1000022   # BR(~mu_R- -> mu-  Z  ~chi_10)
     2.92105120E-05    3        13       25        1000022   # BR(~mu_R- -> mu-  h  ~chi_10)
     8.89180927E-05    3        13       -24        1000024   # BR(~mu_R- -> mu-  W-  ~chi_1+)
     6.76627018E-05    3        13       24        -1000024   # BR(~mu_R- -> mu-  W+  ~chi_1-)
#
#         PDG            Width
DECAY   1000015     2.60830049E+01   # stau_1 decays
#          BR         NDA      ID1       ID2
     3.31879560E-01    2     1000022        15   # BR(~tau_1 -> ~chi_10  tau-)
     4.90613032E-03    2     1000023        15   # BR(~tau_1 -> ~chi_20  tau-)
     6.63214310E-01    2    -1000024        16   # BR(~tau_1 -> ~chi_1-  nu_tau)
#
#         PDG            Width
DECAY   2000015     9.43197325E+00   # stau_2 decays
#          BR         NDA      ID1       ID2
     1.02358569E-06    2     1000022        15   # BR(~tau_2 -> ~chi_10  tau-)
     9.59093335E-01    2     1000023        15   # BR(~tau_2 -> ~chi_20  tau-)
     4.48259496E-03    2     1000025        15   # BR(~tau_2 -> ~chi_30  tau-)
     8.47180426E-03    2     1000035        15   # BR(~tau_2 -> ~chi_40  tau-)
     2.03401500E-06    2    -1000024        16   # BR(~tau_2 -> ~chi_1-  nu_tau)
     8.92160936E-03    2    -1000037        16   # BR(~tau_2 -> ~chi_2-  nu_tau)
     1.11938732E-03    2     1000016       -37   # BR(~tau_2 -> ~nu_tauL H-)
     8.20819261E-03    2     1000016       -24   # BR(~tau_2 -> ~nu_tauL W-)
     4.36592259E-03    2     1000015        25   # BR(~tau_2 -> ~tau_1   h)
     5.66041377E-04    2     1000015        35   # BR(~tau_2 -> ~tau_1   H)
     5.60357429E-04    2     1000015        36   # BR(~tau_2 -> ~tau_1   A)
     4.20769744E-03    2     1000015        23   # BR(~tau_2 -> ~tau_1   Z)
#
#         PDG            Width
DECAY   1000012     2.32666225E+00   # snu_eL decays
#          BR         NDA      ID1       ID2
     3.33422135E-01    2     1000022        12   # BR(~nu_eL -> ~chi_10 nu_e)
     6.66577865E-01    2     1000024        11   # BR(~nu_eL -> ~chi_1+ e-)
#
#         PDG            Width
DECAY   1000014     2.32666207E+00   # snu_muL decays
#          BR         NDA      ID1       ID2
     3.33422161E-01    2     1000022        14   # BR(~nu_muL -> ~chi_10 nu_mu)
     6.66577839E-01    2     1000024        13   # BR(~nu_muL -> ~chi_1+ mu-)
#
#         PDG            Width
DECAY   1000016     2.60873961E+01   # snu_tauL decays
#          BR         NDA      ID1       ID2
     3.31588586E-01    2     1000022        16   # BR(~nu_tauL -> ~chi_10 nu_tau)
     4.79603920E-03    2     1000023        16   # BR(~nu_tauL -> ~chi_20 nu_tau)
     6.63615374E-01    2     1000024        15   # BR(~nu_tauL -> ~chi_1+ tau-)
#
#         PDG            Width
DECAY   1000024     3.52033530E-15   # chargino1+ decays
#           BR         NDA      ID1       ID2       ID3
     1.95813640E-02    3     1000022       -11        12   # BR(~chi_1+ -> ~chi_10 e+   nu_e)
     2.16443090E-03    3     1000022       -13        14   # BR(~chi_1+ -> ~chi_10 mu+  nu_mu)
     9.78254200E-01    2     1000022       211             # BR(~chi_1+ -> ~chi_10 pi+)
#
#         PDG            Width
DECAY   1000037     7.58504339E+01   # chargino2+ decays
#          BR         NDA      ID1       ID2
     6.35274840E-01    2     1000006        -5   # BR(~chi_2+ -> ~t_1     bb)
     6.66360421E-04    2    -1000005         6   # BR(~chi_2+ -> ~b_1*    t )
     1.48406807E-06    2     1000012       -11   # BR(~chi_2+ -> ~nu_eL   e+  )
     1.48406807E-06    2     1000014       -13   # BR(~chi_2+ -> ~nu_muL mu+ )
     3.43973588E-05    2     1000016       -15   # BR(~chi_2+ -> ~nu_tau1 tau+)
     1.75508618E-04    2    -1000011        12   # BR(~chi_2+ -> ~e_L+    nu_e)
     1.75508618E-04    2    -1000013        14   # BR(~chi_2+ -> ~mu_L+   nu_mu)
     5.11179348E-06    2    -1000015        16   # BR(~chi_2+ -> ~tau_1+  nu_tau)
     5.70652721E-02    2     1000024        23   # BR(~chi_2+ -> ~chi_1+  Z )
     5.54537291E-02    2     1000022        24   # BR(~chi_2+ -> ~chi_10  W+)
     1.91113950E-02    2     1000023        24   # BR(~chi_2+ -> ~chi_20  W+)
     6.14956054E-02    2     1000024        25   # BR(~chi_2+ -> ~chi_1+  h )
     5.69235133E-02    2     1000024        35   # BR(~chi_2+ -> ~chi_1+  H )
     5.68142381E-02    2     1000024        36   # BR(~chi_2+ -> ~chi_1+  A )
     5.68015519E-02    2     1000022        37   # BR(~chi_2+ -> ~chi_10  H+)
#
#         PDG            Width
DECAY   1000022     0.00000000E+00   # neutralino1 decays
#
#         PDG            Width
DECAY   1000023     4.55364011E+01   # neutralino2 decays
#          BR         NDA      ID1       ID2
     2.25691368E-04    2     1000022        23   # BR(~chi_20 -> ~chi_10   Z )
     3.97470440E-04    2     1000024       -24   # BR(~chi_20 -> ~chi_1+   W-)
     3.97470440E-04    2    -1000024        24   # BR(~chi_20 -> ~chi_1-   W+)
     1.82257321E-04    2     1000022        25   # BR(~chi_20 -> ~chi_10   h )
     5.66730707E-05    2     1000022        35   # BR(~chi_20 -> ~chi_10   H )
     6.41106024E-04    2     1000022        36   # BR(~chi_20 -> ~chi_10   A )
     6.95796241E-04    2     1000024       -37   # BR(~chi_20 -> ~chi_1+   H-)
     6.95796241E-04    2    -1000024        37   # BR(~chi_20 -> ~chi_1-   H+)
     7.62820821E-02    2     2000002        -2   # BR(~chi_20 -> ~u_R      ub)
     7.62820821E-02    2    -2000002         2   # BR(~chi_20 -> ~u_R*     u )
     2.51187758E-05    2     2000001        -1   # BR(~chi_20 -> ~d_R      db)
     2.51187758E-05    2    -2000001         1   # BR(~chi_20 -> ~d_R*     d )
     7.62820267E-02    2     2000004        -4   # BR(~chi_20 -> ~c_R      cb)
     7.62820267E-02    2    -2000004         4   # BR(~chi_20 -> ~c_R*     c )
     2.51187758E-05    2     2000003        -3   # BR(~chi_20 -> ~s _R      sb)
     2.51187758E-05    2    -2000003         3   # BR(~chi_20 -> ~s _R*     s )
     1.40276899E-01    2     1000006        -6   # BR(~chi_20 -> ~t_1      tb)
     1.40276899E-01    2    -1000006         6   # BR(~chi_20 -> ~t_1*     t )
     2.17324190E-02    2     1000011       -11   # BR(~chi_20 -> ~e_L-     e+)
     2.17324190E-02    2    -1000011        11   # BR(~chi_20 -> ~e_L+     e-)
     5.94578394E-02    2     2000011       -11   # BR(~chi_20 -> ~e_R-     e+)
     5.94578394E-02    2    -2000011        11   # BR(~chi_20 -> ~e_R+     e-)
     2.17324190E-02    2     1000013       -13   # BR(~chi_20 -> ~mu_L-    mu+)
     2.17324190E-02    2    -1000013        13   # BR(~chi_20 -> ~mu_L+    mu-)
     5.94578394E-02    2     2000013       -13   # BR(~chi_20 -> ~mu_R-    mu+)
     5.94578394E-02    2    -2000013        13   # BR(~chi_20 -> ~mu_R+    mu-)
     2.15410538E-02    2     1000012       -12   # BR(~chi_20 -> ~nu_eL    nu_eb)
     2.15410538E-02    2    -1000012        12   # BR(~chi_20 -> ~nu_eL*   nu_e )
     2.15410538E-02    2     1000014       -14   # BR(~chi_20 -> ~nu_muL   nu_mub)
     2.15410538E-02    2    -1000014        14   # BR(~chi_20 -> ~nu_muL*  nu_mu )
#
#         PDG            Width
DECAY   1000025     7.50318069E+01   # neutralino3 decays
#          BR         NDA      ID1       ID2
     2.36147562E-02    2     1000022        23   # BR(~chi_30 -> ~chi_10   Z )
     1.93750758E-02    2     1000023        23   # BR(~chi_30 -> ~chi_20   Z )
     5.61723289E-02    2     1000024       -24   # BR(~chi_30 -> ~chi_1+   W-)
     5.61723289E-02    2    -1000024        24   # BR(~chi_30 -> ~chi_1-   W+)
     3.79336000E-02    2     1000022        25   # BR(~chi_30 -> ~chi_10   h )
     5.06896359E-02    2     1000022        35   # BR(~chi_30 -> ~chi_10   H )
     6.74220504E-03    2     1000022        36   # BR(~chi_30 -> ~chi_10   A )
     6.98651797E-05    2     1000023        25   # BR(~chi_30 -> ~chi_20   h )
     5.72696208E-02    2     1000024       -37   # BR(~chi_30 -> ~chi_1+   H-)
     5.72696208E-02    2    -1000024        37   # BR(~chi_30 -> ~chi_1-   H+)
     2.18243842E-06    2     2000002        -2   # BR(~chi_30 -> ~u_R      ub)
     2.18243842E-06    2    -2000002         2   # BR(~chi_30 -> ~u_R*     u )
     1.01545613E-07    2     2000001        -1   # BR(~chi_30 -> ~d_R      db)
     1.01545613E-07    2    -2000001         1   # BR(~chi_30 -> ~d_R*     d )
     2.18243786E-06    2     2000004        -4   # BR(~chi_30 -> ~c_R      cb)
     2.18243786E-06    2    -2000004         4   # BR(~chi_30 -> ~c_R*     c )
     1.01545613E-07    2     2000003        -3   # BR(~chi_30 -> ~s _R      sb)
     1.01545613E-07    2    -2000003         3   # BR(~chi_30 -> ~s _R*     s )
     3.16880535E-01    2     1000006        -6   # BR(~chi_30 -> ~t_1      tb)
     3.16880535E-01    2    -1000006         6   # BR(~chi_30 -> ~t_1*     t )
     3.30251280E-04    2     1000005        -5   # BR(~chi_30 -> ~b_1      bb)
     3.30251280E-04    2    -1000005         5   # BR(~chi_30 -> ~b_1*     b )
     1.94826492E-05    2     1000011       -11   # BR(~chi_30 -> ~e_L-     e+)
     1.94826492E-05    2    -1000011        11   # BR(~chi_30 -> ~e_L+     e-)
     1.69939201E-06    2     2000011       -11   # BR(~chi_30 -> ~e_R-     e+)
     1.69939201E-06    2    -2000011        11   # BR(~chi_30 -> ~e_R+     e-)
     1.94826492E-05    2     1000013       -13   # BR(~chi_30 -> ~mu_L-    mu+)
     1.94826492E-05    2    -1000013        13   # BR(~chi_30 -> ~mu_L+    mu-)
     1.69939201E-06    2     2000013       -13   # BR(~chi_30 -> ~mu_R-    mu+)
     1.69939201E-06    2    -2000013        13   # BR(~chi_30 -> ~mu_R+    mu-)
     1.75351699E-05    2     1000015       -15   # BR(~chi_30 -> ~tau_1-   tau+)
     1.75351699E-05    2    -1000015        15   # BR(~chi_30 -> ~tau_1+   tau-)
     3.46013460E-05    2     1000012       -12   # BR(~chi_30 -> ~nu_eL    nu_eb)
     3.46013460E-05    2    -1000012        12   # BR(~chi_30 -> ~nu_eL*   nu_e )
     3.46013460E-05    2     1000014       -14   # BR(~chi_30 -> ~nu_muL   nu_mub)
     3.46013460E-05    2    -1000014        14   # BR(~chi_30 -> ~nu_muL*  nu_mu )
     1.02472131E-06    2     1000016       -16   # BR(~chi_30 -> ~nu_tau1  nu_taub)
     1.02472131E-06    2    -1000016        16   # BR(~chi_30 -> ~nu_tau1* nu_tau )
#
#         PDG            Width
DECAY   1000035     7.51150159E+01   # neutralino4 decays
#          BR         NDA      ID1       ID2
     3.39199939E-02    2     1000022        23   # BR(~chi_40 -> ~chi_10   Z )
     8.62778006E-05    2     1000023        23   # BR(~chi_40 -> ~chi_20   Z )
     5.57255130E-02    2     1000024       -24   # BR(~chi_40 -> ~chi_1+   W-)
     5.57255130E-02    2    -1000024        24   # BR(~chi_40 -> ~chi_1-   W+)
     2.41269978E-02    2     1000022        25   # BR(~chi_40 -> ~chi_10   h )
     6.64161124E-03    2     1000022        35   # BR(~chi_40 -> ~chi_10   H )
     5.00378843E-02    2     1000022        36   # BR(~chi_40 -> ~chi_10   A )
     1.56150023E-02    2     1000023        25   # BR(~chi_40 -> ~chi_20   h )
     5.67057331E-02    2     1000024       -37   # BR(~chi_40 -> ~chi_1+   H-)
     5.67057331E-02    2    -1000024        37   # BR(~chi_40 -> ~chi_1-   H+)
     5.36086802E-04    2     2000002        -2   # BR(~chi_40 -> ~u_R      ub)
     5.36086802E-04    2    -2000002         2   # BR(~chi_40 -> ~u_R*     u )
     2.51133276E-05    2     2000001        -1   # BR(~chi_40 -> ~d_R      db)
     2.51133276E-05    2    -2000001         1   # BR(~chi_40 -> ~d_R*     d )
     5.36086665E-04    2     2000004        -4   # BR(~chi_40 -> ~c_R      cb)
     5.36086665E-04    2    -2000004         4   # BR(~chi_40 -> ~c_R*     c )
     2.51133276E-05    2     2000003        -3   # BR(~chi_40 -> ~s _R      sb)
     2.51133276E-05    2    -2000003         3   # BR(~chi_40 -> ~s _R*     s )
     3.19426038E-01    2     1000006        -6   # BR(~chi_40 -> ~t_1      tb)
     3.19426038E-01    2    -1000006         6   # BR(~chi_40 -> ~t_1*     t )
     3.46566903E-04    2     1000005        -5   # BR(~chi_40 -> ~b_1      bb)
     3.46566903E-04    2    -1000005         5   # BR(~chi_40 -> ~b_1*     b )
     5.18513131E-05    2     1000011       -11   # BR(~chi_40 -> ~e_L-     e+)
     5.18513131E-05    2    -1000011        11   # BR(~chi_40 -> ~e_L+     e-)
     4.17428556E-04    2     2000011       -11   # BR(~chi_40 -> ~e_R-     e+)
     4.17428556E-04    2    -2000011        11   # BR(~chi_40 -> ~e_R+     e-)
     5.18513131E-05    2     1000013       -13   # BR(~chi_40 -> ~mu_L-    mu+)
     5.18513131E-05    2    -1000013        13   # BR(~chi_40 -> ~mu_L+    mu-)
     4.17428556E-04    2     2000013       -13   # BR(~chi_40 -> ~mu_R-    mu+)
     4.17428556E-04    2    -2000013        13   # BR(~chi_40 -> ~mu_R+    mu-)
     1.87694693E-05    2     1000015       -15   # BR(~chi_40 -> ~tau_1-   tau+)
     1.87694693E-05    2    -1000015        15   # BR(~chi_40 -> ~tau_1+   tau-)
     2.47521253E-04    2     1000012       -12   # BR(~chi_40 -> ~nu_eL    nu_eb)
     2.47521253E-04    2    -1000012        12   # BR(~chi_40 -> ~nu_eL*   nu_e )
     2.47521253E-04    2     1000014       -14   # BR(~chi_40 -> ~nu_muL   nu_mub)
     2.47521253E-04    2    -1000014        14   # BR(~chi_40 -> ~nu_muL*  nu_mu )
     7.49335644E-06    2     1000016       -16   # BR(~chi_40 -> ~nu_tau1  nu_taub)
     7.49335644E-06    2    -1000016        16   # BR(~chi_40 -> ~nu_tau1* nu_tau )
#
#         PDG            Width
DECAY        25     4.19060724E-03   # h decays
#          BR         NDA      ID1       ID2
     6.15384036E-01    2           5        -5   # BR(h -> b       bb     )
     6.35001212E-02    2         -15        15   # BR(h -> tau+    tau-   )
     2.24809688E-04    2         -13        13   # BR(h -> mu+     mu-    )
     2.44957204E-04    2           3        -3   # BR(h -> s       sb     )
     2.06555074E-02    2           4        -4   # BR(h -> c       cb     )
     7.53727267E-02    2          21        21   # BR(h -> g       g      )
     2.23369501E-03    2          22        22   # BR(h -> gam     gam    )
     1.46561051E-03    2          22        23   # BR(h -> Z       gam    )
     1.96468404E-01    2          24       -24   # BR(h -> W+      W-     )
     2.44501323E-02    2          23        23   # BR(h -> Z       Z      )
#
#         PDG            Width
DECAY        35     1.97446762E+00   # H decays
#          BR         NDA      ID1       ID2
     2.91679066E-01    2           5        -5   # BR(H -> b       bb     )
     4.79395647E-02    2         -15        15   # BR(H -> tau+    tau-   )
     1.71643170E-04    2         -13        13   # BR(H -> mu+     mu-    )
     1.09139311E-04    2           3        -3   # BR(H -> s       sb     )
     7.16493945E-06    2           4        -4   # BR(H -> c       cb     )
     6.51551188E-01    2           6        -6   # BR(H -> t       tb     )
     8.46887404E-04    2          21        21   # BR(H -> g       g      )
     2.59535874E-06    2          22        22   # BR(H -> gam     gam    )
     8.76157814E-07    2          23        22   # BR(H -> Z       gam    )
     1.34866453E-03    2          24       -24   # BR(H -> W+      W-     )
     6.67850512E-04    2          23        23   # BR(H -> Z       Z      )
     5.67535999E-03    2          25        25   # BR(H -> h       h      )
#
#         PDG            Width
DECAY        36     2.01775726E+00   # A decays
#          BR         NDA      ID1       ID2
     2.85877786E-01    2           5        -5   # BR(A -> b       bb     )
     4.69527649E-02    2         -15        15   # BR(A -> tau+    tau-   )
     1.68107632E-04    2         -13        13   # BR(A -> mu+     mu-    )
     1.07088314E-04    2           3        -3   # BR(A -> s       sb     )
     6.87098048E-06    2           4        -4   # BR(A -> c       cb     )
     6.64178394E-01    2           6        -6   # BR(A -> t       tb     )
     1.39434298E-03    2          21        21   # BR(A -> g       g      )
     3.71803322E-06    2          22        22   # BR(A -> gam     gam    )
     1.35290388E-06    2          23        22   # BR(A -> Z       gam    )
     1.30957507E-03    2          23        25   # BR(A -> Z       h      )
#
#         PDG            Width
DECAY        37     1.93683845E+00   # H+ decays
#          BR         NDA      ID1       ID2
     4.69074712E-04    2           4        -5   # BR(H+ -> c       bb     )
     4.90293597E-02    2         -15        16   # BR(H+ -> tau+    nu_tau )
     1.75542578E-04    2         -13        14   # BR(H+ -> mu+     nu_mu  )
     4.69059782E-06    2           2        -5   # BR(H+ -> u       bb     )
     5.56665737E-06    2           2        -3   # BR(H+ -> u       sb     )
     1.16427659E-04    2           4        -3   # BR(H+ -> c       sb     )
     9.48819053E-01    2           6        -5   # BR(H+ -> t       bb     )
     1.38028452E-03    2          24        25   # BR(H+ -> W+      h      )
     9.81309607E-11    2          24        36   # BR(H+ -> W+      A      )
