#
#                              ======================
#                              | THE SUSYHIT OUTPUT |
#                              ======================
#
#
#              ------------------------------------------------------
#              |     This is the output of the SUSY-HIT package     |
#              |  created by A.Djouadi, M.Muehlleitner and M.Spira. |
#              |  In case of problems with SUSY-HIT email to        |
#              |           margarete.muehlleitner@cern.ch           |
#              |           michael.spira@psi.ch                     |
#              |           abdelhak.djouadi@cern.ch                 |
#              ------------------------------------------------------
#
#              ------------------------------------------------------
#              |  SUSY Les Houches Accord - MSSM Spectrum + Decays  |
#              |              based on the decay programs           |
#              |                                                    |
#              |                     SDECAY 1.3b                    |
#              |                                                    |
#              |  Authors: M.Muhlleitner, A.Djouadi and Y.Mambrini  |
#              |  Ref.:    Comput.Phys.Commun.168(2005)46           |
#              |           [hep-ph/0311167]                         |
#              |                                                    |
#              |                     HDECAY 3.4                     |
#              |                                                    |
#              |  By: A.Djouadi,J.Kalinowski,M.Muhlleitner,M.Spira  |
#              |  Ref.:    Comput.Phys.Commun.108(1998)56           |
#              |           [hep-ph/9704448]                         |
#              |                                                    |
#              |                                                    |
#              |  If not stated otherwise all DRbar couplings and   |
#              |  soft SUSY breaking masses are given at the scale  |
#              |  Q=  0.15534150E+04
#              |                                                    |
#              ------------------------------------------------------
#
#
BLOCK DCINFO  # Decay Program information
     1   SDECAY/HDECAY # decay calculator
     2   1.3b  /3.4    # version number
#
BLOCK SPINFO  # Spectrum calculator information
     1     SOFTSUSY    # spectrum calculator               
     2     3.4.0       # version number                    
#
BLOCK MODSEL  # Model selection
     1     0   #  nonUniversal                                     
#
BLOCK SMINPUTS  # Standard Model inputs
         1     1.27908970E+02   # alpha_em^-1(M_Z)^MSbar
         2     1.16637870E-05   # G_F [GeV^-2]
         3     1.18400000E-01   # alpha_S(M_Z)^MSbar
         4     9.11876000E+01   # M_Z pole mass
         5     4.18000000E+00   # mb(mb)^MSbar
         6     1.73200000E+02   # mt pole mass
         7     1.77700000E+00   # mtau pole mass
#
BLOCK MINPAR  # Input parameters - minimal models
         3     8.42000000E+00   # tanb                
#
BLOCK EXTPAR  # Input parameters - non-minimal models
         0    -1.00000000E+00   # Set                 
         1     3.74608000E+03   # M_1(MX)             
         2    -2.49190000E+02   # M_2(MX)             
         3     1.16584000E+03   # M_3(MX)             
        11     2.32899000E+03   # At(MX)              
        12     2.81858000E+03   # Ab(MX)              
        13    -1.89187000E+03   # Atau(MX)            
        23    -3.53470000E+03   # mu(MX)              
        26     2.06996000E+03   # mA(pole)            
        31     2.48061000E+03   # meL(MX)             
        32     2.48061000E+03   # mmuL(MX)            
        33     2.16668000E+03   # mtauL(MX)           
        34     1.63773000E+03   # meR(MX)             
        35     1.63773000E+03   # mmuR(MX)            
        36     4.65910000E+02   # mtauR(MX)           
        41     3.32938000E+03   # mqL1(MX)            
        42     3.32938000E+03   # mqL2(MX)            
        43     1.87179000E+03   # mqL3(MX)            
        44     2.09172000E+03   # muR(MX)             
        45     2.09172000E+03   # mcR(MX)             
        46     1.29620000E+03   # mtR(MX)             
        47     3.71153000E+03   # mdR(MX)             
        48     3.71153000E+03   # msR(MX)             
        49     7.49530000E+02   # mbR(MX)             
#
BLOCK MASS  # Mass Spectrum
# PDG code           mass       particle
        24     8.04087735E+01   # W+
        25     1.25514180E+02   # h
        35     2.06906064E+03   # H
        36     2.06996003E+03   # A
        37     2.07144232E+03   # H+
         5     4.81876030E+00   # b-quark pole mass calculated from mb(mb)_Msbar
   1000001     3.36410086E+03   # ~d_L
   2000001     3.74323971E+03   # ~d_R
   1000002     3.36331055E+03   # ~u_L
   2000002     2.11369606E+03   # ~u_R
   1000003     3.36410086E+03   # ~s_L
   2000003     3.74323971E+03   # ~s_R
   1000004     3.36331055E+03   # ~c_L
   2000004     2.11369606E+03   # ~c_R
   1000005     8.18377335E+02   # ~b_1
   2000005     1.86450302E+03   # ~b_2
   1000006     1.23848113E+03   # ~t_1
   2000006     1.88911770E+03   # ~t_2
   1000011     2.48168383E+03   # ~e_L
   2000011     1.64272073E+03   # ~e_R
   1000012     2.48011554E+03   # ~nu_eL
   1000013     2.48168383E+03   # ~mu_L
   2000013     1.64272073E+03   # ~mu_R
   1000014     2.48011554E+03   # ~nu_muL
   1000015     4.64197171E+02   # ~tau_1
   2000015     2.16618565E+03   # ~tau_2
   1000016     2.16431864E+03   # ~nu_tauL
   1000021     1.33282185E+03   # ~g
   1000022    -2.68282056E+02   # ~chi_10
   1000023     3.55392293E+03   # ~chi_20
   1000025    -3.55937507E+03   # ~chi_30
   1000035     3.73358216E+03   # ~chi_40
   1000024     2.68443462E+02   # ~chi_1+
   1000037     3.56006329E+03   # ~chi_2+
#
BLOCK NMIX  # Neutralino Mixing Matrix
  1  1     9.33617717E-05   # N_11
  1  2     9.99745654E-01   # N_12
  1  3     2.20777380E-02   # N_13
  1  4    -4.60341578E-03   # N_14
  2  1    -1.28795855E-01   # N_21
  2  2    -1.22527461E-02   # N_22
  2  3     7.01512055E-01   # N_23
  2  4     7.00815479E-01   # N_24
  3  1     4.84996138E-03   # N_31
  3  2    -1.88668628E-02   # N_32
  3  3     7.06902018E-01   # N_33
  3  4    -7.07043178E-01   # N_34
  4  1     9.91659264E-01   # N_41
  4  2    -1.59322606E-03   # N_42
  4  3     8.76524219E-02   # N_43
  4  4     9.44797211E-02   # N_44
#
BLOCK UMIX  # Chargino Mixing Matrix U
  1  1     9.99512626E-01   # U_11
  1  2     3.12171512E-02   # U_12
  2  1    -3.12171512E-02   # U_21
  2  2     9.99512626E-01   # U_22
#
BLOCK VMIX  # Chargino Mixing Matrix V
  1  1    -9.99978779E-01   # V_11
  1  2    -6.51476407E-03   # V_12
  2  1     6.51476407E-03   # V_21
  2  2    -9.99978779E-01   # V_22
#
BLOCK STOPMIX  # Stop Mixing Matrix
  1  1    -1.93981704E-01   # cos(theta_t)
  1  2     9.81005147E-01   # sin(theta_t)
  2  1    -9.81005147E-01   # -sin(theta_t)
  2  2    -1.93981704E-01   # cos(theta_t)
#
BLOCK SBOTMIX  # Sbottom Mixing Matrix
  1  1    -3.46124248E-02   # cos(theta_b)
  1  2     9.99400811E-01   # sin(theta_b)
  2  1    -9.99400811E-01   # -sin(theta_b)
  2  2    -3.46124248E-02   # cos(theta_b)
#
BLOCK STAUMIX  # Stau Mixing Matrix
  1  1    -1.07006608E-02   # cos(theta_tau)
  1  2     9.99942746E-01   # sin(theta_tau)
  2  1    -9.99942746E-01   # -sin(theta_tau)
  2  2    -1.07006608E-02   # cos(theta_tau)
#
BLOCK ALPHA  # Higgs mixing
          -1.23721353E-01   # Mixing angle in the neutral Higgs boson sector
#
BLOCK HMIX Q=  1.55341500E+03  # DRbar Higgs Parameters
         1    -3.58422781E+03   # mu(Q)MSSM           
         2     8.07307428E+00   # tan                 
         3     2.43984699E+02   # higgs               
         4     4.43584530E+06   # mA^2(Q)MSSM         
#
BLOCK GAUGE Q=  1.55341500E+03  # The gauge couplings
     1     3.62823944E-01   # gprime(Q) DRbar
     2     6.38877193E-01   # g(Q) DRbar
     3     1.03965880E+00   # g3(Q) DRbar
#
BLOCK AU Q=  1.55341500E+03  # The trilinear couplings
  1  1     0.00000000E+00   # A_u(Q) DRbar
  2  2     0.00000000E+00   # A_c(Q) DRbar
  3  3     2.32899000E+03   # A_t(Q) DRbar
#
BLOCK AD Q=  1.55341500E+03  # The trilinear couplings
  1  1     0.00000000E+00   # A_d(Q) DRbar
  2  2     0.00000000E+00   # A_s(Q) DRbar
  3  3     2.81858000E+03   # A_b(Q) DRbar
#
BLOCK AE Q=  1.55341500E+03  # The trilinear couplings
  1  1     0.00000000E+00   # A_e(Q) DRbar
  2  2     0.00000000E+00   # A_mu(Q) DRbar
  3  3    -1.89187000E+03   # A_tau(Q) DRbar
#
BLOCK Yu Q=  1.55341500E+03  # The Yukawa couplings
  1  1     0.00000000E+00   # y_u(Q) DRbar
  2  2     0.00000000E+00   # y_c(Q) DRbar
  3  3     8.65436502E-01   # y_t(Q) DRbar
#
BLOCK Yd Q=  1.55341500E+03  # The Yukawa couplings
  1  1     0.00000000E+00   # y_d(Q) DRbar
  2  2     0.00000000E+00   # y_s(Q) DRbar
  3  3     1.46593246E-01   # y_b(Q) DRbar
#
BLOCK Ye Q=  1.55341500E+03  # The Yukawa couplings
  1  1     0.00000000E+00   # y_e(Q) DRbar
  2  2     0.00000000E+00   # y_mu(Q) DRbar
  3  3     8.37969203E-02   # y_tau(Q) DRbar
#
BLOCK MSOFT Q=  1.55341500E+03  # The soft SUSY breaking masses at the scale Q
         1     3.74608000E+03   # M_1(Q)              
         2    -2.49190000E+02   # M_2(Q)              
         3     1.16584000E+03   # M_3(Q)              
        21    -8.51387165E+06   # mH1^2(Q)            
        22    -1.26564117E+07   # mH2^2(Q)            
        31     2.48061000E+03   # meL(Q)              
        32     2.48061000E+03   # mmuL(Q)             
        33     2.16668000E+03   # mtauL(Q)            
        34     1.63773000E+03   # meR(Q)              
        35     1.63773000E+03   # mmuR(Q)             
        36     4.65910000E+02   # mtauR(Q)            
        41     3.32938000E+03   # mqL1(Q)             
        42     3.32938000E+03   # mqL2(Q)             
        43     1.87179000E+03   # mqL3(Q)             
        44     2.09172000E+03   # muR(Q)              
        45     2.09172000E+03   # mcR(Q)              
        46     1.29620000E+03   # mtR(Q)              
        47     3.71153000E+03   # mdR(Q)              
        48     3.71153000E+03   # msR(Q)              
        49     7.49529998E+02   # mbR(Q)              
#
Block HiggsBoundsInputHiggsCouplingsFermions
# ScalarNormEffCoupSq PseudoSNormEffCoupSq NP   IP1 IP2 IP2
    1.00777396E+00    0.00000000E+00        3  25   5   5  # h0-b-b eff. coupling^2, normalised to SM
    6.51667544E+01    0.00000000E+00        3  35   5   5  # H0-b-b eff. coupling^2, normalised to SM
    0.00000000E+00    6.51745283E+01        3  36   5   5  # A0-b-b eff. coupling^2, normalised to SM
#
    9.99880721E-01    0.00000000E+00        3  25   6   6  # h0-t-t eff. coupling^2, normalised to SM
    1.54626967E-02    0.00000000E+00        3  35   6   6  # H0-t-t eff. coupling^2, normalised to SM
    0.00000000E+00    1.53434175E-02        3  36   6   6  # A0-t-t eff. coupling^2, normalised to SM
#
    1.00777396E+00    0.00000000E+00        3  25  15  15  # h0-tau-tau eff. coupling^2, normalised to SM
    6.51667544E+01    0.00000000E+00        3  35  15  15  # H0-tau-tau eff. coupling^2, normalised to SM
    0.00000000E+00    6.51745283E+01        3  36  15  15  # A0-tau-tau eff. coupling^2, normalised to SM
#
Block HiggsBoundsInputHiggsCouplingsBosons
    9.99999769E-01        3  25  24  24  # h0-W-W eff. coupling^2, normalised to SM
    2.30934868E-07        3  35  24  24  # H0-W-W eff. coupling^2, normalised to SM
    0.00000000E+00        3  36  24  24  # A0-W-W eff. coupling^2, normalised to SM
#
    9.99999769E-01        3  25  23  23  # h0-Z-Z eff. coupling^2, normalised to SM
    2.30934868E-07        3  35  23  23  # H0-Z-Z eff. coupling^2, normalised to SM
    0.00000000E+00        3  36  23  23  # A0-Z-Z eff. coupling^2, normalised to SM
#
    8.76257286E-01        3  25  21  21  # h0-g-g eff. coupling^2, normalised to SM
    7.43440710E-11        3  35  21  21  # H0-g-g eff. coupling^2, normalised to SM
    1.96667905E-10        3  36  21  21  # A0-g-g eff. coupling^2, normalised to SM
#
    0.00000000E+00        3  25  25  23  # h0-h0-Z eff. coupling^2, normalised to SM
    0.00000000E+00        3  35  25  23  # H0-h0-Z eff. coupling^2, normalised to SM
    2.30934868E-07        3  36  25  23  # A0-h0-Z eff. coupling^2, normalised to SM
    0.00000000E+00        3  35  35  23  # H0-H0-Z eff. coupling^2, normalised to SM
    9.99999769E-01        3  36  35  23  # A0-H0-Z eff. coupling^2, normalised to SM
    0.00000000E+00        3  36  36  23  # A0-A0-Z eff. coupling^2, normalised to SM
#
    0.00000000E+00        4  25  21  21  23  # h0-g-g-Z eff. coupling^2, normalised to SM
    0.00000000E+00        4  35  21  21  23  # H0-g-g-Z eff. coupling^2, normalised to SM
    0.00000000E+00        4  36  21  21  23  # A0-g-g-Z eff. coupling^2, normalised to SM
#
#
#
#                             =================
#                             |The decay table|
#                             =================
#
# - The QCD corrections to the decays gluino -> squark  + quark
#                                     squark -> gaugino + quark_prime
#                                     squark -> squark_prime + Higgs
#                                     squark -> gluino  + quark
#   are included.
#
# - The multi-body decays for the inos, stops and sbottoms are included.
#
# - The loop induced decays for the gluino, neutralinos and stops
#   are included.
#
# - The SUSY decays of the top quark are included.
#
#
#         PDG            Width
DECAY         6     1.43665138E+00   # top decays
#          BR         NDA      ID1       ID2
     1.00000000E+00    2           5        24   # BR(t ->  b    W+)
#
#         PDG            Width
DECAY   1000021     1.15709968E+01   # gluino decays
#          BR         NDA      ID1       ID2
     5.00000000E-01    2     1000005        -5   # BR(~g -> ~b_1  bb)
     5.00000000E-01    2    -1000005         5   # BR(~g -> ~b_1* b )
#
#         PDG            Width
DECAY   1000006     5.63399984E-01   # stop1 decays
#          BR         NDA      ID1       ID2
     3.18222537E-01    2     1000022         6   # BR(~t_1 -> ~chi_10 t )
     6.65678356E-01    2     1000024         5   # BR(~t_1 -> ~chi_1+ b )
     1.60991062E-02    2     1000005        24   # BR(~t_1 -> ~b_1    W+)
#
#         PDG            Width
DECAY   2000006     8.01843808E+01   # stop2 decays
#          BR         NDA      ID1       ID2
     8.64601829E-02    2     1000022         6   # BR(~t_2 -> ~chi_10 t )
     1.76130551E-01    2     1000024         5   # BR(~t_2 -> ~chi_1+ b )
     3.49652960E-01    2     1000021         6   # BR(~t_2 -> ~g      t )
     1.78757386E-01    2     1000006        25   # BR(~t_2 -> ~t_1    h )
     1.76686882E-01    2     1000006        23   # BR(~t_2 -> ~t_1    Z )
     3.23120380E-02    2     1000005        24   # BR(~t_2 -> ~b_1    W+)
#
#         PDG            Width
DECAY   1000005     1.28080395E-02   # sbottom1 decays
#          BR         NDA      ID1       ID2
     3.60404023E-01    2     1000022         5   # BR(~b_1 -> ~chi_10 b )
     6.39595977E-01    2    -1000024         6   # BR(~b_1 -> ~chi_1- t )
#
#         PDG            Width
DECAY   2000005     7.57309864E+01   # sbottom2 decays
#          BR         NDA      ID1       ID2
     9.56513869E-02    2     1000022         5   # BR(~b_2 -> ~chi_10 b )
     1.87702547E-01    2    -1000024         6   # BR(~b_2 -> ~chi_1- t )
     3.37750858E-01    2     1000021         5   # BR(~b_2 -> ~g      b )
     1.83233176E-02    2     1000005        25   # BR(~b_2 -> ~b_1    h )
     1.71731584E-02    2     1000005        23   # BR(~b_2 -> ~b_1    Z )
     3.43398732E-01    2     1000006       -24   # BR(~b_2 -> ~t_1    W-)
#
#         PDG            Width
DECAY   1000002     2.00964719E+02   # sup_L decays
#          BR         NDA      ID1       ID2
     6.48067522E-02    2     1000022         2   # BR(~u_L -> ~chi_10 u)
     1.29667438E-01    2     1000024         1   # BR(~u_L -> ~chi_1+ d)
     8.05525810E-01    2     1000021         2   # BR(~u_L -> ~g      u)
#
#         PDG            Width
DECAY   2000002     5.19534025E+01   # sup_R decays
#          BR         NDA      ID1       ID2
     7.65909816E-10    2     1000022         2   # BR(~u_R -> ~chi_10 u)
     9.99999999E-01    2     1000021         2   # BR(~u_R -> ~g      u)
#
#         PDG            Width
DECAY   1000001     2.01015403E+02   # sdown_L decays
#          BR         NDA      ID1       ID2
     6.48016075E-02    2     1000022         1   # BR(~d_L -> ~chi_10 d)
     1.29545451E-01    2    -1000024         2   # BR(~d_L -> ~chi_1- u)
     8.05652942E-01    2     1000021         1   # BR(~d_L -> ~g      d)
#
#         PDG            Width
DECAY   2000001     1.93336945E+02   # sdown_R decays
#          BR         NDA      ID1       ID2
     9.40460587E-11    2     1000022         1   # BR(~d_R -> ~chi_10 d)
     1.87297693E-06    2     1000023         1   # BR(~d_R -> ~chi_20 d)
     2.51186491E-09    2     1000025         1   # BR(~d_R -> ~chi_30 d)
     3.47022569E-07    2     1000035         1   # BR(~d_R -> ~chi_40 d)
     9.99997777E-01    2     1000021         1   # BR(~d_R -> ~g      d)
#
#         PDG            Width
DECAY   1000004     1.77482717E+02   # scharm_L decays
#          BR         NDA      ID1       ID2
     7.59269048E-02    2     1000022         4   # BR(~c_L -> ~chi_10 c)
     1.51916990E-01    2     1000024         3   # BR(~c_L -> ~chi_1+ s)
     7.72156105E-01    2     1000021         4   # BR(~c_L -> ~g      c)
#
#         PDG            Width
DECAY   2000004     4.39820240E+01   # scharm_R decays
#          BR         NDA      ID1       ID2
     9.43990759E-10    2     1000022         4   # BR(~c_R -> ~chi_10 c)
     9.99999999E-01    2     1000021         4   # BR(~c_R -> ~g      c)
#
#         PDG            Width
DECAY   1000003     1.77522657E+02   # sstrange_L decays
#          BR         NDA      ID1       ID2
     7.59227823E-02    2     1000022         3   # BR(~s_L -> ~chi_10 s)
     1.51777779E-01    2    -1000024         4   # BR(~s_L -> ~chi_1- c)
     7.72299439E-01    2     1000021         3   # BR(~s_L -> ~g      s)
#
#         PDG            Width
DECAY   2000003     1.63673038E+02   # sstrange_R decays
#          BR         NDA      ID1       ID2
     1.14827248E-10    2     1000022         3   # BR(~s_R -> ~chi_10 s)
     2.14624596E-06    2     1000023         3   # BR(~s_R -> ~chi_20 s)
     2.87487670E-09    2     1000025         3   # BR(~s_R -> ~chi_30 s)
     3.47602101E-07    2     1000035         3   # BR(~s_R -> ~chi_40 s)
     9.99997503E-01    2     1000021         3   # BR(~s_R -> ~g      s)
#
#         PDG            Width
DECAY   1000011     2.95014345E+01   # selectron_L decays
#          BR         NDA      ID1       ID2
     3.33466849E-01    2     1000022        11   # BR(~e_L -> ~chi_10 e-)
     6.66533151E-01    2    -1000024        12   # BR(~e_L -> ~chi_1- nu_e)
#
#         PDG            Width
DECAY   2000011     2.07341435E-04   # selectron_R decays
#           BR         NDA      ID1       ID2
     3.42678021E-04    2     1000022        11   # BR(~e_R -> ~chi_10 e-)
#           BR         NDA      ID1       ID2       ID3
     6.94892460E-03    3        11       -5        1000005   # BR(~e_R- -> e-  bb  ~b_1)
     6.38753175E-02    3        11       5        -1000005   # BR(~e_R- -> e-  b  ~b_1*)
     7.39456635E-04    3        11       -6        1000006   # BR(~e_R- -> e-  tb  ~t_1)
     4.06648097E-03    3        11       6        -1000006   # BR(~e_R- -> e-  t  ~t_1*)
     6.80568261E-02    3        11       -15        1000015   # BR(~e_R- -> e-  tau+  ~tau_1-)
     8.55786495E-01    3        11       15        -1000015   # BR(~e_R- -> e-  tau-  ~tau_1+)
     7.74374885E-06    3        11       23        1000022   # BR(~e_R- -> e-  Z  ~chi_10)
     4.89289562E-05    3        11       25        1000022   # BR(~e_R- -> e-  h  ~chi_10)
     8.46044110E-05    3        11       -24        1000024   # BR(~e_R- -> e-  W-  ~chi_1+)
     4.25443182E-05    3        11       24        -1000024   # BR(~e_R- -> e-  W+  ~chi_1-)
#
#         PDG            Width
DECAY   1000013     2.95014344E+01   # smuon_L decays
#          BR         NDA      ID1       ID2
     3.33466848E-01    2     1000022        13   # BR(~mu_L -> ~chi_10 mu-)
     6.66533152E-01    2    -1000024        14   # BR(~mu_L -> ~chi_1- nu_mu)
#
#         PDG            Width
DECAY   2000013     2.07688128E-04   # smuon_R decays
#           BR         NDA      ID1       ID2
     3.42105987E-04    2     1000022        13   # BR(~mu_R -> ~chi_10 mu-)
#           BR         NDA      ID1       ID2       ID3
     6.93732479E-03    3        13       -5        1000005   # BR(~mu_R- -> mu-  bb  ~b_1)
     6.37686907E-02    3        13       5        -1000005   # BR(~mu_R- -> mu-  b  ~b_1*)
     7.30229510E-04    3        13       -6        1000006   # BR(~mu_R- -> mu-  tb  ~t_1)
     4.05160376E-03    3        13       6        -1000006   # BR(~mu_R- -> mu-  t  ~t_1*)
     6.79432191E-02    3        13       -15        1000015   # BR(~mu_R- -> mu-  tau+  ~tau_1-)
     8.56043153E-01    3        13       15        -1000015   # BR(~mu_R- -> mu-  tau-  ~tau_1+)
     7.73082224E-06    3        13       23        1000022   # BR(~mu_R- -> mu-  Z  ~chi_10)
     4.88472793E-05    3        13       25        1000022   # BR(~mu_R- -> mu-  h  ~chi_10)
     8.44631812E-05    3        13       -24        1000024   # BR(~mu_R- -> mu-  W-  ~chi_1+)
     4.26321913E-05    3        13       24        -1000024   # BR(~mu_R- -> mu-  W+  ~chi_1-)
#
#         PDG            Width
DECAY   1000015     5.48178311E-04   # stau_1 decays
#          BR         NDA      ID1       ID2
     3.33717079E-01    2     1000022        15   # BR(~tau_1 -> ~chi_10  tau-)
     6.66282921E-01    2    -1000024        16   # BR(~tau_1 -> ~chi_1-  nu_tau)
#
#         PDG            Width
DECAY   2000015     2.62183466E+01   # stau_2 decays
#          BR         NDA      ID1       ID2
     3.25044026E-01    2     1000022        15   # BR(~tau_2 -> ~chi_10  tau-)
     6.49682840E-01    2    -1000024        16   # BR(~tau_2 -> ~chi_1-  nu_tau)
     1.29026821E-02    2     1000015        25   # BR(~tau_2 -> ~tau_1   h)
     1.23704514E-02    2     1000015        23   # BR(~tau_2 -> ~tau_1   Z)
#
#         PDG            Width
DECAY   1000012     2.94981566E+01   # snu_eL decays
#          BR         NDA      ID1       ID2
     3.33212481E-01    2     1000022        12   # BR(~nu_eL -> ~chi_10 nu_e)
     6.66787519E-01    2     1000024        11   # BR(~nu_eL -> ~chi_1+ e-)
#
#         PDG            Width
DECAY   1000014     2.94981566E+01   # snu_muL decays
#          BR         NDA      ID1       ID2
     3.33212482E-01    2     1000022        14   # BR(~nu_muL -> ~chi_10 nu_mu)
     6.66787518E-01    2     1000024        13   # BR(~nu_muL -> ~chi_1+ mu-)
#
#         PDG            Width
DECAY   1000016     2.61816044E+01   # snu_tauL decays
#          BR         NDA      ID1       ID2
     3.25194450E-01    2     1000022        16   # BR(~nu_tauL -> ~chi_10 nu_tau)
     6.50745736E-01    2     1000024        15   # BR(~nu_tauL -> ~chi_1+ tau-)
     2.40598140E-02    2    -1000015       -24   # BR(~nu_tauL -> ~tau_1+ W-)
#
#         PDG            Width
DECAY   1000024     3.23176030E-15   # chargino1+ decays
#           BR         NDA      ID1       ID2       ID3
     1.98113500E-02    3     1000022       -11        12   # BR(~chi_1+ -> ~chi_10 e+   nu_e)
     2.01853530E-03    3     1000022       -13        14   # BR(~chi_1+ -> ~chi_10 mu+  nu_mu)
     9.78170110E-01    2     1000022       211             # BR(~chi_1+ -> ~chi_10 pi+)
#
#         PDG            Width
DECAY   1000037     1.36585216E+02   # chargino2+ decays
#          BR         NDA      ID1       ID2
     1.59919277E-07    2     1000002        -1   # BR(~chi_2+ -> ~u_L     db)
     3.64388079E-06    2    -1000001         2   # BR(~chi_2+ -> ~d_L*    u )
     1.59918974E-07    2     1000004        -3   # BR(~chi_2+ -> ~c_L     sb)
     3.64376918E-06    2    -1000003         4   # BR(~chi_2+ -> ~s_L*     c )
     4.32888994E-01    2     1000006        -5   # BR(~chi_2+ -> ~t_1     bb)
     2.00902115E-02    2     2000006        -5   # BR(~chi_2+ -> ~t_2     bb)
     1.60675233E-02    2    -1000005         6   # BR(~chi_2+ -> ~b_1*    t )
     3.03559772E-01    2    -2000005         6   # BR(~chi_2+ -> ~b_2*    t )
     1.18976321E-06    2     1000012       -11   # BR(~chi_2+ -> ~nu_eL   e+  )
     1.18976321E-06    2     1000014       -13   # BR(~chi_2+ -> ~nu_muL mu+ )
     7.24482475E-04    2     1000016       -15   # BR(~chi_2+ -> ~nu_tau1 tau+)
     2.72529114E-05    2    -1000011        12   # BR(~chi_2+ -> ~e_L+    nu_e)
     2.72529114E-05    2    -1000013        14   # BR(~chi_2+ -> ~mu_L+   nu_mu)
     1.74834289E-03    2    -1000015        16   # BR(~chi_2+ -> ~tau_1+  nu_tau)
     4.46547875E-05    2    -2000015        16   # BR(~chi_2+ -> ~tau_2+  nu_tau)
     5.32583412E-02    2     1000024        23   # BR(~chi_2+ -> ~chi_1+  Z )
     5.18228161E-02    2     1000022        24   # BR(~chi_2+ -> ~chi_10  W+)
     5.46553861E-02    2     1000024        25   # BR(~chi_2+ -> ~chi_1+  h )
     2.17012223E-02    2     1000024        35   # BR(~chi_2+ -> ~chi_1+  H )
     2.16855527E-02    2     1000024        36   # BR(~chi_2+ -> ~chi_1+  A )
     2.16882080E-02    2     1000022        37   # BR(~chi_2+ -> ~chi_10  H+)
#
#         PDG            Width
DECAY   1000022     0.00000000E+00   # neutralino1 decays
#
#         PDG            Width
DECAY   1000023     1.35064938E+02   # neutralino2 decays
#          BR         NDA      ID1       ID2
     3.69292463E-02    2     1000022        23   # BR(~chi_20 -> ~chi_10   Z )
     5.13102724E-02    2     1000024       -24   # BR(~chi_20 -> ~chi_1+   W-)
     5.13102724E-02    2    -1000024        24   # BR(~chi_20 -> ~chi_1-   W+)
     1.67494531E-02    2     1000022        25   # BR(~chi_20 -> ~chi_10   h )
     1.09889976E-02    2     1000022        35   # BR(~chi_20 -> ~chi_10   H )
     1.05889914E-02    2     1000022        36   # BR(~chi_20 -> ~chi_10   A )
     2.15498783E-02    2     1000024       -37   # BR(~chi_20 -> ~chi_1+   H-)
     2.15498783E-02    2    -1000024        37   # BR(~chi_20 -> ~chi_1-   H+)
     2.41091041E-06    2     1000002        -2   # BR(~chi_20 -> ~u_L      ub)
     2.41091041E-06    2    -1000002         2   # BR(~chi_20 -> ~u_L*     u )
     6.18303942E-04    2     2000002        -2   # BR(~chi_20 -> ~u_R      ub)
     6.18303942E-04    2    -2000002         2   # BR(~chi_20 -> ~u_R*     u )
     2.62180095E-07    2     1000001        -1   # BR(~chi_20 -> ~d_L      db)
     2.62180095E-07    2    -1000001         1   # BR(~chi_20 -> ~d_L*     d )
     2.41083233E-06    2     1000004        -4   # BR(~chi_20 -> ~c_L      cb)
     2.41083233E-06    2    -1000004         4   # BR(~chi_20 -> ~c_L*     c )
     6.18303723E-04    2     2000004        -4   # BR(~chi_20 -> ~c_R      cb)
     6.18303723E-04    2    -2000004         4   # BR(~chi_20 -> ~c_R*     c )
     2.62180095E-07    2     1000003        -3   # BR(~chi_20 -> ~s _L      sb)
     2.62180095E-07    2    -1000003         3   # BR(~chi_20 -> ~s _L*     s )
     2.14105576E-01    2     1000006        -6   # BR(~chi_20 -> ~t_1      tb)
     2.14105576E-01    2    -1000006         6   # BR(~chi_20 -> ~t_1*     t )
     1.57661507E-01    2     2000006        -6   # BR(~chi_20 -> ~t_2      tb)
     1.57661507E-01    2    -2000006         6   # BR(~chi_20 -> ~t_2*     t )
     7.91515076E-03    2     1000005        -5   # BR(~chi_20 -> ~b_1      bb)
     7.91515076E-03    2    -1000005         5   # BR(~chi_20 -> ~b_1*     b )
     4.29316232E-03    2     2000005        -5   # BR(~chi_20 -> ~b_2      bb)
     4.29316232E-03    2    -2000005         5   # BR(~chi_20 -> ~b_2*     b )
     1.02270188E-04    2     1000011       -11   # BR(~chi_20 -> ~e_L-     e+)
     1.02270188E-04    2    -1000011        11   # BR(~chi_20 -> ~e_L+     e-)
     7.06835425E-04    2     2000011       -11   # BR(~chi_20 -> ~e_R-     e+)
     7.06835425E-04    2    -2000011        11   # BR(~chi_20 -> ~e_R+     e-)
     1.02270188E-04    2     1000013       -13   # BR(~chi_20 -> ~mu_L-    mu+)
     1.02270188E-04    2    -1000013        13   # BR(~chi_20 -> ~mu_L+    mu-)
     7.06835425E-04    2     2000013       -13   # BR(~chi_20 -> ~mu_R-    mu+)
     7.06835425E-04    2    -2000013        13   # BR(~chi_20 -> ~mu_R+    mu-)
     1.98497846E-03    2     1000015       -15   # BR(~chi_20 -> ~tau_1-   tau+)
     1.98497846E-03    2    -1000015        15   # BR(~chi_20 -> ~tau_1+   tau-)
     5.08331637E-04    2     2000015       -15   # BR(~chi_20 -> ~tau_2-   tau+)
     5.08331637E-04    2    -2000015        15   # BR(~chi_20 -> ~tau_2+   tau-)
     5.21220169E-05    2     1000012       -12   # BR(~chi_20 -> ~nu_eL    nu_eb)
     5.21220169E-05    2    -1000012        12   # BR(~chi_20 -> ~nu_eL*   nu_e )
     5.21220169E-05    2     1000014       -14   # BR(~chi_20 -> ~nu_muL   nu_mub)
     5.21220169E-05    2    -1000014        14   # BR(~chi_20 -> ~nu_muL*  nu_mu )
     7.83898034E-05    2     1000016       -16   # BR(~chi_20 -> ~nu_tau1  nu_taub)
     7.83898034E-05    2    -1000016        16   # BR(~chi_20 -> ~nu_tau1* nu_tau )
#
#         PDG            Width
DECAY   1000025     1.36469071E+02   # neutralino3 decays
#          BR         NDA      ID1       ID2
     1.60067403E-02    2     1000022        23   # BR(~chi_30 -> ~chi_10   Z )
     5.18541650E-02    2     1000024       -24   # BR(~chi_30 -> ~chi_1+   W-)
     5.18541650E-02    2    -1000024        24   # BR(~chi_30 -> ~chi_1-   W+)
     3.77613099E-02    2     1000022        25   # BR(~chi_30 -> ~chi_10   h )
     1.06147060E-02    2     1000022        35   # BR(~chi_30 -> ~chi_10   H )
     1.10390645E-02    2     1000022        36   # BR(~chi_30 -> ~chi_10   A )
     2.16674632E-02    2     1000024       -37   # BR(~chi_30 -> ~chi_1+   H-)
     2.16674632E-02    2    -1000024        37   # BR(~chi_30 -> ~chi_1-   H+)
     6.03520818E-07    2     1000002        -2   # BR(~chi_30 -> ~u_L      ub)
     6.03520818E-07    2    -1000002         2   # BR(~chi_30 -> ~u_L*     u )
     8.71953095E-07    2     2000002        -2   # BR(~chi_30 -> ~u_R      ub)
     8.71953095E-07    2    -2000002         2   # BR(~chi_30 -> ~u_R*     u )
     7.27707722E-07    2     1000001        -1   # BR(~chi_30 -> ~d_L      db)
     7.27707722E-07    2    -1000001         1   # BR(~chi_30 -> ~d_L*     d )
     6.03502353E-07    2     1000004        -4   # BR(~chi_30 -> ~c_L      cb)
     6.03502353E-07    2    -1000004         4   # BR(~chi_30 -> ~c_L*     c )
     8.71952789E-07    2     2000004        -4   # BR(~chi_30 -> ~c_R      cb)
     8.71952789E-07    2    -2000004         4   # BR(~chi_30 -> ~c_R*     c )
     7.27707722E-07    2     1000003        -3   # BR(~chi_30 -> ~s _L      sb)
     7.27707722E-07    2    -1000003         3   # BR(~chi_30 -> ~s _L*     s )
     2.32897285E-01    2     1000006        -6   # BR(~chi_30 -> ~t_1      tb)
     2.32897285E-01    2    -1000006         6   # BR(~chi_30 -> ~t_1*     t )
     1.42679557E-01    2     2000006        -6   # BR(~chi_30 -> ~t_2      tb)
     1.42679557E-01    2    -2000006         6   # BR(~chi_30 -> ~t_2*     t )
     7.45055757E-03    2     1000005        -5   # BR(~chi_30 -> ~b_1      bb)
     7.45055757E-03    2    -1000005         5   # BR(~chi_30 -> ~b_1*     b )
     4.45795835E-03    2     2000005        -5   # BR(~chi_30 -> ~b_2      bb)
     4.45795835E-03    2    -2000005         5   # BR(~chi_30 -> ~b_2*     b )
     3.62987445E-06    2     1000011       -11   # BR(~chi_30 -> ~e_L-     e+)
     3.62987445E-06    2    -1000011        11   # BR(~chi_30 -> ~e_L+     e-)
     9.95147307E-07    2     2000011       -11   # BR(~chi_30 -> ~e_R-     e+)
     9.95147307E-07    2    -2000011        11   # BR(~chi_30 -> ~e_R+     e-)
     3.62987445E-06    2     1000013       -13   # BR(~chi_30 -> ~mu_L-    mu+)
     3.62987445E-06    2    -1000013        13   # BR(~chi_30 -> ~mu_L+    mu-)
     9.95147307E-07    2     2000013       -13   # BR(~chi_30 -> ~mu_R-    mu+)
     9.95147307E-07    2    -2000013        13   # BR(~chi_30 -> ~mu_R+    mu-)
     8.78052350E-04    2     1000015       -15   # BR(~chi_30 -> ~tau_1-   tau+)
     8.78052350E-04    2    -1000015        15   # BR(~chi_30 -> ~tau_1+   tau-)
     3.67459612E-04    2     2000015       -15   # BR(~chi_30 -> ~tau_2-   tau+)
     3.67459612E-04    2    -2000015        15   # BR(~chi_30 -> ~tau_2+   tau-)
     6.55181081E-06    2     1000012       -12   # BR(~chi_30 -> ~nu_eL    nu_eb)
     6.55181081E-06    2    -1000012        12   # BR(~chi_30 -> ~nu_eL*   nu_e )
     6.55181081E-06    2     1000014       -14   # BR(~chi_30 -> ~nu_muL   nu_mub)
     6.55181081E-06    2    -1000014        14   # BR(~chi_30 -> ~nu_muL*  nu_mu )
     9.83207685E-06    2     1000016       -16   # BR(~chi_30 -> ~nu_tau1  nu_taub)
     9.83207685E-06    2    -1000016        16   # BR(~chi_30 -> ~nu_tau1* nu_tau )
#
#         PDG            Width
DECAY   1000035     1.07635531E+02   # neutralino4 decays
#          BR         NDA      ID1       ID2
     8.63239600E-04    2     1000022        23   # BR(~chi_40 -> ~chi_10   Z )
     3.76729373E-06    2     1000023        23   # BR(~chi_40 -> ~chi_20   Z )
     1.21256710E-03    2     1000025        23   # BR(~chi_40 -> ~chi_30   Z )
     1.26498658E-03    2     1000024       -24   # BR(~chi_40 -> ~chi_1+   W-)
     1.26498658E-03    2    -1000024        24   # BR(~chi_40 -> ~chi_1-   W+)
     1.31500818E-03    2     1000037       -24   # BR(~chi_40 -> ~chi_2+   W-)
     1.31500818E-03    2    -1000037        24   # BR(~chi_40 -> ~chi_2-   W+)
     4.56000308E-04    2     1000022        25   # BR(~chi_40 -> ~chi_10   h )
     1.99782627E-04    2     1000022        35   # BR(~chi_40 -> ~chi_10   H )
     1.58843327E-04    2     1000022        36   # BR(~chi_40 -> ~chi_10   A )
     2.06884288E-03    2     1000023        25   # BR(~chi_40 -> ~chi_20   h )
     9.17350046E-07    2     1000025        25   # BR(~chi_40 -> ~chi_30   h )
     3.58305705E-04    2     1000024       -37   # BR(~chi_40 -> ~chi_1+   H-)
     3.58305705E-04    2    -1000024        37   # BR(~chi_40 -> ~chi_1-   H+)
     2.61262337E-04    2     1000002        -2   # BR(~chi_40 -> ~u_L      ub)
     2.61262337E-04    2    -1000002         2   # BR(~chi_40 -> ~u_L*     u )
     5.33821540E-02    2     2000002        -2   # BR(~chi_40 -> ~u_R      ub)
     5.33821540E-02    2    -2000002         2   # BR(~chi_40 -> ~u_R*     u )
     2.69211769E-04    2     1000001        -1   # BR(~chi_40 -> ~d_L      db)
     2.69211769E-04    2    -1000001         1   # BR(~chi_40 -> ~d_L*     d )
     2.61260156E-04    2     1000004        -4   # BR(~chi_40 -> ~c_L      cb)
     2.61260156E-04    2    -1000004         4   # BR(~chi_40 -> ~c_L*     c )
     5.33821400E-02    2     2000004        -4   # BR(~chi_40 -> ~c_R      cb)
     5.33821400E-02    2    -2000004         4   # BR(~chi_40 -> ~c_R*     c )
     2.69211769E-04    2     1000003        -3   # BR(~chi_40 -> ~s _L      sb)
     2.69211769E-04    2    -1000003         3   # BR(~chi_40 -> ~s _L*     s )
     9.91410087E-02    2     1000006        -6   # BR(~chi_40 -> ~t_1      tb)
     9.91410087E-02    2    -1000006         6   # BR(~chi_40 -> ~t_1*     t )
     5.85106732E-03    2     2000006        -6   # BR(~chi_40 -> ~t_2      tb)
     5.85106732E-03    2    -2000006         6   # BR(~chi_40 -> ~t_2*     t )
     2.69118442E-02    2     1000005        -5   # BR(~chi_40 -> ~b_1      bb)
     2.69118442E-02    2    -1000005         5   # BR(~chi_40 -> ~b_1*     b )
     4.51586799E-03    2     2000005        -5   # BR(~chi_40 -> ~b_2      bb)
     4.51586799E-03    2    -2000005         5   # BR(~chi_40 -> ~b_2*     b )
     6.91912224E-03    2     1000011       -11   # BR(~chi_40 -> ~e_L-     e+)
     6.91912224E-03    2    -1000011        11   # BR(~chi_40 -> ~e_L+     e-)
     5.80941142E-02    2     2000011       -11   # BR(~chi_40 -> ~e_R-     e+)
     5.80941142E-02    2    -2000011        11   # BR(~chi_40 -> ~e_R+     e-)
     6.91912224E-03    2     1000013       -13   # BR(~chi_40 -> ~mu_L-    mu+)
     6.91912224E-03    2    -1000013        13   # BR(~chi_40 -> ~mu_L+    mu-)
     5.80941142E-02    2     2000013       -13   # BR(~chi_40 -> ~mu_R-    mu+)
     5.80941142E-02    2    -2000013        13   # BR(~chi_40 -> ~mu_R+    mu-)
     8.65940332E-02    2     1000015       -15   # BR(~chi_40 -> ~tau_1-   tau+)
     8.65940332E-02    2    -1000015        15   # BR(~chi_40 -> ~tau_1+   tau-)
     9.78909247E-03    2     2000015       -15   # BR(~chi_40 -> ~tau_2-   tau+)
     9.78909247E-03    2    -2000015        15   # BR(~chi_40 -> ~tau_2+   tau-)
     7.01186846E-03    2     1000012       -12   # BR(~chi_40 -> ~nu_eL    nu_eb)
     7.01186846E-03    2    -1000012        12   # BR(~chi_40 -> ~nu_eL*   nu_e )
     7.01186846E-03    2     1000014       -14   # BR(~chi_40 -> ~nu_muL   nu_mub)
     7.01186846E-03    2    -1000014        14   # BR(~chi_40 -> ~nu_muL*  nu_mu )
     9.90135559E-03    2     1000016       -16   # BR(~chi_40 -> ~nu_tau1  nu_taub)
     9.90135559E-03    2    -1000016        16   # BR(~chi_40 -> ~nu_tau1* nu_tau )
#
#         PDG            Width
DECAY        25     3.75169943E-03   # h decays
#          BR         NDA      ID1       ID2
     5.50693144E-01    2           5        -5   # BR(h -> b       bb     )
     6.97880560E-02    2         -15        15   # BR(h -> tau+    tau-   )
     2.47024192E-04    2         -13        13   # BR(h -> mu+     mu-    )
     2.69510138E-04    2           3        -3   # BR(h -> s       sb     )
     2.31909853E-02    2           4        -4   # BR(h -> c       cb     )
     8.54796122E-02    2          21        21   # BR(h -> g       g      )
     2.55937536E-03    2          22        22   # BR(h -> gam     gam    )
     1.74398633E-03    2          22        23   # BR(h -> Z       gam    )
     2.36219514E-01    2          24       -24   # BR(h -> W+      W-     )
     2.98087919E-02    2          23        23   # BR(h -> Z       Z      )
#
#         PDG            Width
DECAY        35     4.15789437E+00   # H decays
#          BR         NDA      ID1       ID2
     6.03074556E-01    2           5        -5   # BR(H -> b       bb     )
     6.66535133E-02    2         -15        15   # BR(H -> tau+    tau-   )
     2.36294522E-04    2         -13        13   # BR(H -> mu+     mu-    )
     1.70226330E-04    2           3        -3   # BR(H -> s       sb     )
     3.32139850E-06    2           4        -4   # BR(H -> c       cb     )
     3.22195607E-01    2           6        -6   # BR(H -> t       tb     )
     2.82750801E-04    2          21        21   # BR(H -> g       g      )
     1.05557259E-06    2          22        22   # BR(H -> gam     gam    )
     2.98136188E-07    2          23        22   # BR(H -> Z       gam    )
     1.57297529E-04    2          24       -24   # BR(H -> W+      W-     )
     7.83625850E-05    2          23        23   # BR(H -> Z       Z      )
     6.41972348E-04    2          25        25   # BR(H -> h       h      )
     3.46351363E-03    2     1000024  -1000024   # BR(H -> ~chi_1+ ~chi_1-)
     1.73164789E-03    2     1000022   1000022   # BR(H -> ~chi_10 ~chi_10)
     1.30895788E-03    2     1000005  -1000005   # BR(H -> ~b_1    ~b_1*  )
     6.25098423E-07    2     1000015  -1000015   # BR(H -> ~tau_1- ~tau_1+)
#
#         PDG            Width
DECAY        36     4.17262041E+00   # A decays
#          BR         NDA      ID1       ID2
     6.01430860E-01    2           5        -5   # BR(A -> b       bb     )
     6.64553058E-02    2         -15        15   # BR(A -> tau+    tau-   )
     2.35591122E-04    2         -13        13   # BR(A -> mu+     mu-    )
     1.69892245E-04    2           3        -3   # BR(A -> s       sb     )
     3.31563563E-06    2           4        -4   # BR(A -> c       cb     )
     3.24925583E-01    2           6        -6   # BR(A -> t       tb     )
     4.59400580E-04    2          21        21   # BR(A -> g       g      )
     1.48248232E-06    2          22        22   # BR(A -> gam     gam    )
     5.08698754E-07    2          23        22   # BR(A -> Z       gam    )
     1.58377325E-04    2          23        25   # BR(A -> Z       h      )
     4.10671796E-03    2     1000024  -1000024   # BR(A -> ~chi_1+ ~chi_1-)
     2.05296473E-03    2     1000022   1000022   # BR(A -> ~chi_10 ~chi_10)
#
#         PDG            Width
DECAY        37     4.41270676E+00   # H+ decays
#          BR         NDA      ID1       ID2
     1.06702096E-03    2           4        -5   # BR(H+ -> c       bb     )
     6.28846079E-02    2         -15        16   # BR(H+ -> tau+    nu_tau )
     2.22932618E-04    2         -13        14   # BR(H+ -> mu+     nu_mu  )
     1.06701337E-05    2           2        -5   # BR(H+ -> u       bb     )
     8.02470455E-06    2           2        -3   # BR(H+ -> u       sb     )
     1.60955585E-04    2           4        -3   # BR(H+ -> c       sb     )
     9.33684089E-01    2           6        -5   # BR(H+ -> t       bb     )
     1.50282669E-04    2          24        25   # BR(H+ -> W+      h      )
     2.13269839E-12    2          24        36   # BR(H+ -> W+      A      )
     2.10538430E-11    2     1000024   1000022   # BR(H+ -> ~chi_1+ ~chi_10)
     1.81141627E-03    2     1000006  -1000005   # BR(H+ -> ~t_1    ~b_1*  )
