#
#                              ======================
#                              | THE SUSYHIT OUTPUT |
#                              ======================
#
#
#              ------------------------------------------------------
#              |     This is the output of the SUSY-HIT package     |
#              |  created by A.Djouadi, M.Muehlleitner and M.Spira. |
#              |  In case of problems with SUSY-HIT email to        |
#              |           margarete.muehlleitner@cern.ch           |
#              |           michael.spira@psi.ch                     |
#              |           abdelhak.djouadi@cern.ch                 |
#              ------------------------------------------------------
#
#              ------------------------------------------------------
#              |  SUSY Les Houches Accord - MSSM Spectrum + Decays  |
#              |              based on the decay programs           |
#              |                                                    |
#              |                     SDECAY 1.3b                    |
#              |                                                    |
#              |  Authors: M.Muhlleitner, A.Djouadi and Y.Mambrini  |
#              |  Ref.:    Comput.Phys.Commun.168(2005)46           |
#              |           [hep-ph/0311167]                         |
#              |                                                    |
#              |                     HDECAY 3.4                     |
#              |                                                    |
#              |  By: A.Djouadi,J.Kalinowski,M.Muhlleitner,M.Spira  |
#              |  Ref.:    Comput.Phys.Commun.108(1998)56           |
#              |           [hep-ph/9704448]                         |
#              |                                                    |
#              |                                                    |
#              |  If not stated otherwise all DRbar couplings and   |
#              |  soft SUSY breaking masses are given at the scale  |
#              |  Q=  0.27821980E+04
#              |                                                    |
#              ------------------------------------------------------
#
#
BLOCK DCINFO  # Decay Program information
     1   SDECAY/HDECAY # decay calculator
     2   1.3b  /3.4    # version number
#
BLOCK SPINFO  # Spectrum calculator information
     1     SOFTSUSY    # spectrum calculator               
     2     3.4.0       # version number                    
#
BLOCK MODSEL  # Model selection
     1     0   #  nonUniversal                                     
#
BLOCK SMINPUTS  # Standard Model inputs
         1     1.27908970E+02   # alpha_em^-1(M_Z)^MSbar
         2     1.16637870E-05   # G_F [GeV^-2]
         3     1.18400000E-01   # alpha_S(M_Z)^MSbar
         4     9.11876000E+01   # M_Z pole mass
         5     4.18000000E+00   # mb(mb)^MSbar
         6     1.73200000E+02   # mt pole mass
         7     1.77700000E+00   # mtau pole mass
#
BLOCK MINPAR  # Input parameters - minimal models
         3     3.40300000E+01   # tanb                
#
BLOCK EXTPAR  # Input parameters - non-minimal models
         0    -1.00000000E+00   # Set                 
         1    -2.07722000E+03   # M_1(MX)             
         2    -5.08740000E+02   # M_2(MX)             
         3     1.92583000E+03   # M_3(MX)             
        11    -4.12732000E+03   # At(MX)              
        12    -1.77732000E+03   # Ab(MX)              
        13    -1.94167000E+03   # Atau(MX)            
        23     1.61672000E+03   # mu(MX)              
        26     2.23357000E+03   # mA(pole)            
        31     1.85278000E+03   # meL(MX)             
        32     1.85278000E+03   # mmuL(MX)            
        33     3.71692000E+03   # mtauL(MX)           
        34     2.27367000E+03   # meR(MX)             
        35     2.27367000E+03   # mmuR(MX)            
        36     3.83943000E+03   # mtauR(MX)           
        41     1.44125000E+03   # mqL1(MX)            
        42     1.44125000E+03   # mqL2(MX)            
        43     2.26376000E+03   # mqL3(MX)            
        44     1.31509000E+03   # muR(MX)             
        45     1.31509000E+03   # mcR(MX)             
        46     3.42079000E+03   # mtR(MX)             
        47     3.05021000E+03   # mdR(MX)             
        48     3.05021000E+03   # msR(MX)             
        49     2.77640000E+03   # mbR(MX)             
#
BLOCK MASS  # Mass Spectrum
# PDG code           mass       particle
        24     8.03736984E+01   # W+
        25     1.27622638E+02   # h
        35     2.23356318E+03   # H
        36     2.23357000E+03   # A
        37     2.23540789E+03   # H+
         5     4.81876030E+00   # b-quark pole mass calculated from mb(mb)_Msbar
   1000001     1.55674452E+03   # ~d_L
   2000001     3.10441335E+03   # ~d_R
   1000002     1.55482628E+03   # ~u_L
   2000002     1.43718674E+03   # ~u_R
   1000003     1.55674452E+03   # ~s_L
   2000003     3.10441335E+03   # ~s_R
   1000004     1.55482628E+03   # ~c_L
   2000004     1.43718674E+03   # ~c_R
   1000005     2.31704394E+03   # ~b_1
   2000005     2.82625177E+03   # ~b_2
   1000006     2.30921377E+03   # ~t_1
   2000006     3.40565073E+03   # ~t_2
   1000011     1.86011828E+03   # ~e_L
   2000011     2.28150717E+03   # ~e_R
   1000012     1.85810941E+03   # ~nu_eL
   1000013     1.86011828E+03   # ~mu_L
   2000013     2.28150717E+03   # ~mu_R
   1000014     1.85810941E+03   # ~nu_muL
   1000015     3.72072112E+03   # ~tau_1
   2000015     3.83895248E+03   # ~tau_2
   1000016     3.72101787E+03   # ~nu_tauL
   1000021     2.06485548E+03   # ~g
   1000022    -5.32668860E+02   # ~chi_10
   1000023    -1.65384792E+03   # ~chi_20
   1000025     1.65507873E+03   # ~chi_30
   1000035    -2.05025454E+03   # ~chi_40
   1000024     5.32835772E+02   # ~chi_1+
   1000037     1.65784606E+03   # ~chi_2+
#
BLOCK NMIX  # Neutralino Mixing Matrix
  1  1    -3.63525987E-04   # N_11
  1  2     9.98536035E-01   # N_12
  1  3    -5.19903746E-02   # N_13
  1  4    -1.49216541E-02   # N_14
  2  1     7.20822620E-02   # N_21
  2  2     4.72289792E-02   # N_22
  2  3     7.04360223E-01   # N_23
  2  4     7.04592256E-01   # N_24
  3  1     8.57576103E-03   # N_31
  3  2    -2.62151758E-02   # N_32
  3  3    -7.06514073E-01   # N_33
  3  4     7.07161286E-01   # N_34
  4  1     9.97361756E-01   # N_41
  4  2    -2.82401321E-03   # N_42
  4  3    -4.48502080E-02   # N_43
  4  4    -5.70088776E-02   # N_44
#
BLOCK UMIX  # Chargino Mixing Matrix U
  1  1     9.97300940E-01   # U_11
  1  2    -7.34223063E-02   # U_12
  2  1     7.34223063E-02   # U_21
  2  2     9.97300940E-01   # U_22
#
BLOCK VMIX  # Chargino Mixing Matrix V
  1  1    -9.99778189E-01   # V_11
  1  2    -2.10611877E-02   # V_12
  2  1    -2.10611877E-02   # V_21
  2  2     9.99778189E-01   # V_22
#
BLOCK STOPMIX  # Stop Mixing Matrix
  1  1     9.95504040E-01   # cos(theta_t)
  1  2     9.47190918E-02   # sin(theta_t)
  2  1    -9.47190918E-02   # -sin(theta_t)
  2  2     9.95504040E-01   # cos(theta_t)
#
BLOCK SBOTMIX  # Sbottom Mixing Matrix
  1  1     9.99126012E-01   # cos(theta_b)
  1  2     4.17996668E-02   # sin(theta_b)
  2  1    -4.17996668E-02   # -sin(theta_b)
  2  2     9.99126012E-01   # cos(theta_b)
#
BLOCK STAUMIX  # Stau Mixing Matrix
  1  1     9.93990056E-01   # cos(theta_tau)
  1  2     1.09470400E-01   # sin(theta_tau)
  2  1    -1.09470400E-01   # -sin(theta_tau)
  2  2     9.93990056E-01   # cos(theta_tau)
#
BLOCK ALPHA  # Higgs mixing
          -3.04734332E-02   # Mixing angle in the neutral Higgs boson sector
#
BLOCK HMIX Q=  2.78219800E+03  # DRbar Higgs Parameters
         1     1.64185732E+03   # mu(Q)MSSM           
         2     3.29039198E+01   # tan                 
         3     2.42379239E+02   # higgs               
         4     4.79894276E+06   # mA^2(Q)MSSM         
#
BLOCK GAUGE Q=  2.78219800E+03  # The gauge couplings
     1     3.64684175E-01   # gprime(Q) DRbar
     2     6.40027972E-01   # g(Q) DRbar
     3     1.02203731E+00   # g3(Q) DRbar
#
BLOCK AU Q=  2.78219800E+03  # The trilinear couplings
  1  1     0.00000000E+00   # A_u(Q) DRbar
  2  2     0.00000000E+00   # A_c(Q) DRbar
  3  3    -4.12731999E+03   # A_t(Q) DRbar
#
BLOCK AD Q=  2.78219800E+03  # The trilinear couplings
  1  1     0.00000000E+00   # A_d(Q) DRbar
  2  2     0.00000000E+00   # A_s(Q) DRbar
  3  3    -1.77732000E+03   # A_b(Q) DRbar
#
BLOCK AE Q=  2.78219800E+03  # The trilinear couplings
  1  1     0.00000000E+00   # A_e(Q) DRbar
  2  2     0.00000000E+00   # A_mu(Q) DRbar
  3  3    -1.94167000E+03   # A_tau(Q) DRbar
#
BLOCK Yu Q=  2.78219800E+03  # The Yukawa couplings
  1  1     0.00000000E+00   # y_u(Q) DRbar
  2  2     0.00000000E+00   # y_c(Q) DRbar
  3  3     8.16921844E-01   # y_t(Q) DRbar
#
BLOCK Yd Q=  2.78219800E+03  # The Yukawa couplings
  1  1     0.00000000E+00   # y_d(Q) DRbar
  2  2     0.00000000E+00   # y_s(Q) DRbar
  3  3     3.87385937E-01   # y_b(Q) DRbar
#
BLOCK Ye Q=  2.78219800E+03  # The Yukawa couplings
  1  1     0.00000000E+00   # y_e(Q) DRbar
  2  2     0.00000000E+00   # y_mu(Q) DRbar
  3  3     3.32065186E-01   # y_tau(Q) DRbar
#
BLOCK MSOFT Q=  2.78219800E+03  # The soft SUSY breaking masses at the scale Q
         1    -2.07722000E+03   # M_1(Q)              
         2    -5.08740000E+02   # M_2(Q)              
         3     1.92583000E+03   # M_3(Q)              
        21     2.31561210E+06   # mH1^2(Q)            
        22    -2.58046788E+06   # mH2^2(Q)            
        31     1.85278000E+03   # meL(Q)              
        32     1.85278000E+03   # mmuL(Q)             
        33     3.71692000E+03   # mtauL(Q)            
        34     2.27367000E+03   # meR(Q)              
        35     2.27367000E+03   # mmuR(Q)             
        36     3.83943000E+03   # mtauR(Q)            
        41     1.44124999E+03   # mqL1(Q)             
        42     1.44124999E+03   # mqL2(Q)             
        43     2.26375999E+03   # mqL3(Q)             
        44     1.31508999E+03   # muR(Q)              
        45     1.31508999E+03   # mcR(Q)              
        46     3.42078999E+03   # mtR(Q)              
        47     3.05021000E+03   # mdR(Q)              
        48     3.05021000E+03   # msR(Q)              
        49     2.77639999E+03   # mbR(Q)              
#
Block HiggsBoundsInputHiggsCouplingsFermions
# ScalarNormEffCoupSq PseudoSNormEffCoupSq NP   IP1 IP2 IP2
    1.00601524E+00    0.00000000E+00        3  25   5   5  # h0-b-b eff. coupling^2, normalised to SM
    1.08266192E+03    0.00000000E+00        3  35   5   5  # H0-b-b eff. coupling^2, normalised to SM
    0.00000000E+00    1.08266794E+03        3  36   5   5  # A0-b-b eff. coupling^2, normalised to SM
#
    9.99994444E-01    0.00000000E+00        3  25   6   6  # h0-t-t eff. coupling^2, normalised to SM
    9.29200174E-04    0.00000000E+00        3  35   6   6  # H0-t-t eff. coupling^2, normalised to SM
    0.00000000E+00    9.23644235E-04        3  36   6   6  # A0-t-t eff. coupling^2, normalised to SM
#
    1.00601524E+00    0.00000000E+00        3  25  15  15  # h0-tau-tau eff. coupling^2, normalised to SM
    1.08266192E+03    0.00000000E+00        3  35  15  15  # H0-tau-tau eff. coupling^2, normalised to SM
    0.00000000E+00    1.08266794E+03        3  36  15  15  # A0-tau-tau eff. coupling^2, normalised to SM
#
Block HiggsBoundsInputHiggsCouplingsBosons
    9.99999992E-01        3  25  24  24  # h0-W-W eff. coupling^2, normalised to SM
    8.33005856E-09        3  35  24  24  # H0-W-W eff. coupling^2, normalised to SM
    0.00000000E+00        3  36  24  24  # A0-W-W eff. coupling^2, normalised to SM
#
    9.99999992E-01        3  25  23  23  # h0-Z-Z eff. coupling^2, normalised to SM
    8.33005856E-09        3  35  23  23  # H0-Z-Z eff. coupling^2, normalised to SM
    0.00000000E+00        3  36  23  23  # A0-Z-Z eff. coupling^2, normalised to SM
#
    8.85549575E-01        3  25  21  21  # h0-g-g eff. coupling^2, normalised to SM
    1.18291698E-11        3  35  21  21  # H0-g-g eff. coupling^2, normalised to SM
    6.06841379E-11        3  36  21  21  # A0-g-g eff. coupling^2, normalised to SM
#
    0.00000000E+00        3  25  25  23  # h0-h0-Z eff. coupling^2, normalised to SM
    0.00000000E+00        3  35  25  23  # H0-h0-Z eff. coupling^2, normalised to SM
    8.33005856E-09        3  36  25  23  # A0-h0-Z eff. coupling^2, normalised to SM
    0.00000000E+00        3  35  35  23  # H0-H0-Z eff. coupling^2, normalised to SM
    9.99999992E-01        3  36  35  23  # A0-H0-Z eff. coupling^2, normalised to SM
    0.00000000E+00        3  36  36  23  # A0-A0-Z eff. coupling^2, normalised to SM
#
    0.00000000E+00        4  25  21  21  23  # h0-g-g-Z eff. coupling^2, normalised to SM
    0.00000000E+00        4  35  21  21  23  # H0-g-g-Z eff. coupling^2, normalised to SM
    0.00000000E+00        4  36  21  21  23  # A0-g-g-Z eff. coupling^2, normalised to SM
#
#
#
#                             =================
#                             |The decay table|
#                             =================
#
# - The QCD corrections to the decays gluino -> squark  + quark
#                                     squark -> gaugino + quark_prime
#                                     squark -> squark_prime + Higgs
#                                     squark -> gluino  + quark
#   are included.
#
# - The multi-body decays for the inos, stops and sbottoms are included.
#
# - The loop induced decays for the gluino, neutralinos and stops
#   are included.
#
# - The SUSY decays of the top quark are included.
#
#
#         PDG            Width
DECAY         6     1.44340271E+00   # top decays
#          BR         NDA      ID1       ID2
     1.00000000E+00    2           5        24   # BR(t ->  b    W+)
#
#         PDG            Width
DECAY   1000021     5.44818452E+01   # gluino decays
#          BR         NDA      ID1       ID2
     7.28147905E-02    2     1000001        -1   # BR(~g -> ~d_L  db)
     7.28147905E-02    2    -1000001         1   # BR(~g -> ~d_L* d )
     7.32879167E-02    2     1000002        -2   # BR(~g -> ~u_L  ub)
     7.32879167E-02    2    -1000002         2   # BR(~g -> ~u_L* u )
     1.03897541E-01    2     2000002        -2   # BR(~g -> ~u_R  ub)
     1.03897541E-01    2    -2000002         2   # BR(~g -> ~u_R* u )
     7.28147905E-02    2     1000003        -3   # BR(~g -> ~s_L  sb)
     7.28147905E-02    2    -1000003         3   # BR(~g -> ~s_L* s )
     7.32876485E-02    2     1000004        -4   # BR(~g -> ~c_L  cb)
     7.32876485E-02    2    -1000004         4   # BR(~g -> ~c_L* c )
     1.03897312E-01    2     2000004        -4   # BR(~g -> ~c_R  cb)
     1.03897312E-01    2    -2000004         4   # BR(~g -> ~c_R* c )
#
#         PDG            Width
DECAY   1000006     3.74896341E+01   # stop1 decays
#          BR         NDA      ID1       ID2
     2.18104255E-01    2     1000022         6   # BR(~t_1 -> ~chi_10 t )
     9.78034675E-02    2     1000023         6   # BR(~t_1 -> ~chi_20 t )
     8.86094882E-02    2     1000025         6   # BR(~t_1 -> ~chi_30 t )
     1.76490745E-04    2     1000035         6   # BR(~t_1 -> ~chi_40 t )
     4.44348361E-01    2     1000024         5   # BR(~t_1 -> ~chi_1+ b )
     4.48094815E-02    2     1000037         5   # BR(~t_1 -> ~chi_2+ b )
     1.06148455E-01    2     1000021         6   # BR(~t_1 -> ~g      t )
#
#         PDG            Width
DECAY   2000006     1.98748201E+02   # stop2 decays
#          BR         NDA      ID1       ID2
     9.73579566E-04    2     1000022         6   # BR(~t_2 -> ~chi_10 t )
     6.42772045E-02    2     1000023         6   # BR(~t_2 -> ~chi_20 t )
     6.69426731E-02    2     1000025         6   # BR(~t_2 -> ~chi_30 t )
     1.64225929E-02    2     1000035         6   # BR(~t_2 -> ~chi_40 t )
     1.96288072E-03    2     1000024         5   # BR(~t_2 -> ~chi_1+ b )
     1.31084692E-01    2     1000037         5   # BR(~t_2 -> ~chi_2+ b )
     3.67927789E-01    2     1000021         6   # BR(~t_2 -> ~g      t )
     8.83809869E-02    2     1000006        25   # BR(~t_2 -> ~t_1    h )
     8.94626260E-02    2     1000006        23   # BR(~t_2 -> ~t_1    Z )
     1.72507403E-01    2     1000005        24   # BR(~t_2 -> ~b_1    W+)
     5.75726432E-05    2     2000005        24   # BR(~t_2 -> ~b_2    W+)
#
#         PDG            Width
DECAY   1000005     3.93414895E+01   # sbottom1 decays
#          BR         NDA      ID1       ID2
     2.15555112E-01    2     1000022         5   # BR(~b_1 -> ~chi_10 b )
     2.10328157E-02    2     1000023         5   # BR(~b_1 -> ~chi_20 b )
     2.10077945E-02    2     1000025         5   # BR(~b_1 -> ~chi_30 b )
     4.14134306E-04    2     1000035         5   # BR(~b_1 -> ~chi_40 b )
     4.23214715E-01    2    -1000024         6   # BR(~b_1 -> ~chi_1- t )
     1.80317421E-01    2    -1000037         6   # BR(~b_1 -> ~chi_2- t )
     1.38458008E-01    2     1000021         5   # BR(~b_1 -> ~g      b )
#
#         PDG            Width
DECAY   2000005     4.35048639E+01   # sbottom2 decays
#          BR         NDA      ID1       ID2
     2.55335968E-06    2     1000022         5   # BR(~b_2 -> ~chi_10 b )
     4.17287771E-02    2     1000023         5   # BR(~b_2 -> ~chi_20 b )
     4.19893523E-02    2     1000025         5   # BR(~b_2 -> ~chi_30 b )
     8.70168717E-03    2     1000035         5   # BR(~b_2 -> ~chi_40 b )
     4.28704731E-06    2    -1000024         6   # BR(~b_2 -> ~chi_1- t )
     8.44647971E-02    2    -1000037         6   # BR(~b_2 -> ~chi_2- t )
     7.82154240E-01    2     1000021         5   # BR(~b_2 -> ~g      b )
     1.10379648E-02    2     1000005        25   # BR(~b_2 -> ~b_1    h )
     9.85576136E-03    2     1000005        23   # BR(~b_2 -> ~b_1    Z )
     2.00605797E-02    2     1000006       -24   # BR(~b_2 -> ~t_1    W-)
#
#         PDG            Width
DECAY   1000002     1.46858508E+01   # sup_L decays
#          BR         NDA      ID1       ID2
     3.32787035E-01    2     1000022         2   # BR(~u_L -> ~chi_10 u)
     6.67212965E-01    2     1000024         1   # BR(~u_L -> ~chi_1+ d)
#
#         PDG            Width
DECAY   2000002     1.11892578E-06   # sup_R decays
#           BR         NDA      ID1       ID2
     2.96598567E-01    2     1000022         2   # BR(~u_R -> ~chi_10 u)
#           BR         NDA      ID1       ID2       ID3
     4.03279651E-02    3        2       23        1000022   # BR(~u_R -> u  Z  ~chi_10)
     1.99664717E-01    3        2       25        1000022   # BR(~u_R -> u  h  ~chi_10)
     3.14033339E-01    3        2       -24        1000024   # BR(~u_R -> u  W-  ~chi_1+)
     1.49375412E-01    3        2       24        -1000024   # BR(~u_R -> u  W+  ~chi_1-)
#
#         PDG            Width
DECAY   1000001     1.46651219E+01   # sdown_L decays
#          BR         NDA      ID1       ID2
     3.33951068E-01    2     1000022         1   # BR(~d_L -> ~chi_10 d)
     6.66048932E-01    2    -1000024         2   # BR(~d_L -> ~chi_1- u)
#
#         PDG            Width
DECAY   2000001     7.69379848E+01   # sdown_R decays
#          BR         NDA      ID1       ID2
     2.83252395E-09    2     1000022         1   # BR(~d_R -> ~chi_10 d)
     6.10822586E-05    2     1000023         1   # BR(~d_R -> ~chi_20 d)
     8.63567767E-07    2     1000025         1   # BR(~d_R -> ~chi_30 d)
     7.28822296E-03    2     1000035         1   # BR(~d_R -> ~chi_40 d)
     9.92649828E-01    2     1000021         1   # BR(~d_R -> ~g      d)
#
#         PDG            Width
DECAY   1000004     1.47856066E+01   # scharm_L decays
#          BR         NDA      ID1       ID2
     3.32786770E-01    2     1000022         4   # BR(~c_L -> ~chi_10 c)
     6.67213230E-01    2     1000024         3   # BR(~c_L -> ~chi_1+ s)
#
#         PDG            Width
DECAY   2000004     1.12048678E-06   # scharm_R decays
#           BR         NDA      ID1       ID2
     2.96645874E-01    2     1000022         4   # BR(~c_R -> ~chi_10 c)
#           BR         NDA      ID1       ID2       ID3
     4.00352782E-02    3        4       23        1000022   # BR(~c_R -> c  Z  ~chi_10)
     2.00207627E-01    3        4       25        1000022   # BR(~c_R -> c  h  ~chi_10)
     3.13238858E-01    3        4       -24        1000024   # BR(~c_R -> c  W-  ~chi_1+)
     1.49872362E-01    3        4       24        -1000024   # BR(~c_R -> c  W+  ~chi_1-)
#
#         PDG            Width
DECAY   1000003     1.47659954E+01   # sstrange_L decays
#          BR         NDA      ID1       ID2
     3.33951705E-01    2     1000022         3   # BR(~s_L -> ~chi_10 s)
     6.66048295E-01    2    -1000024         4   # BR(~s_L -> ~chi_1- c)
#
#         PDG            Width
DECAY   2000003     5.40692748E+01   # sstrange_R decays
#          BR         NDA      ID1       ID2
     4.20237778E-09    2     1000022         3   # BR(~s_R -> ~chi_10 s)
     8.99684679E-05    2     1000023         3   # BR(~s_R -> ~chi_20 s)
     1.27193871E-06    2     1000025         3   # BR(~s_R -> ~chi_30 s)
     1.06753269E-02    2     1000035         3   # BR(~s_R -> ~chi_40 s)
     9.89233429E-01    2     1000021         3   # BR(~s_R -> ~g      s)
#
#         PDG            Width
DECAY   1000011     1.90766197E+01   # selectron_L decays
#          BR         NDA      ID1       ID2
     3.33707784E-01    2     1000022        11   # BR(~e_L -> ~chi_10 e-)
     1.35948772E-04    2     1000023        11   # BR(~e_L -> ~chi_20 e-)
     7.84297248E-06    2     1000025        11   # BR(~e_L -> ~chi_30 e-)
     6.65967242E-01    2    -1000024        12   # BR(~e_L -> ~chi_1- nu_e)
     1.81182539E-04    2    -1000037        12   # BR(~e_L -> ~chi_2- nu_e)
#
#         PDG            Width
DECAY   2000011     4.59097008E-01   # selectron_R decays
#           BR         NDA      ID1       ID2
     3.10668172E-06    2     1000022        11   # BR(~e_R -> ~chi_10 e-)
     3.07678063E-02    2     1000023        11   # BR(~e_R -> ~chi_20 e-)
     4.34061973E-04    2     1000025        11   # BR(~e_R -> ~chi_30 e-)
     9.68795025E-01    2     1000035        11   # BR(~e_R -> ~chi_40 e-)
#
#         PDG            Width
DECAY   1000013     1.90766197E+01   # smuon_L decays
#          BR         NDA      ID1       ID2
     3.33707782E-01    2     1000022        13   # BR(~mu_L -> ~chi_10 mu-)
     1.35948752E-04    2     1000023        13   # BR(~mu_L -> ~chi_20 mu-)
     7.84297133E-06    2     1000025        13   # BR(~mu_L -> ~chi_30 mu-)
     6.65967244E-01    2    -1000024        14   # BR(~mu_L -> ~chi_1- nu_mu)
     1.81182540E-04    2    -1000037        14   # BR(~mu_L -> ~chi_2- nu_mu)
#
#         PDG            Width
DECAY   2000013     4.59096956E-01   # smuon_R decays
#           BR         NDA      ID1       ID2
     3.10668204E-06    2     1000022        13   # BR(~mu_R -> ~chi_10 mu-)
     3.07678091E-02    2     1000023        13   # BR(~mu_R -> ~chi_20 mu-)
     4.34062013E-04    2     1000025        13   # BR(~mu_R -> ~chi_30 mu-)
     9.68795022E-01    2     1000035        13   # BR(~mu_R -> ~chi_40 mu-)
#
#         PDG            Width
DECAY   1000015     5.09804348E+01   # stau_1 decays
#          BR         NDA      ID1       ID2
     2.83744626E-01    2     1000022        15   # BR(~tau_1 -> ~chi_10  tau-)
     5.24988713E-02    2     1000023        15   # BR(~tau_1 -> ~chi_20  tau-)
     5.08308685E-02    2     1000025        15   # BR(~tau_1 -> ~chi_30  tau-)
     4.73455421E-02    2     1000035        15   # BR(~tau_1 -> ~chi_40  tau-)
     5.65478112E-01    2    -1000024        16   # BR(~tau_1 -> ~chi_1-  nu_tau)
     1.01979941E-04    2    -1000037        16   # BR(~tau_1 -> ~chi_2-  nu_tau)
#
#         PDG            Width
DECAY   2000015     2.18740438E+01   # stau_2 decays
#          BR         NDA      ID1       ID2
     3.51345395E-03    2     1000022        15   # BR(~tau_2 -> ~chi_10  tau-)
     1.30227685E-01    2     1000023        15   # BR(~tau_2 -> ~chi_20  tau-)
     1.29102579E-01    2     1000025        15   # BR(~tau_2 -> ~chi_30  tau-)
     4.69626135E-01    2     1000035        15   # BR(~tau_2 -> ~chi_40  tau-)
     6.99550630E-03    2    -1000024        16   # BR(~tau_2 -> ~chi_1-  nu_tau)
     2.58266705E-01    2    -1000037        16   # BR(~tau_2 -> ~chi_2-  nu_tau)
     1.69628364E-03    2     1000016       -24   # BR(~tau_2 -> ~nu_tauL W-)
     5.71652123E-04    2     1000015        23   # BR(~tau_2 -> ~tau_1   Z)
#
#         PDG            Width
DECAY   1000012     1.91114402E+01   # snu_eL decays
#          BR         NDA      ID1       ID2
     3.32887544E-01    2     1000022        12   # BR(~nu_eL -> ~chi_10 nu_e)
     6.48321915E-07    2     1000023        12   # BR(~nu_eL -> ~chi_20 nu_e)
     1.63561937E-05    2     1000025        12   # BR(~nu_eL -> ~chi_30 nu_e)
     6.67080834E-01    2     1000024        11   # BR(~nu_eL -> ~chi_1+ e-)
     1.46176040E-05    2     1000037        11   # BR(~nu_eL -> ~chi_2+ e-)
#
#         PDG            Width
DECAY   1000014     1.91114401E+01   # snu_muL decays
#          BR         NDA      ID1       ID2
     3.32887546E-01    2     1000022        14   # BR(~nu_muL -> ~chi_10 nu_mu)
     6.48321919E-07    2     1000023        14   # BR(~nu_muL -> ~chi_20 nu_mu)
     1.63561938E-05    2     1000025        14   # BR(~nu_muL -> ~chi_30 nu_mu)
     6.67080832E-01    2     1000024        13   # BR(~nu_muL -> ~chi_1+ mu-)
     1.46176018E-05    2     1000037        13   # BR(~nu_muL -> ~chi_2+ mu-)
#
#         PDG            Width
DECAY   1000016     5.12656905E+01   # snu_tauL decays
#          BR         NDA      ID1       ID2
     2.83045555E-01    2     1000022        16   # BR(~nu_tauL -> ~chi_10 nu_tau)
     7.21941572E-06    2     1000023        16   # BR(~nu_tauL -> ~chi_20 nu_tau)
     1.84085868E-04    2     1000025        16   # BR(~nu_tauL -> ~chi_30 nu_tau)
     4.67849257E-02    2     1000035        16   # BR(~nu_tauL -> ~chi_40 nu_tau)
     5.68079428E-01    2     1000024        15   # BR(~nu_tauL -> ~chi_1+ tau-)
     1.01898785E-01    2     1000037        15   # BR(~nu_tauL -> ~chi_2+ tau-)
#
#         PDG            Width
DECAY   1000024     3.90393140E-15   # chargino1+ decays
#           BR         NDA      ID1       ID2       ID3
     1.94035320E-02    3     1000022       -11        12   # BR(~chi_1+ -> ~chi_10 e+   nu_e)
     2.36904320E-03    3     1000022       -13        14   # BR(~chi_1+ -> ~chi_10 mu+  nu_mu)
     9.78227420E-01    2     1000022       211             # BR(~chi_1+ -> ~chi_10 pi+)
#
#         PDG            Width
DECAY   1000037     9.24457080E+00   # chargino2+ decays
#          BR         NDA      ID1       ID2
     1.48210423E-05    2     1000002        -1   # BR(~chi_2+ -> ~u_L     db)
     1.73814139E-04    2    -1000001         2   # BR(~chi_2+ -> ~d_L*    u )
     1.48209427E-05    2     1000004        -3   # BR(~chi_2+ -> ~c_L     sb)
     1.73794726E-04    2    -1000003         4   # BR(~chi_2+ -> ~s_L*     c )
     3.33491970E-01    2     1000024        23   # BR(~chi_2+ -> ~chi_1+  Z )
     3.24839348E-01    2     1000022        24   # BR(~chi_2+ -> ~chi_10  W+)
     3.41291431E-01    2     1000024        25   # BR(~chi_2+ -> ~chi_1+  h )
#
#         PDG            Width
DECAY   1000022     0.00000000E+00   # neutralino1 decays
#
#         PDG            Width
DECAY   1000023     9.13950625E+00   # neutralino2 decays
#          BR         NDA      ID1       ID2
     7.93960660E-02    2     1000022        23   # BR(~chi_20 -> ~chi_10   Z )
     3.27034894E-01    2     1000024       -24   # BR(~chi_20 -> ~chi_1+   W-)
     3.27034894E-01    2    -1000024        24   # BR(~chi_20 -> ~chi_1-   W+)
     2.65419218E-01    2     1000022        25   # BR(~chi_20 -> ~chi_10   h )
     5.83101585E-05    2     1000002        -2   # BR(~chi_20 -> ~u_L      ub)
     5.83101585E-05    2    -1000002         2   # BR(~chi_20 -> ~u_L*     u )
     2.03398963E-04    2     2000002        -2   # BR(~chi_20 -> ~u_R      ub)
     2.03398963E-04    2    -2000002         2   # BR(~chi_20 -> ~u_R*     u )
     1.70285330E-05    2     1000001        -1   # BR(~chi_20 -> ~d_L      db)
     1.70285330E-05    2    -1000001         1   # BR(~chi_20 -> ~d_L*     d )
     5.83033670E-05    2     1000004        -4   # BR(~chi_20 -> ~c_L      cb)
     5.83033670E-05    2    -1000004         4   # BR(~chi_20 -> ~c_L*     c )
     2.03394274E-04    2     2000004        -4   # BR(~chi_20 -> ~c_R      cb)
     2.03394274E-04    2    -2000004         4   # BR(~chi_20 -> ~c_R*     c )
     1.70285330E-05    2     1000003        -3   # BR(~chi_20 -> ~s _L      sb)
     1.70285330E-05    2    -1000003         3   # BR(~chi_20 -> ~s _L*     s )
#
#         PDG            Width
DECAY   1000025     9.07372421E+00   # neutralino3 decays
#          BR         NDA      ID1       ID2
     2.59268313E-01    2     1000022        23   # BR(~chi_30 -> ~chi_10   Z )
     3.30585630E-01    2     1000024       -24   # BR(~chi_30 -> ~chi_1+   W-)
     3.30585630E-01    2    -1000024        24   # BR(~chi_30 -> ~chi_1-   W+)
     7.94611721E-02    2     1000022        25   # BR(~chi_30 -> ~chi_10   h )
     9.78656900E-06    2     1000002        -2   # BR(~chi_30 -> ~u_L      ub)
     9.78656900E-06    2    -1000002         2   # BR(~chi_30 -> ~u_L*     u )
     2.92806744E-06    2     2000002        -2   # BR(~chi_30 -> ~u_R      ub)
     2.92806744E-06    2    -2000002         2   # BR(~chi_30 -> ~u_R*     u )
     1.20997394E-05    2     1000001        -1   # BR(~chi_30 -> ~d_L      db)
     1.20997394E-05    2    -1000001         1   # BR(~chi_30 -> ~d_L*     d )
     9.78545726E-06    2     1000004        -4   # BR(~chi_30 -> ~c_L      cb)
     9.78545726E-06    2    -1000004         4   # BR(~chi_30 -> ~c_L*     c )
     2.92800075E-06    2     2000004        -4   # BR(~chi_30 -> ~c_R      cb)
     2.92800075E-06    2    -2000004         4   # BR(~chi_30 -> ~c_R*     c )
     1.20997394E-05    2     1000003        -3   # BR(~chi_30 -> ~s _L      sb)
     1.20997394E-05    2    -1000003         3   # BR(~chi_30 -> ~s _L*     s )
#
#         PDG            Width
DECAY   1000035     1.07135156E+01   # neutralino4 decays
#          BR         NDA      ID1       ID2
     4.66062812E-04    2     1000022        23   # BR(~chi_40 -> ~chi_10   Z )
     8.80258002E-04    2     1000023        23   # BR(~chi_40 -> ~chi_20   Z )
     5.27516653E-02    2     1000025        23   # BR(~chi_40 -> ~chi_30   Z )
     1.69938592E-03    2     1000024       -24   # BR(~chi_40 -> ~chi_1+   W-)
     1.69938592E-03    2    -1000024        24   # BR(~chi_40 -> ~chi_1-   W+)
     5.22848336E-02    2     1000037       -24   # BR(~chi_40 -> ~chi_2+   W-)
     5.22848336E-02    2    -1000037        24   # BR(~chi_40 -> ~chi_2-   W+)
     1.31622434E-03    2     1000022        25   # BR(~chi_40 -> ~chi_10   h )
     6.39983846E-02    2     1000023        25   # BR(~chi_40 -> ~chi_20   h )
     7.33530274E-04    2     1000025        25   # BR(~chi_40 -> ~chi_30   h )
     7.23959578E-03    2     1000002        -2   # BR(~chi_40 -> ~u_L      ub)
     7.23959578E-03    2    -1000002         2   # BR(~chi_40 -> ~u_L*     u )
     1.70138828E-01    2     2000002        -2   # BR(~chi_40 -> ~u_R      ub)
     1.70138828E-01    2    -2000002         2   # BR(~chi_40 -> ~u_R*     u )
     7.63399275E-03    2     1000001        -1   # BR(~chi_40 -> ~d_L      db)
     7.63399275E-03    2    -1000001         1   # BR(~chi_40 -> ~d_L*     d )
     7.23956725E-03    2     1000004        -4   # BR(~chi_40 -> ~c_L      cb)
     7.23956725E-03    2    -1000004         4   # BR(~chi_40 -> ~c_L*     c )
     1.70138426E-01    2     2000004        -4   # BR(~chi_40 -> ~c_R      cb)
     1.70138426E-01    2    -2000004         4   # BR(~chi_40 -> ~c_R*     c )
     7.63399275E-03    2     1000003        -3   # BR(~chi_40 -> ~s _L      sb)
     7.63399275E-03    2    -1000003         3   # BR(~chi_40 -> ~s _L*     s )
     3.90025711E-03    2     1000011       -11   # BR(~chi_40 -> ~e_L-     e+)
     3.90025711E-03    2    -1000011        11   # BR(~chi_40 -> ~e_L+     e-)
     3.90025711E-03    2     1000013       -13   # BR(~chi_40 -> ~mu_L-    mu+)
     3.90025711E-03    2    -1000013        13   # BR(~chi_40 -> ~mu_L+    mu-)
     4.05890063E-03    2     1000012       -12   # BR(~chi_40 -> ~nu_eL    nu_eb)
     4.05890063E-03    2    -1000012        12   # BR(~chi_40 -> ~nu_eL*   nu_e )
     4.05890063E-03    2     1000014       -14   # BR(~chi_40 -> ~nu_muL   nu_mub)
     4.05890063E-03    2    -1000014        14   # BR(~chi_40 -> ~nu_muL*  nu_mu )
#
#         PDG            Width
DECAY        25     4.90529545E-03   # h decays
#          BR         NDA      ID1       ID2
     5.97733936E-01    2           5        -5   # BR(h -> b       bb     )
     5.41849769E-02    2         -15        15   # BR(h -> tau+    tau-   )
     1.91800083E-04    2         -13        13   # BR(h -> mu+     mu-    )
     2.08280426E-04    2           3        -3   # BR(h -> s       sb     )
     1.79780847E-02    2           4        -4   # BR(h -> c       cb     )
     6.90568715E-02    2          21        21   # BR(h -> g       g      )
     2.09777320E-03    2          22        22   # BR(h -> gam     gam    )
     1.59779317E-03    2          22        23   # BR(h -> Z       gam    )
     2.27506704E-01    2          24       -24   # BR(h -> W+      W-     )
     2.94437796E-02    2          23        23   # BR(h -> Z       Z      )
#
#         PDG            Width
DECAY        35     3.51433558E+01   # H decays
#          BR         NDA      ID1       ID2
     7.97189434E-01    2           5        -5   # BR(H -> b       bb     )
     1.45648305E-01    2         -15        15   # BR(H -> tau+    tau-   )
     5.28005752E-04    2         -13        13   # BR(H -> mu+     mu-    )
     2.33036421E-04    2           3        -3   # BR(H -> s       sb     )
     2.52231110E-08    2           4        -4   # BR(H -> c       cb     )
     2.45571479E-03    2           6        -6   # BR(H -> t       tb     )
     2.03673103E-05    2          21        21   # BR(H -> g       g      )
     1.13299687E-08    2          22        22   # BR(H -> gam     gam    )
     9.91240522E-09    2          23        22   # BR(H -> Z       gam    )
     8.45602905E-07    2          24       -24   # BR(H -> W+      W-     )
     4.21425357E-07    2          23        23   # BR(H -> Z       Z      )
     5.82980002E-06    2          25        25   # BR(H -> h       h      )
     2.00382519E-03    2     1000024  -1000024   # BR(H -> ~chi_1+ ~chi_1-)
     1.67714308E-02    2     1000024  -1000037   # BR(H -> ~chi_1+ ~chi_2-)
     1.67714308E-02    2     1000037  -1000024   # BR(H -> ~chi_2+ ~chi_1-)
     1.00295710E-03    2     1000022   1000022   # BR(H -> ~chi_10 ~chi_10)
     1.03998979E-03    2     1000022   1000023   # BR(H -> ~chi_10 ~chi_20)
     1.63283590E-02    2     1000022   1000025   # BR(H -> ~chi_10 ~chi_30)
#
#         PDG            Width
DECAY        36     3.51719415E+01   # A decays
#          BR         NDA      ID1       ID2
     7.96574184E-01    2           5        -5   # BR(A -> b       bb     )
     1.45531544E-01    2         -15        15   # BR(A -> tau+    tau-   )
     5.27581100E-04    2         -13        13   # BR(A -> mu+     mu-    )
     2.32864332E-04    2           3        -3   # BR(A -> s       sb     )
     2.52829711E-08    2           4        -4   # BR(A -> c       cb     )
     2.47936916E-03    2           6        -6   # BR(A -> t       tb     )
     4.60943946E-05    2          21        21   # BR(A -> g       g      )
     2.50264594E-08    2          22        22   # BR(A -> gam     gam    )
     3.00426595E-08    2          23        22   # BR(A -> Z       gam    )
     8.53256647E-07    2          23        25   # BR(A -> Z       h      )
     2.50358203E-03    2     1000024  -1000024   # BR(A -> ~chi_1+ ~chi_1-)
     1.66698438E-02    2     1000024  -1000037   # BR(A -> ~chi_1+ ~chi_2-)
     1.66698438E-02    2     1000037  -1000024   # BR(A -> ~chi_2+ ~chi_1-)
     1.25273220E-03    2     1000022   1000022   # BR(A -> ~chi_10 ~chi_10)
     1.65096841E-02    2     1000022   1000023   # BR(A -> ~chi_10 ~chi_20)
     1.00174377E-03    2     1000022   1000025   # BR(A -> ~chi_10 ~chi_30)
#
#         PDG            Width
DECAY        37     2.96903549E+01   # H+ decays
#          BR         NDA      ID1       ID2
     1.28019113E-03    2           4        -5   # BR(H+ -> c       bb     )
     1.72542189E-01    2         -15        16   # BR(H+ -> tau+    nu_tau )
     6.25500115E-04    2         -13        14   # BR(H+ -> mu+     nu_mu  )
     1.28018845E-05    2           2        -5   # BR(H+ -> u       bb     )
     1.37926227E-05    2           2        -3   # BR(H+ -> u       sb     )
     2.71509348E-04    2           4        -3   # BR(H+ -> c       sb     )
     7.62237544E-01    2           6        -5   # BR(H+ -> t       bb     )
     1.01445350E-06    2          24        25   # BR(H+ -> W+      h      )
     9.28810732E-13    2          24        36   # BR(H+ -> W+      A      )
     1.72393559E-10    2     1000024   1000022   # BR(H+ -> ~chi_1+ ~chi_10)
     2.14613535E-02    2     1000024   1000023   # BR(H+ -> ~chi_1+ ~chi_20)
     2.10621824E-02    2     1000024   1000025   # BR(H+ -> ~chi_1+ ~chi_30)
     2.04919213E-02    2     1000037   1000022   # BR(H+ -> ~chi_2+ ~chi_10)
