#
#                              ======================
#                              | THE SUSYHIT OUTPUT |
#                              ======================
#
#
#              ------------------------------------------------------
#              |     This is the output of the SUSY-HIT package     |
#              |  created by A.Djouadi, M.Muehlleitner and M.Spira. |
#              |  In case of problems with SUSY-HIT email to        |
#              |           margarete.muehlleitner@kit.edu           |
#              |           michael.spira@psi.ch                     |
#              |           abdelhak.djouadi@cern.ch                 |
#              ------------------------------------------------------
#
#              ------------------------------------------------------
#              |  SUSY Les Houches Accord - MSSM Spectrum + Decays  |
#              |              based on the decay programs           |
#              |                                                    |
#              |                     SDECAY 1.4                     |
#              |                                                    |
#              |  Authors: M.Muhlleitner, A.Djouadi and Y.Mambrini  |
#              |  Ref.:    Comput.Phys.Commun.168(2005)46           |
#              |           [hep-ph/0311167]                         |
#              |                                                    |
#              |                     HDECAY 3.4                     |
#              |                                                    |
#              |  By: A.Djouadi,J.Kalinowski,M.Muhlleitner,M.Spira  |
#              |  Ref.:    Comput.Phys.Commun.108(1998)56           |
#              |           [hep-ph/9704448]                         |
#              |                                                    |
#              |                                                    |
#              |  If not stated otherwise all DRbar couplings and   |
#              |  soft SUSY breaking masses are given at the scale  |
#              |  Q=  0.50017255E+04
#              |                                                    |
#              ------------------------------------------------------
#
#
BLOCK DCINFO  # Decay Program information
     1   SDECAY/HDECAY # decay calculator
     2   1.4  /3.4    # version number
#
BLOCK SPINFO  # Spectrum calculator information
     1    SOFTSUSY    # spectrum calculator                
     2    3.3.10       # version number                    
#
BLOCK MODSEL  # Model selection
     1     0   #  ewkh                                             
#
BLOCK SMINPUTS  # Standard Model inputs
         1     1.27944000E+02   # alpha_em^-1(M_Z)^MSbar
         2     1.16637000E-05   # G_F [GeV^-2]
         3     1.18500002E-01   # alpha_S(M_Z)^MSbar
         4     9.11876000E+01   # M_Z pole mass
         5     4.17999983E+00   # mb(mb)^MSbar
         6     1.73160507E+02   # mt pole mass
         7     1.77699000E+00   # mtau pole mass
#
BLOCK MINPAR  # Input parameters - minimal models
         1     5.00000000E+03   # m0                  
         2    -1.44721216E+03   # m12                 
         3     4.74513130E+01   # tanb                
         5     1.00000000E+02   # A0                  
#
BLOCK EXTPAR  # Input parameters - non-minimal models
         0     5.00172549E+03   # MX                  
#
BLOCK MASS  # Mass Spectrum
# PDG code           mass       particle
        24     8.03799919E+01   # W+
        25     1.25124066E+02   # h
        35     1.34907509E+03   # H
        36     1.34905286E+03   # A
        37     1.35199445E+03   # H+
         5     4.82046057E+00   # b-quark pole mass calculated from mb(mb)_Msbar
   1000001     5.13072120E+03   # ~d_L
   2000001     5.12227379E+03   # ~d_R
   1000002     5.13023695E+03   # ~u_L
   2000002     5.12315345E+03   # ~u_R
   1000003     5.13072120E+03   # ~s_L
   2000003     5.12227379E+03   # ~s_R
   1000004     5.13023695E+03   # ~c_L
   2000004     5.12315345E+03   # ~c_R
   1000005     5.07756153E+03   # ~b_1
   2000005     5.08212320E+03   # ~b_2
   1000006     5.06156914E+03   # ~t_1
   2000006     5.08151129E+03   # ~t_2
   1000011     5.01029312E+03   # ~e_L
   2000011     5.00571620E+03   # ~e_R
   1000012     5.00931790E+03   # ~nu_eL
   1000013     5.01029312E+03   # ~mu_L
   2000013     5.00571620E+03   # ~mu_R
   1000014     5.00931790E+03   # ~nu_muL
   1000015     4.98129114E+03   # ~tau_1
   2000015     4.99839504E+03   # ~tau_2
   1000016     4.99721352E+03   # ~nu_tauL
   1000021     4.35897014E+03   # ~g
   1000022     1.29498619E+02   # ~chi_10
   1000023    -2.01749098E+02   # ~chi_20
   1000025     2.39875344E+02   # ~chi_30
   1000035    -1.43702284E+03   # ~chi_40
   1000024     1.32455558E+02   # ~chi_1+
   1000037     2.45955710E+02   # ~chi_2+
#
BLOCK NMIX  # Neutralino Mixing Matrix
  1  1     9.63523432E-03   # N_11
  1  2     7.53305546E-01   # N_12
  1  3     5.50096315E-01   # N_13
  1  4     3.60322024E-01   # N_14
  2  1     2.54498342E-02   # N_21
  2  2     1.58466417E-01   # N_22
  2  3    -6.83733000E-01   # N_23
  2  4     7.11863670E-01   # N_24
  3  1    -1.52918446E-02   # N_31
  3  2     6.38292100E-01   # N_32
  3  3    -4.79458512E-01   # N_33
  3  4    -6.02053894E-01   # N_34
  4  1     9.99512695E-01   # N_41
  4  2    -1.53130213E-03   # N_42
  4  3     4.77110457E-03   # N_43
  4  4    -3.08101280E-02   # N_44
#
BLOCK UMIX  # Chargino Mixing Matrix U
  1  1     6.82681259E-01   # U_11
  1  2     7.30716291E-01   # U_12
  2  1    -7.30716291E-01   # U_21
  2  2     6.82681259E-01   # U_22
#
BLOCK VMIX  # Chargino Mixing Matrix V
  1  1     8.74129730E-01   # V_11
  1  2    -4.85692511E-01   # V_12
  2  1    -4.85692511E-01   # V_21
  2  2    -8.74129730E-01   # V_22
#
BLOCK STOPMIX  # Stop Mixing Matrix
  1  1     1.98660402E-01   # cos(theta_t)
  1  2     9.80068388E-01   # sin(theta_t)
  2  1    -9.80068388E-01   # -sin(theta_t)
  2  2     1.98660402E-01   # cos(theta_t)
#
BLOCK SBOTMIX  # Sbottom Mixing Matrix
  1  1     8.88967353E-01   # cos(theta_b)
  1  2    -4.57970573E-01   # sin(theta_b)
  2  1     4.57970573E-01   # -sin(theta_b)
  2  2     8.88967353E-01   # cos(theta_b)
#
BLOCK STAUMIX  # Stau Mixing Matrix
  1  1    -9.13297279E-02   # cos(theta_tau)
  1  2     9.95820707E-01   # sin(theta_tau)
  2  1    -9.95820707E-01   # -sin(theta_tau)
  2  2    -9.13297279E-02   # cos(theta_tau)
#
BLOCK ALPHA  # Higgs mixing
          -2.16519515E-02   # Mixing angle in the neutral Higgs boson sector
#
BLOCK HMIX Q=  5.00172549E+03  # DRbar Higgs Parameters
         1    -1.87537630E+02   # mu(Q)MSSM           
         2     4.67590082E+01   # tan                 
         3     2.39823014E+02   # higgs               
         4     1.85255944E+06   # mA^2(Q)MSSM         
#
BLOCK GAUGE Q=  5.00172549E+03  # The gauge couplings
     1     3.66346619E-01   # gprime(Q) DRbar
     2     6.43862456E-01   # g(Q) DRbar
     3     9.90096942E-01   # g3(Q) DRbar
#
BLOCK AU Q=  5.00172549E+03  # The trilinear couplings
  1  1     1.00000025E+02   # A_u(Q) DRbar
  2  2     1.00000025E+02   # A_c(Q) DRbar
  3  3     1.00000049E+02   # A_t(Q) DRbar
#
BLOCK AD Q=  5.00172549E+03  # The trilinear couplings
  1  1     1.00000017E+02   # A_d(Q) DRbar
  2  2     1.00000017E+02   # A_s(Q) DRbar
  3  3     1.00000034E+02   # A_b(Q) DRbar
#
BLOCK AE Q=  5.00172549E+03  # The trilinear couplings
  1  1     1.00000014E+02   # A_e(Q) DRbar
  2  2     1.00000014E+02   # A_mu(Q) DRbar
  3  3     1.00000015E+02   # A_tau(Q) DRbar
#
BLOCK Yu Q=  5.00172549E+03  # The Yukawa couplings
  1  1     0.00000000E+00   # y_u(Q) DRbar
  2  2     0.00000000E+00   # y_c(Q) DRbar
  3  3     8.17984894E-01   # y_t(Q) DRbar
#
BLOCK Yd Q=  5.00172549E+03  # The Yukawa couplings
  1  1     0.00000000E+00   # y_d(Q) DRbar
  2  2     0.00000000E+00   # y_s(Q) DRbar
  3  3     6.38771369E-01   # y_b(Q) DRbar
#
BLOCK Ye Q=  5.00172549E+03  # The Yukawa couplings
  1  1     0.00000000E+00   # y_e(Q) DRbar
  2  2     0.00000000E+00   # y_mu(Q) DRbar
  3  3     4.83766908E-01   # y_tau(Q) DRbar
#
BLOCK MSOFT Q=  5.00172549E+03  # The soft SUSY breaking masses at the scale Q
         1    -1.44721216E+03   # M_1(Q)              
         2     1.51455368E+02   # M_2(Q)              
         3     4.00000000E+03   # M_3(Q)              
        21     2.34346994E+06   # M^2_Hd              
        22     6.16447508E+05   # M^2_Hu              
        31     5.00000000E+03   # M_eL                
        32     5.00000000E+03   # M_muL               
        33     5.00000000E+03   # M_tauL              
        34     5.00000000E+03   # M_eR                
        35     5.00000000E+03   # M_muR               
        36     5.00000000E+03   # M_tauR              
        41     4.99999998E+03   # M_q1L               
        42     4.99999998E+03   # M_q2L               
        43     4.99999996E+03   # M_q3L               
        44     4.99999998E+03   # M_uR                
        45     4.99999998E+03   # M_cR                
        46     4.99999995E+03   # M_tR                
        47     4.99999998E+03   # M_dR                
        48     4.99999998E+03   # M_sR                
        49     4.99999997E+03   # M_bR                
#
#
#
#                             =================
#                             |The decay table|
#                             =================
#
# - The QCD corrections to the decays gluino -> squark  + quark
#                                     squark -> gaugino + quark_prime
#                                     squark -> squark_prime + Higgs
#                                     squark -> gluino  + quark
#   are included.
#
# - The multi-body decays for the inos, stops and sbottoms are included.
#
# - The loop induced decays for the gluino, neutralinos and stops
#   are included.
#
# - The SUSY decays of the top quark are included.
#
#
#         PDG            Width
DECAY         6     1.45930037E+00   # top decays
#          BR         NDA      ID1       ID2
     1.00000000E+00    2           5        24   # BR(t ->  b    W+)
#
#         PDG            Width
DECAY   1000021     5.73224672E-01   # gluino decays
#          BR         NDA      ID1       ID2
     1.57481778E-04    2     1000022        21   # BR(~g -> ~chi_10 g)
     4.51498522E-04    2     1000023        21   # BR(~g -> ~chi_20 g)
     3.82123344E-04    2     1000025        21   # BR(~g -> ~chi_30 g)
     8.04053181E-07    2     1000035        21   # BR(~g -> ~chi_40 g)
#           BR         NDA      ID1       ID2       ID3
     1.13627019E-02    3     1000022         1        -1   # BR(~g -> ~chi_10 d  db)
     4.26959219E-04    3     1000023         1        -1   # BR(~g -> ~chi_20 d  db)
     8.42317483E-03    3     1000025         1        -1   # BR(~g -> ~chi_30 d  db)
     1.34270442E-03    3     1000035         1        -1   # BR(~g -> ~chi_40 d  db)
     1.14814503E-02    3     1000022         2        -2   # BR(~g -> ~chi_10 u  ub)
     4.87470638E-04    3     1000023         2        -2   # BR(~g -> ~chi_20 u  ub)
     8.27869131E-03    3     1000025         2        -2   # BR(~g -> ~chi_30 u  ub)
     4.54893287E-03    3     1000035         2        -2   # BR(~g -> ~chi_40 u  ub)
     1.13627019E-02    3     1000022         3        -3   # BR(~g -> ~chi_10 s  sb)
     4.26959219E-04    3     1000023         3        -3   # BR(~g -> ~chi_20 s  sb)
     8.42317483E-03    3     1000025         3        -3   # BR(~g -> ~chi_30 s  sb)
     1.34270442E-03    3     1000035         3        -3   # BR(~g -> ~chi_40 s  sb)
     1.14814503E-02    3     1000022         4        -4   # BR(~g -> ~chi_10 c  cb)
     4.87470638E-04    3     1000023         4        -4   # BR(~g -> ~chi_20 c  cb)
     8.27869131E-03    3     1000025         4        -4   # BR(~g -> ~chi_30 c  cb)
     4.54893287E-03    3     1000035         4        -4   # BR(~g -> ~chi_40 c  cb)
     4.82511147E-02    3     1000022         5        -5   # BR(~g -> ~chi_10 b  bb)
     5.53345028E-02    3     1000023         5        -5   # BR(~g -> ~chi_20 b  bb)
     3.56902323E-02    3     1000025         5        -5   # BR(~g -> ~chi_30 b  bb)
     1.43478939E-03    3     1000035         5        -5   # BR(~g -> ~chi_40 b  bb)
     3.11298364E-02    3     1000022         6        -6   # BR(~g -> ~chi_10 t  tb)
     9.33913133E-02    3     1000023         6        -6   # BR(~g -> ~chi_20 t  tb)
     8.34388618E-02    3     1000025         6        -6   # BR(~g -> ~chi_30 t  tb)
     4.62847439E-03    3     1000035         6        -6   # BR(~g -> ~chi_40 t  tb)
     2.47453550E-02    3     1000024         1        -2   # BR(~g -> ~chi_1+ d  ub)
     2.47453550E-02    3    -1000024         2        -1   # BR(~g -> ~chi_1- u  db)
     1.57002715E-02    3     1000037         1        -2   # BR(~g -> ~chi_2+ d  ub)
     1.57002715E-02    3    -1000037         2        -1   # BR(~g -> ~chi_2- u  db)
     2.47453550E-02    3     1000024         3        -4   # BR(~g -> ~chi_1+ s  cb)
     2.47453550E-02    3    -1000024         4        -3   # BR(~g -> ~chi_1- c  sb)
     1.57002715E-02    3     1000037         3        -4   # BR(~g -> ~chi_2+ s  cb)
     1.57002715E-02    3    -1000037         4        -3   # BR(~g -> ~chi_2- c  sb)
     7.38978342E-02    3     1000024         5        -6   # BR(~g -> ~chi_1+ b  tb)
     7.38978342E-02    3    -1000024         6        -5   # BR(~g -> ~chi_1- t  bb)
     1.21713311E-01    3     1000037         5        -6   # BR(~g -> ~chi_2+ b  tb)
     1.21713311E-01    3    -1000037         6        -5   # BR(~g -> ~chi_2- t  bb)
#
#         PDG            Width
DECAY   1000006     1.71246524E+02   # stop1 decays
#          BR         NDA      ID1       ID2
     1.13734218E-01    2     1000022         6   # BR(~t_1 -> ~chi_10 t )
     2.14532848E-01    2     1000023         6   # BR(~t_1 -> ~chi_20 t )
     6.75806054E-02    2     1000025         6   # BR(~t_1 -> ~chi_30 t )
     5.05292350E-02    2     1000035         6   # BR(~t_1 -> ~chi_40 t )
     2.43841922E-01    2     1000024         5   # BR(~t_1 -> ~chi_1+ b )
     1.51555272E-01    2     1000037         5   # BR(~t_1 -> ~chi_2+ b )
     1.58225900E-01    2     1000021         6   # BR(~t_1 -> ~g      t )
#
#         PDG            Width
DECAY   2000006     1.81839027E+02   # stop2 decays
#          BR         NDA      ID1       ID2
     4.85084351E-02    2     1000022         6   # BR(~t_2 -> ~chi_10 t )
     1.65186103E-01    2     1000023         6   # BR(~t_2 -> ~chi_20 t )
     2.41141384E-01    2     1000025         6   # BR(~t_2 -> ~chi_30 t )
     8.91022835E-03    2     1000035         6   # BR(~t_2 -> ~chi_40 t )
     1.40158716E-01    2     1000024         5   # BR(~t_2 -> ~chi_1+ b )
     2.85463853E-01    2     1000037         5   # BR(~t_2 -> ~chi_2+ b )
     1.10631280E-01    2     1000021         6   # BR(~t_2 -> ~g      t )
#
#         PDG            Width
DECAY   1000005     1.74238939E+02   # sbottom1 decays
#          BR         NDA      ID1       ID2
     1.74315917E-01    2     1000022         5   # BR(~b_1 -> ~chi_10 b )
     9.68786620E-02    2     1000023         5   # BR(~b_1 -> ~chi_20 b )
     5.11256557E-02    2     1000025         5   # BR(~b_1 -> ~chi_30 b )
     5.17431518E-03    2     1000035         5   # BR(~b_1 -> ~chi_40 b )
     2.70816000E-01    2    -1000024         6   # BR(~b_1 -> ~chi_1- t )
     2.61416616E-01    2    -1000037         6   # BR(~b_1 -> ~chi_2- t )
     1.40272834E-01    2     1000021         5   # BR(~b_1 -> ~g      b )
#
#         PDG            Width
DECAY   2000005     1.23211846E+02   # sbottom2 decays
#          BR         NDA      ID1       ID2
     4.15488662E-02    2     1000022         5   # BR(~b_2 -> ~chi_10 b )
     1.70286420E-01    2     1000023         5   # BR(~b_2 -> ~chi_20 b )
     1.43085599E-01    2     1000025         5   # BR(~b_2 -> ~chi_30 b )
     1.71786726E-02    2     1000035         5   # BR(~b_2 -> ~chi_40 b )
     6.58285958E-02    2    -1000024         6   # BR(~b_2 -> ~chi_1- t )
     3.60026918E-01    2    -1000037         6   # BR(~b_2 -> ~chi_2- t )
     2.02044928E-01    2     1000021         5   # BR(~b_2 -> ~g      b )
#
#         PDG            Width
DECAY   1000002     8.85758925E+01   # sup_L decays
#          BR         NDA      ID1       ID2
     1.29606246E-01    2     1000022         2   # BR(~u_L -> ~chi_10 u)
     6.05160397E-03    2     1000023         2   # BR(~u_L -> ~chi_20 u)
     9.15241504E-02    2     1000025         2   # BR(~u_L -> ~chi_30 u)
     6.86821548E-03    2     1000035         2   # BR(~u_L -> ~chi_40 u)
     3.47329209E-01    2     1000024         1   # BR(~u_L -> ~chi_1+ d)
     1.06934890E-01    2     1000037         1   # BR(~u_L -> ~chi_2+ d)
     3.11685684E-01    2     1000021         2   # BR(~u_L -> ~g      u)
#
#         PDG            Width
DECAY   2000002     3.70607714E+01   # sup_R decays
#          BR         NDA      ID1       ID2
     2.89849605E-05    2     1000022         2   # BR(~u_R -> ~chi_10 u)
     2.01916100E-04    2     1000023         2   # BR(~u_R -> ~chi_20 u)
     7.28178335E-05    2     1000025         2   # BR(~u_R -> ~chi_30 u)
     2.66440826E-01    2     1000035         2   # BR(~u_R -> ~chi_40 u)
     7.33255455E-01    2     1000021         2   # BR(~u_R -> ~g      u)
#
#         PDG            Width
DECAY   1000001     8.85748184E+01   # sdown_L decays
#          BR         NDA      ID1       ID2
     1.28368518E-01    2     1000022         1   # BR(~d_L -> ~chi_10 d)
     5.35780793E-03    2     1000023         1   # BR(~d_L -> ~chi_20 d)
     9.32129296E-02    2     1000025         1   # BR(~d_L -> ~chi_30 d)
     7.09475436E-03    2     1000035         1   # BR(~d_L -> ~chi_40 d)
     2.11871371E-01    2    -1000024         2   # BR(~d_L -> ~chi_1- u)
     2.42070149E-01    2    -1000037         2   # BR(~d_L -> ~chi_2- u)
     3.12024470E-01    2     1000021         1   # BR(~d_L -> ~g      d)
#
#         PDG            Width
DECAY   2000001     2.95922913E+01   # sdown_R decays
#          BR         NDA      ID1       ID2
     9.07346321E-06    2     1000022         1   # BR(~d_R -> ~chi_10 d)
     6.32078565E-05    2     1000023         1   # BR(~d_R -> ~chi_20 d)
     2.27948996E-05    2     1000025         1   # BR(~d_R -> ~chi_30 d)
     8.34019240E-02    2     1000035         1   # BR(~d_R -> ~chi_40 d)
     9.16503000E-01    2     1000021         1   # BR(~d_R -> ~g      d)
#
#         PDG            Width
DECAY   1000004     8.85758925E+01   # scharm_L decays
#          BR         NDA      ID1       ID2
     1.29606246E-01    2     1000022         4   # BR(~c_L -> ~chi_10 c)
     6.05160397E-03    2     1000023         4   # BR(~c_L -> ~chi_20 c)
     9.15241504E-02    2     1000025         4   # BR(~c_L -> ~chi_30 c)
     6.86821548E-03    2     1000035         4   # BR(~c_L -> ~chi_40 c)
     3.47329209E-01    2     1000024         3   # BR(~c_L -> ~chi_1+ s)
     1.06934890E-01    2     1000037         3   # BR(~c_L -> ~chi_2+ s)
     3.11685684E-01    2     1000021         4   # BR(~c_L -> ~g      c)
#
#         PDG            Width
DECAY   2000004     3.70607714E+01   # scharm_R decays
#          BR         NDA      ID1       ID2
     2.89849605E-05    2     1000022         4   # BR(~c_R -> ~chi_10 c)
     2.01916100E-04    2     1000023         4   # BR(~c_R -> ~chi_20 c)
     7.28178335E-05    2     1000025         4   # BR(~c_R -> ~chi_30 c)
     2.66440826E-01    2     1000035         4   # BR(~c_R -> ~chi_40 c)
     7.33255455E-01    2     1000021         4   # BR(~c_R -> ~g      c)
#
#         PDG            Width
DECAY   1000003     8.85748184E+01   # sstrange_L decays
#          BR         NDA      ID1       ID2
     1.28368518E-01    2     1000022         3   # BR(~s_L -> ~chi_10 s)
     5.35780793E-03    2     1000023         3   # BR(~s_L -> ~chi_20 s)
     9.32129296E-02    2     1000025         3   # BR(~s_L -> ~chi_30 s)
     7.09475436E-03    2     1000035         3   # BR(~s_L -> ~chi_40 s)
     2.11871371E-01    2    -1000024         4   # BR(~s_L -> ~chi_1- c)
     2.42070149E-01    2    -1000037         4   # BR(~s_L -> ~chi_2- c)
     3.12024470E-01    2     1000021         3   # BR(~s_L -> ~g      s)
#
#         PDG            Width
DECAY   2000003     2.95922913E+01   # sstrange_R decays
#          BR         NDA      ID1       ID2
     9.07346321E-06    2     1000022         3   # BR(~s_R -> ~chi_10 s)
     6.32078565E-05    2     1000023         3   # BR(~s_R -> ~chi_20 s)
     2.27948996E-05    2     1000025         3   # BR(~s_R -> ~chi_30 s)
     8.34019240E-02    2     1000035         3   # BR(~s_R -> ~chi_40 s)
     9.16503000E-01    2     1000021         3   # BR(~s_R -> ~g      s)
#
#         PDG            Width
DECAY   1000011     6.74345044E+01   # selectron_L decays
#          BR         NDA      ID1       ID2
     1.76168226E-01    2     1000022        11   # BR(~e_L -> ~chi_10 e-)
     9.13447418E-03    2     1000023        11   # BR(~e_L -> ~chi_20 e-)
     1.20890321E-01    2     1000025        11   # BR(~e_L -> ~chi_30 e-)
     8.30113156E-02    2     1000035        11   # BR(~e_L -> ~chi_40 e-)
     2.85184558E-01    2    -1000024        12   # BR(~e_L -> ~chi_1- nu_e)
     3.25611106E-01    2    -1000037        12   # BR(~e_L -> ~chi_2- nu_e)
#
#         PDG            Width
DECAY   2000011     2.25103947E+01   # selectron_R decays
#          BR         NDA      ID1       ID2
     1.10095782E-04    2     1000022        11   # BR(~e_R -> ~chi_10 e-)
     7.66629397E-04    2     1000023        11   # BR(~e_R -> ~chi_20 e-)
     2.76407931E-04    2     1000025        11   # BR(~e_R -> ~chi_30 e-)
     9.98846867E-01    2     1000035        11   # BR(~e_R -> ~chi_40 e-)
#
#         PDG            Width
DECAY   1000013     6.74345044E+01   # smuon_L decays
#          BR         NDA      ID1       ID2
     1.76168226E-01    2     1000022        13   # BR(~mu_L -> ~chi_10 mu-)
     9.13447418E-03    2     1000023        13   # BR(~mu_L -> ~chi_20 mu-)
     1.20890321E-01    2     1000025        13   # BR(~mu_L -> ~chi_30 mu-)
     8.30113156E-02    2     1000035        13   # BR(~mu_L -> ~chi_40 mu-)
     2.85184558E-01    2    -1000024        14   # BR(~mu_L -> ~chi_1- nu_mu)
     3.25611106E-01    2    -1000037        14   # BR(~mu_L -> ~chi_2- nu_mu)
#
#         PDG            Width
DECAY   2000013     2.25103947E+01   # smuon_R decays
#          BR         NDA      ID1       ID2
     1.10095782E-04    2     1000022        13   # BR(~mu_R -> ~chi_10 mu-)
     7.66629397E-04    2     1000023        13   # BR(~mu_R -> ~chi_20 mu-)
     2.76407931E-04    2     1000025        13   # BR(~mu_R -> ~chi_30 mu-)
     9.98846867E-01    2     1000035        13   # BR(~mu_R -> ~chi_40 mu-)
#
#         PDG            Width
DECAY   1000015     6.88021273E+01   # stau_1 decays
#          BR         NDA      ID1       ID2
     1.27040513E-01    2     1000022        15   # BR(~tau_1 -> ~chi_10  tau-)
     1.51727005E-01    2     1000023        15   # BR(~tau_1 -> ~chi_20  tau-)
     6.03855770E-02    2     1000025        15   # BR(~tau_1 -> ~chi_30  tau-)
     3.22477142E-01    2     1000035        15   # BR(~tau_1 -> ~chi_40  tau-)
     2.21202279E-01    2    -1000024        16   # BR(~tau_1 -> ~chi_1-  nu_tau)
     1.17167484E-01    2    -1000037        16   # BR(~tau_1 -> ~chi_2-  nu_tau)
#
#         PDG            Width
DECAY   2000015     9.02743351E+01   # stau_2 decays
#          BR         NDA      ID1       ID2
     1.89967035E-01    2     1000022        15   # BR(~tau_2 -> ~chi_10  tau-)
     1.31207336E-01    2     1000023        15   # BR(~tau_2 -> ~chi_20  tau-)
     1.61946866E-01    2     1000025        15   # BR(~tau_2 -> ~chi_30  tau-)
     6.34674685E-02    2     1000035        15   # BR(~tau_2 -> ~chi_40  tau-)
     1.80809127E-01    2    -1000024        16   # BR(~tau_2 -> ~chi_1-  nu_tau)
     2.72602168E-01    2    -1000037        16   # BR(~tau_2 -> ~chi_2-  nu_tau)
#
#         PDG            Width
DECAY   1000012     6.74506135E+01   # snu_eL decays
#          BR         NDA      ID1       ID2
     1.71039458E-01    2     1000022        12   # BR(~nu_eL -> ~chi_10 nu_e)
     6.32861875E-03    2     1000023        12   # BR(~nu_eL -> ~chi_20 nu_e)
     1.27609809E-01    2     1000025        12   # BR(~nu_eL -> ~chi_30 nu_e)
     8.38679946E-02    2     1000035        12   # BR(~nu_eL -> ~chi_40 nu_e)
     4.67361912E-01    2     1000024        11   # BR(~nu_eL -> ~chi_1+ e-)
     1.43792208E-01    2     1000037        11   # BR(~nu_eL -> ~chi_2+ e-)
#
#         PDG            Width
DECAY   1000014     6.74506135E+01   # snu_muL decays
#          BR         NDA      ID1       ID2
     1.71039458E-01    2     1000022        14   # BR(~nu_muL -> ~chi_10 nu_mu)
     6.32861875E-03    2     1000023        14   # BR(~nu_muL -> ~chi_20 nu_mu)
     1.27609809E-01    2     1000025        14   # BR(~nu_muL -> ~chi_30 nu_mu)
     8.38679946E-02    2     1000035        14   # BR(~nu_muL -> ~chi_40 nu_mu)
     4.67361912E-01    2     1000024        13   # BR(~nu_muL -> ~chi_1+ mu-)
     1.43792208E-01    2     1000037        13   # BR(~nu_muL -> ~chi_2+ mu-)
#
#         PDG            Width
DECAY   1000016     9.04785595E+01   # snu_tauL decays
#          BR         NDA      ID1       ID2
     1.27198805E-01    2     1000022        16   # BR(~nu_tauL -> ~chi_10 nu_tau)
     4.70643026E-03    2     1000023        16   # BR(~nu_tauL -> ~chi_20 nu_tau)
     9.48994980E-02    2     1000025        16   # BR(~nu_tauL -> ~chi_30 nu_tau)
     6.23171990E-02    2     1000035        16   # BR(~nu_tauL -> ~chi_40 nu_tau)
     4.84687059E-01    2     1000024        15   # BR(~nu_tauL -> ~chi_1+ tau-)
     2.26191008E-01    2     1000037        15   # BR(~nu_tauL -> ~chi_2+ tau-)
#
#         PDG            Width
DECAY   1000024     6.16905907E-10   # chargino1+ decays
#           BR         NDA      ID1       ID2       ID3
     3.67826734E-01    3     1000022         2        -1   # BR(~chi_1+ -> ~chi_10 u    db)
     3.67826734E-01    3     1000022         4        -3   # BR(~chi_1+ -> ~chi_10 c    sb)
     1.22609976E-01    3     1000022       -11        12   # BR(~chi_1+ -> ~chi_10 e+   nu_e)
     1.22609976E-01    3     1000022       -13        14   # BR(~chi_1+ -> ~chi_10 mu+  nu_mu)
     1.91265789E-02    3     1000022       -15        16   # BR(~chi_1+ -> ~chi_10 tau+ nu_tau)
#
#         PDG            Width
DECAY   1000037     2.68383434E-01   # chargino2+ decays
#          BR         NDA      ID1       ID2
     3.28648139E-01    2     1000024        23   # BR(~chi_2+ -> ~chi_1+  Z )
     6.71351861E-01    2     1000022        24   # BR(~chi_2+ -> ~chi_10  W+)
#
#         PDG            Width
DECAY   1000022     0.00000000E+00   # neutralino1 decays
#
#         PDG            Width
DECAY   1000023     2.94035988E-03   # neutralino2 decays
#          BR         NDA      ID1       ID2
     5.71667460E-06    2     1000022        22   # BR(~chi_20 -> ~chi_10 gam)
#           BR         NDA      ID1       ID2       ID3
     3.08072458E-02    3     1000022        -2         2   # BR(~chi_20 -> ~chi_10 ub      u)
     3.99572336E-02    3     1000022        -1         1   # BR(~chi_20 -> ~chi_10 db      d)
     3.08072458E-02    3     1000022        -4         4   # BR(~chi_20 -> ~chi_10 cb      c)
     3.99572336E-02    3     1000022        -3         3   # BR(~chi_20 -> ~chi_10 sb      s)
     3.83403996E-02    3     1000022        -5         5   # BR(~chi_20 -> ~chi_10 bb      b)
     9.16358939E-03    3     1000022       -11        11   # BR(~chi_20 -> ~chi_10 e+      e-)
     9.16358939E-03    3     1000022       -13        13   # BR(~chi_20 -> ~chi_10 mu+     mu-)
     9.11869406E-03    3     1000022       -15        15   # BR(~chi_20 -> ~chi_10 tau+    tau-)
     1.83211987E-02    3     1000022       -12        12   # BR(~chi_20 -> ~chi_10 nu_eb   nu_e)
     1.83211987E-02    3     1000022       -14        14   # BR(~chi_20 -> ~chi_10 nu_mub  nu_mu)
     1.83212044E-02    3     1000022       -16        16   # BR(~chi_20 -> ~chi_10 nu_taub nu_tau)
     1.22988680E-01    3     1000024        -2         1   # BR(~chi_20 -> ~chi_1+ ub      d)
     1.22988680E-01    3    -1000024        -1         2   # BR(~chi_20 -> ~chi_1- db      u)
     1.22988680E-01    3     1000024        -4         3   # BR(~chi_20 -> ~chi_1+ cb      s)
     1.22988680E-01    3    -1000024        -3         4   # BR(~chi_20 -> ~chi_1- sb      c)
     4.09960188E-02    3     1000024       -12        11   # BR(~chi_20 -> ~chi_1+ nu_eb   e-)
     4.09960188E-02    3    -1000024        12       -11   # BR(~chi_20 -> ~chi_1- nu_e    e+)
     4.09960188E-02    3     1000024       -14        13   # BR(~chi_20 -> ~chi_1+ nu_mub  mu-)
     4.09960188E-02    3    -1000024        14       -13   # BR(~chi_20 -> ~chi_1- nu_mu   mu+)
     4.08883272E-02    3     1000024       -16        15   # BR(~chi_20 -> ~chi_1+ nu_taub tau-)
     4.08883272E-02    3    -1000024        16       -15   # BR(~chi_20 -> ~chi_1- nu_tau  tau+)
#
#         PDG            Width
DECAY   1000025     3.75440886E-01   # neutralino3 decays
#          BR         NDA      ID1       ID2
     1.14084071E-02    2     1000022        23   # BR(~chi_30 -> ~chi_10   Z )
     4.94295796E-01    2     1000024       -24   # BR(~chi_30 -> ~chi_1+   W-)
     4.94295796E-01    2    -1000024        24   # BR(~chi_30 -> ~chi_1-   W+)
#
#         PDG            Width
DECAY   1000035     3.58588903E+00   # neutralino4 decays
#          BR         NDA      ID1       ID2
     4.98281603E-02    2     1000022        23   # BR(~chi_40 -> ~chi_10   Z )
     8.95067369E-02    2     1000023        23   # BR(~chi_40 -> ~chi_20   Z )
     1.07883913E-01    2     1000025        23   # BR(~chi_40 -> ~chi_30   Z )
     7.41545709E-02    2     1000024       -24   # BR(~chi_40 -> ~chi_1+   W-)
     7.41545709E-02    2    -1000024        24   # BR(~chi_40 -> ~chi_1-   W+)
     1.67237152E-01    2     1000037       -24   # BR(~chi_40 -> ~chi_2+   W-)
     1.67237152E-01    2    -1000037        24   # BR(~chi_40 -> ~chi_2-   W+)
     3.27994040E-02    2     1000022        25   # BR(~chi_40 -> ~chi_10   h )
     1.82138108E-01    2     1000023        25   # BR(~chi_40 -> ~chi_20   h )
     5.50602327E-02    2     1000025        25   # BR(~chi_40 -> ~chi_30   h )
#
#         PDG            Width
DECAY        25     4.00653829E-03   # h decays
#          BR         NDA      ID1       ID2
     6.00113530E-01    2           5        -5   # BR(h -> b       bb     )
     6.62800180E-02    2         -15        15   # BR(h -> tau+    tau-   )
     2.34608928E-04    2         -13        13   # BR(h -> mu+     mu-    )
     4.60539522E-04    2           3        -3   # BR(h -> s       sb     )
     1.95943122E-02    2           4        -4   # BR(h -> c       cb     )
     7.04780193E-02    2          21        21   # BR(h -> g       g      )
     2.35315205E-03    2          22        22   # BR(h -> gam     gam    )
     1.57582636E-03    2          22        23   # BR(h -> Z       gam    )
     2.12381306E-01    2          24       -24   # BR(h -> W+      W-     )
     2.65286875E-02    2          23        23   # BR(h -> Z       Z      )
#
#         PDG            Width
DECAY        35     5.93639842E+01   # H decays
#          BR         NDA      ID1       ID2
     6.28294342E-01    2           5        -5   # BR(H -> b       bb     )
     1.02971150E-01    2         -15        15   # BR(H -> tau+    tau-   )
     3.64047513E-04    2         -13        13   # BR(H -> mu+     mu-    )
     4.59830241E-04    2           3        -3   # BR(H -> s       sb     )
     4.41971609E-09    2           4        -4   # BR(H -> c       cb     )
     4.57079113E-04    2           6        -6   # BR(H -> t       tb     )
     3.72985049E-05    2          21        21   # BR(H -> g       g      )
     1.52526658E-07    2          22        22   # BR(H -> gam     gam    )
     1.71131844E-08    2          23        22   # BR(H -> Z       gam    )
     9.61135372E-07    2          24       -24   # BR(H -> W+      W-     )
     4.77639397E-07    2          23        23   # BR(H -> Z       Z      )
     3.70655099E-06    2          25        25   # BR(H -> h       h      )
     1.03713855E-24    2          36        36   # BR(H -> A       A      )
     6.64259873E-20    2          23        36   # BR(H -> Z       A      )
     7.57686764E-02    2     1000024  -1000024   # BR(H -> ~chi_1+ ~chi_1-)
     1.85553042E-02    2     1000037  -1000037   # BR(H -> ~chi_2+ ~chi_2-)
     4.22377506E-02    2     1000024  -1000037   # BR(H -> ~chi_1+ ~chi_2-)
     4.22377506E-02    2     1000037  -1000024   # BR(H -> ~chi_2+ ~chi_1-)
     3.17223083E-02    2     1000022   1000022   # BR(H -> ~chi_10 ~chi_10)
     1.56817962E-03    2     1000023   1000023   # BR(H -> ~chi_20 ~chi_20)
     1.59437823E-02    2     1000025   1000025   # BR(H -> ~chi_30 ~chi_30)
     1.63371497E-02    2     1000022   1000023   # BR(H -> ~chi_10 ~chi_20)
     5.17616178E-06    2     1000022   1000025   # BR(H -> ~chi_10 ~chi_30)
     2.30348554E-02    2     1000023   1000025   # BR(H -> ~chi_20 ~chi_30)
#
#         PDG            Width
DECAY        36     5.93667621E+01   # A decays
#          BR         NDA      ID1       ID2
     6.28278944E-01    2           5        -5   # BR(A -> b       bb     )
     1.02966541E-01    2         -15        15   # BR(A -> tau+    tau-   )
     3.64028703E-04    2         -13        13   # BR(A -> mu+     mu-    )
     4.59821728E-04    2           3        -3   # BR(A -> s       sb     )
     4.35037385E-09    2           4        -4   # BR(A -> c       cb     )
     4.68015592E-04    2           6        -6   # BR(A -> t       tb     )
     5.34462796E-05    2          21        21   # BR(A -> g       g      )
     2.11186382E-07    2          22        22   # BR(A -> gam     gam    )
     2.69148759E-08    2          23        22   # BR(A -> Z       gam    )
     9.43219630E-07    2          23        25   # BR(A -> Z       h      )
     7.53595012E-02    2     1000024  -1000024   # BR(A -> ~chi_1+ ~chi_1-)
     1.81284500E-02    2     1000037  -1000037   # BR(A -> ~chi_2+ ~chi_2-)
     4.26555574E-02    2     1000024  -1000037   # BR(A -> ~chi_1+ ~chi_2-)
     4.26555574E-02    2     1000037  -1000024   # BR(A -> ~chi_2+ ~chi_1-)
     3.11288924E-02    2     1000022   1000022   # BR(A -> ~chi_10 ~chi_10)
     1.88368128E-03    2     1000023   1000023   # BR(A -> ~chi_20 ~chi_20)
     1.63808967E-02    2     1000025   1000025   # BR(A -> ~chi_30 ~chi_30)
     1.72997644E-02    2     1000022   1000023   # BR(A -> ~chi_10 ~chi_20)
     2.27703283E-07    2     1000022   1000025   # BR(A -> ~chi_10 ~chi_30)
     2.19154883E-02    2     1000023   1000025   # BR(A -> ~chi_20 ~chi_30)
#
#         PDG            Width
DECAY        37     5.88921368E+01   # H+ decays
#          BR         NDA      ID1       ID2
     1.01062200E-03    2           4        -5   # BR(H+ -> c       bb     )
     1.04022701E-01    2         -15        16   # BR(H+ -> tau+    nu_tau )
     3.67762651E-04    2         -13        14   # BR(H+ -> mu+     nu_mu  )
     6.46794501E-06    2           2        -5   # BR(H+ -> u       bb     )
     2.21589480E-05    2           2        -3   # BR(H+ -> u       sb     )
     4.55759650E-04    2           4        -3   # BR(H+ -> c       sb     )
     6.26153170E-01    2           6        -5   # BR(H+ -> t       bb     )
     9.60229783E-07    2          24        25   # BR(H+ -> W+      h      )
     4.91034347E-12    2          24        36   # BR(H+ -> W+      A      )
     5.05024851E-05    2     1000024   1000022   # BR(H+ -> ~chi_1+ ~chi_10)
     5.62519511E-02    2     1000024   1000023   # BR(H+ -> ~chi_1+ ~chi_20)
     7.61384658E-02    2     1000024   1000025   # BR(H+ -> ~chi_1+ ~chi_30)
     1.05138425E-01    2     1000037   1000022   # BR(H+ -> ~chi_2+ ~chi_10)
     3.00157787E-02    2     1000037   1000023   # BR(H+ -> ~chi_2+ ~chi_20)
     3.65274796E-04    2     1000037   1000025   # BR(H+ -> ~chi_2+ ~chi_30)
