#
#                              ======================
#                              | THE SUSYHIT OUTPUT |
#                              ======================
#
#
#              ------------------------------------------------------
#              |     This is the output of the SUSY-HIT package     |
#              |  created by A.Djouadi, M.Muehlleitner and M.Spira. |
#              |  In case of problems with SUSY-HIT email to        |
#              |           margarete.muehlleitner@cern.ch           |
#              |           michael.spira@psi.ch                     |
#              |           abdelhak.djouadi@cern.ch                 |
#              ------------------------------------------------------
#
#              ------------------------------------------------------
#              |  SUSY Les Houches Accord - MSSM Spectrum + Decays  |
#              |              based on the decay programs           |
#              |                                                    |
#              |                     SDECAY 1.3b                    |
#              |                                                    |
#              |  Authors: M.Muhlleitner, A.Djouadi and Y.Mambrini  |
#              |  Ref.:    Comput.Phys.Commun.168(2005)46           |
#              |           [hep-ph/0311167]                         |
#              |                                                    |
#              |                     HDECAY 3.4                     |
#              |                                                    |
#              |  By: A.Djouadi,J.Kalinowski,M.Muhlleitner,M.Spira  |
#              |  Ref.:    Comput.Phys.Commun.108(1998)56           |
#              |           [hep-ph/9704448]                         |
#              |                                                    |
#              |                                                    |
#              |  If not stated otherwise all DRbar couplings and   |
#              |  soft SUSY breaking masses are given at the scale  |
#              |  Q=  0.14382290E+04
#              |                                                    |
#              ------------------------------------------------------
#
#
BLOCK DCINFO  # Decay Program information
     1   SDECAY/HDECAY # decay calculator
     2   1.3b  /3.4    # version number
#
BLOCK SPINFO  # Spectrum calculator information
     1     SOFTSUSY    # spectrum calculator               
     2     3.4.0       # version number                    
#
BLOCK MODSEL  # Model selection
     1     0   #  nonUniversal                                     
#
BLOCK SMINPUTS  # Standard Model inputs
         1     1.27908970E+02   # alpha_em^-1(M_Z)^MSbar
         2     1.16637870E-05   # G_F [GeV^-2]
         3     1.18400000E-01   # alpha_S(M_Z)^MSbar
         4     9.11876000E+01   # M_Z pole mass
         5     4.18000000E+00   # mb(mb)^MSbar
         6     1.73200000E+02   # mt pole mass
         7     1.77700000E+00   # mtau pole mass
#
BLOCK MINPAR  # Input parameters - minimal models
         3     2.19500000E+01   # tanb                
#
BLOCK EXTPAR  # Input parameters - non-minimal models
         0    -1.00000000E+00   # Set                 
         1     2.96632000E+03   # M_1(MX)             
         2    -5.21820000E+02   # M_2(MX)             
         3     1.87365000E+03   # M_3(MX)             
        11    -2.61430000E+03   # At(MX)              
        12     1.62455000E+03   # Ab(MX)              
        13     3.82447000E+03   # Atau(MX)            
        23     2.03420000E+03   # mu(MX)              
        26     3.20254000E+03   # mA(pole)            
        31     2.62309000E+03   # meL(MX)             
        32     2.62309000E+03   # mmuL(MX)            
        33     3.92501000E+03   # mtauL(MX)           
        34     3.92908000E+03   # meR(MX)             
        35     3.92908000E+03   # mmuR(MX)            
        36     1.68307000E+03   # mtauR(MX)           
        41     1.10449000E+03   # mqL1(MX)            
        42     1.10449000E+03   # mqL2(MX)            
        43     1.41088000E+03   # mqL3(MX)            
        44     3.78356000E+03   # muR(MX)             
        45     3.78356000E+03   # mcR(MX)             
        46     1.47862000E+03   # mtR(MX)             
        47     3.47819000E+03   # mdR(MX)             
        48     3.47819000E+03   # msR(MX)             
        49     1.27425000E+03   # mbR(MX)             
#
BLOCK MASS  # Mass Spectrum
# PDG code           mass       particle
        24     8.03790414E+01   # W+
        25     1.25949943E+02   # h
        35     3.20268930E+03   # H
        36     3.20254036E+03   # A
        37     3.20389770E+03   # H+
         5     4.81876030E+00   # b-quark pole mass calculated from mb(mb)_Msbar
   1000001     1.16668453E+03   # ~d_L
   2000001     3.50161282E+03   # ~d_R
   1000002     1.16409263E+03   # ~u_L
   2000002     3.81086321E+03   # ~u_R
   1000003     1.16668453E+03   # ~s_L
   2000003     3.50161282E+03   # ~s_R
   1000004     1.16409263E+03   # ~c_L
   2000004     3.81086321E+03   # ~c_R
   1000005     1.32283600E+03   # ~b_1
   2000005     1.46295152E+03   # ~b_2
   1000006     1.35004591E+03   # ~t_1
   2000006     1.61673758E+03   # ~t_2
   1000011     2.63113075E+03   # ~e_L
   2000011     3.92709220E+03   # ~e_R
   1000012     2.62961915E+03   # ~nu_eL
   1000013     2.63113075E+03   # ~mu_L
   2000013     3.92709220E+03   # ~mu_R
   1000014     2.62961915E+03   # ~nu_muL
   1000015     1.68553501E+03   # ~tau_1
   2000015     3.93423057E+03   # ~tau_2
   1000016     3.93306019E+03   # ~nu_tauL
   1000021     1.94848733E+03   # ~g
   1000022    -5.46198401E+02   # ~chi_10
   1000023     2.04368345E+03   # ~chi_20
   1000025    -2.04552209E+03   # ~chi_30
   1000035     2.97549231E+03   # ~chi_40
   1000024     5.46362510E+02   # ~chi_1+
   1000037     2.04701252E+03   # ~chi_2+
#
BLOCK NMIX  # Neutralino Mixing Matrix
  1  1     6.41870930E-05   # N_11
  1  2     9.99161538E-01   # N_12
  1  3    -4.00874898E-02   # N_13
  1  4    -8.31921872E-03   # N_14
  2  1    -3.55857194E-02   # N_21
  2  2    -2.24622947E-02   # N_22
  2  3    -7.06523454E-01   # N_23
  2  4     7.06437337E-01   # N_24
  3  1    -5.96836405E-03   # N_31
  3  2     3.42232457E-02   # N_32
  3  3     7.06243016E-01   # N_33
  3  4     7.07116645E-01   # N_34
  4  1     9.99348804E-01   # N_41
  4  2    -6.59642958E-04   # N_42
  4  3    -2.09380917E-02   # N_43
  4  4     2.93790759E-02   # N_44
#
BLOCK UMIX  # Chargino Mixing Matrix U
  1  1     9.98394312E-01   # U_11
  1  2    -5.66462495E-02   # U_12
  2  1     5.66462495E-02   # U_21
  2  2     9.98394312E-01   # U_22
#
BLOCK VMIX  # Chargino Mixing Matrix V
  1  1    -9.99931060E-01   # V_11
  1  2    -1.17420601E-02   # V_12
  2  1    -1.17420601E-02   # V_21
  2  2     9.99931060E-01   # V_22
#
BLOCK STOPMIX  # Stop Mixing Matrix
  1  1     7.79441942E-01   # cos(theta_t)
  1  2     6.26474468E-01   # sin(theta_t)
  2  1    -6.26474468E-01   # -sin(theta_t)
  2  2     7.79441942E-01   # cos(theta_t)
#
BLOCK SBOTMIX  # Sbottom Mixing Matrix
  1  1     2.16247906E-01   # cos(theta_b)
  1  2     9.76338488E-01   # sin(theta_b)
  2  1    -9.76338488E-01   # -sin(theta_b)
  2  2     2.16247906E-01   # cos(theta_b)
#
BLOCK STAUMIX  # Stau Mixing Matrix
  1  1     5.55544109E-03   # cos(theta_tau)
  1  2     9.99984568E-01   # sin(theta_tau)
  2  1    -9.99984568E-01   # -sin(theta_tau)
  2  2     5.55544109E-03   # cos(theta_tau)
#
BLOCK ALPHA  # Higgs mixing
          -4.72064688E-02   # Mixing angle in the neutral Higgs boson sector
#
BLOCK HMIX Q=  1.43822900E+03  # DRbar Higgs Parameters
         1     2.05444474E+03   # mu(Q)MSSM           
         2     2.11949072E+01   # tan                 
         3     2.43647559E+02   # higgs               
         4     1.01762549E+07   # mA^2(Q)MSSM         
#
BLOCK GAUGE Q=  1.43822900E+03  # The gauge couplings
     1     3.62234910E-01   # gprime(Q) DRbar
     2     6.38917032E-01   # g(Q) DRbar
     3     1.03718663E+00   # g3(Q) DRbar
#
BLOCK AU Q=  1.43822900E+03  # The trilinear couplings
  1  1     0.00000000E+00   # A_u(Q) DRbar
  2  2     0.00000000E+00   # A_c(Q) DRbar
  3  3    -2.61430000E+03   # A_t(Q) DRbar
#
BLOCK AD Q=  1.43822900E+03  # The trilinear couplings
  1  1     0.00000000E+00   # A_d(Q) DRbar
  2  2     0.00000000E+00   # A_s(Q) DRbar
  3  3     1.62455000E+03   # A_b(Q) DRbar
#
BLOCK AE Q=  1.43822900E+03  # The trilinear couplings
  1  1     0.00000000E+00   # A_e(Q) DRbar
  2  2     0.00000000E+00   # A_mu(Q) DRbar
  3  3     3.82447000E+03   # A_tau(Q) DRbar
#
BLOCK Yu Q=  1.43822900E+03  # The Yukawa couplings
  1  1     0.00000000E+00   # y_u(Q) DRbar
  2  2     0.00000000E+00   # y_c(Q) DRbar
  3  3     8.33004062E-01   # y_t(Q) DRbar
#
BLOCK Yd Q=  1.43822900E+03  # The Yukawa couplings
  1  1     0.00000000E+00   # y_d(Q) DRbar
  2  2     0.00000000E+00   # y_s(Q) DRbar
  3  3     2.42584196E-01   # y_b(Q) DRbar
#
BLOCK Ye Q=  1.43822900E+03  # The Yukawa couplings
  1  1     0.00000000E+00   # y_e(Q) DRbar
  2  2     0.00000000E+00   # y_mu(Q) DRbar
  3  3     2.15086422E-01   # y_tau(Q) DRbar
#
BLOCK MSOFT Q=  1.43822900E+03  # The soft SUSY breaking masses at the scale Q
         1     2.96632000E+03   # M_1(Q)              
         2    -5.21820000E+02   # M_2(Q)              
         3     1.87365000E+03   # M_3(Q)              
        21     6.05461503E+06   # mH1^2(Q)            
        22    -4.14097511E+06   # mH2^2(Q)            
        31     2.62309000E+03   # meL(Q)              
        32     2.62309000E+03   # mmuL(Q)             
        33     3.92501000E+03   # mtauL(Q)            
        34     3.92908000E+03   # meR(Q)              
        35     3.92908000E+03   # mmuR(Q)             
        36     1.68307000E+03   # mtauR(Q)            
        41     1.10449000E+03   # mqL1(Q)             
        42     1.10449000E+03   # mqL2(Q)             
        43     1.41088000E+03   # mqL3(Q)             
        44     3.78356000E+03   # muR(Q)              
        45     3.78356000E+03   # mcR(Q)              
        46     1.47861999E+03   # mtR(Q)              
        47     3.47819000E+03   # mdR(Q)              
        48     3.47819000E+03   # msR(Q)              
        49     1.27425000E+03   # mbR(Q)              
#
Block HiggsBoundsInputHiggsCouplingsFermions
# ScalarNormEffCoupSq PseudoSNormEffCoupSq NP   IP1 IP2 IP2
    1.00255714E+00    0.00000000E+00        3  25   5   5  # h0-b-b eff. coupling^2, normalised to SM
    4.49221534E+02    0.00000000E+00        3  35   5   5  # H0-b-b eff. coupling^2, normalised to SM
    0.00000000E+00    4.49224091E+02        3  36   5   5  # A0-b-b eff. coupling^2, normalised to SM
#
    9.99994308E-01    0.00000000E+00        3  25   6   6  # h0-t-t eff. coupling^2, normalised to SM
    2.23175284E-03    0.00000000E+00        3  35   6   6  # H0-t-t eff. coupling^2, normalised to SM
    0.00000000E+00    2.22606049E-03        3  36   6   6  # A0-t-t eff. coupling^2, normalised to SM
#
    1.00255714E+00    0.00000000E+00        3  25  15  15  # h0-tau-tau eff. coupling^2, normalised to SM
    4.49221534E+02    0.00000000E+00        3  35  15  15  # H0-tau-tau eff. coupling^2, normalised to SM
    0.00000000E+00    4.49224091E+02        3  36  15  15  # A0-tau-tau eff. coupling^2, normalised to SM
#
Block HiggsBoundsInputHiggsCouplingsBosons
    9.99999996E-01        3  25  24  24  # h0-W-W eff. coupling^2, normalised to SM
    3.63440149E-09        3  35  24  24  # H0-W-W eff. coupling^2, normalised to SM
    0.00000000E+00        3  36  24  24  # A0-W-W eff. coupling^2, normalised to SM
#
    9.99999996E-01        3  25  23  23  # h0-Z-Z eff. coupling^2, normalised to SM
    3.63440149E-09        3  35  23  23  # H0-Z-Z eff. coupling^2, normalised to SM
    0.00000000E+00        3  36  23  23  # A0-Z-Z eff. coupling^2, normalised to SM
#
    8.75600748E-01        3  25  21  21  # h0-g-g eff. coupling^2, normalised to SM
    6.89858010E-11        3  35  21  21  # H0-g-g eff. coupling^2, normalised to SM
    7.33560331E-13        3  36  21  21  # A0-g-g eff. coupling^2, normalised to SM
#
    0.00000000E+00        3  25  25  23  # h0-h0-Z eff. coupling^2, normalised to SM
    0.00000000E+00        3  35  25  23  # H0-h0-Z eff. coupling^2, normalised to SM
    3.63440149E-09        3  36  25  23  # A0-h0-Z eff. coupling^2, normalised to SM
    0.00000000E+00        3  35  35  23  # H0-H0-Z eff. coupling^2, normalised to SM
    9.99999996E-01        3  36  35  23  # A0-H0-Z eff. coupling^2, normalised to SM
    0.00000000E+00        3  36  36  23  # A0-A0-Z eff. coupling^2, normalised to SM
#
    0.00000000E+00        4  25  21  21  23  # h0-g-g-Z eff. coupling^2, normalised to SM
    0.00000000E+00        4  35  21  21  23  # H0-g-g-Z eff. coupling^2, normalised to SM
    0.00000000E+00        4  36  21  21  23  # A0-g-g-Z eff. coupling^2, normalised to SM
#
#
#
#                             =================
#                             |The decay table|
#                             =================
#
# - The QCD corrections to the decays gluino -> squark  + quark
#                                     squark -> gaugino + quark_prime
#                                     squark -> squark_prime + Higgs
#                                     squark -> gluino  + quark
#   are included.
#
# - The multi-body decays for the inos, stops and sbottoms are included.
#
# - The loop induced decays for the gluino, neutralinos and stops
#   are included.
#
# - The SUSY decays of the top quark are included.
#
#
#         PDG            Width
DECAY         6     1.43815761E+00   # top decays
#          BR         NDA      ID1       ID2
     1.00000000E+00    2           5        24   # BR(t ->  b    W+)
#
#         PDG            Width
DECAY   1000021     8.89255079E+01   # gluino decays
#          BR         NDA      ID1       ID2
     8.08749427E-02    2     1000001        -1   # BR(~g -> ~d_L  db)
     8.08749427E-02    2    -1000001         1   # BR(~g -> ~d_L* d )
     8.12766614E-02    2     1000002        -2   # BR(~g -> ~u_L  ub)
     8.12766614E-02    2    -1000002         2   # BR(~g -> ~u_L* u )
     8.08749427E-02    2     1000003        -3   # BR(~g -> ~s_L  sb)
     8.08749427E-02    2    -1000003         3   # BR(~g -> ~s_L* s )
     8.12765486E-02    2     1000004        -4   # BR(~g -> ~c_L  cb)
     8.12765486E-02    2    -1000004         4   # BR(~g -> ~c_L* c )
     6.40793380E-02    2     1000005        -5   # BR(~g -> ~b_1  bb)
     6.40793380E-02    2    -1000005         5   # BR(~g -> ~b_1* b )
     4.23724876E-02    2     2000005        -5   # BR(~g -> ~b_2  bb)
     4.23724876E-02    2    -2000005         5   # BR(~g -> ~b_2* b )
     4.01864073E-02    2     1000006        -6   # BR(~g -> ~t_1  tb)
     4.01864073E-02    2    -1000006         6   # BR(~g -> ~t_1* t )
     2.90586717E-02    2     2000006        -6   # BR(~g -> ~t_2  tb)
     2.90586717E-02    2    -2000006         6   # BR(~g -> ~t_2* t )
#
#         PDG            Width
DECAY   1000006     6.70041995E+00   # stop1 decays
#          BR         NDA      ID1       ID2
     3.21556659E-01    2     1000022         6   # BR(~t_1 -> ~chi_10 t )
     6.78443341E-01    2     1000024         5   # BR(~t_1 -> ~chi_1+ b )
#
#         PDG            Width
DECAY   2000006     1.93009607E+01   # stop2 decays
#          BR         NDA      ID1       ID2
     1.05221536E-01    2     1000022         6   # BR(~t_2 -> ~chi_10 t )
     2.17624844E-01    2     1000024         5   # BR(~t_2 -> ~chi_1+ b )
     1.93551579E-02    2     1000006        25   # BR(~t_2 -> ~t_1    h )
     3.87157050E-01    2     1000006        23   # BR(~t_2 -> ~t_1    Z )
     8.10669500E-02    2     1000005        24   # BR(~t_2 -> ~b_1    W+)
     1.89574462E-01    2     2000005        24   # BR(~t_2 -> ~b_2    W+)
#
#         PDG            Width
DECAY   1000005     6.00701667E-01   # sbottom1 decays
#          BR         NDA      ID1       ID2
     3.46005031E-01    2     1000022         5   # BR(~b_1 -> ~chi_10 b )
     6.53994969E-01    2    -1000024         6   # BR(~b_1 -> ~chi_1- t )
#
#         PDG            Width
DECAY   2000005     1.36011146E+01   # sbottom2 decays
#          BR         NDA      ID1       ID2
     3.05074585E-01    2     1000022         5   # BR(~b_2 -> ~chi_10 b )
     5.84126200E-01    2    -1000024         6   # BR(~b_2 -> ~chi_1- t )
     7.30367754E-03    2     1000005        25   # BR(~b_2 -> ~b_1    h )
     8.77659907E-03    2     1000005        23   # BR(~b_2 -> ~b_1    Z )
     9.47189380E-02    2     1000006       -24   # BR(~b_2 -> ~t_1    W-)
#
#         PDG            Width
DECAY   1000002     8.69115190E+00   # sup_L decays
#          BR         NDA      ID1       ID2
     3.33071476E-01    2     1000022         2   # BR(~u_L -> ~chi_10 u)
     6.66928524E-01    2     1000024         1   # BR(~u_L -> ~chi_1+ d)
#
#         PDG            Width
DECAY   2000002     1.53950168E+02   # sup_R decays
#          BR         NDA      ID1       ID2
     2.18767576E-10    2     1000022         2   # BR(~u_R -> ~chi_10 u)
     3.57628860E-05    2     1000023         2   # BR(~u_R -> ~chi_20 u)
     1.00453572E-06    2     1000025         2   # BR(~u_R -> ~chi_30 u)
     8.58503437E-03    2     1000035         2   # BR(~u_R -> ~chi_40 u)
     9.91378198E-01    2     1000021         2   # BR(~u_R -> ~g      u)
#
#         PDG            Width
DECAY   1000001     8.71311901E+00   # sdown_L decays
#          BR         NDA      ID1       ID2
     3.33743905E-01    2     1000022         1   # BR(~d_L -> ~chi_10 d)
     6.66256095E-01    2    -1000024         2   # BR(~d_L -> ~chi_1- u)
#
#         PDG            Width
DECAY   2000001     1.22681914E+02   # sdown_R decays
#          BR         NDA      ID1       ID2
     6.24765710E-11    2     1000022         1   # BR(~d_R -> ~chi_10 d)
     8.83623053E-06    2     1000023         1   # BR(~d_R -> ~chi_20 d)
     2.48099527E-07    2     1000025         1   # BR(~d_R -> ~chi_30 d)
     1.26790675E-03    2     1000035         1   # BR(~d_R -> ~chi_40 d)
     9.98723009E-01    2     1000021         1   # BR(~d_R -> ~g      d)
#
#         PDG            Width
DECAY   1000004     8.61663235E+00   # scharm_L decays
#          BR         NDA      ID1       ID2
     3.33070735E-01    2     1000022         4   # BR(~c_L -> ~chi_10 c)
     6.66929265E-01    2     1000024         3   # BR(~c_L -> ~chi_1+ s)
#
#         PDG            Width
DECAY   2000004     1.19989647E+02   # scharm_R decays
#          BR         NDA      ID1       ID2
     2.91275731E-10    2     1000022         4   # BR(~c_R -> ~chi_10 c)
     4.73634879E-05    2     1000023         4   # BR(~c_R -> ~chi_20 c)
     1.33036664E-06    2     1000025         4   # BR(~c_R -> ~chi_30 c)
     1.12152680E-02    2     1000035         4   # BR(~c_R -> ~chi_40 c)
     9.88736038E-01    2     1000021         4   # BR(~c_R -> ~g      c)
#
#         PDG            Width
DECAY   1000003     8.63960730E+00   # sstrange_L decays
#          BR         NDA      ID1       ID2
     3.33745292E-01    2     1000022         3   # BR(~s_L -> ~chi_10 s)
     6.66254708E-01    2    -1000024         4   # BR(~s_L -> ~chi_1- c)
#
#         PDG            Width
DECAY   2000003     9.54002588E+01   # sstrange_R decays
#          BR         NDA      ID1       ID2
     8.35058695E-11    2     1000022         3   # BR(~s_R -> ~chi_10 s)
     1.17224473E-05    2     1000023         3   # BR(~s_R -> ~chi_20 s)
     3.29131353E-07    2     1000025         3   # BR(~s_R -> ~chi_30 s)
     1.64252075E-03    2     1000035         3   # BR(~s_R -> ~chi_40 s)
     9.98345428E-01    2     1000021         3   # BR(~s_R -> ~g      s)
#
#         PDG            Width
DECAY   1000011     2.92846743E+01   # selectron_L decays
#          BR         NDA      ID1       ID2
     3.33528378E-01    2     1000022        11   # BR(~e_L -> ~chi_10 e-)
     1.04369792E-04    2     1000023        11   # BR(~e_L -> ~chi_20 e-)
     5.43025896E-05    2     1000025        11   # BR(~e_L -> ~chi_30 e-)
     6.65948160E-01    2    -1000024        12   # BR(~e_L -> ~chi_1- nu_e)
     3.64789447E-04    2    -1000037        12   # BR(~e_L -> ~chi_2- nu_e)
#
#         PDG            Width
DECAY   2000011     3.72863720E+00   # selectron_R decays
#          BR         NDA      ID1       ID2
     2.17866281E-08    2     1000022        11   # BR(~e_R -> ~chi_10 e-)
     3.70236727E-03    2     1000023        11   # BR(~e_R -> ~chi_20 e-)
     1.04005830E-04    2     1000025        11   # BR(~e_R -> ~chi_30 e-)
     9.96193605E-01    2     1000035        11   # BR(~e_R -> ~chi_40 e-)
#
#         PDG            Width
DECAY   1000013     2.92846743E+01   # smuon_L decays
#          BR         NDA      ID1       ID2
     3.33528377E-01    2     1000022        13   # BR(~mu_L -> ~chi_10 mu-)
     1.04369790E-04    2     1000023        13   # BR(~mu_L -> ~chi_20 mu-)
     5.43025886E-05    2     1000025        13   # BR(~mu_L -> ~chi_30 mu-)
     6.65948161E-01    2    -1000024        14   # BR(~mu_L -> ~chi_1- nu_mu)
     3.64789447E-04    2    -1000037        14   # BR(~mu_L -> ~chi_2- nu_mu)
#
#         PDG            Width
DECAY   2000013     3.72863717E+00   # smuon_R decays
#          BR         NDA      ID1       ID2
     2.17866283E-08    2     1000022        13   # BR(~mu_R -> ~chi_10 mu-)
     3.70236728E-03    2     1000023        13   # BR(~mu_R -> ~chi_20 mu-)
     1.04005831E-04    2     1000025        13   # BR(~mu_R -> ~chi_30 mu-)
     9.96193605E-01    2     1000035        13   # BR(~mu_R -> ~chi_40 mu-)
#
#         PDG            Width
DECAY   1000015     9.97024353E-03   # stau_1 decays
#          BR         NDA      ID1       ID2
     3.33725223E-01    2     1000022        15   # BR(~tau_1 -> ~chi_10  tau-)
     6.66274777E-01    2    -1000024        16   # BR(~tau_1 -> ~chi_1-  nu_tau)
#
#         PDG            Width
DECAY   2000015     4.95756240E+01   # stau_2 decays
#          BR         NDA      ID1       ID2
     3.09480701E-01    2     1000022        15   # BR(~tau_2 -> ~chi_10  tau-)
     1.97543818E-02    2     1000023        15   # BR(~tau_2 -> ~chi_20  tau-)
     1.95808728E-02    2     1000025        15   # BR(~tau_2 -> ~chi_30  tau-)
     1.89145614E-02    2     1000035        15   # BR(~tau_2 -> ~chi_40  tau-)
     6.17723417E-01    2    -1000024        16   # BR(~tau_2 -> ~chi_1-  nu_tau)
     1.17353717E-03    2    -1000037        16   # BR(~tau_2 -> ~chi_2-  nu_tau)
     6.73491566E-03    2     1000015        25   # BR(~tau_2 -> ~tau_1   h)
     6.63761346E-03    2     1000015        23   # BR(~tau_2 -> ~tau_1   Z)
#
#         PDG            Width
DECAY   1000012     2.93109388E+01   # snu_eL decays
#          BR         NDA      ID1       ID2
     3.32955067E-01    2     1000022        12   # BR(~nu_eL -> ~chi_10 nu_e)
     2.98765779E-07    2     1000023        12   # BR(~nu_eL -> ~chi_20 nu_e)
     8.03485603E-05    2     1000025        12   # BR(~nu_eL -> ~chi_30 nu_e)
     6.66948690E-01    2     1000024        11   # BR(~nu_eL -> ~chi_1+ e-)
     1.55961197E-05    2     1000037        11   # BR(~nu_eL -> ~chi_2+ e-)
#
#         PDG            Width
DECAY   1000014     2.93109388E+01   # snu_muL decays
#          BR         NDA      ID1       ID2
     3.32955068E-01    2     1000022        14   # BR(~nu_muL -> ~chi_10 nu_mu)
     2.98765779E-07    2     1000023        14   # BR(~nu_muL -> ~chi_20 nu_mu)
     8.03485605E-05    2     1000025        14   # BR(~nu_muL -> ~chi_30 nu_mu)
     6.66948689E-01    2     1000024        13   # BR(~nu_muL -> ~chi_1+ mu-)
     1.55961194E-05    2     1000037        13   # BR(~nu_muL -> ~chi_2+ mu-)
#
#         PDG            Width
DECAY   1000016     4.95737937E+01   # snu_tauL decays
#          BR         NDA      ID1       ID2
     3.09308707E-01    2     1000022        16   # BR(~nu_tauL -> ~chi_10 nu_tau)
     8.97870843E-07    2     1000023        16   # BR(~nu_tauL -> ~chi_20 nu_tau)
     2.42477150E-04    2     1000025        16   # BR(~nu_tauL -> ~chi_30 nu_tau)
     1.89581059E-02    2     1000035        16   # BR(~nu_tauL -> ~chi_40 nu_tau)
     6.19829256E-01    2     1000024        15   # BR(~nu_tauL -> ~chi_1+ tau-)
     3.87386533E-02    2     1000037        15   # BR(~nu_tauL -> ~chi_2+ tau-)
     1.29219022E-02    2    -1000015       -24   # BR(~nu_tauL -> ~tau_1+ W-)
#
#         PDG            Width
DECAY   1000024     3.55881200E-15   # chargino1+ decays
#           BR         NDA      ID1       ID2       ID3
     1.95573040E-02    3     1000022       -11        12   # BR(~chi_1+ -> ~chi_10 e+   nu_e)
     2.18471670E-03    3     1000022       -13        14   # BR(~chi_1+ -> ~chi_10 mu+  nu_mu)
     9.78257980E-01    2     1000022       211             # BR(~chi_1+ -> ~chi_10 pi+)
#
#         PDG            Width
DECAY   1000037     3.22685489E+01   # chargino2+ decays
#          BR         NDA      ID1       ID2
     4.69456063E-05    2     1000002        -1   # BR(~chi_2+ -> ~u_L     db)
     1.08797584E-03    2    -1000001         2   # BR(~chi_2+ -> ~d_L*    u )
     4.69456037E-05    2     1000004        -3   # BR(~chi_2+ -> ~c_L     sb)
     1.08797485E-03    2    -1000003         4   # BR(~chi_2+ -> ~s_L*     c )
     1.90817839E-01    2     1000006        -5   # BR(~chi_2+ -> ~t_1     bb)
     1.16811897E-01    2     2000006        -5   # BR(~chi_2+ -> ~t_2     bb)
     6.82976438E-02    2    -1000005         6   # BR(~chi_2+ -> ~b_1*    t )
     2.72067859E-01    2    -2000005         6   # BR(~chi_2+ -> ~b_2*    t )
     3.01117222E-03    2    -1000015        16   # BR(~chi_2+ -> ~tau_1+  nu_tau)
     1.14452742E-01    2     1000024        23   # BR(~chi_2+ -> ~chi_1+  Z )
     1.11647958E-01    2     1000022        24   # BR(~chi_2+ -> ~chi_10  W+)
     1.20623047E-01    2     1000024        25   # BR(~chi_2+ -> ~chi_1+  h )
#
#         PDG            Width
DECAY   1000022     0.00000000E+00   # neutralino1 decays
#
#         PDG            Width
DECAY   1000023     3.30859336E+01   # neutralino2 decays
#          BR         NDA      ID1       ID2
     7.76619173E-02    2     1000022        23   # BR(~chi_20 -> ~chi_10   Z )
     1.08503890E-01    2     1000024       -24   # BR(~chi_20 -> ~chi_1+   W-)
     1.08503890E-01    2    -1000024        24   # BR(~chi_20 -> ~chi_1-   W+)
     3.36851147E-02    2     1000022        25   # BR(~chi_20 -> ~chi_10   h )
     1.40799871E-04    2     1000002        -2   # BR(~chi_20 -> ~u_L      ub)
     1.40799871E-04    2    -1000002         2   # BR(~chi_20 -> ~u_L*     u )
     4.07592198E-05    2     1000001        -1   # BR(~chi_20 -> ~d_L      db)
     4.07592198E-05    2    -1000001         1   # BR(~chi_20 -> ~d_L*     d )
     1.40799744E-04    2     1000004        -4   # BR(~chi_20 -> ~c_L      cb)
     1.40799744E-04    2    -1000004         4   # BR(~chi_20 -> ~c_L*     c )
     4.07592198E-05    2     1000003        -3   # BR(~chi_20 -> ~s _L      sb)
     4.07592198E-05    2    -1000003         3   # BR(~chi_20 -> ~s _L*     s )
     2.55255103E-01    2     1000006        -6   # BR(~chi_20 -> ~t_1      tb)
     2.55255103E-01    2    -1000006         6   # BR(~chi_20 -> ~t_1*     t )
     4.75381209E-02    2     2000006        -6   # BR(~chi_20 -> ~t_2      tb)
     4.75381209E-02    2    -2000006         6   # BR(~chi_20 -> ~t_2*     t )
     1.83280965E-02    2     1000005        -5   # BR(~chi_20 -> ~b_1      bb)
     1.83280965E-02    2    -1000005         5   # BR(~chi_20 -> ~b_1*     b )
     1.28644564E-02    2     2000005        -5   # BR(~chi_20 -> ~b_2      bb)
     1.28644564E-02    2    -2000005         5   # BR(~chi_20 -> ~b_2*     b )
     1.47369999E-03    2     1000015       -15   # BR(~chi_20 -> ~tau_1-   tau+)
     1.47369999E-03    2    -1000015        15   # BR(~chi_20 -> ~tau_1+   tau-)
#
#         PDG            Width
DECAY   1000025     3.07005444E+01   # neutralino3 decays
#          BR         NDA      ID1       ID2
     3.63771392E-02    2     1000022        23   # BR(~chi_30 -> ~chi_10   Z )
     1.17496817E-01    2     1000024       -24   # BR(~chi_30 -> ~chi_1+   W-)
     1.17496817E-01    2    -1000024        24   # BR(~chi_30 -> ~chi_1-   W+)
     9.04779972E-02    2     1000022        25   # BR(~chi_30 -> ~chi_10   h )
     1.95590522E-04    2     1000002        -2   # BR(~chi_30 -> ~u_L      ub)
     1.95590522E-04    2    -1000002         2   # BR(~chi_30 -> ~u_L*     u )
     2.22222890E-04    2     1000001        -1   # BR(~chi_30 -> ~d_L      db)
     2.22222890E-04    2    -1000001         1   # BR(~chi_30 -> ~d_L*     d )
     1.95590346E-04    2     1000004        -4   # BR(~chi_30 -> ~c_L      cb)
     1.95590346E-04    2    -1000004         4   # BR(~chi_30 -> ~c_L*     c )
     2.22222890E-04    2     1000003        -3   # BR(~chi_30 -> ~s _L      sb)
     2.22222890E-04    2    -1000003         3   # BR(~chi_30 -> ~s _L*     s )
     1.56970058E-01    2     1000006        -6   # BR(~chi_30 -> ~t_1      tb)
     1.56970058E-01    2    -1000006         6   # BR(~chi_30 -> ~t_1*     t )
     1.26120330E-01    2     2000006        -6   # BR(~chi_30 -> ~t_2      tb)
     1.26120330E-01    2    -2000006         6   # BR(~chi_30 -> ~t_2*     t )
     1.88698396E-02    2     1000005        -5   # BR(~chi_30 -> ~b_1      bb)
     1.88698396E-02    2    -1000005         5   # BR(~chi_30 -> ~b_1*     b )
     1.47050020E-02    2     2000005        -5   # BR(~chi_30 -> ~b_2      bb)
     1.47050020E-02    2    -2000005         5   # BR(~chi_30 -> ~b_2*     b )
     1.57475823E-03    2     1000015       -15   # BR(~chi_30 -> ~tau_1-   tau+)
     1.57475823E-03    2    -1000015        15   # BR(~chi_30 -> ~tau_1+   tau-)
#
#         PDG            Width
DECAY   1000035     3.37016028E+01   # neutralino4 decays
#          BR         NDA      ID1       ID2
     2.66986289E-04    2     1000022        23   # BR(~chi_40 -> ~chi_10   Z )
     1.33933541E-03    2     1000023        23   # BR(~chi_40 -> ~chi_20   Z )
     4.61398657E-02    2     1000025        23   # BR(~chi_40 -> ~chi_30   Z )
     3.76099279E-04    2     1000024       -24   # BR(~chi_40 -> ~chi_1+   W-)
     3.76099279E-04    2    -1000024        24   # BR(~chi_40 -> ~chi_1-   W+)
     4.62400914E-02    2     1000037       -24   # BR(~chi_40 -> ~chi_2+   W-)
     4.62400914E-02    2    -1000037        24   # BR(~chi_40 -> ~chi_2-   W+)
     1.32444782E-04    2     1000022        25   # BR(~chi_40 -> ~chi_10   h )
     4.68813003E-02    2     1000023        25   # BR(~chi_40 -> ~chi_20   h )
     1.30077981E-03    2     1000025        25   # BR(~chi_40 -> ~chi_30   h )
     1.31433897E-02    2     1000002        -2   # BR(~chi_40 -> ~u_L      ub)
     1.31433897E-02    2    -1000002         2   # BR(~chi_40 -> ~u_L*     u )
     1.33070653E-02    2     1000001        -1   # BR(~chi_40 -> ~d_L      db)
     1.33070653E-02    2    -1000001         1   # BR(~chi_40 -> ~d_L*     d )
     1.31433881E-02    2     1000004        -4   # BR(~chi_40 -> ~c_L      cb)
     1.31433881E-02    2    -1000004         4   # BR(~chi_40 -> ~c_L*     c )
     1.33070653E-02    2     1000003        -3   # BR(~chi_40 -> ~s _L      sb)
     1.33070653E-02    2    -1000003         3   # BR(~chi_40 -> ~s _L*     s )
     6.62183445E-02    2     1000006        -6   # BR(~chi_40 -> ~t_1      tb)
     6.62183445E-02    2    -1000006         6   # BR(~chi_40 -> ~t_1*     t )
     1.08812672E-01    2     2000006        -6   # BR(~chi_40 -> ~t_2      tb)
     1.08812672E-01    2    -2000006         6   # BR(~chi_40 -> ~t_2*     t )
     4.68063627E-02    2     1000005        -5   # BR(~chi_40 -> ~b_1      bb)
     4.68063627E-02    2    -1000005         5   # BR(~chi_40 -> ~b_1*     b )
     1.34749205E-02    2     2000005        -5   # BR(~chi_40 -> ~b_2      bb)
     1.34749205E-02    2    -2000005         5   # BR(~chi_40 -> ~b_2*     b )
     2.73009719E-03    2     1000011       -11   # BR(~chi_40 -> ~e_L-     e+)
     2.73009719E-03    2    -1000011        11   # BR(~chi_40 -> ~e_L+     e-)
     2.73009719E-03    2     1000013       -13   # BR(~chi_40 -> ~mu_L-    mu+)
     2.73009719E-03    2    -1000013        13   # BR(~chi_40 -> ~mu_L+    mu-)
     1.06149087E-01    2     1000015       -15   # BR(~chi_40 -> ~tau_1-   tau+)
     1.06149087E-01    2    -1000015        15   # BR(~chi_40 -> ~tau_1+   tau-)
     2.76548175E-03    2     1000012       -12   # BR(~chi_40 -> ~nu_eL    nu_eb)
     2.76548175E-03    2    -1000012        12   # BR(~chi_40 -> ~nu_eL*   nu_e )
     2.76548175E-03    2     1000014       -14   # BR(~chi_40 -> ~nu_muL   nu_mub)
     2.76548175E-03    2    -1000014        14   # BR(~chi_40 -> ~nu_muL*  nu_mu )
#
#         PDG            Width
DECAY        25     4.97331360E-03   # h decays
#          BR         NDA      ID1       ID2
     6.49743555E-01    2           5        -5   # BR(h -> b       bb     )
     5.25581917E-02    2         -15        15   # BR(h -> tau+    tau-   )
     1.86034815E-04    2         -13        13   # BR(h -> mu+     mu-    )
     2.02701600E-04    2           3        -3   # BR(h -> s       sb     )
     1.75452469E-02    2           4        -4   # BR(h -> c       cb     )
     6.51252274E-02    2          21        21   # BR(h -> g       g      )
     1.95957020E-03    2          22        22   # BR(h -> gam     gam    )
     1.36553487E-03    2          22        23   # BR(h -> Z       gam    )
     1.87586401E-01    2          24       -24   # BR(h -> W+      W-     )
     2.37275365E-02    2          23        23   # BR(h -> Z       Z      )
#
#         PDG            Width
DECAY        35     4.54677825E+01   # H decays
#          BR         NDA      ID1       ID2
     3.10916871E-01    2           5        -5   # BR(H -> b       bb     )
     6.65855599E-02    2         -15        15   # BR(H -> tau+    tau-   )
     2.36935434E-04    2         -13        13   # BR(H -> mu+     mu-    )
     1.08842668E-04    2           3        -3   # BR(H -> s       sb     )
     6.39555721E-08    2           4        -4   # BR(H -> c       cb     )
     6.29374263E-03    2           6        -6   # BR(H -> t       tb     )
     2.08897419E-04    2          21        21   # BR(H -> g       g      )
     1.89506271E-06    2          22        22   # BR(H -> gam     gam    )
     2.48579358E-09    2          23        22   # BR(H -> Z       gam    )
     8.44200960E-07    2          24       -24   # BR(H -> W+      W-     )
     4.21232851E-07    2          23        23   # BR(H -> Z       Z      )
     5.64710684E-06    2          25        25   # BR(H -> h       h      )
     1.61950726E-03    2     1000024  -1000024   # BR(H -> ~chi_1+ ~chi_1-)
     8.36437494E-02    2     1000024  -1000037   # BR(H -> ~chi_1+ ~chi_2-)
     8.36437494E-02    2     1000037  -1000024   # BR(H -> ~chi_2+ ~chi_1-)
     8.09904690E-04    2     1000022   1000022   # BR(H -> ~chi_10 ~chi_10)
     5.47526540E-02    2     1000022   1000023   # BR(H -> ~chi_10 ~chi_20)
     2.90423675E-02    2     1000022   1000025   # BR(H -> ~chi_10 ~chi_30)
     1.40666553E-06    2     1000002  -1000002   # BR(H -> ~u_L    ~u_L*  )
     1.40666553E-06    2     1000004  -1000004   # BR(H -> ~c_L    ~c_L*  )
     3.03594963E-01    2     1000006  -1000006   # BR(H -> ~t_1    ~t_1*  )
     1.12629670E-02    2     1000006  -2000006   # BR(H -> ~t_1    ~t_2*  )
     1.12629670E-02    2     2000006  -1000006   # BR(H -> ~t_2    ~t_1*  )
     2.05975638E-06    2     1000001  -1000001   # BR(H -> ~d_L    ~d_L*  )
     2.05975638E-06    2     1000003  -1000003   # BR(H -> ~s_L    ~s_L*  )
     3.55117751E-03    2     1000005  -1000005   # BR(H -> ~b_1    ~b_1*  )
     2.91067771E-03    2     2000005  -2000005   # BR(H -> ~b_2    ~b_2*  )
     1.47693301E-02    2     1000005  -2000005   # BR(H -> ~b_1    ~b_2*  )
     1.47693301E-02    2     2000005  -1000005   # BR(H -> ~b_2    ~b_1*  )
#
#         PDG            Width
DECAY        36     5.27575313E+01   # A decays
#          BR         NDA      ID1       ID2
     2.67971069E-01    2           5        -5   # BR(A -> b       bb     )
     5.73828554E-02    2         -15        15   # BR(A -> tau+    tau-   )
     2.04188639E-04    2         -13        13   # BR(A -> mu+     mu-    )
     9.38148660E-05    2           3        -3   # BR(A -> s       sb     )
     5.54853259E-08    2           4        -4   # BR(A -> c       cb     )
     5.45113785E-03    2           6        -6   # BR(A -> t       tb     )
     1.85611431E-05    2          21        21   # BR(A -> g       g      )
     8.18015953E-09    2          22        22   # BR(A -> gam     gam    )
     1.66209088E-08    2          23        22   # BR(A -> Z       gam    )
     7.37290454E-07    2          23        25   # BR(A -> Z       h      )
     1.51899513E-03    2     1000024  -1000024   # BR(A -> ~chi_1+ ~chi_1-)
     7.20149376E-02    2     1000024  -1000037   # BR(A -> ~chi_1+ ~chi_2-)
     7.20149376E-02    2     1000037  -1000024   # BR(A -> ~chi_2+ ~chi_1-)
     7.59499158E-04    2     1000022   1000022   # BR(A -> ~chi_10 ~chi_10)
     2.52393866E-02    2     1000022   1000023   # BR(A -> ~chi_10 ~chi_20)
     4.68411990E-02    2     1000022   1000025   # BR(A -> ~chi_10 ~chi_30)
     2.09696111E-01    2     1000006  -2000006   # BR(A -> ~t_1    ~t_2*  )
     2.09696111E-01    2    -1000006   2000006   # BR(A -> ~t_1*   ~t_2   )
     1.55481891E-02    2     1000005  -2000005   # BR(A -> ~b_1    ~b_2*  )
     1.55481891E-02    2    -1000005   2000005   # BR(A -> ~b_1*   ~b_2   )
#
#         PDG            Width
DECAY        37     5.86301904E+01   # H+ decays
#          BR         NDA      ID1       ID2
     2.83694544E-04    2           4        -5   # BR(H+ -> c       bb     )
     5.16570195E-02    2         -15        16   # BR(H+ -> tau+    nu_tau )
     1.83814075E-04    2         -13        14   # BR(H+ -> mu+     nu_mu  )
     2.83694171E-06    2           2        -5   # BR(H+ -> u       bb     )
     4.22366872E-06    2           2        -3   # BR(H+ -> u       sb     )
     8.31825135E-05    2           4        -3   # BR(H+ -> c       sb     )
     1.73383123E-01    2           6        -5   # BR(H+ -> t       bb     )
     6.64650150E-07    2          24        25   # BR(H+ -> W+      h      )
     1.03386948E-13    2          24        36   # BR(H+ -> W+      A      )
     4.97814890E-13    2     1000024   1000022   # BR(H+ -> ~chi_1+ ~chi_10)
     6.55364135E-02    2     1000024   1000023   # BR(H+ -> ~chi_1+ ~chi_20)
     6.52002403E-02    2     1000024   1000025   # BR(H+ -> ~chi_1+ ~chi_30)
     6.52967692E-02    2     1000037   1000022   # BR(H+ -> ~chi_2+ ~chi_10)
     2.66119846E-06    2     1000002  -1000001   # BR(H+ -> ~u_L    ~d_L*  )
     2.66119846E-06    2     1000004  -1000003   # BR(H+ -> ~c_L    ~s_L*  )
     2.02004700E-01    2     1000006  -1000005   # BR(H+ -> ~t_1    ~b_1*  )
     2.17941638E-01    2     2000006  -2000005   # BR(H+ -> ~t_2    ~b_2*  )
     1.53172659E-01    2     1000006  -2000005   # BR(H+ -> ~t_1    ~b_2*  )
     5.24369965E-03    2     2000006  -1000005   # BR(H+ -> ~t_2    ~b_1*  )
