#
#                              ======================
#                              | THE SUSYHIT OUTPUT |
#                              ======================
#
#
#              ------------------------------------------------------
#              |     This is the output of the SUSY-HIT package     |
#              |  created by A.Djouadi, M.Muehlleitner and M.Spira. |
#              |  In case of problems with SUSY-HIT email to        |
#              |           margarete.muehlleitner@cern.ch           |
#              |           michael.spira@psi.ch                     |
#              |           abdelhak.djouadi@cern.ch                 |
#              ------------------------------------------------------
#
#              ------------------------------------------------------
#              |  SUSY Les Houches Accord - MSSM Spectrum + Decays  |
#              |              based on the decay programs           |
#              |                                                    |
#              |                     SDECAY 1.3b                    |
#              |                                                    |
#              |  Authors: M.Muhlleitner, A.Djouadi and Y.Mambrini  |
#              |  Ref.:    Comput.Phys.Commun.168(2005)46           |
#              |           [hep-ph/0311167]                         |
#              |                                                    |
#              |                     HDECAY 3.4                     |
#              |                                                    |
#              |  By: A.Djouadi,J.Kalinowski,M.Muhlleitner,M.Spira  |
#              |  Ref.:    Comput.Phys.Commun.108(1998)56           |
#              |           [hep-ph/9704448]                         |
#              |                                                    |
#              |                                                    |
#              |  If not stated otherwise all DRbar couplings and   |
#              |  soft SUSY breaking masses are given at the scale  |
#              |  Q=  0.24616060E+04
#              |                                                    |
#              ------------------------------------------------------
#
#
BLOCK DCINFO  # Decay Program information
     1   SDECAY/HDECAY # decay calculator
     2   1.3b  /3.4    # version number
#
BLOCK SPINFO  # Spectrum calculator information
     1     SOFTSUSY    # spectrum calculator               
     2     3.4.0       # version number                    
#
BLOCK MODSEL  # Model selection
     1     0   #  nonUniversal                                     
#
BLOCK SMINPUTS  # Standard Model inputs
         1     1.27908970E+02   # alpha_em^-1(M_Z)^MSbar
         2     1.16637870E-05   # G_F [GeV^-2]
         3     1.18400000E-01   # alpha_S(M_Z)^MSbar
         4     9.11876000E+01   # M_Z pole mass
         5     4.18000000E+00   # mb(mb)^MSbar
         6     1.73200000E+02   # mt pole mass
         7     1.77700000E+00   # mtau pole mass
#
BLOCK MINPAR  # Input parameters - minimal models
         3     9.73000000E+00   # tanb                
#
BLOCK EXTPAR  # Input parameters - non-minimal models
         0    -1.00000000E+00   # Set                 
         1    -3.80409000E+03   # M_1(MX)             
         2     1.25700000E+02   # M_2(MX)             
         3     3.65691000E+03   # M_3(MX)             
        11     3.17910000E+03   # At(MX)              
        12    -3.49095000E+03   # Ab(MX)              
        13     2.16064000E+03   # Atau(MX)            
        23    -3.80507000E+03   # mu(MX)              
        26     2.18902000E+03   # mA(pole)            
        31     2.77057000E+03   # meL(MX)             
        32     2.77057000E+03   # mmuL(MX)            
        33     4.84880000E+02   # mtauL(MX)           
        34     1.25750000E+02   # meR(MX)             
        35     1.25750000E+02   # mmuR(MX)            
        36     6.04070000E+02   # mtauR(MX)           
        41     3.74075000E+03   # mqL1(MX)            
        42     3.74075000E+03   # mqL2(MX)            
        43     1.76696000E+03   # mqL3(MX)            
        44     7.12830000E+02   # muR(MX)             
        45     7.12830000E+02   # mcR(MX)             
        46     3.42908000E+03   # mtR(MX)             
        47     3.96580000E+02   # mdR(MX)             
        48     3.96580000E+02   # msR(MX)             
        49     7.33070000E+02   # mbR(MX)             
#
BLOCK MASS  # Mass Spectrum
# PDG code           mass       particle
        24     8.03912440E+01   # W+
        25     1.25698245E+02   # h
        35     2.18895531E+03   # H
        36     2.18901986E+03   # A
        37     2.19062822E+03   # H+
         5     4.81876030E+00   # b-quark pole mass calculated from mb(mb)_Msbar
   1000001     3.82179544E+03   # ~d_L
   2000001     5.28713105E+02   # ~d_R
   1000002     3.82110930E+03   # ~u_L
   2000002     8.05207211E+02   # ~u_R
   1000003     3.82179544E+03   # ~s_L
   2000003     5.28713105E+02   # ~s_R
   1000004     3.82110930E+03   # ~c_L
   2000004     8.05207211E+02   # ~c_R
   1000005     8.24991379E+02   # ~b_1
   2000005     1.85026000E+03   # ~b_2
   1000006     1.84497111E+03   # ~t_1
   2000006     3.46501331E+03   # ~t_2
   1000011     2.77618248E+03   # ~e_L
   2000011     1.99919929E+02   # ~e_R
   1000012     2.77471261E+03   # ~nu_eL
   1000013     2.77618248E+03   # ~mu_L
   2000013     1.99919929E+02   # ~mu_R
   1000014     2.77471261E+03   # ~nu_muL
   1000015     4.51648927E+02   # ~tau_1
   2000015     6.37105521E+02   # ~tau_2
   1000016     4.70743376E+02   # ~nu_tauL
   1000021     3.70834998E+03   # ~g
   1000022     1.39101402E+02   # ~chi_10
   1000023    -3.74921136E+03   # ~chi_20
   1000025     3.83789489E+03   # ~chi_30
   1000035    -3.85256595E+03   # ~chi_40
   1000024     1.39258137E+02   # ~chi_1+
   1000037     3.83907571E+03   # ~chi_2+
#
BLOCK NMIX  # Neutralino Mixing Matrix
  1  1    -5.07424240E-05   # N_11
  1  2     9.99792684E-01   # N_12
  1  3     2.02984862E-02   # N_13
  1  4    -1.59944240E-03   # N_14
  2  1     9.61758850E-01   # N_21
  2  2     4.33553425E-03   # N_22
  2  3    -1.96075086E-01   # N_23
  2  4     1.91195395E-01   # N_24
  3  1     3.60706492E-03   # N_31
  3  2    -1.32213692E-02   # N_32
  3  3     7.06941384E-01   # N_33
  3  4     7.07139353E-01   # N_34
  4  1    -2.73873879E-01   # N_41
  4  2     1.48656608E-02   # N_42
  4  3    -6.79246945E-01   # N_43
  4  4     6.80731737E-01   # N_44
#
BLOCK UMIX  # Chargino Mixing Matrix U
  1  1     9.99587983E-01   # U_11
  1  2     2.87030473E-02   # U_12
  2  1    -2.87030473E-02   # U_21
  2  2     9.99587983E-01   # U_22
#
BLOCK VMIX  # Chargino Mixing Matrix V
  1  1     9.99997437E-01   # V_11
  1  2     2.26422975E-03   # V_12
  2  1     2.26422975E-03   # V_21
  2  2    -9.99997437E-01   # V_22
#
BLOCK STOPMIX  # Stop Mixing Matrix
  1  1     9.98194486E-01   # cos(theta_t)
  1  2    -6.00646994E-02   # sin(theta_t)
  2  1     6.00646994E-02   # -sin(theta_t)
  2  2     9.98194486E-01   # cos(theta_t)
#
BLOCK SBOTMIX  # Sbottom Mixing Matrix
  1  1    -3.53587937E-02   # cos(theta_b)
  1  2     9.99374682E-01   # sin(theta_b)
  2  1    -9.99374682E-01   # -sin(theta_b)
  2  2    -3.53587937E-02   # cos(theta_b)
#
BLOCK STAUMIX  # Stau Mixing Matrix
  1  1     9.39197682E-01   # cos(theta_tau)
  1  2    -3.43376927E-01   # sin(theta_tau)
  2  1     3.43376927E-01   # -sin(theta_tau)
  2  2     9.39197682E-01   # cos(theta_tau)
#
BLOCK ALPHA  # Higgs mixing
          -1.07621520E-01   # Mixing angle in the neutral Higgs boson sector
#
BLOCK HMIX Q=  2.46160600E+03  # DRbar Higgs Parameters
         1    -3.86037298E+03   # mu(Q)MSSM           
         2     9.29210129E+00   # tan                 
         3     2.43668308E+02   # higgs               
         4     4.85234828E+06   # mA^2(Q)MSSM         
#
BLOCK GAUGE Q=  2.46160600E+03  # The gauge couplings
     1     3.64481040E-01   # gprime(Q) DRbar
     2     6.41319469E-01   # g(Q) DRbar
     3     1.01265783E+00   # g3(Q) DRbar
#
BLOCK AU Q=  2.46160600E+03  # The trilinear couplings
  1  1     0.00000000E+00   # A_u(Q) DRbar
  2  2     0.00000000E+00   # A_c(Q) DRbar
  3  3     3.17910001E+03   # A_t(Q) DRbar
#
BLOCK AD Q=  2.46160600E+03  # The trilinear couplings
  1  1     0.00000000E+00   # A_d(Q) DRbar
  2  2     0.00000000E+00   # A_s(Q) DRbar
  3  3    -3.49095000E+03   # A_b(Q) DRbar
#
BLOCK AE Q=  2.46160600E+03  # The trilinear couplings
  1  1     0.00000000E+00   # A_e(Q) DRbar
  2  2     0.00000000E+00   # A_mu(Q) DRbar
  3  3     2.16064000E+03   # A_tau(Q) DRbar
#
BLOCK Yu Q=  2.46160600E+03  # The Yukawa couplings
  1  1     0.00000000E+00   # y_u(Q) DRbar
  2  2     0.00000000E+00   # y_c(Q) DRbar
  3  3     8.38931091E-01   # y_t(Q) DRbar
#
BLOCK Yd Q=  2.46160600E+03  # The Yukawa couplings
  1  1     0.00000000E+00   # y_d(Q) DRbar
  2  2     0.00000000E+00   # y_s(Q) DRbar
  3  3     1.49700192E-01   # y_b(Q) DRbar
#
BLOCK Ye Q=  2.46160600E+03  # The Yukawa couplings
  1  1     0.00000000E+00   # y_e(Q) DRbar
  2  2     0.00000000E+00   # y_mu(Q) DRbar
  3  3     9.32988500E-02   # y_tau(Q) DRbar
#
BLOCK MSOFT Q=  2.46160600E+03  # The soft SUSY breaking masses at the scale Q
         1    -3.80409000E+03   # M_1(Q)              
         2     1.25700000E+02   # M_2(Q)              
         3     3.65691000E+03   # M_3(Q)              
        21    -1.02029429E+07   # mH1^2(Q)            
        22    -1.47465016E+07   # mH2^2(Q)            
        31     2.77057000E+03   # meL(Q)              
        32     2.77057000E+03   # mmuL(Q)             
        33     4.84880000E+02   # mtauL(Q)            
        34     1.25750002E+02   # meR(Q)              
        35     1.25750002E+02   # mmuR(Q)             
        36     6.04070001E+02   # mtauR(Q)            
        41     3.74074999E+03   # mqL1(Q)             
        42     3.74074999E+03   # mqL2(Q)             
        43     1.76695998E+03   # mqL3(Q)             
        44     7.12829962E+02   # muR(Q)              
        45     7.12829962E+02   # mcR(Q)              
        46     3.42907999E+03   # mtR(Q)              
        47     3.96579932E+02   # mdR(Q)              
        48     3.96579932E+02   # msR(Q)              
        49     7.33069962E+02   # mbR(Q)              
#
Block HiggsBoundsInputHiggsCouplingsFermions
# ScalarNormEffCoupSq PseudoSNormEffCoupSq NP   IP1 IP2 IP2
    1.00774280E+00    0.00000000E+00        3  25   5   5  # h0-b-b eff. coupling^2, normalised to SM
    8.63354036E+01    0.00000000E+00        3  35   5   5  # H0-b-b eff. coupling^2, normalised to SM
    0.00000000E+00    8.63431464E+01        3  36   5   5  # A0-b-b eff. coupling^2, normalised to SM
#
    9.99910325E-01    0.00000000E+00        3  25   6   6  # h0-t-t eff. coupling^2, normalised to SM
    1.16713699E-02    0.00000000E+00        3  35   6   6  # H0-t-t eff. coupling^2, normalised to SM
    0.00000000E+00    1.15816952E-02        3  36   6   6  # A0-t-t eff. coupling^2, normalised to SM
#
    1.00774280E+00    0.00000000E+00        3  25  15  15  # h0-tau-tau eff. coupling^2, normalised to SM
    8.63354036E+01    0.00000000E+00        3  35  15  15  # H0-tau-tau eff. coupling^2, normalised to SM
    0.00000000E+00    8.63431464E+01        3  36  15  15  # A0-tau-tau eff. coupling^2, normalised to SM
#
Block HiggsBoundsInputHiggsCouplingsBosons
    9.99999827E-01        3  25  24  24  # h0-W-W eff. coupling^2, normalised to SM
    1.72922474E-07        3  35  24  24  # H0-W-W eff. coupling^2, normalised to SM
    0.00000000E+00        3  36  24  24  # A0-W-W eff. coupling^2, normalised to SM
#
    9.99999827E-01        3  25  23  23  # h0-Z-Z eff. coupling^2, normalised to SM
    1.72922474E-07        3  35  23  23  # H0-Z-Z eff. coupling^2, normalised to SM
    0.00000000E+00        3  36  23  23  # A0-Z-Z eff. coupling^2, normalised to SM
#
    8.85411642E-01        3  25  21  21  # h0-g-g eff. coupling^2, normalised to SM
    3.72487793E-12        3  35  21  21  # H0-g-g eff. coupling^2, normalised to SM
    7.27892508E-11        3  36  21  21  # A0-g-g eff. coupling^2, normalised to SM
#
    0.00000000E+00        3  25  25  23  # h0-h0-Z eff. coupling^2, normalised to SM
    0.00000000E+00        3  35  25  23  # H0-h0-Z eff. coupling^2, normalised to SM
    1.72922474E-07        3  36  25  23  # A0-h0-Z eff. coupling^2, normalised to SM
    0.00000000E+00        3  35  35  23  # H0-H0-Z eff. coupling^2, normalised to SM
    9.99999827E-01        3  36  35  23  # A0-H0-Z eff. coupling^2, normalised to SM
    0.00000000E+00        3  36  36  23  # A0-A0-Z eff. coupling^2, normalised to SM
#
    0.00000000E+00        4  25  21  21  23  # h0-g-g-Z eff. coupling^2, normalised to SM
    0.00000000E+00        4  35  21  21  23  # H0-g-g-Z eff. coupling^2, normalised to SM
    0.00000000E+00        4  36  21  21  23  # A0-g-g-Z eff. coupling^2, normalised to SM
#
#
#
#                             =================
#                             |The decay table|
#                             =================
#
# - The QCD corrections to the decays gluino -> squark  + quark
#                                     squark -> gaugino + quark_prime
#                                     squark -> squark_prime + Higgs
#                                     squark -> gluino  + quark
#   are included.
#
# - The multi-body decays for the inos, stops and sbottoms are included.
#
# - The loop induced decays for the gluino, neutralinos and stops
#   are included.
#
# - The SUSY decays of the top quark are included.
#
#
#         PDG            Width
DECAY         6     1.44844447E+00   # top decays
#          BR         NDA      ID1       ID2
     1.00000000E+00    2           5        24   # BR(t ->  b    W+)
#
#         PDG            Width
DECAY   1000021     4.20749922E+02   # gluino decays
#          BR         NDA      ID1       ID2
     8.30395970E-02    2     2000001        -1   # BR(~g -> ~d_R  db)
     8.30395970E-02    2    -2000001         1   # BR(~g -> ~d_R* d )
     7.85552128E-02    2     2000002        -2   # BR(~g -> ~u_R  ub)
     7.85552128E-02    2    -2000002         2   # BR(~g -> ~u_R* u )
     8.30395970E-02    2     2000003        -3   # BR(~g -> ~s_R  sb)
     8.30395970E-02    2    -2000003         3   # BR(~g -> ~s_R* s )
     7.85552113E-02    2     2000004        -4   # BR(~g -> ~c_R  cb)
     7.85552113E-02    2    -2000004         4   # BR(~g -> ~c_R* c )
     7.76633810E-02    2     1000005        -5   # BR(~g -> ~b_1  bb)
     7.76633810E-02    2    -1000005         5   # BR(~g -> ~b_1* b )
     4.87167664E-02    2     2000005        -5   # BR(~g -> ~b_2  bb)
     4.87167664E-02    2    -2000005         5   # BR(~g -> ~b_2* b )
     4.94755167E-02    2     1000006        -6   # BR(~g -> ~t_1  tb)
     4.94755167E-02    2    -1000006         6   # BR(~g -> ~t_1* t )
     9.54717816E-04    2     2000006        -6   # BR(~g -> ~t_2  tb)
     9.54717816E-04    2    -2000006         6   # BR(~g -> ~t_2* t )
#
#         PDG            Width
DECAY   1000006     2.46895523E+01   # stop1 decays
#          BR         NDA      ID1       ID2
     2.95824096E-01    2     1000022         6   # BR(~t_1 -> ~chi_10 t )
     6.02547611E-01    2     1000024         5   # BR(~t_1 -> ~chi_1+ b )
     1.01628293E-01    2     1000005        24   # BR(~t_1 -> ~b_1    W+)
#
#         PDG            Width
DECAY   2000006     7.07617217E+01   # stop2 decays
#          BR         NDA      ID1       ID2
     6.47781756E-04    2     1000022         6   # BR(~t_2 -> ~chi_10 t )
     1.30255352E-03    2     1000024         5   # BR(~t_2 -> ~chi_1+ b )
     2.56742256E-01    2     1000006        25   # BR(~t_2 -> ~t_1    h )
     2.99141838E-04    2     1000005        37   # BR(~t_2 -> ~b_1    H+)
     2.51687777E-01    2     1000006        23   # BR(~t_2 -> ~t_1    Z )
     1.40641876E-03    2     1000005        24   # BR(~t_2 -> ~b_1    W+)
     4.87914071E-01    2     2000005        24   # BR(~t_2 -> ~b_2    W+)
#
#         PDG            Width
DECAY   1000005     1.58686565E-02   # sbottom1 decays
#          BR         NDA      ID1       ID2
     3.54978316E-01    2     1000022         5   # BR(~b_1 -> ~chi_10 b )
     6.45021684E-01    2    -1000024         6   # BR(~b_1 -> ~chi_1- t )
#
#         PDG            Width
DECAY   2000005     2.45801456E+01   # sbottom2 decays
#          BR         NDA      ID1       ID2
     3.03856808E-01    2     1000022         5   # BR(~b_2 -> ~chi_10 b )
     5.96751683E-01    2    -1000024         6   # BR(~b_2 -> ~chi_1- t )
     4.62600679E-02    2     1000005        25   # BR(~b_2 -> ~b_1    h )
     5.31314418E-02    2     1000005        23   # BR(~b_2 -> ~b_1    Z )
#
#         PDG            Width
DECAY   1000002     4.56317619E+01   # sup_L decays
#          BR         NDA      ID1       ID2
     3.26100042E-01    2     1000022         2   # BR(~u_L -> ~chi_10 u)
     1.79274794E-05    2     1000023         2   # BR(~u_L -> ~chi_20 u)
     6.52476485E-01    2     1000024         1   # BR(~u_L -> ~chi_1+ d)
     2.14055461E-02    2     1000021         2   # BR(~u_L -> ~g      u)
#
#         PDG            Width
DECAY   2000002     9.27991622E-05   # sup_R decays
#           BR         NDA      ID1       ID2
     5.21211402E-05    2     1000022         2   # BR(~u_R -> ~chi_10 u)
#           BR         NDA      ID1       ID2       ID3
     1.23298527E-02    3        2       -1        2000001   # BR(~u_R -> u  db  ~d_R)
     3.78139190E-01    3        2       1        -2000001   # BR(~u_R -> u  d  ~d_R*)
     1.22576538E-02    3        2       -3        2000003   # BR(~u_R -> u  sb  ~s_R)
     3.79044370E-01    3        2       3        -2000003   # BR(~u_R -> u  s  ~s_R*)
     1.83051222E-03    3        2       -11        2000011   # BR(~u_R -> u  e+  ~e_R-)
     1.04305899E-01    3        2       11        -2000011   # BR(~u_R -> u  e-  ~e_R+)
     1.80799046E-03    3        2       -13        2000013   # BR(~u_R -> u  mu+  ~mu_R-)
     1.04531116E-01    3        2       13        -2000013   # BR(~u_R -> u  mu-  ~mu_R+)
     2.21327429E-03    3        2       -15        1000015   # BR(~u_R -> u  tau+  ~tau_1-)
     1.23578702E-03    3        2       15        -1000015   # BR(~u_R -> u  tau-  ~tau_1+)
     1.85799091E-05    3        2       -15        2000015   # BR(~u_R -> u  tau+  ~tau_2-)
     2.54657471E-04    3        2       15        -2000015   # BR(~u_R -> u  tau-  ~tau_2+)
     1.91941388E-03    3        2       -16        1000016   # BR(~u_R -> u  nu_taub  ~nu_tau1)
     5.52558868E-05    3        2       16        -1000016   # BR(~u_R -> u  nu_tau  ~nu_tau1*)
     1.06421219E-07    3        2       23        1000022   # BR(~u_R -> u  Z  ~chi_10)
     7.34985084E-07    3        2       25        1000022   # BR(~u_R -> u  h  ~chi_10)
     1.77964969E-06    3        2       -24        1000024   # BR(~u_R -> u  W-  ~chi_1+)
     1.70551109E-06    3        2       24        -1000024   # BR(~u_R -> u  W+  ~chi_1-)
#
#         PDG            Width
DECAY   1000001     4.56265921E+01   # sdown_L decays
#          BR         NDA      ID1       ID2
     3.26201597E-01    2     1000022         1   # BR(~d_L -> ~chi_10 d)
     1.66009406E-05    2     1000023         1   # BR(~d_L -> ~chi_20 d)
     6.52120225E-01    2    -1000024         2   # BR(~d_L -> ~chi_1- u)
     2.16615774E-02    2     1000021         1   # BR(~d_L -> ~g      d)
#
#         PDG            Width
DECAY   2000001     6.20460214E-07   # sdown_R decays
#           BR         NDA      ID1       ID2
     1.20124819E-03    2     1000022         1   # BR(~d_R -> ~chi_10 d)
#           BR         NDA      ID1       ID2       ID3
     4.46587862E-03    3        1       -11        2000011   # BR(~d_R -> d  e+  ~e_R-)
     4.94536142E-01    3        1       11        -2000011   # BR(~d_R -> d  e-  ~e_R+)
     4.51648621E-03    3        1       -13        2000013   # BR(~d_R -> d  mu+  ~mu_R-)
     4.95051888E-01    3        1       13        -2000013   # BR(~d_R -> d  mu-  ~mu_R+)
     1.12606737E-04    3        1       -15        1000015   # BR(~d_R -> d  tau+  ~tau_1-)
     6.09112384E-05    3        1       15        -1000015   # BR(~d_R -> d  tau-  ~tau_1+)
     3.14846941E-05    3        1       -16        1000016   # BR(~d_R -> d  nu_taub  ~nu_tau1)
     5.37214140E-07    3        1       16        -1000016   # BR(~d_R -> d  nu_tau  ~nu_tau1*)
     3.01228017E-07    3        1       23        1000022   # BR(~d_R -> d  Z  ~chi_10)
     3.10221342E-06    3        1       25        1000022   # BR(~d_R -> d  h  ~chi_10)
     9.62672524E-06    3        1       -24        1000024   # BR(~d_R -> d  W-  ~chi_1+)
     9.78757359E-06    3        1       24        -1000024   # BR(~d_R -> d  W+  ~chi_1-)
#
#         PDG            Width
DECAY   1000004     4.74708219E+01   # scharm_L decays
#          BR         NDA      ID1       ID2
     3.28300306E-01    2     1000022         4   # BR(~c_L -> ~chi_10 c)
     1.59192698E-05    2     1000023         4   # BR(~c_L -> ~chi_20 c)
     6.56878495E-01    2     1000024         3   # BR(~c_L -> ~chi_1+ s)
     1.48052800E-02    2     1000021         4   # BR(~c_L -> ~g      c)
#
#         PDG            Width
DECAY   2000004     9.29834860E-05   # scharm_R decays
#           BR         NDA      ID1       ID2
     4.93007586E-05    2     1000022         4   # BR(~c_R -> ~chi_10 c)
#           BR         NDA      ID1       ID2       ID3
     1.22484115E-02    3        4       -1        2000001   # BR(~c_R -> c  db  ~d_R)
     3.78077888E-01    3        4       1        -2000001   # BR(~c_R -> c  d  ~d_R*)
     1.22010913E-02    3        4       -3        2000003   # BR(~c_R -> c  sb  ~s_R)
     3.79078066E-01    3        4       3        -2000003   # BR(~c_R -> c  s  ~s_R*)
     1.80677244E-03    3        4       -11        2000011   # BR(~c_R -> c  e+  ~e_R-)
     1.04782047E-01    3        4       11        -2000011   # BR(~c_R -> c  e-  ~e_R+)
     1.81860250E-03    3        4       -13        2000013   # BR(~c_R -> c  mu+  ~mu_R-)
     1.04260449E-01    3        4       13        -2000013   # BR(~c_R -> c  mu-  ~mu_R+)
     2.19910017E-03    3        4       -15        1000015   # BR(~c_R -> c  tau+  ~tau_1-)
     1.23107882E-03    3        4       15        -1000015   # BR(~c_R -> c  tau-  ~tau_1+)
     1.85108138E-05    3        4       -15        2000015   # BR(~c_R -> c  tau+  ~tau_2-)
     2.53356816E-04    3        4       15        -2000015   # BR(~c_R -> c  tau-  ~tau_2+)
     1.91560897E-03    3        4       -16        1000016   # BR(~c_R -> c  nu_taub  ~nu_tau1)
     5.54141410E-05    3        4       16        -1000016   # BR(~c_R -> c  nu_tau  ~nu_tau1*)
     1.06889948E-07    3        4       23        1000022   # BR(~c_R -> c  Z  ~chi_10)
     7.29086453E-07    3        4       25        1000022   # BR(~c_R -> c  h  ~chi_10)
     1.76568988E-06    3        4       -24        1000024   # BR(~c_R -> c  W-  ~chi_1+)
     1.70073211E-06    3        4       24        -1000024   # BR(~c_R -> c  W+  ~chi_1-)
#
#         PDG            Width
DECAY   1000003     4.74626734E+01   # sstrange_L decays
#          BR         NDA      ID1       ID2
     3.28428690E-01    2     1000022         3   # BR(~s_L -> ~chi_10 s)
     1.47522043E-05    2     1000023         3   # BR(~s_L -> ~chi_20 s)
     6.56571764E-01    2    -1000024         4   # BR(~s_L -> ~chi_1- c)
     1.49847942E-02    2     1000021         3   # BR(~s_L -> ~g      s)
#
#         PDG            Width
DECAY   2000003     6.22447471E-07   # sstrange_R decays
#           BR         NDA      ID1       ID2
     1.11281427E-03    2     1000022         3   # BR(~s_R -> ~chi_10 s)
#           BR         NDA      ID1       ID2       ID3
     4.45162062E-03    3        3       -11        2000011   # BR(~s_R -> s  e+  ~e_R-)
     4.97953666E-01    3        3       11        -2000011   # BR(~s_R -> s  e-  ~e_R+)
     4.50206665E-03    3        3       -13        2000013   # BR(~s_R -> s  mu+  ~mu_R-)
     4.91752339E-01    3        3       13        -2000013   # BR(~s_R -> s  mu-  ~mu_R+)
     1.12235977E-04    3        3       -15        1000015   # BR(~s_R -> s  tau+  ~tau_1-)
     6.07087373E-05    3        3       15        -1000015   # BR(~s_R -> s  tau-  ~tau_1+)
     3.13279448E-05    3        3       -16        1000016   # BR(~s_R -> s  nu_taub  ~nu_tau1)
     5.43756728E-07    3        3       16        -1000016   # BR(~s_R -> s  nu_tau  ~nu_tau1*)
     3.00266301E-07    3        3       23        1000022   # BR(~s_R -> s  Z  ~chi_10)
     3.10178785E-06    3        3       25        1000022   # BR(~s_R -> s  h  ~chi_10)
     9.51855422E-06    3        3       -24        1000024   # BR(~s_R -> s  W-  ~chi_1+)
     9.75632528E-06    3        3       24        -1000024   # BR(~s_R -> s  W+  ~chi_1-)
#
#         PDG            Width
DECAY   1000011     3.38785333E+01   # selectron_L decays
#          BR         NDA      ID1       ID2
     3.33414047E-01    2     1000022        11   # BR(~e_L -> ~chi_10 e-)
     6.66585953E-01    2    -1000024        12   # BR(~e_L -> ~chi_1- nu_e)
#
#         PDG            Width
DECAY   2000011     7.24119130E-10   # selectron_R decays
#          BR         NDA      ID1       ID2
     1.00000000E+00    2     1000022        11   # BR(~e_R -> ~chi_10 e-)
#
#         PDG            Width
DECAY   1000013     3.38785332E+01   # smuon_L decays
#          BR         NDA      ID1       ID2
     3.33414046E-01    2     1000022        13   # BR(~mu_L -> ~chi_10 mu-)
     6.66585954E-01    2    -1000024        14   # BR(~mu_L -> ~chi_1- nu_mu)
#
#         PDG            Width
DECAY   2000013     7.24117610E-10   # smuon_R decays
#          BR         NDA      ID1       ID2
     1.00000000E+00    2     1000022        13   # BR(~mu_R -> ~chi_10 mu-)
#
#         PDG            Width
DECAY   1000015     4.01424109E+00   # stau_1 decays
#          BR         NDA      ID1       ID2
     3.33517032E-01    2     1000022        15   # BR(~tau_1 -> ~chi_10  tau-)
     6.66482968E-01    2    -1000024        16   # BR(~tau_1 -> ~chi_1-  nu_tau)
#
#         PDG            Width
DECAY   2000015     3.20228720E+00   # stau_2 decays
#          BR         NDA      ID1       ID2
     8.50228731E-02    2     1000022        15   # BR(~tau_2 -> ~chi_10  tau-)
     1.69945665E-01    2    -1000024        16   # BR(~tau_2 -> ~chi_1-  nu_tau)
     3.75667363E-01    2     1000016       -24   # BR(~tau_2 -> ~nu_tauL W-)
     1.49523222E-01    2     1000015        25   # BR(~tau_2 -> ~tau_1   h)
     2.19840877E-01    2     1000015        23   # BR(~tau_2 -> ~tau_1   Z)
#
#         PDG            Width
DECAY   1000012     3.38802127E+01   # snu_eL decays
#          BR         NDA      ID1       ID2
     3.33257671E-01    2     1000022        12   # BR(~nu_eL -> ~chi_10 nu_e)
     6.66742329E-01    2     1000024        11   # BR(~nu_eL -> ~chi_1+ e-)
#
#         PDG            Width
DECAY   1000014     3.38802126E+01   # snu_muL decays
#          BR         NDA      ID1       ID2
     3.33257672E-01    2     1000022        14   # BR(~nu_muL -> ~chi_10 nu_mu)
     6.66742328E-01    2     1000024        13   # BR(~nu_muL -> ~chi_1+ mu-)
#
#         PDG            Width
DECAY   1000016     4.81080960E+00   # snu_tauL decays
#          BR         NDA      ID1       ID2
     3.33350216E-01    2     1000022        16   # BR(~nu_tauL -> ~chi_10 nu_tau)
     6.66649784E-01    2     1000024        15   # BR(~nu_tauL -> ~chi_1+ tau-)
#
#         PDG            Width
DECAY   1000024     2.68021020E-15   # chargino1+ decays
#           BR         NDA      ID1       ID2       ID3
     2.06097580E-02    3     1000022       -11        12   # BR(~chi_1+ -> ~chi_10 e+   nu_e)
     1.76149050E-03    3     1000022       -13        14   # BR(~chi_1+ -> ~chi_10 mu+  nu_mu)
     9.77628750E-01    2     1000022       211             # BR(~chi_1+ -> ~chi_10 pi+)
#
#         PDG            Width
DECAY   1000037     8.83471400E+01   # chargino2+ decays
#          BR         NDA      ID1       ID2
     2.74460710E-10    2     1000002        -1   # BR(~chi_2+ -> ~u_L     db)
     4.08785413E-08    2    -1000001         2   # BR(~chi_2+ -> ~d_L*    u )
     2.74401891E-10    2     1000004        -3   # BR(~chi_2+ -> ~c_L     sb)
     4.07269393E-08    2    -1000003         4   # BR(~chi_2+ -> ~s_L*     c )
     1.89845985E-02    2     1000006        -5   # BR(~chi_2+ -> ~t_1     bb)
     3.12486739E-02    2     2000006        -5   # BR(~chi_2+ -> ~t_2     bb)
     2.81702025E-02    2    -1000005         6   # BR(~chi_2+ -> ~b_1*    t )
     5.33244264E-01    2    -2000005         6   # BR(~chi_2+ -> ~b_2*    t )
     2.07920666E-07    2     1000012       -11   # BR(~chi_2+ -> ~nu_eL   e+  )
     2.07920666E-07    2     1000014       -13   # BR(~chi_2+ -> ~nu_muL mu+ )
     3.64806670E-03    2     1000016       -15   # BR(~chi_2+ -> ~nu_tau1 tau+)
     3.33353766E-05    2    -1000011        12   # BR(~chi_2+ -> ~e_L+    nu_e)
     3.33353766E-05    2    -1000013        14   # BR(~chi_2+ -> ~mu_L+   nu_mu)
     9.12688178E-05    2    -1000015        16   # BR(~chi_2+ -> ~tau_1+  nu_tau)
     3.60502623E-03    2    -2000015        16   # BR(~chi_2+ -> ~tau_2+  nu_tau)
     8.59906789E-02    2     1000024        23   # BR(~chi_2+ -> ~chi_1+  Z )
     8.36766288E-02    2     1000022        24   # BR(~chi_2+ -> ~chi_10  W+)
     1.34769835E-04    2     1000023        24   # BR(~chi_2+ -> ~chi_20  W+)
     8.72510849E-02    2     1000024        25   # BR(~chi_2+ -> ~chi_1+  h )
     4.13050798E-02    2     1000024        35   # BR(~chi_2+ -> ~chi_1+  H )
     4.12958651E-02    2     1000024        36   # BR(~chi_2+ -> ~chi_1+  A )
     4.12866228E-02    2     1000022        37   # BR(~chi_2+ -> ~chi_10  H+)
#
#         PDG            Width
DECAY   1000022     0.00000000E+00   # neutralino1 decays
#
#         PDG            Width
DECAY   1000023     1.34875927E+02   # neutralino2 decays
#          BR         NDA      ID1       ID2
     1.70950522E-03    2     1000022        23   # BR(~chi_20 -> ~chi_10   Z )
     4.03042652E-03    2     1000024       -24   # BR(~chi_20 -> ~chi_1+   W-)
     4.03042652E-03    2    -1000024        24   # BR(~chi_20 -> ~chi_1-   W+)
     2.38654983E-03    2     1000022        25   # BR(~chi_20 -> ~chi_10   h )
     7.50669789E-04    2     1000022        35   # BR(~chi_20 -> ~chi_10   H )
     1.40541112E-03    2     1000022        36   # BR(~chi_20 -> ~chi_10   A )
     2.15618521E-03    2     1000024       -37   # BR(~chi_20 -> ~chi_1+   H-)
     2.15618521E-03    2    -1000024        37   # BR(~chi_20 -> ~chi_1-   H+)
     7.91964035E-02    2     2000002        -2   # BR(~chi_20 -> ~u_R      ub)
     7.91964035E-02    2    -2000002         2   # BR(~chi_20 -> ~u_R*     u )
     2.08779679E-02    2     2000001        -1   # BR(~chi_20 -> ~d_R      db)
     2.08779679E-02    2    -2000001         1   # BR(~chi_20 -> ~d_R*     d )
     7.91964019E-02    2     2000004        -4   # BR(~chi_20 -> ~c_R      cb)
     7.91964019E-02    2    -2000004         4   # BR(~chi_20 -> ~c_R*     c )
     2.08779679E-02    2     2000003        -3   # BR(~chi_20 -> ~s _R      sb)
     2.08779679E-02    2    -2000003         3   # BR(~chi_20 -> ~s _R*     s )
     1.65054402E-02    2     1000006        -6   # BR(~chi_20 -> ~t_1      tb)
     1.65054402E-02    2    -1000006         6   # BR(~chi_20 -> ~t_1*     t )
     2.78049782E-03    2     2000006        -6   # BR(~chi_20 -> ~t_2      tb)
     2.78049782E-03    2    -2000006         6   # BR(~chi_20 -> ~t_2*     t )
     2.15435347E-02    2     1000005        -5   # BR(~chi_20 -> ~b_1      bb)
     2.15435347E-02    2    -1000005         5   # BR(~chi_20 -> ~b_1*     b )
     3.27321332E-03    2     2000005        -5   # BR(~chi_20 -> ~b_2      bb)
     3.27321332E-03    2    -2000005         5   # BR(~chi_20 -> ~b_2*     b )
     3.52148209E-03    2     1000011       -11   # BR(~chi_20 -> ~e_L-     e+)
     3.52148209E-03    2    -1000011        11   # BR(~chi_20 -> ~e_L+     e-)
     6.75685597E-02    2     2000011       -11   # BR(~chi_20 -> ~e_R-     e+)
     6.75685597E-02    2    -2000011        11   # BR(~chi_20 -> ~e_R+     e-)
     3.52148209E-03    2     1000013       -13   # BR(~chi_20 -> ~mu_L-    mu+)
     3.52148209E-03    2    -1000013        13   # BR(~chi_20 -> ~mu_L+    mu-)
     6.75685597E-02    2     2000013       -13   # BR(~chi_20 -> ~mu_R-    mu+)
     6.75685597E-02    2    -2000013        13   # BR(~chi_20 -> ~mu_R+    mu-)
     2.34139604E-02    2     1000015       -15   # BR(~chi_20 -> ~tau_1-   tau+)
     2.34139604E-02    2    -1000015        15   # BR(~chi_20 -> ~tau_1+   tau-)
     5.78041381E-02    2     2000015       -15   # BR(~chi_20 -> ~tau_2-   tau+)
     5.78041381E-02    2    -2000015        15   # BR(~chi_20 -> ~tau_2+   tau-)
     3.42027914E-03    2     1000012       -12   # BR(~chi_20 -> ~nu_eL    nu_eb)
     3.42027914E-03    2    -1000012        12   # BR(~chi_20 -> ~nu_eL*   nu_e )
     3.42027914E-03    2     1000014       -14   # BR(~chi_20 -> ~nu_muL   nu_mub)
     3.42027914E-03    2    -1000014        14   # BR(~chi_20 -> ~nu_muL*  nu_mu )
     1.61971527E-02    2     1000016       -16   # BR(~chi_20 -> ~nu_tau1  nu_taub)
     1.61971527E-02    2    -1000016        16   # BR(~chi_20 -> ~nu_tau1* nu_tau )
#
#         PDG            Width
DECAY   1000025     8.73741282E+01   # neutralino3 decays
#          BR         NDA      ID1       ID2
     5.02729410E-02    2     1000022        23   # BR(~chi_30 -> ~chi_10   Z )
     8.45721599E-02    2     1000024       -24   # BR(~chi_30 -> ~chi_1+   W-)
     8.45721599E-02    2    -1000024        24   # BR(~chi_30 -> ~chi_1-   W+)
     3.78091228E-02    2     1000022        25   # BR(~chi_30 -> ~chi_10   h )
     2.73859522E-02    2     1000022        35   # BR(~chi_30 -> ~chi_10   H )
     1.43182893E-02    2     1000022        36   # BR(~chi_30 -> ~chi_10   A )
     4.16696628E-02    2     1000024       -37   # BR(~chi_30 -> ~chi_1+   H-)
     4.16696628E-02    2    -1000024        37   # BR(~chi_30 -> ~chi_1-   H+)
     3.72730922E-09    2     1000002        -2   # BR(~chi_30 -> ~u_L      ub)
     3.72730922E-09    2    -1000002         2   # BR(~chi_30 -> ~u_L*     u )
     1.76226765E-06    2     2000002        -2   # BR(~chi_30 -> ~u_R      ub)
     1.76226765E-06    2    -2000002         2   # BR(~chi_30 -> ~u_R*     u )
     4.22554355E-09    2     1000001        -1   # BR(~chi_30 -> ~d_L      db)
     4.22554355E-09    2    -1000001         1   # BR(~chi_30 -> ~d_L*     d )
     4.63371808E-07    2     2000001        -1   # BR(~chi_30 -> ~d_R      db)
     4.63371808E-07    2    -2000001         1   # BR(~chi_30 -> ~d_R*     d )
     3.71267435E-09    2     1000004        -4   # BR(~chi_30 -> ~c_L      cb)
     3.71267435E-09    2    -1000004         4   # BR(~chi_30 -> ~c_L*     c )
     1.76226761E-06    2     2000004        -4   # BR(~chi_30 -> ~c_R      cb)
     1.76226761E-06    2    -2000004         4   # BR(~chi_30 -> ~c_R*     c )
     4.22554355E-09    2     1000003        -3   # BR(~chi_30 -> ~s _L      sb)
     4.22554355E-09    2    -1000003         3   # BR(~chi_30 -> ~s _L*     s )
     4.63371808E-07    2     2000003        -3   # BR(~chi_30 -> ~s _R      sb)
     4.63371808E-07    2    -2000003         3   # BR(~chi_30 -> ~s _R*     s )
     2.68268457E-01    2     1000006        -6   # BR(~chi_30 -> ~t_1      tb)
     2.68268457E-01    2    -1000006         6   # BR(~chi_30 -> ~t_1*     t )
     1.48816436E-02    2     2000006        -6   # BR(~chi_30 -> ~t_2      tb)
     1.48816436E-02    2    -2000006         6   # BR(~chi_30 -> ~t_2*     t )
     1.32918975E-02    2     1000005        -5   # BR(~chi_30 -> ~b_1      bb)
     1.32918975E-02    2    -1000005         5   # BR(~chi_30 -> ~b_1*     b )
     8.72544494E-03    2     2000005        -5   # BR(~chi_30 -> ~b_2      bb)
     8.72544494E-03    2    -2000005         5   # BR(~chi_30 -> ~b_2*     b )
     2.54871826E-06    2     1000011       -11   # BR(~chi_30 -> ~e_L-     e+)
     2.54871826E-06    2    -1000011        11   # BR(~chi_30 -> ~e_L+     e-)
     1.50223566E-06    2     2000011       -11   # BR(~chi_30 -> ~e_R-     e+)
     1.50223566E-06    2    -2000011        11   # BR(~chi_30 -> ~e_R+     e-)
     2.54871826E-06    2     1000013       -13   # BR(~chi_30 -> ~mu_L-    mu+)
     2.54871826E-06    2    -1000013        13   # BR(~chi_30 -> ~mu_L+    mu-)
     1.50223566E-06    2     2000013       -13   # BR(~chi_30 -> ~mu_R-    mu+)
     1.50223566E-06    2    -2000013        13   # BR(~chi_30 -> ~mu_R+    mu-)
     1.73222029E-03    2     1000015       -15   # BR(~chi_30 -> ~tau_1-   tau+)
     1.73222029E-03    2    -1000015        15   # BR(~chi_30 -> ~tau_1+   tau-)
     1.92291572E-03    2     2000015       -15   # BR(~chi_30 -> ~tau_2-   tau+)
     1.92291572E-03    2    -2000015        15   # BR(~chi_30 -> ~tau_2+   tau-)
     4.77390735E-06    2     1000012       -12   # BR(~chi_30 -> ~nu_eL    nu_eb)
     4.77390735E-06    2    -1000012        12   # BR(~chi_30 -> ~nu_eL*   nu_e )
     4.77390735E-06    2     1000014       -14   # BR(~chi_30 -> ~nu_muL   nu_mub)
     4.77390735E-06    2    -1000014        14   # BR(~chi_30 -> ~nu_muL*  nu_mu )
     2.03291126E-05    2     1000016       -16   # BR(~chi_30 -> ~nu_tau1  nu_taub)
     2.03291126E-05    2    -1000016        16   # BR(~chi_30 -> ~nu_tau1* nu_tau )
#
#         PDG            Width
DECAY   1000035     9.25138029E+01   # neutralino4 decays
#          BR         NDA      ID1       ID2
     3.23094479E-02    2     1000022        23   # BR(~chi_40 -> ~chi_10   Z )
     3.29782780E-07    2     1000023        23   # BR(~chi_40 -> ~chi_20   Z )
     7.44109065E-02    2     1000024       -24   # BR(~chi_40 -> ~chi_1+   W-)
     7.44109065E-02    2    -1000024        24   # BR(~chi_40 -> ~chi_1-   W+)
     4.42414356E-02    2     1000022        25   # BR(~chi_40 -> ~chi_10   h )
     1.24872805E-02    2     1000022        35   # BR(~chi_40 -> ~chi_10   H )
     2.39156281E-02    2     1000022        36   # BR(~chi_40 -> ~chi_10   A )
     3.64125210E-02    2     1000024       -37   # BR(~chi_40 -> ~chi_1+   H-)
     3.64125210E-02    2    -1000024        37   # BR(~chi_40 -> ~chi_1-   H+)
     1.04013850E-07    2     1000002        -2   # BR(~chi_40 -> ~u_L      ub)
     1.04013850E-07    2    -1000002         2   # BR(~chi_40 -> ~u_L*     u )
     9.63473187E-03    2     2000002        -2   # BR(~chi_40 -> ~u_R      ub)
     9.63473187E-03    2    -2000002         2   # BR(~chi_40 -> ~u_R*     u )
     3.23972647E-07    2     1000001        -1   # BR(~chi_40 -> ~d_L      db)
     3.23972647E-07    2    -1000001         1   # BR(~chi_40 -> ~d_L*     d )
     2.53232351E-03    2     2000001        -1   # BR(~chi_40 -> ~d_R      db)
     2.53232351E-03    2    -2000001         1   # BR(~chi_40 -> ~d_R*     d )
     1.03894933E-07    2     1000004        -4   # BR(~chi_40 -> ~c_L      cb)
     1.03894933E-07    2    -1000004         4   # BR(~chi_40 -> ~c_L*     c )
     9.63473170E-03    2     2000004        -4   # BR(~chi_40 -> ~c_R      cb)
     9.63473170E-03    2    -2000004         4   # BR(~chi_40 -> ~c_R*     c )
     3.23972647E-07    2     1000003        -3   # BR(~chi_40 -> ~s _L      sb)
     3.23972647E-07    2    -1000003         3   # BR(~chi_40 -> ~s _L*     s )
     2.53232351E-03    2     2000003        -3   # BR(~chi_40 -> ~s _R      sb)
     2.53232351E-03    2    -2000003         3   # BR(~chi_40 -> ~s _R*     s )
     2.41601778E-01    2     1000006        -6   # BR(~chi_40 -> ~t_1      tb)
     2.41601778E-01    2    -1000006         6   # BR(~chi_40 -> ~t_1*     t )
     1.11653578E-02    2     2000006        -6   # BR(~chi_40 -> ~t_2      tb)
     1.11653578E-02    2    -2000006         6   # BR(~chi_40 -> ~t_2*     t )
     1.35462081E-02    2     1000005        -5   # BR(~chi_40 -> ~b_1      bb)
     1.35462081E-02    2    -1000005         5   # BR(~chi_40 -> ~b_1*     b )
     8.67224199E-03    2     2000005        -5   # BR(~chi_40 -> ~b_2      bb)
     8.67224199E-03    2    -2000005         5   # BR(~chi_40 -> ~b_2*     b )
     3.90186702E-04    2     1000011       -11   # BR(~chi_40 -> ~e_L-     e+)
     3.90186702E-04    2    -1000011        11   # BR(~chi_40 -> ~e_L+     e-)
     8.21074696E-03    2     2000011       -11   # BR(~chi_40 -> ~e_R-     e+)
     8.21074696E-03    2    -2000011        11   # BR(~chi_40 -> ~e_R+     e-)
     3.90186702E-04    2     1000013       -13   # BR(~chi_40 -> ~mu_L-    mu+)
     3.90186702E-04    2    -1000013        13   # BR(~chi_40 -> ~mu_L+    mu-)
     8.21074696E-03    2     2000013       -13   # BR(~chi_40 -> ~mu_R-    mu+)
     8.21074696E-03    2    -2000013        13   # BR(~chi_40 -> ~mu_R+    mu-)
     2.74078608E-03    2     1000015       -15   # BR(~chi_40 -> ~tau_1-   tau+)
     2.74078608E-03    2    -1000015        15   # BR(~chi_40 -> ~tau_1+   tau-)
     9.88549321E-03    2     2000015       -15   # BR(~chi_40 -> ~tau_2-   tau+)
     9.88549321E-03    2    -2000015        15   # BR(~chi_40 -> ~tau_2+   tau-)
     5.73699171E-04    2     1000012       -12   # BR(~chi_40 -> ~nu_eL    nu_eb)
     5.73699171E-04    2    -1000012        12   # BR(~chi_40 -> ~nu_eL*   nu_e )
     5.73699171E-04    2     1000014       -14   # BR(~chi_40 -> ~nu_muL   nu_mub)
     5.73699171E-04    2    -1000014        14   # BR(~chi_40 -> ~nu_muL*  nu_mu )
     2.40341454E-03    2     1000016       -16   # BR(~chi_40 -> ~nu_tau1  nu_taub)
     2.40341454E-03    2    -1000016        16   # BR(~chi_40 -> ~nu_tau1* nu_tau )
#
#         PDG            Width
DECAY        25     3.73977277E-03   # h decays
#          BR         NDA      ID1       ID2
     5.42215117E-01    2           5        -5   # BR(h -> b       bb     )
     7.01184577E-02    2         -15        15   # BR(h -> tau+    tau-   )
     2.48177298E-04    2         -13        13   # BR(h -> mu+     mu-    )
     2.70948709E-04    2           3        -3   # BR(h -> s       sb     )
     2.32930277E-02    2           4        -4   # BR(h -> c       cb     )
     8.65746543E-02    2          21        21   # BR(h -> g       g      )
     2.55917242E-03    2          22        22   # BR(h -> gam     gam    )
     1.77706479E-03    2          22        23   # BR(h -> Z       gam    )
     2.42351658E-01    2          24       -24   # BR(h -> W+      W-     )
     3.05917224E-02    2          23        23   # BR(h -> Z       Z      )
#
#         PDG            Width
DECAY        35     5.91862938E+00   # H decays
#          BR         NDA      ID1       ID2
     7.07818017E-01    2           5        -5   # BR(H -> b       bb     )
     6.73702824E-02    2         -15        15   # BR(H -> tau+    tau-   )
     2.35003594E-04    2         -13        13   # BR(H -> mu+     mu-    )
     2.10086664E-04    2           3        -3   # BR(H -> s       sb     )
     1.84876274E-06    2           4        -4   # BR(H -> c       cb     )
     1.79833255E-01    2           6        -6   # BR(H -> t       tb     )
     6.08689696E-05    2          21        21   # BR(H -> g       g      )
     2.05183960E-07    2          22        22   # BR(H -> gam     gam    )
     1.50161756E-07    2          23        22   # BR(H -> Z       gam    )
     9.80761371E-05    2          24       -24   # BR(H -> W+      W-     )
     4.88737601E-05    2          23        23   # BR(H -> Z       Z      )
     4.12436684E-04    2          25        25   # BR(H -> h       h      )
     2.45091276E-03    2     1000024  -1000024   # BR(H -> ~chi_1+ ~chi_1-)
     1.22538995E-03    2     1000022   1000022   # BR(H -> ~chi_10 ~chi_10)
     1.42685690E-05    2     2000002  -2000002   # BR(H -> ~u_R    ~u_R*  )
     1.42685690E-05    2     2000004  -2000004   # BR(H -> ~c_R    ~c_R*  )
     4.61137311E-06    2     2000001  -2000001   # BR(H -> ~d_R    ~d_R*  )
     4.61137311E-06    2     2000003  -2000003   # BR(H -> ~s_R    ~s_R*  )
     3.77958961E-03    2     1000005  -1000005   # BR(H -> ~b_1    ~b_1*  )
     1.55341288E-05    2     2000011  -2000011   # BR(H -> ~e_R-   ~e_R+  )
     1.55341288E-05    2     2000013  -2000013   # BR(H -> ~mu_R-  ~mu_R+ )
     8.73644256E-03    2     1000015  -1000015   # BR(H -> ~tau_1- ~tau_1+)
     6.52834347E-03    2     2000015  -2000015   # BR(H -> ~tau_2- ~tau_2+)
     1.05247686E-02    2     1000015  -2000015   # BR(H -> ~tau_1- ~tau_2+)
     1.05247686E-02    2     2000015  -1000015   # BR(H -> ~tau_2- ~tau_1+)
     7.18518239E-05    2     1000016  -1000016   # BR(H -> ~nu_tauL ~nu_tauL*)
#
#         PDG            Width
DECAY        36     5.90646569E+00   # A decays
#          BR         NDA      ID1       ID2
     7.09483466E-01    2           5        -5   # BR(A -> b       bb     )
     6.75171932E-02    2         -15        15   # BR(A -> tau+    tau-   )
     2.35515576E-04    2         -13        13   # BR(A -> mu+     mu-    )
     2.10712800E-04    2           3        -3   # BR(A -> s       sb     )
     1.85532868E-06    2           4        -4   # BR(A -> c       cb     )
     1.81911996E-01    2           6        -6   # BR(A -> t       tb     )
     2.69672495E-04    2          21        21   # BR(A -> g       g      )
     4.46029064E-07    2          22        22   # BR(A -> gam     gam    )
     2.91320772E-07    2          23        22   # BR(A -> Z       gam    )
     9.92588144E-05    2          23        25   # BR(A -> Z       h      )
     2.58304962E-03    2     1000024  -1000024   # BR(A -> ~chi_1+ ~chi_1-)
     1.29137568E-03    2     1000022   1000022   # BR(A -> ~chi_10 ~chi_10)
     1.81975836E-02    2     1000015  -2000015   # BR(A -> ~tau_1- ~tau_2+)
     1.81975836E-02    2    -1000015   2000015   # BR(A -> ~tau_1+ ~tau_2-)
#
#         PDG            Width
DECAY        37     6.26940735E+00   # H+ decays
#          BR         NDA      ID1       ID2
     1.23438697E-03    2           4        -5   # BR(H+ -> c       bb     )
     6.36552977E-02    2         -15        16   # BR(H+ -> tau+    nu_tau )
     2.22044391E-04    2         -13        14   # BR(H+ -> mu+     nu_mu  )
     1.23438151E-05    2           2        -5   # BR(H+ -> u       bb     )
     9.91967733E-06    2           2        -3   # BR(H+ -> u       sb     )
     1.96924935E-04    2           4        -3   # BR(H+ -> c       sb     )
     9.00126631E-01    2           6        -5   # BR(H+ -> t       bb     )
     9.38308509E-05    2          24        25   # BR(H+ -> W+      h      )
     2.25767756E-12    2          24        36   # BR(H+ -> W+      A      )
     4.47349598E-12    2     1000024   1000022   # BR(H+ -> ~chi_1+ ~chi_10)
     5.39163523E-03    2    -1000015   1000016   # BR(H+ -> ~tau_1+ ~nu_tauL)
     2.90569858E-02    2    -2000015   1000016   # BR(H+ -> ~tau_2+ ~nu_tauL)
