#
#                              ======================
#                              | THE SUSYHIT OUTPUT |
#                              ======================
#
#
#              ------------------------------------------------------
#              |     This is the output of the SUSY-HIT package     |
#              |  created by A.Djouadi, M.Muehlleitner and M.Spira. |
#              |  In case of problems with SUSY-HIT email to        |
#              |           margarete.muehlleitner@cern.ch           |
#              |           michael.spira@psi.ch                     |
#              |           abdelhak.djouadi@cern.ch                 |
#              ------------------------------------------------------
#
#              ------------------------------------------------------
#              |  SUSY Les Houches Accord - MSSM Spectrum + Decays  |
#              |              based on the decay programs           |
#              |                                                    |
#              |                     SDECAY 1.3b                    |
#              |                                                    |
#              |  Authors: M.Muhlleitner, A.Djouadi and Y.Mambrini  |
#              |  Ref.:    Comput.Phys.Commun.168(2005)46           |
#              |           [hep-ph/0311167]                         |
#              |                                                    |
#              |                     HDECAY 3.4                     |
#              |                                                    |
#              |  By: A.Djouadi,J.Kalinowski,M.Muhlleitner,M.Spira  |
#              |  Ref.:    Comput.Phys.Commun.108(1998)56           |
#              |           [hep-ph/9704448]                         |
#              |                                                    |
#              |                                                    |
#              |  If not stated otherwise all DRbar couplings and   |
#              |  soft SUSY breaking masses are given at the scale  |
#              |  Q=  0.27636840E+04
#              |                                                    |
#              ------------------------------------------------------
#
#
BLOCK DCINFO  # Decay Program information
     1   SDECAY/HDECAY # decay calculator
     2   1.3b  /3.4    # version number
#
BLOCK SPINFO  # Spectrum calculator information
     1     SOFTSUSY    # spectrum calculator               
     2     3.4.0       # version number                    
#
BLOCK MODSEL  # Model selection
     1     0   #  nonUniversal                                     
#
BLOCK SMINPUTS  # Standard Model inputs
         1     1.27908970E+02   # alpha_em^-1(M_Z)^MSbar
         2     1.16637870E-05   # G_F [GeV^-2]
         3     1.18400000E-01   # alpha_S(M_Z)^MSbar
         4     9.11876000E+01   # M_Z pole mass
         5     4.18000000E+00   # mb(mb)^MSbar
         6     1.73200000E+02   # mt pole mass
         7     1.77700000E+00   # mtau pole mass
#
BLOCK MINPAR  # Input parameters - minimal models
         3     1.86700000E+01   # tanb                
#
BLOCK EXTPAR  # Input parameters - non-minimal models
         0    -1.00000000E+00   # Set                 
         1    -2.74991000E+03   # M_1(MX)             
         2    -9.58600000E+01   # M_2(MX)             
         3     1.99322000E+03   # M_3(MX)             
        11    -3.46398000E+03   # At(MX)              
        12    -3.31255000E+03   # Ab(MX)              
        13     1.81104000E+03   # Atau(MX)            
        23     1.55368000E+03   # mu(MX)              
        26     2.31222000E+03   # mA(pole)            
        31     4.59010000E+02   # meL(MX)             
        32     4.59010000E+02   # mmuL(MX)            
        33     2.65149000E+03   # mtauL(MX)           
        34     1.59313000E+03   # meR(MX)             
        35     1.59313000E+03   # mmuR(MX)            
        36     2.02127000E+03   # mtauR(MX)           
        41     2.24212000E+03   # mqL1(MX)            
        42     2.24212000E+03   # mqL2(MX)            
        43     2.04651000E+03   # mqL3(MX)            
        44     2.09084000E+03   # muR(MX)             
        45     2.09084000E+03   # mcR(MX)             
        46     3.73010000E+03   # mtR(MX)             
        47     3.18770000E+02   # mdR(MX)             
        48     3.18770000E+02   # msR(MX)             
        49     1.19265000E+03   # mbR(MX)             
#
BLOCK MASS  # Mass Spectrum
# PDG code           mass       particle
        24     8.03745130E+01   # W+
        25     1.26269549E+02   # h
        35     2.31222776E+03   # H
        36     2.31222000E+03   # A
        37     2.31391335E+03   # H+
         5     4.81876030E+00   # b-quark pole mass calculated from mb(mb)_Msbar
   1000001     2.32678080E+03   # ~d_L
   2000001     5.93028606E+02   # ~d_R
   1000002     2.32556803E+03   # ~u_L
   2000002     2.18050482E+03   # ~u_R
   1000003     2.32678080E+03   # ~s_L
   2000003     5.93028606E+02   # ~s_R
   1000004     2.32556803E+03   # ~c_L
   2000004     2.18050482E+03   # ~c_R
   1000005     1.31779209E+03   # ~b_1
   2000005     2.12526037E+03   # ~b_2
   1000006     2.12264649E+03   # ~t_1
   2000006     3.72809799E+03   # ~t_2
   1000011     4.63893653E+02   # ~e_L
   2000011     1.60942304E+03   # ~e_R
   1000012     4.56758966E+02   # ~nu_eL
   1000013     4.63893653E+02   # ~mu_L
   2000013     1.60942304E+03   # ~mu_R
   1000014     4.56758966E+02   # ~nu_muL
   1000015     2.03320650E+03   # ~tau_1
   2000015     2.65678292E+03   # ~tau_2
   1000016     2.65511447E+03   # ~nu_tauL
   1000021     2.13787786E+03   # ~g
   1000022    -1.04854576E+02   # ~chi_10
   1000023    -1.58837711E+03   # ~chi_20
   1000025     1.58935930E+03   # ~chi_30
   1000035    -2.70348514E+03   # ~chi_40
   1000024     1.05008035E+02   # ~chi_1+
   1000037     1.59146973E+03   # ~chi_2+
#
BLOCK NMIX  # Neutralino Mixing Matrix
  1  1     3.59771214E-05   # N_11
  1  2     9.98768861E-01   # N_12
  1  3    -4.96050103E-02   # N_13
  1  4    -3.23227326E-04   # N_14
  2  1     2.53624600E-02   # N_21
  2  2     3.52987969E-02   # N_22
  2  3     7.06134583E-01   # N_23
  2  4     7.06742309E-01   # N_24
  3  1     7.52222061E-03   # N_31
  3  2    -3.48469479E-02   # N_32
  3  3    -7.06225562E-01   # N_33
  3  4     7.07088793E-01   # N_34
  4  1     9.99650019E-01   # N_41
  4  2    -6.69304967E-04   # N_42
  4  3    -1.25995506E-02   # N_43
  4  4    -2.32517275E-02   # N_44
#
BLOCK UMIX  # Chargino Mixing Matrix U
  1  1     9.97541448E-01   # U_11
  1  2    -7.00789503E-02   # U_12
  2  1     7.00789503E-02   # U_21
  2  2     9.97541448E-01   # U_22
#
BLOCK VMIX  # Chargino Mixing Matrix V
  1  1    -9.99999902E-01   # V_11
  1  2    -4.43648527E-04   # V_12
  2  1    -4.43648527E-04   # V_21
  2  2     9.99999902E-01   # V_22
#
BLOCK STOPMIX  # Stop Mixing Matrix
  1  1     9.98534004E-01   # cos(theta_t)
  1  2     5.41280228E-02   # sin(theta_t)
  2  1    -5.41280228E-02   # -sin(theta_t)
  2  2     9.98534004E-01   # cos(theta_t)
#
BLOCK SBOTMIX  # Sbottom Mixing Matrix
  1  1     2.34329320E-02   # cos(theta_b)
  1  2     9.99725411E-01   # sin(theta_b)
  2  1    -9.99725411E-01   # -sin(theta_b)
  2  2     2.34329320E-02   # cos(theta_b)
#
BLOCK STAUMIX  # Stau Mixing Matrix
  1  1     1.61267638E-02   # cos(theta_tau)
  1  2     9.99869955E-01   # sin(theta_tau)
  2  1    -9.99869955E-01   # -sin(theta_tau)
  2  2     1.61267638E-02   # cos(theta_tau)
#
BLOCK ALPHA  # Higgs mixing
          -5.60907917E-02   # Mixing angle in the neutral Higgs boson sector
#
BLOCK HMIX Q=  2.76368400E+03  # DRbar Higgs Parameters
         1     1.57439240E+03   # mu(Q)MSSM           
         2     1.78735716E+01   # tan                 
         3     2.42520141E+02   # higgs               
         4     5.36212890E+06   # mA^2(Q)MSSM         
#
BLOCK GAUGE Q=  2.76368400E+03  # The gauge couplings
     1     3.64925691E-01   # gprime(Q) DRbar
     2     6.44480231E-01   # g(Q) DRbar
     3     1.02254103E+00   # g3(Q) DRbar
#
BLOCK AU Q=  2.76368400E+03  # The trilinear couplings
  1  1     0.00000000E+00   # A_u(Q) DRbar
  2  2     0.00000000E+00   # A_c(Q) DRbar
  3  3    -3.46397999E+03   # A_t(Q) DRbar
#
BLOCK AD Q=  2.76368400E+03  # The trilinear couplings
  1  1     0.00000000E+00   # A_d(Q) DRbar
  2  2     0.00000000E+00   # A_s(Q) DRbar
  3  3    -3.31255000E+03   # A_b(Q) DRbar
#
BLOCK AE Q=  2.76368400E+03  # The trilinear couplings
  1  1     0.00000000E+00   # A_e(Q) DRbar
  2  2     0.00000000E+00   # A_mu(Q) DRbar
  3  3     1.81104000E+03   # A_tau(Q) DRbar
#
BLOCK Yu Q=  2.76368400E+03  # The Yukawa couplings
  1  1     0.00000000E+00   # y_u(Q) DRbar
  2  2     0.00000000E+00   # y_c(Q) DRbar
  3  3     8.19354811E-01   # y_t(Q) DRbar
#
BLOCK Yd Q=  2.76368400E+03  # The Yukawa couplings
  1  1     0.00000000E+00   # y_d(Q) DRbar
  2  2     0.00000000E+00   # y_s(Q) DRbar
  3  3     2.10496874E-01   # y_b(Q) DRbar
#
BLOCK Ye Q=  2.76368400E+03  # The Yukawa couplings
  1  1     0.00000000E+00   # y_e(Q) DRbar
  2  2     0.00000000E+00   # y_mu(Q) DRbar
  3  3     1.82464251E-01   # y_tau(Q) DRbar
#
BLOCK MSOFT Q=  2.76368400E+03  # The soft SUSY breaking masses at the scale Q
         1    -2.74991000E+03   # M_1(Q)              
         2    -9.58600000E+01   # M_2(Q)              
         3     1.99322000E+03   # M_3(Q)              
        21     2.83215759E+06   # mH1^2(Q)            
        22    -2.37556591E+06   # mH2^2(Q)            
        31     4.59010000E+02   # meL(Q)              
        32     4.59010000E+02   # mmuL(Q)             
        33     2.65149000E+03   # mtauL(Q)            
        34     1.59313000E+03   # meR(Q)              
        35     1.59313000E+03   # mmuR(Q)             
        36     2.02127000E+03   # mtauR(Q)            
        41     2.24211999E+03   # mqL1(Q)             
        42     2.24211999E+03   # mqL2(Q)             
        43     2.04650999E+03   # mqL3(Q)             
        44     2.09083999E+03   # muR(Q)              
        45     2.09083999E+03   # mcR(Q)              
        46     3.73009999E+03   # mtR(Q)              
        47     3.18769962E+02   # mdR(Q)              
        48     3.18769962E+02   # msR(Q)              
        49     1.19264999E+03   # mbR(Q)              
#
Block HiggsBoundsInputHiggsCouplingsFermions
# ScalarNormEffCoupSq PseudoSNormEffCoupSq NP   IP1 IP2 IP2
    1.00718128E+00    0.00000000E+00        3  25   5   5  # h0-b-b eff. coupling^2, normalised to SM
    3.19457380E+02    0.00000000E+00        3  35   5   5  # H0-b-b eff. coupling^2, normalised to SM
    0.00000000E+00    3.19464562E+02        3  36   5   5  # A0-b-b eff. coupling^2, normalised to SM
#
    9.99977521E-01    0.00000000E+00        3  25   6   6  # h0-t-t eff. coupling^2, normalised to SM
    3.15271678E-03    0.00000000E+00        3  35   6   6  # H0-t-t eff. coupling^2, normalised to SM
    0.00000000E+00    3.13023765E-03        3  36   6   6  # A0-t-t eff. coupling^2, normalised to SM
#
    1.00718128E+00    0.00000000E+00        3  25  15  15  # h0-tau-tau eff. coupling^2, normalised to SM
    3.19457380E+02    0.00000000E+00        3  35  15  15  # H0-tau-tau eff. coupling^2, normalised to SM
    0.00000000E+00    3.19464562E+02        3  36  15  15  # A0-tau-tau eff. coupling^2, normalised to SM
#
Block HiggsBoundsInputHiggsCouplingsBosons
    9.99999960E-01        3  25  24  24  # h0-W-W eff. coupling^2, normalised to SM
    4.02134356E-08        3  35  24  24  # H0-W-W eff. coupling^2, normalised to SM
    0.00000000E+00        3  36  24  24  # A0-W-W eff. coupling^2, normalised to SM
#
    9.99999960E-01        3  25  23  23  # h0-Z-Z eff. coupling^2, normalised to SM
    4.02134356E-08        3  35  23  23  # H0-Z-Z eff. coupling^2, normalised to SM
    0.00000000E+00        3  36  23  23  # A0-Z-Z eff. coupling^2, normalised to SM
#
    8.91412284E-01        3  25  21  21  # h0-g-g eff. coupling^2, normalised to SM
    4.03609545E-13        3  35  21  21  # H0-g-g eff. coupling^2, normalised to SM
    1.80112038E-11        3  36  21  21  # A0-g-g eff. coupling^2, normalised to SM
#
    0.00000000E+00        3  25  25  23  # h0-h0-Z eff. coupling^2, normalised to SM
    0.00000000E+00        3  35  25  23  # H0-h0-Z eff. coupling^2, normalised to SM
    4.02134356E-08        3  36  25  23  # A0-h0-Z eff. coupling^2, normalised to SM
    0.00000000E+00        3  35  35  23  # H0-H0-Z eff. coupling^2, normalised to SM
    9.99999960E-01        3  36  35  23  # A0-H0-Z eff. coupling^2, normalised to SM
    0.00000000E+00        3  36  36  23  # A0-A0-Z eff. coupling^2, normalised to SM
#
    0.00000000E+00        4  25  21  21  23  # h0-g-g-Z eff. coupling^2, normalised to SM
    0.00000000E+00        4  35  21  21  23  # H0-g-g-Z eff. coupling^2, normalised to SM
    0.00000000E+00        4  36  21  21  23  # A0-g-g-Z eff. coupling^2, normalised to SM
#
#
#
#                             =================
#                             |The decay table|
#                             =================
#
# - The QCD corrections to the decays gluino -> squark  + quark
#                                     squark -> gaugino + quark_prime
#                                     squark -> squark_prime + Higgs
#                                     squark -> gluino  + quark
#   are included.
#
# - The multi-body decays for the inos, stops and sbottoms are included.
#
# - The loop induced decays for the gluino, neutralinos and stops
#   are included.
#
# - The SUSY decays of the top quark are included.
#
#
#         PDG            Width
DECAY         6     1.46351716E+00   # top decays
#          BR         NDA      ID1       ID2
     1.00000000E+00    2           5        24   # BR(t ->  b    W+)
#
#         PDG            Width
DECAY   1000021     8.95839244E+01   # gluino decays
#          BR         NDA      ID1       ID2
     2.04671857E-01    2     2000001        -1   # BR(~g -> ~d_R  db)
     2.04671857E-01    2    -2000001         1   # BR(~g -> ~d_R* d )
     2.04671857E-01    2     2000003        -3   # BR(~g -> ~s_R  sb)
     2.04671857E-01    2    -2000003         3   # BR(~g -> ~s_R* s )
     9.06205456E-02    2     1000005        -5   # BR(~g -> ~b_1  bb)
     9.06205456E-02    2    -1000005         5   # BR(~g -> ~b_1* b )
     3.57398102E-05    2     2000005        -5   # BR(~g -> ~b_2  bb)
     3.57398102E-05    2    -2000005         5   # BR(~g -> ~b_2* b )
#
#         PDG            Width
DECAY   1000006     3.22919097E+01   # stop1 decays
#          BR         NDA      ID1       ID2
     2.65204244E-01    2     1000022         6   # BR(~t_1 -> ~chi_10 t )
     8.30503071E-02    2     1000023         6   # BR(~t_1 -> ~chi_20 t )
     7.73892861E-02    2     1000025         6   # BR(~t_1 -> ~chi_30 t )
     5.39177182E-01    2     1000024         5   # BR(~t_1 -> ~chi_1+ b )
     1.14846988E-02    2     1000037         5   # BR(~t_1 -> ~chi_2+ b )
     2.36942822E-02    2     1000005        24   # BR(~t_1 -> ~b_1    W+)
#
#         PDG            Width
DECAY   2000006     2.19915689E+02   # stop2 decays
#          BR         NDA      ID1       ID2
     2.07891672E-04    2     1000022         6   # BR(~t_2 -> ~chi_10 t )
     7.46520685E-02    2     1000023         6   # BR(~t_2 -> ~chi_20 t )
     7.59848486E-02    2     1000025         6   # BR(~t_2 -> ~chi_30 t )
     8.93127657E-03    2     1000035         6   # BR(~t_2 -> ~chi_40 t )
     4.18551669E-04    2     1000024         5   # BR(~t_2 -> ~chi_1+ b )
     1.50998882E-01    2     1000037         5   # BR(~t_2 -> ~chi_2+ b )
     4.15912883E-01    2     1000021         6   # BR(~t_2 -> ~g      t )
     6.81687648E-02    2     1000006        25   # BR(~t_2 -> ~t_1    h )
     4.53189411E-05    2     1000005        37   # BR(~t_2 -> ~b_1    H+)
     6.93440167E-02    2     1000006        23   # BR(~t_2 -> ~t_1    Z )
     1.62107018E-04    2     1000005        24   # BR(~t_2 -> ~b_1    W+)
     1.35173390E-01    2     2000005        24   # BR(~t_2 -> ~b_2    W+)
#
#         PDG            Width
DECAY   1000005     3.37380186E-02   # sbottom1 decays
#          BR         NDA      ID1       ID2
     3.41771306E-01    2     1000022         5   # BR(~b_1 -> ~chi_10 b )
     6.58228694E-01    2    -1000024         6   # BR(~b_1 -> ~chi_1- t )
#
#         PDG            Width
DECAY   2000005     3.22764964E+01   # sbottom2 decays
#          BR         NDA      ID1       ID2
     2.69758623E-01    2     1000022         5   # BR(~b_2 -> ~chi_10 b )
     5.69526113E-03    2     1000023         5   # BR(~b_2 -> ~chi_20 b )
     5.73559142E-03    2     1000025         5   # BR(~b_2 -> ~chi_30 b )
     5.30747135E-01    2    -1000024         6   # BR(~b_2 -> ~chi_1- t )
     1.63841740E-01    2    -1000037         6   # BR(~b_2 -> ~chi_2- t )
     1.19846163E-02    2     1000005        25   # BR(~b_2 -> ~b_1    h )
     1.22370332E-02    2     1000005        23   # BR(~b_2 -> ~b_1    Z )
#
#         PDG            Width
DECAY   1000002     3.16202981E+01   # sup_L decays
#          BR         NDA      ID1       ID2
     2.86995501E-01    2     1000022         2   # BR(~u_L -> ~chi_10 u)
     1.34612634E-04    2     1000023         2   # BR(~u_L -> ~chi_20 u)
     9.34066002E-05    2     1000025         2   # BR(~u_L -> ~chi_30 u)
     5.75393038E-01    2     1000024         1   # BR(~u_L -> ~chi_1+ d)
     3.27560159E-08    2     1000037         1   # BR(~u_L -> ~chi_2+ d)
     1.37383410E-01    2     1000021         2   # BR(~u_L -> ~g      u)
#
#         PDG            Width
DECAY   2000002     1.01383236E+00   # sup_R decays
#           BR         NDA      ID1       ID2
     6.23512314E-09    2     1000022         2   # BR(~u_R -> ~chi_10 u)
#           BR         NDA      ID1       ID2       ID3
     1.76893151E-01    3        2       -1        2000001   # BR(~u_R -> u  db  ~d_R)
     2.68476339E-01    3        2       1        -2000001   # BR(~u_R -> u  d  ~d_R*)
     1.75719386E-01    3        2       -3        2000003   # BR(~u_R -> u  sb  ~s_R)
     2.66602263E-01    3        2       3        -2000003   # BR(~u_R -> u  s  ~s_R*)
     4.95170623E-02    3        2       -5        1000005   # BR(~u_R -> u  bb  ~b_1)
     6.09548507E-02    3        2       5        -1000005   # BR(~u_R -> u  b  ~b_1*)
     2.04905671E-06    3        2       -5        2000005   # BR(~u_R -> u  bb  ~b_2)
     2.04402629E-06    3        2       5        -2000005   # BR(~u_R -> u  b  ~b_2*)
     1.97083865E-04    3        2       -11        1000011   # BR(~u_R -> u  e+  ~e_L-)
     5.35778915E-05    3        2       11        -1000011   # BR(~u_R -> u  e-  ~e_L+)
     5.62874125E-06    3        2       -11        2000011   # BR(~u_R -> u  e+  ~e_R-)
     1.11606223E-05    3        2       11        -2000011   # BR(~u_R -> u  e-  ~e_R+)
     1.97103592E-04    3        2       -12        1000012   # BR(~u_R -> u  nu_eb  ~nu_eL)
     5.38047534E-05    3        2       12        -1000012   # BR(~u_R -> u  nu_e  ~nu_eL*)
     1.94805383E-04    3        2       -13        1000013   # BR(~u_R -> u  mu+  ~mu_L-)
     5.35778915E-05    3        2       13        -1000013   # BR(~u_R -> u  mu-  ~mu_L+)
     5.76041982E-06    3        2       -13        2000013   # BR(~u_R -> u  mu+  ~mu_R-)
     1.14022796E-05    3        2       13        -2000013   # BR(~u_R -> u  mu-  ~mu_R+)
     1.94400977E-04    3        2       -14        1000014   # BR(~u_R -> u  nu_mub  ~nu_muL)
     5.33934428E-05    3        2       14        -1000014   # BR(~u_R -> u  nu_mu  ~nu_muL*)
     1.41838045E-08    3        2       -15        1000015   # BR(~u_R -> u  tau+  ~tau_1-)
     2.36695937E-08    3        2       15        -1000015   # BR(~u_R -> u  tau-  ~tau_1+)
     1.24024449E-04    3        2       23        1000022   # BR(~u_R -> u  Z  ~chi_10)
     1.30228631E-04    3        2       25        1000022   # BR(~u_R -> u  h  ~chi_10)
     1.28078374E-06    3        2       23        1000023   # BR(~u_R -> u  Z  ~chi_20)
     1.01357980E-05    3        2       25        1000023   # BR(~u_R -> u  h  ~chi_20)
     9.60139014E-06    3        2       23        1000025   # BR(~u_R -> u  Z  ~chi_30)
     4.91096972E-07    3        2       25        1000025   # BR(~u_R -> u  h  ~chi_30)
     2.52448049E-04    3        2       -24        1000024   # BR(~u_R -> u  W-  ~chi_1+)
     2.52487502E-04    3        2       24        -1000024   # BR(~u_R -> u  W+  ~chi_1-)
     6.29630723E-06    3        2       -24        1000037   # BR(~u_R -> u  W-  ~chi_2+)
     1.41167324E-05    3        2       24        -1000037   # BR(~u_R -> u  W+  ~chi_2-)
#
#         PDG            Width
DECAY   1000001     3.16210075E+01   # sdown_L decays
#          BR         NDA      ID1       ID2
     2.87127225E-01    2     1000022         1   # BR(~d_L -> ~chi_10 d)
     7.81685701E-05    2     1000023         1   # BR(~d_L -> ~chi_20 d)
     1.10201977E-04    2     1000025         1   # BR(~d_L -> ~chi_30 d)
     5.72845740E-01    2    -1000024         2   # BR(~d_L -> ~chi_1- u)
     8.19193549E-04    2    -1000037         2   # BR(~d_L -> ~chi_2- u)
     1.39019471E-01    2     1000021         1   # BR(~d_L -> ~g      d)
#
#         PDG            Width
DECAY   2000001     8.29527578E-09   # sdown_R decays
#           BR         NDA      ID1       ID2
     5.33758959E-02    2     1000022         1   # BR(~d_R -> ~chi_10 d)
#           BR         NDA      ID1       ID2       ID3
     1.94857898E-01    3        1       -11        1000011   # BR(~d_R -> d  e+  ~e_L-)
     7.41434060E-03    3        1       11        -1000011   # BR(~d_R -> d  e-  ~e_L+)
     2.49274413E-01    3        1       -12        1000012   # BR(~d_R -> d  nu_eb  ~nu_eL)
     9.34893572E-03    3        1       12        -1000012   # BR(~d_R -> d  nu_e  ~nu_eL*)
     1.94580632E-01    3        1       -13        1000013   # BR(~d_R -> d  mu+  ~mu_L-)
     7.38191251E-03    3        1       13        -1000013   # BR(~d_R -> d  mu-  ~mu_L+)
     2.50226762E-01    3        1       -14        1000014   # BR(~d_R -> d  nu_mub  ~nu_muL)
     9.45610515E-03    3        1       14        -1000014   # BR(~d_R -> d  nu_mu  ~nu_muL*)
     4.61443369E-03    3        1       23        1000022   # BR(~d_R -> d  Z  ~chi_10)
     2.38436919E-03    3        1       25        1000022   # BR(~d_R -> d  h  ~chi_10)
     1.67854576E-02    3        1       -24        1000024   # BR(~d_R -> d  W-  ~chi_1+)
     2.98844796E-04    3        1       24        -1000024   # BR(~d_R -> d  W+  ~chi_1-)
#
#         PDG            Width
DECAY   1000004     3.17868644E+01   # scharm_L decays
#          BR         NDA      ID1       ID2
     3.00309198E-01    2     1000022         4   # BR(~c_L -> ~chi_10 c)
     1.38246423E-04    2     1000023         4   # BR(~c_L -> ~chi_20 c)
     9.59249734E-05    2     1000025         4   # BR(~c_L -> ~chi_30 c)
     6.02085067E-01    2     1000024         3   # BR(~c_L -> ~chi_1+ s)
     3.36369384E-08    2     1000037         3   # BR(~c_L -> ~chi_2+ s)
     9.73715305E-02    2     1000021         4   # BR(~c_L -> ~g      c)
#
#         PDG            Width
DECAY   2000004     1.01536561E+00   # scharm_R decays
#           BR         NDA      ID1       ID2
     6.51572654E-09    2     1000022         4   # BR(~c_R -> ~chi_10 c)
#           BR         NDA      ID1       ID2       ID3
     1.75522983E-01    3        4       -1        2000001   # BR(~c_R -> c  db  ~d_R)
     2.71173257E-01    3        4       1        -2000001   # BR(~c_R -> c  d  ~d_R*)
     1.75513133E-01    3        4       -3        2000003   # BR(~c_R -> c  sb  ~s_R)
     2.65273904E-01    3        4       3        -2000003   # BR(~c_R -> c  s  ~s_R*)
     4.97407037E-02    3        4       -5        1000005   # BR(~c_R -> c  bb  ~b_1)
     6.09396255E-02    3        4       5        -1000005   # BR(~c_R -> c  b  ~b_1*)
     2.00696181E-06    3        4       -5        2000005   # BR(~c_R -> c  bb  ~b_2)
     2.04369734E-06    3        4       5        -2000005   # BR(~c_R -> c  b  ~b_2*)
     1.95722602E-04    3        4       -11        1000011   # BR(~c_R -> c  e+  ~e_L-)
     5.34960013E-05    3        4       11        -1000011   # BR(~c_R -> c  e-  ~e_L+)
     5.61285505E-06    3        4       -11        2000011   # BR(~c_R -> c  e+  ~e_R-)
     1.11329357E-05    3        4       11        -2000011   # BR(~c_R -> c  e-  ~e_R+)
     1.96382463E-04    3        4       -12        1000012   # BR(~c_R -> c  nu_eb  ~nu_eL)
     5.37235055E-05    3        4       12        -1000012   # BR(~c_R -> c  nu_e  ~nu_eL*)
     1.95318808E-04    3        4       -13        1000013   # BR(~c_R -> c  mu+  ~mu_L-)
     5.42671521E-05    3        4       13        -1000013   # BR(~c_R -> c  mu-  ~mu_L+)
     5.64427231E-06    3        4       -13        2000013   # BR(~c_R -> c  mu+  ~mu_R-)
     1.11880882E-05    3        4       13        -2000013   # BR(~c_R -> c  mu-  ~mu_R+)
     1.95633964E-04    3        4       -14        1000014   # BR(~c_R -> c  nu_mub  ~nu_muL)
     5.41893476E-05    3        4       14        -1000014   # BR(~c_R -> c  nu_mu  ~nu_muL*)
     1.41751895E-08    3        4       -15        1000015   # BR(~c_R -> c  tau+  ~tau_1-)
     2.35865778E-08    3        4       15        -1000015   # BR(~c_R -> c  tau-  ~tau_1+)
     1.23837166E-04    3        4       23        1000022   # BR(~c_R -> c  Z  ~chi_10)
     1.30031980E-04    3        4       25        1000022   # BR(~c_R -> c  h  ~chi_10)
     1.27924363E-06    3        4       23        1000023   # BR(~c_R -> c  Z  ~chi_20)
     1.01549628E-05    3        4       25        1000023   # BR(~c_R -> c  h  ~chi_20)
     9.64549113E-06    3        4       23        1000025   # BR(~c_R -> c  Z  ~chi_30)
     4.91359955E-07    3        4       25        1000025   # BR(~c_R -> c  h  ~chi_30)
     2.52066839E-04    3        4       -24        1000024   # BR(~c_R -> c  W-  ~chi_1+)
     2.52106235E-04    3        4       24        -1000024   # BR(~c_R -> c  W+  ~chi_1-)
     6.27458713E-06    3        4       -24        1000037   # BR(~c_R -> c  W-  ~chi_2+)
     1.40983699E-05    3        4       24        -1000037   # BR(~c_R -> c  W+  ~chi_2-)
#
#         PDG            Width
DECAY   1000003     3.17701504E+01   # sstrange_L decays
#          BR         NDA      ID1       ID2
     3.00617266E-01    2     1000022         3   # BR(~s_L -> ~chi_10 s)
     8.03257956E-05    2     1000023         3   # BR(~s_L -> ~chi_20 s)
     1.13239602E-04    2     1000025         3   # BR(~s_L -> ~chi_30 s)
     5.99758415E-01    2    -1000024         4   # BR(~s_L -> ~chi_1- c)
     8.41713672E-04    2    -1000037         4   # BR(~s_L -> ~chi_2- c)
     9.85890393E-02    2     1000021         3   # BR(~s_L -> ~g      s)
#
#         PDG            Width
DECAY   2000003     8.25756167E-09   # sstrange_R decays
#           BR         NDA      ID1       ID2
     5.13588614E-02    2     1000022         3   # BR(~s_R -> ~chi_10 s)
#           BR         NDA      ID1       ID2       ID3
     1.95275563E-01    3        3       -11        1000011   # BR(~s_R -> s  e+  ~e_L-)
     7.42301450E-03    3        3       11        -1000011   # BR(~s_R -> s  e-  ~e_L+)
     2.50376574E-01    3        3       -12        1000012   # BR(~s_R -> s  nu_eb  ~nu_eL)
     9.45109503E-03    3        3       12        -1000012   # BR(~s_R -> s  nu_e  ~nu_eL*)
     1.95541985E-01    3        3       -13        1000013   # BR(~s_R -> s  mu+  ~mu_L-)
     7.41950257E-03    3        3       13        -1000013   # BR(~s_R -> s  mu-  ~mu_L+)
     2.49431985E-01    3        3       -14        1000014   # BR(~s_R -> s  nu_mub  ~nu_muL)
     9.53622912E-03    3        3       14        -1000014   # BR(~s_R -> s  nu_mu  ~nu_muL*)
     4.62860606E-03    3        3       23        1000022   # BR(~s_R -> s  Z  ~chi_10)
     2.39513803E-03    3        3       25        1000022   # BR(~s_R -> s  h  ~chi_10)
     1.68621205E-02    3        3       -24        1000024   # BR(~s_R -> s  W-  ~chi_1+)
     2.99325648E-04    3        3       24        -1000024   # BR(~s_R -> s  W+  ~chi_1-)
#
#         PDG            Width
DECAY   1000011     5.15515526E+00   # selectron_L decays
#          BR         NDA      ID1       ID2
     3.33959317E-01    2     1000022        11   # BR(~e_L -> ~chi_10 e-)
     6.66040683E-01    2    -1000024        12   # BR(~e_L -> ~chi_1- nu_e)
#
#         PDG            Width
DECAY   2000011     6.04850966E-04   # selectron_R decays
#           BR         NDA      ID1       ID2
     1.80946022E-05    2     1000022        11   # BR(~e_R -> ~chi_10 e-)
#           BR         NDA      ID1       ID2       ID3
     2.11374384E-02    3        11       -1        2000001   # BR(~e_R- -> e-  db  ~d_R)
     1.25341621E-01    3        11       1        -2000001   # BR(~e_R- -> e-  d  ~d_R*)
     2.15143907E-02    3        11       -3        2000003   # BR(~e_R- -> e-  sb  ~s_R)
     1.26128591E-01    3        11       3        -2000003   # BR(~e_R- -> e-  s  ~s_R*)
     2.49962402E-04    3        11       -5        1000005   # BR(~e_R- -> e-  bb  ~b_1)
     5.73083321E-04    3        11       5        -1000005   # BR(~e_R- -> e-  b  ~b_1*)
     1.50556096E-01    3        11       -11        1000011   # BR(~e_R- -> e-  e+  ~e_L-)
     2.29362286E-02    3        11       11        -1000011   # BR(~e_R- -> e-  e-  ~e_L+)
     1.51050433E-01    3        11       -12        1000012   # BR(~e_R- -> e-  nu_eb  ~nu_eL)
     2.27692453E-02    3        11       12        -1000012   # BR(~e_R- -> e-  nu_e  ~nu_eL*)
     1.47720687E-01    3        11       -13        1000013   # BR(~e_R- -> e-  mu+  ~mu_L-)
     2.31643839E-02    3        11       13        -1000013   # BR(~e_R- -> e-  mu-  ~mu_L+)
     1.49876590E-01    3        11       -14        1000014   # BR(~e_R- -> e-  nu_mub  ~nu_muL)
     2.28634834E-02    3        11       14        -1000014   # BR(~e_R- -> e-  nu_mu  ~nu_muL*)
     2.36438409E-03    3        11       23        1000022   # BR(~e_R- -> e-  Z  ~chi_10)
     2.38273572E-03    3        11       25        1000022   # BR(~e_R- -> e-  h  ~chi_10)
     6.32188790E-03    3        11       -24        1000024   # BR(~e_R- -> e-  W-  ~chi_1+)
     3.03066392E-03    3        11       24        -1000024   # BR(~e_R- -> e-  W+  ~chi_1-)
#
#         PDG            Width
DECAY   1000013     5.15515506E+00   # smuon_L decays
#          BR         NDA      ID1       ID2
     3.33959291E-01    2     1000022        13   # BR(~mu_L -> ~chi_10 mu-)
     6.66040709E-01    2    -1000024        14   # BR(~mu_L -> ~chi_1- nu_mu)
#
#         PDG            Width
DECAY   2000013     6.04829165E-04   # smuon_R decays
#           BR         NDA      ID1       ID2
     1.80952542E-05    2     1000022        13   # BR(~mu_R -> ~chi_10 mu-)
#           BR         NDA      ID1       ID2       ID3
     2.11382002E-02    3        13       -1        2000001   # BR(~mu_R- -> mu-  db  ~d_R)
     1.25346138E-01    3        13       1        -2000001   # BR(~mu_R- -> mu-  d  ~d_R*)
     2.15151662E-02    3        13       -3        2000003   # BR(~mu_R- -> mu-  sb  ~s_R)
     1.26133137E-01    3        13       3        -2000003   # BR(~mu_R- -> mu-  s  ~s_R*)
     2.49971411E-04    3        13       -5        1000005   # BR(~mu_R- -> mu-  bb  ~b_1)
     5.73103977E-04    3        13       5        -1000005   # BR(~mu_R- -> mu-  b  ~b_1*)
     1.50561523E-01    3        13       -11        1000011   # BR(~mu_R- -> mu-  e+  ~e_L-)
     2.31652189E-02    3        13       11        -1000011   # BR(~mu_R- -> mu-  e-  ~e_L+)
     1.51055877E-01    3        13       -12        1000012   # BR(~mu_R- -> mu-  nu_eb  ~nu_eL)
     2.27700660E-02    3        13       12        -1000012   # BR(~mu_R- -> mu-  nu_e  ~nu_eL*)
     1.47726011E-01    3        13       -13        1000013   # BR(~mu_R- -> mu-  mu+  ~mu_L-)
     2.29370553E-02    3        13       13        -1000013   # BR(~mu_R- -> mu-  mu-  ~mu_L+)
     1.49881992E-01    3        13       -14        1000014   # BR(~mu_R- -> mu-  nu_mub  ~nu_muL)
     2.28643075E-02    3        13       14        -1000014   # BR(~mu_R- -> mu-  nu_mu  ~nu_muL*)
     2.36446931E-03    3        13       23        1000022   # BR(~mu_R- -> mu-  Z  ~chi_10)
     2.38464030E-03    3        13       25        1000022   # BR(~mu_R- -> mu-  h  ~chi_10)
     6.28425383E-03    3        13       -24        1000024   # BR(~mu_R- -> mu-  W-  ~chi_1+)
     3.03077316E-03    3        13       24        -1000024   # BR(~mu_R- -> mu-  W+  ~chi_1-)
#
#         PDG            Width
DECAY   1000015     4.35878109E-01   # stau_1 decays
#          BR         NDA      ID1       ID2
     2.47989434E-02    2     1000022        15   # BR(~tau_1 -> ~chi_10  tau-)
     2.36003551E-01    2     1000023        15   # BR(~tau_1 -> ~chi_20  tau-)
     2.32303977E-01    2     1000025        15   # BR(~tau_1 -> ~chi_30  tau-)
     4.94816003E-02    2    -1000024        16   # BR(~tau_1 -> ~chi_1-  nu_tau)
     4.57411929E-01    2    -1000037        16   # BR(~tau_1 -> ~chi_2-  nu_tau)
#
#         PDG            Width
DECAY   2000015     3.36800967E+01   # stau_2 decays
#          BR         NDA      ID1       ID2
     3.23948937E-01    2     1000022        15   # BR(~tau_2 -> ~chi_10  tau-)
     1.11090560E-02    2     1000023        15   # BR(~tau_2 -> ~chi_20  tau-)
     1.09216120E-02    2     1000025        15   # BR(~tau_2 -> ~chi_30  tau-)
     6.46017644E-01    2    -1000024        16   # BR(~tau_2 -> ~chi_1-  nu_tau)
     1.49226086E-03    2    -1000037        16   # BR(~tau_2 -> ~chi_2-  nu_tau)
     3.24166200E-03    2     1000015        25   # BR(~tau_2 -> ~tau_1   h)
     3.26882796E-03    2     1000015        23   # BR(~tau_2 -> ~tau_1   Z)
#
#         PDG            Width
DECAY   1000012     5.07512918E+00   # snu_eL decays
#          BR         NDA      ID1       ID2
     3.32849408E-01    2     1000022        12   # BR(~nu_eL -> ~chi_10 nu_e)
     6.67150592E-01    2     1000024        11   # BR(~nu_eL -> ~chi_1+ e-)
#
#         PDG            Width
DECAY   1000014     5.07512877E+00   # snu_muL decays
#          BR         NDA      ID1       ID2
     3.32849434E-01    2     1000022        14   # BR(~nu_muL -> ~chi_10 nu_mu)
     6.67150566E-01    2     1000024        13   # BR(~nu_muL -> ~chi_1+ mu-)
#
#         PDG            Width
DECAY   1000016     3.37301762E+01   # snu_tauL decays
#          BR         NDA      ID1       ID2
     3.23400411E-01    2     1000022        16   # BR(~nu_tauL -> ~chi_10 nu_tau)
     5.87858167E-05    2     1000023        16   # BR(~nu_tauL -> ~chi_20 nu_tau)
     2.04788930E-04    2     1000025        16   # BR(~nu_tauL -> ~chi_30 nu_tau)
     6.48672793E-01    2     1000024        15   # BR(~nu_tauL -> ~chi_1+ tau-)
     2.12985654E-02    2     1000037        15   # BR(~nu_tauL -> ~chi_2+ tau-)
     6.36465619E-03    2    -1000015       -24   # BR(~nu_tauL -> ~tau_1+ W-)
#
#         PDG            Width
DECAY   1000024     2.29919520E-15   # chargino1+ decays
#           BR         NDA      ID1       ID2       ID3
     2.16062420E-02    3     1000022       -11        12   # BR(~chi_1+ -> ~chi_10 e+   nu_e)
     1.60876750E-03    3     1000022       -13        14   # BR(~chi_1+ -> ~chi_10 mu+  nu_mu)
     9.76784990E-01    2     1000022       211             # BR(~chi_1+ -> ~chi_10 pi+)
#
#         PDG            Width
DECAY   1000037     9.72920437E+00   # chargino2+ decays
#          BR         NDA      ID1       ID2
     1.90901560E-02    2    -1000005         6   # BR(~chi_2+ -> ~b_1*    t )
     1.12008816E-07    2     1000012       -11   # BR(~chi_2+ -> ~nu_eL   e+  )
     1.12008816E-07    2     1000014       -13   # BR(~chi_2+ -> ~nu_muL mu+ )
     2.77901562E-03    2    -1000011        12   # BR(~chi_2+ -> ~e_L+    nu_e)
     2.77901562E-03    2    -1000013        14   # BR(~chi_2+ -> ~mu_L+   nu_mu)
     3.27817205E-01    2     1000024        23   # BR(~chi_2+ -> ~chi_1+  Z )
     3.20436600E-01    2     1000022        24   # BR(~chi_2+ -> ~chi_10  W+)
     3.27097784E-01    2     1000024        25   # BR(~chi_2+ -> ~chi_1+  h )
#
#         PDG            Width
DECAY   1000022     0.00000000E+00   # neutralino1 decays
#
#         PDG            Width
DECAY   1000023     9.65881355E+00   # neutralino2 decays
#          BR         NDA      ID1       ID2
     1.62907300E-01    2     1000022        23   # BR(~chi_20 -> ~chi_10   Z )
     3.22227633E-01    2     1000024       -24   # BR(~chi_20 -> ~chi_1+   W-)
     3.22227633E-01    2    -1000024        24   # BR(~chi_20 -> ~chi_1-   W+)
     1.68082130E-01    2     1000022        25   # BR(~chi_20 -> ~chi_10   h )
     6.88085587E-05    2     2000001        -1   # BR(~chi_20 -> ~d_R      db)
     6.88085587E-05    2    -2000001         1   # BR(~chi_20 -> ~d_R*     d )
     6.88085587E-05    2     2000003        -3   # BR(~chi_20 -> ~s _R      sb)
     6.88085587E-05    2    -2000003         3   # BR(~chi_20 -> ~s _R*     s )
     1.04874892E-02    2     1000005        -5   # BR(~chi_20 -> ~b_1      bb)
     1.04874892E-02    2    -1000005         5   # BR(~chi_20 -> ~b_1*     b )
     7.00956283E-04    2     1000011       -11   # BR(~chi_20 -> ~e_L-     e+)
     7.00956283E-04    2    -1000011        11   # BR(~chi_20 -> ~e_L+     e-)
     7.00956283E-04    2     1000013       -13   # BR(~chi_20 -> ~mu_L-    mu+)
     7.00956283E-04    2    -1000013        13   # BR(~chi_20 -> ~mu_L+    mu-)
     1.25316657E-04    2     1000012       -12   # BR(~chi_20 -> ~nu_eL    nu_eb)
     1.25316657E-04    2    -1000012        12   # BR(~chi_20 -> ~nu_eL*   nu_e )
     1.25316657E-04    2     1000014       -14   # BR(~chi_20 -> ~nu_muL   nu_mub)
     1.25316657E-04    2    -1000014        14   # BR(~chi_20 -> ~nu_muL*  nu_mu )
#
#         PDG            Width
DECAY   1000025     9.63828030E+00   # neutralino3 decays
#          BR         NDA      ID1       ID2
     1.67487196E-01    2     1000022        23   # BR(~chi_30 -> ~chi_10   Z )
     3.23366731E-01    2     1000024       -24   # BR(~chi_30 -> ~chi_1+   W-)
     3.23366731E-01    2    -1000024        24   # BR(~chi_30 -> ~chi_1-   W+)
     1.61797660E-01    2     1000022        25   # BR(~chi_30 -> ~chi_10   h )
     6.07155539E-06    2     2000001        -1   # BR(~chi_30 -> ~d_R      db)
     6.07155539E-06    2    -2000001         1   # BR(~chi_30 -> ~d_R*     d )
     6.07155539E-06    2     2000003        -3   # BR(~chi_30 -> ~s _R      sb)
     6.07155539E-06    2    -2000003         3   # BR(~chi_30 -> ~s _R*     s )
     1.05683247E-02    2     1000005        -5   # BR(~chi_30 -> ~b_1      bb)
     1.05683247E-02    2    -1000005         5   # BR(~chi_30 -> ~b_1*     b )
     2.66725389E-04    2     1000011       -11   # BR(~chi_30 -> ~e_L-     e+)
     2.66725389E-04    2    -1000011        11   # BR(~chi_30 -> ~e_L+     e-)
     2.66725389E-04    2     1000013       -13   # BR(~chi_30 -> ~mu_L-    mu+)
     2.66725389E-04    2    -1000013        13   # BR(~chi_30 -> ~mu_L+    mu-)
     4.38461288E-04    2     1000012       -12   # BR(~chi_30 -> ~nu_eL    nu_eb)
     4.38461288E-04    2    -1000012        12   # BR(~chi_30 -> ~nu_eL*   nu_e )
     4.38461288E-04    2     1000014       -14   # BR(~chi_30 -> ~nu_muL   nu_mub)
     4.38461288E-04    2    -1000014        14   # BR(~chi_30 -> ~nu_muL*  nu_mu )
#
#         PDG            Width
DECAY   1000035     4.96389315E+01   # neutralino4 decays
#          BR         NDA      ID1       ID2
     4.95849918E-05    2     1000022        23   # BR(~chi_40 -> ~chi_10   Z )
     2.10179256E-03    2     1000023        23   # BR(~chi_40 -> ~chi_20   Z )
     2.32776323E-02    2     1000025        23   # BR(~chi_40 -> ~chi_30   Z )
     1.11541678E-04    2     1000024       -24   # BR(~chi_40 -> ~chi_1+   W-)
     1.11541678E-04    2    -1000024        24   # BR(~chi_40 -> ~chi_1-   W+)
     2.47218819E-02    2     1000037       -24   # BR(~chi_40 -> ~chi_2+   W-)
     2.47218819E-02    2    -1000037        24   # BR(~chi_40 -> ~chi_2-   W+)
     6.88013407E-05    2     1000022        25   # BR(~chi_40 -> ~chi_10   h )
     2.04263073E-06    2     1000022        35   # BR(~chi_40 -> ~chi_10   H )
     1.57864251E-06    2     1000022        36   # BR(~chi_40 -> ~chi_10   A )
     2.63138570E-02    2     1000023        25   # BR(~chi_40 -> ~chi_20   h )
     2.17926021E-03    2     1000025        25   # BR(~chi_40 -> ~chi_30   h )
     3.55343842E-06    2     1000024       -37   # BR(~chi_40 -> ~chi_1+   H-)
     3.55343842E-06    2    -1000024        37   # BR(~chi_40 -> ~chi_1-   H+)
     8.01782915E-04    2     1000002        -2   # BR(~chi_40 -> ~u_L      ub)
     8.01782915E-04    2    -1000002         2   # BR(~chi_40 -> ~u_L*     u )
     2.30864071E-02    2     2000002        -2   # BR(~chi_40 -> ~u_R      ub)
     2.30864071E-02    2    -2000002         2   # BR(~chi_40 -> ~u_R*     u )
     8.08510043E-04    2     1000001        -1   # BR(~chi_40 -> ~d_L      db)
     8.08510043E-04    2    -1000001         1   # BR(~chi_40 -> ~d_L*     d )
     4.15958227E-02    2     2000001        -1   # BR(~chi_40 -> ~d_R      db)
     4.15958227E-02    2    -2000001         1   # BR(~chi_40 -> ~d_R*     d )
     8.01776730E-04    2     1000004        -4   # BR(~chi_40 -> ~c_L      cb)
     8.01776730E-04    2    -1000004         4   # BR(~chi_40 -> ~c_L*     c )
     2.30863195E-02    2     2000004        -4   # BR(~chi_40 -> ~c_R      cb)
     2.30863195E-02    2    -2000004         4   # BR(~chi_40 -> ~c_R*     c )
     8.08510043E-04    2     1000003        -3   # BR(~chi_40 -> ~s _L      sb)
     8.08510043E-04    2    -1000003         3   # BR(~chi_40 -> ~s _L*     s )
     4.15958227E-02    2     2000003        -3   # BR(~chi_40 -> ~s _R      sb)
     4.15958227E-02    2    -2000003         3   # BR(~chi_40 -> ~s _R*     s )
     2.45795316E-03    2     1000006        -6   # BR(~chi_40 -> ~t_1      tb)
     2.45795316E-03    2    -1000006         6   # BR(~chi_40 -> ~t_1*     t )
     2.79028417E-02    2     1000005        -5   # BR(~chi_40 -> ~b_1      bb)
     2.79028417E-02    2    -1000005         5   # BR(~chi_40 -> ~b_1*     b )
     1.78069302E-03    2     2000005        -5   # BR(~chi_40 -> ~b_2      bb)
     1.78069302E-03    2    -2000005         5   # BR(~chi_40 -> ~b_2*     b )
     3.38758781E-02    2     1000011       -11   # BR(~chi_40 -> ~e_L-     e+)
     3.38758781E-02    2    -1000011        11   # BR(~chi_40 -> ~e_L+     e-)
     6.00986846E-02    2     2000011       -11   # BR(~chi_40 -> ~e_R-     e+)
     6.00986846E-02    2    -2000011        11   # BR(~chi_40 -> ~e_R+     e-)
     3.38758781E-02    2     1000013       -13   # BR(~chi_40 -> ~mu_L-    mu+)
     3.38758781E-02    2    -1000013        13   # BR(~chi_40 -> ~mu_L+    mu-)
     6.00986846E-02    2     2000013       -13   # BR(~chi_40 -> ~mu_R-    mu+)
     6.00986846E-02    2    -2000013        13   # BR(~chi_40 -> ~mu_R+    mu-)
     2.72035717E-02    2     1000015       -15   # BR(~chi_40 -> ~tau_1-   tau+)
     2.72035717E-02    2    -1000015        15   # BR(~chi_40 -> ~tau_1+   tau-)
     4.20743267E-05    2     2000015       -15   # BR(~chi_40 -> ~tau_2-   tau+)
     4.20743267E-05    2    -2000015        15   # BR(~chi_40 -> ~tau_2+   tau-)
     3.40995467E-02    2     1000012       -12   # BR(~chi_40 -> ~nu_eL    nu_eb)
     3.40995467E-02    2    -1000012        12   # BR(~chi_40 -> ~nu_eL*   nu_e )
     3.40995467E-02    2     1000014       -14   # BR(~chi_40 -> ~nu_muL   nu_mub)
     3.40995467E-02    2    -1000014        14   # BR(~chi_40 -> ~nu_muL*  nu_mu )
     4.54437203E-05    2     1000016       -16   # BR(~chi_40 -> ~nu_tau1  nu_taub)
     4.54437203E-05    2    -1000016        16   # BR(~chi_40 -> ~nu_tau1* nu_tau )
#
#         PDG            Width
DECAY        25     4.67677415E-03   # h decays
#          BR         NDA      ID1       ID2
     6.17784760E-01    2           5        -5   # BR(h -> b       bb     )
     5.62909924E-02    2         -15        15   # BR(h -> tau+    tau-   )
     1.99254334E-04    2         -13        13   # BR(h -> mu+     mu-    )
     2.16812961E-04    2           3        -3   # BR(h -> s       sb     )
     1.86954388E-02    2           4        -4   # BR(h -> c       cb     )
     7.04048850E-02    2          21        21   # BR(h -> g       g      )
     2.08940189E-03    2          22        22   # BR(h -> gam     gam    )
     1.49288555E-03    2          22        23   # BR(h -> Z       gam    )
     2.06587211E-01    2          24       -24   # BR(h -> W+      W-     )
     2.62383582E-02    2          23        23   # BR(h -> Z       Z      )
#
#         PDG            Width
DECAY        35     1.79991069E+01   # H decays
#          BR         NDA      ID1       ID2
     4.51492815E-01    2           5        -5   # BR(H -> b       bb     )
     8.53658678E-02    2         -15        15   # BR(H -> tau+    tau-   )
     3.05951248E-04    2         -13        13   # BR(H -> mu+     mu-    )
     1.40535868E-04    2           3        -3   # BR(H -> s       sb     )
     1.72159563E-07    2           4        -4   # BR(H -> c       cb     )
     1.67857192E-02    2           6        -6   # BR(H -> t       tb     )
     8.81609737E-06    2          21        21   # BR(H -> g       g      )
     3.87665232E-09    2          22        22   # BR(H -> gam     gam    )
     9.39846505E-09    2          23        22   # BR(H -> Z       gam    )
     8.84736339E-06    2          24       -24   # BR(H -> W+      W-     )
     4.40997323E-06    2          23        23   # BR(H -> Z       Z      )
     4.30076947E-05    2          25        25   # BR(H -> h       h      )
     5.27084767E-03    2     1000024  -1000024   # BR(H -> ~chi_1+ ~chi_1-)
     1.45896035E-01    2     1000024  -1000037   # BR(H -> ~chi_1+ ~chi_2-)
     1.45896035E-01    2     1000037  -1000024   # BR(H -> ~chi_2+ ~chi_1-)
     2.63448241E-03    2     1000022   1000022   # BR(H -> ~chi_10 ~chi_10)
     7.27650176E-02    2     1000022   1000023   # BR(H -> ~chi_10 ~chi_20)
     7.33643175E-02    2     1000022   1000025   # BR(H -> ~chi_10 ~chi_30)
     3.87843148E-07    2     2000001  -2000001   # BR(H -> ~d_R    ~d_R*  )
     3.87843148E-07    2     2000003  -2000003   # BR(H -> ~s_R    ~s_R*  )
     1.91251715E-06    2     1000011  -1000011   # BR(H -> ~e_L-   ~e_L+  )
     1.91251715E-06    2     1000013  -1000013   # BR(H -> ~mu_L-  ~mu_L+ )
     6.25413948E-06    2     1000012  -1000012   # BR(H -> ~nu_eL  ~nu_eL*   )
     6.25413948E-06    2     1000014  -1000014   # BR(H -> ~nu_muL ~nu_muL*  )
#
#         PDG            Width
DECAY        36     1.80034808E+01   # A decays
#          BR         NDA      ID1       ID2
     4.51434256E-01    2           5        -5   # BR(A -> b       bb     )
     8.53469585E-02    2         -15        15   # BR(A -> tau+    tau-   )
     3.05882711E-04    2         -13        13   # BR(A -> mu+     mu-    )
     1.40536039E-04    2           3        -3   # BR(A -> s       sb     )
     1.72466446E-07    2           4        -4   # BR(A -> c       cb     )
     1.69173968E-02    2           6        -6   # BR(A -> t       tb     )
     5.88781196E-05    2          21        21   # BR(A -> g       g      )
     2.18274981E-08    2          22        22   # BR(A -> gam     gam    )
     4.96334311E-08    2          23        22   # BR(A -> Z       gam    )
     8.93818587E-06    2          23        25   # BR(A -> Z       h      )
     5.30598544E-03    2     1000024  -1000024   # BR(A -> ~chi_1+ ~chi_1-)
     1.45865159E-01    2     1000024  -1000037   # BR(A -> ~chi_1+ ~chi_2-)
     1.45865159E-01    2     1000037  -1000024   # BR(A -> ~chi_2+ ~chi_1-)
     2.65186115E-03    2     1000022   1000022   # BR(A -> ~chi_10 ~chi_10)
     7.37031447E-02    2     1000022   1000023   # BR(A -> ~chi_10 ~chi_20)
     7.23956000E-02    2     1000022   1000025   # BR(A -> ~chi_10 ~chi_30)
#
#         PDG            Width
DECAY        37     1.63565530E+01   # H+ decays
#          BR         NDA      ID1       ID2
     6.72647785E-04    2           4        -5   # BR(H+ -> c       bb     )
     9.40092703E-02    2         -15        16   # BR(H+ -> tau+    nu_tau )
     3.36928355E-04    2         -13        14   # BR(H+ -> mu+     nu_mu  )
     6.72646184E-06    2           2        -5   # BR(H+ -> u       bb     )
     7.73370279E-06    2           2        -3   # BR(H+ -> u       sb     )
     1.52404725E-04    2           4        -3   # BR(H+ -> c       sb     )
     4.17340444E-01    2           6        -5   # BR(H+ -> t       bb     )
     9.87035408E-06    2          24        25   # BR(H+ -> W+      h      )
     1.11950602E-12    2          24        36   # BR(H+ -> W+      A      )
     1.23705731E-10    2     1000024   1000022   # BR(H+ -> ~chi_1+ ~chi_10)
     1.62932554E-01    2     1000024   1000023   # BR(H+ -> ~chi_1+ ~chi_20)
     1.62192529E-01    2     1000024   1000025   # BR(H+ -> ~chi_1+ ~chi_30)
     1.62322368E-01    2     1000037   1000022   # BR(H+ -> ~chi_2+ ~chi_10)
     8.26127285E-06    2    -1000011   1000012   # BR(H+ -> ~e_L+   ~nu_eL )
     8.26127285E-06    2    -1000013   1000014   # BR(H+ -> ~mu_L+  ~nu_muL)
