#
#                              ======================
#                              | THE SUSYHIT OUTPUT |
#                              ======================
#
#
#              ------------------------------------------------------
#              |     This is the output of the SUSY-HIT package     |
#              |  created by A.Djouadi, M.Muehlleitner and M.Spira. |
#              |  In case of problems with SUSY-HIT email to        |
#              |           margarete.muehlleitner@cern.ch           |
#              |           michael.spira@psi.ch                     |
#              |           abdelhak.djouadi@cern.ch                 |
#              ------------------------------------------------------
#
#              ------------------------------------------------------
#              |  SUSY Les Houches Accord - MSSM Spectrum + Decays  |
#              |              based on the decay programs           |
#              |                                                    |
#              |                     SDECAY 1.3b                    |
#              |                                                    |
#              |  Authors: M.Muhlleitner, A.Djouadi and Y.Mambrini  |
#              |  Ref.:    Comput.Phys.Commun.168(2005)46           |
#              |           [hep-ph/0311167]                         |
#              |                                                    |
#              |                     HDECAY 3.4                     |
#              |                                                    |
#              |  By: A.Djouadi,J.Kalinowski,M.Muhlleitner,M.Spira  |
#              |  Ref.:    Comput.Phys.Commun.108(1998)56           |
#              |           [hep-ph/9704448]                         |
#              |                                                    |
#              |                                                    |
#              |  If not stated otherwise all DRbar couplings and   |
#              |  soft SUSY breaking masses are given at the scale  |
#              |  Q=  0.25630810E+04
#              |                                                    |
#              ------------------------------------------------------
#
#
BLOCK DCINFO  # Decay Program information
     1   SDECAY/HDECAY # decay calculator
     2   1.3b  /3.4    # version number
#
BLOCK SPINFO  # Spectrum calculator information
     1     SOFTSUSY    # spectrum calculator               
     2     3.4.0       # version number                    
#
BLOCK MODSEL  # Model selection
     1     0   #  nonUniversal                                     
#
BLOCK SMINPUTS  # Standard Model inputs
         1     1.27908970E+02   # alpha_em^-1(M_Z)^MSbar
         2     1.16637870E-05   # G_F [GeV^-2]
         3     1.18400000E-01   # alpha_S(M_Z)^MSbar
         4     9.11876000E+01   # M_Z pole mass
         5     4.18000000E+00   # mb(mb)^MSbar
         6     1.73200000E+02   # mt pole mass
         7     1.77700000E+00   # mtau pole mass
#
BLOCK MINPAR  # Input parameters - minimal models
         3     4.26400000E+01   # tanb                
#
BLOCK EXTPAR  # Input parameters - non-minimal models
         0    -1.00000000E+00   # Set                 
         1    -2.78668000E+03   # M_1(MX)             
         2    -3.61118000E+03   # M_2(MX)             
         3     3.39342000E+03   # M_3(MX)             
        11     3.21196000E+03   # At(MX)              
        12    -2.51509000E+03   # Ab(MX)              
        13     2.28137000E+03   # Atau(MX)            
        23     1.65690000E+02   # mu(MX)              
        26     2.73754000E+03   # mA(pole)            
        31     1.08816000E+03   # meL(MX)             
        32     1.08816000E+03   # mmuL(MX)            
        33     2.03446000E+03   # mtauL(MX)           
        34     5.88670000E+02   # meR(MX)             
        35     5.88670000E+02   # mmuR(MX)            
        36     3.76591000E+03   # mtauR(MX)           
        41     1.08440000E+03   # mqL1(MX)            
        42     1.08440000E+03   # mqL2(MX)            
        43     1.89629000E+03   # mqL3(MX)            
        44     1.71041000E+03   # muR(MX)             
        45     1.71041000E+03   # mcR(MX)             
        46     3.46143000E+03   # mtR(MX)             
        47     2.52668000E+03   # mdR(MX)             
        48     2.52668000E+03   # msR(MX)             
        49     1.80295000E+03   # mbR(MX)             
#
BLOCK MASS  # Mass Spectrum
# PDG code           mass       particle
        24     8.03952298E+01   # W+
        25     1.24969992E+02   # h
        35     2.73754437E+03   # H
        36     2.73754003E+03   # A
        37     2.73910787E+03   # H+
         5     4.81876030E+00   # b-quark pole mass calculated from mb(mb)_Msbar
   1000001     1.22722465E+03   # ~d_L
   2000001     2.62434325E+03   # ~d_R
   1000002     1.22469690E+03   # ~u_L
   2000002     1.81690267E+03   # ~u_R
   1000003     1.22722465E+03   # ~s_L
   2000003     2.62434325E+03   # ~s_R
   1000004     1.22469690E+03   # ~c_L
   2000004     1.81690267E+03   # ~c_R
   1000005     1.88623421E+03   # ~b_1
   2000005     1.98757259E+03   # ~b_2
   1000006     1.98486646E+03   # ~t_1
   2000006     3.49752749E+03   # ~t_2
   1000011     1.11382045E+03   # ~e_L
   2000011     6.19864773E+02   # ~e_R
   1000012     1.11069596E+03   # ~nu_eL
   1000013     1.11382045E+03   # ~mu_L
   2000013     6.19864773E+02   # ~mu_R
   1000014     1.11069596E+03   # ~nu_muL
   1000015     2.05218899E+03   # ~tau_1
   2000015     3.76319737E+03   # ~tau_2
   1000016     2.05033706E+03   # ~nu_tauL
   1000021     3.38624727E+03   # ~g
   1000022    -1.73689707E+02   # ~chi_10
   1000023     1.76312151E+02   # ~chi_20
   1000025    -2.74575446E+03   # ~chi_30
   1000035    -3.55491043E+03   # ~chi_40
   1000024     1.75288495E+02   # ~chi_1+
   1000037     3.55507532E+03   # ~chi_2+
#
BLOCK NMIX  # Neutralino Mixing Matrix
  1  1     1.17677619E-02   # N_11
  1  2    -1.61576272E-02   # N_12
  1  3     7.09720215E-01   # N_13
  1  4     7.04200019E-01   # N_14
  2  1     1.09290131E-02   # N_21
  2  2    -1.54895516E-02   # N_22
  2  3    -7.04483131E-01   # N_23
  2  4     7.09467511E-01   # N_24
  3  1     9.99869784E-01   # N_31
  3  2     1.93784593E-03   # N_32
  3  3    -6.51719261E-04   # N_33
  3  4    -1.60073557E-02   # N_34
  4  1    -1.57856742E-03   # N_41
  4  2     9.99747593E-01   # N_42
  4  3     5.56670308E-04   # N_43
  4  4     2.24042098E-02   # N_44
#
BLOCK UMIX  # Chargino Mixing Matrix U
  1  1    -7.88280802E-04   # U_11
  1  2     9.99999689E-01   # U_12
  2  1    -9.99999689E-01   # U_21
  2  2    -7.88280802E-04   # U_22
#
BLOCK VMIX  # Chargino Mixing Matrix V
  1  1     3.16680270E-02   # V_11
  1  2     9.99498442E-01   # V_12
  2  1     9.99498442E-01   # V_21
  2  2    -3.16680270E-02   # V_22
#
BLOCK STOPMIX  # Stop Mixing Matrix
  1  1     9.98499470E-01   # cos(theta_t)
  1  2    -5.47613770E-02   # sin(theta_t)
  2  1     5.47613770E-02   # -sin(theta_t)
  2  2     9.98499470E-01   # cos(theta_t)
#
BLOCK SBOTMIX  # Sbottom Mixing Matrix
  1  1     5.56251020E-02   # cos(theta_b)
  1  2     9.98451725E-01   # sin(theta_b)
  2  1    -9.98451725E-01   # -sin(theta_b)
  2  2     5.56251020E-02   # cos(theta_b)
#
BLOCK STAUMIX  # Stau Mixing Matrix
  1  1     9.99999661E-01   # cos(theta_tau)
  1  2     8.23407484E-04   # sin(theta_tau)
  2  1    -8.23407484E-04   # -sin(theta_tau)
  2  2     9.99999661E-01   # cos(theta_tau)
#
BLOCK ALPHA  # Higgs mixing
          -2.40889643E-02   # Mixing angle in the neutral Higgs boson sector
#
BLOCK HMIX Q=  2.56308100E+03  # DRbar Higgs Parameters
         1     1.69127191E+02   # mu(Q)MSSM           
         2     4.16396789E+01   # tan                 
         3     2.43477913E+02   # higgs               
         4     7.30344234E+06   # mA^2(Q)MSSM         
#
BLOCK GAUGE Q=  2.56308100E+03  # The gauge couplings
     1     3.65030124E-01   # gprime(Q) DRbar
     2     6.38159632E-01   # g(Q) DRbar
     3     1.01391114E+00   # g3(Q) DRbar
#
BLOCK AU Q=  2.56308100E+03  # The trilinear couplings
  1  1     0.00000000E+00   # A_u(Q) DRbar
  2  2     0.00000000E+00   # A_c(Q) DRbar
  3  3     3.21196002E+03   # A_t(Q) DRbar
#
BLOCK AD Q=  2.56308100E+03  # The trilinear couplings
  1  1     0.00000000E+00   # A_d(Q) DRbar
  2  2     0.00000000E+00   # A_s(Q) DRbar
  3  3    -2.51508999E+03   # A_b(Q) DRbar
#
BLOCK AE Q=  2.56308100E+03  # The trilinear couplings
  1  1     0.00000000E+00   # A_e(Q) DRbar
  2  2     0.00000000E+00   # A_mu(Q) DRbar
  3  3     2.28137000E+03   # A_tau(Q) DRbar
#
BLOCK Yu Q=  2.56308100E+03  # The Yukawa couplings
  1  1     0.00000000E+00   # y_u(Q) DRbar
  2  2     0.00000000E+00   # y_c(Q) DRbar
  3  3     8.33998422E-01   # y_t(Q) DRbar
#
BLOCK Yd Q=  2.56308100E+03  # The Yukawa couplings
  1  1     0.00000000E+00   # y_d(Q) DRbar
  2  2     0.00000000E+00   # y_s(Q) DRbar
  3  3     5.30862344E-01   # y_b(Q) DRbar
#
BLOCK Ye Q=  2.56308100E+03  # The Yukawa couplings
  1  1     0.00000000E+00   # y_e(Q) DRbar
  2  2     0.00000000E+00   # y_mu(Q) DRbar
  3  3     4.20064191E-01   # y_tau(Q) DRbar
#
BLOCK MSOFT Q=  2.56308100E+03  # The soft SUSY breaking masses at the scale Q
         1    -2.78668000E+03   # M_1(Q)              
         2    -3.61118000E+03   # M_2(Q)              
         3     3.39342000E+03   # M_3(Q)              
        21     7.54977879E+06   # mH1^2(Q)            
        22     4.97610471E+04   # mH2^2(Q)            
        31     1.08816000E+03   # meL(Q)              
        32     1.08816000E+03   # mmuL(Q)             
        33     2.03446000E+03   # mtauL(Q)            
        34     5.88670000E+02   # meR(Q)              
        35     5.88670000E+02   # mmuR(Q)             
        36     3.76591000E+03   # mtauR(Q)            
        41     1.08439998E+03   # mqL1(Q)             
        42     1.08439998E+03   # mqL2(Q)             
        43     1.89628998E+03   # mqL3(Q)             
        44     1.71040998E+03   # muR(Q)              
        45     1.71040998E+03   # mcR(Q)              
        46     3.46142999E+03   # mtR(Q)              
        47     2.52667999E+03   # mdR(Q)              
        48     2.52667999E+03   # msR(Q)              
        49     1.80294998E+03   # mbR(Q)              
#
Block HiggsBoundsInputHiggsCouplingsFermions
# ScalarNormEffCoupSq PseudoSNormEffCoupSq NP   IP1 IP2 IP2
    1.00650839E+00    0.00000000E+00        3  25   5   5  # h0-b-b eff. coupling^2, normalised to SM
    1.73385635E+03    0.00000000E+00        3  35   5   5  # H0-b-b eff. coupling^2, normalised to SM
    0.00000000E+00    1.73386286E+03        3  36   5   5  # A0-b-b eff. coupling^2, normalised to SM
#
    9.99996246E-01    0.00000000E+00        3  25   6   6  # h0-t-t eff. coupling^2, normalised to SM
    5.80500578E-04    0.00000000E+00        3  35   6   6  # H0-t-t eff. coupling^2, normalised to SM
    0.00000000E+00    5.76746883E-04        3  36   6   6  # A0-t-t eff. coupling^2, normalised to SM
#
    1.00650839E+00    0.00000000E+00        3  25  15  15  # h0-tau-tau eff. coupling^2, normalised to SM
    1.73385635E+03    0.00000000E+00        3  35  15  15  # H0-tau-tau eff. coupling^2, normalised to SM
    0.00000000E+00    1.73386286E+03        3  36  15  15  # A0-tau-tau eff. coupling^2, normalised to SM
#
Block HiggsBoundsInputHiggsCouplingsBosons
    9.99999994E-01        3  25  24  24  # h0-W-W eff. coupling^2, normalised to SM
    6.08784440E-09        3  35  24  24  # H0-W-W eff. coupling^2, normalised to SM
    0.00000000E+00        3  36  24  24  # A0-W-W eff. coupling^2, normalised to SM
#
    9.99999994E-01        3  25  23  23  # h0-Z-Z eff. coupling^2, normalised to SM
    6.08784440E-09        3  35  23  23  # H0-Z-Z eff. coupling^2, normalised to SM
    0.00000000E+00        3  36  23  23  # A0-Z-Z eff. coupling^2, normalised to SM
#
    8.91592859E-01        3  25  21  21  # h0-g-g eff. coupling^2, normalised to SM
    3.56754244E-12        3  35  21  21  # H0-g-g eff. coupling^2, normalised to SM
    1.22571778E-11        3  36  21  21  # A0-g-g eff. coupling^2, normalised to SM
#
    0.00000000E+00        3  25  25  23  # h0-h0-Z eff. coupling^2, normalised to SM
    0.00000000E+00        3  35  25  23  # H0-h0-Z eff. coupling^2, normalised to SM
    6.08784440E-09        3  36  25  23  # A0-h0-Z eff. coupling^2, normalised to SM
    0.00000000E+00        3  35  35  23  # H0-H0-Z eff. coupling^2, normalised to SM
    9.99999994E-01        3  36  35  23  # A0-H0-Z eff. coupling^2, normalised to SM
    0.00000000E+00        3  36  36  23  # A0-A0-Z eff. coupling^2, normalised to SM
#
    0.00000000E+00        4  25  21  21  23  # h0-g-g-Z eff. coupling^2, normalised to SM
    0.00000000E+00        4  35  21  21  23  # H0-g-g-Z eff. coupling^2, normalised to SM
    0.00000000E+00        4  36  21  21  23  # A0-g-g-Z eff. coupling^2, normalised to SM
#
#
#
#                             =================
#                             |The decay table|
#                             =================
#
# - The QCD corrections to the decays gluino -> squark  + quark
#                                     squark -> gaugino + quark_prime
#                                     squark -> squark_prime + Higgs
#                                     squark -> gluino  + quark
#   are included.
#
# - The multi-body decays for the inos, stops and sbottoms are included.
#
# - The loop induced decays for the gluino, neutralinos and stops
#   are included.
#
# - The SUSY decays of the top quark are included.
#
#
#         PDG            Width
DECAY         6     1.43402893E+00   # top decays
#          BR         NDA      ID1       ID2
     1.00000000E+00    2           5        24   # BR(t ->  b    W+)
#
#         PDG            Width
DECAY   1000021     3.89384020E+02   # gluino decays
#          BR         NDA      ID1       ID2
     6.62388036E-02    2     1000001        -1   # BR(~g -> ~d_L  db)
     6.62388036E-02    2    -1000001         1   # BR(~g -> ~d_L* d )
     1.40015832E-02    2     2000001        -1   # BR(~g -> ~d_R  db)
     1.40015832E-02    2    -2000001         1   # BR(~g -> ~d_R* d )
     6.63212616E-02    2     1000002        -2   # BR(~g -> ~u_L  ub)
     6.63212616E-02    2    -1000002         2   # BR(~g -> ~u_L* u )
     4.45155402E-02    2     2000002        -2   # BR(~g -> ~u_R  ub)
     4.45155402E-02    2    -2000002         2   # BR(~g -> ~u_R* u )
     6.62388036E-02    2     1000003        -3   # BR(~g -> ~s_L  sb)
     6.62388036E-02    2    -1000003         3   # BR(~g -> ~s_L* s )
     1.40015832E-02    2     2000003        -3   # BR(~g -> ~s_R  sb)
     1.40015832E-02    2    -2000003         3   # BR(~g -> ~s_R* s )
     6.63212564E-02    2     1000004        -4   # BR(~g -> ~c_L  cb)
     6.63212564E-02    2    -1000004         4   # BR(~g -> ~c_L* c )
     4.45155288E-02    2     2000004        -4   # BR(~g -> ~c_R  cb)
     4.45155288E-02    2    -2000004         4   # BR(~g -> ~c_R* c )
     4.17737631E-02    2     1000005        -5   # BR(~g -> ~b_1  bb)
     4.17737631E-02    2    -1000005         5   # BR(~g -> ~b_1* b )
     3.77737623E-02    2     2000005        -5   # BR(~g -> ~b_2  bb)
     3.77737623E-02    2    -2000005         5   # BR(~g -> ~b_2* b )
     3.82981140E-02    2     1000006        -6   # BR(~g -> ~t_1  tb)
     3.82981140E-02    2    -1000006         6   # BR(~g -> ~t_1* t )
#
#         PDG            Width
DECAY   1000006     3.77513048E+01   # stop1 decays
#          BR         NDA      ID1       ID2
     3.49813691E-01    2     1000022         6   # BR(~t_1 -> ~chi_10 t )
     3.56299543E-01    2     1000023         6   # BR(~t_1 -> ~chi_20 t )
     2.93815932E-01    2     1000024         5   # BR(~t_1 -> ~chi_1+ b )
     7.08341104E-05    2     1000005        24   # BR(~t_1 -> ~b_1    W+)
#
#         PDG            Width
DECAY   2000006     1.48106489E+02   # stop2 decays
#          BR         NDA      ID1       ID2
     1.60229291E-01    2     1000022         6   # BR(~t_2 -> ~chi_10 t )
     1.62471621E-01    2     1000023         6   # BR(~t_2 -> ~chi_20 t )
     8.01059049E-03    2     1000025         6   # BR(~t_2 -> ~chi_30 t )
     3.23364593E-01    2     1000024         5   # BR(~t_2 -> ~chi_1+ b )
     9.16137940E-02    2     1000006        25   # BR(~t_2 -> ~t_1    h )
     8.64889425E-02    2     1000006        23   # BR(~t_2 -> ~t_1    Z )
     5.96682521E-04    2     1000005        24   # BR(~t_2 -> ~b_1    W+)
     1.67224486E-01    2     2000005        24   # BR(~t_2 -> ~b_2    W+)
#
#         PDG            Width
DECAY   1000005     2.06273190E+01   # sbottom1 decays
#          BR         NDA      ID1       ID2
     2.54669916E-01    2     1000022         5   # BR(~b_1 -> ~chi_10 b )
     2.49277413E-01    2     1000023         5   # BR(~b_1 -> ~chi_20 b )
     4.96052672E-01    2    -1000024         6   # BR(~b_1 -> ~chi_1- t )
#
#         PDG            Width
DECAY   2000005     3.75891355E+01   # sbottom2 decays
#          BR         NDA      ID1       ID2
     1.46669304E-01    2     1000022         5   # BR(~b_2 -> ~chi_10 b )
     1.45316595E-01    2     1000023         5   # BR(~b_2 -> ~chi_20 b )
     7.07997146E-01    2    -1000024         6   # BR(~b_2 -> ~chi_1- t )
     1.69547120E-05    2     1000005        23   # BR(~b_2 -> ~b_1    Z )
#
#         PDG            Width
DECAY   1000002     1.16647266E-02   # sup_L decays
#          BR         NDA      ID1       ID2
     8.14348013E-02    2     1000022         2   # BR(~u_L -> ~chi_10 u)
     7.55022186E-02    2     1000023         2   # BR(~u_L -> ~chi_20 u)
     8.43062980E-01    2     1000024         1   # BR(~u_L -> ~chi_1+ d)
#
#         PDG            Width
DECAY   2000002     4.09667689E-03   # sup_R decays
#           BR         NDA      ID1       ID2
     1.43459004E-01    2     1000022         2   # BR(~u_R -> ~chi_10 u)
     1.23670506E-01    2     1000023         2   # BR(~u_R -> ~chi_20 u)
#           BR         NDA      ID1       ID2       ID3
     1.10484671E-01    3        2       -1        1000001   # BR(~u_R -> u  db  ~d_L)
     2.26317580E-02    3        2       1        -1000001   # BR(~u_R -> u  d  ~d_L*)
     1.12640077E-01    3        2       -2        1000002   # BR(~u_R -> u  ub  ~u_L)
     2.30669888E-02    3        2       2        -1000002   # BR(~u_R -> u  u  ~u_L*)
     1.11400047E-01    3        2       -3        1000003   # BR(~u_R -> u  sb  ~s_L)
     2.26983974E-02    3        2       3        -1000003   # BR(~u_R -> u  s  ~s_L*)
     1.12393536E-01    3        2       -4        1000004   # BR(~u_R -> u  cb  ~c_L)
     2.28585272E-02    3        2       4        -1000004   # BR(~u_R -> u  c  ~c_L*)
     1.24947613E-03    3        2       -11        1000011   # BR(~u_R -> u  e+  ~e_L-)
     3.66809500E-04    3        2       11        -1000011   # BR(~u_R -> u  e-  ~e_L+)
     9.14619361E-03    3        2       -11        2000011   # BR(~u_R -> u  e+  ~e_R-)
     4.46386193E-02    3        2       11        -2000011   # BR(~u_R -> u  e-  ~e_R+)
     1.26407333E-03    3        2       -12        1000012   # BR(~u_R -> u  nu_eb  ~nu_eL)
     3.60853453E-04    3        2       12        -1000012   # BR(~u_R -> u  nu_e  ~nu_eL*)
     1.26629464E-03    3        2       -13        1000013   # BR(~u_R -> u  mu+  ~mu_L-)
     3.61707804E-04    3        2       13        -1000013   # BR(~u_R -> u  mu-  ~mu_L+)
     9.26116485E-03    3        2       -13        2000013   # BR(~u_R -> u  mu+  ~mu_R-)
     4.44018420E-02    3        2       13        -2000013   # BR(~u_R -> u  mu-  ~mu_R+)
     1.24784066E-03    3        2       -14        1000014   # BR(~u_R -> u  nu_mub  ~nu_muL)
     3.66394529E-04    3        2       14        -1000014   # BR(~u_R -> u  nu_mu  ~nu_muL*)
     9.29924449E-03    3        2       23        1000022   # BR(~u_R -> u  Z  ~chi_10)
     1.05580697E-02    3        2       25        1000022   # BR(~u_R -> u  h  ~chi_10)
     1.25269826E-02    3        2       23        1000023   # BR(~u_R -> u  Z  ~chi_20)
     7.66718998E-03    3        2       25        1000023   # BR(~u_R -> u  h  ~chi_20)
     4.77484569E-03    3        2       -24        1000024   # BR(~u_R -> u  W-  ~chi_1+)
     3.59388851E-02    3        2       24        -1000024   # BR(~u_R -> u  W+  ~chi_1-)
#
#         PDG            Width
DECAY   1000001     3.18776589E-03   # sdown_L decays
#          BR         NDA      ID1       ID2
     5.22307258E-01    2     1000022         1   # BR(~d_L -> ~chi_10 d)
     4.75777188E-01    2     1000023         1   # BR(~d_L -> ~chi_20 d)
     1.91555395E-03    2    -1000024         2   # BR(~d_L -> ~chi_1- u)
#
#         PDG            Width
DECAY   2000001     1.11352877E-01   # sdown_R decays
#           BR         NDA      ID1       ID2
     1.88280282E-03    2     1000022         1   # BR(~d_R -> ~chi_10 d)
     1.62356575E-03    2     1000023         1   # BR(~d_R -> ~chi_20 d)
#           BR         NDA      ID1       ID2       ID3
     1.65572731E-01    3        1       -1        1000001   # BR(~d_R -> d  db  ~d_L)
     5.69558700E-02    3        1       1        -1000001   # BR(~d_R -> d  d  ~d_L*)
     1.63372518E-01    3        1       -2        1000002   # BR(~d_R -> d  ub  ~u_L)
     5.70528589E-02    3        1       2        -1000002   # BR(~d_R -> d  u  ~u_L*)
     7.85386082E-03    3        1       -2        2000002   # BR(~d_R -> d  ub  ~u_R)
     1.77292231E-02    3        1       2        -2000002   # BR(~d_R -> d  u  ~u_R*)
     1.65680496E-01    3        1       -3        1000003   # BR(~d_R -> d  sb  ~s_L)
     5.71148241E-02    3        1       3        -1000003   # BR(~d_R -> d  s  ~s_L*)
     1.66928780E-01    3        1       -4        1000004   # BR(~d_R -> d  cb  ~c_L)
     5.78350569E-02    3        1       4        -1000004   # BR(~d_R -> d  c  ~c_L*)
     8.01380280E-03    3        1       -4        2000004   # BR(~d_R -> d  cb  ~c_R)
     1.77013836E-02    3        1       4        -2000004   # BR(~d_R -> d  c  ~c_R*)
     5.36070566E-03    3        1       -5        1000005   # BR(~d_R -> d  bb  ~b_1)
     1.17042328E-02    3        1       5        -1000005   # BR(~d_R -> d  b  ~b_1*)
     6.17855610E-03    3        1       -5        2000005   # BR(~d_R -> d  bb  ~b_2)
     2.94720718E-03    3        1       5        -2000005   # BR(~d_R -> d  b  ~b_2*)
     4.90710266E-03    3        1       -6        1000006   # BR(~d_R -> d  tb  ~t_1)
     2.47429619E-03    3        1       6        -1000006   # BR(~d_R -> d  t  ~t_1*)
     5.07413920E-04    3        1       -11        1000011   # BR(~d_R -> d  e+  ~e_L-)
     2.80809987E-04    3        1       11        -1000011   # BR(~d_R -> d  e-  ~e_L+)
     2.10942012E-03    3        1       -11        2000011   # BR(~d_R -> d  e+  ~e_R-)
     4.43356303E-03    3        1       11        -2000011   # BR(~d_R -> d  e-  ~e_R+)
     5.01747250E-04    3        1       -12        1000012   # BR(~d_R -> d  nu_eb  ~nu_eL)
     2.81267990E-04    3        1       12        -1000012   # BR(~d_R -> d  nu_e  ~nu_eL*)
     5.05725594E-04    3        1       -13        1000013   # BR(~d_R -> d  mu+  ~mu_L-)
     2.85650454E-04    3        1       13        -1000013   # BR(~d_R -> d  mu-  ~mu_L+)
     2.02383634E-03    3        1       -13        2000013   # BR(~d_R -> d  mu+  ~mu_R-)
     4.45763066E-03    3        1       13        -2000013   # BR(~d_R -> d  mu-  ~mu_R+)
     5.07234311E-04    3        1       -14        1000014   # BR(~d_R -> d  nu_mub  ~nu_muL)
     2.82013368E-04    3        1       14        -1000014   # BR(~d_R -> d  nu_mu  ~nu_muL*)
     1.83030744E-05    3        1       -15        1000015   # BR(~d_R -> d  tau+  ~tau_1-)
     1.36934046E-05    3        1       15        -1000015   # BR(~d_R -> d  tau-  ~tau_1+)
     1.84988484E-05    3        1       -16        1000016   # BR(~d_R -> d  nu_taub  ~nu_tau1)
     1.39313868E-05    3        1       16        -1000016   # BR(~d_R -> d  nu_tau  ~nu_tau1*)
     5.27233794E-04    3        1       23        1000022   # BR(~d_R -> d  Z  ~chi_10)
     6.52187907E-04    3        1       25        1000022   # BR(~d_R -> d  h  ~chi_10)
     6.93031037E-04    3        1       23        1000023   # BR(~d_R -> d  Z  ~chi_20)
     5.00319357E-04    3        1       25        1000023   # BR(~d_R -> d  h  ~chi_20)
     6.85882591E-04    3        1       -24        1000024   # BR(~d_R -> d  W-  ~chi_1+)
     1.81073004E-03    3        1       24        -1000024   # BR(~d_R -> d  W+  ~chi_1-)
#
#         PDG            Width
DECAY   1000004     1.13245477E-02   # scharm_L decays
#          BR         NDA      ID1       ID2
     8.14354608E-02    2     1000022         4   # BR(~c_L -> ~chi_10 c)
     7.55014343E-02    2     1000023         4   # BR(~c_L -> ~chi_20 c)
     8.43063105E-01    2     1000024         3   # BR(~c_L -> ~chi_1+ s)
#
#         PDG            Width
DECAY   2000004     4.08974344E-03   # scharm_R decays
#           BR         NDA      ID1       ID2
     1.42325841E-01    2     1000022         4   # BR(~c_R -> ~chi_10 c)
     1.22691405E-01    2     1000023         4   # BR(~c_R -> ~chi_20 c)
#           BR         NDA      ID1       ID2       ID3
     1.10657308E-01    3        4       -1        1000001   # BR(~c_R -> c  db  ~d_L)
     2.27043582E-02    3        4       1        -1000001   # BR(~c_R -> c  d  ~d_L*)
     1.13351854E-01    3        4       -2        1000002   # BR(~c_R -> c  ub  ~u_L)
     2.31762704E-02    3        4       2        -1000002   # BR(~c_R -> c  u  ~u_L*)
     1.10965396E-01    3        4       -3        1000003   # BR(~c_R -> c  sb  ~s_L)
     2.25835682E-02    3        4       3        -1000003   # BR(~c_R -> c  s  ~s_L*)
     1.12941070E-01    3        4       -4        1000004   # BR(~c_R -> c  cb  ~c_L)
     2.31496184E-02    3        4       4        -1000004   # BR(~c_R -> c  c  ~c_L*)
     1.25205898E-03    3        4       -11        1000011   # BR(~c_R -> c  e+  ~e_L-)
     3.71490296E-04    3        4       11        -1000011   # BR(~c_R -> c  e-  ~e_L+)
     9.14067118E-03    3        4       -11        2000011   # BR(~c_R -> c  e+  ~e_R-)
     4.48585596E-02    3        4       11        -2000011   # BR(~c_R -> c  e-  ~e_R+)
     1.26597183E-03    3        4       -12        1000012   # BR(~c_R -> c  nu_eb  ~nu_eL)
     3.62247662E-04    3        4       12        -1000012   # BR(~c_R -> c  nu_e  ~nu_eL*)
     1.28076494E-03    3        4       -13        1000013   # BR(~c_R -> c  mu+  ~mu_L-)
     3.62321016E-04    3        4       13        -1000013   # BR(~c_R -> c  mu-  ~mu_L+)
     9.16218842E-03    3        4       -13        2000013   # BR(~c_R -> c  mu+  ~mu_R-)
     4.49123527E-02    3        4       13        -2000013   # BR(~c_R -> c  mu-  ~mu_R+)
     1.25259691E-03    3        4       -14        1000014   # BR(~c_R -> c  nu_mub  ~nu_muL)
     3.66868979E-04    3        4       14        -1000014   # BR(~c_R -> c  nu_mu  ~nu_muL*)
     9.25388122E-03    3        4       23        1000022   # BR(~c_R -> c  Z  ~chi_10)
     1.06375866E-02    3        4       25        1000022   # BR(~c_R -> c  h  ~chi_10)
     1.25646023E-02    3        4       23        1000023   # BR(~c_R -> c  Z  ~chi_20)
     7.68018837E-03    3        4       25        1000023   # BR(~c_R -> c  h  ~chi_20)
     4.80005660E-03    3        4       -24        1000024   # BR(~c_R -> c  W-  ~chi_1+)
     3.59289041E-02    3        4       24        -1000024   # BR(~c_R -> c  W+  ~chi_1-)
#
#         PDG            Width
DECAY   1000003     3.09512233E-03   # sstrange_L decays
#          BR         NDA      ID1       ID2
     5.22311865E-01    2     1000022         3   # BR(~s_L -> ~chi_10 s)
     4.75772589E-01    2     1000023         3   # BR(~s_L -> ~chi_20 s)
     1.91554576E-03    2    -1000024         4   # BR(~s_L -> ~chi_1- c)
#
#         PDG            Width
DECAY   2000003     1.11339640E-01   # sstrange_R decays
#           BR         NDA      ID1       ID2
     1.90598969E-03    2     1000022         3   # BR(~s_R -> ~chi_10 s)
     1.64353297E-03    2     1000023         3   # BR(~s_R -> ~chi_20 s)
#           BR         NDA      ID1       ID2       ID3
     1.65592416E-01    3        3       -1        1000001   # BR(~s_R -> s  db  ~d_L)
     5.74952459E-02    3        3       1        -1000001   # BR(~s_R -> s  d  ~d_L*)
     1.63679350E-01    3        3       -2        1000002   # BR(~s_R -> s  ub  ~u_L)
     5.69204282E-02    3        3       2        -1000002   # BR(~s_R -> s  u  ~u_L*)
     7.85470474E-03    3        3       -2        2000002   # BR(~s_R -> s  ub  ~u_R)
     1.76684602E-02    3        3       2        -2000002   # BR(~s_R -> s  u  ~u_R*)
     1.65691213E-01    3        3       -3        1000003   # BR(~s_R -> s  sb  ~s_L)
     5.69581506E-02    3        3       3        -1000003   # BR(~s_R -> s  s  ~s_L*)
     1.66948626E-01    3        3       -4        1000004   # BR(~s_R -> s  cb  ~c_L)
     5.71395775E-02    3        3       4        -1000004   # BR(~s_R -> s  c  ~c_L*)
     8.01188146E-03    3        3       -4        2000004   # BR(~s_R -> s  cb  ~c_R)
     1.78130628E-02    3        3       4        -2000004   # BR(~s_R -> s  c  ~c_R*)
     5.36421708E-03    3        3       -5        1000005   # BR(~s_R -> s  bb  ~b_1)
     1.17056243E-02    3        3       5        -1000005   # BR(~s_R -> s  b  ~b_1*)
     6.17929067E-03    3        3       -5        2000005   # BR(~s_R -> s  bb  ~b_2)
     2.93956401E-03    3        3       5        -2000005   # BR(~s_R -> s  b  ~b_2*)
     4.90768606E-03    3        3       -6        1000006   # BR(~s_R -> s  tb  ~t_1)
     2.47566814E-03    3        3       6        -1000006   # BR(~s_R -> s  t  ~t_1*)
     5.06926373E-04    3        3       -11        1000011   # BR(~s_R -> s  e+  ~e_L-)
     2.80843372E-04    3        3       11        -1000011   # BR(~s_R -> s  e-  ~e_L+)
     2.10850331E-03    3        3       -11        2000011   # BR(~s_R -> s  e+  ~e_R-)
     4.43202438E-03    3        3       11        -2000011   # BR(~s_R -> s  e-  ~e_R+)
     5.02103293E-04    3        3       -12        1000012   # BR(~s_R -> s  nu_eb  ~nu_eL)
     2.81301430E-04    3        3       12        -1000012   # BR(~s_R -> s  nu_e  ~nu_eL*)
     5.05785719E-04    3        3       -13        1000013   # BR(~s_R -> s  mu+  ~mu_L-)
     2.85693397E-04    3        3       13        -1000013   # BR(~s_R -> s  mu-  ~mu_L+)
     2.02371769E-03    3        3       -13        2000013   # BR(~s_R -> s  mu+  ~mu_R-)
     4.45573561E-03    3        3       13        -2000013   # BR(~s_R -> s  mu-  ~mu_R+)
     5.07294615E-04    3        3       -14        1000014   # BR(~s_R -> s  nu_mub  ~nu_muL)
     2.81957081E-04    3        3       14        -1000014   # BR(~s_R -> s  nu_mu  ~nu_muL*)
     1.82926763E-05    3        3       -15        1000015   # BR(~s_R -> s  tau+  ~tau_1-)
     1.36393471E-05    3        3       15        -1000015   # BR(~s_R -> s  tau-  ~tau_1+)
     1.85010477E-05    3        3       -16        1000016   # BR(~s_R -> s  nu_taub  ~nu_tau1)
     1.39258578E-05    3        3       16        -1000016   # BR(~s_R -> s  nu_tau  ~nu_tau1*)
     5.27377310E-04    3        3       23        1000022   # BR(~s_R -> s  Z  ~chi_10)
     6.52247482E-04    3        3       25        1000022   # BR(~s_R -> s  h  ~chi_10)
     6.92511668E-04    3        3       23        1000023   # BR(~s_R -> s  Z  ~chi_20)
     5.00378840E-04    3        3       25        1000023   # BR(~s_R -> s  h  ~chi_20)
     6.85604874E-04    3        3       -24        1000024   # BR(~s_R -> s  W-  ~chi_1+)
     1.81094532E-03    3        3       24        -1000024   # BR(~s_R -> s  W+  ~chi_1-)
#
#         PDG            Width
DECAY   1000011     7.53014269E-04   # selectron_L decays
#          BR         NDA      ID1       ID2
     5.06851845E-01    2     1000022        11   # BR(~e_L -> ~chi_10 e-)
     4.86065773E-01    2     1000023        11   # BR(~e_L -> ~chi_20 e-)
     7.08238131E-03    2    -1000024        12   # BR(~e_L -> ~chi_1- nu_e)
#
#         PDG            Width
DECAY   2000011     7.25471801E-04   # selectron_R decays
#           BR         NDA      ID1       ID2
     5.32669685E-01    2     1000022        11   # BR(~e_R -> ~chi_10 e-)
     4.57064525E-01    2     1000023        11   # BR(~e_R -> ~chi_20 e-)
#           BR         NDA      ID1       ID2       ID3
     8.28109375E-04    3        11       23        1000022   # BR(~e_R- -> e-  Z  ~chi_10)
     1.24011712E-03    3        11       25        1000022   # BR(~e_R- -> e-  h  ~chi_10)
     1.13302819E-03    3        11       23        1000023   # BR(~e_R- -> e-  Z  ~chi_20)
     9.00352018E-04    3        11       25        1000023   # BR(~e_R- -> e-  h  ~chi_20)
     9.94401159E-05    3        11       -24        1000024   # BR(~e_R- -> e-  W-  ~chi_1+)
     6.06474296E-03    3        11       24        -1000024   # BR(~e_R- -> e-  W+  ~chi_1-)
#
#         PDG            Width
DECAY   1000013     7.53014255E-04   # smuon_L decays
#          BR         NDA      ID1       ID2
     5.06851845E-01    2     1000022        13   # BR(~mu_L -> ~chi_10 mu-)
     4.86065773E-01    2     1000023        13   # BR(~mu_L -> ~chi_20 mu-)
     7.08238144E-03    2    -1000024        14   # BR(~mu_L -> ~chi_1- nu_mu)
#
#         PDG            Width
DECAY   2000013     7.25470819E-04   # smuon_R decays
#           BR         NDA      ID1       ID2
     5.32670371E-01    2     1000022        13   # BR(~mu_R -> ~chi_10 mu-)
     4.57065112E-01    2     1000023        13   # BR(~mu_R -> ~chi_20 mu-)
#           BR         NDA      ID1       ID2       ID3
     8.28041576E-04    3        13       23        1000022   # BR(~mu_R- -> mu-  Z  ~chi_10)
     1.24011880E-03    3        13       25        1000022   # BR(~mu_R- -> mu-  h  ~chi_10)
     1.13302972E-03    3        13       23        1000023   # BR(~mu_R- -> mu-  Z  ~chi_20)
     8.98961037E-04    3        13       25        1000023   # BR(~mu_R- -> mu-  h  ~chi_20)
     9.96153093E-05    3        13       -24        1000024   # BR(~mu_R- -> mu-  W-  ~chi_1+)
     6.06475117E-03    3        13       24        -1000024   # BR(~mu_R- -> mu-  W+  ~chi_1-)
#
#         PDG            Width
DECAY   1000015     7.10117917E+00   # stau_1 decays
#          BR         NDA      ID1       ID2
     5.03840168E-01    2     1000022        15   # BR(~tau_1 -> ~chi_10  tau-)
     4.96155749E-01    2     1000023        15   # BR(~tau_1 -> ~chi_20  tau-)
     4.08322480E-06    2    -1000024        16   # BR(~tau_1 -> ~chi_1-  nu_tau)
#
#         PDG            Width
DECAY   2000015     3.06897095E+01   # stau_2 decays
#          BR         NDA      ID1       ID2
     2.15975158E-01    2     1000022        15   # BR(~tau_2 -> ~chi_10  tau-)
     2.12784634E-01    2     1000023        15   # BR(~tau_2 -> ~chi_20  tau-)
     1.42128752E-01    2     1000025        15   # BR(~tau_2 -> ~chi_30  tau-)
     2.88871774E-08    2     1000035        15   # BR(~tau_2 -> ~chi_40  tau-)
     4.28585693E-01    2    -1000024        16   # BR(~tau_2 -> ~chi_1-  nu_tau)
     2.07047253E-08    2    -1000037        16   # BR(~tau_2 -> ~chi_2-  nu_tau)
     2.55616787E-04    2     1000016       -24   # BR(~tau_2 -> ~nu_tauL W-)
     1.38684014E-04    2     1000015        25   # BR(~tau_2 -> ~tau_1   h)
     1.31411868E-04    2     1000015        23   # BR(~tau_2 -> ~tau_1   Z)
#
#         PDG            Width
DECAY   1000012     1.28448634E-02   # snu_eL decays
#          BR         NDA      ID1       ID2
     1.74649419E-01    2     1000022        12   # BR(~nu_eL -> ~chi_10 nu_e)
     1.57331528E-01    2     1000023        12   # BR(~nu_eL -> ~chi_20 nu_e)
     6.68019053E-01    2     1000024        11   # BR(~nu_eL -> ~chi_1+ e-)
#
#         PDG            Width
DECAY   1000014     1.28448632E-02   # snu_muL decays
#          BR         NDA      ID1       ID2
     1.74649421E-01    2     1000022        14   # BR(~nu_muL -> ~chi_10 nu_mu)
     1.57331530E-01    2     1000023        14   # BR(~nu_muL -> ~chi_20 nu_mu)
     6.68019049E-01    2     1000024        13   # BR(~nu_muL -> ~chi_1+ mu-)
#
#         PDG            Width
DECAY   1000016     7.11741495E+00   # snu_tauL decays
#          BR         NDA      ID1       ID2
     6.02633987E-04    2     1000022        16   # BR(~nu_tauL -> ~chi_10 nu_tau)
     5.43467907E-04    2     1000023        16   # BR(~nu_tauL -> ~chi_20 nu_tau)
     9.98853898E-01    2     1000024        15   # BR(~nu_tauL -> ~chi_1+ tau-)
#
#         PDG            Width
DECAY   1000024     6.87421886E-12   # chargino1+ decays
#           BR         NDA      ID1       ID2       ID3
     5.99999542E-01    3     1000022         2        -1   # BR(~chi_1+ -> ~chi_10 u    db)
     2.00000229E-01    3     1000022       -11        12   # BR(~chi_1+ -> ~chi_10 e+   nu_e)
     2.00000229E-01    3     1000022       -13        14   # BR(~chi_1+ -> ~chi_10 mu+  nu_mu)
#
#         PDG            Width
DECAY   1000037     2.61754415E+02   # chargino2+ decays
#          BR         NDA      ID1       ID2
     1.22755839E-01    2     1000002        -1   # BR(~chi_2+ -> ~u_L     db)
     1.22743891E-01    2    -1000001         2   # BR(~chi_2+ -> ~d_L*    u )
     1.22755839E-01    2     1000004        -3   # BR(~chi_2+ -> ~c_L     sb)
     1.22743883E-01    2    -1000003         4   # BR(~chi_2+ -> ~s_L*     c )
     7.75267262E-02    2     1000006        -5   # BR(~chi_2+ -> ~t_1     bb)
     1.56526917E-06    2     2000006        -5   # BR(~chi_2+ -> ~t_2     bb)
     2.54342527E-04    2    -1000005         6   # BR(~chi_2+ -> ~b_1*    t )
     7.67428991E-02    2    -2000005         6   # BR(~chi_2+ -> ~b_2*    t )
     4.47575928E-02    2     1000012       -11   # BR(~chi_2+ -> ~nu_eL   e+  )
     4.47575928E-02    2     1000014       -13   # BR(~chi_2+ -> ~nu_muL mu+ )
     2.44805014E-02    2     1000016       -15   # BR(~chi_2+ -> ~nu_tau1 tau+)
     4.47479046E-02    2    -1000011        12   # BR(~chi_2+ -> ~e_L+    nu_e)
     4.47479046E-02    2    -1000013        14   # BR(~chi_2+ -> ~mu_L+   nu_mu)
     2.44608621E-02    2    -1000015        16   # BR(~chi_2+ -> ~tau_1+  nu_tau)
     2.76128882E-02    2     1000024        23   # BR(~chi_2+ -> ~chi_1+  Z )
     2.65528189E-02    2     1000022        24   # BR(~chi_2+ -> ~chi_10  W+)
     2.69552585E-02    2     1000023        24   # BR(~chi_2+ -> ~chi_20  W+)
     4.35052654E-05    2     1000025        24   # BR(~chi_2+ -> ~chi_30  W+)
     2.72836413E-02    2     1000024        25   # BR(~chi_2+ -> ~chi_1+  h )
     4.52401093E-03    2     1000024        35   # BR(~chi_2+ -> ~chi_1+  H )
     4.52401472E-03    2     1000024        36   # BR(~chi_2+ -> ~chi_1+  A )
     4.54720493E-03    2     1000022        37   # BR(~chi_2+ -> ~chi_10  H+)
     4.47931365E-03    2     1000023        37   # BR(~chi_2+ -> ~chi_20  H+)
#
#         PDG            Width
DECAY   1000022     0.00000000E+00   # neutralino1 decays
#
#         PDG            Width
DECAY   1000023     1.18827066E-10   # neutralino2 decays
#          BR         NDA      ID1       ID2
     2.61280436E-01    2     1000022        22   # BR(~chi_20 -> ~chi_10 gam)
#           BR         NDA      ID1       ID2       ID3
     1.21375245E-01    3     1000022        -2         2   # BR(~chi_20 -> ~chi_10 ub      u)
     1.57576057E-01    3     1000022        -1         1   # BR(~chi_20 -> ~chi_10 db      d)
     1.57576057E-01    3     1000022        -3         3   # BR(~chi_20 -> ~chi_10 sb      s)
     3.62152871E-02    3     1000022       -11        11   # BR(~chi_20 -> ~chi_10 e+      e-)
     3.62152871E-02    3     1000022       -13        13   # BR(~chi_20 -> ~chi_10 mu+     mu-)
     7.24174731E-02    3     1000022       -12        12   # BR(~chi_20 -> ~chi_10 nu_eb   nu_e)
     7.24174731E-02    3     1000022       -14        14   # BR(~chi_20 -> ~chi_10 nu_mub  nu_mu)
     7.24172059E-02    3     1000022       -16        16   # BR(~chi_20 -> ~chi_10 nu_taub nu_tau)
     3.75284086E-03    3     1000024        -2         1   # BR(~chi_20 -> ~chi_1+ ub      d)
     3.75284086E-03    3    -1000024        -1         2   # BR(~chi_20 -> ~chi_1- db      u)
     1.25094930E-03    3     1000024       -12        11   # BR(~chi_20 -> ~chi_1+ nu_eb   e-)
     1.25094930E-03    3    -1000024        12       -11   # BR(~chi_20 -> ~chi_1- nu_e    e+)
     1.25094930E-03    3     1000024       -14        13   # BR(~chi_20 -> ~chi_1+ nu_mub  mu-)
     1.25094930E-03    3    -1000024        14       -13   # BR(~chi_20 -> ~chi_1- nu_mu   mu+)
#
#         PDG            Width
DECAY   1000025     6.18777758E+01   # neutralino3 decays
#          BR         NDA      ID1       ID2
     1.24921316E-02    2     1000022        23   # BR(~chi_30 -> ~chi_10   Z )
     1.49072556E-02    2     1000023        23   # BR(~chi_30 -> ~chi_20   Z )
     2.68413606E-02    2     1000024       -24   # BR(~chi_30 -> ~chi_1+   W-)
     2.68413606E-02    2    -1000024        24   # BR(~chi_30 -> ~chi_1-   W+)
     1.54240042E-02    2     1000022        25   # BR(~chi_30 -> ~chi_10   h )
     1.33484890E-02    2     1000023        25   # BR(~chi_30 -> ~chi_20   h )
     6.35264525E-03    2     1000002        -2   # BR(~chi_30 -> ~u_L      ub)
     6.35264525E-03    2    -1000002         2   # BR(~chi_30 -> ~u_L*     u )
     4.93894938E-02    2     2000002        -2   # BR(~chi_30 -> ~u_R      ub)
     4.93894938E-02    2    -2000002         2   # BR(~chi_30 -> ~u_R*     u )
     6.08711306E-03    2     1000001        -1   # BR(~chi_30 -> ~d_L      db)
     6.08711306E-03    2    -1000001         1   # BR(~chi_30 -> ~d_L*     d )
     3.11946172E-04    2     2000001        -1   # BR(~chi_30 -> ~d_R      db)
     3.11946172E-04    2    -2000001         1   # BR(~chi_30 -> ~d_R*     d )
     6.35264390E-03    2     1000004        -4   # BR(~chi_30 -> ~c_L      cb)
     6.35264390E-03    2    -1000004         4   # BR(~chi_30 -> ~c_L*     c )
     4.93894472E-02    2     2000004        -4   # BR(~chi_30 -> ~c_R      cb)
     4.93894472E-02    2    -2000004         4   # BR(~chi_30 -> ~c_R*     c )
     6.08711306E-03    2     1000003        -3   # BR(~chi_30 -> ~s _L      sb)
     6.08711306E-03    2    -1000003         3   # BR(~chi_30 -> ~s _L*     s )
     3.11946172E-04    2     2000003        -3   # BR(~chi_30 -> ~s _R      sb)
     3.11946172E-04    2    -2000003         3   # BR(~chi_30 -> ~s _R*     s )
     2.20177473E-03    2     1000006        -6   # BR(~chi_30 -> ~t_1      tb)
     2.20177473E-03    2    -1000006         6   # BR(~chi_30 -> ~t_1*     t )
     1.08985603E-02    2     1000005        -5   # BR(~chi_30 -> ~b_1      bb)
     1.08985603E-02    2    -1000005         5   # BR(~chi_30 -> ~b_1*     b )
     2.20305227E-03    2     2000005        -5   # BR(~chi_30 -> ~b_2      bb)
     2.20305227E-03    2    -2000005         5   # BR(~chi_30 -> ~b_2*     b )
     2.06593584E-02    2     1000011       -11   # BR(~chi_30 -> ~e_L-     e+)
     2.06593584E-02    2    -1000011        11   # BR(~chi_30 -> ~e_L+     e-)
     1.05917097E-01    2     2000011       -11   # BR(~chi_30 -> ~e_R-     e+)
     1.05917097E-01    2    -2000011        11   # BR(~chi_30 -> ~e_R+     e-)
     2.06593584E-02    2     1000013       -13   # BR(~chi_30 -> ~mu_L-    mu+)
     2.06593584E-02    2    -1000013        13   # BR(~chi_30 -> ~mu_L+    mu-)
     1.05917097E-01    2     2000013       -13   # BR(~chi_30 -> ~mu_R-    mu+)
     1.05917097E-01    2    -2000013        13   # BR(~chi_30 -> ~mu_R+    mu-)
     5.76658801E-03    2     1000015       -15   # BR(~chi_30 -> ~tau_1-   tau+)
     5.76658801E-03    2    -1000015        15   # BR(~chi_30 -> ~tau_1+   tau-)
     2.04262556E-02    2     1000012       -12   # BR(~chi_30 -> ~nu_eL    nu_eb)
     2.04262556E-02    2    -1000012        12   # BR(~chi_30 -> ~nu_eL*   nu_e )
     2.04262556E-02    2     1000014       -14   # BR(~chi_30 -> ~nu_muL   nu_mub)
     2.04262556E-02    2    -1000014        14   # BR(~chi_30 -> ~nu_muL*  nu_mu )
     5.71495342E-03    2     1000016       -16   # BR(~chi_30 -> ~nu_tau1  nu_taub)
     5.71495342E-03    2    -1000016        16   # BR(~chi_30 -> ~nu_tau1* nu_tau )
#
#         PDG            Width
DECAY   1000035     2.61733827E+02   # neutralino4 decays
#          BR         NDA      ID1       ID2
     1.30379512E-02    2     1000022        23   # BR(~chi_40 -> ~chi_10   Z )
     1.46088314E-02    2     1000023        23   # BR(~chi_40 -> ~chi_20   Z )
     4.76322261E-07    2     1000025        23   # BR(~chi_40 -> ~chi_30   Z )
     2.67639845E-02    2     1000024       -24   # BR(~chi_40 -> ~chi_1+   W-)
     2.67639845E-02    2    -1000024        24   # BR(~chi_40 -> ~chi_1-   W+)
     1.42092211E-02    2     1000022        25   # BR(~chi_40 -> ~chi_10   h )
     2.93049817E-03    2     1000022        35   # BR(~chi_40 -> ~chi_10   H )
     1.63718120E-03    2     1000022        36   # BR(~chi_40 -> ~chi_10   A )
     1.30388686E-02    2     1000023        25   # BR(~chi_40 -> ~chi_20   h )
     1.60333232E-03    2     1000023        35   # BR(~chi_40 -> ~chi_20   H )
     2.89592324E-03    2     1000023        36   # BR(~chi_40 -> ~chi_20   A )
     2.84669707E-05    2     1000025        25   # BR(~chi_40 -> ~chi_30   h )
     4.50160834E-03    2     1000024       -37   # BR(~chi_40 -> ~chi_1+   H-)
     4.50160834E-03    2    -1000024        37   # BR(~chi_40 -> ~chi_1-   H+)
     6.13722091E-02    2     1000002        -2   # BR(~chi_40 -> ~u_L      ub)
     6.13722091E-02    2    -1000002         2   # BR(~chi_40 -> ~u_L*     u )
     6.28231025E-08    2     2000002        -2   # BR(~chi_40 -> ~u_R      ub)
     6.28231025E-08    2    -2000002         2   # BR(~chi_40 -> ~u_R*     u )
     6.13785941E-02    2     1000001        -1   # BR(~chi_40 -> ~d_L      db)
     6.13785941E-02    2    -1000001         1   # BR(~chi_40 -> ~d_L*     d )
     6.03595889E-09    2     2000001        -1   # BR(~chi_40 -> ~d_R      db)
     6.03595889E-09    2    -2000001         1   # BR(~chi_40 -> ~d_R*     d )
     6.13722052E-02    2     1000004        -4   # BR(~chi_40 -> ~c_L      cb)
     6.13722052E-02    2    -1000004         4   # BR(~chi_40 -> ~c_L*     c )
     6.28230898E-08    2     2000004        -4   # BR(~chi_40 -> ~c_R      cb)
     6.28230898E-08    2    -2000004         4   # BR(~chi_40 -> ~c_R*     c )
     6.13785941E-02    2     1000003        -3   # BR(~chi_40 -> ~s _L      sb)
     6.13785941E-02    2    -1000003         3   # BR(~chi_40 -> ~s _L*     s )
     6.03595889E-09    2     2000003        -3   # BR(~chi_40 -> ~s _R      sb)
     6.03595889E-09    2    -2000003         3   # BR(~chi_40 -> ~s _R*     s )
     3.82489411E-02    2     1000006        -6   # BR(~chi_40 -> ~t_1      tb)
     3.82489411E-02    2    -1000006         6   # BR(~chi_40 -> ~t_1*     t )
     1.28751945E-04    2     1000005        -5   # BR(~chi_40 -> ~b_1      bb)
     1.28751945E-04    2    -1000005         5   # BR(~chi_40 -> ~b_1*     b )
     3.88837133E-02    2     2000005        -5   # BR(~chi_40 -> ~b_2      bb)
     3.88837133E-02    2    -2000005         5   # BR(~chi_40 -> ~b_2*     b )
     2.23225660E-02    2     1000011       -11   # BR(~chi_40 -> ~e_L-     e+)
     2.23225660E-02    2    -1000011        11   # BR(~chi_40 -> ~e_L+     e-)
     8.43458844E-08    2     2000011       -11   # BR(~chi_40 -> ~e_R-     e+)
     8.43458844E-08    2    -2000011        11   # BR(~chi_40 -> ~e_R+     e-)
     2.23225660E-02    2     1000013       -13   # BR(~chi_40 -> ~mu_L-    mu+)
     2.23225660E-02    2    -1000013        13   # BR(~chi_40 -> ~mu_L+    mu-)
     8.43458844E-08    2     2000013       -13   # BR(~chi_40 -> ~mu_R-    mu+)
     8.43458844E-08    2    -2000013        13   # BR(~chi_40 -> ~mu_R+    mu-)
     1.22014740E-02    2     1000015       -15   # BR(~chi_40 -> ~tau_1-   tau+)
     1.22014740E-02    2    -1000015        15   # BR(~chi_40 -> ~tau_1+   tau-)
     2.24306909E-02    2     1000012       -12   # BR(~chi_40 -> ~nu_eL    nu_eb)
     2.24306909E-02    2    -1000012        12   # BR(~chi_40 -> ~nu_eL*   nu_e )
     2.24306909E-02    2     1000014       -14   # BR(~chi_40 -> ~nu_muL   nu_mub)
     2.24306909E-02    2    -1000014        14   # BR(~chi_40 -> ~nu_muL*  nu_mu )
     1.22677287E-02    2     1000016       -16   # BR(~chi_40 -> ~nu_tau1  nu_taub)
     1.22677287E-02    2    -1000016        16   # BR(~chi_40 -> ~nu_tau1* nu_tau )
#
#         PDG            Width
DECAY        25     4.15173455E-03   # h decays
#          BR         NDA      ID1       ID2
     6.08479073E-01    2           5        -5   # BR(h -> b       bb     )
     6.27166381E-02    2         -15        15   # BR(h -> tau+    tau-   )
     2.22004897E-04    2         -13        13   # BR(h -> mu+     mu-    )
     2.42262164E-04    2           3        -3   # BR(h -> s       sb     )
     2.08858763E-02    2           4        -4   # BR(h -> c       cb     )
     7.69184920E-02    2          21        21   # BR(h -> g       g      )
     2.26259834E-03    2          22        22   # BR(h -> gam     gam    )
     1.50075359E-03    2          22        23   # BR(h -> Z       gam    )
     2.01599245E-01    2          24       -24   # BR(h -> W+      W-     )
     2.51730564E-02    2          23        23   # BR(h -> Z       Z      )
#
#         PDG            Width
DECAY        35     6.18189863E+01   # H decays
#          BR         NDA      ID1       ID2
     8.35308041E-01    2           5        -5   # BR(H -> b       bb     )
     1.62162384E-01    2         -15        15   # BR(H -> tau+    tau-   )
     5.81999920E-04    2         -13        13   # BR(H -> mu+     mu-    )
     3.33841817E-04    2           3        -3   # BR(H -> s       sb     )
     1.06793503E-08    2           4        -4   # BR(H -> c       cb     )
     1.04713948E-03    2           6        -6   # BR(H -> t       tb     )
     1.74430938E-05    2          21        21   # BR(H -> g       g      )
     4.39455973E-09    2          22        22   # BR(H -> gam     gam    )
     9.58722170E-09    2          23        22   # BR(H -> Z       gam    )
     6.48585645E-07    2          24       -24   # BR(H -> W+      W-     )
     3.23489799E-07    2          23        23   # BR(H -> Z       Z      )
     2.41049549E-06    2          25        25   # BR(H -> h       h      )
     3.67775288E-04    2     1000024  -1000024   # BR(H -> ~chi_1+ ~chi_1-)
     9.75874918E-05    2     1000022   1000022   # BR(H -> ~chi_10 ~chi_10)
     7.87887091E-05    2     1000023   1000023   # BR(H -> ~chi_20 ~chi_20)
     9.32148337E-10    2     1000022   1000023   # BR(H -> ~chi_10 ~chi_20)
     2.05266282E-07    2     1000002  -1000002   # BR(H -> ~u_L    ~u_L*  )
     2.05266282E-07    2     1000004  -1000004   # BR(H -> ~c_L    ~c_L*  )
     2.98603780E-07    2     1000001  -1000001   # BR(H -> ~d_L    ~d_L*  )
     2.98603780E-07    2     1000003  -1000003   # BR(H -> ~s_L    ~s_L*  )
     5.54128351E-08    2     1000011  -1000011   # BR(H -> ~e_L-   ~e_L+  )
     5.48222807E-08    2     2000011  -2000011   # BR(H -> ~e_R-   ~e_R+  )
     5.54128351E-08    2     1000013  -1000013   # BR(H -> ~mu_L-  ~mu_L+ )
     5.48222807E-08    2     2000013  -2000013   # BR(H -> ~mu_R-  ~mu_R+ )
     1.81142508E-07    2     1000012  -1000012   # BR(H -> ~nu_eL  ~nu_eL*   )
     1.81142508E-07    2     1000014  -1000014   # BR(H -> ~nu_muL ~nu_muL*  )
#
#         PDG            Width
DECAY        36     6.18215741E+01   # A decays
#          BR         NDA      ID1       ID2
     8.35291759E-01    2           5        -5   # BR(A -> b       bb     )
     1.62156215E-01    2         -15        15   # BR(A -> tau+    tau-   )
     5.81976787E-04    2         -13        13   # BR(A -> mu+     mu-    )
     3.33842223E-04    2           3        -3   # BR(A -> s       sb     )
     1.07079475E-08    2           4        -4   # BR(A -> c       cb     )
     1.05139432E-03    2           6        -6   # BR(A -> t       tb     )
     3.23305297E-05    2          21        21   # BR(A -> g       g      )
     8.21363662E-09    2          22        22   # BR(A -> gam     gam    )
     2.19804010E-08    2          23        22   # BR(A -> Z       gam    )
     6.56623059E-07    2          23        25   # BR(A -> Z       h      )
     3.72998549E-04    2     1000024  -1000024   # BR(A -> ~chi_1+ ~chi_1-)
     9.01485146E-05    2     1000022   1000022   # BR(A -> ~chi_10 ~chi_10)
     8.82684911E-05    2     1000023   1000023   # BR(A -> ~chi_20 ~chi_20)
     3.68615685E-07    2     1000022   1000023   # BR(A -> ~chi_10 ~chi_20)
#
#         PDG            Width
DECAY        37     5.82955026E+01   # H+ decays
#          BR         NDA      ID1       ID2
     1.38829507E-03    2           4        -5   # BR(H+ -> c       bb     )
     1.72062911E-01    2         -15        16   # BR(H+ -> tau+    nu_tau )
     6.17531801E-04    2         -13        14   # BR(H+ -> mu+     nu_mu  )
     1.38829312E-05    2           2        -5   # BR(H+ -> u       bb     )
     1.77088619E-05    2           2        -3   # BR(H+ -> u       sb     )
     3.48575032E-04    2           4        -3   # BR(H+ -> c       sb     )
     8.25511365E-01    2           6        -5   # BR(H+ -> t       bb     )
     6.98064916E-07    2          24        25   # BR(H+ -> W+      h      )
     2.13769814E-13    2          24        36   # BR(H+ -> W+      A      )
     1.61818674E-05    2     1000024   1000022   # BR(H+ -> ~chi_1+ ~chi_10)
     2.13311645E-05    2     1000024   1000023   # BR(H+ -> ~chi_1+ ~chi_20)
     2.30864635E-07    2    -1000011   1000012   # BR(H+ -> ~e_L+   ~nu_eL )
     2.30864635E-07    2    -1000013   1000014   # BR(H+ -> ~mu_L+  ~nu_muL)
     5.29123006E-07    2     1000002  -1000001   # BR(H+ -> ~u_L    ~d_L*  )
     5.29123006E-07    2     1000004  -1000003   # BR(H+ -> ~c_L    ~s_L*  )
