#
#                              ======================
#                              | THE SUSYHIT OUTPUT |
#                              ======================
#
#
#              ------------------------------------------------------
#              |     This is the output of the SUSY-HIT package     |
#              |  created by A.Djouadi, M.Muehlleitner and M.Spira. |
#              |  In case of problems with SUSY-HIT email to        |
#              |           margarete.muehlleitner@cern.ch           |
#              |           michael.spira@psi.ch                     |
#              |           abdelhak.djouadi@cern.ch                 |
#              ------------------------------------------------------
#
#              ------------------------------------------------------
#              |  SUSY Les Houches Accord - MSSM Spectrum + Decays  |
#              |              based on the decay programs           |
#              |                                                    |
#              |                     SDECAY 1.3b                    |
#              |                                                    |
#              |  Authors: M.Muhlleitner, A.Djouadi and Y.Mambrini  |
#              |  Ref.:    Comput.Phys.Commun.168(2005)46           |
#              |           [hep-ph/0311167]                         |
#              |                                                    |
#              |                     HDECAY 3.4                     |
#              |                                                    |
#              |  By: A.Djouadi,J.Kalinowski,M.Muhlleitner,M.Spira  |
#              |  Ref.:    Comput.Phys.Commun.108(1998)56           |
#              |           [hep-ph/9704448]                         |
#              |                                                    |
#              |                                                    |
#              |  If not stated otherwise all DRbar couplings and   |
#              |  soft SUSY breaking masses are given at the scale  |
#              |  Q=  0.22005620E+04
#              |                                                    |
#              ------------------------------------------------------
#
#
BLOCK DCINFO  # Decay Program information
     1   SDECAY/HDECAY # decay calculator
     2   1.3b  /3.4    # version number
#
BLOCK SPINFO  # Spectrum calculator information
     1     SOFTSUSY    # spectrum calculator               
     2     3.4.0       # version number                    
#
BLOCK MODSEL  # Model selection
     1     0   #  nonUniversal                                     
#
BLOCK SMINPUTS  # Standard Model inputs
         1     1.27908970E+02   # alpha_em^-1(M_Z)^MSbar
         2     1.16637870E-05   # G_F [GeV^-2]
         3     1.18400000E-01   # alpha_S(M_Z)^MSbar
         4     9.11876000E+01   # M_Z pole mass
         5     4.18000000E+00   # mb(mb)^MSbar
         6     1.73200000E+02   # mt pole mass
         7     1.77700000E+00   # mtau pole mass
#
BLOCK MINPAR  # Input parameters - minimal models
         3     3.94700000E+01   # tanb                
#
BLOCK EXTPAR  # Input parameters - non-minimal models
         0    -1.00000000E+00   # Set                 
         1     6.58680000E+02   # M_1(MX)             
         2    -3.39756000E+03   # M_2(MX)             
         3     2.02273000E+03   # M_3(MX)             
        11     2.88459000E+03   # At(MX)              
        12     3.40583000E+03   # Ab(MX)              
        13    -7.15560000E+02   # Atau(MX)            
        23    -1.47080000E+02   # mu(MX)              
        26     3.11892000E+03   # mA(pole)            
        31     9.14470000E+02   # meL(MX)             
        32     9.14470000E+02   # mmuL(MX)            
        33     1.76384000E+03   # mtauL(MX)           
        34     3.18988000E+03   # meR(MX)             
        35     3.18988000E+03   # mmuR(MX)            
        36     3.47883000E+03   # mtauR(MX)           
        41     2.84497000E+03   # mqL1(MX)            
        42     2.84497000E+03   # mqL2(MX)            
        43     1.68193000E+03   # mqL3(MX)            
        44     3.74207000E+03   # muR(MX)             
        45     3.74207000E+03   # mcR(MX)             
        46     2.87709000E+03   # mtR(MX)             
        47     1.82283000E+03   # mdR(MX)             
        48     1.82283000E+03   # msR(MX)             
        49     4.31720000E+02   # mbR(MX)             
#
BLOCK MASS  # Mass Spectrum
# PDG code           mass       particle
        24     8.04030904E+01   # W+
        25     1.25163536E+02   # h
        35     3.11892645E+03   # H
        36     3.11892030E+03   # A
        37     3.12048155E+03   # H+
         5     4.81876030E+00   # b-quark pole mass calculated from mb(mb)_Msbar
   1000001     2.91016392E+03   # ~d_L
   2000001     1.90489390E+03   # ~d_R
   1000002     2.90921995E+03   # ~u_L
   2000002     3.78331888E+03   # ~u_R
   1000003     2.91016392E+03   # ~s_L
   2000003     1.90489390E+03   # ~s_R
   1000004     2.90921995E+03   # ~c_L
   2000004     3.78331888E+03   # ~c_R
   1000005     5.89801023E+02   # ~b_1
   2000005     1.75338252E+03   # ~b_2
   1000006     1.74949375E+03   # ~t_1
   2000006     2.88401749E+03   # ~t_2
   1000011     9.33633957E+02   # ~e_L
   2000011     3.19122434E+03   # ~e_R
   1000012     9.29965657E+02   # ~nu_eL
   1000013     9.33633957E+02   # ~mu_L
   2000013     3.19122434E+03   # ~mu_R
   1000014     9.29965657E+02   # ~nu_muL
   1000015     1.77838158E+03   # ~tau_1
   2000015     3.47446969E+03   # ~tau_2
   1000016     1.77629466E+03   # ~nu_tauL
   1000021     2.18067013E+03   # ~g
   1000022     1.53843816E+02   # ~chi_10
   1000023    -1.54775579E+02   # ~chi_20
   1000025     6.58844357E+02   # ~chi_30
   1000035    -3.36701875E+03   # ~chi_40
   1000024     1.54775390E+02   # ~chi_1+
   1000037     3.36718411E+03   # ~chi_2+
#
BLOCK NMIX  # Neutralino Mixing Matrix
  1  1    -5.96162968E-02   # N_11
  1  2    -1.54325546E-02   # N_12
  1  3     7.07783880E-01   # N_13
  1  4     7.03739805E-01   # N_14
  2  1    -3.90856897E-02   # N_21
  2  2    -1.78695069E-02   # N_22
  2  3    -7.06275594E-01   # N_23
  2  4     7.06631287E-01   # N_24
  3  1     9.97455828E-01   # N_31
  3  2    -1.34558501E-03   # N_32
  3  3     1.46269347E-02   # N_33
  3  4     6.97575269E-02   # N_34
  4  1    -2.76389454E-04   # N_41
  4  2     9.99720314E-01   # N_42
  4  3    -1.67867089E-03   # N_43
  4  4     2.35881176E-02   # N_44
#
BLOCK UMIX  # Chargino Mixing Matrix U
  1  1     2.37297257E-03   # U_11
  1  2     9.99997184E-01   # U_12
  2  1    -9.99997184E-01   # U_21
  2  2     2.37297257E-03   # U_22
#
BLOCK VMIX  # Chargino Mixing Matrix V
  1  1    -3.33633473E-02   # V_11
  1  2    -9.99443289E-01   # V_12
  2  1     9.99443289E-01   # V_21
  2  2    -3.33633473E-02   # V_22
#
BLOCK STOPMIX  # Stop Mixing Matrix
  1  1     9.97173459E-01   # cos(theta_t)
  1  2    -7.51338317E-02   # sin(theta_t)
  2  1     7.51338317E-02   # -sin(theta_t)
  2  2     9.97173459E-01   # cos(theta_t)
#
BLOCK SBOTMIX  # Sbottom Mixing Matrix
  1  1    -8.65626507E-03   # cos(theta_b)
  1  2     9.99962534E-01   # sin(theta_b)
  2  1    -9.99962534E-01   # -sin(theta_b)
  2  2    -8.65626507E-03   # cos(theta_b)
#
BLOCK STAUMIX  # Stau Mixing Matrix
  1  1     9.99999492E-01   # cos(theta_tau)
  1  2    -1.00796813E-03   # sin(theta_tau)
  2  1     1.00796813E-03   # -sin(theta_tau)
  2  2     9.99999492E-01   # cos(theta_tau)
#
BLOCK ALPHA  # Higgs mixing
          -2.59358132E-02   # Mixing angle in the neutral Higgs boson sector
#
BLOCK HMIX Q=  2.20056200E+03  # DRbar Higgs Parameters
         1    -1.50757311E+02   # mu(Q)MSSM           
         2     3.86401715E+01   # tan                 
         3     2.43351183E+02   # higgs               
         4     9.66428449E+06   # mA^2(Q)MSSM         
#
BLOCK GAUGE Q=  2.20056200E+03  # The gauge couplings
     1     3.64228559E-01   # gprime(Q) DRbar
     2     6.37920117E-01   # g(Q) DRbar
     3     1.02443212E+00   # g3(Q) DRbar
#
BLOCK AU Q=  2.20056200E+03  # The trilinear couplings
  1  1     0.00000000E+00   # A_u(Q) DRbar
  2  2     0.00000000E+00   # A_c(Q) DRbar
  3  3     2.88459001E+03   # A_t(Q) DRbar
#
BLOCK AD Q=  2.20056200E+03  # The trilinear couplings
  1  1     0.00000000E+00   # A_d(Q) DRbar
  2  2     0.00000000E+00   # A_s(Q) DRbar
  3  3     3.40583000E+03   # A_b(Q) DRbar
#
BLOCK AE Q=  2.20056200E+03  # The trilinear couplings
  1  1     0.00000000E+00   # A_e(Q) DRbar
  2  2     0.00000000E+00   # A_mu(Q) DRbar
  3  3    -7.15559998E+02   # A_tau(Q) DRbar
#
BLOCK Yu Q=  2.20056200E+03  # The Yukawa couplings
  1  1     0.00000000E+00   # y_u(Q) DRbar
  2  2     0.00000000E+00   # y_c(Q) DRbar
  3  3     8.46025683E-01   # y_t(Q) DRbar
#
BLOCK Yd Q=  2.20056200E+03  # The Yukawa couplings
  1  1     0.00000000E+00   # y_d(Q) DRbar
  2  2     0.00000000E+00   # y_s(Q) DRbar
  3  3     5.71955595E-01   # y_b(Q) DRbar
#
BLOCK Ye Q=  2.20056200E+03  # The Yukawa couplings
  1  1     0.00000000E+00   # y_e(Q) DRbar
  2  2     0.00000000E+00   # y_mu(Q) DRbar
  3  3     3.99156798E-01   # y_tau(Q) DRbar
#
BLOCK MSOFT Q=  2.20056200E+03  # The soft SUSY breaking masses at the scale Q
         1     6.58680000E+02   # M_1(Q)              
         2    -3.39756000E+03   # M_2(Q)              
         3     2.02273000E+03   # M_3(Q)              
        21     9.87757770E+06   # mH1^2(Q)            
        22     6.46045878E+04   # mH2^2(Q)            
        31     9.14470000E+02   # meL(Q)              
        32     9.14470000E+02   # mmuL(Q)             
        33     1.76384000E+03   # mtauL(Q)            
        34     3.18988000E+03   # meR(Q)              
        35     3.18988000E+03   # mmuR(Q)             
        36     3.47883000E+03   # mtauR(Q)            
        41     2.84497000E+03   # mqL1(Q)             
        42     2.84497000E+03   # mqL2(Q)             
        43     1.68193000E+03   # mqL3(Q)             
        44     3.74207000E+03   # muR(Q)              
        45     3.74207000E+03   # mcR(Q)              
        46     2.87709000E+03   # mtR(Q)              
        47     1.82283000E+03   # mdR(Q)              
        48     1.82283000E+03   # msR(Q)              
        49     4.31719989E+02   # mbR(Q)              
#
Block HiggsBoundsInputHiggsCouplingsFermions
# ScalarNormEffCoupSq PseudoSNormEffCoupSq NP   IP1 IP2 IP2
    1.00478057E+00    0.00000000E+00        3  25   5   5  # h0-b-b eff. coupling^2, normalised to SM
    1.49305807E+03    0.00000000E+00        3  35   5   5  # H0-b-b eff. coupling^2, normalised to SM
    0.00000000E+00    1.49306285E+03        3  36   5   5  # A0-b-b eff. coupling^2, normalised to SM
#
    9.99996798E-01    0.00000000E+00        3  25   6   6  # h0-t-t eff. coupling^2, normalised to SM
    6.72966020E-04    0.00000000E+00        3  35   6   6  # H0-t-t eff. coupling^2, normalised to SM
    0.00000000E+00    6.69764168E-04        3  36   6   6  # A0-t-t eff. coupling^2, normalised to SM
#
    1.00478057E+00    0.00000000E+00        3  25  15  15  # h0-tau-tau eff. coupling^2, normalised to SM
    1.49305807E+03    0.00000000E+00        3  35  15  15  # H0-tau-tau eff. coupling^2, normalised to SM
    0.00000000E+00    1.49306285E+03        3  36  15  15  # A0-tau-tau eff. coupling^2, normalised to SM
#
Block HiggsBoundsInputHiggsCouplingsBosons
    9.99999996E-01        3  25  24  24  # h0-W-W eff. coupling^2, normalised to SM
    3.81755281E-09        3  35  24  24  # H0-W-W eff. coupling^2, normalised to SM
    0.00000000E+00        3  36  24  24  # A0-W-W eff. coupling^2, normalised to SM
#
    9.99999996E-01        3  25  23  23  # h0-Z-Z eff. coupling^2, normalised to SM
    3.81755281E-09        3  35  23  23  # H0-Z-Z eff. coupling^2, normalised to SM
    0.00000000E+00        3  36  23  23  # A0-Z-Z eff. coupling^2, normalised to SM
#
    8.93023906E-01        3  25  21  21  # h0-g-g eff. coupling^2, normalised to SM
    3.66582617E-13        3  35  21  21  # H0-g-g eff. coupling^2, normalised to SM
    2.70685503E-12        3  36  21  21  # A0-g-g eff. coupling^2, normalised to SM
#
    0.00000000E+00        3  25  25  23  # h0-h0-Z eff. coupling^2, normalised to SM
    0.00000000E+00        3  35  25  23  # H0-h0-Z eff. coupling^2, normalised to SM
    3.81755281E-09        3  36  25  23  # A0-h0-Z eff. coupling^2, normalised to SM
    0.00000000E+00        3  35  35  23  # H0-H0-Z eff. coupling^2, normalised to SM
    9.99999996E-01        3  36  35  23  # A0-H0-Z eff. coupling^2, normalised to SM
    0.00000000E+00        3  36  36  23  # A0-A0-Z eff. coupling^2, normalised to SM
#
    0.00000000E+00        4  25  21  21  23  # h0-g-g-Z eff. coupling^2, normalised to SM
    0.00000000E+00        4  35  21  21  23  # H0-g-g-Z eff. coupling^2, normalised to SM
    0.00000000E+00        4  36  21  21  23  # A0-g-g-Z eff. coupling^2, normalised to SM
#
#
#
#                             =================
#                             |The decay table|
#                             =================
#
# - The QCD corrections to the decays gluino -> squark  + quark
#                                     squark -> gaugino + quark_prime
#                                     squark -> squark_prime + Higgs
#                                     squark -> gluino  + quark
#   are included.
#
# - The multi-body decays for the inos, stops and sbottoms are included.
#
# - The loop induced decays for the gluino, neutralinos and stops
#   are included.
#
# - The SUSY decays of the top quark are included.
#
#
#         PDG            Width
DECAY         6     1.43260299E+00   # top decays
#          BR         NDA      ID1       ID2
     1.00000000E+00    2           5        24   # BR(t ->  b    W+)
#
#         PDG            Width
DECAY   1000021     5.45393741E+01   # gluino decays
#          BR         NDA      ID1       ID2
     2.02941960E-02    2     2000001        -1   # BR(~g -> ~d_R  db)
     2.02941960E-02    2    -2000001         1   # BR(~g -> ~d_R* d )
     2.02941960E-02    2     2000003        -3   # BR(~g -> ~s_R  sb)
     2.02941960E-02    2    -2000003         3   # BR(~g -> ~s_R* s )
     3.54453684E-01    2     1000005        -5   # BR(~g -> ~b_1  bb)
     3.54453684E-01    2    -1000005         5   # BR(~g -> ~b_1* b )
     5.22971321E-02    2     2000005        -5   # BR(~g -> ~b_2  bb)
     5.22971321E-02    2    -2000005         5   # BR(~g -> ~b_2* b )
     5.26607915E-02    2     1000006        -6   # BR(~g -> ~t_1  tb)
     5.26607915E-02    2    -1000006         6   # BR(~g -> ~t_1* t )
#
#         PDG            Width
DECAY   1000006     3.57592585E+01   # stop1 decays
#          BR         NDA      ID1       ID2
     3.33530179E-01    2     1000022         6   # BR(~t_1 -> ~chi_10 t )
     3.34484269E-01    2     1000023         6   # BR(~t_1 -> ~chi_20 t )
     8.66424160E-03    2     1000025         6   # BR(~t_1 -> ~chi_30 t )
     3.18500292E-01    2     1000024         5   # BR(~t_1 -> ~chi_1+ b )
     4.82101831E-03    2     1000005        24   # BR(~t_1 -> ~b_1    W+)
#
#         PDG            Width
DECAY   2000006     1.60751763E+02   # stop2 decays
#          BR         NDA      ID1       ID2
     1.25126726E-01    2     1000022         6   # BR(~t_2 -> ~chi_10 t )
     1.26196222E-01    2     1000023         6   # BR(~t_2 -> ~chi_20 t )
     3.79092584E-02    2     1000025         6   # BR(~t_2 -> ~chi_30 t )
     2.51987770E-01    2     1000024         5   # BR(~t_2 -> ~chi_1+ b )
     1.81613702E-01    2     1000021         6   # BR(~t_2 -> ~g      t )
     7.85207107E-02    2     1000006        25   # BR(~t_2 -> ~t_1    h )
     6.75513811E-02    2     1000006        23   # BR(~t_2 -> ~t_1    Z )
     3.46772687E-05    2     1000005        24   # BR(~t_2 -> ~b_1    W+)
     1.31059553E-01    2     2000005        24   # BR(~t_2 -> ~b_2    W+)
#
#         PDG            Width
DECAY   1000005     6.01429971E+00   # sbottom1 decays
#          BR         NDA      ID1       ID2
     2.78019046E-01    2     1000022         5   # BR(~b_1 -> ~chi_10 b )
     2.76055933E-01    2     1000023         5   # BR(~b_1 -> ~chi_20 b )
     4.45925021E-01    2    -1000024         6   # BR(~b_1 -> ~chi_1- t )
#
#         PDG            Width
DECAY   2000005     3.56788781E+01   # sbottom2 decays
#          BR         NDA      ID1       ID2
     1.57706560E-01    2     1000022         5   # BR(~b_2 -> ~chi_10 b )
     1.57095003E-01    2     1000023         5   # BR(~b_2 -> ~chi_20 b )
     5.43820040E-03    2     1000025         5   # BR(~b_2 -> ~chi_30 b )
     6.74635459E-01    2    -1000024         6   # BR(~b_2 -> ~chi_1- t )
     2.60553313E-03    2     1000005        25   # BR(~b_2 -> ~b_1    h )
     2.51924449E-03    2     1000005        23   # BR(~b_2 -> ~b_1    Z )
#
#         PDG            Width
DECAY   1000002     4.09268090E+01   # sup_L decays
#          BR         NDA      ID1       ID2
     1.95556057E-04    2     1000022         2   # BR(~u_L -> ~chi_10 u)
     1.74658772E-04    2     1000023         2   # BR(~u_L -> ~chi_20 u)
     8.80126117E-03    2     1000025         2   # BR(~u_L -> ~chi_30 u)
     6.07061462E-04    2     1000024         1   # BR(~u_L -> ~chi_1+ d)
     9.90221463E-01    2     1000021         2   # BR(~u_L -> ~g      u)
#
#         PDG            Width
DECAY   2000002     1.30459051E+02   # sup_R decays
#          BR         NDA      ID1       ID2
     2.31455400E-04    2     1000022         2   # BR(~u_R -> ~chi_10 u)
     9.94849785E-05    2     1000023         2   # BR(~u_R -> ~chi_20 u)
     6.12606648E-02    2     1000025         2   # BR(~u_R -> ~chi_30 u)
     2.25447500E-10    2     1000035         2   # BR(~u_R -> ~chi_40 u)
     9.38408395E-01    2     1000021         2   # BR(~u_R -> ~g      u)
#
#         PDG            Width
DECAY   1000001     4.09794662E+01   # sdown_L decays
#          BR         NDA      ID1       ID2
     4.54929847E-06    2     1000022         1   # BR(~d_L -> ~chi_10 d)
     2.96399354E-05    2     1000023         1   # BR(~d_L -> ~chi_20 d)
     9.04638030E-03    2     1000025         1   # BR(~d_L -> ~chi_30 d)
     3.06808310E-06    2    -1000024         2   # BR(~d_L -> ~chi_1- u)
     9.90916362E-01    2     1000021         1   # BR(~d_L -> ~g      d)
#
#         PDG            Width
DECAY   2000001     8.51838274E-01   # sdown_R decays
#          BR         NDA      ID1       ID2
     4.50269467E-03    2     1000022         1   # BR(~d_R -> ~chi_10 d)
     1.93514039E-03    2     1000023         1   # BR(~d_R -> ~chi_20 d)
     9.93562165E-01    2     1000025         1   # BR(~d_R -> ~chi_30 d)
#
#         PDG            Width
DECAY   1000004     3.15120427E+01   # scharm_L decays
#          BR         NDA      ID1       ID2
     2.66490490E-04    2     1000022         4   # BR(~c_L -> ~chi_10 c)
     2.38011253E-04    2     1000023         4   # BR(~c_L -> ~chi_20 c)
     1.19504218E-02    2     1000025         4   # BR(~c_L -> ~chi_30 c)
     8.27256143E-04    2     1000024         3   # BR(~c_L -> ~chi_1+ s)
     9.86717820E-01    2     1000021         4   # BR(~c_L -> ~g      c)
#
#         PDG            Width
DECAY   2000004     1.02276310E+02   # scharm_R decays
#          BR         NDA      ID1       ID2
     3.07408583E-04    2     1000022         4   # BR(~c_R -> ~chi_10 c)
     1.32130804E-04    2     1000023         4   # BR(~c_R -> ~chi_20 c)
     8.11824178E-02    2     1000025         4   # BR(~c_R -> ~chi_30 c)
     2.86706559E-10    2     1000035         4   # BR(~c_R -> ~chi_40 c)
     9.18378043E-01    2     1000021         4   # BR(~c_R -> ~g      c)
#
#         PDG            Width
DECAY   1000003     3.15446134E+01   # sstrange_L decays
#          BR         NDA      ID1       ID2
     6.20098567E-06    2     1000022         3   # BR(~s_L -> ~chi_10 s)
     4.04008216E-05    2     1000023         3   # BR(~s_L -> ~chi_20 s)
     1.22862615E-02    2     1000025         3   # BR(~s_L -> ~chi_30 s)
     4.18196054E-06    2    -1000024         4   # BR(~s_L -> ~chi_1- c)
     9.87662955E-01    2     1000021         3   # BR(~s_L -> ~g      s)
#
#         PDG            Width
DECAY   2000003     8.67109908E-01   # sstrange_R decays
#          BR         NDA      ID1       ID2
     4.51968605E-03    2     1000022         3   # BR(~s_R -> ~chi_10 s)
     1.94242630E-03    2     1000023         3   # BR(~s_R -> ~chi_20 s)
     9.93537888E-01    2     1000025         3   # BR(~s_R -> ~chi_30 s)
#
#         PDG            Width
DECAY   1000011     3.22033609E-01   # selectron_L decays
#          BR         NDA      ID1       ID2
     2.71833740E-02    2     1000022        11   # BR(~e_L -> ~chi_10 e-)
     1.79247180E-02    2     1000023        11   # BR(~e_L -> ~chi_20 e-)
     9.54766905E-01    2     1000025        11   # BR(~e_L -> ~chi_30 e-)
     1.25002526E-04    2    -1000024        12   # BR(~e_L -> ~chi_1- nu_e)
#
#         PDG            Width
DECAY   2000011     1.54461562E+01   # selectron_R decays
#          BR         NDA      ID1       ID2
     3.85792733E-03    2     1000022        11   # BR(~e_R -> ~chi_10 e-)
     1.65819281E-03    2     1000023        11   # BR(~e_R -> ~chi_20 e-)
     9.94483880E-01    2     1000025        11   # BR(~e_R -> ~chi_30 e-)
#
#         PDG            Width
DECAY   1000013     3.22033578E-01   # smuon_L decays
#          BR         NDA      ID1       ID2
     2.71833760E-02    2     1000022        13   # BR(~mu_L -> ~chi_10 mu-)
     1.79247193E-02    2     1000023        13   # BR(~mu_L -> ~chi_20 mu-)
     9.54766902E-01    2     1000025        13   # BR(~mu_L -> ~chi_30 mu-)
     1.25002538E-04    2    -1000024        14   # BR(~mu_L -> ~chi_1- nu_mu)
#
#         PDG            Width
DECAY   2000013     1.54461562E+01   # smuon_R decays
#          BR         NDA      ID1       ID2
     3.85792733E-03    2     1000022        13   # BR(~mu_R -> ~chi_10 mu-)
     1.65819281E-03    2     1000023        13   # BR(~mu_R -> ~chi_20 mu-)
     9.94483880E-01    2     1000025        13   # BR(~mu_R -> ~chi_30 mu-)
#
#         PDG            Width
DECAY   1000015     7.31066488E+00   # stau_1 decays
#          BR         NDA      ID1       ID2
     3.82892114E-01    2     1000022        15   # BR(~tau_1 -> ~chi_10  tau-)
     3.80368347E-01    2     1000023        15   # BR(~tau_1 -> ~chi_20  tau-)
     2.36722040E-01    2     1000025        15   # BR(~tau_1 -> ~chi_30  tau-)
     1.74997347E-05    2    -1000024        16   # BR(~tau_1 -> ~chi_1-  nu_tau)
#
#         PDG            Width
DECAY   2000015     3.90115053E+01   # stau_2 decays
#          BR         NDA      ID1       ID2
     1.42524315E-01    2     1000022        15   # BR(~tau_2 -> ~chi_10  tau-)
     1.40978935E-01    2     1000023        15   # BR(~tau_2 -> ~chi_20  tau-)
     4.34752722E-01    2     1000025        15   # BR(~tau_2 -> ~chi_30  tau-)
     8.47633273E-09    2     1000035        15   # BR(~tau_2 -> ~chi_40  tau-)
     2.81178096E-01    2    -1000024        16   # BR(~tau_2 -> ~chi_1-  nu_tau)
     1.65643436E-08    2    -1000037        16   # BR(~tau_2 -> ~chi_2-  nu_tau)
     2.74614049E-04    2     1000016       -24   # BR(~tau_2 -> ~nu_tauL W-)
     1.50248130E-04    2     1000015        25   # BR(~tau_2 -> ~tau_1   h)
     1.41044935E-04    2     1000015        23   # BR(~tau_2 -> ~tau_1   Z)
#
#         PDG            Width
DECAY   1000012     3.13563575E-01   # snu_eL decays
#          BR         NDA      ID1       ID2
     3.93173218E-03    2     1000022        12   # BR(~nu_eL -> ~chi_10 nu_e)
     2.24440873E-04    2     1000023        12   # BR(~nu_eL -> ~chi_20 nu_e)
     9.70577367E-01    2     1000025        12   # BR(~nu_eL -> ~chi_30 nu_e)
     2.52664604E-02    2     1000024        11   # BR(~nu_eL -> ~chi_1+ e-)
#
#         PDG            Width
DECAY   1000014     3.13563574E-01   # snu_muL decays
#          BR         NDA      ID1       ID2
     3.93173218E-03    2     1000022        14   # BR(~nu_muL -> ~chi_10 nu_mu)
     2.24440873E-04    2     1000023        14   # BR(~nu_muL -> ~chi_20 nu_mu)
     9.70577367E-01    2     1000025        14   # BR(~nu_muL -> ~chi_30 nu_mu)
     2.52664597E-02    2     1000024        13   # BR(~nu_muL -> ~chi_1+ mu-)
#
#         PDG            Width
DECAY   1000016     7.30613660E+00   # snu_tauL decays
#          BR         NDA      ID1       ID2
     3.35607597E-04    2     1000022        16   # BR(~nu_tauL -> ~chi_10 nu_tau)
     1.91675686E-05    2     1000023        16   # BR(~nu_tauL -> ~chi_20 nu_tau)
     2.38537366E-01    2     1000025        16   # BR(~nu_tauL -> ~chi_30 nu_tau)
     7.61107859E-01    2     1000024        15   # BR(~nu_tauL -> ~chi_1+ tau-)
#
#         PDG            Width
DECAY   1000024     2.45871490E-12   # chargino1+ decays
#           BR         NDA      ID1       ID2       ID3
     1.64794930E-01    3     1000022       -11        12   # BR(~chi_1+ -> ~chi_10 e+   nu_e)
     1.54731590E-01    3     1000022       -13        14   # BR(~chi_1+ -> ~chi_10 mu+  nu_mu)
     4.80792790E-01    2     1000022       211             # BR(~chi_1+ -> ~chi_10 pi+)
     1.93991560E-01    3     1000022       211        111   # BR(~chi_1+ -> ~chi_10 pi+ pi0)
     2.84456540E-03    4     1000022       211        111       111 # BR(~chi_1+ -> ~chi_10 pi+ pi0 pi0)
     2.84456540E-03    4     1000022       211        211      -211 # BR(~chi_1+ -> ~chi_10 pi+ pi+ pi-)
#
#         PDG            Width
DECAY   1000037     1.41426366E+02   # chargino2+ decays
#          BR         NDA      ID1       ID2
     1.84853316E-02    2     1000002        -1   # BR(~chi_2+ -> ~u_L     db)
     1.84364135E-02    2    -1000001         2   # BR(~chi_2+ -> ~d_L*    u )
     1.84853255E-02    2     1000004        -3   # BR(~chi_2+ -> ~c_L     sb)
     1.84363160E-02    2    -1000003         4   # BR(~chi_2+ -> ~s_L*     c )
     1.52033493E-01    2     1000006        -5   # BR(~chi_2+ -> ~t_1     bb)
     2.91588287E-04    2     2000006        -5   # BR(~chi_2+ -> ~t_2     bb)
     1.14732219E-05    2    -1000005         6   # BR(~chi_2+ -> ~b_1*    t )
     1.51555233E-01    2    -2000005         6   # BR(~chi_2+ -> ~b_2*    t )
     8.21425120E-02    2     1000012       -11   # BR(~chi_2+ -> ~nu_eL   e+  )
     8.21425120E-02    2     1000014       -13   # BR(~chi_2+ -> ~nu_muL mu+ )
     5.01430715E-02    2     1000016       -15   # BR(~chi_2+ -> ~nu_tau1 tau+)
     8.21262648E-02    2    -1000011        12   # BR(~chi_2+ -> ~e_L+    nu_e)
     8.21262648E-02    2    -1000013        14   # BR(~chi_2+ -> ~mu_L+   nu_mu)
     5.01076095E-02    2    -1000015        16   # BR(~chi_2+ -> ~tau_1+  nu_tau)
     4.83720948E-02    2     1000024        23   # BR(~chi_2+ -> ~chi_1+  Z )
     4.66306165E-02    2     1000022        24   # BR(~chi_2+ -> ~chi_10  W+)
     4.69906406E-02    2     1000023        24   # BR(~chi_2+ -> ~chi_20  W+)
     2.95756146E-04    2     1000025        24   # BR(~chi_2+ -> ~chi_30  W+)
     4.82282409E-02    2     1000024        25   # BR(~chi_2+ -> ~chi_1+  h )
     7.44620628E-04    2     1000024        35   # BR(~chi_2+ -> ~chi_1+  H )
     7.44871816E-04    2     1000024        36   # BR(~chi_2+ -> ~chi_1+  A )
     7.37790650E-04    2     1000022        37   # BR(~chi_2+ -> ~chi_10  H+)
     7.31959181E-04    2     1000023        37   # BR(~chi_2+ -> ~chi_20  H+)
#
#         PDG            Width
DECAY   1000022     0.00000000E+00   # neutralino1 decays
#
#         PDG            Width
DECAY   1000023     1.82909605E-12   # neutralino2 decays
#          BR         NDA      ID1       ID2
     7.31433194E-01    2     1000022        22   # BR(~chi_20 -> ~chi_10 gam)
#           BR         NDA      ID1       ID2       ID3
     4.49118705E-02    3     1000022        -2         2   # BR(~chi_20 -> ~chi_10 ub      u)
     5.82913025E-02    3     1000022        -1         1   # BR(~chi_20 -> ~chi_10 db      d)
     5.82913025E-02    3     1000022        -3         3   # BR(~chi_20 -> ~chi_10 sb      s)
     1.33864582E-02    3     1000022       -11        11   # BR(~chi_20 -> ~chi_10 e+      e-)
     1.33864582E-02    3     1000022       -13        13   # BR(~chi_20 -> ~chi_10 mu+     mu-)
     2.67664796E-02    3     1000022       -12        12   # BR(~chi_20 -> ~chi_10 nu_eb   nu_e)
     2.67664796E-02    3     1000022       -14        14   # BR(~chi_20 -> ~chi_10 nu_mub  nu_mu)
     2.67664554E-02    3     1000022       -16        16   # BR(~chi_20 -> ~chi_10 nu_taub nu_tau)
#
#         PDG            Width
DECAY   1000025     1.57991267E+00   # neutralino3 decays
#          BR         NDA      ID1       ID2
     7.61741863E-02    2     1000022        23   # BR(~chi_30 -> ~chi_10   Z )
     1.69752710E-01    2     1000023        23   # BR(~chi_30 -> ~chi_20   Z )
     2.40519902E-01    2     1000024       -24   # BR(~chi_30 -> ~chi_1+   W-)
     2.40519902E-01    2    -1000024        24   # BR(~chi_30 -> ~chi_1-   W+)
     1.72437393E-01    2     1000022        25   # BR(~chi_30 -> ~chi_10   h )
     7.16452051E-02    2     1000023        25   # BR(~chi_30 -> ~chi_20   h )
     1.44753510E-02    2     1000005        -5   # BR(~chi_30 -> ~b_1      bb)
     1.44753510E-02    2    -1000005         5   # BR(~chi_30 -> ~b_1*     b )
#
#         PDG            Width
DECAY   1000035     1.41404263E+02   # neutralino4 decays
#          BR         NDA      ID1       ID2
     2.73900558E-02    2     1000022        23   # BR(~chi_40 -> ~chi_10   Z )
     2.07568649E-02    2     1000023        23   # BR(~chi_40 -> ~chi_20   Z )
     2.15929106E-04    2     1000025        23   # BR(~chi_40 -> ~chi_30   Z )
     4.69873883E-02    2     1000024       -24   # BR(~chi_40 -> ~chi_1+   W-)
     4.69873883E-02    2    -1000024        24   # BR(~chi_40 -> ~chi_1-   W+)
     2.05216537E-02    2     1000022        25   # BR(~chi_40 -> ~chi_10   h )
     1.48727749E-04    2     1000022        35   # BR(~chi_40 -> ~chi_10   H )
     5.99947181E-04    2     1000022        36   # BR(~chi_40 -> ~chi_10   A )
     2.75612312E-02    2     1000023        25   # BR(~chi_40 -> ~chi_20   h )
     5.96357675E-04    2     1000023        35   # BR(~chi_40 -> ~chi_20   H )
     1.46107014E-04    2     1000023        36   # BR(~chi_40 -> ~chi_20   A )
     9.32180870E-05    2     1000025        25   # BR(~chi_40 -> ~chi_30   h )
     7.31800934E-04    2     1000024       -37   # BR(~chi_40 -> ~chi_1+   H-)
     7.31800934E-04    2    -1000024        37   # BR(~chi_40 -> ~chi_1-   H+)
     9.24255360E-03    2     1000002        -2   # BR(~chi_40 -> ~u_L      ub)
     9.24255360E-03    2    -1000002         2   # BR(~chi_40 -> ~u_L*     u )
     9.20981079E-03    2     1000001        -1   # BR(~chi_40 -> ~d_L      db)
     9.20981079E-03    2    -1000001         1   # BR(~chi_40 -> ~d_L*     d )
     7.15732402E-10    2     2000001        -1   # BR(~chi_40 -> ~d_R      db)
     7.15732402E-10    2    -2000001         1   # BR(~chi_40 -> ~d_R*     d )
     9.24250489E-03    2     1000004        -4   # BR(~chi_40 -> ~c_L      cb)
     9.24250489E-03    2    -1000004         4   # BR(~chi_40 -> ~c_L*     c )
     9.20981079E-03    2     1000003        -3   # BR(~chi_40 -> ~s _L      sb)
     9.20981079E-03    2    -1000003         3   # BR(~chi_40 -> ~s _L*     s )
     7.15732402E-10    2     2000003        -3   # BR(~chi_40 -> ~s _R      sb)
     7.15732402E-10    2    -2000003         3   # BR(~chi_40 -> ~s _R*     s )
     7.50520532E-02    2     1000006        -6   # BR(~chi_40 -> ~t_1      tb)
     7.50520532E-02    2    -1000006         6   # BR(~chi_40 -> ~t_1*     t )
     1.34377786E-04    2     2000006        -6   # BR(~chi_40 -> ~t_2      tb)
     1.34377786E-04    2    -2000006         6   # BR(~chi_40 -> ~t_2*     t )
     5.78661071E-06    2     1000005        -5   # BR(~chi_40 -> ~b_1      bb)
     5.78661071E-06    2    -1000005         5   # BR(~chi_40 -> ~b_1*     b )
     7.67580902E-02    2     2000005        -5   # BR(~chi_40 -> ~b_2      bb)
     7.67580902E-02    2    -2000005         5   # BR(~chi_40 -> ~b_2*     b )
     4.10311684E-02    2     1000011       -11   # BR(~chi_40 -> ~e_L-     e+)
     4.10311684E-02    2    -1000011        11   # BR(~chi_40 -> ~e_L+     e-)
     4.96486117E-11    2     2000011       -11   # BR(~chi_40 -> ~e_R-     e+)
     4.96486117E-11    2    -2000011        11   # BR(~chi_40 -> ~e_R+     e-)
     4.10311684E-02    2     1000013       -13   # BR(~chi_40 -> ~mu_L-    mu+)
     4.10311684E-02    2    -1000013        13   # BR(~chi_40 -> ~mu_L+    mu-)
     4.96486117E-11    2     2000013       -13   # BR(~chi_40 -> ~mu_R-    mu+)
     4.96486117E-11    2    -2000013        13   # BR(~chi_40 -> ~mu_R+    mu-)
     2.50327484E-02    2     1000015       -15   # BR(~chi_40 -> ~tau_1-   tau+)
     2.50327484E-02    2    -1000015        15   # BR(~chi_40 -> ~tau_1+   tau-)
     4.11107417E-02    2     1000012       -12   # BR(~chi_40 -> ~nu_eL    nu_eb)
     4.11107417E-02    2    -1000012        12   # BR(~chi_40 -> ~nu_eL*   nu_e )
     4.11107417E-02    2     1000014       -14   # BR(~chi_40 -> ~nu_muL   nu_mub)
     4.11107417E-02    2    -1000014        14   # BR(~chi_40 -> ~nu_muL*  nu_mu )
     2.50942066E-02    2     1000016       -16   # BR(~chi_40 -> ~nu_tau1  nu_taub)
     2.50942066E-02    2    -1000016        16   # BR(~chi_40 -> ~nu_tau1* nu_tau )
#
#         PDG            Width
DECAY        25     3.88680165E-03   # h decays
#          BR         NDA      ID1       ID2
     5.76298455E-01    2           5        -5   # BR(h -> b       bb     )
     6.69734509E-02    2         -15        15   # BR(h -> tau+    tau-   )
     2.37055381E-04    2         -13        13   # BR(h -> mu+     mu-    )
     2.58738890E-04    2           3        -3   # BR(h -> s       sb     )
     2.23372511E-02    2           4        -4   # BR(h -> c       cb     )
     8.26055958E-02    2          21        21   # BR(h -> g       g      )
     2.43505973E-03    2          22        22   # BR(h -> gam     gam    )
     1.63146549E-03    2          22        23   # BR(h -> Z       gam    )
     2.19676359E-01    2          24       -24   # BR(h -> W+      W-     )
     2.75465687E-02    2          23        23   # BR(h -> Z       Z      )
#
#         PDG            Width
DECAY        35     1.15777422E+02   # H decays
#          BR         NDA      ID1       ID2
     4.80996294E-01    2           5        -5   # BR(H -> b       bb     )
     8.19040068E-02    2         -15        15   # BR(H -> tau+    tau-   )
     2.86865854E-04    2         -13        13   # BR(H -> mu+     mu-    )
     1.91324555E-04    2           3        -3   # BR(H -> s       sb     )
     7.40146259E-09    2           4        -4   # BR(H -> c       cb     )
     7.27982093E-04    2           6        -6   # BR(H -> t       tb     )
     5.33997676E-06    2          21        21   # BR(H -> g       g      )
     1.47027003E-09    2          22        22   # BR(H -> gam     gam    )
     3.91222869E-09    2          23        22   # BR(H -> Z       gam    )
     3.21556164E-07    2          24       -24   # BR(H -> W+      W-     )
     1.60437226E-07    2          23        23   # BR(H -> Z       Z      )
     1.11959510E-06    2          25        25   # BR(H -> h       h      )
     2.49611205E-04    2     1000024  -1000024   # BR(H -> ~chi_1+ ~chi_1-)
     3.21649492E-05    2     1000022   1000022   # BR(H -> ~chi_10 ~chi_10)
     9.85935958E-07    2     1000023   1000023   # BR(H -> ~chi_20 ~chi_20)
     1.31535555E-05    2     1000025   1000025   # BR(H -> ~chi_30 ~chi_30)
     9.44799203E-06    2     1000022   1000023   # BR(H -> ~chi_10 ~chi_20)
     1.52832920E-02    2     1000022   1000025   # BR(H -> ~chi_10 ~chi_30)
     1.43599113E-02    2     1000023   1000025   # BR(H -> ~chi_20 ~chi_30)
     7.43267127E-05    2     1000005  -1000005   # BR(H -> ~b_1    ~b_1*  )
     2.02931663E-01    2     1000005  -2000005   # BR(H -> ~b_1    ~b_2*  )
     2.02931663E-01    2     2000005  -1000005   # BR(H -> ~b_2    ~b_1*  )
     4.15618321E-08    2     1000011  -1000011   # BR(H -> ~e_L-   ~e_L+  )
     4.15618321E-08    2     1000013  -1000013   # BR(H -> ~mu_L-  ~mu_L+ )
     1.35271557E-07    2     1000012  -1000012   # BR(H -> ~nu_eL  ~nu_eL*   )
     1.35271557E-07    2     1000014  -1000014   # BR(H -> ~nu_muL ~nu_muL*  )
#
#         PDG            Width
DECAY        36     1.15785406E+02   # A decays
#          BR         NDA      ID1       ID2
     4.80969725E-01    2           5        -5   # BR(A -> b       bb     )
     8.18985688E-02    2         -15        15   # BR(A -> tau+    tau-   )
     2.86846441E-04    2         -13        13   # BR(A -> mu+     mu-    )
     1.91320637E-04    2           3        -3   # BR(A -> s       sb     )
     7.43397508E-09    2           4        -4   # BR(A -> c       cb     )
     7.30290912E-04    2           6        -6   # BR(A -> t       tb     )
     1.45094950E-05    2          21        21   # BR(A -> g       g      )
     1.37002747E-08    2          22        22   # BR(A -> gam     gam    )
     1.06162923E-08    2          23        22   # BR(A -> Z       gam    )
     3.25843668E-07    2          23        25   # BR(A -> Z       h      )
     2.53941408E-04    2     1000024  -1000024   # BR(A -> ~chi_1+ ~chi_1-)
     2.92979956E-05    2     1000022   1000022   # BR(A -> ~chi_10 ~chi_10)
     1.10449602E-06    2     1000023   1000023   # BR(A -> ~chi_20 ~chi_20)
     9.74238528E-06    2     1000025   1000025   # BR(A -> ~chi_30 ~chi_30)
     1.08770584E-05    2     1000022   1000023   # BR(A -> ~chi_10 ~chi_20)
     1.44055645E-02    2     1000022   1000025   # BR(A -> ~chi_10 ~chi_30)
     1.52413672E-02    2     1000023   1000025   # BR(A -> ~chi_20 ~chi_30)
     2.02978243E-01    2     1000005  -2000005   # BR(A -> ~b_1    ~b_2*  )
     2.02978243E-01    2    -1000005   2000005   # BR(A -> ~b_1*   ~b_2   )
#
#         PDG            Width
DECAY        37     2.18862864E+02   # H+ decays
#          BR         NDA      ID1       ID2
     4.55521287E-04    2           4        -5   # BR(H+ -> c       bb     )
     4.33486324E-02    2         -15        16   # BR(H+ -> tau+    nu_tau )
     1.51826840E-04    2         -13        14   # BR(H+ -> mu+     nu_mu  )
     4.55520786E-06    2           2        -5   # BR(H+ -> u       bb     )
     5.06434822E-06    2           2        -3   # BR(H+ -> u       sb     )
     9.96855203E-05    2           4        -3   # BR(H+ -> c       sb     )
     2.71014377E-01    2           6        -5   # BR(H+ -> t       bb     )
     1.72740940E-07    2          24        25   # BR(H+ -> W+      h      )
     5.57580376E-14    2          24        36   # BR(H+ -> W+      A      )
     1.47886359E-04    2     1000024   1000022   # BR(H+ -> ~chi_1+ ~chi_10)
     7.93631180E-05    2     1000024   1000023   # BR(H+ -> ~chi_1+ ~chi_20)
     1.55425690E-02    2     1000024   1000025   # BR(H+ -> ~chi_1+ ~chi_30)
     8.61847072E-08    2    -1000011   1000012   # BR(H+ -> ~e_L+   ~nu_eL )
     8.61847072E-08    2    -1000013   1000014   # BR(H+ -> ~mu_L+  ~nu_muL)
     6.69150174E-01    2     1000006  -1000005   # BR(H+ -> ~t_1    ~b_1*  )
