#
#                              ======================
#                              | THE SUSYHIT OUTPUT |
#                              ======================
#
#
#              ------------------------------------------------------
#              |     This is the output of the SUSY-HIT package     |
#              |  created by A.Djouadi, M.Muehlleitner and M.Spira. |
#              |  In case of problems with SUSY-HIT email to        |
#              |           margarete.muehlleitner@cern.ch           |
#              |           michael.spira@psi.ch                     |
#              |           abdelhak.djouadi@cern.ch                 |
#              ------------------------------------------------------
#
#              ------------------------------------------------------
#              |  SUSY Les Houches Accord - MSSM Spectrum + Decays  |
#              |              based on the decay programs           |
#              |                                                    |
#              |                     SDECAY 1.3b                    |
#              |                                                    |
#              |  Authors: M.Muhlleitner, A.Djouadi and Y.Mambrini  |
#              |  Ref.:    Comput.Phys.Commun.168(2005)46           |
#              |           [hep-ph/0311167]                         |
#              |                                                    |
#              |                     HDECAY 3.4                     |
#              |                                                    |
#              |  By: A.Djouadi,J.Kalinowski,M.Muhlleitner,M.Spira  |
#              |  Ref.:    Comput.Phys.Commun.108(1998)56           |
#              |           [hep-ph/9704448]                         |
#              |                                                    |
#              |                                                    |
#              |  If not stated otherwise all DRbar couplings and   |
#              |  soft SUSY breaking masses are given at the scale  |
#              |  Q=  0.33017890E+04
#              |                                                    |
#              ------------------------------------------------------
#
#
BLOCK DCINFO  # Decay Program information
     1   SDECAY/HDECAY # decay calculator
     2   1.3b  /3.4    # version number
#
BLOCK SPINFO  # Spectrum calculator information
     1     SOFTSUSY    # spectrum calculator               
     2     3.4.0       # version number                    
#
BLOCK MODSEL  # Model selection
     1     0   #  nonUniversal                                     
#
BLOCK SMINPUTS  # Standard Model inputs
         1     1.27908970E+02   # alpha_em^-1(M_Z)^MSbar
         2     1.16637870E-05   # G_F [GeV^-2]
         3     1.18400000E-01   # alpha_S(M_Z)^MSbar
         4     9.11876000E+01   # M_Z pole mass
         5     4.18000000E+00   # mb(mb)^MSbar
         6     1.73200000E+02   # mt pole mass
         7     1.77700000E+00   # mtau pole mass
#
BLOCK MINPAR  # Input parameters - minimal models
         3     4.08900000E+01   # tanb                
#
BLOCK EXTPAR  # Input parameters - non-minimal models
         0    -1.00000000E+00   # Set                 
         1    -7.35080000E+02   # M_1(MX)             
         2    -3.73363000E+03   # M_2(MX)             
         3     6.20160000E+02   # M_3(MX)             
        11     3.32687000E+03   # At(MX)              
        12    -2.44397000E+03   # Ab(MX)              
        13    -2.61703000E+03   # Atau(MX)            
        23     2.76067000E+03   # mu(MX)              
        26     3.44770000E+03   # mA(pole)            
        31     1.58753000E+03   # meL(MX)             
        32     1.58753000E+03   # mmuL(MX)            
        33     1.44668000E+03   # mtauL(MX)           
        34     1.68257000E+03   # meR(MX)             
        35     1.68257000E+03   # mmuR(MX)            
        36     2.47896000E+03   # mtauR(MX)           
        41     2.81126000E+03   # mqL1(MX)            
        42     2.81126000E+03   # mqL2(MX)            
        43     3.58483000E+03   # mqL3(MX)            
        44     1.73813000E+03   # muR(MX)             
        45     1.73813000E+03   # mcR(MX)             
        46     3.03868000E+03   # mtR(MX)             
        47     3.90114000E+03   # mdR(MX)             
        48     3.90114000E+03   # msR(MX)             
        49     2.29382000E+03   # mbR(MX)             
#
BLOCK MASS  # Mass Spectrum
# PDG code           mass       particle
        24     8.04066604E+01   # W+
        25     1.24427450E+02   # h
        35     3.44769964E+03   # H
        36     3.44769994E+03   # A
        37     3.44842878E+03   # H+
         5     4.81876030E+00   # b-quark pole mass calculated from mb(mb)_Msbar
   1000001     2.86857821E+03   # ~d_L
   2000001     3.93749262E+03   # ~d_R
   1000002     2.86761931E+03   # ~u_L
   2000002     1.76525902E+03   # ~u_R
   1000003     2.86857821E+03   # ~s_L
   2000003     3.93749262E+03   # ~s_R
   1000004     2.86761931E+03   # ~c_L
   2000004     1.76525902E+03   # ~c_R
   1000005     2.31206249E+03   # ~b_1
   2000005     3.61335006E+03   # ~b_2
   1000006     3.03916375E+03   # ~t_1
   2000006     3.62222113E+03   # ~t_2
   1000011     1.62640556E+03   # ~e_L
   2000011     1.68436980E+03   # ~e_R
   1000012     1.62418543E+03   # ~nu_eL
   1000013     1.62640556E+03   # ~mu_L
   2000013     1.68436980E+03   # ~mu_R
   1000014     1.62418543E+03   # ~nu_muL
   1000015     1.47945345E+03   # ~tau_1
   2000015     2.47069777E+03   # ~tau_2
   1000016     1.47994637E+03   # ~nu_tauL
   1000021     7.87412859E+02   # ~g
   1000022    -7.25256674E+02   # ~chi_10
   1000023    -2.80643727E+03   # ~chi_20
   1000025     2.81019597E+03   # ~chi_30
   1000035    -3.70312076E+03   # ~chi_40
   1000024     2.80683426E+03   # ~chi_1+
   1000037     3.70328601E+03   # ~chi_2+
#
BLOCK NMIX  # Neutralino Mixing Matrix
  1  1     9.99848110E-01   # N_11
  1  2    -9.63538839E-05   # N_12
  1  3     1.69509931E-02   # N_13
  1  4     4.05114052E-03   # N_14
  2  1    -1.48360175E-02   # N_21
  2  2    -5.88022188E-02   # N_22
  2  3     7.06168238E-01   # N_23
  2  4     7.05442138E-01   # N_24
  3  1     9.11929443E-03   # N_31
  3  2    -8.61248683E-03   # N_32
  3  3    -7.06950373E-01   # N_33
  3  4     7.07151917E-01   # N_34
  4  1    -6.98746731E-04   # N_41
  4  2     9.98232495E-01   # N_42
  4  3     3.55000382E-02   # N_43
  4  4     4.76565230E-02   # N_44
#
BLOCK UMIX  # Chargino Mixing Matrix U
  1  1    -5.10910175E-02   # U_11
  1  2     9.98694001E-01   # U_12
  2  1    -9.98694001E-01   # U_21
  2  2    -5.10910175E-02   # U_22
#
BLOCK VMIX  # Chargino Mixing Matrix V
  1  1     6.83447208E-02   # V_11
  1  2     9.97661766E-01   # V_12
  2  1     9.97661766E-01   # V_21
  2  2    -6.83447208E-02   # V_22
#
BLOCK STOPMIX  # Stop Mixing Matrix
  1  1    -1.17017564E-01   # cos(theta_t)
  1  2     9.93129845E-01   # sin(theta_t)
  2  1    -9.93129845E-01   # -sin(theta_t)
  2  2    -1.17017564E-01   # cos(theta_t)
#
BLOCK SBOTMIX  # Sbottom Mixing Matrix
  1  1     2.56827333E-02   # cos(theta_b)
  1  2     9.99670144E-01   # sin(theta_b)
  2  1    -9.99670144E-01   # -sin(theta_b)
  2  2     2.56827333E-02   # cos(theta_b)
#
BLOCK STAUMIX  # Stau Mixing Matrix
  1  1     9.98936302E-01   # cos(theta_tau)
  1  2     4.61114362E-02   # sin(theta_tau)
  2  1    -4.61114362E-02   # -sin(theta_tau)
  2  2     9.98936302E-01   # cos(theta_tau)
#
BLOCK ALPHA  # Higgs mixing
          -2.53838603E-02   # Mixing angle in the neutral Higgs boson sector
#
BLOCK HMIX Q=  3.30178900E+03  # DRbar Higgs Parameters
         1     2.80331673E+03   # mu(Q)MSSM           
         2     3.94957981E+01   # tan                 
         3     2.43016957E+02   # higgs               
         4     1.08537162E+07   # mA^2(Q)MSSM         
#
BLOCK GAUGE Q=  3.30178900E+03  # The gauge couplings
     1     3.65316143E-01   # gprime(Q) DRbar
     2     6.34760808E-01   # g(Q) DRbar
     3     1.03064902E+00   # g3(Q) DRbar
#
BLOCK AU Q=  3.30178900E+03  # The trilinear couplings
  1  1     0.00000000E+00   # A_u(Q) DRbar
  2  2     0.00000000E+00   # A_c(Q) DRbar
  3  3     3.32687000E+03   # A_t(Q) DRbar
#
BLOCK AD Q=  3.30178900E+03  # The trilinear couplings
  1  1     0.00000000E+00   # A_d(Q) DRbar
  2  2     0.00000000E+00   # A_s(Q) DRbar
  3  3    -2.44397000E+03   # A_b(Q) DRbar
#
BLOCK AE Q=  3.30178900E+03  # The trilinear couplings
  1  1     0.00000000E+00   # A_e(Q) DRbar
  2  2     0.00000000E+00   # A_mu(Q) DRbar
  3  3    -2.61703000E+03   # A_tau(Q) DRbar
#
BLOCK Yu Q=  3.30178900E+03  # The Yukawa couplings
  1  1     0.00000000E+00   # y_u(Q) DRbar
  2  2     0.00000000E+00   # y_c(Q) DRbar
  3  3     8.23282169E-01   # y_t(Q) DRbar
#
BLOCK Yd Q=  3.30178900E+03  # The Yukawa couplings
  1  1     0.00000000E+00   # y_d(Q) DRbar
  2  2     0.00000000E+00   # y_s(Q) DRbar
  3  3     4.02930240E-01   # y_b(Q) DRbar
#
BLOCK Ye Q=  3.30178900E+03  # The Yukawa couplings
  1  1     0.00000000E+00   # y_e(Q) DRbar
  2  2     0.00000000E+00   # y_mu(Q) DRbar
  3  3     3.67685234E-01   # y_tau(Q) DRbar
#
BLOCK MSOFT Q=  3.30178900E+03  # The soft SUSY breaking masses at the scale Q
         1    -7.35080000E+02   # M_1(Q)              
         2    -3.73363000E+03   # M_2(Q)              
         3     6.20160000E+02   # M_3(Q)              
        21     3.96937506E+06   # mH1^2(Q)            
        22    -7.65702776E+06   # mH2^2(Q)            
        31     1.58753000E+03   # meL(Q)              
        32     1.58753000E+03   # mmuL(Q)             
        33     1.44668000E+03   # mtauL(Q)            
        34     1.68257000E+03   # meR(Q)              
        35     1.68257000E+03   # mmuR(Q)             
        36     2.47896000E+03   # mtauR(Q)            
        41     2.81126000E+03   # mqL1(Q)             
        42     2.81126000E+03   # mqL2(Q)             
        43     3.58483000E+03   # mqL3(Q)             
        44     1.73813000E+03   # muR(Q)              
        45     1.73813000E+03   # mcR(Q)              
        46     3.03868000E+03   # mtR(Q)              
        47     3.90114000E+03   # mdR(Q)              
        48     3.90114000E+03   # msR(Q)              
        49     2.29382000E+03   # mbR(Q)              
#
Block HiggsBoundsInputHiggsCouplingsFermions
# ScalarNormEffCoupSq PseudoSNormEffCoupSq NP   IP1 IP2 IP2
    1.00554652E+00    0.00000000E+00        3  25   5   5  # h0-b-b eff. coupling^2, normalised to SM
    1.55991252E+03    0.00000000E+00        3  35   5   5  # H0-b-b eff. coupling^2, normalised to SM
    0.00000000E+00    1.55991807E+03        3  36   5   5  # A0-b-b eff. coupling^2, normalised to SM
#
    9.99996444E-01    0.00000000E+00        3  25   6   6  # h0-t-t eff. coupling^2, normalised to SM
    6.44614956E-04    0.00000000E+00        3  35   6   6  # H0-t-t eff. coupling^2, normalised to SM
    0.00000000E+00    6.41059310E-04        3  36   6   6  # A0-t-t eff. coupling^2, normalised to SM
#
    1.00554652E+00    0.00000000E+00        3  25  15  15  # h0-tau-tau eff. coupling^2, normalised to SM
    1.55991252E+03    0.00000000E+00        3  35  15  15  # H0-tau-tau eff. coupling^2, normalised to SM
    0.00000000E+00    1.55991807E+03        3  36  15  15  # A0-tau-tau eff. coupling^2, normalised to SM
#
Block HiggsBoundsInputHiggsCouplingsBosons
    9.99999995E-01        3  25  24  24  # h0-W-W eff. coupling^2, normalised to SM
    4.91674454E-09        3  35  24  24  # H0-W-W eff. coupling^2, normalised to SM
    0.00000000E+00        3  36  24  24  # A0-W-W eff. coupling^2, normalised to SM
#
    9.99999995E-01        3  25  23  23  # h0-Z-Z eff. coupling^2, normalised to SM
    4.91674454E-09        3  35  23  23  # H0-Z-Z eff. coupling^2, normalised to SM
    0.00000000E+00        3  36  23  23  # A0-Z-Z eff. coupling^2, normalised to SM
#
    8.88844967E-01        3  25  21  21  # h0-g-g eff. coupling^2, normalised to SM
    2.35225630E-13        3  35  21  21  # H0-g-g eff. coupling^2, normalised to SM
    1.11003422E-12        3  36  21  21  # A0-g-g eff. coupling^2, normalised to SM
#
    0.00000000E+00        3  25  25  23  # h0-h0-Z eff. coupling^2, normalised to SM
    0.00000000E+00        3  35  25  23  # H0-h0-Z eff. coupling^2, normalised to SM
    4.91674454E-09        3  36  25  23  # A0-h0-Z eff. coupling^2, normalised to SM
    0.00000000E+00        3  35  35  23  # H0-H0-Z eff. coupling^2, normalised to SM
    9.99999995E-01        3  36  35  23  # A0-H0-Z eff. coupling^2, normalised to SM
    0.00000000E+00        3  36  36  23  # A0-A0-Z eff. coupling^2, normalised to SM
#
    0.00000000E+00        4  25  21  21  23  # h0-g-g-Z eff. coupling^2, normalised to SM
    0.00000000E+00        4  35  21  21  23  # H0-g-g-Z eff. coupling^2, normalised to SM
    0.00000000E+00        4  36  21  21  23  # A0-g-g-Z eff. coupling^2, normalised to SM
#
#
#
#                             =================
#                             |The decay table|
#                             =================
#
# - The QCD corrections to the decays gluino -> squark  + quark
#                                     squark -> gaugino + quark_prime
#                                     squark -> squark_prime + Higgs
#                                     squark -> gluino  + quark
#   are included.
#
# - The multi-body decays for the inos, stops and sbottoms are included.
#
# - The loop induced decays for the gluino, neutralinos and stops
#   are included.
#
# - The SUSY decays of the top quark are included.
#
#
#         PDG            Width
DECAY         6     1.41829094E+00   # top decays
#          BR         NDA      ID1       ID2
     1.00000000E+00    2           5        24   # BR(t ->  b    W+)
#
#         PDG            Width
DECAY   1000021     9.29974529E-09   # gluino decays
#          BR         NDA      ID1       ID2
     7.55358074E-01    2     1000022        21   # BR(~g -> ~chi_10 g)
#           BR         NDA      ID1       ID2       ID3
     1.63911630E-03    3     1000022         1        -1   # BR(~g -> ~chi_10 d  db)
     1.16610235E-01    3     1000022         2        -2   # BR(~g -> ~chi_10 u  ub)
     1.63911630E-03    3     1000022         3        -3   # BR(~g -> ~chi_10 s  sb)
     1.16610235E-01    3     1000022         4        -4   # BR(~g -> ~chi_10 c  cb)
     8.14322305E-03    3     1000022         5        -5   # BR(~g -> ~chi_10 b  bb)
#
#         PDG            Width
DECAY   1000006     1.54579122E+02   # stop1 decays
#          BR         NDA      ID1       ID2
     4.05459321E-02    2     1000022         6   # BR(~t_1 -> ~chi_10 t )
     1.59047368E-03    2     1000023         6   # BR(~t_1 -> ~chi_20 t )
     2.10818353E-03    2     1000025         6   # BR(~t_1 -> ~chi_30 t )
     5.72825184E-03    2     1000024         5   # BR(~t_1 -> ~chi_1+ b )
     9.49952567E-01    2     1000021         6   # BR(~t_1 -> ~g      t )
     7.45915512E-05    2     1000005        24   # BR(~t_1 -> ~b_1    W+)
#
#         PDG            Width
DECAY   2000006     2.09676823E+02   # stop2 decays
#          BR         NDA      ID1       ID2
     2.71335699E-03    2     1000022         6   # BR(~t_2 -> ~chi_10 t )
     1.83314321E-02    2     1000023         6   # BR(~t_2 -> ~chi_20 t )
     1.71370133E-02    2     1000025         6   # BR(~t_2 -> ~chi_30 t )
     8.90428153E-03    2     1000024         5   # BR(~t_2 -> ~chi_1+ b )
     8.83708545E-01    2     1000021         6   # BR(~t_2 -> ~g      t )
     2.57566307E-02    2     1000006        25   # BR(~t_2 -> ~t_1    h )
     2.45403652E-02    2     1000006        23   # BR(~t_2 -> ~t_1    Z )
     1.89083754E-02    2     1000005        24   # BR(~t_2 -> ~b_1    W+)
#
#         PDG            Width
DECAY   1000005     1.02941756E+02   # sbottom1 decays
#          BR         NDA      ID1       ID2
     1.08147081E-02    2     1000022         5   # BR(~b_1 -> ~chi_10 b )
     9.89185292E-01    2     1000021         5   # BR(~b_1 -> ~g      b )
#
#         PDG            Width
DECAY   2000005     2.08300735E+02   # sbottom2 decays
#          BR         NDA      ID1       ID2
     2.34907046E-03    2     1000022         5   # BR(~b_2 -> ~chi_10 b )
     4.41736058E-03    2     1000023         5   # BR(~b_2 -> ~chi_20 b )
     4.38003802E-03    2     1000025         5   # BR(~b_2 -> ~chi_30 b )
     3.51848455E-02    2    -1000024         6   # BR(~b_2 -> ~chi_1- t )
     8.86880687E-01    2     1000021         5   # BR(~b_2 -> ~g      b )
     1.03057471E-02    2     1000005        25   # BR(~b_2 -> ~b_1    h )
     9.78945291E-03    2     1000005        23   # BR(~b_2 -> ~b_1    Z )
     4.66927990E-02    2     1000006       -24   # BR(~b_2 -> ~t_1    W-)
#
#         PDG            Width
DECAY   1000002     1.75645669E+02   # sup_L decays
#          BR         NDA      ID1       ID2
     2.04385037E-03    2     1000022         2   # BR(~u_L -> ~chi_10 u)
     4.73123029E-07    2     1000023         2   # BR(~u_L -> ~chi_20 u)
     5.18673956E-09    2     1000025         2   # BR(~u_L -> ~chi_30 u)
     1.14842625E-06    2     1000024         1   # BR(~u_L -> ~chi_1+ d)
     9.97954523E-01    2     1000021         2   # BR(~u_L -> ~g      u)
#
#         PDG            Width
DECAY   2000002     8.37746407E+01   # sup_R decays
#          BR         NDA      ID1       ID2
     3.32580442E-02    2     1000022         2   # BR(~u_R -> ~chi_10 u)
     9.66741956E-01    2     1000021         2   # BR(~u_R -> ~g      u)
#
#         PDG            Width
DECAY   1000001     1.75724178E+02   # sdown_L decays
#          BR         NDA      ID1       ID2
     2.04791991E-03    2     1000022         1   # BR(~d_L -> ~chi_10 d)
     4.01380876E-07    2     1000023         1   # BR(~d_L -> ~chi_20 d)
     1.21991141E-08    2     1000025         1   # BR(~d_L -> ~chi_30 d)
     6.60995555E-07    2    -1000024         2   # BR(~d_L -> ~chi_1- u)
     9.97951006E-01    2     1000021         1   # BR(~d_L -> ~g      d)
#
#         PDG            Width
DECAY   2000001     2.61574324E+02   # sdown_R decays
#          BR         NDA      ID1       ID2
     8.04342911E-03    2     1000022         1   # BR(~d_R -> ~chi_10 d)
     4.61342246E-07    2     1000023         1   # BR(~d_R -> ~chi_20 d)
     1.73350865E-07    2     1000025         1   # BR(~d_R -> ~chi_30 d)
     5.90588740E-11    2     1000035         1   # BR(~d_R -> ~chi_40 d)
     9.91955936E-01    2     1000021         1   # BR(~d_R -> ~g      d)
#
#         PDG            Width
DECAY   1000004     1.38520397E+02   # scharm_L decays
#          BR         NDA      ID1       ID2
     2.67189194E-03    2     1000022         4   # BR(~c_L -> ~chi_10 c)
     5.61782883E-07    2     1000023         4   # BR(~c_L -> ~chi_20 c)
     6.14106315E-09    2     1000025         4   # BR(~c_L -> ~chi_30 c)
     1.36368520E-06    2     1000024         3   # BR(~c_L -> ~chi_1+ s)
     9.97326176E-01    2     1000021         4   # BR(~c_L -> ~g      c)
#
#         PDG            Width
DECAY   2000004     6.67075317E+01   # scharm_R decays
#          BR         NDA      ID1       ID2
     4.31350018E-02    2     1000022         4   # BR(~c_R -> ~chi_10 c)
     9.56864998E-01    2     1000021         4   # BR(~c_R -> ~g      c)
#
#         PDG            Width
DECAY   1000003     1.38582572E+02   # sstrange_L decays
#          BR         NDA      ID1       ID2
     2.67720629E-03    2     1000022         3   # BR(~s_L -> ~chi_10 s)
     4.77085352E-07    2     1000023         3   # BR(~s_L -> ~chi_20 s)
     1.44598337E-08    2     1000025         3   # BR(~s_L -> ~chi_30 s)
     7.85178774E-07    2    -1000024         4   # BR(~s_L -> ~chi_1- c)
     9.97321517E-01    2     1000021         3   # BR(~s_L -> ~g      s)
#
#         PDG            Width
DECAY   2000003     2.06666394E+02   # sstrange_R decays
#          BR         NDA      ID1       ID2
     1.04880151E-02    2     1000022         3   # BR(~s_R -> ~chi_10 s)
     5.98900565E-07    2     1000023         3   # BR(~s_R -> ~chi_20 s)
     2.25027300E-07    2     1000025         3   # BR(~s_R -> ~chi_30 s)
     7.32205858E-11    2     1000035         3   # BR(~s_R -> ~chi_40 s)
     9.89511161E-01    2     1000021         3   # BR(~s_R -> ~g      s)
#
#         PDG            Width
DECAY   1000011     1.38489523E+00   # selectron_L decays
#          BR         NDA      ID1       ID2
     1.00000000E+00    2     1000022        11   # BR(~e_L -> ~chi_10 e-)
#
#         PDG            Width
DECAY   2000011     5.93325086E+00   # selectron_R decays
#          BR         NDA      ID1       ID2
     1.00000000E+00    2     1000022        11   # BR(~e_R -> ~chi_10 e-)
#
#         PDG            Width
DECAY   1000013     1.38489522E+00   # smuon_L decays
#          BR         NDA      ID1       ID2
     1.00000000E+00    2     1000022        13   # BR(~mu_L -> ~chi_10 mu-)
#
#         PDG            Width
DECAY   2000013     5.93325079E+00   # smuon_R decays
#          BR         NDA      ID1       ID2
     1.00000000E+00    2     1000022        13   # BR(~mu_R -> ~chi_10 mu-)
#
#         PDG            Width
DECAY   1000015     1.14273112E+00   # stau_1 decays
#          BR         NDA      ID1       ID2
     1.00000000E+00    2     1000022        15   # BR(~tau_1 -> ~chi_10  tau-)
#
#         PDG            Width
DECAY   2000015     2.16150141E+01   # stau_2 decays
#          BR         NDA      ID1       ID2
     5.05713958E-01    2     1000022        15   # BR(~tau_2 -> ~chi_10  tau-)
     2.39917658E-01    2     1000016       -24   # BR(~tau_2 -> ~nu_tauL W-)
     1.30703331E-01    2     1000015        25   # BR(~tau_2 -> ~tau_1   h)
     1.23665053E-01    2     1000015        23   # BR(~tau_2 -> ~tau_1   Z)
#
#         PDG            Width
DECAY   1000012     1.38205262E+00   # snu_eL decays
#          BR         NDA      ID1       ID2
     1.00000000E+00    2     1000022        12   # BR(~nu_eL -> ~chi_10 nu_e)
#
#         PDG            Width
DECAY   1000014     1.38205262E+00   # snu_muL decays
#          BR         NDA      ID1       ID2
     1.00000000E+00    2     1000022        14   # BR(~nu_muL -> ~chi_10 nu_mu)
#
#         PDG            Width
DECAY   1000016     1.13435095E+00   # snu_tauL decays
#          BR         NDA      ID1       ID2
     1.00000000E+00    2     1000022        16   # BR(~nu_tauL -> ~chi_10 nu_tau)
#
#         PDG            Width
DECAY   1000024     5.36295833E+00   # chargino1+ decays
#          BR         NDA      ID1       ID2
     2.58997768E-01    2    -1000005         6   # BR(~chi_1+ -> ~b_1*    t )
     4.33505437E-03    2     1000012       -11   # BR(~chi_1+ -> ~nu_eL   e+  )
     4.33505437E-03    2     1000014       -13   # BR(~chi_1+ -> ~nu_muL  mu+ )
     3.70882016E-01    2     1000016       -15   # BR(~chi_1+ -> ~nu_tau1 tau+)
     2.41588748E-03    2    -1000011        12   # BR(~chi_1+ -> ~e_L+    nu_e)
     2.41588748E-03    2    -1000013        14   # BR(~chi_1+ -> ~mu_L+   nu_mu)
     6.60683908E-03    2    -1000015        16   # BR(~chi_1+ -> ~tau_1+  nu_tau)
     3.52276011E-02    2    -2000015        16   # BR(~chi_1+ -> ~tau_2+  nu_tau)
     3.14783891E-01    2     1000022        24   # BR(~chi_1+ -> ~chi_10  W+)
#
#         PDG            Width
DECAY   1000037     1.04888221E+02   # chargino2+ decays
#          BR         NDA      ID1       ID2
     6.63429650E-02    2     1000002        -1   # BR(~chi_2+ -> ~u_L     db)
     6.63487753E-02    2    -1000001         2   # BR(~chi_2+ -> ~d_L*    u )
     6.63429591E-02    2     1000004        -3   # BR(~chi_2+ -> ~c_L     sb)
     6.63486805E-02    2    -1000003         4   # BR(~chi_2+ -> ~s_L*     c )
     3.80335193E-05    2     1000006        -5   # BR(~chi_2+ -> ~t_1     bb)
     8.00369568E-04    2     2000006        -5   # BR(~chi_2+ -> ~t_2     bb)
     8.77099324E-06    2    -1000005         6   # BR(~chi_2+ -> ~b_1*    t )
     9.18738237E-02    2     1000012       -11   # BR(~chi_2+ -> ~nu_eL   e+  )
     9.18738237E-02    2     1000014       -13   # BR(~chi_2+ -> ~nu_muL mu+ )
     9.95457803E-02    2     1000016       -15   # BR(~chi_2+ -> ~nu_tau1 tau+)
     9.19441087E-02    2    -1000011        12   # BR(~chi_2+ -> ~e_L+    nu_e)
     9.19441087E-02    2    -1000013        14   # BR(~chi_2+ -> ~mu_L+   nu_mu)
     9.91987798E-02    2    -1000015        16   # BR(~chi_2+ -> ~tau_1+  nu_tau)
     2.49118350E-04    2    -2000015        16   # BR(~chi_2+ -> ~tau_2+  nu_tau)
     4.27778369E-02    2     1000024        23   # BR(~chi_2+ -> ~chi_1+  Z )
     7.37525909E-05    2     1000022        24   # BR(~chi_2+ -> ~chi_10  W+)
     3.90831934E-02    2     1000023        24   # BR(~chi_2+ -> ~chi_20  W+)
     4.12161181E-02    2     1000025        24   # BR(~chi_2+ -> ~chi_30  W+)
     4.39890017E-02    2     1000024        25   # BR(~chi_2+ -> ~chi_1+  h )
#
#         PDG            Width
DECAY   1000022     0.00000000E+00   # neutralino1 decays
#
#         PDG            Width
DECAY   1000023     5.46523926E+00   # neutralino2 decays
#          BR         NDA      ID1       ID2
     8.77305870E-02    2     1000022        23   # BR(~chi_20 -> ~chi_10   Z )
     2.37301138E-01    2     1000022        25   # BR(~chi_20 -> ~chi_10   h )
     1.42116218E-04    2     2000002        -2   # BR(~chi_20 -> ~u_R      ub)
     1.42116218E-04    2    -2000002         2   # BR(~chi_20 -> ~u_R*     u )
     1.42116115E-04    2     2000004        -4   # BR(~chi_20 -> ~c_R      cb)
     1.42116115E-04    2    -2000004         4   # BR(~chi_20 -> ~c_R*     c )
     1.28543557E-01    2     1000005        -5   # BR(~chi_20 -> ~b_1      bb)
     1.28543557E-01    2    -1000005         5   # BR(~chi_20 -> ~b_1*     b )
     2.05835980E-03    2     1000011       -11   # BR(~chi_20 -> ~e_L-     e+)
     2.05835980E-03    2    -1000011        11   # BR(~chi_20 -> ~e_L+     e-)
     1.22832725E-04    2     2000011       -11   # BR(~chi_20 -> ~e_R-     e+)
     1.22832725E-04    2    -2000011        11   # BR(~chi_20 -> ~e_R+     e-)
     2.05835980E-03    2     1000013       -13   # BR(~chi_20 -> ~mu_L-    mu+)
     2.05835980E-03    2    -1000013        13   # BR(~chi_20 -> ~mu_L+    mu-)
     1.22832725E-04    2     2000013       -13   # BR(~chi_20 -> ~mu_R-    mu+)
     1.22832725E-04    2    -2000013        13   # BR(~chi_20 -> ~mu_R+    mu-)
     1.83322568E-01    2     1000015       -15   # BR(~chi_20 -> ~tau_1-   tau+)
     1.83322568E-01    2    -1000015        15   # BR(~chi_20 -> ~tau_1+   tau-)
     1.73165822E-02    2     2000015       -15   # BR(~chi_20 -> ~tau_2-   tau+)
     1.73165822E-02    2    -2000015        15   # BR(~chi_20 -> ~tau_2+   tau-)
     1.14994163E-03    2     1000012       -12   # BR(~chi_20 -> ~nu_eL    nu_eb)
     1.14994163E-03    2    -1000012        12   # BR(~chi_20 -> ~nu_eL*   nu_e )
     1.14994163E-03    2     1000014       -14   # BR(~chi_20 -> ~nu_muL   nu_mub)
     1.14994163E-03    2    -1000014        14   # BR(~chi_20 -> ~nu_muL*  nu_mu )
     1.35493010E-03    2     1000016       -16   # BR(~chi_20 -> ~nu_tau1  nu_taub)
     1.35493010E-03    2    -1000016        16   # BR(~chi_20 -> ~nu_tau1* nu_tau )
#
#         PDG            Width
DECAY   1000025     5.36458532E+00   # neutralino3 decays
#          BR         NDA      ID1       ID2
     2.37506928E-01    2     1000022        23   # BR(~chi_30 -> ~chi_10   Z )
     9.33315955E-02    2     1000022        25   # BR(~chi_30 -> ~chi_10   h )
     5.49658768E-05    2     2000002        -2   # BR(~chi_30 -> ~u_R      ub)
     5.49658768E-05    2    -2000002         2   # BR(~chi_30 -> ~u_R*     u )
     5.49658374E-05    2     2000004        -4   # BR(~chi_30 -> ~c_R      cb)
     5.49658374E-05    2    -2000004         4   # BR(~chi_30 -> ~c_R*     c )
     1.32319191E-01    2     1000005        -5   # BR(~chi_30 -> ~b_1      bb)
     1.32319191E-01    2    -1000005         5   # BR(~chi_30 -> ~b_1*     b )
     5.25473579E-06    2     1000011       -11   # BR(~chi_30 -> ~e_L-     e+)
     5.25473579E-06    2    -1000011        11   # BR(~chi_30 -> ~e_L+     e-)
     4.74856657E-05    2     2000011       -11   # BR(~chi_30 -> ~e_R-     e+)
     4.74856657E-05    2    -2000011        11   # BR(~chi_30 -> ~e_R+     e-)
     5.25473579E-06    2     1000013       -13   # BR(~chi_30 -> ~mu_L-    mu+)
     5.25473579E-06    2    -1000013        13   # BR(~chi_30 -> ~mu_L+    mu-)
     4.74856657E-05    2     2000013       -13   # BR(~chi_30 -> ~mu_R-    mu+)
     4.74856657E-05    2    -2000013        13   # BR(~chi_30 -> ~mu_R+    mu-)
     1.83583427E-01    2     1000015       -15   # BR(~chi_30 -> ~tau_1-   tau+)
     1.83583427E-01    2    -1000015        15   # BR(~chi_30 -> ~tau_1+   tau-)
     1.81784900E-02    2     2000015       -15   # BR(~chi_30 -> ~tau_2-   tau+)
     1.81784900E-02    2    -2000015        15   # BR(~chi_30 -> ~tau_2+   tau-)
     8.94467073E-05    2     1000012       -12   # BR(~chi_30 -> ~nu_eL    nu_eb)
     8.94467073E-05    2    -1000012        12   # BR(~chi_30 -> ~nu_eL*   nu_e )
     8.94467073E-05    2     1000014       -14   # BR(~chi_30 -> ~nu_muL   nu_mub)
     8.94467073E-05    2    -1000014        14   # BR(~chi_30 -> ~nu_muL*  nu_mu )
     1.05324850E-04    2     1000016       -16   # BR(~chi_30 -> ~nu_tau1  nu_taub)
     1.05324850E-04    2    -1000016        16   # BR(~chi_30 -> ~nu_tau1* nu_tau )
#
#         PDG            Width
DECAY   1000035     1.05281821E+02   # neutralino4 decays
#          BR         NDA      ID1       ID2
     2.30037328E-05    2     1000022        23   # BR(~chi_40 -> ~chi_10   Z )
     8.85551559E-04    2     1000023        23   # BR(~chi_40 -> ~chi_20   Z )
     4.01859269E-02    2     1000025        23   # BR(~chi_40 -> ~chi_30   Z )
     4.25809030E-02    2     1000024       -24   # BR(~chi_40 -> ~chi_1+   W-)
     4.25809030E-02    2    -1000024        24   # BR(~chi_40 -> ~chi_1-   W+)
     5.24506469E-05    2     1000022        25   # BR(~chi_40 -> ~chi_10   h )
     4.29322781E-02    2     1000023        25   # BR(~chi_40 -> ~chi_20   h )
     8.82631490E-04    2     1000025        25   # BR(~chi_40 -> ~chi_30   h )
     3.30661983E-02    2     1000002        -2   # BR(~chi_40 -> ~u_L      ub)
     3.30661983E-02    2    -1000002         2   # BR(~chi_40 -> ~u_L*     u )
     3.52185464E-08    2     2000002        -2   # BR(~chi_40 -> ~u_R      ub)
     3.52185464E-08    2    -2000002         2   # BR(~chi_40 -> ~u_R*     u )
     3.30184864E-02    2     1000001        -1   # BR(~chi_40 -> ~d_L      db)
     3.30184864E-02    2    -1000001         1   # BR(~chi_40 -> ~d_L*     d )
     3.30661512E-02    2     1000004        -4   # BR(~chi_40 -> ~c_L      cb)
     3.30661512E-02    2    -1000004         4   # BR(~chi_40 -> ~c_L*     c )
     3.52185413E-08    2     2000004        -4   # BR(~chi_40 -> ~c_R      cb)
     3.52185413E-08    2    -2000004         4   # BR(~chi_40 -> ~c_R*     c )
     3.30184864E-02    2     1000003        -3   # BR(~chi_40 -> ~s _L      sb)
     3.30184864E-02    2    -1000003         3   # BR(~chi_40 -> ~s _L*     s )
     1.81157515E-05    2     1000006        -6   # BR(~chi_40 -> ~t_1      tb)
     1.81157515E-05    2    -1000006         6   # BR(~chi_40 -> ~t_1*     t )
     3.06490882E-06    2     1000005        -5   # BR(~chi_40 -> ~b_1      bb)
     3.06490882E-06    2    -1000005         5   # BR(~chi_40 -> ~b_1*     b )
     4.85472369E-04    2     2000005        -5   # BR(~chi_40 -> ~b_2      bb)
     4.85472369E-04    2    -2000005         5   # BR(~chi_40 -> ~b_2*     b )
     4.57170164E-02    2     1000011       -11   # BR(~chi_40 -> ~e_L-     e+)
     4.57170164E-02    2    -1000011        11   # BR(~chi_40 -> ~e_L+     e-)
     2.86806491E-08    2     2000011       -11   # BR(~chi_40 -> ~e_R-     e+)
     2.86806491E-08    2    -2000011        11   # BR(~chi_40 -> ~e_R+     e-)
     4.57170164E-02    2     1000013       -13   # BR(~chi_40 -> ~mu_L-    mu+)
     4.57170164E-02    2    -1000013        13   # BR(~chi_40 -> ~mu_L+    mu-)
     2.86806491E-08    2     2000013       -13   # BR(~chi_40 -> ~mu_R-    mu+)
     2.86806491E-08    2    -2000013        13   # BR(~chi_40 -> ~mu_R+    mu-)
     4.93720721E-02    2     1000015       -15   # BR(~chi_40 -> ~tau_1-   tau+)
     4.93720721E-02    2    -1000015        15   # BR(~chi_40 -> ~tau_1+   tau-)
     1.22374796E-04    2     2000015       -15   # BR(~chi_40 -> ~tau_2-   tau+)
     1.22374796E-04    2    -2000015        15   # BR(~chi_40 -> ~tau_2+   tau-)
     4.58504791E-02    2     1000012       -12   # BR(~chi_40 -> ~nu_eL    nu_eb)
     4.58504791E-02    2    -1000012        12   # BR(~chi_40 -> ~nu_eL*   nu_e )
     4.58504791E-02    2     1000014       -14   # BR(~chi_40 -> ~nu_muL   nu_mub)
     4.58504791E-02    2    -1000014        14   # BR(~chi_40 -> ~nu_muL*  nu_mu )
     4.96326348E-02    2     1000016       -16   # BR(~chi_40 -> ~nu_tau1  nu_taub)
     4.96326348E-02    2    -1000016        16   # BR(~chi_40 -> ~nu_tau1* nu_tau )
#
#         PDG            Width
DECAY        25     4.41246428E-03   # h decays
#          BR         NDA      ID1       ID2
     6.45896544E-01    2           5        -5   # BR(h -> b       bb     )
     5.87298379E-02    2         -15        15   # BR(h -> tau+    tau-   )
     2.07888494E-04    2         -13        13   # BR(h -> mu+     mu-    )
     2.26860445E-04    2           3        -3   # BR(h -> s       sb     )
     1.95832312E-02    2           4        -4   # BR(h -> c       cb     )
     7.13357797E-02    2          21        21   # BR(h -> g       g      )
     2.09338163E-03    2          22        22   # BR(h -> gam     gam    )
     1.34521756E-03    2          22        23   # BR(h -> Z       gam    )
     1.78457713E-01    2          24       -24   # BR(h -> W+      W-     )
     2.21235469E-02    2          23        23   # BR(h -> Z       Z      )
#
#         PDG            Width
DECAY        35     6.29111814E+01   # H decays
#          BR         NDA      ID1       ID2
     7.78975041E-01    2           5        -5   # BR(H -> b       bb     )
     2.18277928E-01    2         -15        15   # BR(H -> tau+    tau-   )
     7.76761486E-04    2         -13        13   # BR(H -> mu+     mu-    )
     3.11706224E-04    2           3        -3   # BR(H -> s       sb     )
     1.42335998E-08    2           4        -4   # BR(H -> c       cb     )
     1.40252318E-03    2           6        -6   # BR(H -> t       tb     )
     1.19885159E-05    2          21        21   # BR(H -> g       g      )
     2.36002393E-09    2          22        22   # BR(H -> gam     gam    )
     7.24587998E-09    2          23        22   # BR(H -> Z       gam    )
     1.03025902E-06    2          24       -24   # BR(H -> W+      W-     )
     5.14149355E-07    2          23        23   # BR(H -> Z       Z      )
     3.22478785E-06    2          25        25   # BR(H -> h       h      )
     2.88796043E-05    2     1000022   1000022   # BR(H -> ~chi_10 ~chi_10)
     2.74311886E-08    2     1000011  -1000011   # BR(H -> ~e_L-   ~e_L+  )
     1.13177980E-08    2     2000011  -2000011   # BR(H -> ~e_R-   ~e_R+  )
     2.74311886E-08    2     1000013  -1000013   # BR(H -> ~mu_L-  ~mu_L+ )
     1.13177980E-08    2     2000013  -2000013   # BR(H -> ~mu_R-  ~mu_R+ )
     2.09983448E-04    2     1000015  -1000015   # BR(H -> ~tau_1- ~tau_1+)
     9.00199768E-08    2     1000012  -1000012   # BR(H -> ~nu_eL  ~nu_eL*   )
     9.00199768E-08    2     1000014  -1000014   # BR(H -> ~nu_muL ~nu_muL*  )
     1.37757512E-07    2     1000016  -1000016   # BR(H -> ~nu_tauL ~nu_tauL*)
#
#         PDG            Width
DECAY        36     6.29003608E+01   # A decays
#          BR         NDA      ID1       ID2
     7.79129424E-01    2           5        -5   # BR(A -> b       bb     )
     2.18316428E-01    2         -15        15   # BR(A -> tau+    tau-   )
     7.76897661E-04    2         -13        13   # BR(A -> mu+     mu-    )
     3.11775131E-04    2           3        -3   # BR(A -> s       sb     )
     1.42889091E-08    2           4        -4   # BR(A -> c       cb     )
     1.40407269E-03    2           6        -6   # BR(A -> t       tb     )
     2.60475060E-05    2          21        21   # BR(A -> g       g      )
     1.96661684E-08    2          22        22   # BR(A -> gam     gam    )
     1.97944529E-08    2          23        22   # BR(A -> Z       gam    )
     1.04492280E-06    2          23        25   # BR(A -> Z       h      )
     3.42565615E-05    2     1000022   1000022   # BR(A -> ~chi_10 ~chi_10)
#
#         PDG            Width
DECAY        37     5.31258570E+01   # H+ decays
#          BR         NDA      ID1       ID2
     1.24037652E-03    2           4        -5   # BR(H+ -> c       bb     )
     2.58538607E-01    2         -15        16   # BR(H+ -> tau+    nu_tau )
     9.20031721E-04    2         -13        14   # BR(H+ -> mu+     nu_mu  )
     1.24037539E-05    2           2        -5   # BR(H+ -> u       bb     )
     1.84706543E-05    2           2        -3   # BR(H+ -> u       sb     )
     3.63574792E-04    2           4        -3   # BR(H+ -> c       sb     )
     7.38773995E-01    2           6        -5   # BR(H+ -> t       bb     )
     1.23854419E-06    2          24        25   # BR(H+ -> W+      h      )
     5.09447670E-15    2          24        36   # BR(H+ -> W+      A      )
     1.28025381E-07    2    -1000011   1000012   # BR(H+ -> ~e_L+   ~nu_eL )
     1.28025381E-07    2    -1000013   1000014   # BR(H+ -> ~mu_L+  ~nu_muL)
     1.31045661E-04    2    -1000015   1000016   # BR(H+ -> ~tau_1+ ~nu_tauL)
