#
#                              ======================
#                              | THE SUSYHIT OUTPUT |
#                              ======================
#
#
#              ------------------------------------------------------
#              |     This is the output of the SUSY-HIT package     |
#              |  created by A.Djouadi, M.Muehlleitner and M.Spira. |
#              |  In case of problems with SUSY-HIT email to        |
#              |           margarete.muehlleitner@cern.ch           |
#              |           michael.spira@psi.ch                     |
#              |           abdelhak.djouadi@cern.ch                 |
#              ------------------------------------------------------
#
#              ------------------------------------------------------
#              |  SUSY Les Houches Accord - MSSM Spectrum + Decays  |
#              |              based on the decay programs           |
#              |                                                    |
#              |                     SDECAY 1.3b                    |
#              |                                                    |
#              |  Authors: M.Muhlleitner, A.Djouadi and Y.Mambrini  |
#              |  Ref.:    Comput.Phys.Commun.168(2005)46           |
#              |           [hep-ph/0311167]                         |
#              |                                                    |
#              |                     HDECAY 3.4                     |
#              |                                                    |
#              |  By: A.Djouadi,J.Kalinowski,M.Muhlleitner,M.Spira  |
#              |  Ref.:    Comput.Phys.Commun.108(1998)56           |
#              |           [hep-ph/9704448]                         |
#              |                                                    |
#              |                                                    |
#              |  If not stated otherwise all DRbar couplings and   |
#              |  soft SUSY breaking masses are given at the scale  |
#              |  Q=  0.95963950E+03
#              |                                                    |
#              ------------------------------------------------------
#
#
BLOCK DCINFO  # Decay Program information
     1   SDECAY/HDECAY # decay calculator
     2   1.3b  /3.4    # version number
#
BLOCK SPINFO  # Spectrum calculator information
     1     SOFTSUSY    # spectrum calculator               
     2     3.4.0       # version number                    
#
BLOCK MODSEL  # Model selection
     1     0   #  nonUniversal                                     
#
BLOCK SMINPUTS  # Standard Model inputs
         1     1.27908970E+02   # alpha_em^-1(M_Z)^MSbar
         2     1.16637870E-05   # G_F [GeV^-2]
         3     1.18400000E-01   # alpha_S(M_Z)^MSbar
         4     9.11876000E+01   # M_Z pole mass
         5     4.18000000E+00   # mb(mb)^MSbar
         6     1.73200000E+02   # mt pole mass
         7     1.77700000E+00   # mtau pole mass
#
BLOCK MINPAR  # Input parameters - minimal models
         3     5.78000000E+00   # tanb                
#
BLOCK EXTPAR  # Input parameters - non-minimal models
         0    -1.00000000E+00   # Set                 
         1    -3.30470000E+02   # M_1(MX)             
         2     3.21940000E+02   # M_2(MX)             
         3     1.60913000E+03   # M_3(MX)             
        11     2.66540000E+03   # At(MX)              
        12     3.64621000E+03   # Ab(MX)              
        13     3.87763000E+03   # Atau(MX)            
        23    -6.01170000E+02   # mu(MX)              
        26     3.62260000E+03   # mA(pole)            
        31     1.40722000E+03   # meL(MX)             
        32     1.40722000E+03   # mmuL(MX)            
        33     3.98997000E+03   # mtauL(MX)           
        34     3.26052000E+03   # meR(MX)             
        35     3.26052000E+03   # mmuR(MX)            
        36     1.49774000E+03   # mtauR(MX)           
        41     3.15653000E+03   # mqL1(MX)            
        42     3.15653000E+03   # mqL2(MX)            
        43     3.00860000E+02   # mqL3(MX)            
        44     1.48254000E+03   # muR(MX)             
        45     1.48254000E+03   # mcR(MX)             
        46     3.03691000E+03   # mtR(MX)             
        47     3.15606000E+03   # mdR(MX)             
        48     3.15606000E+03   # msR(MX)             
        49     3.39208000E+03   # mbR(MX)             
#
BLOCK MASS  # Mass Spectrum
# PDG code           mass       particle
        24     8.04093720E+01   # W+
        25     1.25326824E+02   # h
        35     3.62276061E+03   # H
        36     3.62259991E+03   # A
        37     3.62368492E+03   # H+
         5     4.81876030E+00   # b-quark pole mass calculated from mb(mb)_Msbar
   1000001     3.17640790E+03   # ~d_L
   2000001     3.17139120E+03   # ~d_R
   1000002     3.17559800E+03   # ~u_L
   2000002     1.50707446E+03   # ~u_R
   1000003     3.17640790E+03   # ~s_L
   2000003     3.17139120E+03   # ~s_R
   1000004     3.17559800E+03   # ~c_L
   2000004     1.50707446E+03   # ~c_R
   1000005     4.79422006E+02   # ~b_1
   2000005     3.40863136E+03   # ~b_2
   1000006     4.76595243E+02   # ~t_1
   2000006     3.06187165E+03   # ~t_2
   1000011     1.40591143E+03   # ~e_L
   2000011     3.26712169E+03   # ~e_R
   1000012     1.40346288E+03   # ~nu_eL
   1000013     1.40591143E+03   # ~mu_L
   2000013     3.26712169E+03   # ~mu_R
   1000014     1.40346288E+03   # ~nu_muL
   1000015     1.50904961E+03   # ~tau_1
   2000015     3.99643624E+03   # ~tau_2
   1000016     3.99535431E+03   # ~nu_tauL
   1000021     1.73590596E+03   # ~g
   1000022    -3.29265746E+02   # ~chi_10
   1000023     3.39572265E+02   # ~chi_20
   1000025    -6.21028834E+02   # ~chi_30
   1000035     6.21623142E+02   # ~chi_40
   1000024     3.39690915E+02   # ~chi_1+
   1000037     6.25670835E+02   # ~chi_2+
#
BLOCK NMIX  # Neutralino Mixing Matrix
  1  1     9.92489894E-01   # N_11
  1  2     1.03874980E-02   # N_12
  1  3    -1.01710001E-01   # N_13
  1  4     6.71638711E-02   # N_14
  2  1     2.18481462E-03   # N_21
  2  2     9.83517632E-01   # N_22
  2  3     1.67196884E-01   # N_23
  2  4     6.88004014E-02   # N_24
  3  1    -1.19770643E-01   # N_31
  3  2     6.95547780E-02   # N_32
  3  3    -6.97068898E-01   # N_33
  3  4     7.03499877E-01   # N_34
  4  1     2.47796181E-02   # N_41
  4  2    -1.66575207E-01   # N_42
  4  3     6.89779116E-01   # N_43
  4  4     7.04161517E-01   # N_44
#
BLOCK UMIX  # Chargino Mixing Matrix U
  1  1     9.72343083E-01   # U_11
  1  2     2.33557120E-01   # U_12
  2  1    -2.33557120E-01   # U_21
  2  2     9.72343083E-01   # U_22
#
BLOCK VMIX  # Chargino Mixing Matrix V
  1  1     9.95460606E-01   # V_11
  1  2    -9.51744845E-02   # V_12
  2  1    -9.51744845E-02   # V_21
  2  2    -9.95460606E-01   # V_22
#
BLOCK STOPMIX  # Stop Mixing Matrix
  1  1     9.98929819E-01   # cos(theta_t)
  1  2    -4.62516671E-02   # sin(theta_t)
  2  1     4.62516671E-02   # -sin(theta_t)
  2  2     9.98929819E-01   # cos(theta_t)
#
BLOCK SBOTMIX  # Sbottom Mixing Matrix
  1  1     9.99998922E-01   # cos(theta_b)
  1  2    -1.46833199E-03   # sin(theta_b)
  2  1     1.46833199E-03   # -sin(theta_b)
  2  2     9.99998922E-01   # cos(theta_b)
#
BLOCK STAUMIX  # Stau Mixing Matrix
  1  1    -9.36451220E-04   # cos(theta_tau)
  1  2     9.99999562E-01   # sin(theta_tau)
  2  1    -9.99999562E-01   # -sin(theta_tau)
  2  2    -9.36451220E-04   # cos(theta_tau)
#
BLOCK ALPHA  # Higgs mixing
          -1.77960962E-01   # Mixing angle in the neutral Higgs boson sector
#
BLOCK HMIX Q=  9.59639500E+02  # DRbar Higgs Parameters
         1    -6.07620200E+02   # mu(Q)MSSM           
         2     5.56922897E+00   # tan                 
         3     2.43490656E+02   # higgs               
         4     1.33890999E+07   # mA^2(Q)MSSM         
#
BLOCK GAUGE Q=  9.59639500E+02  # The gauge couplings
     1     3.61325974E-01   # gprime(Q) DRbar
     2     6.40659730E-01   # g(Q) DRbar
     3     1.04746548E+00   # g3(Q) DRbar
#
BLOCK AU Q=  9.59639500E+02  # The trilinear couplings
  1  1     0.00000000E+00   # A_u(Q) DRbar
  2  2     0.00000000E+00   # A_c(Q) DRbar
  3  3     2.66540000E+03   # A_t(Q) DRbar
#
BLOCK AD Q=  9.59639500E+02  # The trilinear couplings
  1  1     0.00000000E+00   # A_d(Q) DRbar
  2  2     0.00000000E+00   # A_s(Q) DRbar
  3  3     3.64621000E+03   # A_b(Q) DRbar
#
BLOCK AE Q=  9.59639500E+02  # The trilinear couplings
  1  1     0.00000000E+00   # A_e(Q) DRbar
  2  2     0.00000000E+00   # A_mu(Q) DRbar
  3  3     3.87763000E+03   # A_tau(Q) DRbar
#
BLOCK Yu Q=  9.59639500E+02  # The Yukawa couplings
  1  1     0.00000000E+00   # y_u(Q) DRbar
  2  2     0.00000000E+00   # y_c(Q) DRbar
  3  3     8.86343802E-01   # y_t(Q) DRbar
#
BLOCK Yd Q=  9.59639500E+02  # The Yukawa couplings
  1  1     0.00000000E+00   # y_d(Q) DRbar
  2  2     0.00000000E+00   # y_s(Q) DRbar
  3  3     8.09015143E-02   # y_b(Q) DRbar
#
BLOCK Ye Q=  9.59639500E+02  # The Yukawa couplings
  1  1     0.00000000E+00   # y_e(Q) DRbar
  2  2     0.00000000E+00   # y_mu(Q) DRbar
  3  3     5.78721160E-02   # y_tau(Q) DRbar
#
BLOCK MSOFT Q=  9.59639500E+02  # The soft SUSY breaking masses at the scale Q
         1    -3.30470000E+02   # M_1(Q)              
         2     3.21940000E+02   # M_2(Q)              
         3     1.60913000E+03   # M_3(Q)              
        21     1.23090169E+07   # mH1^2(Q)            
        22    -3.20436020E+05   # mH2^2(Q)            
        31     1.40722000E+03   # meL(Q)              
        32     1.40722000E+03   # mmuL(Q)             
        33     3.98997000E+03   # mtauL(Q)            
        34     3.26052000E+03   # meR(Q)              
        35     3.26052000E+03   # mmuR(Q)             
        36     1.49774000E+03   # mtauR(Q)            
        41     3.15653000E+03   # mqL1(Q)             
        42     3.15653000E+03   # mqL2(Q)             
        43     3.00859996E+02   # mqL3(Q)             
        44     1.48254000E+03   # muR(Q)              
        45     1.48254000E+03   # mcR(Q)              
        46     3.03691000E+03   # mtR(Q)              
        47     3.15606000E+03   # mdR(Q)              
        48     3.15606000E+03   # msR(Q)              
        49     3.39208000E+03   # mbR(Q)              
#
Block HiggsBoundsInputHiggsCouplingsFermions
# ScalarNormEffCoupSq PseudoSNormEffCoupSq NP   IP1 IP2 IP2
    1.00330093E+00    0.00000000E+00        3  25   5   5  # h0-b-b eff. coupling^2, normalised to SM
    3.10130104E+01    0.00000000E+00        3  35   5   5  # H0-b-b eff. coupling^2, normalised to SM
    0.00000000E+00    3.10163113E+01        3  36   5   5  # A0-b-b eff. coupling^2, normalised to SM
#
    9.99893574E-01    0.00000000E+00        3  25   6   6  # h0-t-t eff. coupling^2, normalised to SM
    3.23475259E-02    0.00000000E+00        3  35   6   6  # H0-t-t eff. coupling^2, normalised to SM
    0.00000000E+00    3.22411002E-02        3  36   6   6  # A0-t-t eff. coupling^2, normalised to SM
#
    1.00330093E+00    0.00000000E+00        3  25  15  15  # h0-tau-tau eff. coupling^2, normalised to SM
    3.10130104E+01    0.00000000E+00        3  35  15  15  # H0-tau-tau eff. coupling^2, normalised to SM
    0.00000000E+00    3.10163113E+01        3  36  15  15  # A0-tau-tau eff. coupling^2, normalised to SM
#
Block HiggsBoundsInputHiggsCouplingsBosons
    9.99999912E-01        3  25  24  24  # h0-W-W eff. coupling^2, normalised to SM
    8.76861448E-08        3  35  24  24  # H0-W-W eff. coupling^2, normalised to SM
    0.00000000E+00        3  36  24  24  # A0-W-W eff. coupling^2, normalised to SM
#
    9.99999912E-01        3  25  23  23  # h0-Z-Z eff. coupling^2, normalised to SM
    8.76861448E-08        3  35  23  23  # H0-Z-Z eff. coupling^2, normalised to SM
    0.00000000E+00        3  36  23  23  # A0-Z-Z eff. coupling^2, normalised to SM
#
    9.22277004E-01        3  25  21  21  # h0-g-g eff. coupling^2, normalised to SM
    1.33456707E-12        3  35  21  21  # H0-g-g eff. coupling^2, normalised to SM
    2.67131597E-12        3  36  21  21  # A0-g-g eff. coupling^2, normalised to SM
#
    0.00000000E+00        3  25  25  23  # h0-h0-Z eff. coupling^2, normalised to SM
    0.00000000E+00        3  35  25  23  # H0-h0-Z eff. coupling^2, normalised to SM
    8.76861448E-08        3  36  25  23  # A0-h0-Z eff. coupling^2, normalised to SM
    0.00000000E+00        3  35  35  23  # H0-H0-Z eff. coupling^2, normalised to SM
    9.99999912E-01        3  36  35  23  # A0-H0-Z eff. coupling^2, normalised to SM
    0.00000000E+00        3  36  36  23  # A0-A0-Z eff. coupling^2, normalised to SM
#
    0.00000000E+00        4  25  21  21  23  # h0-g-g-Z eff. coupling^2, normalised to SM
    0.00000000E+00        4  35  21  21  23  # H0-g-g-Z eff. coupling^2, normalised to SM
    0.00000000E+00        4  36  21  21  23  # A0-g-g-Z eff. coupling^2, normalised to SM
#
#
#
#                             =================
#                             |The decay table|
#                             =================
#
# - The QCD corrections to the decays gluino -> squark  + quark
#                                     squark -> gaugino + quark_prime
#                                     squark -> squark_prime + Higgs
#                                     squark -> gluino  + quark
#   are included.
#
# - The multi-body decays for the inos, stops and sbottoms are included.
#
# - The loop induced decays for the gluino, neutralinos and stops
#   are included.
#
# - The SUSY decays of the top quark are included.
#
#
#         PDG            Width
DECAY         6     1.44465255E+00   # top decays
#          BR         NDA      ID1       ID2
     1.00000000E+00    2           5        24   # BR(t ->  b    W+)
#
#         PDG            Width
DECAY   1000021     6.63845926E+01   # gluino decays
#          BR         NDA      ID1       ID2
     1.32887543E-02    2     2000002        -2   # BR(~g -> ~u_R  ub)
     1.32887543E-02    2    -2000002         2   # BR(~g -> ~u_R* u )
     1.32883888E-02    2     2000004        -4   # BR(~g -> ~c_R  cb)
     1.32883888E-02    2    -2000004         4   # BR(~g -> ~c_R* c )
     2.34581835E-01    2     1000005        -5   # BR(~g -> ~b_1  bb)
     2.34581835E-01    2    -1000005         5   # BR(~g -> ~b_1* b )
     2.38841022E-01    2     1000006        -6   # BR(~g -> ~t_1  tb)
     2.38841022E-01    2    -1000006         6   # BR(~g -> ~t_1* t )
#
#         PDG            Width
DECAY   1000006     9.21750502E-01   # stop1 decays
#          BR         NDA      ID1       ID2
     1.00000000E+00    2     1000024         5   # BR(~t_1 -> ~chi_1+ b )
#
#         PDG            Width
DECAY   2000006     2.48865894E+02   # stop2 decays
#          BR         NDA      ID1       ID2
     2.74956042E-02    2     1000022         6   # BR(~t_2 -> ~chi_10 t )
     1.57688177E-03    2     1000023         6   # BR(~t_2 -> ~chi_20 t )
     8.85266718E-02    2     1000025         6   # BR(~t_2 -> ~chi_30 t )
     8.58669627E-02    2     1000035         6   # BR(~t_2 -> ~chi_40 t )
     3.09051581E-03    2     1000024         5   # BR(~t_2 -> ~chi_1+ b )
     1.73480392E-01    2     1000037         5   # BR(~t_2 -> ~chi_2+ b )
     3.28033725E-01    2     1000021         6   # BR(~t_2 -> ~g      t )
     7.38133209E-02    2     1000006        25   # BR(~t_2 -> ~t_1    h )
     7.38104678E-02    2     1000006        23   # BR(~t_2 -> ~t_1    Z )
     1.44305458E-01    2     1000005        24   # BR(~t_2 -> ~b_1    W+)
#
#         PDG            Width
DECAY   1000005     4.87729724E-01   # sbottom1 decays
#          BR         NDA      ID1       ID2
     3.49594401E-02    2     1000022         5   # BR(~b_1 -> ~chi_10 b )
     9.65040560E-01    2     1000023         5   # BR(~b_1 -> ~chi_20 b )
#
#         PDG            Width
DECAY   2000005     1.11701885E+02   # sbottom2 decays
#          BR         NDA      ID1       ID2
     1.70634697E-02    2     1000022         5   # BR(~b_2 -> ~chi_10 b )
     9.86977617E-05    2     1000023         5   # BR(~b_2 -> ~chi_20 b )
     2.04734275E-03    2     1000025         5   # BR(~b_2 -> ~chi_30 b )
     1.78443577E-03    2     1000035         5   # BR(~b_2 -> ~chi_40 b )
     1.91412835E-04    2    -1000024         6   # BR(~b_2 -> ~chi_1- t )
     3.51109277E-03    2    -1000037         6   # BR(~b_2 -> ~chi_2- t )
     9.74358935E-01    2     1000021         5   # BR(~b_2 -> ~g      b )
     2.59015735E-04    2     1000005        25   # BR(~b_2 -> ~b_1    h )
     2.32435121E-04    2     1000005        23   # BR(~b_2 -> ~b_1    Z )
     4.53155562E-04    2     1000006       -24   # BR(~b_2 -> ~t_1    W-)
     6.84285718E-09    2     2000006       -24   # BR(~b_2 -> ~t_2    W-)
#
#         PDG            Width
DECAY   1000002     1.48253036E+02   # sup_L decays
#          BR         NDA      ID1       ID2
     3.19093904E-03    2     1000022         2   # BR(~u_L -> ~chi_10 u)
     7.95164302E-02    2     1000023         2   # BR(~u_L -> ~chi_20 u)
     1.72229505E-04    2     1000025         2   # BR(~u_L -> ~chi_30 u)
     2.04043627E-03    2     1000035         2   # BR(~u_L -> ~chi_40 u)
     1.62780096E-01    2     1000024         1   # BR(~u_L -> ~chi_1+ d)
     1.40852871E-03    2     1000037         1   # BR(~u_L -> ~chi_2+ d)
     7.50891341E-01    2     1000021         2   # BR(~u_L -> ~g      u)
#
#         PDG            Width
DECAY   2000002     3.08237397E+00   # sup_R decays
#          BR         NDA      ID1       ID2
     9.88552680E-01    2     1000022         2   # BR(~u_R -> ~chi_10 u)
     4.76042216E-06    2     1000023         2   # BR(~u_R -> ~chi_20 u)
     1.09732217E-02    2     1000025         2   # BR(~u_R -> ~chi_30 u)
     4.69337679E-04    2     1000035         2   # BR(~u_R -> ~chi_40 u)
#
#         PDG            Width
DECAY   1000001     1.48274667E+02   # sdown_L decays
#          BR         NDA      ID1       ID2
     2.55365003E-03    2     1000022         1   # BR(~d_L -> ~chi_10 d)
     7.93937435E-02    2     1000023         1   # BR(~d_L -> ~chi_20 d)
     6.59963783E-04    2     1000025         1   # BR(~d_L -> ~chi_30 d)
     2.28236547E-03    2     1000035         1   # BR(~d_L -> ~chi_40 d)
     1.55327050E-01    2    -1000024         2   # BR(~d_L -> ~chi_1- u)
     8.48356064E-03    2    -1000037         2   # BR(~d_L -> ~chi_2- u)
     7.51299667E-01    2     1000021         1   # BR(~d_L -> ~g      d)
#
#         PDG            Width
DECAY   2000001     1.12642970E+02   # sdown_R decays
#          BR         NDA      ID1       ID2
     1.50524447E-02    2     1000022         1   # BR(~d_R -> ~chi_10 d)
     7.28458528E-08    2     1000023         1   # BR(~d_R -> ~chi_20 d)
     2.07437826E-04    2     1000025         1   # BR(~d_R -> ~chi_30 d)
     8.87791857E-06    2     1000035         1   # BR(~d_R -> ~chi_40 d)
     9.84731167E-01    2     1000021         1   # BR(~d_R -> ~g      d)
#
#         PDG            Width
DECAY   1000004     1.29307766E+02   # scharm_L decays
#          BR         NDA      ID1       ID2
     3.80695733E-03    2     1000022         4   # BR(~c_L -> ~chi_10 c)
     9.48622979E-02    2     1000023         4   # BR(~c_L -> ~chi_20 c)
     2.05204832E-04    2     1000025         4   # BR(~c_L -> ~chi_30 c)
     2.43109535E-03    2     1000035         4   # BR(~c_L -> ~chi_40 c)
     1.94194988E-01    2     1000024         3   # BR(~c_L -> ~chi_1+ s)
     1.67817637E-03    2     1000037         3   # BR(~c_L -> ~chi_2+ s)
     7.02821281E-01    2     1000021         4   # BR(~c_L -> ~g      c)
#
#         PDG            Width
DECAY   2000004     3.14387487E+00   # scharm_R decays
#          BR         NDA      ID1       ID2
     9.88585046E-01    2     1000022         4   # BR(~c_R -> ~chi_10 c)
     4.76012406E-06    2     1000023         4   # BR(~c_R -> ~chi_20 c)
     1.09421866E-02    2     1000025         4   # BR(~c_R -> ~chi_30 c)
     4.68006957E-04    2     1000035         4   # BR(~c_R -> ~chi_40 c)
#
#         PDG            Width
DECAY   1000003     1.29311379E+02   # sstrange_L decays
#          BR         NDA      ID1       ID2
     3.04698236E-03    2     1000022         3   # BR(~s_L -> ~chi_10 s)
     9.47266371E-02    2     1000023         3   # BR(~s_L -> ~chi_20 s)
     7.86410961E-04    2     1000025         3   # BR(~s_L -> ~chi_30 s)
     2.71965348E-03    2     1000035         3   # BR(~s_L -> ~chi_40 s)
     1.85324381E-01    2    -1000024         4   # BR(~s_L -> ~chi_1- c)
     1.01087894E-02    2    -1000037         4   # BR(~s_L -> ~chi_2- c)
     7.03287146E-01    2     1000021         3   # BR(~s_L -> ~g      s)
#
#         PDG            Width
DECAY   2000003     9.23444702E+01   # sstrange_R decays
#          BR         NDA      ID1       ID2
     1.91070409E-02    2     1000022         3   # BR(~s_R -> ~chi_10 s)
     9.24630937E-08    2     1000023         3   # BR(~s_R -> ~chi_20 s)
     2.62962040E-04    2     1000025         3   # BR(~s_R -> ~chi_30 s)
     1.12542146E-05    2     1000035         3   # BR(~s_R -> ~chi_40 s)
     9.80618650E-01    2     1000021         3   # BR(~s_R -> ~g      s)
#
#         PDG            Width
DECAY   1000011     1.67153703E+01   # selectron_L decays
#          BR         NDA      ID1       ID2
     9.97160216E-02    2     1000022        11   # BR(~e_L -> ~chi_10 e-)
     2.95283562E-01    2     1000023        11   # BR(~e_L -> ~chi_20 e-)
     8.94552268E-07    2     1000025        11   # BR(~e_L -> ~chi_30 e-)
     5.17559984E-03    2     1000035        11   # BR(~e_L -> ~chi_40 e-)
     5.75730014E-01    2    -1000024        12   # BR(~e_L -> ~chi_1- nu_e)
     2.40939078E-02    2    -1000037        12   # BR(~e_L -> ~chi_2- nu_e)
#
#         PDG            Width
DECAY   2000011     1.66157461E+01   # selectron_R decays
#          BR         NDA      ID1       ID2
     9.85800076E-01    2     1000022        11   # BR(~e_R -> ~chi_10 e-)
     4.77088520E-06    2     1000023        11   # BR(~e_R -> ~chi_20 e-)
     1.36125593E-02    2     1000025        11   # BR(~e_R -> ~chi_30 e-)
     5.82593843E-04    2     1000035        11   # BR(~e_R -> ~chi_40 e-)
#
#         PDG            Width
DECAY   1000013     1.67153702E+01   # smuon_L decays
#          BR         NDA      ID1       ID2
     9.97160208E-02    2     1000022        13   # BR(~mu_L -> ~chi_10 mu-)
     2.95283560E-01    2     1000023        13   # BR(~mu_L -> ~chi_20 mu-)
     8.94552257E-07    2     1000025        13   # BR(~mu_L -> ~chi_30 mu-)
     5.17559978E-03    2     1000035        13   # BR(~mu_L -> ~chi_40 mu-)
     5.75730017E-01    2    -1000024        14   # BR(~mu_L -> ~chi_1- nu_mu)
     2.40939079E-02    2    -1000037        14   # BR(~mu_L -> ~chi_2- nu_mu)
#
#         PDG            Width
DECAY   2000013     1.66157461E+01   # smuon_R decays
#          BR         NDA      ID1       ID2
     9.85800076E-01    2     1000022        13   # BR(~mu_R -> ~chi_10 mu-)
     4.77088520E-06    2     1000023        13   # BR(~mu_R -> ~chi_20 mu-)
     1.36125593E-02    2     1000025        13   # BR(~mu_R -> ~chi_30 mu-)
     5.82593843E-04    2     1000035        13   # BR(~mu_R -> ~chi_40 mu-)
#
#         PDG            Width
DECAY   1000015     7.22539062E+00   # stau_1 decays
#          BR         NDA      ID1       ID2
     9.69482661E-01    2     1000022        15   # BR(~tau_1 -> ~chi_10  tau-)
     3.86089963E-04    2     1000023        15   # BR(~tau_1 -> ~chi_20  tau-)
     1.54063854E-02    2     1000025        15   # BR(~tau_1 -> ~chi_30  tau-)
     5.00311510E-03    2     1000035        15   # BR(~tau_1 -> ~chi_40  tau-)
     7.44442466E-04    2    -1000024        16   # BR(~tau_1 -> ~chi_1-  nu_tau)
     8.97730602E-03    2    -1000037        16   # BR(~tau_1 -> ~chi_2-  nu_tau)
#
#         PDG            Width
DECAY   2000015     5.35686562E+01   # stau_2 decays
#          BR         NDA      ID1       ID2
     9.77186479E-02    2     1000022        15   # BR(~tau_2 -> ~chi_10  tau-)
     2.91247930E-01    2     1000023        15   # BR(~tau_2 -> ~chi_20  tau-)
     2.30793797E-03    2     1000025        15   # BR(~tau_2 -> ~chi_30  tau-)
     9.01342966E-03    2     1000035        15   # BR(~tau_2 -> ~chi_40  tau-)
     5.67636164E-01    2    -1000024        16   # BR(~tau_2 -> ~chi_1-  nu_tau)
     3.16434859E-02    2    -1000037        16   # BR(~tau_2 -> ~chi_2-  nu_tau)
     2.19787446E-04    2     1000015        25   # BR(~tau_2 -> ~tau_1   h)
     2.12617719E-04    2     1000015        23   # BR(~tau_2 -> ~tau_1   Z)
#
#         PDG            Width
DECAY   1000012     1.67662881E+01   # snu_eL decays
#          BR         NDA      ID1       ID2
     9.21022042E-02    2     1000022        12   # BR(~nu_eL -> ~chi_10 nu_e)
     2.92278535E-01    2     1000023        12   # BR(~nu_eL -> ~chi_20 nu_e)
     4.15474890E-03    2     1000025        12   # BR(~nu_eL -> ~chi_30 nu_e)
     7.19839959E-03    2     1000035        12   # BR(~nu_eL -> ~chi_40 nu_e)
     6.00291135E-01    2     1000024        11   # BR(~nu_eL -> ~chi_1+ e-)
     3.97497750E-03    2     1000037        11   # BR(~nu_eL -> ~chi_2+ e-)
#
#         PDG            Width
DECAY   1000014     1.67662880E+01   # snu_muL decays
#          BR         NDA      ID1       ID2
     9.21022050E-02    2     1000022        14   # BR(~nu_muL -> ~chi_10 nu_mu)
     2.92278537E-01    2     1000023        14   # BR(~nu_muL -> ~chi_20 nu_mu)
     4.15474893E-03    2     1000025        14   # BR(~nu_muL -> ~chi_30 nu_mu)
     7.19839964E-03    2     1000035        14   # BR(~nu_muL -> ~chi_40 nu_mu)
     6.00291132E-01    2     1000024        13   # BR(~nu_muL -> ~chi_1+ mu-)
     3.97497746E-03    2     1000037        13   # BR(~nu_muL -> ~chi_2+ mu-)
#
#         PDG            Width
DECAY   1000016     5.35877310E+01   # snu_tauL decays
#          BR         NDA      ID1       ID2
     9.06256672E-02    2     1000022        16   # BR(~nu_tauL -> ~chi_10 nu_tau)
     2.89483098E-01    2     1000023        16   # BR(~nu_tauL -> ~chi_20 nu_tau)
     5.44883154E-03    2     1000025        16   # BR(~nu_tauL -> ~chi_30 nu_tau)
     9.44840332E-03    2     1000035        16   # BR(~nu_tauL -> ~chi_40 nu_tau)
     5.94864174E-01    2     1000024        15   # BR(~nu_tauL -> ~chi_1+ tau-)
     9.71529741E-03    2     1000037        15   # BR(~nu_tauL -> ~chi_2+ tau-)
     4.14528028E-04    2    -1000015       -24   # BR(~nu_tauL -> ~tau_1+ W-)
#
#         PDG            Width
DECAY   1000024     9.28086955E-11   # chargino1+ decays
#           BR         NDA      ID1       ID2       ID3
     3.48808584E-01    3     1000022         2        -1   # BR(~chi_1+ -> ~chi_10 u    db)
     3.98439593E-07    3     1000023         2        -1   # BR(~chi_1+ -> ~chi_20 u    db)
     3.48808584E-01    3     1000022         4        -3   # BR(~chi_1+ -> ~chi_10 c    sb)
     1.01809428E-01    3     1000022       -11        12   # BR(~chi_1+ -> ~chi_10 e+   nu_e)
     1.33183286E-07    3     1000023       -11        12   # BR(~chi_1+ -> ~chi_20 e+   nu_e)
     1.01809428E-01    3     1000022       -13        14   # BR(~chi_1+ -> ~chi_10 mu+  nu_mu)
     1.33183286E-07    3     1000023       -13        14   # BR(~chi_1+ -> ~chi_20 mu+  nu_mu)
     9.87633112E-02    3     1000022       -15        16   # BR(~chi_1+ -> ~chi_10 tau+ nu_tau)
#
#         PDG            Width
DECAY   1000037     2.60844125E+00   # chargino2+ decays
#          BR         NDA      ID1       ID2
     2.15682528E-02    2     1000006        -5   # BR(~chi_2+ -> ~t_1     bb)
     2.90624723E-01    2     1000024        23   # BR(~chi_2+ -> ~chi_1+  Z )
     1.50468374E-01    2     1000022        24   # BR(~chi_2+ -> ~chi_10  W+)
     2.93127276E-01    2     1000023        24   # BR(~chi_2+ -> ~chi_20  W+)
     2.44211375E-01    2     1000024        25   # BR(~chi_2+ -> ~chi_1+  h )
#
#         PDG            Width
DECAY   1000022     0.00000000E+00   # neutralino1 decays
#
#         PDG            Width
DECAY   1000023     4.45927683E-11   # neutralino2 decays
#          BR         NDA      ID1       ID2
     1.32772792E-02    2     1000022        22   # BR(~chi_20 -> ~chi_10 gam)
#           BR         NDA      ID1       ID2       ID3
     1.43050475E-01    3     1000022        -2         2   # BR(~chi_20 -> ~chi_10 ub      u)
     1.84903006E-01    3     1000022        -1         1   # BR(~chi_20 -> ~chi_10 db      d)
     1.43050475E-01    3     1000022        -4         4   # BR(~chi_20 -> ~chi_10 cb      c)
     1.84903006E-01    3     1000022        -3         3   # BR(~chi_20 -> ~chi_10 sb      s)
     5.47131768E-03    3     1000022        -5         5   # BR(~chi_20 -> ~chi_10 bb      b)
     3.48563529E-02    3     1000022       -11        11   # BR(~chi_20 -> ~chi_10 e+      e-)
     3.48563529E-02    3     1000022       -13        13   # BR(~chi_20 -> ~chi_10 mu+     mu-)
     3.38885692E-02    3     1000022       -15        15   # BR(~chi_20 -> ~chi_10 tau+    tau-)
     6.99634109E-02    3     1000022       -12        12   # BR(~chi_20 -> ~chi_10 nu_eb   nu_e)
     6.99634109E-02    3     1000022       -14        14   # BR(~chi_20 -> ~chi_10 nu_mub  nu_mu)
     8.18163440E-02    3     1000022       -16        16   # BR(~chi_20 -> ~chi_10 nu_taub nu_tau)
#
#         PDG            Width
DECAY   1000025     2.63269758E+00   # neutralino3 decays
#          BR         NDA      ID1       ID2
     6.85029502E-03    2     1000022        23   # BR(~chi_30 -> ~chi_10   Z )
     2.36795541E-01    2     1000023        23   # BR(~chi_30 -> ~chi_20   Z )
     2.88728615E-01    2     1000024       -24   # BR(~chi_30 -> ~chi_1+   W-)
     2.88728615E-01    2    -1000024        24   # BR(~chi_30 -> ~chi_1-   W+)
     1.35928053E-01    2     1000022        25   # BR(~chi_30 -> ~chi_10   h )
     3.21034488E-02    2     1000023        25   # BR(~chi_30 -> ~chi_20   h )
     5.43271655E-03    2     1000005        -5   # BR(~chi_30 -> ~b_1      bb)
     5.43271655E-03    2    -1000005         5   # BR(~chi_30 -> ~b_1*     b )
#
#         PDG            Width
DECAY   1000035     2.70280885E+00   # neutralino4 decays
#          BR         NDA      ID1       ID2
     1.28435564E-01    2     1000022        23   # BR(~chi_40 -> ~chi_10   Z )
     5.01442575E-02    2     1000023        23   # BR(~chi_40 -> ~chi_20   Z )
     2.91615170E-01    2     1000024       -24   # BR(~chi_40 -> ~chi_1+   W-)
     2.91615170E-01    2    -1000024        24   # BR(~chi_40 -> ~chi_1-   W+)
     5.90585692E-03    2     1000022        25   # BR(~chi_40 -> ~chi_10   h )
     2.10999628E-01    2     1000023        25   # BR(~chi_40 -> ~chi_20   h )
     1.06421764E-02    2     1000005        -5   # BR(~chi_40 -> ~b_1      bb)
     1.06421764E-02    2    -1000005         5   # BR(~chi_40 -> ~b_1*     b )
#
#         PDG            Width
DECAY        25     4.00796423E-03   # h decays
#          BR         NDA      ID1       ID2
     5.83307984E-01    2           5        -5   # BR(h -> b       bb     )
     6.49408426E-02    2         -15        15   # BR(h -> tau+    tau-   )
     2.29866685E-04    2         -13        13   # BR(h -> mu+     mu-    )
     2.50796344E-04    2           3        -3   # BR(h -> s       sb     )
     2.16824350E-02    2           4        -4   # BR(h -> c       cb     )
     8.17253458E-02    2          21        21   # BR(h -> g       g      )
     2.34376158E-03    2          22        22   # BR(h -> gam     gam    )
     1.60565639E-03    2          22        23   # BR(h -> Z       gam    )
     2.16651217E-01    2          24       -24   # BR(h -> W+      W-     )
     2.72620948E-02    2          23        23   # BR(h -> Z       Z      )
#
#         PDG            Width
DECAY        35     5.24397919E+01   # H decays
#          BR         NDA      ID1       ID2
     2.36401616E-02    2           5        -5   # BR(H -> b       bb     )
     4.44656547E-03    2         -15        15   # BR(H -> tau+    tau-   )
     1.57812043E-05    2         -13        13   # BR(H -> mu+     mu-    )
     9.72303610E-06    2           3        -3   # BR(H -> s       sb     )
     8.94592267E-07    2           4        -4   # BR(H -> c       cb     )
     8.82164614E-02    2           6        -6   # BR(H -> t       tb     )
     4.18736392E-05    2          21        21   # BR(H -> g       g      )
     3.59082856E-08    2          22        22   # BR(H -> gam     gam    )
     6.05626412E-08    2          23        22   # BR(H -> Z       gam    )
     2.55821369E-05    2          24       -24   # BR(H -> W+      W-     )
     1.27679100E-05    2          23        23   # BR(H -> Z       Z      )
     9.43490134E-05    2          25        25   # BR(H -> h       h      )
     3.34103046E-02    2     1000024  -1000024   # BR(H -> ~chi_1+ ~chi_1-)
     8.47393140E-03    2     1000037  -1000037   # BR(H -> ~chi_2+ ~chi_2-)
     2.47196334E-01    2     1000024  -1000037   # BR(H -> ~chi_1+ ~chi_2-)
     2.47196334E-01    2     1000037  -1000024   # BR(H -> ~chi_2+ ~chi_1-)
     1.17504357E-03    2     1000022   1000022   # BR(H -> ~chi_10 ~chi_10)
     1.67498290E-02    2     1000023   1000023   # BR(H -> ~chi_20 ~chi_20)
     2.73594459E-03    2     1000025   1000025   # BR(H -> ~chi_30 ~chi_30)
     1.01446782E-02    2     1000035   1000035   # BR(H -> ~chi_40 ~chi_40)
     9.19410490E-03    2     1000022   1000023   # BR(H -> ~chi_10 ~chi_20)
     2.06519751E-02    2     1000022   1000025   # BR(H -> ~chi_10 ~chi_30)
     4.53422489E-02    2     1000022   1000035   # BR(H -> ~chi_10 ~chi_40)
     7.80904367E-02    2     1000023   1000025   # BR(H -> ~chi_20 ~chi_30)
     1.50342841E-01    2     1000023   1000035   # BR(H -> ~chi_20 ~chi_40)
     1.19529112E-02    2     1000025   1000035   # BR(H -> ~chi_30 ~chi_40)
     2.11938885E-06    2     2000002  -2000002   # BR(H -> ~u_R    ~u_R*  )
     2.11938885E-06    2     2000004  -2000004   # BR(H -> ~c_R    ~c_R*  )
     2.20888116E-04    2     1000006  -1000006   # BR(H -> ~t_1    ~t_1*  )
     2.76722299E-04    2     1000006  -2000006   # BR(H -> ~t_1    ~t_2*  )
     2.76722299E-04    2     2000006  -1000006   # BR(H -> ~t_2    ~t_1*  )
     3.46490593E-05    2     1000005  -1000005   # BR(H -> ~b_1    ~b_1*  )
     2.81358311E-06    2     1000011  -1000011   # BR(H -> ~e_L-   ~e_L+  )
     2.81358311E-06    2     1000013  -1000013   # BR(H -> ~mu_L-  ~mu_L+ )
     1.67131658E-06    2     1000015  -1000015   # BR(H -> ~tau_1- ~tau_1+)
     9.15343313E-06    2     1000012  -1000012   # BR(H -> ~nu_eL  ~nu_eL*   )
     9.15343313E-06    2     1000014  -1000014   # BR(H -> ~nu_muL ~nu_muL*  )
#
#         PDG            Width
DECAY        36     5.24411071E+01   # A decays
#          BR         NDA      ID1       ID2
     2.36624716E-02    2           5        -5   # BR(A -> b       bb     )
     4.44673391E-03    2         -15        15   # BR(A -> tau+    tau-   )
     1.57817837E-05    2         -13        13   # BR(A -> mu+     mu-    )
     9.74544845E-06    2           3        -3   # BR(A -> s       sb     )
     8.99872933E-07    2           4        -4   # BR(A -> c       cb     )
     8.84333771E-02    2           6        -6   # BR(A -> t       tb     )
     5.92304470E-05    2          21        21   # BR(A -> g       g      )
     1.97836392E-08    2          22        22   # BR(A -> gam     gam    )
     8.15321693E-08    2          23        22   # BR(A -> Z       gam    )
     2.59427419E-05    2          23        25   # BR(A -> Z       h      )
     2.60001707E-02    2     1000024  -1000024   # BR(A -> ~chi_1+ ~chi_1-)
     1.37526396E-03    2     1000037  -1000037   # BR(A -> ~chi_2+ ~chi_2-)
     2.54510730E-01    2     1000024  -1000037   # BR(A -> ~chi_1+ ~chi_2-)
     2.54510730E-01    2     1000037  -1000024   # BR(A -> ~chi_2+ ~chi_1-)
     1.95799998E-03    2     1000022   1000022   # BR(A -> ~chi_10 ~chi_10)
     1.29083927E-02    2     1000023   1000023   # BR(A -> ~chi_20 ~chi_20)
     6.45762836E-03    2     1000025   1000025   # BR(A -> ~chi_30 ~chi_30)
     5.47485699E-03    2     1000035   1000035   # BR(A -> ~chi_40 ~chi_40)
     9.97405963E-03    2     1000022   1000023   # BR(A -> ~chi_10 ~chi_20)
     4.63598144E-02    2     1000022   1000025   # BR(A -> ~chi_10 ~chi_30)
     1.89152887E-02    2     1000022   1000035   # BR(A -> ~chi_10 ~chi_40)
     1.57659253E-01    2     1000023   1000025   # BR(A -> ~chi_20 ~chi_30)
     7.49401230E-02    2     1000023   1000035   # BR(A -> ~chi_20 ~chi_40)
     1.17400098E-02    2     1000025   1000035   # BR(A -> ~chi_30 ~chi_40)
     2.80697508E-04    2     1000006  -2000006   # BR(A -> ~t_1    ~t_2*  )
     2.80697508E-04    2    -1000006   2000006   # BR(A -> ~t_1*   ~t_2   )
#
#         PDG            Width
DECAY        37     5.23998915E+01   # H+ decays
#          BR         NDA      ID1       ID2
     4.11726736E-05    2           4        -5   # BR(H+ -> c       bb     )
     4.45156443E-03    2         -15        16   # BR(H+ -> tau+    nu_tau )
     1.57989275E-05    2         -13        14   # BR(H+ -> mu+     nu_mu  )
     4.11711879E-07    2           2        -5   # BR(H+ -> u       bb     )
     4.87474205E-07    2           2        -3   # BR(H+ -> u       sb     )
     1.04588999E-05    2           4        -3   # BR(H+ -> c       sb     )
     1.11545210E-01    2           6        -5   # BR(H+ -> t       bb     )
     2.59975976E-05    2          24        25   # BR(H+ -> W+      h      )
     3.77612004E-14    2          24        36   # BR(H+ -> W+      A      )
     1.94681891E-02    2     1000024   1000022   # BR(H+ -> ~chi_1+ ~chi_10)
     8.88394745E-08    2     1000024   1000023   # BR(H+ -> ~chi_1+ ~chi_20)
     2.47474577E-01    2     1000024   1000025   # BR(H+ -> ~chi_1+ ~chi_30)
     2.60107207E-01    2     1000024   1000035   # BR(H+ -> ~chi_1+ ~chi_40)
     6.71854693E-02    2     1000037   1000022   # BR(H+ -> ~chi_2+ ~chi_10)
     2.74434744E-01    2     1000037   1000023   # BR(H+ -> ~chi_2+ ~chi_20)
     1.26557312E-02    2     1000037   1000025   # BR(H+ -> ~chi_2+ ~chi_30)
     1.61031182E-03    2     1000037   1000035   # BR(H+ -> ~chi_2+ ~chi_40)
     1.10464168E-05    2    -1000011   1000012   # BR(H+ -> ~e_L+   ~nu_eL )
     1.10464168E-05    2    -1000013   1000014   # BR(H+ -> ~mu_L+  ~nu_muL)
     1.73650845E-04    2     1000006  -1000005   # BR(H+ -> ~t_1    ~b_1*  )
     7.76835847E-04    2     2000006  -1000005   # BR(H+ -> ~t_2    ~b_1*  )
