#
#                              ======================
#                              | THE SUSYHIT OUTPUT |
#                              ======================
#
#
#              ------------------------------------------------------
#              |     This is the output of the SUSY-HIT package     |
#              |  created by A.Djouadi, M.Muehlleitner and M.Spira. |
#              |  In case of problems with SUSY-HIT email to        |
#              |           margarete.muehlleitner@cern.ch           |
#              |           michael.spira@psi.ch                     |
#              |           abdelhak.djouadi@cern.ch                 |
#              ------------------------------------------------------
#
#              ------------------------------------------------------
#              |  SUSY Les Houches Accord - MSSM Spectrum + Decays  |
#              |              based on the decay programs           |
#              |                                                    |
#              |                     SDECAY 1.3b                    |
#              |                                                    |
#              |  Authors: M.Muhlleitner, A.Djouadi and Y.Mambrini  |
#              |  Ref.:    Comput.Phys.Commun.168(2005)46           |
#              |           [hep-ph/0311167]                         |
#              |                                                    |
#              |                     HDECAY 3.4                     |
#              |                                                    |
#              |  By: A.Djouadi,J.Kalinowski,M.Muhlleitner,M.Spira  |
#              |  Ref.:    Comput.Phys.Commun.108(1998)56           |
#              |           [hep-ph/9704448]                         |
#              |                                                    |
#              |                                                    |
#              |  If not stated otherwise all DRbar couplings and   |
#              |  soft SUSY breaking masses are given at the scale  |
#              |  Q=  0.32292520E+04
#              |                                                    |
#              ------------------------------------------------------
#
#
BLOCK DCINFO  # Decay Program information
     1   SDECAY/HDECAY # decay calculator
     2   1.3b  /3.4    # version number
#
BLOCK SPINFO  # Spectrum calculator information
     1     SOFTSUSY    # spectrum calculator               
     2     3.4.0       # version number                    
#
BLOCK MODSEL  # Model selection
     1     0   #  nonUniversal                                     
#
BLOCK SMINPUTS  # Standard Model inputs
         1     1.27908970E+02   # alpha_em^-1(M_Z)^MSbar
         2     1.16637870E-05   # G_F [GeV^-2]
         3     1.18400000E-01   # alpha_S(M_Z)^MSbar
         4     9.11876000E+01   # M_Z pole mass
         5     4.18000000E+00   # mb(mb)^MSbar
         6     1.73200000E+02   # mt pole mass
         7     1.77700000E+00   # mtau pole mass
#
BLOCK MINPAR  # Input parameters - minimal models
         3     4.03700000E+01   # tanb                
#
BLOCK EXTPAR  # Input parameters - non-minimal models
         0    -1.00000000E+00   # Set                 
         1    -2.14101000E+03   # M_1(MX)             
         2     3.44558000E+03   # M_2(MX)             
         3     2.60411000E+03   # M_3(MX)             
        11    -2.86958000E+03   # At(MX)              
        12    -2.17145000E+03   # Ab(MX)              
        13    -1.19517000E+03   # Atau(MX)            
        23     9.49300000E+01   # mu(MX)              
        26     7.19760000E+02   # mA(pole)            
        31     2.30545000E+03   # meL(MX)             
        32     2.30545000E+03   # mmuL(MX)            
        33     3.60555000E+03   # mtauL(MX)           
        34     2.92821000E+03   # meR(MX)             
        35     2.92821000E+03   # mmuR(MX)            
        36     3.43029000E+03   # mtauR(MX)           
        41     2.10347000E+03   # mqL1(MX)            
        42     2.10347000E+03   # mqL2(MX)            
        43     2.81675000E+03   # mqL3(MX)            
        44     3.64280000E+03   # muR(MX)             
        45     3.64280000E+03   # mcR(MX)             
        46     3.69849000E+03   # mtR(MX)             
        47     1.33832000E+03   # mdR(MX)             
        48     1.33832000E+03   # msR(MX)             
        49     2.63518000E+03   # mbR(MX)             
#
BLOCK MASS  # Mass Spectrum
# PDG code           mass       particle
        24     8.03852422E+01   # W+
        25     1.24349290E+02   # h
        35     7.19778957E+02   # H
        36     7.19760008E+02   # A
        37     7.24813736E+02   # H+
         5     4.81876030E+00   # b-quark pole mass calculated from mb(mb)_Msbar
   1000001     2.25902779E+03   # ~d_L
   2000001     1.50023800E+03   # ~d_R
   1000002     2.25773794E+03   # ~u_L
   2000002     3.71542431E+03   # ~u_R
   1000003     2.25902779E+03   # ~s_L
   2000003     1.50023800E+03   # ~s_R
   1000004     2.25773794E+03   # ~c_L
   2000004     3.71542431E+03   # ~c_R
   1000005     2.71947046E+03   # ~b_1
   2000005     2.90440866E+03   # ~b_2
   1000006     2.90123221E+03   # ~t_1
   2000006     3.71663183E+03   # ~t_2
   1000011     2.33740961E+03   # ~e_L
   2000011     2.93733865E+03   # ~e_R
   1000012     2.33573450E+03   # ~nu_eL
   1000013     2.33740961E+03   # ~mu_L
   2000013     2.93733865E+03   # ~mu_R
   1000014     2.33573450E+03   # ~nu_muL
   1000015     3.42705385E+03   # ~tau_1
   2000015     3.62396280E+03   # ~tau_2
   1000016     3.62274963E+03   # ~nu_tauL
   1000021     2.75368999E+03   # ~g
   1000022     1.00332854E+02   # ~chi_10
   1000023    -1.01303813E+02   # ~chi_20
   1000025    -2.12017858E+03   # ~chi_30
   1000035     3.40329677E+03   # ~chi_40
   1000024     1.01003219E+02   # ~chi_1+
   1000037     3.40346351E+03   # ~chi_2+
#
BLOCK NMIX  # Neutralino Mixing Matrix
  1  1    -1.42380197E-02   # N_11
  1  2    -1.71185393E-02   # N_12
  1  3     7.08780411E-01   # N_13
  1  4    -7.05077701E-01   # N_14
  2  1     1.49486690E-02   # N_21
  2  2     1.54498734E-02   # N_22
  2  3     7.05427955E-01   # N_23
  2  4     7.08455531E-01   # N_24
  3  1     9.99786867E-01   # N_31
  3  2    -2.82630412E-04   # N_32
  3  3    -4.53438875E-04   # N_33
  3  4    -2.06382013E-02   # N_34
  4  1    -1.92170077E-04   # N_41
  4  2     9.99734053E-01   # N_42
  4  3     1.23471293E-03   # N_43
  4  4    -2.30274057E-02   # N_44
#
BLOCK UMIX  # Chargino Mixing Matrix U
  1  1    -1.74643021E-03   # U_11
  1  2     9.99998475E-01   # U_12
  2  1    -9.99998475E-01   # U_21
  2  2    -1.74643021E-03   # U_22
#
BLOCK VMIX  # Chargino Mixing Matrix V
  1  1    -3.25708411E-02   # V_11
  1  2     9.99469429E-01   # V_12
  2  1    -9.99469429E-01   # V_21
  2  2    -3.25708411E-02   # V_22
#
BLOCK STOPMIX  # Stop Mixing Matrix
  1  1     9.96838773E-01   # cos(theta_t)
  1  2     7.94509952E-02   # sin(theta_t)
  2  1    -7.94509952E-02   # -sin(theta_t)
  2  2     9.96838773E-01   # cos(theta_t)
#
BLOCK SBOTMIX  # Sbottom Mixing Matrix
  1  1     1.37575887E-02   # cos(theta_b)
  1  2     9.99905360E-01   # sin(theta_b)
  2  1    -9.99905360E-01   # -sin(theta_b)
  2  2     1.37575887E-02   # cos(theta_b)
#
BLOCK STAUMIX  # Stau Mixing Matrix
  1  1     6.50535074E-03   # cos(theta_tau)
  1  2     9.99978840E-01   # sin(theta_tau)
  2  1    -9.99978840E-01   # -sin(theta_tau)
  2  2     6.50535074E-03   # cos(theta_tau)
#
BLOCK ALPHA  # Higgs mixing
          -2.65476358E-02   # Mixing angle in the neutral Higgs boson sector
#
BLOCK HMIX Q=  3.22925200E+03  # DRbar Higgs Parameters
         1     9.71336615E+01   # mu(Q)MSSM           
         2     3.94120898E+01   # tan                 
         3     2.43045593E+02   # higgs               
         4     5.84699441E+05   # mA^2(Q)MSSM         
#
BLOCK GAUGE Q=  3.22925200E+03  # The gauge couplings
     1     3.65516428E-01   # gprime(Q) DRbar
     2     6.38756400E-01   # g(Q) DRbar
     3     1.01167961E+00   # g3(Q) DRbar
#
BLOCK AU Q=  3.22925200E+03  # The trilinear couplings
  1  1     0.00000000E+00   # A_u(Q) DRbar
  2  2     0.00000000E+00   # A_c(Q) DRbar
  3  3    -2.86957998E+03   # A_t(Q) DRbar
#
BLOCK AD Q=  3.22925200E+03  # The trilinear couplings
  1  1     0.00000000E+00   # A_d(Q) DRbar
  2  2     0.00000000E+00   # A_s(Q) DRbar
  3  3    -2.17144999E+03   # A_b(Q) DRbar
#
BLOCK AE Q=  3.22925200E+03  # The trilinear couplings
  1  1     0.00000000E+00   # A_e(Q) DRbar
  2  2     0.00000000E+00   # A_mu(Q) DRbar
  3  3    -1.19517000E+03   # A_tau(Q) DRbar
#
BLOCK Yu Q=  3.22925200E+03  # The Yukawa couplings
  1  1     0.00000000E+00   # y_u(Q) DRbar
  2  2     0.00000000E+00   # y_c(Q) DRbar
  3  3     8.15601912E-01   # y_t(Q) DRbar
#
BLOCK Yd Q=  3.22925200E+03  # The Yukawa couplings
  1  1     0.00000000E+00   # y_d(Q) DRbar
  2  2     0.00000000E+00   # y_s(Q) DRbar
  3  3     5.26460905E-01   # y_b(Q) DRbar
#
BLOCK Ye Q=  3.22925200E+03  # The Yukawa couplings
  1  1     0.00000000E+00   # y_e(Q) DRbar
  2  2     0.00000000E+00   # y_mu(Q) DRbar
  3  3     4.04792949E-01   # y_tau(Q) DRbar
#
BLOCK MSOFT Q=  3.22925200E+03  # The soft SUSY breaking masses at the scale Q
         1    -2.14101000E+03   # M_1(Q)              
         2     3.44558000E+03   # M_2(Q)              
         3     2.60411000E+03   # M_3(Q)              
        21     5.81125900E+05   # mH1^2(Q)            
        22     1.55212987E+05   # mH2^2(Q)            
        31     2.30545000E+03   # meL(Q)              
        32     2.30545000E+03   # mmuL(Q)             
        33     3.60555000E+03   # mtauL(Q)            
        34     2.92821000E+03   # meR(Q)              
        35     2.92821000E+03   # mmuR(Q)             
        36     3.43029000E+03   # mtauR(Q)            
        41     2.10346999E+03   # mqL1(Q)             
        42     2.10346999E+03   # mqL2(Q)             
        43     2.81674998E+03   # mqL3(Q)             
        44     3.64279999E+03   # muR(Q)              
        45     3.64279999E+03   # mcR(Q)              
        46     3.69848998E+03   # mtR(Q)              
        47     1.33831998E+03   # mdR(Q)              
        48     1.33831998E+03   # msR(Q)              
        49     2.63517998E+03   # mbR(Q)              
#
Block HiggsBoundsInputHiggsCouplingsFermions
# ScalarNormEffCoupSq PseudoSNormEffCoupSq NP   IP1 IP2 IP2
    1.09518655E+00    0.00000000E+00        3  25   5   5  # h0-b-b eff. coupling^2, normalised to SM
    1.55321764E+03    0.00000000E+00        3  35   5   5  # H0-b-b eff. coupling^2, normalised to SM
    0.00000000E+00    1.55331282E+03        3  36   5   5  # A0-b-b eff. coupling^2, normalised to SM
#
    9.99938720E-01    0.00000000E+00        3  25   6   6  # h0-t-t eff. coupling^2, normalised to SM
    7.05065030E-04    0.00000000E+00        3  35   6   6  # H0-t-t eff. coupling^2, normalised to SM
    0.00000000E+00    6.43785325E-04        3  36   6   6  # A0-t-t eff. coupling^2, normalised to SM
#
    1.09518655E+00    0.00000000E+00        3  25  15  15  # h0-tau-tau eff. coupling^2, normalised to SM
    1.55321764E+03    0.00000000E+00        3  35  15  15  # H0-tau-tau eff. coupling^2, normalised to SM
    0.00000000E+00    1.55331282E+03        3  36  15  15  # A0-tau-tau eff. coupling^2, normalised to SM
#
Block HiggsBoundsInputHiggsCouplingsBosons
    9.99998607E-01        3  25  24  24  # h0-W-W eff. coupling^2, normalised to SM
    1.39276180E-06        3  35  24  24  # H0-W-W eff. coupling^2, normalised to SM
    0.00000000E+00        3  36  24  24  # A0-W-W eff. coupling^2, normalised to SM
#
    9.99998607E-01        3  25  23  23  # h0-Z-Z eff. coupling^2, normalised to SM
    1.39276180E-06        3  35  23  23  # H0-Z-Z eff. coupling^2, normalised to SM
    0.00000000E+00        3  36  23  23  # A0-Z-Z eff. coupling^2, normalised to SM
#
    8.83006365E-01        3  25  21  21  # h0-g-g eff. coupling^2, normalised to SM
    2.12338510E-03        3  35  21  21  # H0-g-g eff. coupling^2, normalised to SM
    3.35125110E-03        3  36  21  21  # A0-g-g eff. coupling^2, normalised to SM
#
    0.00000000E+00        3  25  25  23  # h0-h0-Z eff. coupling^2, normalised to SM
    0.00000000E+00        3  35  25  23  # H0-h0-Z eff. coupling^2, normalised to SM
    1.39276180E-06        3  36  25  23  # A0-h0-Z eff. coupling^2, normalised to SM
    0.00000000E+00        3  35  35  23  # H0-H0-Z eff. coupling^2, normalised to SM
    9.99998607E-01        3  36  35  23  # A0-H0-Z eff. coupling^2, normalised to SM
    0.00000000E+00        3  36  36  23  # A0-A0-Z eff. coupling^2, normalised to SM
#
    0.00000000E+00        4  25  21  21  23  # h0-g-g-Z eff. coupling^2, normalised to SM
    0.00000000E+00        4  35  21  21  23  # H0-g-g-Z eff. coupling^2, normalised to SM
    0.00000000E+00        4  36  21  21  23  # A0-g-g-Z eff. coupling^2, normalised to SM
#
#
#
#                             =================
#                             |The decay table|
#                             =================
#
# - The QCD corrections to the decays gluino -> squark  + quark
#                                     squark -> gaugino + quark_prime
#                                     squark -> squark_prime + Higgs
#                                     squark -> gluino  + quark
#   are included.
#
# - The multi-body decays for the inos, stops and sbottoms are included.
#
# - The loop induced decays for the gluino, neutralinos and stops
#   are included.
#
# - The SUSY decays of the top quark are included.
#
#
#         PDG            Width
DECAY         6     1.43715783E+00   # top decays
#          BR         NDA      ID1       ID2
     1.00000000E+00    2           5        24   # BR(t ->  b    W+)
#
#         PDG            Width
DECAY   1000021     7.61827564E+01   # gluino decays
#          BR         NDA      ID1       ID2
     3.76964108E-02    2     1000001        -1   # BR(~g -> ~d_L  db)
     3.76964108E-02    2    -1000001         1   # BR(~g -> ~d_L* d )
     1.74313780E-01    2     2000001        -1   # BR(~g -> ~d_R  db)
     1.74313780E-01    2    -2000001         1   # BR(~g -> ~d_R* d )
     3.78737581E-02    2     1000002        -2   # BR(~g -> ~u_L  ub)
     3.78737581E-02    2    -1000002         2   # BR(~g -> ~u_L* u )
     3.76964108E-02    2     1000003        -3   # BR(~g -> ~s_L  sb)
     3.76964108E-02    2    -1000003         3   # BR(~g -> ~s_L* s )
     1.74313780E-01    2     2000003        -3   # BR(~g -> ~s_R  sb)
     1.74313780E-01    2    -2000003         3   # BR(~g -> ~s_R* s )
     3.78735911E-02    2     1000004        -4   # BR(~g -> ~c_L  cb)
     3.78735911E-02    2    -1000004         4   # BR(~g -> ~c_L* c )
     2.32269986E-04    2     1000005        -5   # BR(~g -> ~b_1  bb)
     2.32269986E-04    2    -1000005         5   # BR(~g -> ~b_1* b )
#
#         PDG            Width
DECAY   1000006     5.44128137E+01   # stop1 decays
#          BR         NDA      ID1       ID2
     3.47650196E-01    2     1000022         6   # BR(~t_1 -> ~chi_10 t )
     3.51417182E-01    2     1000023         6   # BR(~t_1 -> ~chi_20 t )
     1.70737049E-03    2     1000025         6   # BR(~t_1 -> ~chi_30 t )
     2.99156881E-01    2     1000024         5   # BR(~t_1 -> ~chi_1+ b )
     6.83700265E-05    2     1000005        24   # BR(~t_1 -> ~b_1    W+)
#
#         PDG            Width
DECAY   2000006     1.64166890E+02   # stop2 decays
#          BR         NDA      ID1       ID2
     1.47992403E-01    2     1000022         6   # BR(~t_2 -> ~chi_10 t )
     1.49316615E-01    2     1000023         6   # BR(~t_2 -> ~chi_20 t )
     2.41318383E-02    2     1000025         6   # BR(~t_2 -> ~chi_30 t )
     2.96845980E-05    2     1000035         6   # BR(~t_2 -> ~chi_40 t )
     2.96540922E-01    2     1000024         5   # BR(~t_2 -> ~chi_1+ b )
     6.99449949E-05    2     1000037         5   # BR(~t_2 -> ~chi_2+ b )
     2.38778789E-01    2     1000021         6   # BR(~t_2 -> ~g      t )
     3.36067291E-02    2     1000006        25   # BR(~t_2 -> ~t_1    h )
     8.51511723E-07    2     1000006        35   # BR(~t_2 -> ~t_1    H )
     1.17015495E-06    2     1000006        36   # BR(~t_2 -> ~t_1    A )
     2.79769565E-04    2     1000005        37   # BR(~t_2 -> ~b_1    H+)
     1.70872882E-06    2     2000005        37   # BR(~t_2 -> ~b_2    H+)
     3.71658438E-02    2     1000006        23   # BR(~t_2 -> ~t_1    Z )
     2.33014735E-05    2     1000005        24   # BR(~t_2 -> ~b_1    W+)
     7.20604288E-02    2     2000005        24   # BR(~t_2 -> ~b_2    W+)
#
#         PDG            Width
DECAY   1000005     3.00358467E+01   # sbottom1 decays
#          BR         NDA      ID1       ID2
     2.50202777E-01    2     1000022         5   # BR(~b_1 -> ~chi_10 b )
     2.47700216E-01    2     1000023         5   # BR(~b_1 -> ~chi_20 b )
     8.22031068E-03    2     1000025         5   # BR(~b_1 -> ~chi_30 b )
     4.93876696E-01    2    -1000024         6   # BR(~b_1 -> ~chi_1- t )
#
#         PDG            Width
DECAY   2000005     5.57146645E+01   # sbottom2 decays
#          BR         NDA      ID1       ID2
     1.44057647E-01    2     1000022         5   # BR(~b_2 -> ~chi_10 b )
     1.42756330E-01    2     1000023         5   # BR(~b_2 -> ~chi_20 b )
     1.68468440E-03    2     1000025         5   # BR(~b_2 -> ~chi_30 b )
     6.82543691E-01    2    -1000024         6   # BR(~b_2 -> ~chi_1- t )
     2.88875854E-02    2     1000021         5   # BR(~b_2 -> ~g      b )
     3.68029131E-05    2     1000005        25   # BR(~b_2 -> ~b_1    h )
     3.32586650E-05    2     1000005        23   # BR(~b_2 -> ~b_1    Z )
#
#         PDG            Width
DECAY   1000002     3.04537406E-02   # sup_L decays
#          BR         NDA      ID1       ID2
     1.15974732E-01    2     1000022         2   # BR(~u_L -> ~chi_10 u)
     9.87320646E-02    2     1000023         2   # BR(~u_L -> ~chi_20 u)
     1.59840435E-01    2     1000025         2   # BR(~u_L -> ~chi_30 u)
     6.25452769E-01    2     1000024         1   # BR(~u_L -> ~chi_1+ d)
#
#         PDG            Width
DECAY   2000002     6.05900030E+01   # sup_R decays
#          BR         NDA      ID1       ID2
     2.79764575E-05    2     1000022         2   # BR(~u_R -> ~chi_10 u)
     3.08382032E-05    2     1000023         2   # BR(~u_R -> ~chi_20 u)
     6.36125669E-02    2     1000025         2   # BR(~u_R -> ~chi_30 u)
     1.40367410E-10    2     1000035         2   # BR(~u_R -> ~chi_40 u)
     9.36328618E-01    2     1000021         2   # BR(~u_R -> ~g      u)
#
#         PDG            Width
DECAY   1000001     8.32521744E-03   # sdown_L decays
#          BR         NDA      ID1       ID2
     2.23816846E-01    2     1000022         1   # BR(~d_L -> ~chi_10 d)
     1.71242510E-01    2     1000023         1   # BR(~d_L -> ~chi_20 d)
     5.98359292E-01    2     1000025         1   # BR(~d_L -> ~chi_30 d)
     6.58135268E-03    2    -1000024         2   # BR(~d_L -> ~chi_1- u)
#
#         PDG            Width
DECAY   2000001     4.71316634E-04   # sdown_R decays
#           BR         NDA      ID1       ID2
     3.80921828E-01    2     1000022         1   # BR(~d_R -> ~chi_10 d)
     4.19826409E-01    2     1000023         1   # BR(~d_R -> ~chi_20 d)
#           BR         NDA      ID1       ID2       ID3
     2.39966069E-02    3        1       23        1000022   # BR(~d_R -> d  Z  ~chi_10)
     1.78368413E-02    3        1       25        1000022   # BR(~d_R -> d  h  ~chi_10)
     2.15969462E-03    3        1       35        1000022   # BR(~d_R -> d  H  ~chi_10)
     4.06563202E-03    3        1       36        1000022   # BR(~d_R -> d  A  ~chi_10)
     1.95359114E-02    3        1       23        1000023   # BR(~d_R -> d  Z  ~chi_20)
     2.28423935E-02    3        1       25        1000023   # BR(~d_R -> d  h  ~chi_20)
     4.02765331E-03    3        1       35        1000023   # BR(~d_R -> d  H  ~chi_20)
     2.08643177E-03    3        1       36        1000023   # BR(~d_R -> d  A  ~chi_20)
     1.23685429E-02    3        1       -24        1000024   # BR(~d_R -> d  W-  ~chi_1+)
     7.83931594E-02    3        1       24        -1000024   # BR(~d_R -> d  W+  ~chi_1-)
     9.20633750E-03    3        1       -37        1000024   # BR(~d_R -> d  H-  ~chi_1+)
     2.73255792E-03    3        1       37        -1000024   # BR(~d_R -> d  H+  ~chi_1-)
#
#         PDG            Width
DECAY   1000004     3.06483997E-02   # scharm_L decays
#          BR         NDA      ID1       ID2
     1.17153426E-01    2     1000022         4   # BR(~c_L -> ~chi_10 c)
     9.97347439E-02    2     1000023         4   # BR(~c_L -> ~chi_20 c)
     1.51305128E-01    2     1000025         4   # BR(~c_L -> ~chi_30 c)
     6.31806701E-01    2     1000024         3   # BR(~c_L -> ~chi_1+ s)
#
#         PDG            Width
DECAY   2000004     4.49728192E+01   # scharm_R decays
#          BR         NDA      ID1       ID2
     3.95107422E-05    2     1000022         4   # BR(~c_R -> ~chi_10 c)
     4.35520631E-05    2     1000023         4   # BR(~c_R -> ~chi_20 c)
     8.87273110E-02    2     1000025         4   # BR(~c_R -> ~chi_30 c)
     1.86745438E-10    2     1000035         4   # BR(~c_R -> ~chi_40 c)
     9.11189626E-01    2     1000021         4   # BR(~c_R -> ~g      c)
#
#         PDG            Width
DECAY   1000003     8.14718570E-03   # sstrange_L decays
#          BR         NDA      ID1       ID2
     2.32519256E-01    2     1000022         3   # BR(~s_L -> ~chi_10 s)
     1.77899357E-01    2     1000023         3   # BR(~s_L -> ~chi_20 s)
     5.82744180E-01    2     1000025         3   # BR(~s_L -> ~chi_30 s)
     6.83720778E-03    2    -1000024         4   # BR(~s_L -> ~chi_1- c)
#
#         PDG            Width
DECAY   2000003     4.68039702E-04   # sstrange_R decays
#           BR         NDA      ID1       ID2
     3.80377186E-01    2     1000022         3   # BR(~s_R -> ~chi_10 s)
     4.19222357E-01    2     1000023         3   # BR(~s_R -> ~chi_20 s)
#           BR         NDA      ID1       ID2       ID3
     2.41646167E-02    3        3       23        1000022   # BR(~s_R -> s  Z  ~chi_10)
     1.79617241E-02    3        3       25        1000022   # BR(~s_R -> s  h  ~chi_10)
     2.17481550E-03    3        3       35        1000022   # BR(~s_R -> s  H  ~chi_10)
     4.06525342E-03    3        3       36        1000022   # BR(~s_R -> s  A  ~chi_10)
     1.96367957E-02    3        3       23        1000023   # BR(~s_R -> s  Z  ~chi_20)
     2.30023221E-02    3        3       25        1000023   # BR(~s_R -> s  h  ~chi_20)
     4.05585251E-03    3        3       35        1000023   # BR(~s_R -> s  H  ~chi_20)
     2.10103971E-03    3        3       36        1000023   # BR(~s_R -> s  A  ~chi_20)
     1.24551400E-02    3        3       -24        1000024   # BR(~s_R -> s  W-  ~chi_1+)
     7.87604125E-02    3        3       24        -1000024   # BR(~s_R -> s  W+  ~chi_1-)
     9.27079472E-03    3        3       -37        1000024   # BR(~s_R -> s  H-  ~chi_1+)
     2.75168964E-03    3        3       37        -1000024   # BR(~s_R -> s  H+  ~chi_1-)
#
#         PDG            Width
DECAY   1000011     1.08977083E-01   # selectron_L decays
#          BR         NDA      ID1       ID2
     5.53656939E-02    2     1000022        11   # BR(~e_L -> ~chi_10 e-)
     4.99693172E-02    2     1000023        11   # BR(~e_L -> ~chi_20 e-)
     8.94135960E-01    2     1000025        11   # BR(~e_L -> ~chi_30 e-)
     5.29028914E-04    2    -1000024        12   # BR(~e_L -> ~chi_1- nu_e)
#
#         PDG            Width
DECAY   2000011     3.58773324E+00   # selectron_R decays
#          BR         NDA      ID1       ID2
     8.80223538E-04    2     1000022        11   # BR(~e_R -> ~chi_10 e-)
     9.70239870E-04    2     1000023        11   # BR(~e_R -> ~chi_20 e-)
     9.98149537E-01    2     1000025        11   # BR(~e_R -> ~chi_30 e-)
#
#         PDG            Width
DECAY   1000013     1.08977070E-01   # smuon_L decays
#          BR         NDA      ID1       ID2
     5.53657001E-02    2     1000022        13   # BR(~mu_L -> ~chi_10 mu-)
     4.99693229E-02    2     1000023        13   # BR(~mu_L -> ~chi_20 mu-)
     8.94135948E-01    2     1000025        13   # BR(~mu_L -> ~chi_30 mu-)
     5.29028975E-04    2    -1000024        14   # BR(~mu_L -> ~chi_1- nu_mu)
#
#         PDG            Width
DECAY   2000013     3.58773320E+00   # smuon_R decays
#          BR         NDA      ID1       ID2
     8.80223545E-04    2     1000022        13   # BR(~mu_R -> ~chi_10 mu-)
     9.70239879E-04    2     1000023        13   # BR(~mu_R -> ~chi_20 mu-)
     9.98149537E-01    2     1000025        13   # BR(~mu_R -> ~chi_30 mu-)
#
#         PDG            Width
DECAY   1000015     2.92503394E+01   # stau_1 decays
#          BR         NDA      ID1       ID2
     1.91703641E-01    2     1000022        15   # BR(~tau_1 -> ~chi_10  tau-)
     1.89840586E-01    2     1000023        15   # BR(~tau_1 -> ~chi_20  tau-)
     2.37190615E-01    2     1000025        15   # BR(~tau_1 -> ~chi_30  tau-)
     2.62447577E-09    2     1000035        15   # BR(~tau_1 -> ~chi_40  tau-)
     3.81265150E-01    2    -1000024        16   # BR(~tau_1 -> ~chi_1-  nu_tau)
     5.21731939E-09    2    -1000037        16   # BR(~tau_1 -> ~chi_2-  nu_tau)
#
#         PDG            Width
DECAY   2000015     1.45093156E+01   # stau_2 decays
#          BR         NDA      ID1       ID2
     4.08974329E-01    2     1000022        15   # BR(~tau_2 -> ~chi_10  tau-)
     4.05177233E-01    2     1000023        15   # BR(~tau_2 -> ~chi_20  tau-)
     1.43414193E-01    2     1000025        15   # BR(~tau_2 -> ~chi_30  tau-)
     1.41211438E-02    2     1000035        15   # BR(~tau_2 -> ~chi_40  tau-)
     1.14292811E-05    2    -1000024        16   # BR(~tau_2 -> ~chi_1-  nu_tau)
     2.82225399E-02    2    -1000037        16   # BR(~tau_2 -> ~chi_2-  nu_tau)
     4.21487083E-05    2     1000015        25   # BR(~tau_2 -> ~tau_1   h)
     3.69836003E-05    2     1000015        23   # BR(~tau_2 -> ~tau_1   Z)
#
#         PDG            Width
DECAY   1000012     1.17515016E-01   # snu_eL decays
#          BR         NDA      ID1       ID2
     6.46826543E-03    2     1000022        12   # BR(~nu_eL -> ~chi_10 nu_e)
     3.82148131E-03    2     1000023        12   # BR(~nu_eL -> ~chi_20 nu_e)
     8.19195084E-01    2     1000025        12   # BR(~nu_eL -> ~chi_30 nu_e)
     1.70515169E-01    2     1000024        11   # BR(~nu_eL -> ~chi_1+ e-)
#
#         PDG            Width
DECAY   1000014     1.17515016E-01   # snu_muL decays
#          BR         NDA      ID1       ID2
     6.46826543E-03    2     1000022        14   # BR(~nu_muL -> ~chi_10 nu_mu)
     3.82148131E-03    2     1000023        14   # BR(~nu_muL -> ~chi_20 nu_mu)
     8.19195085E-01    2     1000025        14   # BR(~nu_muL -> ~chi_30 nu_mu)
     1.70515169E-01    2     1000024        13   # BR(~nu_muL -> ~chi_1+ mu-)
#
#         PDG            Width
DECAY   1000016     1.45154760E+01   # snu_tauL decays
#          BR         NDA      ID1       ID2
     8.13958870E-05    2     1000022        16   # BR(~nu_tauL -> ~chi_10 nu_tau)
     4.80910908E-05    2     1000023        16   # BR(~nu_tauL -> ~chi_20 nu_tau)
     1.43465792E-01    2     1000025        16   # BR(~nu_tauL -> ~chi_30 nu_tau)
     1.39763400E-02    2     1000035        16   # BR(~nu_tauL -> ~chi_40 nu_tau)
     8.14461568E-01    2     1000024        15   # BR(~nu_tauL -> ~chi_1+ tau-)
     2.78901793E-02    2     1000037        15   # BR(~nu_tauL -> ~chi_2+ tau-)
     7.66333613E-05    2    -1000015       -24   # BR(~nu_tauL -> ~tau_1+ W-)
#
#         PDG            Width
DECAY   1000024     5.99457390E-13   # chargino1+ decays
#           BR         NDA      ID1       ID2       ID3
     1.30753060E-01    3     1000022       -11        12   # BR(~chi_1+ -> ~chi_10 e+   nu_e)
     1.15900060E-01    3     1000022       -13        14   # BR(~chi_1+ -> ~chi_10 mu+  nu_mu)
     7.28762530E-01    2     1000022       211             # BR(~chi_1+ -> ~chi_10 pi+)
     2.45059220E-02    3     1000022       211        111   # BR(~chi_1+ -> ~chi_10 pi+ pi0)
     3.92102980E-05    4     1000022       211        111       111 # BR(~chi_1+ -> ~chi_10 pi+ pi0 pi0)
     3.92102980E-05    4     1000022       211        211      -211 # BR(~chi_1+ -> ~chi_10 pi+ pi+ pi-)
#
#         PDG            Width
DECAY   1000037     1.23484320E+02   # chargino2+ decays
#          BR         NDA      ID1       ID2
     1.01834464E-01    2     1000002        -1   # BR(~chi_2+ -> ~u_L     db)
     1.01761814E-01    2    -1000001         2   # BR(~chi_2+ -> ~d_L*    u )
     1.01834460E-01    2     1000004        -3   # BR(~chi_2+ -> ~c_L     sb)
     1.01761749E-01    2    -1000003         4   # BR(~chi_2+ -> ~s_L*     c )
     2.47244728E-02    2     1000006        -5   # BR(~chi_2+ -> ~t_1     bb)
     6.32867259E-06    2    -1000005         6   # BR(~chi_2+ -> ~b_1*    t )
     2.27699120E-02    2    -2000005         6   # BR(~chi_2+ -> ~b_2*    t )
     3.12722479E-02    2     1000012       -11   # BR(~chi_2+ -> ~nu_eL   e+  )
     3.12722479E-02    2     1000014       -13   # BR(~chi_2+ -> ~nu_muL mu+ )
     3.12254328E-02    2    -1000011        12   # BR(~chi_2+ -> ~e_L+    nu_e)
     3.12254328E-02    2    -1000013        14   # BR(~chi_2+ -> ~mu_L+   nu_mu)
     5.48149333E-02    2     1000024        23   # BR(~chi_2+ -> ~chi_1+  Z )
     5.29203745E-02    2     1000022        24   # BR(~chi_2+ -> ~chi_10  W+)
     5.34255117E-02    2     1000023        24   # BR(~chi_2+ -> ~chi_20  W+)
     5.36588557E-06    2     1000025        24   # BR(~chi_2+ -> ~chi_30  W+)
     5.58968040E-02    2     1000024        25   # BR(~chi_2+ -> ~chi_1+  h )
     5.08127274E-02    2     1000024        35   # BR(~chi_2+ -> ~chi_1+  H )
     5.08205562E-02    2     1000024        36   # BR(~chi_2+ -> ~chi_1+  A )
     5.10540668E-02    2     1000022        37   # BR(~chi_2+ -> ~chi_10  H+)
     5.05610257E-02    2     1000023        37   # BR(~chi_2+ -> ~chi_20  H+)
     7.31343713E-08    2     1000025        37   # BR(~chi_2+ -> ~chi_30  H+)
#
#         PDG            Width
DECAY   1000022     0.00000000E+00   # neutralino1 decays
#
#         PDG            Width
DECAY   1000023     2.07477951E-12   # neutralino2 decays
#          BR         NDA      ID1       ID2
     7.05716779E-01    2     1000022        22   # BR(~chi_20 -> ~chi_10 gam)
#           BR         NDA      ID1       ID2       ID3
     4.89155235E-02    3     1000022        -2         2   # BR(~chi_20 -> ~chi_10 ub      u)
     6.35088133E-02    3     1000022        -1         1   # BR(~chi_20 -> ~chi_10 db      d)
     6.35088133E-02    3     1000022        -3         3   # BR(~chi_20 -> ~chi_10 sb      s)
     1.45985174E-02    3     1000022       -11        11   # BR(~chi_20 -> ~chi_10 e+      e-)
     1.45985174E-02    3     1000022       -13        13   # BR(~chi_20 -> ~chi_10 mu+     mu-)
     2.91919288E-02    3     1000022       -12        12   # BR(~chi_20 -> ~chi_10 nu_eb   nu_e)
     2.91919288E-02    3     1000022       -14        14   # BR(~chi_20 -> ~chi_10 nu_mub  nu_mu)
     2.91919264E-02    3     1000022       -16        16   # BR(~chi_20 -> ~chi_10 nu_taub nu_tau)
     4.73175734E-04    3     1000024        -2         1   # BR(~chi_20 -> ~chi_1+ ub      d)
     4.73175734E-04    3    -1000024        -1         2   # BR(~chi_20 -> ~chi_1- db      u)
     1.57725163E-04    3     1000024       -12        11   # BR(~chi_20 -> ~chi_1+ nu_eb   e-)
     1.57725163E-04    3    -1000024        12       -11   # BR(~chi_20 -> ~chi_1- nu_e    e+)
     1.57725163E-04    3     1000024       -14        13   # BR(~chi_20 -> ~chi_1+ nu_mub  mu-)
     1.57725163E-04    3    -1000024        14       -13   # BR(~chi_20 -> ~chi_1- nu_mu   mu+)
#
#         PDG            Width
DECAY   1000025     1.15337544E+01   # neutralino3 decays
#          BR         NDA      ID1       ID2
     5.87857331E-02    2     1000022        23   # BR(~chi_30 -> ~chi_10   Z )
     5.44048776E-02    2     1000023        23   # BR(~chi_30 -> ~chi_20   Z )
     1.09850875E-01    2     1000024       -24   # BR(~chi_30 -> ~chi_1+   W-)
     1.09850875E-01    2    -1000024        24   # BR(~chi_30 -> ~chi_1-   W+)
     5.75875678E-02    2     1000022        25   # BR(~chi_30 -> ~chi_10   h )
     4.06365440E-02    2     1000022        35   # BR(~chi_30 -> ~chi_10   H )
     5.58355390E-02    2     1000022        36   # BR(~chi_30 -> ~chi_10   A )
     6.32652295E-02    2     1000023        25   # BR(~chi_30 -> ~chi_20   h )
     5.55110206E-02    2     1000023        35   # BR(~chi_30 -> ~chi_20   H )
     4.02881303E-02    2     1000023        36   # BR(~chi_30 -> ~chi_20   A )
     9.55835688E-02    2     1000024       -37   # BR(~chi_30 -> ~chi_1+   H-)
     9.55835688E-02    2    -1000024        37   # BR(~chi_30 -> ~chi_1-   H+)
     4.07041176E-02    2     2000001        -1   # BR(~chi_30 -> ~d_R      db)
     4.07041176E-02    2    -2000001         1   # BR(~chi_30 -> ~d_R*     d )
     4.07041176E-02    2     2000003        -3   # BR(~chi_30 -> ~s _R      sb)
     4.07041176E-02    2    -2000003         3   # BR(~chi_30 -> ~s _R*     s )
#
#         PDG            Width
DECAY   1000035     1.23464579E+02   # neutralino4 decays
#          BR         NDA      ID1       ID2
     2.43446132E-02    2     1000022        23   # BR(~chi_40 -> ~chi_10   Z )
     3.04597491E-02    2     1000023        23   # BR(~chi_40 -> ~chi_20   Z )
     5.32620193E-06    2     1000025        23   # BR(~chi_40 -> ~chi_30   Z )
     5.32110926E-02    2     1000024       -24   # BR(~chi_40 -> ~chi_1+   W-)
     5.32110926E-02    2    -1000024        24   # BR(~chi_40 -> ~chi_1-   W+)
     3.09096196E-02    2     1000022        25   # BR(~chi_40 -> ~chi_10   h )
     2.57764823E-02    2     1000022        35   # BR(~chi_40 -> ~chi_10   H )
     2.52646068E-02    2     1000022        36   # BR(~chi_40 -> ~chi_10   A )
     2.49216091E-02    2     1000023        25   # BR(~chi_40 -> ~chi_20   h )
     2.50796972E-02    2     1000023        35   # BR(~chi_40 -> ~chi_20   H )
     2.55995481E-02    2     1000023        36   # BR(~chi_40 -> ~chi_20   A )
     2.64096243E-07    2     1000025        25   # BR(~chi_40 -> ~chi_30   h )
     5.04381544E-09    2     1000025        35   # BR(~chi_40 -> ~chi_30   H )
     6.85380845E-08    2     1000025        36   # BR(~chi_40 -> ~chi_30   A )
     5.07743966E-02    2     1000024       -37   # BR(~chi_40 -> ~chi_1+   H-)
     5.07743966E-02    2    -1000024        37   # BR(~chi_40 -> ~chi_1-   H+)
     5.09383294E-02    2     1000002        -2   # BR(~chi_40 -> ~u_L      ub)
     5.09383294E-02    2    -1000002         2   # BR(~chi_40 -> ~u_L*     u )
     5.08555871E-02    2     1000001        -1   # BR(~chi_40 -> ~d_L      db)
     5.08555871E-02    2    -1000001         1   # BR(~chi_40 -> ~d_L*     d )
     5.61997359E-10    2     2000001        -1   # BR(~chi_40 -> ~d_R      db)
     5.61997359E-10    2    -2000001         1   # BR(~chi_40 -> ~d_R*     d )
     5.09382968E-02    2     1000004        -4   # BR(~chi_40 -> ~c_L      cb)
     5.09382968E-02    2    -1000004         4   # BR(~chi_40 -> ~c_L*     c )
     5.08555871E-02    2     1000003        -3   # BR(~chi_40 -> ~s _L      sb)
     5.08555871E-02    2    -1000003         3   # BR(~chi_40 -> ~s _L*     s )
     5.61997359E-10    2     2000003        -3   # BR(~chi_40 -> ~s _R      sb)
     5.61997359E-10    2    -2000003         3   # BR(~chi_40 -> ~s _R*     s )
     1.13701094E-02    2     1000006        -6   # BR(~chi_40 -> ~t_1      tb)
     1.13701094E-02    2    -1000006         6   # BR(~chi_40 -> ~t_1*     t )
     3.32608681E-06    2     1000005        -5   # BR(~chi_40 -> ~b_1      bb)
     3.32608681E-06    2    -1000005         5   # BR(~chi_40 -> ~b_1*     b )
     1.23787188E-02    2     2000005        -5   # BR(~chi_40 -> ~b_2      bb)
     1.23787188E-02    2    -2000005         5   # BR(~chi_40 -> ~b_2*     b )
     1.56000286E-02    2     1000011       -11   # BR(~chi_40 -> ~e_L-     e+)
     1.56000286E-02    2    -1000011        11   # BR(~chi_40 -> ~e_L+     e-)
     1.76048757E-10    2     2000011       -11   # BR(~chi_40 -> ~e_R-     e+)
     1.76048757E-10    2    -2000011        11   # BR(~chi_40 -> ~e_R+     e-)
     1.56000286E-02    2     1000013       -13   # BR(~chi_40 -> ~mu_L-    mu+)
     1.56000286E-02    2    -1000013        13   # BR(~chi_40 -> ~mu_L+    mu-)
     1.76048757E-10    2     2000013       -13   # BR(~chi_40 -> ~mu_R-    mu+)
     1.76048757E-10    2    -2000013        13   # BR(~chi_40 -> ~mu_R+    mu-)
     1.56468514E-02    2     1000012       -12   # BR(~chi_40 -> ~nu_eL    nu_eb)
     1.56468514E-02    2    -1000012        12   # BR(~chi_40 -> ~nu_eL*   nu_e )
     1.56468514E-02    2     1000014       -14   # BR(~chi_40 -> ~nu_muL   nu_mub)
     1.56468514E-02    2    -1000014        14   # BR(~chi_40 -> ~nu_muL*  nu_mu )
#
#         PDG            Width
DECAY        25     4.23340808E-03   # h decays
#          BR         NDA      ID1       ID2
     6.27172767E-01    2           5        -5   # BR(h -> b       bb     )
     6.65698706E-02    2         -15        15   # BR(h -> tau+    tau-   )
     2.35602165E-04    2         -13        13   # BR(h -> mu+     mu-    )
     2.56816108E-04    2           3        -3   # BR(h -> s       sb     )
     2.04000539E-02    2           4        -4   # BR(h -> c       cb     )
     7.39705183E-02    2          21        21   # BR(h -> g       g      )
     2.17904774E-03    2          22        22   # BR(h -> gam     gam    )
     1.39109956E-03    2          22        23   # BR(h -> Z       gam    )
     1.84991866E-01    2          24       -24   # BR(h -> W+      W-     )
     2.28323581E-02    2          23        23   # BR(h -> Z       Z      )
#
#         PDG            Width
DECAY        35     1.78240780E+01   # H decays
#          BR         NDA      ID1       ID2
     8.68399110E-01    2           5        -5   # BR(H -> b       bb     )
     1.29174363E-01    2         -15        15   # BR(H -> tau+    tau-   )
     4.55223279E-04    2         -13        13   # BR(H -> mu+     mu-    )
     3.41842759E-04    2           3        -3   # BR(H -> s       sb     )
     1.43858294E-08    2           4        -4   # BR(H -> c       cb     )
     1.08986088E-03    2           6        -6   # BR(H -> t       tb     )
     1.51720422E-04    2          21        21   # BR(H -> g       g      )
     3.77365845E-08    2          22        22   # BR(H -> gam     gam    )
     4.61802832E-08    2          23        22   # BR(H -> Z       gam    )
     8.70611375E-06    2          24       -24   # BR(H -> W+      W-     )
     4.25409740E-06    2          23        23   # BR(H -> Z       Z      )
     3.23705918E-05    2          25        25   # BR(H -> h       h      )
     3.20153906E-04    2     1000024  -1000024   # BR(H -> ~chi_1+ ~chi_1-)
     1.30099505E-05    2     1000022   1000022   # BR(H -> ~chi_10 ~chi_10)
     8.78987622E-06    2     1000023   1000023   # BR(H -> ~chi_20 ~chi_20)
     4.96602993E-07    2     1000022   1000023   # BR(H -> ~chi_10 ~chi_20)
#
#         PDG            Width
DECAY        36     1.78289296E+01   # A decays
#          BR         NDA      ID1       ID2
     8.68255662E-01    2           5        -5   # BR(A -> b       bb     )
     1.29146899E-01    2         -15        15   # BR(A -> tau+    tau-   )
     4.55115482E-04    2         -13        13   # BR(A -> mu+     mu-    )
     3.41779555E-04    2           3        -3   # BR(A -> s       sb     )
     1.32514549E-08    2           4        -4   # BR(A -> c       cb     )
     1.22774540E-03    2           6        -6   # BR(A -> t       tb     )
     1.90549321E-04    2          21        21   # BR(A -> g       g      )
     9.33553687E-08    2          22        22   # BR(A -> gam     gam    )
     5.69241506E-08    2          23        22   # BR(A -> Z       gam    )
     8.27580701E-06    2          23        25   # BR(A -> Z       h      )
     3.49382770E-04    2     1000024  -1000024   # BR(A -> ~chi_1+ ~chi_1-)
     1.56391791E-05    2     1000022   1000022   # BR(A -> ~chi_10 ~chi_10)
     8.59903284E-06    2     1000023   1000023   # BR(A -> ~chi_20 ~chi_20)
     1.88791191E-07    2     1000022   1000023   # BR(A -> ~chi_10 ~chi_20)
#
#         PDG            Width
DECAY        37     1.67274578E+01   # H+ decays
#          BR         NDA      ID1       ID2
     1.50591154E-03    2           4        -5   # BR(H+ -> c       bb     )
     1.38617508E-01    2         -15        16   # BR(H+ -> tau+    nu_tau )
     4.88489956E-04    2         -13        14   # BR(H+ -> mu+     nu_mu  )
     1.50588517E-05    2           2        -5   # BR(H+ -> u       bb     )
     1.82324350E-05    2           2        -3   # BR(H+ -> u       sb     )
     3.58881849E-04    2           4        -3   # BR(H+ -> c       sb     )
     8.58789467E-01    2           6        -5   # BR(H+ -> t       bb     )
     9.13361353E-06    2          24        25   # BR(H+ -> W+      h      )
     2.57282456E-10    2          24        36   # BR(H+ -> W+      A      )
     8.96178159E-05    2     1000024   1000022   # BR(H+ -> ~chi_1+ ~chi_10)
     1.07699097E-04    2     1000024   1000023   # BR(H+ -> ~chi_1+ ~chi_20)
