#
#                              ======================
#                              | THE SUSYHIT OUTPUT |
#                              ======================
#
#
#              ------------------------------------------------------
#              |     This is the output of the SUSY-HIT package     |
#              |  created by A.Djouadi, M.Muehlleitner and M.Spira. |
#              |  In case of problems with SUSY-HIT email to        |
#              |           margarete.muehlleitner@cern.ch           |
#              |           michael.spira@psi.ch                     |
#              |           abdelhak.djouadi@cern.ch                 |
#              ------------------------------------------------------
#
#              ------------------------------------------------------
#              |  SUSY Les Houches Accord - MSSM Spectrum + Decays  |
#              |              based on the decay programs           |
#              |                                                    |
#              |                     SDECAY 1.3b                    |
#              |                                                    |
#              |  Authors: M.Muhlleitner, A.Djouadi and Y.Mambrini  |
#              |  Ref.:    Comput.Phys.Commun.168(2005)46           |
#              |           [hep-ph/0311167]                         |
#              |                                                    |
#              |                     HDECAY 3.4                     |
#              |                                                    |
#              |  By: A.Djouadi,J.Kalinowski,M.Muhlleitner,M.Spira  |
#              |  Ref.:    Comput.Phys.Commun.108(1998)56           |
#              |           [hep-ph/9704448]                         |
#              |                                                    |
#              |                                                    |
#              |  If not stated otherwise all DRbar couplings and   |
#              |  soft SUSY breaking masses are given at the scale  |
#              |  Q=  0.19239860E+04
#              |                                                    |
#              ------------------------------------------------------
#
#
BLOCK DCINFO  # Decay Program information
     1   SDECAY/HDECAY # decay calculator
     2   1.3b  /3.4    # version number
#
BLOCK SPINFO  # Spectrum calculator information
     1     SOFTSUSY    # spectrum calculator               
     2     3.4.0       # version number                    
#
BLOCK MODSEL  # Model selection
     1     0   #  nonUniversal                                     
#
BLOCK SMINPUTS  # Standard Model inputs
         1     1.27908970E+02   # alpha_em^-1(M_Z)^MSbar
         2     1.16637870E-05   # G_F [GeV^-2]
         3     1.18400000E-01   # alpha_S(M_Z)^MSbar
         4     9.11876000E+01   # M_Z pole mass
         5     4.18000000E+00   # mb(mb)^MSbar
         6     1.73200000E+02   # mt pole mass
         7     1.77700000E+00   # mtau pole mass
#
BLOCK MINPAR  # Input parameters - minimal models
         3     5.51200000E+01   # tanb                
#
BLOCK EXTPAR  # Input parameters - non-minimal models
         0    -1.00000000E+00   # Set                 
         1     3.49563000E+03   # M_1(MX)             
         2    -2.22529000E+03   # M_2(MX)             
         3     2.06263000E+03   # M_3(MX)             
        11     2.69535000E+03   # At(MX)              
        12    -3.89488000E+03   # Ab(MX)              
        13     2.61210000E+02   # Atau(MX)            
        23    -2.68250000E+02   # mu(MX)              
        26     3.40419000E+03   # mA(pole)            
        31     3.17640000E+02   # meL(MX)             
        32     3.17640000E+02   # mmuL(MX)            
        33     2.24996000E+03   # mtauL(MX)           
        34     3.63697000E+03   # meR(MX)             
        35     3.63697000E+03   # mmuR(MX)            
        36     3.65710000E+02   # mtauR(MX)           
        41     2.37732000E+03   # mqL1(MX)            
        42     2.37732000E+03   # mqL2(MX)            
        43     2.51085000E+03   # mqL3(MX)            
        44     3.22011000E+03   # muR(MX)             
        45     3.22011000E+03   # mcR(MX)             
        46     1.47367000E+03   # mtR(MX)             
        47     1.23055000E+03   # mdR(MX)             
        48     1.23055000E+03   # msR(MX)             
        49     2.60161000E+03   # mbR(MX)             
#
BLOCK MASS  # Mass Spectrum
# PDG code           mass       particle
        24     8.03966942E+01   # W+
        25     1.24566018E+02   # h
        35     3.40418821E+03   # H
        36     3.40419013E+03   # A
        37     3.40528401E+03   # H+
         5     4.81876030E+00   # b-quark pole mass calculated from mb(mb)_Msbar
   1000001     2.44679735E+03   # ~d_L
   2000001     1.31784892E+03   # ~d_R
   1000002     2.44567502E+03   # ~u_L
   2000002     3.26084346E+03   # ~u_R
   1000003     2.44679735E+03   # ~s_L
   2000003     1.31784892E+03   # ~s_R
   1000004     2.44567502E+03   # ~c_L
   2000004     3.26084346E+03   # ~c_R
   1000005     2.55127288E+03   # ~b_1
   2000005     2.65275875E+03   # ~b_2
   1000006     1.51388579E+03   # ~t_1
   2000006     2.56109243E+03   # ~t_2
   1000011     3.62700909E+02   # ~e_L
   2000011     3.64125435E+03   # ~e_R
   1000012     3.53751261E+02   # ~nu_eL
   1000013     3.62700909E+02   # ~mu_L
   2000013     3.64125435E+03   # ~mu_R
   1000014     3.53751261E+02   # ~nu_muL
   1000015     3.44704068E+02   # ~tau_1
   2000015     2.26209778E+03   # ~tau_2
   1000016     2.26036162E+03   # ~nu_tauL
   1000021     2.19592933E+03   # ~g
   1000022    -2.82621132E+02   # ~chi_10
   1000023     2.85177907E+02   # ~chi_20
   1000025    -2.24578871E+03   # ~chi_30
   1000035     3.47891648E+03   # ~chi_40
   1000024     2.83986683E+02   # ~chi_1+
   1000037     2.24595716E+03   # ~chi_2+
#
BLOCK NMIX  # Neutralino Mixing Matrix
  1  1     8.45441192E-03   # N_11
  1  2     2.89129401E-02   # N_12
  1  3     7.08598089E-01   # N_13
  1  4    -7.04969016E-01   # N_14
  2  1    -9.64357689E-03   # N_21
  2  2    -2.17677069E-02   # N_22
  2  3     7.05593193E-01   # N_23
  2  4     7.08217067E-01   # N_24
  3  1    -2.78952105E-04   # N_31
  3  2     9.99344874E-01   # N_32
  3  3    -5.13172752E-03   # N_33
  3  4     3.58247060E-02   # N_34
  4  1     9.99917720E-01   # N_41
  4  2    -1.75605553E-04   # N_42
  4  3     8.12297413E-04   # N_43
  4  4     1.28008908E-02   # N_44
#
BLOCK UMIX  # Chargino Mixing Matrix U
  1  1     7.26332433E-03   # U_11
  1  2     9.99973622E-01   # U_12
  2  1    -9.99973622E-01   # U_21
  2  2     7.26332433E-03   # U_22
#
BLOCK VMIX  # Chargino Mixing Matrix V
  1  1    -5.06997023E-02   # V_11
  1  2    -9.98713943E-01   # V_12
  2  1     9.98713943E-01   # V_21
  2  2    -5.06997023E-02   # V_22
#
BLOCK STOPMIX  # Stop Mixing Matrix
  1  1    -8.87875286E-02   # cos(theta_t)
  1  2     9.96050588E-01   # sin(theta_t)
  2  1    -9.96050588E-01   # -sin(theta_t)
  2  2    -8.87875286E-02   # cos(theta_t)
#
BLOCK SBOTMIX  # Sbottom Mixing Matrix
  1  1     9.98637018E-01   # cos(theta_b)
  1  2    -5.21929716E-02   # sin(theta_b)
  2  1     5.21929716E-02   # -sin(theta_b)
  2  2     9.98637018E-01   # cos(theta_b)
#
BLOCK STAUMIX  # Stau Mixing Matrix
  1  1    -5.63364926E-03   # cos(theta_tau)
  1  2     9.99984131E-01   # sin(theta_tau)
  2  1    -9.99984131E-01   # -sin(theta_tau)
  2  2    -5.63364926E-03   # cos(theta_tau)
#
BLOCK ALPHA  # Higgs mixing
          -1.81194835E-02   # Mixing angle in the neutral Higgs boson sector
#
BLOCK HMIX Q=  1.92398600E+03  # DRbar Higgs Parameters
         1    -2.76948414E+02   # mu(Q)MSSM           
         2     5.52883304E+01   # tan                 
         3     2.43419533E+02   # higgs               
         4     1.15830528E+07   # mA^2(Q)MSSM         
#
BLOCK GAUGE Q=  1.92398600E+03  # The gauge couplings
     1     3.64074625E-01   # gprime(Q) DRbar
     2     6.38220526E-01   # g(Q) DRbar
     3     1.02719009E+00   # g3(Q) DRbar
#
BLOCK AU Q=  1.92398600E+03  # The trilinear couplings
  1  1     0.00000000E+00   # A_u(Q) DRbar
  2  2     0.00000000E+00   # A_c(Q) DRbar
  3  3     2.69535001E+03   # A_t(Q) DRbar
#
BLOCK AD Q=  1.92398600E+03  # The trilinear couplings
  1  1     0.00000000E+00   # A_d(Q) DRbar
  2  2     0.00000000E+00   # A_s(Q) DRbar
  3  3    -3.89487999E+03   # A_b(Q) DRbar
#
BLOCK AE Q=  1.92398600E+03  # The trilinear couplings
  1  1     0.00000000E+00   # A_e(Q) DRbar
  2  2     0.00000000E+00   # A_mu(Q) DRbar
  3  3     2.61210004E+02   # A_tau(Q) DRbar
#
BLOCK Yu Q=  1.92398600E+03  # The Yukawa couplings
  1  1     0.00000000E+00   # y_u(Q) DRbar
  2  2     0.00000000E+00   # y_c(Q) DRbar
  3  3     8.48388250E-01   # y_t(Q) DRbar
#
BLOCK Yd Q=  1.92398600E+03  # The Yukawa couplings
  1  1     0.00000000E+00   # y_d(Q) DRbar
  2  2     0.00000000E+00   # y_s(Q) DRbar
  3  3     8.19509712E-01   # y_b(Q) DRbar
#
BLOCK Ye Q=  1.92398600E+03  # The Yukawa couplings
  1  1     0.00000000E+00   # y_e(Q) DRbar
  2  2     0.00000000E+00   # y_mu(Q) DRbar
  3  3     5.73758064E-01   # y_tau(Q) DRbar
#
BLOCK MSOFT Q=  1.92398600E+03  # The soft SUSY breaking masses at the scale Q
         1     3.49563000E+03   # M_1(Q)              
         2    -2.22529000E+03   # M_2(Q)              
         3     2.06263000E+03   # M_3(Q)              
        21     1.16775108E+07   # mH1^2(Q)            
        22    -2.97682930E+04   # mH2^2(Q)            
        31     3.17640000E+02   # meL(Q)              
        32     3.17640000E+02   # mmuL(Q)             
        33     2.24996000E+03   # mtauL(Q)            
        34     3.63697000E+03   # meR(Q)              
        35     3.63697000E+03   # mmuR(Q)             
        36     3.65709996E+02   # mtauR(Q)            
        41     2.37732000E+03   # mqL1(Q)             
        42     2.37732000E+03   # mqL2(Q)             
        43     2.51084999E+03   # mqL3(Q)             
        44     3.22011000E+03   # muR(Q)              
        45     3.22011000E+03   # mcR(Q)              
        46     1.47366999E+03   # mtR(Q)              
        47     1.23054999E+03   # mdR(Q)              
        48     1.23054999E+03   # msR(Q)              
        49     2.60160999E+03   # mbR(Q)              
#
Block HiggsBoundsInputHiggsCouplingsFermions
# ScalarNormEffCoupSq PseudoSNormEffCoupSq NP   IP1 IP2 IP2
    1.00381366E+00    0.00000000E+00        3  25   5   5  # h0-b-b eff. coupling^2, normalised to SM
    3.05679566E+03    0.00000000E+00        3  35   5   5  # H0-b-b eff. coupling^2, normalised to SM
    0.00000000E+00    3.05679948E+03        3  36   5   5  # A0-b-b eff. coupling^2, normalised to SM
#
    9.99998752E-01    0.00000000E+00        3  25   6   6  # h0-t-t eff. coupling^2, normalised to SM
    3.28387147E-04    0.00000000E+00        3  35   6   6  # H0-t-t eff. coupling^2, normalised to SM
    0.00000000E+00    3.27139548E-04        3  36   6   6  # A0-t-t eff. coupling^2, normalised to SM
#
    1.00381366E+00    0.00000000E+00        3  25  15  15  # h0-tau-tau eff. coupling^2, normalised to SM
    3.05679566E+03    0.00000000E+00        3  35  15  15  # H0-tau-tau eff. coupling^2, normalised to SM
    0.00000000E+00    3.05679948E+03        3  36  15  15  # A0-tau-tau eff. coupling^2, normalised to SM
#
Block HiggsBoundsInputHiggsCouplingsBosons
    9.99999999E-01        3  25  24  24  # h0-W-W eff. coupling^2, normalised to SM
    1.18721697E-09        3  35  24  24  # H0-W-W eff. coupling^2, normalised to SM
    0.00000000E+00        3  36  24  24  # A0-W-W eff. coupling^2, normalised to SM
#
    9.99999999E-01        3  25  23  23  # h0-Z-Z eff. coupling^2, normalised to SM
    1.18721697E-09        3  35  23  23  # H0-Z-Z eff. coupling^2, normalised to SM
    0.00000000E+00        3  36  23  23  # A0-Z-Z eff. coupling^2, normalised to SM
#
    8.92958402E-01        3  25  21  21  # h0-g-g eff. coupling^2, normalised to SM
    1.47669261E-12        3  35  21  21  # H0-g-g eff. coupling^2, normalised to SM
    3.43858632E-12        3  36  21  21  # A0-g-g eff. coupling^2, normalised to SM
#
    0.00000000E+00        3  25  25  23  # h0-h0-Z eff. coupling^2, normalised to SM
    0.00000000E+00        3  35  25  23  # H0-h0-Z eff. coupling^2, normalised to SM
    1.18721697E-09        3  36  25  23  # A0-h0-Z eff. coupling^2, normalised to SM
    0.00000000E+00        3  35  35  23  # H0-H0-Z eff. coupling^2, normalised to SM
    9.99999999E-01        3  36  35  23  # A0-H0-Z eff. coupling^2, normalised to SM
    0.00000000E+00        3  36  36  23  # A0-A0-Z eff. coupling^2, normalised to SM
#
    0.00000000E+00        4  25  21  21  23  # h0-g-g-Z eff. coupling^2, normalised to SM
    0.00000000E+00        4  35  21  21  23  # H0-g-g-Z eff. coupling^2, normalised to SM
    0.00000000E+00        4  36  21  21  23  # A0-g-g-Z eff. coupling^2, normalised to SM
#
#
#
#                             =================
#                             |The decay table|
#                             =================
#
# - The QCD corrections to the decays gluino -> squark  + quark
#                                     squark -> gaugino + quark_prime
#                                     squark -> squark_prime + Higgs
#                                     squark -> gluino  + quark
#   are included.
#
# - The multi-body decays for the inos, stops and sbottoms are included.
#
# - The loop induced decays for the gluino, neutralinos and stops
#   are included.
#
# - The SUSY decays of the top quark are included.
#
#
#         PDG            Width
DECAY         6     1.43423740E+00   # top decays
#          BR         NDA      ID1       ID2
     1.00000000E+00    2           5        24   # BR(t ->  b    W+)
#
#         PDG            Width
DECAY   1000021     4.77962492E+01   # gluino decays
#          BR         NDA      ID1       ID2
     1.85056194E-01    2     2000001        -1   # BR(~g -> ~d_R  db)
     1.85056194E-01    2    -2000001         1   # BR(~g -> ~d_R* d )
     1.85056194E-01    2     2000003        -3   # BR(~g -> ~s_R  sb)
     1.85056194E-01    2    -2000003         3   # BR(~g -> ~s_R* s )
     1.29887612E-01    2     1000006        -6   # BR(~g -> ~t_1  tb)
     1.29887612E-01    2    -1000006         6   # BR(~g -> ~t_1* t )
#
#         PDG            Width
DECAY   1000006     3.98896185E+01   # stop1 decays
#          BR         NDA      ID1       ID2
     2.43512804E-01    2     1000022         6   # BR(~t_1 -> ~chi_10 t )
     2.48880888E-01    2     1000023         6   # BR(~t_1 -> ~chi_20 t )
     5.07606309E-01    2     1000024         5   # BR(~t_1 -> ~chi_1+ b )
#
#         PDG            Width
DECAY   2000006     1.03797614E+02   # stop2 decays
#          BR         NDA      ID1       ID2
     1.69617922E-01    2     1000022         6   # BR(~t_2 -> ~chi_10 t )
     1.70537861E-01    2     1000023         6   # BR(~t_2 -> ~chi_20 t )
     4.70795661E-03    2     1000025         6   # BR(~t_2 -> ~chi_30 t )
     3.19955715E-01    2     1000024         5   # BR(~t_2 -> ~chi_1+ b )
     1.06833864E-02    2     1000037         5   # BR(~t_2 -> ~chi_2+ b )
     9.03512385E-02    2     1000021         6   # BR(~t_2 -> ~g      t )
     1.22951128E-01    2     1000006        25   # BR(~t_2 -> ~t_1    h )
     1.11194793E-01    2     1000006        23   # BR(~t_2 -> ~t_1    Z )
#
#         PDG            Width
DECAY   1000005     1.01478537E+02   # sbottom1 decays
#          BR         NDA      ID1       ID2
     1.64932987E-01    2     1000022         5   # BR(~b_1 -> ~chi_10 b )
     1.62910538E-01    2     1000023         5   # BR(~b_1 -> ~chi_20 b )
     5.13913180E-03    2     1000025         5   # BR(~b_1 -> ~chi_30 b )
     3.46473969E-01    2    -1000024         6   # BR(~b_1 -> ~chi_1- t )
     8.92833031E-03    2    -1000037         6   # BR(~b_1 -> ~chi_2- t )
     9.43872695E-02    2     1000021         5   # BR(~b_1 -> ~g      b )
     2.17227775E-01    2     1000006       -24   # BR(~b_1 -> ~t_1    W-)
#
#         PDG            Width
DECAY   2000005     8.38082814E+01   # sbottom2 decays
#          BR         NDA      ID1       ID2
     2.07159265E-01    2     1000022         5   # BR(~b_2 -> ~chi_10 b )
     2.05977493E-01    2     1000023         5   # BR(~b_2 -> ~chi_20 b )
     3.88964718E-05    2     1000025         5   # BR(~b_2 -> ~chi_30 b )
     4.10116102E-01    2    -1000024         6   # BR(~b_2 -> ~chi_1- t )
     7.26728042E-05    2    -1000037         6   # BR(~b_2 -> ~chi_2- t )
     1.75703475E-01    2     1000021         5   # BR(~b_2 -> ~g      b )
     6.98153005E-06    2     1000005        23   # BR(~b_2 -> ~b_1    Z )
     9.12013336E-04    2     1000006       -24   # BR(~b_2 -> ~t_1    W-)
     1.31005175E-05    2     2000006       -24   # BR(~b_2 -> ~t_2    W-)
#
#         PDG            Width
DECAY   1000002     7.88034826E+00   # sup_L decays
#          BR         NDA      ID1       ID2
     1.08464243E-03    2     1000022         2   # BR(~u_L -> ~chi_10 u)
     6.48298136E-04    2     1000023         2   # BR(~u_L -> ~chi_20 u)
     3.13018561E-02    2     1000025         2   # BR(~u_L -> ~chi_30 u)
     5.98458222E-03    2     1000024         1   # BR(~u_L -> ~chi_1+ d)
     6.24326250E-02    2     1000037         1   # BR(~u_L -> ~chi_2+ d)
     8.98547996E-01    2     1000021         2   # BR(~u_L -> ~g      u)
#
#         PDG            Width
DECAY   2000002     7.50703804E+01   # sup_R decays
#          BR         NDA      ID1       ID2
     6.85880609E-06    2     1000022         2   # BR(~u_R -> ~chi_10 u)
     8.92165960E-06    2     1000023         2   # BR(~u_R -> ~chi_20 u)
     2.12976235E-09    2     1000025         2   # BR(~u_R -> ~chi_30 u)
     9.99984217E-01    2     1000021         2   # BR(~u_R -> ~g      u)
#
#         PDG            Width
DECAY   1000001     7.89719814E+00   # sdown_L decays
#          BR         NDA      ID1       ID2
     8.66714228E-04    2     1000022         1   # BR(~d_L -> ~chi_10 d)
     4.61705480E-04    2     1000023         1   # BR(~d_L -> ~chi_20 d)
     3.15583861E-02    2     1000025         1   # BR(~d_L -> ~chi_30 d)
     1.22623423E-04    2    -1000024         2   # BR(~d_L -> ~chi_1- u)
     6.30903492E-02    2    -1000037         2   # BR(~d_L -> ~chi_2- u)
     9.03900222E-01    2     1000021         1   # BR(~d_L -> ~g      d)
#
#         PDG            Width
DECAY   2000001     1.52687239E-04   # sdown_R decays
#           BR         NDA      ID1       ID2
     3.30738355E-01    2     1000022         1   # BR(~d_R -> ~chi_10 d)
     4.29577372E-01    2     1000023         1   # BR(~d_R -> ~chi_20 d)
#           BR         NDA      ID1       ID2       ID3
     1.91162013E-02    3        1       -11        1000011   # BR(~d_R -> d  e+  ~e_L-)
     1.05483602E-03    3        1       11        -1000011   # BR(~d_R -> d  e-  ~e_L+)
     1.98693749E-02    3        1       -12        1000012   # BR(~d_R -> d  nu_eb  ~nu_eL)
     1.17737410E-03    3        1       12        -1000012   # BR(~d_R -> d  nu_e  ~nu_eL*)
     1.89773554E-02    3        1       -13        1000013   # BR(~d_R -> d  mu+  ~mu_L-)
     1.04776274E-03    3        1       13        -1000013   # BR(~d_R -> d  mu-  ~mu_L+)
     1.99571360E-02    3        1       -14        1000014   # BR(~d_R -> d  nu_mub  ~nu_muL)
     1.16342401E-03    3        1       14        -1000014   # BR(~d_R -> d  nu_mu  ~nu_muL*)
     4.77223902E-03    3        1       -15        1000015   # BR(~d_R -> d  tau+  ~tau_1-)
     8.20173322E-02    3        1       15        -1000015   # BR(~d_R -> d  tau-  ~tau_1+)
     1.05562194E-02    3        1       23        1000022   # BR(~d_R -> d  Z  ~chi_10)
     6.14936786E-03    3        1       25        1000022   # BR(~d_R -> d  h  ~chi_10)
     6.43963442E-03    3        1       23        1000023   # BR(~d_R -> d  Z  ~chi_20)
     1.02765628E-02    3        1       25        1000023   # BR(~d_R -> d  h  ~chi_20)
     1.67754687E-03    3        1       -24        1000024   # BR(~d_R -> d  W-  ~chi_1+)
     3.54319067E-02    3        1       24        -1000024   # BR(~d_R -> d  W+  ~chi_1-)
#
#         PDG            Width
DECAY   1000004     5.93419698E+00   # scharm_L decays
#          BR         NDA      ID1       ID2
     1.51420832E-03    2     1000022         4   # BR(~c_L -> ~chi_10 c)
     9.05032491E-04    2     1000023         4   # BR(~c_L -> ~chi_20 c)
     4.09860306E-02    2     1000025         4   # BR(~c_L -> ~chi_30 c)
     8.35464662E-03    2     1000024         3   # BR(~c_L -> ~chi_1+ s)
     8.17478761E-02    2     1000037         3   # BR(~c_L -> ~chi_2+ s)
     8.66492206E-01    2     1000021         4   # BR(~c_L -> ~g      c)
#
#         PDG            Width
DECAY   2000004     5.45156185E+01   # scharm_R decays
#          BR         NDA      ID1       ID2
     9.87153693E-06    2     1000022         4   # BR(~c_R -> ~chi_10 c)
     1.28402881E-05    2     1000023         4   # BR(~c_R -> ~chi_20 c)
     3.01479265E-09    2     1000025         4   # BR(~c_R -> ~chi_30 c)
     9.99977285E-01    2     1000021         4   # BR(~c_R -> ~g      c)
#
#         PDG            Width
DECAY   1000003     5.93294433E+00   # sstrange_L decays
#          BR         NDA      ID1       ID2
     1.21282359E-03    2     1000022         3   # BR(~s_L -> ~chi_10 s)
     6.46066312E-04    2     1000023         3   # BR(~s_L -> ~chi_20 s)
     4.14293604E-02    2     1000025         3   # BR(~s_L -> ~chi_30 s)
     1.71589140E-04    2    -1000024         4   # BR(~s_L -> ~chi_1- c)
     8.28185460E-02    2    -1000037         4   # BR(~s_L -> ~chi_2- c)
     8.73721614E-01    2     1000021         3   # BR(~s_L -> ~g      s)
#
#         PDG            Width
DECAY   2000003     1.52091433E-04   # sstrange_R decays
#           BR         NDA      ID1       ID2
     3.30316737E-01    2     1000022         3   # BR(~s_R -> ~chi_10 s)
     4.29021122E-01    2     1000023         3   # BR(~s_R -> ~chi_20 s)
#           BR         NDA      ID1       ID2       ID3
     1.91910875E-02    3        3       -11        1000011   # BR(~s_R -> s  e+  ~e_L-)
     1.05896826E-03    3        3       11        -1000011   # BR(~s_R -> s  e-  ~e_L+)
     2.00103315E-02    3        3       -12        1000012   # BR(~s_R -> s  nu_eb  ~nu_eL)
     1.18198636E-03    3        3       12        -1000012   # BR(~s_R -> s  nu_e  ~nu_eL*)
     1.90516977E-02    3        3       -13        1000013   # BR(~s_R -> s  mu+  ~mu_L-)
     1.05594376E-03    3        3       13        -1000013   # BR(~s_R -> s  mu-  ~mu_L+)
     2.00353165E-02    3        3       -14        1000014   # BR(~s_R -> s  nu_mub  ~nu_muL)
     1.16798163E-03    3        3       14        -1000014   # BR(~s_R -> s  nu_mu  ~nu_muL*)
     4.73767645E-03    3        3       -15        1000015   # BR(~s_R -> s  tau+  ~tau_1-)
     8.23386285E-02    3        3       15        -1000015   # BR(~s_R -> s  tau-  ~tau_1+)
     1.05975726E-02    3        3       23        1000022   # BR(~s_R -> s  Z  ~chi_10)
     6.17345751E-03    3        3       25        1000022   # BR(~s_R -> s  h  ~chi_10)
     6.48728190E-03    3        3       23        1000023   # BR(~s_R -> s  Z  ~chi_20)
     1.03168204E-02    3        3       25        1000023   # BR(~s_R -> s  h  ~chi_20)
     1.68668277E-03    3        3       -24        1000024   # BR(~s_R -> s  W-  ~chi_1+)
     3.55707083E-02    3        3       24        -1000024   # BR(~s_R -> s  W+  ~chi_1-)
#
#         PDG            Width
DECAY   1000011     4.40596043E-04   # selectron_L decays
#          BR         NDA      ID1       ID2
     5.85781210E-01    2     1000022        11   # BR(~e_L -> ~chi_10 e-)
     3.61525958E-01    2     1000023        11   # BR(~e_L -> ~chi_20 e-)
     5.26928325E-02    2    -1000024        12   # BR(~e_L -> ~chi_1- nu_e)
#
#         PDG            Width
DECAY   2000011     2.17115132E-01   # selectron_R decays
#           BR         NDA      ID1       ID2
     6.24626232E-03    2     1000022        11   # BR(~e_R -> ~chi_10 e-)
     8.12519930E-03    2     1000023        11   # BR(~e_R -> ~chi_20 e-)
#           BR         NDA      ID1       ID2       ID3
     1.82239715E-03    3        11       -1        1000001   # BR(~e_R- -> e-  db  ~d_L)
     1.72760874E-03    3        11       1        -1000001   # BR(~e_R- -> e-  d  ~d_L*)
     2.49623319E-02    3        11       -1        2000001   # BR(~e_R- -> e-  db  ~d_R)
     2.89892276E-02    3        11       1        -2000001   # BR(~e_R- -> e-  d  ~d_R*)
     1.83538566E-03    3        11       -2        1000002   # BR(~e_R- -> e-  ub  ~u_L)
     1.73847854E-03    3        11       2        -1000002   # BR(~e_R- -> e-  u  ~u_L*)
     1.07104465E-03    3        11       -2        2000002   # BR(~e_R- -> e-  ub  ~u_R)
     1.05727315E-03    3        11       2        -2000002   # BR(~e_R- -> e-  u  ~u_R*)
     1.80908625E-03    3        11       -3        1000003   # BR(~e_R- -> e-  sb  ~s_L)
     1.72544400E-03    3        11       3        -1000003   # BR(~e_R- -> e-  s  ~s_L*)
     2.44206839E-02    3        11       -3        2000003   # BR(~e_R- -> e-  sb  ~s_R)
     2.87593957E-02    3        11       3        -2000003   # BR(~e_R- -> e-  s  ~s_R*)
     1.81815978E-03    3        11       -4        1000004   # BR(~e_R- -> e-  cb  ~c_L)
     1.73801796E-03    3        11       4        -1000004   # BR(~e_R- -> e-  c  ~c_L*)
     1.04842992E-03    3        11       -4        2000004   # BR(~e_R- -> e-  cb  ~c_R)
     1.06685332E-03    3        11       4        -2000004   # BR(~e_R- -> e-  c  ~c_R*)
     1.48455797E-03    3        11       -5        1000005   # BR(~e_R- -> e-  bb  ~b_1)
     1.40837719E-03    3        11       5        -1000005   # BR(~e_R- -> e-  b  ~b_1*)
     4.46371466E-03    3        11       -5        2000005   # BR(~e_R- -> e-  bb  ~b_2)
     4.69290182E-03    3        11       5        -2000005   # BR(~e_R- -> e-  b  ~b_2*)
     8.49318968E-02    3        11       -6        1000006   # BR(~e_R- -> e-  tb  ~t_1)
     9.70084387E-02    3        11       6        -1000006   # BR(~e_R- -> e-  t  ~t_1*)
     1.32782085E-03    3        11       -6        2000006   # BR(~e_R- -> e-  tb  ~t_2)
     1.29631683E-03    3        11       6        -2000006   # BR(~e_R- -> e-  t  ~t_2*)
     3.52647000E-02    3        11       -11        1000011   # BR(~e_R- -> e-  e+  ~e_L-)
     2.67305182E-02    3        11       11        -1000011   # BR(~e_R- -> e-  e-  ~e_L+)
     3.55019013E-02    3        11       -12        1000012   # BR(~e_R- -> e-  nu_eb  ~nu_eL)
     2.72841415E-02    3        11       12        -1000012   # BR(~e_R- -> e-  nu_e  ~nu_eL*)
     3.52711482E-02    3        11       -13        1000013   # BR(~e_R- -> e-  mu+  ~mu_L-)
     2.68972501E-02    3        11       13        -1000013   # BR(~e_R- -> e-  mu-  ~mu_L+)
     3.55820431E-02    3        11       -14        1000014   # BR(~e_R- -> e-  nu_mub  ~nu_muL)
     2.69456114E-02    3        11       14        -1000014   # BR(~e_R- -> e-  nu_mu  ~nu_muL*)
     1.06869566E-01    3        11       -15        1000015   # BR(~e_R- -> e-  tau+  ~tau_1-)
     1.43255791E-01    3        11       15        -1000015   # BR(~e_R- -> e-  tau-  ~tau_1+)
     7.56925592E-03    3        11       -15        2000015   # BR(~e_R- -> e-  tau+  ~tau_2-)
     7.12064601E-03    3        11       15        -2000015   # BR(~e_R- -> e-  tau-  ~tau_2+)
     7.58583698E-03    3        11       -16        1000016   # BR(~e_R- -> e-  nu_taub  ~nu_tau1)
     7.10314378E-03    3        11       16        -1000016   # BR(~e_R- -> e-  nu_tau  ~nu_tau1*)
     1.95140705E-02    3        11       23        1000022   # BR(~e_R- -> e-  Z  ~chi_10)
     1.36604942E-02    3        11       25        1000022   # BR(~e_R- -> e-  h  ~chi_10)
     1.44775722E-02    3        11       23        1000023   # BR(~e_R- -> e-  Z  ~chi_20)
     1.86698179E-02    3        11       25        1000023   # BR(~e_R- -> e-  h  ~chi_20)
     5.71217670E-06    3        11       23        1000025   # BR(~e_R- -> e-  Z  ~chi_30)
     5.56248654E-07    3        11       25        1000025   # BR(~e_R- -> e-  h  ~chi_30)
     2.91260215E-02    3        11       -24        1000024   # BR(~e_R- -> e-  W-  ~chi_1+)
     3.89760949E-02    3        11       24        -1000024   # BR(~e_R- -> e-  W+  ~chi_1-)
     5.20461190E-06    3        11       -24        1000037   # BR(~e_R- -> e-  W-  ~chi_2+)
     7.59735161E-06    3        11       24        -1000037   # BR(~e_R- -> e-  W+  ~chi_2-)
#
#         PDG            Width
DECAY   1000013     4.40595574E-04   # smuon_L decays
#          BR         NDA      ID1       ID2
     5.85781189E-01    2     1000022        13   # BR(~mu_L -> ~chi_10 mu-)
     3.61525922E-01    2     1000023        13   # BR(~mu_L -> ~chi_20 mu-)
     5.26928886E-02    2    -1000024        14   # BR(~mu_L -> ~chi_1- nu_mu)
#
#         PDG            Width
DECAY   2000013     2.17095253E-01   # smuon_R decays
#           BR         NDA      ID1       ID2
     6.24683428E-03    2     1000022        13   # BR(~mu_R -> ~chi_10 mu-)
     8.12594326E-03    2     1000023        13   # BR(~mu_R -> ~chi_20 mu-)
#           BR         NDA      ID1       ID2       ID3
     1.81980028E-03    3        13       -1        1000001   # BR(~mu_R- -> mu-  db  ~d_L)
     1.72776694E-03    3        13       1        -1000001   # BR(~mu_R- -> mu-  d  ~d_L*)
     2.49894916E-02    3        13       -1        2000001   # BR(~mu_R- -> mu-  db  ~d_R)
     2.89918822E-02    3        13       1        -2000001   # BR(~mu_R- -> mu-  d  ~d_R*)
     1.83555372E-03    3        13       -2        1000002   # BR(~mu_R- -> mu-  ub  ~u_L)
     1.73863774E-03    3        13       2        -1000002   # BR(~mu_R- -> mu-  u  ~u_L*)
     1.07114272E-03    3        13       -2        2000002   # BR(~mu_R- -> mu-  ub  ~u_R)
     1.05736996E-03    3        13       2        -2000002   # BR(~mu_R- -> mu-  u  ~u_R*)
     1.80925191E-03    3        13       -3        1000003   # BR(~mu_R- -> mu-  sb  ~s_L)
     1.72560198E-03    3        13       3        -1000003   # BR(~mu_R- -> mu-  s  ~s_L*)
     2.44229200E-02    3        13       -3        2000003   # BR(~mu_R- -> mu-  sb  ~s_R)
     2.87620292E-02    3        13       3        -2000003   # BR(~mu_R- -> mu-  s  ~s_R*)
     1.81832627E-03    3        13       -4        1000004   # BR(~mu_R- -> mu-  cb  ~c_L)
     1.73817711E-03    3        13       4        -1000004   # BR(~mu_R- -> mu-  c  ~c_L*)
     1.04852592E-03    3        13       -4        2000004   # BR(~mu_R- -> mu-  cb  ~c_R)
     1.06695101E-03    3        13       4        -2000004   # BR(~mu_R- -> mu-  c  ~c_R*)
     1.48469391E-03    3        13       -5        1000005   # BR(~mu_R- -> mu-  bb  ~b_1)
     1.40850615E-03    3        13       5        -1000005   # BR(~mu_R- -> mu-  b  ~b_1*)
     4.46421553E-03    3        13       -5        2000005   # BR(~mu_R- -> mu-  bb  ~b_2)
     4.69333154E-03    3        13       5        -2000005   # BR(~mu_R- -> mu-  b  ~b_2*)
     8.49396738E-02    3        13       -6        1000006   # BR(~mu_R- -> mu-  tb  ~t_1)
     9.70173216E-02    3        13       6        -1000006   # BR(~mu_R- -> mu-  t  ~t_1*)
     1.32794244E-03    3        13       -6        2000006   # BR(~mu_R- -> mu-  tb  ~t_2)
     1.29643553E-03    3        13       6        -2000006   # BR(~mu_R- -> mu-  t  ~t_2*)
     3.53232044E-02    3        13       -11        1000011   # BR(~mu_R- -> mu-  e+  ~e_L-)
     2.68177214E-02    3        13       11        -1000011   # BR(~mu_R- -> mu-  e-  ~e_L+)
     3.55051521E-02    3        13       -12        1000012   # BR(~mu_R- -> mu-  nu_eb  ~nu_eL)
     2.72861793E-02    3        13       12        -1000012   # BR(~mu_R- -> mu-  nu_e  ~nu_eL*)
     3.52743778E-02    3        13       -13        1000013   # BR(~mu_R- -> mu-  mu+  ~mu_L-)
     2.67274384E-02    3        13       13        -1000013   # BR(~mu_R- -> mu-  mu-  ~mu_L+)
     3.55853013E-02    3        13       -14        1000014   # BR(~mu_R- -> mu-  nu_mub  ~nu_muL)
     2.69480788E-02    3        13       14        -1000014   # BR(~mu_R- -> mu-  nu_mu  ~nu_muL*)
     1.06879352E-01    3        13       -15        1000015   # BR(~mu_R- -> mu-  tau+  ~tau_1-)
     1.43268909E-01    3        13       15        -1000015   # BR(~mu_R- -> mu-  tau-  ~tau_1+)
     7.58653161E-03    3        13       -15        2000015   # BR(~mu_R- -> mu-  tau+  ~tau_2-)
     7.11991615E-03    3        13       15        -2000015   # BR(~mu_R- -> mu-  tau-  ~tau_2+)
     7.58653161E-03    3        13       -16        1000016   # BR(~mu_R- -> mu-  nu_taub  ~nu_tau1)
     7.10379420E-03    3        13       16        -1000016   # BR(~mu_R- -> mu-  nu_tau  ~nu_tau1*)
     1.95158574E-02    3        13       23        1000022   # BR(~mu_R- -> mu-  Z  ~chi_10)
     1.36617450E-02    3        13       25        1000022   # BR(~mu_R- -> mu-  h  ~chi_10)
     1.44788979E-02    3        13       23        1000023   # BR(~mu_R- -> mu-  Z  ~chi_20)
     1.86715275E-02    3        13       25        1000023   # BR(~mu_R- -> mu-  h  ~chi_20)
     5.71269976E-06    3        13       23        1000025   # BR(~mu_R- -> mu-  Z  ~chi_30)
     5.54457079E-07    3        13       25        1000025   # BR(~mu_R- -> mu-  h  ~chi_30)
     2.90324174E-02    3        13       -24        1000024   # BR(~mu_R- -> mu-  W-  ~chi_1+)
     3.89796639E-02    3        13       24        -1000024   # BR(~mu_R- -> mu-  W+  ~chi_1-)
     5.21107663E-06    3        13       -24        1000037   # BR(~mu_R- -> mu-  W-  ~chi_2+)
     7.59804729E-06    3        13       24        -1000037   # BR(~mu_R- -> mu-  W+  ~chi_2-)
#
#         PDG            Width
DECAY   1000015     4.66758876E-01   # stau_1 decays
#          BR         NDA      ID1       ID2
     2.60954713E-01    2     1000022        15   # BR(~tau_1 -> ~chi_10  tau-)
     2.39863147E-01    2     1000023        15   # BR(~tau_1 -> ~chi_20  tau-)
     4.99182140E-01    2    -1000024        16   # BR(~tau_1 -> ~chi_1-  nu_tau)
#
#         PDG            Width
DECAY   2000015     1.45947158E+01   # stau_2 decays
#          BR         NDA      ID1       ID2
     4.94436085E-01    2     1000022        15   # BR(~tau_2 -> ~chi_10  tau-)
     4.89981496E-01    2     1000023        15   # BR(~tau_2 -> ~chi_20  tau-)
     1.28839434E-04    2     1000025        15   # BR(~tau_2 -> ~chi_30  tau-)
     5.88200386E-06    2    -1000024        16   # BR(~tau_2 -> ~chi_1-  nu_tau)
     2.53954551E-04    2    -1000037        16   # BR(~tau_2 -> ~chi_2-  nu_tau)
     7.65821395E-03    2     1000015        25   # BR(~tau_2 -> ~tau_1   h)
     7.53552886E-03    2     1000015        23   # BR(~tau_2 -> ~tau_1   Z)
#
#         PDG            Width
DECAY   1000012     1.08673518E-03   # snu_eL decays
#          BR         NDA      ID1       ID2
     1.00145389E-01    2     1000022        12   # BR(~nu_eL -> ~chi_10 nu_e)
     4.27787948E-02    2     1000023        12   # BR(~nu_eL -> ~chi_20 nu_e)
     8.57075817E-01    2     1000024        11   # BR(~nu_eL -> ~chi_1+ e-)
#
#         PDG            Width
DECAY   1000014     1.08673386E-03   # snu_muL decays
#          BR         NDA      ID1       ID2
     1.00145510E-01    2     1000022        14   # BR(~nu_muL -> ~chi_10 nu_mu)
     4.27788465E-02    2     1000023        14   # BR(~nu_muL -> ~chi_20 nu_mu)
     8.57075644E-01    2     1000024        13   # BR(~nu_muL -> ~chi_1+ mu-)
#
#         PDG            Width
DECAY   1000016     1.46095680E+01   # snu_tauL decays
#          BR         NDA      ID1       ID2
     3.52511352E-04    2     1000022        16   # BR(~nu_tauL -> ~chi_10 nu_tau)
     1.60632560E-04    2     1000023        16   # BR(~nu_tauL -> ~chi_20 nu_tau)
     1.03453105E-04    2     1000025        16   # BR(~nu_tauL -> ~chi_30 nu_tau)
     9.84587436E-01    2     1000024        15   # BR(~nu_tauL -> ~chi_1+ tau-)
     2.00625255E-04    2     1000037        15   # BR(~nu_tauL -> ~chi_2+ tau-)
     1.45953414E-02    2    -1000015       -24   # BR(~nu_tauL -> ~tau_1+ W-)
#
#         PDG            Width
DECAY   1000024     3.14910270E-12   # chargino1+ decays
#           BR         NDA      ID1       ID2       ID3
     5.99951060E-01    3     1000022         2        -1   # BR(~chi_1+ -> ~chi_10 u    db)
     2.00024470E-01    3     1000022       -11        12   # BR(~chi_1+ -> ~chi_10 e+   nu_e)
     2.00024470E-01    3     1000022       -13        14   # BR(~chi_1+ -> ~chi_10 mu+  nu_mu)
#
#         PDG            Width
DECAY   1000037     5.24970377E+01   # chargino2+ decays
#          BR         NDA      ID1       ID2
     7.19293497E-05    2     1000006        -5   # BR(~chi_2+ -> ~t_1     bb)
     1.64426107E-01    2     1000012       -11   # BR(~chi_2+ -> ~nu_eL   e+  )
     1.64426107E-01    2     1000014       -13   # BR(~chi_2+ -> ~nu_muL mu+ )
     1.64411700E-01    2    -1000011        12   # BR(~chi_2+ -> ~e_L+    nu_e)
     1.64411700E-01    2    -1000013        14   # BR(~chi_2+ -> ~mu_L+   nu_mu)
     1.32713762E-07    2    -1000015        16   # BR(~chi_2+ -> ~tau_1+  nu_tau)
     8.68381055E-02    2     1000024        23   # BR(~chi_2+ -> ~chi_1+  Z )
     8.40157398E-02    2     1000022        24   # BR(~chi_2+ -> ~chi_10  W+)
     8.47570337E-02    2     1000023        24   # BR(~chi_2+ -> ~chi_20  W+)
     8.66414448E-02    2     1000024        25   # BR(~chi_2+ -> ~chi_1+  h )
#
#         PDG            Width
DECAY   1000022     0.00000000E+00   # neutralino1 decays
#
#         PDG            Width
DECAY   1000023     8.92109694E-11   # neutralino2 decays
#          BR         NDA      ID1       ID2
     1.06487561E-01    2     1000022        22   # BR(~chi_20 -> ~chi_10 gam)
#           BR         NDA      ID1       ID2       ID3
     1.43496422E-01    3     1000022        -2         2   # BR(~chi_20 -> ~chi_10 ub      u)
     1.86219199E-01    3     1000022        -1         1   # BR(~chi_20 -> ~chi_10 db      d)
     1.86219199E-01    3     1000022        -3         3   # BR(~chi_20 -> ~chi_10 sb      s)
     4.27408814E-02    3     1000022       -11        11   # BR(~chi_20 -> ~chi_10 e+      e-)
     4.27408814E-02    3     1000022       -13        13   # BR(~chi_20 -> ~chi_10 mu+     mu-)
     8.54834845E-02    3     1000022       -12        12   # BR(~chi_20 -> ~chi_10 nu_eb   nu_e)
     8.54834845E-02    3     1000022       -14        14   # BR(~chi_20 -> ~chi_10 nu_mub  nu_mu)
     8.54741270E-02    3     1000022       -16        16   # BR(~chi_20 -> ~chi_10 nu_taub nu_tau)
     1.06960200E-02    3     1000024        -2         1   # BR(~chi_20 -> ~chi_1+ ub      d)
     1.06960200E-02    3    -1000024        -1         2   # BR(~chi_20 -> ~chi_1- db      u)
     3.56567996E-03    3     1000024       -12        11   # BR(~chi_20 -> ~chi_1+ nu_eb   e-)
     3.56567996E-03    3    -1000024        12       -11   # BR(~chi_20 -> ~chi_1- nu_e    e+)
     3.56567996E-03    3     1000024       -14        13   # BR(~chi_20 -> ~chi_1+ nu_mub  mu-)
     3.56567996E-03    3    -1000024        14       -13   # BR(~chi_20 -> ~chi_1- nu_mu   mu+)
#
#         PDG            Width
DECAY   1000025     5.24950044E+01   # neutralino3 decays
#          BR         NDA      ID1       ID2
     3.10817598E-02    2     1000022        23   # BR(~chi_30 -> ~chi_10   Z )
     5.57067979E-02    2     1000023        23   # BR(~chi_30 -> ~chi_20   Z )
     8.46008973E-02    2     1000024       -24   # BR(~chi_30 -> ~chi_1+   W-)
     8.46008973E-02    2    -1000024        24   # BR(~chi_30 -> ~chi_1-   W+)
     5.51854832E-02    2     1000022        25   # BR(~chi_30 -> ~chi_10   h )
     3.11092708E-02    2     1000023        25   # BR(~chi_30 -> ~chi_20   h )
     1.21533715E-09    2     2000001        -1   # BR(~chi_30 -> ~d_R      db)
     1.21533715E-09    2    -2000001         1   # BR(~chi_30 -> ~d_R*     d )
     1.21533715E-09    2     2000003        -3   # BR(~chi_30 -> ~s _R      sb)
     1.21533715E-09    2    -2000003         3   # BR(~chi_30 -> ~s _R*     s )
     3.27945975E-05    2     1000006        -6   # BR(~chi_30 -> ~t_1      tb)
     3.27945975E-05    2    -1000006         6   # BR(~chi_30 -> ~t_1*     t )
     8.20727251E-02    2     1000011       -11   # BR(~chi_30 -> ~e_L-     e+)
     8.20727251E-02    2    -1000011        11   # BR(~chi_30 -> ~e_L+     e-)
     8.20727251E-02    2     1000013       -13   # BR(~chi_30 -> ~mu_L-    mu+)
     8.20727251E-02    2    -1000013        13   # BR(~chi_30 -> ~mu_L+    mu-)
     7.26975730E-08    2     1000015       -15   # BR(~chi_30 -> ~tau_1-   tau+)
     7.26975730E-08    2    -1000015        15   # BR(~chi_30 -> ~tau_1+   tau-)
     8.23395635E-02    2     1000012       -12   # BR(~chi_30 -> ~nu_eL    nu_eb)
     8.23395635E-02    2    -1000012        12   # BR(~chi_30 -> ~nu_eL*   nu_e )
     8.23395635E-02    2     1000014       -14   # BR(~chi_30 -> ~nu_muL   nu_mub)
     8.23395635E-02    2    -1000014        14   # BR(~chi_30 -> ~nu_muL*  nu_mu )
#
#         PDG            Width
DECAY   1000035     7.63130817E+01   # neutralino4 decays
#          BR         NDA      ID1       ID2
     1.60907745E-02    2     1000022        23   # BR(~chi_40 -> ~chi_10   Z )
     1.25972650E-02    2     1000023        23   # BR(~chi_40 -> ~chi_20   Z )
     7.51179099E-06    2     1000025        23   # BR(~chi_40 -> ~chi_30   Z )
     2.78675393E-02    2     1000024       -24   # BR(~chi_40 -> ~chi_1+   W-)
     2.78675393E-02    2    -1000024        24   # BR(~chi_40 -> ~chi_1-   W+)
     7.69032787E-06    2     1000037       -24   # BR(~chi_40 -> ~chi_2+   W-)
     7.69032787E-06    2    -1000037        24   # BR(~chi_40 -> ~chi_2-   W+)
     1.29694861E-02    2     1000022        25   # BR(~chi_40 -> ~chi_10   h )
     1.68800061E-02    2     1000023        25   # BR(~chi_40 -> ~chi_20   h )
     3.96374967E-07    2     1000025        25   # BR(~chi_40 -> ~chi_30   h )
     2.49266229E-03    2     1000002        -2   # BR(~chi_40 -> ~u_L      ub)
     2.49266229E-03    2    -1000002         2   # BR(~chi_40 -> ~u_L*     u )
     2.42151050E-03    2     2000002        -2   # BR(~chi_40 -> ~u_R      ub)
     2.42151050E-03    2    -2000002         2   # BR(~chi_40 -> ~u_R*     u )
     2.49746092E-03    2     1000001        -1   # BR(~chi_40 -> ~d_L      db)
     2.49746092E-03    2    -1000001         1   # BR(~chi_40 -> ~d_L*     d )
     2.83126512E-02    2     2000001        -1   # BR(~chi_40 -> ~d_R      db)
     2.83126512E-02    2    -2000001         1   # BR(~chi_40 -> ~d_R*     d )
     2.49266020E-03    2     1000004        -4   # BR(~chi_40 -> ~c_L      cb)
     2.49266020E-03    2    -1000004         4   # BR(~chi_40 -> ~c_L*     c )
     2.42145094E-03    2     2000004        -4   # BR(~chi_40 -> ~c_R      cb)
     2.42145094E-03    2    -2000004         4   # BR(~chi_40 -> ~c_R*     c )
     2.49746092E-03    2     1000003        -3   # BR(~chi_40 -> ~s _L      sb)
     2.49746092E-03    2    -1000003         3   # BR(~chi_40 -> ~s _L*     s )
     2.83126512E-02    2     2000003        -3   # BR(~chi_40 -> ~s _R      sb)
     2.83126512E-02    2    -2000003         3   # BR(~chi_40 -> ~s _R*     s )
     1.04688026E-01    2     1000006        -6   # BR(~chi_40 -> ~t_1      tb)
     1.04688026E-01    2    -1000006         6   # BR(~chi_40 -> ~t_1*     t )
     2.00259712E-03    2     2000006        -6   # BR(~chi_40 -> ~t_2      tb)
     2.00259712E-03    2    -2000006         6   # BR(~chi_40 -> ~t_2*     t )
     2.15356111E-03    2     1000005        -5   # BR(~chi_40 -> ~b_1      bb)
     2.15356111E-03    2    -1000005         5   # BR(~chi_40 -> ~b_1*     b )
     7.01166611E-03    2     2000005        -5   # BR(~chi_40 -> ~b_2      bb)
     7.01166611E-03    2    -2000005         5   # BR(~chi_40 -> ~b_2*     b )
     2.93808437E-02    2     1000011       -11   # BR(~chi_40 -> ~e_L-     e+)
     2.93808437E-02    2    -1000011        11   # BR(~chi_40 -> ~e_L+     e-)
     2.93808437E-02    2     1000013       -13   # BR(~chi_40 -> ~mu_L-    mu+)
     2.93808437E-02    2    -1000013        13   # BR(~chi_40 -> ~mu_L+    mu-)
     1.17843615E-01    2     1000015       -15   # BR(~chi_40 -> ~tau_1-   tau+)
     1.17843615E-01    2    -1000015        15   # BR(~chi_40 -> ~tau_1+   tau-)
     1.00055586E-02    2     2000015       -15   # BR(~chi_40 -> ~tau_2-   tau+)
     1.00055586E-02    2    -2000015        15   # BR(~chi_40 -> ~tau_2+   tau-)
     2.94485676E-02    2     1000012       -12   # BR(~chi_40 -> ~nu_eL    nu_eb)
     2.94485676E-02    2    -1000012        12   # BR(~chi_40 -> ~nu_eL*   nu_e )
     2.94485676E-02    2     1000014       -14   # BR(~chi_40 -> ~nu_muL   nu_mub)
     2.94485676E-02    2    -1000014        14   # BR(~chi_40 -> ~nu_muL*  nu_mu )
     1.00396964E-02    2     1000016       -16   # BR(~chi_40 -> ~nu_tau1  nu_taub)
     1.00396964E-02    2    -1000016        16   # BR(~chi_40 -> ~nu_tau1* nu_tau )
#
#         PDG            Width
DECAY        25     3.89635720E-03   # h decays
#          BR         NDA      ID1       ID2
     5.94751042E-01    2           5        -5   # BR(h -> b       bb     )
     6.64229222E-02    2         -15        15   # BR(h -> tau+    tau-   )
     2.35083871E-04    2         -13        13   # BR(h -> mu+     mu-    )
     2.56921369E-04    2           3        -3   # BR(h -> s       sb     )
     2.21970771E-02    2           4        -4   # BR(h -> c       cb     )
     8.12391037E-02    2          21        21   # BR(h -> g       g      )
     2.36994858E-03    2          22        22   # BR(h -> gam     gam    )
     1.54209587E-03    2          22        23   # BR(h -> Z       gam    )
     2.05489655E-01    2          24       -24   # BR(h -> W+      W-     )
     2.54961501E-02    2          23        23   # BR(h -> Z       Z      )
#
#         PDG            Width
DECAY        35     1.69126076E+02   # H decays
#          BR         NDA      ID1       ID2
     7.97390906E-01    2           5        -5   # BR(H -> b       bb     )
     1.22165236E-01    2         -15        15   # BR(H -> tau+    tau-   )
     4.02037233E-04    2         -13        13   # BR(H -> mu+     mu-    )
     3.22508975E-04    2           3        -3   # BR(H -> s       sb     )
     2.66762291E-09    2           4        -4   # BR(H -> c       cb     )
     2.62802270E-04    2           6        -6   # BR(H -> t       tb     )
     1.06051104E-05    2          21        21   # BR(H -> g       g      )
     3.53702688E-09    2          22        22   # BR(H -> gam     gam    )
     6.73072785E-09    2          23        22   # BR(H -> Z       gam    )
     8.90697060E-08    2          24       -24   # BR(H -> W+      W-     )
     4.44490446E-08    2          23        23   # BR(H -> Z       Z      )
     2.99285378E-07    2          25        25   # BR(H -> h       h      )
     4.18429910E-04    2     1000024  -1000024   # BR(H -> ~chi_1+ ~chi_1-)
     2.61625184E-02    2     1000024  -1000037   # BR(H -> ~chi_1+ ~chi_2-)
     2.61625184E-02    2     1000037  -1000024   # BR(H -> ~chi_2+ ~chi_1-)
     4.71431619E-05    2     1000022   1000022   # BR(H -> ~chi_10 ~chi_10)
     2.32832971E-05    2     1000023   1000023   # BR(H -> ~chi_20 ~chi_20)
     2.99559934E-06    2     1000022   1000023   # BR(H -> ~chi_10 ~chi_20)
     1.01226173E-02    2     1000022   1000025   # BR(H -> ~chi_10 ~chi_30)
     1.60835465E-02    2     1000023   1000025   # BR(H -> ~chi_20 ~chi_30)
     3.85629867E-05    2     1000006  -1000006   # BR(H -> ~t_1    ~t_1*  )
     2.16035850E-09    2     2000001  -2000001   # BR(H -> ~d_R    ~d_R*  )
     2.16035850E-09    2     2000003  -2000003   # BR(H -> ~s_R    ~s_R*  )
     1.55202432E-08    2     1000011  -1000011   # BR(H -> ~e_L-   ~e_L+  )
     1.55202432E-08    2     1000013  -1000013   # BR(H -> ~mu_L-  ~mu_L+ )
     2.61531504E-09    2     1000015  -1000015   # BR(H -> ~tau_1- ~tau_1+)
     1.91852092E-04    2     1000015  -2000015   # BR(H -> ~tau_1- ~tau_2+)
     1.91852092E-04    2     2000015  -1000015   # BR(H -> ~tau_2- ~tau_1+)
     5.05069522E-08    2     1000012  -1000012   # BR(H -> ~nu_eL  ~nu_eL*   )
     5.05069522E-08    2     1000014  -1000014   # BR(H -> ~nu_muL ~nu_muL*  )
#
#         PDG            Width
DECAY        36     1.69121762E+02   # A decays
#          BR         NDA      ID1       ID2
     7.97420189E-01    2           5        -5   # BR(A -> b       bb     )
     1.22168710E-01    2         -15        15   # BR(A -> tau+    tau-   )
     4.02048247E-04    2         -13        13   # BR(A -> mu+     mu-    )
     3.22525135E-04    2           3        -3   # BR(A -> s       sb     )
     2.68221491E-09    2           4        -4   # BR(A -> c       cb     )
     2.63555097E-04    2           6        -6   # BR(A -> t       tb     )
     1.61834904E-05    2          21        21   # BR(A -> g       g      )
     1.63012599E-08    2          22        22   # BR(A -> gam     gam    )
     1.15708957E-08    2          23        22   # BR(A -> Z       gam    )
     9.03175368E-08    2          23        25   # BR(A -> Z       h      )
     4.34906252E-04    2     1000024  -1000024   # BR(A -> ~chi_1+ ~chi_1-)
     2.61539488E-02    2     1000024  -1000037   # BR(A -> ~chi_1+ ~chi_2-)
     2.61539488E-02    2     1000037  -1000024   # BR(A -> ~chi_2+ ~chi_1-)
     5.21033329E-05    2     1000022   1000022   # BR(A -> ~chi_10 ~chi_10)
     2.22767509E-05    2     1000023   1000023   # BR(A -> ~chi_20 ~chi_20)
     1.97799356E-06    2     1000022   1000023   # BR(A -> ~chi_10 ~chi_20)
     1.61940931E-02    2     1000022   1000025   # BR(A -> ~chi_10 ~chi_30)
     1.00096270E-02    2     1000023   1000025   # BR(A -> ~chi_20 ~chi_30)
     1.91893188E-04    2     1000015  -2000015   # BR(A -> ~tau_1- ~tau_2+)
     1.91893188E-04    2    -1000015   2000015   # BR(A -> ~tau_1+ ~tau_2-)
#
#         PDG            Width
DECAY        37     1.70831423E+02   # H+ decays
#          BR         NDA      ID1       ID2
     1.34311635E-03    2           4        -5   # BR(H+ -> c       bb     )
     1.20984924E-01    2         -15        16   # BR(H+ -> tau+    nu_tau )
     3.98152493E-04    2         -13        14   # BR(H+ -> mu+     nu_mu  )
     1.34311511E-05    2           2        -5   # BR(H+ -> u       bb     )
     1.59779466E-05    2           2        -3   # BR(H+ -> u       sb     )
     3.14497055E-04    2           4        -3   # BR(H+ -> c       sb     )
     7.98429608E-01    2           6        -5   # BR(H+ -> t       bb     )
     8.95433105E-08    2          24        25   # BR(H+ -> W+      h      )
     1.20633893E-14    2          24        36   # BR(H+ -> W+      A      )
     5.62368932E-05    2     1000024   1000022   # BR(H+ -> ~chi_1+ ~chi_10)
     9.60383444E-05    2     1000024   1000023   # BR(H+ -> ~chi_1+ ~chi_20)
     2.59665884E-02    2     1000024   1000025   # BR(H+ -> ~chi_1+ ~chi_30)
     2.61311485E-02    2     1000037   1000022   # BR(H+ -> ~chi_2+ ~chi_10)
     2.58695017E-02    2     1000037   1000023   # BR(H+ -> ~chi_2+ ~chi_20)
     6.02590668E-08    2    -1000011   1000012   # BR(H+ -> ~e_L+   ~nu_eL )
     6.02590668E-08    2    -1000013   1000014   # BR(H+ -> ~mu_L+  ~nu_muL)
     3.80568866E-04    2    -1000015   1000016   # BR(H+ -> ~tau_1+ ~nu_tauL)
