#  ISAJET SUSY parameters in SUSY Les Houches Accord 2 format
#  Created by ISALHA 2.0 Last revision: C. Balazs 21 Apr 2009
Block SPINFO   # Program information
     1    ISASUSY from ISAJET          # Spectrum Calculator
     2   7.80   29-OCT-2009 12:50:36   # Version number
Block MODSEL   # Model selection
     1     0   # general MSSM-24 model                             
Block SMINPUTS   # Standard Model inputs
     1     1.28000000E+02   # alpha_em^(-1)
     2     1.16570000E-05   # G_Fermi
     3     1.19999997E-01   # alpha_s(M_Z)
     4     9.11699982E+01   # m_{Z}(pole)
     5     4.51715469E+00   # m_{b}(m_{b})
     6     1.72500000E+02   # m_{top}(pole)
     7     1.77699995E+00   # m_{tau}(pole)
Block MINPAR   # SUSY breaking input parameters.
     3     1.00000000E+01   # tan(beta)
     4     2.50000000E+03   # mu
Block MSOFT   # Non-universal SUSY breaking parameters 
     1     6.00000000E+01   # M_1(Q)          
     2     2.50000000E+03   # M_2(Q)          
     3     3.00000000E+03   # M_3(Q)          
    11     0.00000000E+00   #     At          
    12     0.00000000E+00   #     Ab          
    13     2.50000000E+04   #   Atau          
    23     2.50000000E+03   #    MUE          
    25     1.00000000E+01   #    TB           
    26     2.50000000E+03   #    MA0          
    31     2.50000000E+03   # MeL(Q)          
    32     2.50000000E+03   # MmuL(Q)         
    33     1.20000000E+02   # MtauL(Q)        
    34     2.50000000E+03   # MeR(Q)          
    35     2.50000000E+03   # MmuR(Q)         
    36     1.20000000E+02   # MtauR(Q)        
    41     2.50000000E+03   # MqL1(Q)         
    42     2.50000000E+03   # MqL2(Q)         
    43     2.50000000E+03   # MqL3(Q)         
    44     2.20000000E+03   # MuR(Q)          
    45     2.20000000E+03   # McR(Q)          
    46     2.50000000E+03   # MtR(Q)          
    47     2.20000000E+03   # MdR(Q)          
    48     2.20000000E+03   # MsR(Q)          
    49     2.50000000E+03   # MbR(Q)          
Block MASS   # Scalar and gaugino mass spectrum
#  PDG code   mass                 particle
         6     1.72500000E+02   #  top
        24     8.04229965E+01   #  W^+
        25     1.13288345E+02   #  h^0            
        35     2.51651904E+03   #  H^0            
        36     2.50000000E+03   #  A^0            
        37     2.51772217E+03   #  H^+            
   1000001     2.50068872E+03   #  dnl            
   1000002     2.49943726E+03   #  upl            
   1000003     2.50068872E+03   #  stl            
   1000004     2.49943774E+03   #  chl            
   1000005     2.48715942E+03   #  b1             
   1000006     2.49648804E+03   #  t1             
   1000011     2.50043677E+03   #  el-            
   1000012     2.50000000E+03   #  nuel
   1000013     2.50043677E+03   #  mul-           
   1000014     2.50000000E+03   #  numl
   1000015     600.0    #  tau1           
   1000016     2.50000000E+03   #  nutl
   1000021     3.00000000E+03   #  glss           
   1000022     0.0      #  z1ss           
   1000023     2.43826074E+03   #  z2ss           
   1000024     2.43827441E+03   #  w1ss           
   1000025    -2.50082422E+03   #  z3ss           
   1000035     2.56273804E+03   #  z4ss           
   1000037     2.56276270E+03   #  w2ss           
   2000001     2.20014307E+03   #  dnr            
   2000002     2.19971362E+03   #  upr            
   2000003     2.20014307E+03   #  str            
   2000004     2.19971411E+03   #  chr            
   2000005     2.51358838E+03   #  b2             
   2000006     2.51009106E+03   #  t2             
   2000011     2.50037793E+03   #  er-            
   2000013     2.50037793E+03   #  mur-           
   2000015     600.0    #  tau2           
Block ALPHA   # Effective Higgs mixing parameter
         -9.99946222E-02   # alpha
Block STOPMIX   # stop mixing matrix
  1  1     7.15108216E-01   # O_{11}
  1  2     6.99013770E-01   # O_{12}
  2  1    -6.99013770E-01   # O_{21}
  2  2     7.15108216E-01   # O_{22}
Block SBOTMIX   # sbottom mixing matrix
  1  1     6.99541688E-01   # O_{11}
  1  2     7.14591742E-01   # O_{12}
  2  1    -7.14591742E-01   # O_{21}
  2  2     6.99541688E-01   # O_{22}
Block STAUMIX   # stau mixing matrix
  1  1     4.53750290E-05   # O_{11}
  1  2    -1.00000000E+00   # O_{12}
  2  1     1.00000000E+00   # O_{21}
  2  2     4.53750290E-05   # O_{22}
Block NMIX   # neutralino mixing matrix
  1  1     9.99841869E-01   #
  1  2    -1.29419845E-04   #
  1  3     1.76466852E-02   #
  1  4    -2.18175352E-03   #
  2  1     1.00869685E-02   #
  2  2     7.06957877E-01   #
  2  3    -5.05143225E-01   #
  2  4     4.94913429E-01   #
  3  1    -1.09317154E-02   #
  3  2     1.01849781E-02   #
  3  3     7.06885397E-01   #
  3  4     7.07170367E-01   #
  4  1     9.74334683E-03   #
  4  2    -7.07182407E-01   #
  4  3    -4.94805306E-01   #
  4  4     5.04941642E-01   #
Block UMIX   # chargino U mixing matrix
  1  1    -6.99869037E-01   # U_{11}
  1  2     7.14271188E-01   # U_{12}
  2  1    -7.14271188E-01   # U_{21}
  2  2    -6.99869037E-01   # U_{22}
Block VMIX   # chargino V mixing matrix
  1  1    -7.14271009E-01   # V_{11}
  1  2     6.99869215E-01   # V_{12}
  2  1    -6.99869215E-01   # V_{21}
  2  2    -7.14271009E-01   # V_{22}
Block HMIX Q=  9.11699982E+01   # Higgs mixing parameters
     1     2.50000000E+03   # mu(Q)
     2     1.00000000E+01   # tan(beta)
Block AU   #
  3  3     0.00000000E+00   # A_t
Block AD   #
  3  3     0.00000000E+00   # A_b
Block AE   #
  3  3     2.50000000E+04   # A_tau
#  ISAJET decay tables in SUSY Les Houches accord format 
#  Created by ISALHD. Last revision: C. Balazs, 2005 May 25
#  isajet_helpers.f
Block DCINFO                           # Program information
     1   ISASUGRA from ISAJET          # Spectrum Calculator
     2   7.80   29-OCT-2009 12:50:36   # Version number
#         PDG         Width
DECAY         6  1.14680779E+00   # TP    decays
#          BR          NDA       ID1       ID2       ID3       ID4
      3.33333343E-01    3            2        -1         5             # TP     -->  UP     DB     BT          
      3.33333343E-01    3            4        -3         5             # TP     -->  CH     SB     BT          
      1.11111112E-01    3          -11        12         5             # TP     -->  E+     NUE    BT          
      1.11111112E-01    3          -13        14         5             # TP     -->  MU+    NUM    BT          
      1.11111112E-01    3          -15        16         5             # TP     -->  TAU+   NUT    BT          
#         PDG         Width
DECAY   1000021  9.86177673E+01   # GLSS  decays
#          BR          NDA       ID1       ID2       ID3       ID4
      2.94477399E-02    2     -1000002         2                       # GLSS   -->  UBL    UP                 
      2.94477399E-02    2      1000002        -2                       # GLSS   -->  UPL    UB                 
      2.93140132E-02    2     -1000001         1                       # GLSS   -->  DBL    DN                 
      2.93140132E-02    2      1000001        -1                       # GLSS   -->  DNL    DB                 
      6.72896355E-02    2     -2000002         2                       # GLSS   -->  UBR    UP                 
      6.72896355E-02    2      2000002        -2                       # GLSS   -->  UPR    UB                 
      6.72285408E-02    2     -2000001         1                       # GLSS   -->  DBR    DN                 
      6.72285408E-02    2      2000001        -1                       # GLSS   -->  DNR    DB                 
      2.93140095E-02    2     -1000003         3                       # GLSS   -->  SBL    ST                 
      2.93140095E-02    2      1000003        -3                       # GLSS   -->  STL    SB                 
      6.72285408E-02    2     -2000003         3                       # GLSS   -->  SBR    ST                 
      6.72285408E-02    2      2000003        -3                       # GLSS   -->  STR    SB                 
      2.94476114E-02    2     -1000004         4                       # GLSS   -->  CBL    CH                 
      2.94476114E-02    2      1000004        -4                       # GLSS   -->  CHL    CB                 
      6.72895089E-02    2     -2000004         4                       # GLSS   -->  CBR    CH                 
      6.72895089E-02    2      2000004        -4                       # GLSS   -->  CHR    CB                 
      3.04430090E-02    2     -1000005         5                       # GLSS   -->  BB1    BT                 
      3.04430090E-02    2      1000005        -5                       # GLSS   -->  BT1    BB                 
      2.82608978E-02    2     -2000005         5                       # GLSS   -->  BB2    BT                 
      2.82608978E-02    2      2000005        -5                       # GLSS   -->  BT2    BB                 
      1.77998170E-02    2     -1000006         6                       # GLSS   -->  TB1    TP                 
      1.77998170E-02    2      1000006        -6                       # GLSS   -->  TP1    TB                 
      3.69367413E-02    2     -2000006         6                       # GLSS   -->  TB2    TP                 
      3.69367413E-02    2      2000006        -6                       # GLSS   -->  TP2    TB                 
#         PDG         Width
DECAY   1000002  3.89565349E-01   # UPL   decays
#          BR          NDA       ID1       ID2       ID3       ID4
      9.03876483E-01    2      1000022         2                       # UPL    -->  Z1SS   UP                 
      3.17232683E-02    2      1000023         2                       # UPL    -->  Z2SS   UP                 
      6.44002706E-02    2      1000024         1                       # UPL    -->  W1SS+  DN                 
#         PDG         Width
DECAY   1000001  3.91072690E-01   # DNL   decays
#          BR          NDA       ID1       ID2       ID3       ID4
      9.03393865E-01    2      1000022         1                       # DNL    -->  Z1SS   DN                 
      3.25324275E-02    2      1000023         1                       # DNL    -->  Z2SS   DN                 
      6.40736595E-02    2     -1000024         2                       # DNL    -->  W1SS-  UP                 
#         PDG         Width
DECAY   1000003  3.91066670E-01   # STL   decays
#          BR          NDA       ID1       ID2       ID3       ID4
      9.03407812E-01    2      1000022         3                       # STL    -->  Z1SS   ST                 
      3.25329266E-02    2      1000023         3                       # STL    -->  Z2SS   ST                 
      6.40592724E-02    2     -1000024         4                       # STL    -->  W1SS-  CH                 
#         PDG         Width
DECAY   1000004  3.89562786E-01   # CHL   decays
#          BR          NDA       ID1       ID2       ID3       ID4
      9.03882146E-01    2      1000022         4                       # CHL    -->  Z1SS   CH                 
      3.17160375E-02    2      1000023         4                       # CHL    -->  Z2SS   CH                 
      6.44018203E-02    2      1000024         3                       # CHL    -->  W1SS+  ST                 
#         PDG         Width
DECAY   1000005  9.28315222E-01   # BT1   decays
#          BR          NDA       ID1       ID2       ID3       ID4
      9.93640900E-01    2      1000022         5                       # BT1    -->  Z1SS   BT                 
      6.35910314E-03    2      1000023         5                       # BT1    -->  Z2SS   BT                 
#         PDG         Width
DECAY   1000006  2.98468709E+00   # TP1   decays
#          BR          NDA       ID1       ID2       ID3       ID4
      9.82105613E-01    2      1000022         6                       # TP1    -->  Z1SS   TP                 
      1.78943947E-02    2      1000024         5                       # TP1    -->  W1SS+  BT                 
#         PDG         Width
DECAY   2000002  4.96366310E+00   # UPR   decays
#          BR          NDA       ID1       ID2       ID3       ID4
      1.00000000E+00    2      1000022         2                       # UPR    -->  Z1SS   UP                 
#         PDG         Width
DECAY   2000001  1.24115884E+00   # DNR   decays
#          BR          NDA       ID1       ID2       ID3       ID4
      1.00000000E+00    2      1000022         1                       # DNR    -->  Z1SS   DN                 
#         PDG         Width
DECAY   2000003  1.24115884E+00   # STR   decays
#          BR          NDA       ID1       ID2       ID3       ID4
      1.00000000E+00    2      1000022         3                       # STR    -->  Z1SS   ST                 
#         PDG         Width
DECAY   2000004  4.96366072E+00   # CHR   decays
#          BR          NDA       ID1       ID2       ID3       ID4
      1.00000000E+00    2      1000022         4                       # CHR    -->  Z1SS   CH                 
#         PDG         Width
DECAY   2000005  8.47920954E-01   # BT2   decays
#          BR          NDA       ID1       ID2       ID3       ID4
      9.93077219E-01    2      1000022         5                       # BT2    -->  Z1SS   BT                 
      6.88093482E-03    2      1000023         5                       # BT2    -->  Z2SS   BT                 
      4.18677155E-05    2      1000025         5                       # BT2    -->  Z3SS   BT                 
#         PDG         Width
DECAY   2000006  3.01714873E+00   # TP2   decays
#          BR          NDA       ID1       ID2       ID3       ID4
      5.74062404E-04    2      1000024         5                       # TP2    -->  W1SS+  BT                 
      9.99425888E-01    2      1000022         6                       # TP2    -->  Z1SS   TP                 
#         PDG         Width
DECAY   1000011  3.21112394E+00   # EL-   decays
#          BR          NDA       ID1       ID2       ID3       ID4
      9.88244116E-01    2      1000022        11                       # EL-    -->  Z1SS   E-                 
      4.01380192E-03    2      1000023        11                       # EL-    -->  Z2SS   E-                 
      7.74210226E-03    2     -1000024        12                       # EL-    -->  W1SS-  NUE                
#         PDG         Width
DECAY   1000013  3.21112394E+00   # MUL-  decays
#          BR          NDA       ID1       ID2       ID3       ID4
      9.88244116E-01    2      1000022        13                       # MUL-   -->  Z1SS   MU-                
      4.01379680E-03    2      1000023        13                       # MUL-   -->  Z2SS   MU-                
      7.74210226E-03    2     -1000024        14                       # MUL-   -->  W1SS-  NUM                
#         PDG         Width
DECAY   1000015  3.92773211E-01   # TAU1- decays
#          BR          NDA       ID1       ID2       ID3       ID4
      1.00000000E+00    2      1000022        15                       # TAU1-  -->  Z1SS   TAU-               
#         PDG         Width
DECAY   1000012  3.21178937E+00   # NUEL  decays
#          BR          NDA       ID1       ID2       ID3       ID4
      9.88474488E-01    2      1000022        12                       # NUEL   -->  Z1SS   NUE                
      3.73775396E-03    2      1000023        12                       # NUEL   -->  Z2SS   NUE                
      7.74864480E-03    2      1000024        11                       # NUEL   -->  W1SS+  E-                 
      3.90969981E-05    3     -1000015        11        16             # NUEL   -->  TAU1+  E-     NUT         
#         PDG         Width
DECAY   1000014  3.21178937E+00   # NUML  decays
#          BR          NDA       ID1       ID2       ID3       ID4
      9.88474488E-01    2      1000022        14                       # NUML   -->  Z1SS   NUM                
      3.73775396E-03    2      1000023        14                       # NUML   -->  Z2SS   NUM                
      7.74863316E-03    2      1000024        13                       # NUML   -->  W1SS+  MU-                
      3.90983041E-05    3     -1000015        13        16             # NUML   -->  TAU1+  MU-    NUT         
#         PDG         Width
DECAY   1000016  5.51726744E-02   # NUTL  decays
#          BR          NDA       ID1       ID2       ID3       ID4
      1.00000000E+00    2      1000022        16                       # NUTL   -->  Z1SS   NUT                
#         PDG         Width
DECAY   2000011  1.26990099E+01   # ER-   decays
#          BR          NDA       ID1       ID2       ID3       ID4
      1.00000000E+00    2      1000022        11                       # ER-    -->  Z1SS   E-                 
#         PDG         Width
DECAY   2000013  1.26990099E+01   # MUR-  decays
#          BR          NDA       ID1       ID2       ID3       ID4
      1.00000000E+00    2      1000022        13                       # MUR-   -->  Z1SS   MU-                
#         PDG         Width
DECAY   2000015  1.01124749E-01   # TAU2- decays
#          BR          NDA       ID1       ID2       ID3       ID4
      1.00000000E+00    2      1000022        15                       # TAU2-  -->  Z1SS   TAU-               
#         PDG         Width
DECAY   1000023  1.12479630E+01   # Z2SS  decays
#          BR          NDA       ID1       ID2       ID3       ID4
      2.60372553E-02    2      1000022        23                       # Z2SS   -->  Z1SS   Z0                 
      2.02236333E-05    3      1000022         2        -2             # Z2SS   -->  Z1SS   UP     UB          
      1.99448950E-05    3      1000022         1        -1             # Z2SS   -->  Z1SS   DN     DB          
      1.99448950E-05    3      1000022         3        -3             # Z2SS   -->  Z1SS   ST     SB          
      2.02235824E-05    3      1000022         4        -4             # Z2SS   -->  Z1SS   CH     CB          
      4.38455427E-05    3      1000022         5        -5             # Z2SS   -->  Z1SS   BT     BB          
      6.11165888E-05    3      1000022        11       -11             # Z2SS   -->  Z1SS   E-     E+          
      6.11165888E-05    3      1000022        13       -13             # Z2SS   -->  Z1SS   MU-    MU+         
      5.95994570E-05    3      1000022        12       -12             # Z2SS   -->  Z1SS   NUE    ANUE        
      5.95994570E-05    3      1000022        14       -14             # Z2SS   -->  Z1SS   NUM    ANUM        
      4.32244278E-02    2      1000022        25                       # Z2SS   -->  Z1SS   HL0                
      5.56477392E-03    2      1000015       -15                       # Z2SS   -->  TAU1-  TAU+               
      5.56477392E-03    2     -1000015        15                       # Z2SS   -->  TAU1+  TAU-               
      2.35938340E-01    2      2000015       -15                       # Z2SS   -->  TAU2-  TAU+               
      2.35938340E-01    2     -2000015        15                       # Z2SS   -->  TAU2+  TAU-               
      2.23683223E-01    2      1000016       -16                       # Z2SS   -->  NUTL   ANUT               
      2.23683223E-01    2     -1000016        16                       # Z2SS   -->  ANUTL  NUT                
#         PDG         Width
DECAY   1000025  2.12209415E+00   # Z3SS  decays
#          BR          NDA       ID1       ID2       ID3       ID4
      1.50174179E-04    3     -1000024         2        -1             # Z3SS   -->  W1SS-  UP     DB          
      5.00580572E-05    3     -1000024        12       -11             # Z3SS   -->  W1SS-  NUE    E+          
      5.00580572E-05    3     -1000024        14       -13             # Z3SS   -->  W1SS-  NUM    MU+         
      1.50174179E-04    3      1000024         1        -2             # Z3SS   -->  W1SS+  DN     UB          
      5.00580572E-05    3      1000024        11       -12             # Z3SS   -->  W1SS+  E-     ANUE        
      5.00580572E-05    3      1000024        13       -14             # Z3SS   -->  W1SS+  MU-    ANUM        
      1.50174179E-04    3     -1000024         4        -3             # Z3SS   -->  W1SS-  CH     SB          
      5.00580572E-05    3     -1000024        16       -15             # Z3SS   -->  W1SS-  NUT    TAU+        
      1.50174179E-04    3      1000024         3        -4             # Z3SS   -->  W1SS+  ST     CB          
      5.00580572E-05    3      1000024        15       -16             # Z3SS   -->  W1SS+  TAU-   ANUT        
      4.76538658E-01    2      1000022        23                       # Z3SS   -->  Z1SS   Z0                 
      2.09715523E-04    3      1000022         5        -5             # Z3SS   -->  Z1SS   BT     BB          
      1.89402308E-05    3      1000022        15       -15             # Z3SS   -->  Z1SS   TAU-   TAU+        
      3.85677231E-05    3      1000023         2        -2             # Z3SS   -->  Z2SS   UP     UB          
      4.97333313E-05    3      1000023         1        -1             # Z3SS   -->  Z2SS   DN     DB          
      4.97333313E-05    3      1000023         3        -3             # Z3SS   -->  Z2SS   ST     SB          
      3.85677231E-05    3      1000023         4        -4             # Z3SS   -->  Z2SS   CH     CB          
      4.66850579E-05    3      1000023         5        -5             # Z3SS   -->  Z2SS   BT     BB          
      1.12819807E-05    3      1000023        11       -11             # Z3SS   -->  Z2SS   E-     E+          
      1.12819807E-05    3      1000023        13       -13             # Z3SS   -->  Z2SS   MU-    MU+         
      1.11661648E-05    3      1000023        15       -15             # Z3SS   -->  Z2SS   TAU-   TAU+        
      2.24475934E-05    3      1000023        12       -12             # Z3SS   -->  Z2SS   NUE    ANUE        
      2.24475934E-05    3      1000023        14       -14             # Z3SS   -->  Z2SS   NUM    ANUM        
      2.24475934E-05    3      1000023        16       -16             # Z3SS   -->  Z2SS   NUT    ANUT        
      2.84879595E-01    2      1000022        25                       # Z3SS   -->  Z1SS   HL0                
      2.44585553E-05    2      2000002        -2                       # Z3SS   -->  UPR    UB                 
      2.44585553E-05    2     -2000002         2                       # Z3SS   -->  UBR    UP                 
      2.44582716E-05    2      2000004        -4                       # Z3SS   -->  CHR    CB                 
      2.44582716E-05    2     -2000004         4                       # Z3SS   -->  CBR    CH                 
      2.64677547E-05    2      1000005        -5                       # Z3SS   -->  BT1    BB                 
      2.64677547E-05    2     -1000005         5                       # Z3SS   -->  BB1    BT                 
      5.90858571E-02    2      1000015       -15                       # Z3SS   -->  TAU1-  TAU+               
      5.90858571E-02    2     -1000015        15                       # Z3SS   -->  TAU1+  TAU-               
      5.87543175E-02    2      2000015       -15                       # Z3SS   -->  TAU2-  TAU+               
      5.87543175E-02    2     -2000015        15                       # Z3SS   -->  TAU2+  TAU-               
      6.48258836E-04    2      1000016       -16                       # Z3SS   -->  NUTL   ANUT               
      6.48258836E-04    2     -1000016        16                       # Z3SS   -->  ANUTL  NUT                
#         PDG         Width
DECAY   1000035  1.31023026E+01   # Z4SS  decays
#          BR          NDA       ID1       ID2       ID3       ID4
      3.96595821E-02    2      1000024       -24                       # Z4SS   -->  W1SS+  W-                 
      3.96595821E-02    2     -1000024        24                       # Z4SS   -->  W1SS-  W+                 
      2.46225819E-02    2      1000022        23                       # Z4SS   -->  Z1SS   Z0                 
      3.87649164E-02    2      1000022        25                       # Z4SS   -->  Z1SS   HL0                
      1.46298192E-03    2      1000002        -2                       # Z4SS   -->  UPL    UB                 
      1.46298192E-03    2     -1000002         2                       # Z4SS   -->  UBL    UP                 
      1.42067368E-03    2      1000001        -1                       # Z4SS   -->  DNL    DB                 
      1.42067368E-03    2     -1000001         1                       # Z4SS   -->  DBL    DN                 
      1.42066670E-03    2      1000003        -3                       # Z4SS   -->  STL    SB                 
      1.42066670E-03    2     -1000003         3                       # Z4SS   -->  SBL    ST                 
      1.46263477E-03    2      1000004        -4                       # Z4SS   -->  CHL    CB                 
      1.46263477E-03    2     -1000004         4                       # Z4SS   -->  CBL    CH                 
      6.26740046E-04    2      1000005        -5                       # Z4SS   -->  BT1    BB                 
      6.26740046E-04    2     -1000005         5                       # Z4SS   -->  BB1    BT                 
      6.81983947E-04    2      2000005        -5                       # Z4SS   -->  BT2    BB                 
      6.81983947E-04    2     -2000005         5                       # Z4SS   -->  BB2    BT                 
      4.67796955E-04    2      1000011       -11                       # Z4SS   -->  EL-    E+                 
      4.67796955E-04    2     -1000011        11                       # Z4SS   -->  EL+    E-                 
      4.67796286E-04    2      1000013       -13                       # Z4SS   -->  MUL-   MU+                
      4.67796286E-04    2     -1000013        13                       # Z4SS   -->  MUL+   MU-                
      4.82487399E-03    2      1000015       -15                       # Z4SS   -->  TAU1-  TAU+               
      4.82487399E-03    2     -1000015        15                       # Z4SS   -->  TAU1+  TAU-               
      2.06443146E-01    2      2000015       -15                       # Z4SS   -->  TAU2-  TAU+               
      2.06443146E-01    2     -2000015        15                       # Z4SS   -->  TAU2+  TAU-               
      5.01505390E-04    2      1000012       -12                       # Z4SS   -->  NUEL   ANUE               
      5.01505390E-04    2     -1000012        12                       # Z4SS   -->  ANUEL  NUE                
      5.01505390E-04    2      1000014       -14                       # Z4SS   -->  NUML   ANUM               
      5.01505390E-04    2     -1000014        14                       # Z4SS   -->  ANUML  NUM                
      2.08364397E-01    2      1000016       -16                       # Z4SS   -->  NUTL   ANUT               
      2.08364397E-01    2     -1000016        16                       # Z4SS   -->  ANUTL  NUT                
#         PDG         Width
DECAY   1000024  1.12476292E+01   # W1SS+ decays
#          BR          NDA       ID1       ID2       ID3       ID4
      4.01890102E-05    3      1000022         2        -1             # W1SS+  -->  Z1SS   UP     DB          
      4.01889592E-05    3      1000022         4        -3             # W1SS+  -->  Z1SS   CH     SB          
      1.20724231E-04    3      1000022       -11        12             # W1SS+  -->  Z1SS   E+     NUE         
      1.20724231E-04    3      1000022       -13        14             # W1SS+  -->  Z1SS   MU+    NUM         
      6.90143928E-02    2      1000022        24                       # W1SS+  -->  Z1SS   W+                 
      4.75183070E-01    2      1000016       -15                       # W1SS+  -->  NUTL   TAU+               
      1.10181021E-02    2     -1000015        16                       # W1SS+  -->  TAU1+  NUT                
      4.44462627E-01    2     -2000015        16                       # W1SS+  -->  TAU2+  NUT                
#         PDG         Width
DECAY   1000037  1.29824409E+01   # W2SS+ decays
#          BR          NDA       ID1       ID2       ID3       ID4
      6.37533963E-02    2      1000022        24                       # W2SS+  -->  Z1SS   W+                 
      4.00101915E-02    2      1000023        24                       # W2SS+  -->  Z2SS   W+                 
      2.31037284E-05    3      1000025         2        -1             # W2SS+  -->  Z3SS   UP     DB          
      2.31037284E-05    3      1000025         4        -3             # W2SS+  -->  Z3SS   CH     SB          
      2.90892739E-03    2      1000002        -1                       # W2SS+  -->  UPL    DB                 
      2.91274558E-03    2     -1000001         2                       # W2SS+  -->  DBL    UP                 
      2.90886569E-03    2      1000004        -3                       # W2SS+  -->  CHL    SB                 
      3.02915461E-03    2     -1000003         4                       # W2SS+  -->  SBL    CH                 
      1.65235688E-04    2      1000006        -5                       # W2SS+  -->  TP1    BB                 
      4.95892158E-03    2      2000006        -5                       # W2SS+  -->  TP2    BB                 
      9.77282296E-04    2      1000012       -11                       # W2SS+  -->  NUEL   E+                 
      9.77281015E-04    2      1000014       -13                       # W2SS+  -->  NUML   MU+                
      4.15222585E-01    2      1000016       -15                       # W2SS+  -->  NUTL   TAU+               
      9.78715019E-04    2     -1000011        12                       # W2SS+  -->  EL+    NUE                
      9.78715019E-04    2     -1000013        14                       # W2SS+  -->  MUL+   NUM                
      9.64921992E-03    2     -1000015        16                       # W2SS+  -->  TAU1+  NUT                
      4.21783149E-01    2     -2000015        16                       # W2SS+  -->  TAU2+  NUT                
      2.87393611E-02    2      1000024        23                       # W2SS+  -->  W1SS+  Z0                 
#         PDG         Width
DECAY        25  3.96309095E-03   # HL0   decays
#          BR          NDA       ID1       ID2       ID3       ID4
      2.06447105E-04    2           13       -13                       # HL0    -->  MU-    MU+                
      5.90426512E-02    2           15       -15                       # HL0    -->  TAU-   TAU+               
      2.48020655E-03    2            3        -3                       # HL0    -->  ST     SB                 
      8.14790428E-01    2            5        -5                       # HL0    -->  BT     BB                 
      3.68161947E-02    2            4        -4                       # HL0    -->  CH     CB                 
      1.77722471E-03    2           22        22                       # HL0    -->  GM     GM                 
      3.86392064E-02    2           21        21                       # HL0    -->  GL     GL                 
      2.40921555E-03    3           24        11       -12             # HL0    -->  W+     E-     ANUE        
      2.40921555E-03    3           24        13       -14             # HL0    -->  W+     MU-    ANUM        
      2.40921555E-03    3           24        15       -16             # HL0    -->  W+     TAU-   ANUT        
      7.22764665E-03    3           24        -2         1             # HL0    -->  W+     UB     DN          
      7.22764665E-03    3           24        -4         3             # HL0    -->  W+     CB     ST          
      2.40921555E-03    3          -24       -11        12             # HL0    -->  W-     E+     NUE         
      2.40921555E-03    3          -24       -13        14             # HL0    -->  W-     MU+    NUM         
      2.40921555E-03    3          -24       -15        16             # HL0    -->  W-     TAU+   NUT         
      7.22764665E-03    3          -24         2        -1             # HL0    -->  W-     UP     DB          
      7.22764665E-03    3          -24         4        -3             # HL0    -->  W-     CH     SB          
      1.97089612E-04    3           23        12       -12             # HL0    -->  Z0     NUE    ANUE        
      1.97089612E-04    3           23        14       -14             # HL0    -->  Z0     NUM    ANUM        
      1.97089612E-04    3           23        16       -16             # HL0    -->  Z0     NUT    ANUT        
      9.91932320E-05    3           23        11       -11             # HL0    -->  Z0     E-     E+          
      9.91932320E-05    3           23        13       -13             # HL0    -->  Z0     MU-    MU+         
      9.91932320E-05    3           23        15       -15             # HL0    -->  Z0     TAU-   TAU+        
      3.39827558E-04    3           23         2        -2             # HL0    -->  Z0     UP     UB          
      3.39827558E-04    3           23         4        -4             # HL0    -->  Z0     CH     CB          
      4.37781622E-04    3           23         1        -1             # HL0    -->  Z0     DN     DB          
      4.37781622E-04    3           23         3        -3             # HL0    -->  Z0     ST     SB          
      4.37781622E-04    3           23         5        -5             # HL0    -->  Z0     BT     BB          
#         PDG         Width
DECAY        35  5.81140671E+01   # HH0   decays
#          BR          NDA       ID1       ID2       ID3       ID4
      3.10695941E-05    2           13       -13                       # HH0    -->  MU-    MU+                
      8.89878254E-03    2           15       -15                       # HH0    -->  TAU-   TAU+               
      3.61699669E-04    2            3        -3                       # HH0    -->  ST     SB                 
      8.04452822E-02    2            5        -5                       # HH0    -->  BT     BB                 
      1.89106502E-02    2            6        -6                       # HH0    -->  TP     TB                 
      3.30088806E-05    2      1000022   1000022                       # HH0    -->  Z1SS   Z1SS               
      3.60750892E-05    2           25        25                       # HH0    -->  HL0    HL0                
      4.45641726E-01    2      1000015  -2000015                       # HH0    -->  TAU1-  TAU2+              
      4.45641726E-01    2      2000015  -1000015                       # HH0    -->  TAU2-  TAU1+              
#         PDG         Width
DECAY        36  5.84227753E+01   # HA0   decays
#          BR          NDA       ID1       ID2       ID3       ID4
      3.07040100E-05    2           13       -13                       # HA0    -->  MU-    MU+                
      8.79408885E-03    2           15       -15                       # HA0    -->  TAU-   TAU+               
      3.57460027E-04    2            3        -3                       # HA0    -->  ST     SB                 
      7.95593560E-02    2            5        -5                       # HA0    -->  BT     BB                 
      1.88485626E-02    2            6        -6                       # HA0    -->  TP     TB                 
      3.43543106E-05    2      1000022   1000022                       # HA0    -->  Z1SS   Z1SS               
      2.05385368E-05    2      1000022   1000023                       # HA0    -->  Z1SS   Z2SS               
      4.46177512E-01    2      1000015  -2000015                       # HA0    -->  TAU1-  TAU2+              
      4.46177512E-01    2      2000015  -1000015                       # HA0    -->  TAU2-  TAU1+              
#         PDG         Width
DECAY        37  5.76749496E+01   # H+    decays
#          BR          NDA       ID1       ID2       ID3       ID4
      3.13225937E-05    2           14       -13                       # H+     -->  NUM    MU+                
      8.97126179E-03    2           16       -15                       # H+     -->  NUT    TAU+               
      3.37864738E-04    2            4        -3                       # H+     -->  CH     SB                 
      9.20339972E-02    2            6        -5                       # H+     -->  TP     BB                 
      8.84228430E-05    2      1000024   1000022                       # H+     -->  W1SS+  Z1SS               
      8.98537159E-01    2     -1000015   1000016                       # H+     -->  TAU1+  NUTL               
