#
#                              ======================
#                              | THE SUSYHIT OUTPUT |
#                              ======================
#
#
#              ------------------------------------------------------
#              |     This is the output of the SUSY-HIT package     |
#              |  created by A.Djouadi, M.Muehlleitner and M.Spira. |
#              |  In case of problems with SUSY-HIT email to        |
#              |           margarete.muehlleitner@cern.ch           |
#              |           michael.spira@psi.ch                     |
#              |           abdelhak.djouadi@cern.ch                 |
#              ------------------------------------------------------
#
#              ------------------------------------------------------
#              |  SUSY Les Houches Accord - MSSM Spectrum + Decays  |
#              |              based on the decay programs           |
#              |                                                    |
#              |                     SDECAY 1.3b                    |
#              |                                                    |
#              |  Authors: M.Muhlleitner, A.Djouadi and Y.Mambrini  |
#              |  Ref.:    Comput.Phys.Commun.168(2005)46           |
#              |           [hep-ph/0311167]                         |
#              |                                                    |
#              |                     HDECAY 3.4                     |
#              |                                                    |
#              |  By: A.Djouadi,J.Kalinowski,M.Muhlleitner,M.Spira  |
#              |  Ref.:    Comput.Phys.Commun.108(1998)56           |
#              |           [hep-ph/9704448]                         |
#              |                                                    |
#              |                                                    |
#              |  If not stated otherwise all DRbar couplings and   |
#              |  soft SUSY breaking masses are given at the scale  |
#              |  Q=  0.21411830E+04
#              |                                                    |
#              ------------------------------------------------------
#
#
BLOCK DCINFO  # Decay Program information
     1   SDECAY/HDECAY # decay calculator
     2   1.3b  /3.4    # version number
#
BLOCK SPINFO  # Spectrum calculator information
     1     SOFTSUSY    # spectrum calculator               
     2     3.4.0       # version number                    
#
BLOCK MODSEL  # Model selection
     1     0   #  nonUniversal                                     
#
BLOCK SMINPUTS  # Standard Model inputs
         1     1.27908970E+02   # alpha_em^-1(M_Z)^MSbar
         2     1.16637870E-05   # G_F [GeV^-2]
         3     1.18400000E-01   # alpha_S(M_Z)^MSbar
         4     9.11876000E+01   # M_Z pole mass
         5     4.18000000E+00   # mb(mb)^MSbar
         6     1.73200000E+02   # mt pole mass
         7     1.77700000E+00   # mtau pole mass
#
BLOCK MINPAR  # Input parameters - minimal models
         3     1.60600000E+01   # tanb                
#
BLOCK EXTPAR  # Input parameters - non-minimal models
         0    -1.00000000E+00   # Set                 
         1     3.52840000E+02   # M_1(MX)             
         2    -1.21066000E+03   # M_2(MX)             
         3     2.81017000E+03   # M_3(MX)             
        11     2.84945000E+03   # At(MX)              
        12    -3.53012000E+03   # Ab(MX)              
        13    -2.27422000E+03   # Atau(MX)            
        23     3.38750000E+02   # mu(MX)              
        26     2.12123000E+03   # mA(pole)            
        31     2.58567000E+03   # meL(MX)             
        32     2.58567000E+03   # mmuL(MX)            
        33     7.05300000E+02   # mtauL(MX)           
        34     5.82320000E+02   # meR(MX)             
        35     5.82320000E+02   # mmuR(MX)            
        36     3.84505000E+03   # mtauR(MX)           
        41     8.90740000E+02   # mqL1(MX)            
        42     8.90740000E+02   # mqL2(MX)            
        43     3.39554000E+03   # mqL3(MX)            
        44     2.07870000E+03   # muR(MX)             
        45     2.07870000E+03   # mcR(MX)             
        46     1.34723000E+03   # mtR(MX)             
        47     1.99682000E+03   # mdR(MX)             
        48     1.99682000E+03   # msR(MX)             
        49     2.37400000E+03   # mbR(MX)             
#
BLOCK MASS  # Mass Spectrum
# PDG code           mass       particle
        24     8.03973863E+01   # W+
        25     1.24193466E+02   # h
        35     2.12126688E+03   # H
        36     2.12122998E+03   # A
        37     2.12309395E+03   # H+
         5     4.81876030E+00   # b-quark pole mass calculated from mb(mb)_Msbar
   1000001     1.01251453E+03   # ~d_L
   2000001     2.08126548E+03   # ~d_R
   1000002     1.00942744E+03   # ~u_L
   2000002     2.15827978E+03   # ~u_R
   1000003     1.01251453E+03   # ~s_L
   2000003     2.08126548E+03   # ~s_R
   1000004     1.00942744E+03   # ~c_L
   2000004     2.15827978E+03   # ~c_R
   1000005     2.45294095E+03   # ~b_1
   2000005     3.43776084E+03   # ~b_2
   1000006     1.41371693E+03   # ~t_1
   2000006     3.44241436E+03   # ~t_2
   1000011     2.59126637E+03   # ~e_L
   2000011     6.00678148E+02   # ~e_R
   1000012     2.58975762E+03   # ~nu_eL
   1000013     2.59126637E+03   # ~mu_L
   2000013     6.00678148E+02   # ~mu_R
   1000014     2.58975762E+03   # ~nu_muL
   1000015     7.21908017E+02   # ~tau_1
   2000015     3.84965909E+03   # ~tau_2
   1000016     7.17368940E+02   # ~nu_tauL
   1000021     2.84213093E+03   # ~g
   1000022     3.18330439E+02   # ~chi_10
   1000023    -3.50702403E+02   # ~chi_20
   1000025     3.86025222E+02   # ~chi_30
   1000035    -1.22495327E+03   # ~chi_40
   1000024     3.52030619E+02   # ~chi_1+
   1000037     1.22512677E+03   # ~chi_2+
#
BLOCK NMIX  # Neutralino Mixing Matrix
  1  1     7.32497479E-01   # N_11
  1  2     2.48325411E-02   # N_12
  1  3     5.02101231E-01   # N_13
  1  4    -4.59048082E-01   # N_14
  2  1    -4.22203545E-02   # N_21
  2  2    -5.80329908E-02   # N_22
  2  3     7.07364240E-01   # N_23
  2  4     7.03196591E-01   # N_24
  3  1     6.79456617E-01   # N_31
  3  2    -2.75949243E-02   # N_32
  3  3    -4.97301058E-01   # N_33
  3  4     5.38766076E-01   # N_34
  4  1    -1.89489523E-03   # N_41
  4  2     9.97624196E-01   # N_42
  4  3     1.48944141E-02   # N_43
  4  4     6.72348776E-02   # N_44
#
BLOCK UMIX  # Chargino Mixing Matrix U
  1  1    -2.11202734E-02   # U_11
  1  2     9.99776942E-01   # U_12
  2  1    -9.99776942E-01   # U_21
  2  2    -2.11202734E-02   # U_22
#
BLOCK VMIX  # Chargino Mixing Matrix V
  1  1     9.52060624E-02   # V_11
  1  2     9.95457586E-01   # V_12
  2  1     9.95457586E-01   # V_21
  2  2    -9.52060624E-02   # V_22
#
BLOCK STOPMIX  # Stop Mixing Matrix
  1  1    -4.10959582E-02   # cos(theta_t)
  1  2     9.99155204E-01   # sin(theta_t)
  2  1    -9.99155204E-01   # -sin(theta_t)
  2  2    -4.10959582E-02   # cos(theta_t)
#
BLOCK SBOTMIX  # Sbottom Mixing Matrix
  1  1     3.44265792E-03   # cos(theta_b)
  1  2     9.99994074E-01   # sin(theta_b)
  2  1    -9.99994074E-01   # -sin(theta_b)
  2  2     3.44265792E-03   # cos(theta_b)
#
BLOCK STAUMIX  # Stau Mixing Matrix
  1  1     9.99999585E-01   # cos(theta_tau)
  1  2     9.11043263E-04   # sin(theta_tau)
  2  1    -9.11043263E-04   # -sin(theta_tau)
  2  2     9.99999585E-01   # cos(theta_tau)
#
BLOCK ALPHA  # Higgs mixing
          -6.52511466E-02   # Mixing angle in the neutral Higgs boson sector
#
BLOCK HMIX Q=  2.14118300E+03  # DRbar Higgs Parameters
         1     3.43670658E+02   # mu(Q)MSSM           
         2     1.53835778E+01   # tan                 
         3     2.42589383E+02   # higgs               
         4     4.33829391E+06   # mA^2(Q)MSSM         
#
BLOCK GAUGE Q=  2.14118300E+03  # The gauge couplings
     1     3.64460038E-01   # gprime(Q) DRbar
     2     6.39591415E-01   # g(Q) DRbar
     3     1.02176446E+00   # g3(Q) DRbar
#
BLOCK AU Q=  2.14118300E+03  # The trilinear couplings
  1  1     0.00000000E+00   # A_u(Q) DRbar
  2  2     0.00000000E+00   # A_c(Q) DRbar
  3  3     2.84945001E+03   # A_t(Q) DRbar
#
BLOCK AD Q=  2.14118300E+03  # The trilinear couplings
  1  1     0.00000000E+00   # A_d(Q) DRbar
  2  2     0.00000000E+00   # A_s(Q) DRbar
  3  3    -3.53012000E+03   # A_b(Q) DRbar
#
BLOCK AE Q=  2.14118300E+03  # The trilinear couplings
  1  1     0.00000000E+00   # A_e(Q) DRbar
  2  2     0.00000000E+00   # A_mu(Q) DRbar
  3  3    -2.27422000E+03   # A_tau(Q) DRbar
#
BLOCK Yu Q=  2.14118300E+03  # The Yukawa couplings
  1  1     0.00000000E+00   # y_u(Q) DRbar
  2  2     0.00000000E+00   # y_c(Q) DRbar
  3  3     8.44365749E-01   # y_t(Q) DRbar
#
BLOCK Yd Q=  2.14118300E+03  # The Yukawa couplings
  1  1     0.00000000E+00   # y_d(Q) DRbar
  2  2     0.00000000E+00   # y_s(Q) DRbar
  3  3     2.01856427E-01   # y_b(Q) DRbar
#
BLOCK Ye Q=  2.14118300E+03  # The Yukawa couplings
  1  1     0.00000000E+00   # y_e(Q) DRbar
  2  2     0.00000000E+00   # y_mu(Q) DRbar
  3  3     1.53574133E-01   # y_tau(Q) DRbar
#
BLOCK MSOFT Q=  2.14118300E+03  # The soft SUSY breaking masses at the scale Q
         1     3.52840000E+02   # M_1(Q)              
         2    -1.21066000E+03   # M_2(Q)              
         3     2.81017000E+03   # M_3(Q)              
        21     4.34696390E+06   # mH1^2(Q)            
        22    -1.08694772E+05   # mH2^2(Q)            
        31     2.58567000E+03   # meL(Q)              
        32     2.58567000E+03   # mmuL(Q)             
        33     7.05300000E+02   # mtauL(Q)            
        34     5.82320000E+02   # meR(Q)              
        35     5.82320000E+02   # mmuR(Q)             
        36     3.84505000E+03   # mtauR(Q)            
        41     8.90739985E+02   # mqL1(Q)             
        42     8.90739985E+02   # mqL2(Q)             
        43     3.39553999E+03   # mqL3(Q)             
        44     2.07869999E+03   # muR(Q)              
        45     2.07869999E+03   # mcR(Q)              
        46     1.34722998E+03   # mtR(Q)              
        47     1.99681999E+03   # mdR(Q)              
        48     1.99681999E+03   # msR(Q)              
        49     2.37399999E+03   # mbR(Q)              
#
Block HiggsBoundsInputHiggsCouplingsFermions
# ScalarNormEffCoupSq PseudoSNormEffCoupSq NP   IP1 IP2 IP2
    1.01042904E+00    0.00000000E+00        3  25   5   5  # h0-b-b eff. coupling^2, normalised to SM
    2.36644037E+02    0.00000000E+00        3  35   5   5  # H0-b-b eff. coupling^2, normalised to SM
    0.00000000E+00    2.36654466E+02        3  36   5   5  # A0-b-b eff. coupling^2, normalised to SM
#
    9.99955931E-01    0.00000000E+00        3  25   6   6  # h0-t-t eff. coupling^2, normalised to SM
    4.26963860E-03    0.00000000E+00        3  35   6   6  # H0-t-t eff. coupling^2, normalised to SM
    0.00000000E+00    4.22556995E-03        3  36   6   6  # A0-t-t eff. coupling^2, normalised to SM
#
    1.01042904E+00    0.00000000E+00        3  25  15  15  # h0-tau-tau eff. coupling^2, normalised to SM
    2.36644037E+02    0.00000000E+00        3  35  15  15  # H0-tau-tau eff. coupling^2, normalised to SM
    0.00000000E+00    2.36654466E+02        3  36  15  15  # A0-tau-tau eff. coupling^2, normalised to SM
#
Block HiggsBoundsInputHiggsCouplingsBosons
    9.99999886E-01        3  25  24  24  # h0-W-W eff. coupling^2, normalised to SM
    1.14305697E-07        3  35  24  24  # H0-W-W eff. coupling^2, normalised to SM
    0.00000000E+00        3  36  24  24  # A0-W-W eff. coupling^2, normalised to SM
#
    9.99999886E-01        3  25  23  23  # h0-Z-Z eff. coupling^2, normalised to SM
    1.14305697E-07        3  35  23  23  # H0-Z-Z eff. coupling^2, normalised to SM
    0.00000000E+00        3  36  23  23  # A0-Z-Z eff. coupling^2, normalised to SM
#
    8.95359529E-01        3  25  21  21  # h0-g-g eff. coupling^2, normalised to SM
    8.39841129E-13        3  35  21  21  # H0-g-g eff. coupling^2, normalised to SM
    4.90919298E-11        3  36  21  21  # A0-g-g eff. coupling^2, normalised to SM
#
    0.00000000E+00        3  25  25  23  # h0-h0-Z eff. coupling^2, normalised to SM
    0.00000000E+00        3  35  25  23  # H0-h0-Z eff. coupling^2, normalised to SM
    1.14305697E-07        3  36  25  23  # A0-h0-Z eff. coupling^2, normalised to SM
    0.00000000E+00        3  35  35  23  # H0-H0-Z eff. coupling^2, normalised to SM
    9.99999886E-01        3  36  35  23  # A0-H0-Z eff. coupling^2, normalised to SM
    0.00000000E+00        3  36  36  23  # A0-A0-Z eff. coupling^2, normalised to SM
#
    0.00000000E+00        4  25  21  21  23  # h0-g-g-Z eff. coupling^2, normalised to SM
    0.00000000E+00        4  35  21  21  23  # H0-g-g-Z eff. coupling^2, normalised to SM
    0.00000000E+00        4  36  21  21  23  # A0-g-g-Z eff. coupling^2, normalised to SM
#
#
#
#                             =================
#                             |The decay table|
#                             =================
#
# - The QCD corrections to the decays gluino -> squark  + quark
#                                     squark -> gaugino + quark_prime
#                                     squark -> squark_prime + Higgs
#                                     squark -> gluino  + quark
#   are included.
#
# - The multi-body decays for the inos, stops and sbottoms are included.
#
# - The loop induced decays for the gluino, neutralinos and stops
#   are included.
#
# - The SUSY decays of the top quark are included.
#
#
#         PDG            Width
DECAY         6     1.44037451E+00   # top decays
#          BR         NDA      ID1       ID2
     1.00000000E+00    2           5        24   # BR(t ->  b    W+)
#
#         PDG            Width
DECAY   1000021     2.57174144E+02   # gluino decays
#          BR         NDA      ID1       ID2
     8.51209609E-02    2     1000001        -1   # BR(~g -> ~d_L  db)
     8.51209609E-02    2    -1000001         1   # BR(~g -> ~d_L* d )
     2.40155694E-02    2     2000001        -1   # BR(~g -> ~d_R  db)
     2.40155694E-02    2    -2000001         1   # BR(~g -> ~d_R* d )
     8.52717022E-02    2     1000002        -2   # BR(~g -> ~u_L  ub)
     8.52717022E-02    2    -1000002         2   # BR(~g -> ~u_L* u )
     2.00116117E-02    2     2000002        -2   # BR(~g -> ~u_R  ub)
     2.00116117E-02    2    -2000002         2   # BR(~g -> ~u_R* u )
     8.51209609E-02    2     1000003        -3   # BR(~g -> ~s_L  sb)
     8.51209609E-02    2    -1000003         3   # BR(~g -> ~s_L* s )
     2.40155694E-02    2     2000003        -3   # BR(~g -> ~s_R  sb)
     2.40155694E-02    2    -2000003         3   # BR(~g -> ~s_R* s )
     8.52716930E-02    2     1000004        -4   # BR(~g -> ~c_L  cb)
     8.52716930E-02    2    -1000004         4   # BR(~g -> ~c_L* c )
     2.00115698E-02    2     2000004        -4   # BR(~g -> ~c_R  cb)
     2.00115698E-02    2    -2000004         4   # BR(~g -> ~c_R* c )
     7.40140693E-03    2     1000005        -5   # BR(~g -> ~b_1  bb)
     7.40140693E-03    2    -1000005         5   # BR(~g -> ~b_1* b )
     6.37589557E-02    2     1000006        -6   # BR(~g -> ~t_1  tb)
     6.37589557E-02    2    -1000006         6   # BR(~g -> ~t_1* t )
#
#         PDG            Width
DECAY   1000006     3.74631170E+01   # stop1 decays
#          BR         NDA      ID1       ID2
     1.28859092E-01    2     1000022         6   # BR(~t_1 -> ~chi_10 t )
     2.25328903E-01    2     1000023         6   # BR(~t_1 -> ~chi_20 t )
     1.76955753E-01    2     1000025         6   # BR(~t_1 -> ~chi_30 t )
     2.33780444E-05    2     1000035         6   # BR(~t_1 -> ~chi_40 t )
     4.68696384E-01    2     1000024         5   # BR(~t_1 -> ~chi_1+ b )
     1.36489548E-04    2     1000037         5   # BR(~t_1 -> ~chi_2+ b )
#
#         PDG            Width
DECAY   2000006     1.27870911E+02   # stop2 decays
#          BR         NDA      ID1       ID2
     8.48055339E-02    2     1000022         6   # BR(~t_2 -> ~chi_10 t )
     1.84000164E-01    2     1000023         6   # BR(~t_2 -> ~chi_20 t )
     1.04663675E-01    2     1000025         6   # BR(~t_2 -> ~chi_30 t )
     8.54338338E-02    2     1000035         6   # BR(~t_2 -> ~chi_40 t )
     2.16872092E-02    2     1000024         5   # BR(~t_2 -> ~chi_1+ b )
     1.67038094E-01    2     1000037         5   # BR(~t_2 -> ~chi_2+ b )
     1.46580196E-01    2     1000021         6   # BR(~t_2 -> ~g      t )
     1.05694046E-01    2     1000006        25   # BR(~t_2 -> ~t_1    h )
     9.98166918E-02    2     1000006        23   # BR(~t_2 -> ~t_1    Z )
     2.80556344E-04    2     1000005        24   # BR(~t_2 -> ~b_1    W+)
#
#         PDG            Width
DECAY   1000005     5.17646532E+00   # sbottom1 decays
#          BR         NDA      ID1       ID2
     2.38930817E-01    2     1000022         5   # BR(~b_1 -> ~chi_10 b )
     1.85024727E-01    2     1000023         5   # BR(~b_1 -> ~chi_20 b )
     2.11500280E-01    2     1000025         5   # BR(~b_1 -> ~chi_30 b )
     1.17237202E-05    2     1000035         5   # BR(~b_1 -> ~chi_40 b )
     3.64499840E-01    2    -1000024         6   # BR(~b_1 -> ~chi_1- t )
     2.20135416E-05    2    -1000037         6   # BR(~b_1 -> ~chi_2- t )
     1.05987680E-05    2     1000006       -24   # BR(~b_1 -> ~t_1    W-)
#
#         PDG            Width
DECAY   2000005     1.26500965E+02   # sbottom2 decays
#          BR         NDA      ID1       ID2
     6.81167359E-03    2     1000022         5   # BR(~b_2 -> ~chi_10 b )
     1.10581518E-02    2     1000023         5   # BR(~b_2 -> ~chi_20 b )
     8.02797673E-03    2     1000025         5   # BR(~b_2 -> ~chi_30 b )
     8.39502339E-02    2     1000035         5   # BR(~b_2 -> ~chi_40 b )
     3.72019101E-01    2    -1000024         6   # BR(~b_2 -> ~chi_1- t )
     1.71746321E-01    2    -1000037         6   # BR(~b_2 -> ~chi_2- t )
     1.50764129E-01    2     1000021         5   # BR(~b_2 -> ~g      b )
     1.48757668E-04    2     1000005        25   # BR(~b_2 -> ~b_1    h )
     1.44009907E-04    2     1000005        23   # BR(~b_2 -> ~b_1    Z )
     1.95329645E-01    2     1000006       -24   # BR(~b_2 -> ~t_1    W-)
#
#         PDG            Width
DECAY   1000002     1.97984016E-01   # sup_L decays
#          BR         NDA      ID1       ID2
     4.67129006E-01    2     1000022         2   # BR(~u_L -> ~chi_10 u)
     7.22866331E-02    2     1000023         2   # BR(~u_L -> ~chi_20 u)
     1.60849328E-01    2     1000025         2   # BR(~u_L -> ~chi_30 u)
     2.99735033E-01    2     1000024         1   # BR(~u_L -> ~chi_1+ d)
#
#         PDG            Width
DECAY   2000002     4.75937475E+00   # sup_R decays
#          BR         NDA      ID1       ID2
     5.41668027E-01    2     1000022         2   # BR(~u_R -> ~chi_10 u)
     1.78284295E-03    2     1000023         2   # BR(~u_R -> ~chi_20 u)
     4.56547377E-01    2     1000025         2   # BR(~u_R -> ~chi_30 u)
     1.75241599E-06    2     1000035         2   # BR(~u_R -> ~chi_40 u)
#
#         PDG            Width
DECAY   1000001     1.32601412E-01   # sdown_L decays
#          BR         NDA      ID1       ID2
     3.40373274E-01    2     1000022         1   # BR(~d_L -> ~chi_10 d)
     6.21615041E-02    2     1000023         1   # BR(~d_L -> ~chi_20 d)
     5.75340310E-01    2     1000025         1   # BR(~d_L -> ~chi_30 d)
     2.21249120E-02    2    -1000024         2   # BR(~d_L -> ~chi_1- u)
#
#         PDG            Width
DECAY   2000001     1.14549927E+00   # sdown_R decays
#          BR         NDA      ID1       ID2
     5.42072474E-01    2     1000022         1   # BR(~d_R -> ~chi_10 d)
     1.78285970E-03    2     1000023         1   # BR(~d_R -> ~chi_20 d)
     4.56143029E-01    2     1000025         1   # BR(~d_R -> ~chi_30 d)
     1.63659299E-06    2     1000035         1   # BR(~d_R -> ~chi_40 d)
#
#         PDG            Width
DECAY   1000004     1.91687200E-01   # scharm_L decays
#          BR         NDA      ID1       ID2
     4.67206278E-01    2     1000022         4   # BR(~c_L -> ~chi_10 c)
     7.22822685E-02    2     1000023         4   # BR(~c_L -> ~chi_20 c)
     1.60795593E-01    2     1000025         4   # BR(~c_L -> ~chi_30 c)
     2.99715861E-01    2     1000024         3   # BR(~c_L -> ~chi_1+ s)
#
#         PDG            Width
DECAY   2000004     4.80483737E+00   # scharm_R decays
#          BR         NDA      ID1       ID2
     5.41769563E-01    2     1000022         4   # BR(~c_R -> ~chi_10 c)
     1.78282197E-03    2     1000023         4   # BR(~c_R -> ~chi_20 c)
     4.56445874E-01    2     1000025         4   # BR(~c_R -> ~chi_30 c)
     1.74090987E-06    2     1000035         4   # BR(~c_R -> ~chi_40 c)
#
#         PDG            Width
DECAY   1000003     1.28386321E-01   # sstrange_L decays
#          BR         NDA      ID1       ID2
     3.40477148E-01    2     1000022         3   # BR(~s_L -> ~chi_10 s)
     6.21664943E-02    2     1000023         3   # BR(~s_L -> ~chi_20 s)
     5.75229963E-01    2     1000025         3   # BR(~s_L -> ~chi_30 s)
     2.21263946E-02    2    -1000024         4   # BR(~s_L -> ~chi_1- c)
#
#         PDG            Width
DECAY   2000003     1.15360560E+00   # sstrange_R decays
#          BR         NDA      ID1       ID2
     5.42174118E-01    2     1000022         3   # BR(~s_R -> ~chi_10 s)
     1.78283829E-03    2     1000023         3   # BR(~s_R -> ~chi_20 s)
     4.56041418E-01    2     1000025         3   # BR(~s_R -> ~chi_30 s)
     1.62508286E-06    2     1000035         3   # BR(~s_R -> ~chi_40 s)
#
#         PDG            Width
DECAY   1000011     2.24045320E+01   # selectron_L decays
#          BR         NDA      ID1       ID2
     8.92846091E-02    2     1000022        11   # BR(~e_L -> ~chi_10 e-)
     3.05647471E-03    2     1000023        11   # BR(~e_L -> ~chi_20 e-)
     5.81812701E-02    2     1000025        11   # BR(~e_L -> ~chi_30 e-)
     2.81834310E-01    2     1000035        11   # BR(~e_L -> ~chi_40 e-)
     4.04510897E-04    2    -1000024        12   # BR(~e_L -> ~chi_1- nu_e)
     5.67238825E-01    2    -1000037        12   # BR(~e_L -> ~chi_2- nu_e)
#
#         PDG            Width
DECAY   2000011     1.38843057E+00   # selectron_R decays
#          BR         NDA      ID1       ID2
     6.34497991E-01    2     1000022        11   # BR(~e_R -> ~chi_10 e-)
     1.77075444E-03    2     1000023        11   # BR(~e_R -> ~chi_20 e-)
     3.63731255E-01    2     1000025        11   # BR(~e_R -> ~chi_30 e-)
#
#         PDG            Width
DECAY   1000013     2.24045320E+01   # smuon_L decays
#          BR         NDA      ID1       ID2
     8.92846089E-02    2     1000022        13   # BR(~mu_L -> ~chi_10 mu-)
     3.05647471E-03    2     1000023        13   # BR(~mu_L -> ~chi_20 mu-)
     5.81812700E-02    2     1000025        13   # BR(~mu_L -> ~chi_30 mu-)
     2.81834309E-01    2     1000035        13   # BR(~mu_L -> ~chi_40 mu-)
     4.04510898E-04    2    -1000024        14   # BR(~mu_L -> ~chi_1- nu_mu)
     5.67238826E-01    2    -1000037        14   # BR(~mu_L -> ~chi_2- nu_mu)
#
#         PDG            Width
DECAY   2000013     1.38843037E+00   # smuon_R decays
#          BR         NDA      ID1       ID2
     6.34498005E-01    2     1000022        13   # BR(~mu_R -> ~chi_10 mu-)
     1.77075444E-03    2     1000023        13   # BR(~mu_R -> ~chi_20 mu-)
     3.63731241E-01    2     1000025        13   # BR(~mu_R -> ~chi_30 mu-)
#
#         PDG            Width
DECAY   1000015     7.77013120E-01   # stau_1 decays
#          BR         NDA      ID1       ID2
     5.52402002E-01    2     1000022        15   # BR(~tau_1 -> ~chi_10  tau-)
     1.42492521E-01    2     1000023        15   # BR(~tau_1 -> ~chi_20  tau-)
     3.03105234E-01    2     1000025        15   # BR(~tau_1 -> ~chi_30  tau-)
     2.00024336E-03    2    -1000024        16   # BR(~tau_1 -> ~chi_1-  nu_tau)
#
#         PDG            Width
DECAY   2000015     2.43888993E+01   # stau_2 decays
#          BR         NDA      ID1       ID2
     4.59837632E-01    2     1000022        15   # BR(~tau_2 -> ~chi_10  tau-)
     3.78973500E-02    2     1000023        15   # BR(~tau_2 -> ~chi_20  tau-)
     3.95474223E-01    2     1000025        15   # BR(~tau_2 -> ~chi_30  tau-)
     2.08893544E-05    2     1000035        15   # BR(~tau_2 -> ~chi_40  tau-)
     7.27844874E-02    2    -1000024        16   # BR(~tau_2 -> ~chi_1-  nu_tau)
     3.71296790E-05    2    -1000037        16   # BR(~tau_2 -> ~chi_2-  nu_tau)
     1.58565269E-02    2     1000016       -37   # BR(~tau_2 -> ~nu_tauL H-)
     1.09773190E-03    2     1000016       -24   # BR(~tau_2 -> ~nu_tauL W-)
     5.81096739E-04    2     1000015        25   # BR(~tau_2 -> ~tau_1   h)
     7.92369548E-03    2     1000015        35   # BR(~tau_2 -> ~tau_1   H)
     7.92505243E-03    2     1000015        36   # BR(~tau_2 -> ~tau_1   A)
     5.64185169E-04    2     1000015        23   # BR(~tau_2 -> ~tau_1   Z)
#
#         PDG            Width
DECAY   1000012     2.24215465E+01   # snu_eL decays
#          BR         NDA      ID1       ID2
     7.02596365E-02    2     1000022        12   # BR(~nu_eL -> ~chi_10 nu_e)
     5.22790491E-04    2     1000023        12   # BR(~nu_eL -> ~chi_20 nu_e)
     7.73037175E-02    2     1000025        12   # BR(~nu_eL -> ~chi_30 nu_e)
     2.82488052E-01    2     1000035        12   # BR(~nu_eL -> ~chi_40 nu_e)
     8.20840356E-03    2     1000024        11   # BR(~nu_eL -> ~chi_1+ e-)
     5.61217400E-01    2     1000037        11   # BR(~nu_eL -> ~chi_2+ e-)
#
#         PDG            Width
DECAY   1000014     2.24215464E+01   # snu_muL decays
#          BR         NDA      ID1       ID2
     7.02596367E-02    2     1000022        14   # BR(~nu_muL -> ~chi_10 nu_mu)
     5.22790493E-04    2     1000023        14   # BR(~nu_muL -> ~chi_20 nu_mu)
     7.73037178E-02    2     1000025        14   # BR(~nu_muL -> ~chi_30 nu_mu)
     2.82488053E-01    2     1000035        14   # BR(~nu_muL -> ~chi_40 nu_mu)
     8.20840356E-03    2     1000024        13   # BR(~nu_muL -> ~chi_1+ mu-)
     5.61217398E-01    2     1000037        13   # BR(~nu_muL -> ~chi_2+ mu-)
#
#         PDG            Width
DECAY   1000016     7.70457677E-01   # snu_tauL decays
#          BR         NDA      ID1       ID2
     3.76579449E-01    2     1000022        16   # BR(~nu_tauL -> ~chi_10 nu_tau)
     2.53266076E-03    2     1000023        16   # BR(~nu_tauL -> ~chi_20 nu_tau)
     3.28976950E-01    2     1000025        16   # BR(~nu_tauL -> ~chi_30 nu_tau)
     2.91910939E-01    2     1000024        15   # BR(~nu_tauL -> ~chi_1+ tau-)
#
#         PDG            Width
DECAY   1000024     2.35263649E-05   # chargino1+ decays
#           BR         NDA      ID1       ID2       ID3
     3.33892679E-01    3     1000022         2        -1   # BR(~chi_1+ -> ~chi_10 u    db)
     7.07984681E-08    3     1000023         2        -1   # BR(~chi_1+ -> ~chi_20 u    db)
     3.33892679E-01    3     1000022         4        -3   # BR(~chi_1+ -> ~chi_10 c    sb)
     1.11273199E-01    3     1000022       -11        12   # BR(~chi_1+ -> ~chi_10 e+   nu_e)
     2.35983587E-08    3     1000023       -11        12   # BR(~chi_1+ -> ~chi_20 e+   nu_e)
     1.11273199E-01    3     1000022       -13        14   # BR(~chi_1+ -> ~chi_10 mu+  nu_mu)
     2.35983587E-08    3     1000023       -13        14   # BR(~chi_1+ -> ~chi_20 mu+  nu_mu)
     1.09668127E-01    3     1000022       -15        16   # BR(~chi_1+ -> ~chi_10 tau+ nu_tau)
#
#         PDG            Width
DECAY   1000037     1.91917368E+01   # chargino2+ decays
#          BR         NDA      ID1       ID2
     8.31932693E-02    2     1000002        -1   # BR(~chi_2+ -> ~u_L     db)
     8.17890427E-02    2    -1000001         2   # BR(~chi_2+ -> ~d_L*    u )
     8.31931575E-02    2     1000004        -3   # BR(~chi_2+ -> ~c_L     sb)
     8.17872278E-02    2    -1000003         4   # BR(~chi_2+ -> ~s_L*     c )
     1.11161987E-01    2     1000016       -15   # BR(~chi_2+ -> ~nu_tau1 tau+)
     1.10639689E-01    2    -1000015        16   # BR(~chi_2+ -> ~tau_1+  nu_tau)
     1.12492669E-01    2     1000024        23   # BR(~chi_2+ -> ~chi_1+  Z )
     5.28216956E-02    2     1000022        24   # BR(~chi_2+ -> ~chi_10  W+)
     1.09774406E-01    2     1000023        24   # BR(~chi_2+ -> ~chi_20  W+)
     5.71810650E-02    2     1000025        24   # BR(~chi_2+ -> ~chi_30  W+)
     1.15965791E-01    2     1000024        25   # BR(~chi_2+ -> ~chi_1+  h )
#
#         PDG            Width
DECAY   1000022     0.00000000E+00   # neutralino1 decays
#
#         PDG            Width
DECAY   1000023     1.53193677E-05   # neutralino2 decays
#          BR         NDA      ID1       ID2
     1.58325941E-03    2     1000022        22   # BR(~chi_20 -> ~chi_10 gam)
#           BR         NDA      ID1       ID2       ID3
     1.19836271E-01    3     1000022        -2         2   # BR(~chi_20 -> ~chi_10 ub      u)
     1.55462651E-01    3     1000022        -1         1   # BR(~chi_20 -> ~chi_10 db      d)
     1.19836271E-01    3     1000022        -4         4   # BR(~chi_20 -> ~chi_10 cb      c)
     1.55462651E-01    3     1000022        -3         3   # BR(~chi_20 -> ~chi_10 sb      s)
     1.27760784E-01    3     1000022        -5         5   # BR(~chi_20 -> ~chi_10 bb      b)
     3.55657330E-02    3     1000022       -11        11   # BR(~chi_20 -> ~chi_10 e+      e-)
     3.55657330E-02    3     1000022       -13        13   # BR(~chi_20 -> ~chi_10 mu+     mu-)
     3.50365841E-02    3     1000022       -15        15   # BR(~chi_20 -> ~chi_10 tau+    tau-)
     7.13098693E-02    3     1000022       -12        12   # BR(~chi_20 -> ~chi_10 nu_eb   nu_e)
     7.13098693E-02    3     1000022       -14        14   # BR(~chi_20 -> ~chi_10 nu_mub  nu_mu)
     7.12703248E-02    3     1000022       -16        16   # BR(~chi_20 -> ~chi_10 nu_taub nu_tau)
#
#         PDG            Width
DECAY   1000025     8.74522005E-05   # neutralino3 decays
#          BR         NDA      ID1       ID2
     1.05404865E-02    2     1000022        22   # BR(~chi_30 -> ~chi_10 gam)
     4.79538352E-03    2     1000023        22   # BR(~chi_30 -> ~chi_20 gam)
#           BR         NDA      ID1       ID2       ID3
     6.41954310E-05    3     1000022        -2         2   # BR(~chi_30 -> ~chi_10 ub      u)
     6.10154224E-05    3     1000022        -1         1   # BR(~chi_30 -> ~chi_10 db      d)
     6.41954310E-05    3     1000022        -4         4   # BR(~chi_30 -> ~chi_10 cb      c)
     6.10154224E-05    3     1000022        -3         3   # BR(~chi_30 -> ~chi_10 sb      s)
     6.54520571E-05    3     1000022        -5         5   # BR(~chi_30 -> ~chi_10 bb      b)
     6.41059315E-04    3     1000022       -11        11   # BR(~chi_30 -> ~chi_10 e+      e-)
     6.41059315E-04    3     1000022       -13        13   # BR(~chi_30 -> ~chi_10 mu+     mu-)
     1.98067649E-05    3     1000022       -15        15   # BR(~chi_30 -> ~chi_10 tau+    tau-)
     3.36458780E-05    3     1000022       -12        12   # BR(~chi_30 -> ~chi_10 nu_eb   nu_e)
     3.36458780E-05    3     1000022       -14        14   # BR(~chi_30 -> ~chi_10 nu_mub  nu_mu)
     9.49886407E-05    3     1000022       -16        16   # BR(~chi_30 -> ~chi_10 nu_taub nu_tau)
     3.83241168E-02    3     1000023        -2         2   # BR(~chi_30 -> ~chi_20 ub      u)
     4.97272432E-02    3     1000023        -1         1   # BR(~chi_30 -> ~chi_20 db      d)
     3.83241168E-02    3     1000023        -4         4   # BR(~chi_30 -> ~chi_20 cb      c)
     4.97272432E-02    3     1000023        -3         3   # BR(~chi_30 -> ~chi_20 sb      s)
     4.21711492E-02    3     1000023        -5         5   # BR(~chi_30 -> ~chi_20 bb      b)
     1.14441748E-02    3     1000023       -11        11   # BR(~chi_30 -> ~chi_20 e+      e-)
     1.14441748E-02    3     1000023       -13        13   # BR(~chi_30 -> ~chi_20 mu+     mu-)
     1.12717908E-02    3     1000023       -15        15   # BR(~chi_30 -> ~chi_20 tau+    tau-)
     2.28177889E-02    3     1000023       -12        12   # BR(~chi_30 -> ~chi_20 nu_eb   nu_e)
     2.28177889E-02    3     1000023       -14        14   # BR(~chi_30 -> ~chi_20 nu_mub  nu_mu)
     2.28309239E-02    3     1000023       -16        16   # BR(~chi_30 -> ~chi_20 nu_taub nu_tau)
     1.10473173E-01    3     1000024        -2         1   # BR(~chi_30 -> ~chi_1+ ub      d)
     1.10473173E-01    3    -1000024        -1         2   # BR(~chi_30 -> ~chi_1- db      u)
     1.10473173E-01    3     1000024        -4         3   # BR(~chi_30 -> ~chi_1+ cb      s)
     1.10473173E-01    3    -1000024        -3         4   # BR(~chi_30 -> ~chi_1- sb      c)
     3.68315429E-02    3     1000024       -12        11   # BR(~chi_30 -> ~chi_1+ nu_eb   e-)
     3.68315429E-02    3    -1000024        12       -11   # BR(~chi_30 -> ~chi_1- nu_e    e+)
     3.68315429E-02    3     1000024       -14        13   # BR(~chi_30 -> ~chi_1+ nu_mub  mu-)
     3.68315429E-02    3    -1000024        14       -13   # BR(~chi_30 -> ~chi_1- nu_mu   mu+)
     3.63823379E-02    3     1000024       -16        15   # BR(~chi_30 -> ~chi_1+ nu_taub tau-)
     3.63823379E-02    3    -1000024        16       -15   # BR(~chi_30 -> ~chi_1- nu_tau  tau+)
#
#         PDG            Width
DECAY   1000035     1.91773418E+01   # neutralino4 decays
#          BR         NDA      ID1       ID2
     3.66602435E-02    2     1000022        23   # BR(~chi_40 -> ~chi_10   Z )
     3.28110004E-02    2     1000023        23   # BR(~chi_40 -> ~chi_20   Z )
     4.26524047E-02    2     1000025        23   # BR(~chi_40 -> ~chi_30   Z )
     1.10553999E-01    2     1000024       -24   # BR(~chi_40 -> ~chi_1+   W-)
     1.10553999E-01    2    -1000024        24   # BR(~chi_40 -> ~chi_1-   W+)
     1.71326101E-02    2     1000022        25   # BR(~chi_40 -> ~chi_10   h )
     8.24132082E-02    2     1000023        25   # BR(~chi_40 -> ~chi_20   h )
     1.55479245E-02    2     1000025        25   # BR(~chi_40 -> ~chi_30   h )
     4.17241587E-02    2     1000002        -2   # BR(~chi_40 -> ~u_L      ub)
     4.17241587E-02    2    -1000002         2   # BR(~chi_40 -> ~u_L*     u )
     4.07240242E-02    2     1000001        -1   # BR(~chi_40 -> ~d_L      db)
     4.07240242E-02    2    -1000001         1   # BR(~chi_40 -> ~d_L*     d )
     4.17232602E-02    2     1000004        -4   # BR(~chi_40 -> ~c_L      cb)
     4.17232602E-02    2    -1000004         4   # BR(~chi_40 -> ~c_L*     c )
     4.07240242E-02    2     1000003        -3   # BR(~chi_40 -> ~s _L      sb)
     4.07240242E-02    2    -1000003         3   # BR(~chi_40 -> ~s _L*     s )
     3.49648498E-07    2     2000011       -11   # BR(~chi_40 -> ~e_R-     e+)
     3.49648498E-07    2    -2000011        11   # BR(~chi_40 -> ~e_R+     e-)
     3.49648498E-07    2     2000013       -13   # BR(~chi_40 -> ~mu_R-    mu+)
     3.49648498E-07    2    -2000013        13   # BR(~chi_40 -> ~mu_R+    mu-)
     5.49832978E-02    2     1000015       -15   # BR(~chi_40 -> ~tau_1-   tau+)
     5.49832978E-02    2    -1000015        15   # BR(~chi_40 -> ~tau_1+   tau-)
     5.59578407E-02    2     1000016       -16   # BR(~chi_40 -> ~nu_tau1  nu_taub)
     5.59578407E-02    2    -1000016        16   # BR(~chi_40 -> ~nu_tau1* nu_tau )
#
#         PDG            Width
DECAY        25     4.00884903E-03   # h decays
#          BR         NDA      ID1       ID2
     6.15764630E-01    2           5        -5   # BR(h -> b       bb     )
     6.48055109E-02    2         -15        15   # BR(h -> tau+    tau-   )
     2.29366444E-04    2         -13        13   # BR(h -> mu+     mu-    )
     2.50575187E-04    2           3        -3   # BR(h -> s       sb     )
     2.15214810E-02    2           4        -4   # BR(h -> c       cb     )
     7.83668217E-02    2          21        21   # BR(h -> g       g      )
     2.27895304E-03    2          22        22   # BR(h -> gam     gam    )
     1.44895209E-03    2          22        23   # BR(h -> Z       gam    )
     1.91694092E-01    2          24       -24   # BR(h -> W+      W-     )
     2.36396180E-02    2          23        23   # BR(h -> Z       Z      )
#
#         PDG            Width
DECAY        35     1.97341715E+01   # H decays
#          BR         NDA      ID1       ID2
     2.92133355E-01    2           5        -5   # BR(H -> b       bb     )
     5.44016064E-02    2         -15        15   # BR(H -> tau+    tau-   )
     1.88391817E-04    2         -13        13   # BR(H -> mu+     mu-    )
     1.14893364E-04    2           3        -3   # BR(H -> s       sb     )
     1.97423981E-07    2           4        -4   # BR(H -> c       cb     )
     1.91753779E-02    2           6        -6   # BR(H -> t       tb     )
     7.29008083E-06    2          21        21   # BR(H -> g       g      )
     8.60830929E-09    2          22        22   # BR(H -> gam     gam    )
     1.21966320E-08    2          23        22   # BR(H -> Z       gam    )
     1.76856150E-05    2          24       -24   # BR(H -> W+      W-     )
     8.81179185E-06    2          23        23   # BR(H -> Z       Z      )
     7.02444617E-05    2          25        25   # BR(H -> h       h      )
     7.10728207E-03    2     1000024  -1000024   # BR(H -> ~chi_1+ ~chi_1-)
     1.69132217E-01    2     1000024  -1000037   # BR(H -> ~chi_1+ ~chi_2-)
     1.69132217E-01    2     1000037  -1000024   # BR(H -> ~chi_2+ ~chi_1-)
     2.36884054E-02    2     1000022   1000022   # BR(H -> ~chi_10 ~chi_10)
     5.43989014E-04    2     1000023   1000023   # BR(H -> ~chi_20 ~chi_20)
     2.39844641E-02    2     1000025   1000025   # BR(H -> ~chi_30 ~chi_30)
     3.70661370E-02    2     1000022   1000023   # BR(H -> ~chi_10 ~chi_20)
     8.59854019E-05    2     1000022   1000025   # BR(H -> ~chi_10 ~chi_30)
     4.96411517E-02    2     1000022   1000035   # BR(H -> ~chi_10 ~chi_40)
     3.29770688E-02    2     1000023   1000025   # BR(H -> ~chi_20 ~chi_30)
     7.01422357E-02    2     1000023   1000035   # BR(H -> ~chi_20 ~chi_40)
     5.03489520E-02    2     1000025   1000035   # BR(H -> ~chi_30 ~chi_40)
     4.15731814E-06    2     1000002  -1000002   # BR(H -> ~u_L    ~u_L*  )
     4.15731814E-06    2     1000004  -1000004   # BR(H -> ~c_L    ~c_L*  )
     5.91566696E-06    2     1000001  -1000001   # BR(H -> ~d_L    ~d_L*  )
     5.91566696E-06    2     1000003  -1000003   # BR(H -> ~s_L    ~s_L*  )
     1.49243777E-06    2     2000011  -2000011   # BR(H -> ~e_R-   ~e_R+  )
     1.49243777E-06    2     2000013  -2000013   # BR(H -> ~mu_R-  ~mu_R+ )
     2.16317153E-06    2     1000015  -1000015   # BR(H -> ~tau_1- ~tau_1+)
     6.72601728E-06    2     1000016  -1000016   # BR(H -> ~nu_tauL ~nu_tauL*)
#
#         PDG            Width
DECAY        36     1.97380718E+01   # A decays
#          BR         NDA      ID1       ID2
     2.92120926E-01    2           5        -5   # BR(A -> b       bb     )
     5.43924227E-02    2         -15        15   # BR(A -> tau+    tau-   )
     1.88359572E-04    2         -13        13   # BR(A -> mu+     mu-    )
     1.14908433E-04    2           3        -3   # BR(A -> s       sb     )
     1.97144627E-07    2           4        -4   # BR(A -> c       cb     )
     1.93243057E-02    2           6        -6   # BR(A -> t       tb     )
     5.57199560E-05    2          21        21   # BR(A -> g       g      )
     1.82553600E-08    2          22        22   # BR(A -> gam     gam    )
     4.88387594E-08    2          23        22   # BR(A -> Z       gam    )
     1.78526413E-05    2          23        25   # BR(A -> Z       h      )
     7.53891271E-03    2     1000024  -1000024   # BR(A -> ~chi_1+ ~chi_1-)
     1.68881376E-01    2     1000024  -1000037   # BR(A -> ~chi_1+ ~chi_2-)
     1.68881376E-01    2     1000037  -1000024   # BR(A -> ~chi_2+ ~chi_1-)
     3.30451147E-02    2     1000022   1000022   # BR(A -> ~chi_10 ~chi_10)
     4.71094696E-04    2     1000023   1000023   # BR(A -> ~chi_20 ~chi_20)
     3.66820836E-02    2     1000025   1000025   # BR(A -> ~chi_30 ~chi_30)
     2.65892864E-02    2     1000022   1000023   # BR(A -> ~chi_10 ~chi_20)
     6.83985353E-05    2     1000022   1000025   # BR(A -> ~chi_10 ~chi_30)
     3.68589281E-02    2     1000022   1000035   # BR(A -> ~chi_10 ~chi_40)
     2.15611631E-02    2     1000023   1000025   # BR(A -> ~chi_20 ~chi_30)
     1.00258228E-01    2     1000023   1000035   # BR(A -> ~chi_20 ~chi_40)
     3.29492782E-02    2     1000025   1000035   # BR(A -> ~chi_30 ~chi_40)
#
#         PDG            Width
DECAY        37     1.94602216E+01   # H+ decays
#          BR         NDA      ID1       ID2
     4.77187906E-04    2           4        -5   # BR(H+ -> c       bb     )
     5.52175081E-02    2         -15        16   # BR(H+ -> tau+    nu_tau )
     1.91216821E-04    2         -13        14   # BR(H+ -> mu+     nu_mu  )
     4.77186501E-06    2           2        -5   # BR(H+ -> u       bb     )
     5.82587134E-06    2           2        -3   # BR(H+ -> u       sb     )
     1.14862503E-04    2           4        -3   # BR(H+ -> c       sb     )
     3.02147430E-01    2           6        -5   # BR(H+ -> t       bb     )
     1.81784799E-05    2          24        25   # BR(H+ -> W+      h      )
     1.52040443E-12    2          24        36   # BR(H+ -> W+      A      )
     7.80891951E-02    2     1000024   1000022   # BR(H+ -> ~chi_1+ ~chi_10)
     1.45751670E-03    2     1000024   1000023   # BR(H+ -> ~chi_1+ ~chi_20)
     4.25840507E-02    2     1000024   1000025   # BR(H+ -> ~chi_1+ ~chi_30)
     1.72558445E-01    2     1000024   1000035   # BR(H+ -> ~chi_1+ ~chi_40)
     8.79309062E-02    2     1000037   1000022   # BR(H+ -> ~chi_2+ ~chi_10)
     1.74497870E-01    2     1000037   1000023   # BR(H+ -> ~chi_2+ ~chi_20)
     8.46763536E-02    2     1000037   1000025   # BR(H+ -> ~chi_2+ ~chi_30)
     8.32531380E-06    2    -1000015   1000016   # BR(H+ -> ~tau_1+ ~nu_tauL)
     1.01777343E-05    2     1000002  -1000001   # BR(H+ -> ~u_L    ~d_L*  )
     1.01777343E-05    2     1000004  -1000003   # BR(H+ -> ~c_L    ~s_L*  )
