#
#                              ======================
#                              | THE SUSYHIT OUTPUT |
#                              ======================
#
#
#              ------------------------------------------------------
#              |     This is the output of the SUSY-HIT package     |
#              |  created by A.Djouadi, M.Muehlleitner and M.Spira. |
#              |  In case of problems with SUSY-HIT email to        |
#              |           margarete.muehlleitner@cern.ch           |
#              |           michael.spira@psi.ch                     |
#              |           abdelhak.djouadi@cern.ch                 |
#              ------------------------------------------------------
#
#              ------------------------------------------------------
#              |  SUSY Les Houches Accord - MSSM Spectrum + Decays  |
#              |              based on the decay programs           |
#              |                                                    |
#              |                     SDECAY 1.3b                    |
#              |                                                    |
#              |  Authors: M.Muhlleitner, A.Djouadi and Y.Mambrini  |
#              |  Ref.:    Comput.Phys.Commun.168(2005)46           |
#              |           [hep-ph/0311167]                         |
#              |                                                    |
#              |                     HDECAY 3.4                     |
#              |                                                    |
#              |  By: A.Djouadi,J.Kalinowski,M.Muhlleitner,M.Spira  |
#              |  Ref.:    Comput.Phys.Commun.108(1998)56           |
#              |           [hep-ph/9704448]                         |
#              |                                                    |
#              |                                                    |
#              |  If not stated otherwise all DRbar couplings and   |
#              |  soft SUSY breaking masses are given at the scale  |
#              |  Q=  0.90507950E+03
#              |                                                    |
#              ------------------------------------------------------
#
#
BLOCK DCINFO  # Decay Program information
     1   SDECAY/HDECAY # decay calculator
     2   1.3b  /3.4    # version number
#
BLOCK SPINFO  # Spectrum calculator information
     1     SOFTSUSY    # spectrum calculator               
     2     3.4.0       # version number                    
#
BLOCK MODSEL  # Model selection
     1     0   #  nonUniversal                                     
#
BLOCK SMINPUTS  # Standard Model inputs
         1     1.27908970E+02   # alpha_em^-1(M_Z)^MSbar
         2     1.16637870E-05   # G_F [GeV^-2]
         3     1.18400000E-01   # alpha_S(M_Z)^MSbar
         4     9.11876000E+01   # M_Z pole mass
         5     4.18000000E+00   # mb(mb)^MSbar
         6     1.73200000E+02   # mt pole mass
         7     1.77700000E+00   # mtau pole mass
#
BLOCK MINPAR  # Input parameters - minimal models
         3     1.33200000E+01   # tanb                
#
BLOCK EXTPAR  # Input parameters - non-minimal models
         0    -1.00000000E+00   # Set                 
         1    -5.50990000E+02   # M_1(MX)             
         2    -2.71469000E+03   # M_2(MX)             
         3     1.66641000E+03   # M_3(MX)             
        11     2.06041000E+03   # At(MX)              
        12     7.00910000E+02   # Ab(MX)              
        13     3.77947000E+03   # Atau(MX)            
        23     2.01255000E+03   # mu(MX)              
        26     3.02108000E+03   # mA(pole)            
        31     8.13700000E+02   # meL(MX)             
        32     8.13700000E+02   # mmuL(MX)            
        33     2.55771000E+03   # mtauL(MX)           
        34     1.37250000E+03   # meR(MX)             
        35     1.37250000E+03   # mmuR(MX)            
        36     3.18184000E+03   # mtauR(MX)           
        41     1.49782000E+03   # mqL1(MX)            
        42     1.49782000E+03   # mqL2(MX)            
        43     6.08400000E+02   # mqL3(MX)            
        44     1.59154000E+03   # muR(MX)             
        45     1.59154000E+03   # mcR(MX)             
        46     1.38186000E+03   # mtR(MX)             
        47     9.85670000E+02   # mdR(MX)             
        48     9.85670000E+02   # msR(MX)             
        49     3.92496000E+03   # mbR(MX)             
#
BLOCK MASS  # Mass Spectrum
# PDG code           mass       particle
        24     8.04232699E+01   # W+
        25     1.24864884E+02   # h
        35     3.02095353E+03   # H
        36     3.02107984E+03   # A
        37     3.02217952E+03   # H+
         5     4.81876030E+00   # b-quark pole mass calculated from mb(mb)_Msbar
   1000001     1.51193976E+03   # ~d_L
   2000001     1.00871589E+03   # ~d_R
   1000002     1.51004765E+03   # ~u_L
   2000002     1.61291969E+03   # ~u_R
   1000003     1.51193976E+03   # ~s_L
   2000003     1.00871589E+03   # ~s_R
   1000004     1.51004765E+03   # ~c_L
   2000004     1.61291969E+03   # ~c_R
   1000005     5.88815684E+02   # ~b_1
   2000005     3.94167381E+03   # ~b_2
   1000006     5.57426025E+02   # ~t_1
   2000006     1.42102598E+03   # ~t_2
   1000011     7.74297309E+02   # ~e_L
   2000011     1.38067429E+03   # ~e_R
   1000012     7.70030294E+02   # ~nu_eL
   1000013     7.74297309E+02   # ~mu_L
   2000013     1.38067429E+03   # ~mu_R
   1000014     7.70030294E+02   # ~nu_muL
   1000015     2.55502792E+03   # ~tau_1
   2000015     3.18886272E+03   # ~tau_2
   1000016     2.55358090E+03   # ~nu_tauL
   1000021     1.69020669E+03   # ~g
   1000022    -5.54034316E+02   # ~chi_10
   1000023    -2.02571000E+03   # ~chi_20
   1000025     2.02997453E+03   # ~chi_30
   1000035    -2.69480264E+03   # ~chi_40
   1000024     2.02597119E+03   # ~chi_1+
   1000037     2.69496759E+03   # ~chi_2+
#
BLOCK NMIX  # Neutralino Mixing Matrix
  1  1     9.99718405E-01   # N_11
  1  2    -1.94172280E-04   # N_12
  1  3     2.31841933E-02   # N_13
  1  4     5.05637480E-03   # N_14
  2  1    -1.99352362E-02   # N_21
  2  2    -8.20145204E-02   # N_22
  2  3     7.05458587E-01   # N_23
  2  4     7.03707600E-01   # N_24
  3  1     1.28085948E-02   # N_31
  3  2    -1.29251364E-02   # N_32
  3  3    -7.06682204E-01   # N_33
  3  4     7.07297069E-01   # N_34
  4  1    -1.27972691E-03   # N_41
  4  2     9.96547300E-01   # N_42
  4  3     4.88972129E-02   # N_43
  4  4     6.70887716E-02   # N_44
#
BLOCK UMIX  # Chargino Mixing Matrix U
  1  1    -6.53432005E-02   # U_11
  1  2     9.97862849E-01   # U_12
  2  1    -9.97862849E-01   # U_21
  2  2    -6.53432005E-02   # U_22
#
BLOCK VMIX  # Chargino Mixing Matrix V
  1  1     9.04919830E-02   # V_11
  1  2     9.95897184E-01   # V_12
  2  1     9.95897184E-01   # V_21
  2  2    -9.04919830E-02   # V_22
#
BLOCK STOPMIX  # Stop Mixing Matrix
  1  1     9.84384132E-01   # cos(theta_t)
  1  2    -1.76033749E-01   # sin(theta_t)
  2  1     1.76033749E-01   # -sin(theta_t)
  2  2     9.84384132E-01   # cos(theta_t)
#
BLOCK SBOTMIX  # Sbottom Mixing Matrix
  1  1     9.99994809E-01   # cos(theta_b)
  1  2     3.22210693E-03   # sin(theta_b)
  2  1    -3.22210693E-03   # -sin(theta_b)
  2  2     9.99994809E-01   # cos(theta_b)
#
BLOCK STAUMIX  # Stau Mixing Matrix
  1  1     9.99943891E-01   # cos(theta_tau)
  1  2     1.05931512E-02   # sin(theta_tau)
  2  1    -1.05931512E-02   # -sin(theta_tau)
  2  2     9.99943891E-01   # cos(theta_tau)
#
BLOCK ALPHA  # Higgs mixing
          -7.77800787E-02   # Mixing angle in the neutral Higgs boson sector
#
BLOCK HMIX Q=  9.05079500E+02  # DRbar Higgs Parameters
         1     2.03276753E+03   # mu(Q)MSSM           
         2     1.28714809E+01   # tan                 
         3     2.45285672E+02   # higgs               
         4     1.00662421E+07   # mA^2(Q)MSSM         
#
BLOCK GAUGE Q=  9.05079500E+02  # The gauge couplings
     1     3.61193472E-01   # gprime(Q) DRbar
     2     6.35318261E-01   # g(Q) DRbar
     3     1.05218853E+00   # g3(Q) DRbar
#
BLOCK AU Q=  9.05079500E+02  # The trilinear couplings
  1  1     0.00000000E+00   # A_u(Q) DRbar
  2  2     0.00000000E+00   # A_c(Q) DRbar
  3  3     2.06041000E+03   # A_t(Q) DRbar
#
BLOCK AD Q=  9.05079500E+02  # The trilinear couplings
  1  1     0.00000000E+00   # A_d(Q) DRbar
  2  2     0.00000000E+00   # A_s(Q) DRbar
  3  3     7.00910000E+02   # A_b(Q) DRbar
#
BLOCK AE Q=  9.05079500E+02  # The trilinear couplings
  1  1     0.00000000E+00   # A_e(Q) DRbar
  2  2     0.00000000E+00   # A_mu(Q) DRbar
  3  3     3.77947000E+03   # A_tau(Q) DRbar
#
BLOCK Yu Q=  9.05079500E+02  # The Yukawa couplings
  1  1     0.00000000E+00   # y_u(Q) DRbar
  2  2     0.00000000E+00   # y_c(Q) DRbar
  3  3     8.74335897E-01   # y_t(Q) DRbar
#
BLOCK Yd Q=  9.05079500E+02  # The Yukawa couplings
  1  1     0.00000000E+00   # y_d(Q) DRbar
  2  2     0.00000000E+00   # y_s(Q) DRbar
  3  3     1.53518263E-01   # y_b(Q) DRbar
#
BLOCK Ye Q=  9.05079500E+02  # The Yukawa couplings
  1  1     0.00000000E+00   # y_e(Q) DRbar
  2  2     0.00000000E+00   # y_mu(Q) DRbar
  3  3     1.28539872E-01   # y_tau(Q) DRbar
#
BLOCK MSOFT Q=  9.05079500E+02  # The soft SUSY breaking masses at the scale Q
         1    -5.50990000E+02   # M_1(Q)              
         2    -2.71469000E+03   # M_2(Q)              
         3     1.66641000E+03   # M_3(Q)              
        21     5.01780953E+06   # mH1^2(Q)            
        22    -3.96204235E+06   # mH2^2(Q)            
        31     8.13700000E+02   # meL(Q)              
        32     8.13700000E+02   # mmuL(Q)             
        33     2.55771000E+03   # mtauL(Q)            
        34     1.37250000E+03   # meR(Q)              
        35     1.37250000E+03   # mmuR(Q)             
        36     3.18184000E+03   # mtauR(Q)            
        41     1.49782000E+03   # mqL1(Q)             
        42     1.49782000E+03   # mqL2(Q)             
        43     6.08399999E+02   # mqL3(Q)             
        44     1.59154000E+03   # muR(Q)              
        45     1.59154000E+03   # mcR(Q)              
        46     1.38186000E+03   # mtR(Q)              
        47     9.85669999E+02   # mdR(Q)              
        48     9.85669999E+02   # msR(Q)              
        49     3.92496000E+03   # mbR(Q)              
#
Block HiggsBoundsInputHiggsCouplingsFermions
# ScalarNormEffCoupSq PseudoSNormEffCoupSq NP   IP1 IP2 IP2
    1.00630889E+00    0.00000000E+00        3  25   5   5  # h0-b-b eff. coupling^2, normalised to SM
    1.65668712E+02    0.00000000E+00        3  35   5   5  # H0-b-b eff. coupling^2, normalised to SM
    0.00000000E+00    1.65675021E+02        3  36   5   5  # A0-b-b eff. coupling^2, normalised to SM
#
    9.99961920E-01    0.00000000E+00        3  25   6   6  # h0-t-t eff. coupling^2, normalised to SM
    6.07399282E-03    0.00000000E+00        3  35   6   6  # H0-t-t eff. coupling^2, normalised to SM
    0.00000000E+00    6.03591294E-03        3  36   6   6  # A0-t-t eff. coupling^2, normalised to SM
#
    1.00630889E+00    0.00000000E+00        3  25  15  15  # h0-tau-tau eff. coupling^2, normalised to SM
    1.65668712E+02    0.00000000E+00        3  35  15  15  # H0-tau-tau eff. coupling^2, normalised to SM
    0.00000000E+00    1.65675021E+02        3  36  15  15  # A0-tau-tau eff. coupling^2, normalised to SM
#
Block HiggsBoundsInputHiggsCouplingsBosons
    9.99999940E-01        3  25  24  24  # h0-W-W eff. coupling^2, normalised to SM
    5.98728346E-08        3  35  24  24  # H0-W-W eff. coupling^2, normalised to SM
    0.00000000E+00        3  36  24  24  # A0-W-W eff. coupling^2, normalised to SM
#
    9.99999940E-01        3  25  23  23  # h0-Z-Z eff. coupling^2, normalised to SM
    5.98728346E-08        3  35  23  23  # H0-Z-Z eff. coupling^2, normalised to SM
    0.00000000E+00        3  36  23  23  # A0-Z-Z eff. coupling^2, normalised to SM
#
    8.50831256E-01        3  25  21  21  # h0-g-g eff. coupling^2, normalised to SM
    2.49376584E-11        3  35  21  21  # H0-g-g eff. coupling^2, normalised to SM
    1.52277355E-12        3  36  21  21  # A0-g-g eff. coupling^2, normalised to SM
#
    0.00000000E+00        3  25  25  23  # h0-h0-Z eff. coupling^2, normalised to SM
    0.00000000E+00        3  35  25  23  # H0-h0-Z eff. coupling^2, normalised to SM
    5.98728346E-08        3  36  25  23  # A0-h0-Z eff. coupling^2, normalised to SM
    0.00000000E+00        3  35  35  23  # H0-H0-Z eff. coupling^2, normalised to SM
    9.99999940E-01        3  36  35  23  # A0-H0-Z eff. coupling^2, normalised to SM
    0.00000000E+00        3  36  36  23  # A0-A0-Z eff. coupling^2, normalised to SM
#
    0.00000000E+00        4  25  21  21  23  # h0-g-g-Z eff. coupling^2, normalised to SM
    0.00000000E+00        4  35  21  21  23  # H0-g-g-Z eff. coupling^2, normalised to SM
    0.00000000E+00        4  36  21  21  23  # A0-g-g-Z eff. coupling^2, normalised to SM
#
#
#
#                             =================
#                             |The decay table|
#                             =================
#
# - The QCD corrections to the decays gluino -> squark  + quark
#                                     squark -> gaugino + quark_prime
#                                     squark -> squark_prime + Higgs
#                                     squark -> gluino  + quark
#   are included.
#
# - The multi-body decays for the inos, stops and sbottoms are included.
#
# - The loop induced decays for the gluino, neutralinos and stops
#   are included.
#
# - The SUSY decays of the top quark are included.
#
#
#         PDG            Width
DECAY         6     1.42005065E+00   # top decays
#          BR         NDA      ID1       ID2
     1.00000000E+00    2           5        24   # BR(t ->  b    W+)
#
#         PDG            Width
DECAY   1000021     8.77624663E+01   # gluino decays
#          BR         NDA      ID1       ID2
     7.53352973E-03    2     1000001        -1   # BR(~g -> ~d_L  db)
     7.53352973E-03    2    -1000001         1   # BR(~g -> ~d_L* d )
     7.82123622E-02    2     2000001        -1   # BR(~g -> ~d_R  db)
     7.82123622E-02    2    -2000001         1   # BR(~g -> ~d_R* d )
     7.68520866E-03    2     1000002        -2   # BR(~g -> ~u_L  ub)
     7.68520866E-03    2    -1000002         2   # BR(~g -> ~u_L* u )
     1.50673833E-03    2     2000002        -2   # BR(~g -> ~u_R  ub)
     1.50673833E-03    2    -2000002         2   # BR(~g -> ~u_R* u )
     7.53352973E-03    2     1000003        -3   # BR(~g -> ~s_L  sb)
     7.53352973E-03    2    -1000003         3   # BR(~g -> ~s_L* s )
     7.82123622E-02    2     2000003        -3   # BR(~g -> ~s_R  sb)
     7.82123622E-02    2    -2000003         3   # BR(~g -> ~s_R* s )
     7.68490525E-03    2     1000004        -4   # BR(~g -> ~c_L  cb)
     7.68490525E-03    2    -1000004         4   # BR(~g -> ~c_L* c )
     1.50639214E-03    2     2000004        -4   # BR(~g -> ~c_R  cb)
     1.50639214E-03    2    -2000004         4   # BR(~g -> ~c_R* c )
     1.42824417E-01    2     1000005        -5   # BR(~g -> ~b_1  bb)
     1.42824417E-01    2    -1000005         5   # BR(~g -> ~b_1* b )
     1.57318175E-01    2     1000006        -6   # BR(~g -> ~t_1  tb)
     1.57318175E-01    2    -1000006         6   # BR(~g -> ~t_1* t )
     9.98237989E-03    2     2000006        -6   # BR(~g -> ~t_2  tb)
     9.98237989E-03    2    -2000006         6   # BR(~g -> ~t_2* t )
#
#         PDG            Width
DECAY   1000006     2.72640659E-10   # stop1 decays
#           BR         NDA      ID1       ID2
     9.92349288E-01    2     1000022         4   # BR(~t_1 -> ~chi_10 c )
     7.65071195E-03    2     1000022         2   # BR(~t_1 -> ~chi_10 u )
#
#         PDG            Width
DECAY   2000006     6.34530167E+01   # stop2 decays
#          BR         NDA      ID1       ID2
     3.40065519E-02    2     1000022         6   # BR(~t_2 -> ~chi_10 t )
     2.22150694E-01    2     1000006        25   # BR(~t_2 -> ~t_1    h )
     2.57573366E-01    2     1000006        23   # BR(~t_2 -> ~t_1    Z )
     4.86269388E-01    2     1000005        24   # BR(~t_2 -> ~b_1    W+)
#
#         PDG            Width
DECAY   1000005     1.12343872E-03   # sbottom1 decays
#          BR         NDA      ID1       ID2
     1.00000000E+00    2     1000022         5   # BR(~b_1 -> ~chi_10 b )
#
#         PDG            Width
DECAY   2000005     1.59209369E+02   # sbottom2 decays
#          BR         NDA      ID1       ID2
     1.37162665E-02    2     1000022         5   # BR(~b_2 -> ~chi_10 b )
     3.12520044E-03    2     1000023         5   # BR(~b_2 -> ~chi_20 b )
     3.13297753E-03    2     1000025         5   # BR(~b_2 -> ~chi_30 b )
     1.11961089E-05    2     1000035         5   # BR(~b_2 -> ~chi_40 b )
     6.21868071E-03    2    -1000024         6   # BR(~b_2 -> ~chi_1- t )
     2.01908512E-05    2    -1000037         6   # BR(~b_2 -> ~chi_2- t )
     9.68518393E-01    2     1000021         5   # BR(~b_2 -> ~g      b )
     1.41989063E-03    2     1000005        25   # BR(~b_2 -> ~b_1    h )
     8.66833612E-05    2     1000005        35   # BR(~b_2 -> ~b_1    H )
     8.65503215E-05    2     1000005        36   # BR(~b_2 -> ~b_1    A )
     1.65393346E-04    2     1000006       -37   # BR(~b_2 -> ~t_1    H-)
     1.19018009E-03    2     1000005        23   # BR(~b_2 -> ~b_1    Z )
     2.25790145E-03    2     1000006       -24   # BR(~b_2 -> ~t_1    W-)
     5.04960529E-05    2     2000006       -24   # BR(~b_2 -> ~t_2    W-)
#
#         PDG            Width
DECAY   1000002     1.59328036E-01   # sup_L decays
#          BR         NDA      ID1       ID2
     1.00000000E+00    2     1000022         2   # BR(~u_L -> ~chi_10 u)
#
#         PDG            Width
DECAY   2000002     2.81173715E+00   # sup_R decays
#          BR         NDA      ID1       ID2
     1.00000000E+00    2     1000022         2   # BR(~u_R -> ~chi_10 u)
#
#         PDG            Width
DECAY   1000001     1.60286642E-01   # sdown_L decays
#          BR         NDA      ID1       ID2
     1.00000000E+00    2     1000022         1   # BR(~d_L -> ~chi_10 d)
#
#         PDG            Width
DECAY   2000001     2.86610052E-01   # sdown_R decays
#          BR         NDA      ID1       ID2
     1.00000000E+00    2     1000022         1   # BR(~d_R -> ~chi_10 d)
#
#         PDG            Width
DECAY   1000004     1.62633739E-01   # scharm_L decays
#          BR         NDA      ID1       ID2
     1.00000000E+00    2     1000022         4   # BR(~c_L -> ~chi_10 c)
#
#         PDG            Width
DECAY   2000004     2.89315182E+00   # scharm_R decays
#          BR         NDA      ID1       ID2
     1.00000000E+00    2     1000022         4   # BR(~c_R -> ~chi_10 c)
#
#         PDG            Width
DECAY   1000003     1.63634215E-01   # sstrange_L decays
#          BR         NDA      ID1       ID2
     1.00000000E+00    2     1000022         3   # BR(~s_L -> ~chi_10 s)
#
#         PDG            Width
DECAY   2000003     2.83556785E-01   # sstrange_R decays
#          BR         NDA      ID1       ID2
     1.00000000E+00    2     1000022         3   # BR(~s_R -> ~chi_10 s)
#
#         PDG            Width
DECAY   1000011     2.39007411E-01   # selectron_L decays
#          BR         NDA      ID1       ID2
     1.00000000E+00    2     1000022        11   # BR(~e_L -> ~chi_10 e-)
#
#         PDG            Width
DECAY   2000011     5.04179891E+00   # selectron_R decays
#          BR         NDA      ID1       ID2
     1.00000000E+00    2     1000022        11   # BR(~e_R -> ~chi_10 e-)
#
#         PDG            Width
DECAY   1000013     2.39007373E-01   # smuon_L decays
#          BR         NDA      ID1       ID2
     1.00000000E+00    2     1000022        13   # BR(~mu_L -> ~chi_10 mu-)
#
#         PDG            Width
DECAY   2000013     5.04179882E+00   # smuon_R decays
#          BR         NDA      ID1       ID2
     1.00000000E+00    2     1000022        13   # BR(~mu_R -> ~chi_10 mu-)
#
#         PDG            Width
DECAY   1000015     3.14999501E+00   # stau_1 decays
#          BR         NDA      ID1       ID2
     9.55422278E-01    2     1000022        15   # BR(~tau_1 -> ~chi_10  tau-)
     2.24057280E-02    2     1000023        15   # BR(~tau_1 -> ~chi_20  tau-)
     1.80843985E-02    2     1000025        15   # BR(~tau_1 -> ~chi_30  tau-)
     4.08759501E-03    2    -1000024        16   # BR(~tau_1 -> ~chi_1-  nu_tau)
#
#         PDG            Width
DECAY   2000015     1.65094949E+01   # stau_2 decays
#          BR         NDA      ID1       ID2
     9.42383114E-01    2     1000022        15   # BR(~tau_2 -> ~chi_10  tau-)
     1.12966933E-02    2     1000023        15   # BR(~tau_2 -> ~chi_20  tau-)
     1.13002620E-02    2     1000025        15   # BR(~tau_2 -> ~chi_30  tau-)
     3.83063268E-05    2     1000035        15   # BR(~tau_2 -> ~chi_40  tau-)
     2.23271707E-02    2    -1000024        16   # BR(~tau_2 -> ~chi_1-  nu_tau)
     7.16900730E-05    2    -1000037        16   # BR(~tau_2 -> ~chi_2-  nu_tau)
     6.16404034E-03    2     1000016       -24   # BR(~tau_2 -> ~nu_tauL W-)
     3.28881852E-03    2     1000015        25   # BR(~tau_2 -> ~tau_1   h)
     3.12990502E-03    2     1000015        23   # BR(~tau_2 -> ~tau_1   Z)
#
#         PDG            Width
DECAY   1000012     2.32497479E-01   # snu_eL decays
#          BR         NDA      ID1       ID2
     1.00000000E+00    2     1000022        12   # BR(~nu_eL -> ~chi_10 nu_e)
#
#         PDG            Width
DECAY   1000014     2.32497479E-01   # snu_muL decays
#          BR         NDA      ID1       ID2
     1.00000000E+00    2     1000022        14   # BR(~nu_muL -> ~chi_10 nu_mu)
#
#         PDG            Width
DECAY   1000016     3.15526426E+00   # snu_tauL decays
#          BR         NDA      ID1       ID2
     9.53816711E-01    2     1000022        16   # BR(~nu_tauL -> ~chi_10 nu_tau)
     2.23076522E-03    2     1000023        16   # BR(~nu_tauL -> ~chi_20 nu_tau)
     1.79730644E-04    2     1000025        16   # BR(~nu_tauL -> ~chi_30 nu_tau)
     4.37727929E-02    2     1000024        15   # BR(~nu_tauL -> ~chi_1+ tau-)
#
#         PDG            Width
DECAY   1000024     5.51946119E+01   # chargino1+ decays
#          BR         NDA      ID1       ID2
     6.95946714E-04    2     1000002        -1   # BR(~chi_1+ -> ~u_L     db)
     3.60642538E-04    2    -1000001         2   # BR(~chi_1+ -> ~d_L*    u )
     6.95946558E-04    2     1000004        -3   # BR(~chi_1+ -> ~c_L     sb)
     3.60641226E-04    2    -1000003         4   # BR(~chi_1+ -> ~s_L*     c )
     6.21945475E-02    2     1000006        -5   # BR(~chi_1+ -> ~t_1     bb)
     2.03154489E-01    2     2000006        -5   # BR(~chi_1+ -> ~t_2     bb)
     7.09078600E-01    2    -1000005         6   # BR(~chi_1+ -> ~b_1*    t )
     8.83323443E-04    2     1000012       -11   # BR(~chi_1+ -> ~nu_eL   e+  )
     8.83323443E-04    2     1000014       -13   # BR(~chi_1+ -> ~nu_muL  mu+ )
     4.58848040E-04    2    -1000011        12   # BR(~chi_1+ -> ~e_L+    nu_e)
     4.58848040E-04    2    -1000013        14   # BR(~chi_1+ -> ~mu_L+   nu_mu)
     2.07748433E-02    2     1000022        24   # BR(~chi_1+ -> ~chi_10  W+)
#
#         PDG            Width
DECAY   1000037     1.65473861E+02   # chargino2+ decays
#          BR         NDA      ID1       ID2
     8.84623010E-02    2     1000002        -1   # BR(~chi_2+ -> ~u_L     db)
     8.86103742E-02    2    -1000001         2   # BR(~chi_2+ -> ~d_L*    u )
     8.84622983E-02    2     1000004        -3   # BR(~chi_2+ -> ~c_L     sb)
     8.86103309E-02    2    -1000003         4   # BR(~chi_2+ -> ~s_L*     c )
     1.65169660E-01    2     1000006        -5   # BR(~chi_2+ -> ~t_1     bb)
     9.07590214E-03    2     2000006        -5   # BR(~chi_2+ -> ~t_2     bb)
     1.73844552E-01    2    -1000005         6   # BR(~chi_2+ -> ~b_1*    t )
     5.46966736E-02    2     1000012       -11   # BR(~chi_2+ -> ~nu_eL   e+  )
     5.46966736E-02    2     1000014       -13   # BR(~chi_2+ -> ~nu_muL mu+ )
     6.77345254E-04    2     1000016       -15   # BR(~chi_2+ -> ~nu_tau1 tau+)
     5.48043524E-02    2    -1000011        12   # BR(~chi_2+ -> ~e_L+    nu_e)
     5.48043524E-02    2    -1000013        14   # BR(~chi_2+ -> ~mu_L+   nu_mu)
     6.65983381E-04    2    -1000015        16   # BR(~chi_2+ -> ~tau_1+  nu_tau)
     1.87268394E-02    2     1000024        23   # BR(~chi_2+ -> ~chi_1+  Z )
     5.07393182E-05    2     1000022        24   # BR(~chi_2+ -> ~chi_10  W+)
     2.23129012E-02    2     1000023        24   # BR(~chi_2+ -> ~chi_20  W+)
     1.81946124E-02    2     1000025        24   # BR(~chi_2+ -> ~chi_30  W+)
     1.81341083E-02    2     1000024        25   # BR(~chi_2+ -> ~chi_1+  h )
#
#         PDG            Width
DECAY   1000022     0.00000000E+00   # neutralino1 decays
#
#         PDG            Width
DECAY   1000023     5.58867507E+01   # neutralino2 decays
#          BR         NDA      ID1       ID2
     6.18651726E-03    2     1000022        23   # BR(~chi_20 -> ~chi_10   Z )
     1.46770912E-02    2     1000022        25   # BR(~chi_20 -> ~chi_10   h )
     3.08659234E-04    2     1000002        -2   # BR(~chi_20 -> ~u_L      ub)
     3.08659234E-04    2    -1000002         2   # BR(~chi_20 -> ~u_L*     u )
     6.54419689E-06    2     2000002        -2   # BR(~chi_20 -> ~u_R      ub)
     6.54419689E-06    2    -2000002         2   # BR(~chi_20 -> ~u_R*     u )
     2.55106041E-04    2     1000001        -1   # BR(~chi_20 -> ~d_L      db)
     2.55106041E-04    2    -1000001         1   # BR(~chi_20 -> ~d_L*     d )
     6.75064022E-06    2     2000001        -1   # BR(~chi_20 -> ~d_R      db)
     6.75064022E-06    2    -2000001         1   # BR(~chi_20 -> ~d_R*     d )
     3.08658120E-04    2     1000004        -4   # BR(~chi_20 -> ~c_L      cb)
     3.08658120E-04    2    -1000004         4   # BR(~chi_20 -> ~c_L*     c )
     6.54415746E-06    2     2000004        -4   # BR(~chi_20 -> ~c_R      cb)
     6.54415746E-06    2    -2000004         4   # BR(~chi_20 -> ~c_R*     c )
     2.55106041E-04    2     1000003        -3   # BR(~chi_20 -> ~s _L      sb)
     2.55106041E-04    2    -1000003         3   # BR(~chi_20 -> ~s _L*     s )
     6.75064022E-06    2     2000003        -3   # BR(~chi_20 -> ~s _R      sb)
     6.75064022E-06    2    -2000003         3   # BR(~chi_20 -> ~s _R*     s )
     3.86856434E-01    2     1000006        -6   # BR(~chi_20 -> ~t_1      tb)
     3.86856434E-01    2    -1000006         6   # BR(~chi_20 -> ~t_1*     t )
     8.83421090E-02    2     2000006        -6   # BR(~chi_20 -> ~t_2      tb)
     8.83421090E-02    2    -2000006         6   # BR(~chi_20 -> ~t_2*     t )
     1.17373494E-02    2     1000005        -5   # BR(~chi_20 -> ~b_1      bb)
     1.17373494E-02    2    -1000005         5   # BR(~chi_20 -> ~b_1*     b )
     4.62320605E-04    2     1000011       -11   # BR(~chi_20 -> ~e_L-     e+)
     4.62320605E-04    2    -1000011        11   # BR(~chi_20 -> ~e_L+     e-)
     1.07193098E-05    2     2000011       -11   # BR(~chi_20 -> ~e_R-     e+)
     1.07193098E-05    2    -2000011        11   # BR(~chi_20 -> ~e_R+     e-)
     4.62320605E-04    2     1000013       -13   # BR(~chi_20 -> ~mu_L-    mu+)
     4.62320605E-04    2    -1000013        13   # BR(~chi_20 -> ~mu_L+    mu-)
     1.07193098E-05    2     2000013       -13   # BR(~chi_20 -> ~mu_R-    mu+)
     1.07193098E-05    2    -2000013        13   # BR(~chi_20 -> ~mu_R+    mu-)
     2.66052466E-04    2     1000012       -12   # BR(~chi_20 -> ~nu_eL    nu_eb)
     2.66052466E-04    2    -1000012        12   # BR(~chi_20 -> ~nu_eL*   nu_e )
     2.66052466E-04    2     1000014       -14   # BR(~chi_20 -> ~nu_muL   nu_mub)
     2.66052466E-04    2    -1000014        14   # BR(~chi_20 -> ~nu_muL*  nu_mu )
#
#         PDG            Width
DECAY   1000025     5.24850466E+01   # neutralino3 decays
#          BR         NDA      ID1       ID2
     1.60192733E-02    2     1000022        23   # BR(~chi_30 -> ~chi_10   Z )
     7.01206150E-03    2     1000022        25   # BR(~chi_30 -> ~chi_10   h )
     4.98250755E-06    2     1000002        -2   # BR(~chi_30 -> ~u_L      ub)
     4.98250755E-06    2    -1000002         2   # BR(~chi_30 -> ~u_L*     u )
     2.92408087E-06    2     2000002        -2   # BR(~chi_30 -> ~u_R      ub)
     2.92408087E-06    2    -2000002         2   # BR(~chi_30 -> ~u_R*     u )
     1.05913433E-05    2     1000001        -1   # BR(~chi_30 -> ~d_L      db)
     1.05913433E-05    2    -1000001         1   # BR(~chi_30 -> ~d_L*     d )
     2.98191039E-06    2     2000001        -1   # BR(~chi_30 -> ~d_R      db)
     2.98191039E-06    2    -2000001         1   # BR(~chi_30 -> ~d_R*     d )
     4.98248990E-06    2     1000004        -4   # BR(~chi_30 -> ~c_L      cb)
     4.98248990E-06    2    -1000004         4   # BR(~chi_30 -> ~c_L*     c )
     2.92406365E-06    2     2000004        -4   # BR(~chi_30 -> ~c_R      cb)
     2.92406365E-06    2    -2000004         4   # BR(~chi_30 -> ~c_R*     c )
     1.05913433E-05    2     1000003        -3   # BR(~chi_30 -> ~s _L      sb)
     1.05913433E-05    2    -1000003         3   # BR(~chi_30 -> ~s _L*     s )
     2.98191039E-06    2     2000003        -3   # BR(~chi_30 -> ~s _R      sb)
     2.98191039E-06    2    -2000003         3   # BR(~chi_30 -> ~s _R*     s )
     3.53803857E-01    2     1000006        -6   # BR(~chi_30 -> ~t_1      tb)
     3.53803857E-01    2    -1000006         6   # BR(~chi_30 -> ~t_1*     t )
     1.23150331E-01    2     2000006        -6   # BR(~chi_30 -> ~t_2      tb)
     1.23150331E-01    2    -2000006         6   # BR(~chi_30 -> ~t_2*     t )
     1.14275882E-02    2     1000005        -5   # BR(~chi_30 -> ~b_1      bb)
     1.14275882E-02    2    -1000005         5   # BR(~chi_30 -> ~b_1*     b )
     1.80544582E-06    2     1000011       -11   # BR(~chi_30 -> ~e_L-     e+)
     1.80544582E-06    2    -1000011        11   # BR(~chi_30 -> ~e_L+     e-)
     4.75631584E-06    2     2000011       -11   # BR(~chi_30 -> ~e_R-     e+)
     4.75631584E-06    2    -2000011        11   # BR(~chi_30 -> ~e_R+     e-)
     1.80544582E-06    2     1000013       -13   # BR(~chi_30 -> ~mu_L-    mu+)
     1.80544582E-06    2    -1000013        13   # BR(~chi_30 -> ~mu_L+    mu-)
     4.75631584E-06    2     2000013       -13   # BR(~chi_30 -> ~mu_R-    mu+)
     4.75631584E-06    2    -2000013        13   # BR(~chi_30 -> ~mu_R+    mu-)
     2.32367173E-05    2     1000012       -12   # BR(~chi_30 -> ~nu_eL    nu_eb)
     2.32367173E-05    2    -1000012        12   # BR(~chi_30 -> ~nu_eL*   nu_e )
     2.32367173E-05    2     1000014       -14   # BR(~chi_30 -> ~nu_muL   nu_mub)
     2.32367173E-05    2    -1000014        14   # BR(~chi_30 -> ~nu_muL*  nu_mu )
#
#         PDG            Width
DECAY   1000035     1.64375439E+02   # neutralino4 decays
#          BR         NDA      ID1       ID2
     2.11178553E-05    2     1000022        23   # BR(~chi_40 -> ~chi_10   Z )
     5.19569013E-04    2     1000023        23   # BR(~chi_40 -> ~chi_20   Z )
     2.01295490E-02    2     1000025        23   # BR(~chi_40 -> ~chi_30   Z )
     1.65526737E-02    2     1000024       -24   # BR(~chi_40 -> ~chi_1+   W-)
     1.65526737E-02    2    -1000024        24   # BR(~chi_40 -> ~chi_1-   W+)
     4.86093864E-05    2     1000022        25   # BR(~chi_40 -> ~chi_10   h )
     1.76861117E-02    2     1000023        25   # BR(~chi_40 -> ~chi_20   h )
     4.69972187E-04    2     1000025        25   # BR(~chi_40 -> ~chi_30   h )
     4.45554637E-02    2     1000002        -2   # BR(~chi_40 -> ~u_L      ub)
     4.45554637E-02    2    -1000002         2   # BR(~chi_40 -> ~u_L*     u )
     3.70235961E-08    2     2000002        -2   # BR(~chi_40 -> ~u_R      ub)
     3.70235961E-08    2    -2000002         2   # BR(~chi_40 -> ~u_R*     u )
     4.44976617E-02    2     1000001        -1   # BR(~chi_40 -> ~d_L      db)
     4.44976617E-02    2    -1000001         1   # BR(~chi_40 -> ~d_L*     d )
     1.65145167E-08    2     2000001        -1   # BR(~chi_40 -> ~d_R      db)
     1.65145167E-08    2    -2000001         1   # BR(~chi_40 -> ~d_R*     d )
     4.45554420E-02    2     1000004        -4   # BR(~chi_40 -> ~c_L      cb)
     4.45554420E-02    2    -1000004         4   # BR(~chi_40 -> ~c_L*     c )
     3.70235726E-08    2     2000004        -4   # BR(~chi_40 -> ~c_R      cb)
     3.70235726E-08    2    -2000004         4   # BR(~chi_40 -> ~c_R*     c )
     4.44976617E-02    2     1000003        -3   # BR(~chi_40 -> ~s _L      sb)
     4.44976617E-02    2    -1000003         3   # BR(~chi_40 -> ~s _L*     s )
     1.65145167E-08    2     2000003        -3   # BR(~chi_40 -> ~s _R      sb)
     1.65145167E-08    2    -2000003         3   # BR(~chi_40 -> ~s _R*     s )
     8.14672512E-02    2     1000006        -6   # BR(~chi_40 -> ~t_1      tb)
     8.14672512E-02    2    -1000006         6   # BR(~chi_40 -> ~t_1*     t )
     4.62898064E-03    2     2000006        -6   # BR(~chi_40 -> ~t_2      tb)
     4.62898064E-03    2    -2000006         6   # BR(~chi_40 -> ~t_2*     t )
     8.89826336E-02    2     1000005        -5   # BR(~chi_40 -> ~b_1      bb)
     8.89826336E-02    2    -1000005         5   # BR(~chi_40 -> ~b_1*     b )
     2.74701568E-02    2     1000011       -11   # BR(~chi_40 -> ~e_L-     e+)
     2.74701568E-02    2    -1000011        11   # BR(~chi_40 -> ~e_L+     e-)
     3.79017414E-08    2     2000011       -11   # BR(~chi_40 -> ~e_R-     e+)
     3.79017414E-08    2    -2000011        11   # BR(~chi_40 -> ~e_R+     e-)
     2.74701568E-02    2     1000013       -13   # BR(~chi_40 -> ~mu_L-    mu+)
     2.74701568E-02    2    -1000013        13   # BR(~chi_40 -> ~mu_L+    mu-)
     3.79017414E-08    2     2000013       -13   # BR(~chi_40 -> ~mu_R-    mu+)
     3.79017414E-08    2    -2000013        13   # BR(~chi_40 -> ~mu_R+    mu-)
     3.33255748E-04    2     1000015       -15   # BR(~chi_40 -> ~tau_1-   tau+)
     3.33255748E-04    2    -1000015        15   # BR(~chi_40 -> ~tau_1+   tau-)
     2.76050214E-02    2     1000012       -12   # BR(~chi_40 -> ~nu_eL    nu_eb)
     2.76050214E-02    2    -1000012        12   # BR(~chi_40 -> ~nu_eL*   nu_e )
     2.76050214E-02    2     1000014       -14   # BR(~chi_40 -> ~nu_muL   nu_mub)
     2.76050214E-02    2    -1000014        14   # BR(~chi_40 -> ~nu_muL*  nu_mu )
     3.40972219E-04    2     1000016       -16   # BR(~chi_40 -> ~nu_tau1  nu_taub)
     3.40972219E-04    2    -1000016        16   # BR(~chi_40 -> ~nu_tau1* nu_tau )
#
#         PDG            Width
DECAY        25     4.25632472E-03   # h decays
#          BR         NDA      ID1       ID2
     6.23447634E-01    2           5        -5   # BR(h -> b       bb     )
     6.11153803E-02    2         -15        15   # BR(h -> tau+    tau-   )
     2.16354578E-04    2         -13        13   # BR(h -> mu+     mu-    )
     2.35903752E-04    2           3        -3   # BR(h -> s       sb     )
     2.03581942E-02    2           4        -4   # BR(h -> c       cb     )
     7.31106238E-02    2          21        21   # BR(h -> g       g      )
     2.21801184E-03    2          22        22   # BR(h -> gam     gam    )
     1.45160931E-03    2          22        23   # BR(h -> Z       gam    )
     1.93612852E-01    2          24       -24   # BR(h -> W+      W-     )
     2.42334362E-02    2          23        23   # BR(h -> Z       Z      )
#
#         PDG            Width
DECAY        35     5.88206108E+01   # H decays
#          BR         NDA      ID1       ID2
     7.86474155E-02    2           5        -5   # BR(H -> b       bb     )
     1.83131540E-02    2         -15        15   # BR(H -> tau+    tau-   )
     6.73964386E-05    2         -13        13   # BR(H -> mu+     mu-    )
     2.69839010E-05    2           3        -3   # BR(H -> s       sb     )
     1.27900157E-07    2           4        -4   # BR(H -> c       cb     )
     1.25713352E-02    2           6        -6   # BR(H -> t       tb     )
     7.54832046E-05    2          21        21   # BR(H -> g       g      )
     3.43137671E-07    2          22        22   # BR(H -> gam     gam    )
     6.57598502E-09    2          23        22   # BR(H -> Z       gam    )
     9.01767513E-06    2          24       -24   # BR(H -> W+      W-     )
     4.49891361E-06    2          23        23   # BR(H -> Z       Z      )
     3.86346142E-05    2          25        25   # BR(H -> h       h      )
     5.54150778E-05    2     1000022   1000022   # BR(H -> ~chi_10 ~chi_10)
     4.43950013E-03    2     1000022   1000023   # BR(H -> ~chi_10 ~chi_20)
     9.01850464E-03    2     1000022   1000025   # BR(H -> ~chi_10 ~chi_30)
     1.08220814E-07    2     1000002  -1000002   # BR(H -> ~u_L    ~u_L*  )
     1.08220814E-07    2     1000004  -1000004   # BR(H -> ~c_L    ~c_L*  )
     6.39785394E-02    2     1000006  -1000006   # BR(H -> ~t_1    ~t_1*  )
     3.14589384E-02    2     2000006  -2000006   # BR(H -> ~t_2    ~t_2*  )
     3.90641493E-01    2     1000006  -2000006   # BR(H -> ~t_1    ~t_2*  )
     3.90641493E-01    2     2000006  -1000006   # BR(H -> ~t_2    ~t_1*  )
     1.49662496E-07    2     2000001  -2000001   # BR(H -> ~d_R    ~d_R*  )
     1.49662496E-07    2     2000003  -2000003   # BR(H -> ~s_R    ~s_R*  )
     3.83640268E-06    2     1000005  -1000005   # BR(H -> ~b_1    ~b_1*  )
     8.10115100E-07    2     1000011  -1000011   # BR(H -> ~e_L-   ~e_L+  )
     2.44642570E-07    2     2000011  -2000011   # BR(H -> ~e_R-   ~e_R+  )
     8.10115100E-07    2     1000013  -1000013   # BR(H -> ~mu_L-  ~mu_L+ )
     2.44642570E-07    2     2000013  -2000013   # BR(H -> ~mu_R-  ~mu_R+ )
     2.62867713E-06    2     1000012  -1000012   # BR(H -> ~nu_eL  ~nu_eL*   )
     2.62867713E-06    2     1000014  -1000014   # BR(H -> ~nu_muL ~nu_muL*  )
#
#         PDG            Width
DECAY        36     5.94793832E+01   # A decays
#          BR         NDA      ID1       ID2
     7.77983309E-02    2           5        -5   # BR(A -> b       bb     )
     1.81117831E-02    2         -15        15   # BR(A -> tau+    tau-   )
     6.66552081E-05    2         -13        13   # BR(A -> mu+     mu-    )
     2.66985477E-05    2           3        -3   # BR(A -> s       sb     )
     1.26859237E-07    2           4        -4   # BR(A -> c       cb     )
     1.24609674E-02    2           6        -6   # BR(A -> t       tb     )
     1.84494175E-05    2          21        21   # BR(A -> g       g      )
     4.79935251E-08    2          22        22   # BR(A -> gam     gam    )
     2.00040617E-08    2          23        22   # BR(A -> Z       gam    )
     9.03677480E-06    2          23        25   # BR(A -> Z       h      )
     5.91693734E-05    2     1000022   1000022   # BR(A -> ~chi_10 ~chi_10)
     9.07208364E-03    2     1000022   1000023   # BR(A -> ~chi_10 ~chi_20)
     4.29960309E-03    2     1000022   1000025   # BR(A -> ~chi_10 ~chi_30)
     4.39038514E-01    2     1000006  -2000006   # BR(A -> ~t_1    ~t_2*  )
     4.39038514E-01    2    -1000006   2000006   # BR(A -> ~t_1*   ~t_2   )
#
#         PDG            Width
DECAY        37     7.50492170E+01   # H+ decays
#          BR         NDA      ID1       ID2
     9.12555108E-05    2           4        -5   # BR(H+ -> c       bb     )
     1.43595078E-02    2         -15        16   # BR(H+ -> tau+    nu_tau )
     5.28460383E-05    2         -13        14   # BR(H+ -> mu+     nu_mu  )
     9.12552435E-07    2           2        -5   # BR(H+ -> u       bb     )
     1.05827362E-06    2           2        -3   # BR(H+ -> u       sb     )
     2.09264573E-05    2           4        -3   # BR(H+ -> c       sb     )
     6.39159063E-02    2           6        -5   # BR(H+ -> t       bb     )
     7.17423325E-06    2          24        25   # BR(H+ -> W+      h      )
     2.81935905E-14    2          24        36   # BR(H+ -> W+      A      )
     1.06672065E-02    2     1000024   1000022   # BR(H+ -> ~chi_1+ ~chi_10)
     2.48220720E-06    2    -1000011   1000012   # BR(H+ -> ~e_L+   ~nu_eL )
     2.48220720E-06    2    -1000013   1000014   # BR(H+ -> ~mu_L+  ~nu_muL)
     9.76776752E-08    2     1000002  -1000001   # BR(H+ -> ~u_L    ~d_L*  )
     9.76776752E-08    2     1000004  -1000003   # BR(H+ -> ~c_L    ~s_L*  )
     3.42027589E-02    2     1000006  -1000005   # BR(H+ -> ~t_1    ~b_1*  )
     8.76675288E-01    2     2000006  -1000005   # BR(H+ -> ~t_2    ~b_1*  )
