#
#                              ======================
#                              | THE SUSYHIT OUTPUT |
#                              ======================
#
#
#              ------------------------------------------------------
#              |     This is the output of the SUSY-HIT package     |
#              |  created by A.Djouadi, M.Muehlleitner and M.Spira. |
#              |  In case of problems with SUSY-HIT email to        |
#              |           margarete.muehlleitner@cern.ch           |
#              |           michael.spira@psi.ch                     |
#              |           abdelhak.djouadi@cern.ch                 |
#              ------------------------------------------------------
#
#              ------------------------------------------------------
#              |  SUSY Les Houches Accord - MSSM Spectrum + Decays  |
#              |              based on the decay programs           |
#              |                                                    |
#              |                     SDECAY 1.3b                    |
#              |                                                    |
#              |  Authors: M.Muhlleitner, A.Djouadi and Y.Mambrini  |
#              |  Ref.:    Comput.Phys.Commun.168(2005)46           |
#              |           [hep-ph/0311167]                         |
#              |                                                    |
#              |                     HDECAY 3.4                     |
#              |                                                    |
#              |  By: A.Djouadi,J.Kalinowski,M.Muhlleitner,M.Spira  |
#              |  Ref.:    Comput.Phys.Commun.108(1998)56           |
#              |           [hep-ph/9704448]                         |
#              |                                                    |
#              |                                                    |
#              |  If not stated otherwise all DRbar couplings and   |
#              |  soft SUSY breaking masses are given at the scale  |
#              |  Q=  0.10278760E+04
#              |                                                    |
#              ------------------------------------------------------
#
#
BLOCK DCINFO  # Decay Program information
     1   SDECAY/HDECAY # decay calculator
     2   1.3b  /3.4    # version number
#
BLOCK SPINFO  # Spectrum calculator information
     1     SOFTSUSY    # spectrum calculator               
     2     3.4.0       # version number                    
#
BLOCK MODSEL  # Model selection
     1     0   #  nonUniversal                                     
#
BLOCK SMINPUTS  # Standard Model inputs
         1     1.27908970E+02   # alpha_em^-1(M_Z)^MSbar
         2     1.16637870E-05   # G_F [GeV^-2]
         3     1.18400000E-01   # alpha_S(M_Z)^MSbar
         4     9.11876000E+01   # M_Z pole mass
         5     4.18000000E+00   # mb(mb)^MSbar
         6     1.73200000E+02   # mt pole mass
         7     1.77700000E+00   # mtau pole mass
#
BLOCK MINPAR  # Input parameters - minimal models
         3     9.68000000E+00   # tanb                
#
BLOCK EXTPAR  # Input parameters - non-minimal models
         0    -1.00000000E+00   # Set                 
         1     2.89400000E+02   # M_1(MX)             
         2     8.28880000E+02   # M_2(MX)             
         3     2.69874000E+03   # M_3(MX)             
        11     1.47663000E+03   # At(MX)              
        12    -8.90130000E+02   # Ab(MX)              
        13     2.42422000E+03   # Atau(MX)            
        23    -3.95768000E+03   # mu(MX)              
        26     1.42103000E+03   # mA(pole)            
        31     1.25879000E+03   # meL(MX)             
        32     1.25879000E+03   # mmuL(MX)            
        33     3.90701000E+03   # mtauL(MX)           
        34     1.15828000E+03   # meR(MX)             
        35     1.15828000E+03   # mmuR(MX)            
        36     2.81597000E+03   # mtauR(MX)           
        41     1.46510000E+03   # mqL1(MX)            
        42     1.46510000E+03   # mqL2(MX)            
        43     1.19174000E+03   # mqL3(MX)            
        44     3.53672000E+03   # muR(MX)             
        45     3.53672000E+03   # mcR(MX)             
        46     9.00120000E+02   # mtR(MX)             
        47     8.17250000E+02   # mdR(MX)             
        48     8.17250000E+02   # msR(MX)             
        49     2.73383000E+03   # mbR(MX)             
#
BLOCK MASS  # Mass Spectrum
# PDG code           mass       particle
        24     8.04044092E+01   # W+
        25     1.25227188E+02   # h
        35     1.41364083E+03   # H
        36     1.42102979E+03   # A
        37     1.42235184E+03   # H+
         5     4.81876030E+00   # b-quark pole mass calculated from mb(mb)_Msbar
   1000001     1.42888707E+03   # ~d_L
   2000001     6.76239123E+02   # ~d_R
   1000002     1.42684402E+03   # ~u_L
   2000002     3.54119177E+03   # ~u_R
   1000003     1.42888707E+03   # ~s_L
   2000003     6.76239123E+02   # ~s_R
   1000004     1.42684402E+03   # ~c_L
   2000004     3.54119177E+03   # ~c_R
   1000005     9.93324082E+02   # ~b_1
   2000005     2.73063347E+03   # ~b_2
   1000006     3.16604312E+02   # ~t_1
   2000006     1.05311012E+03   # ~t_2
   1000011     1.27763447E+03   # ~e_L
   2000011     1.12918616E+03   # ~e_R
   1000012     1.27496406E+03   # ~nu_eL
   1000013     1.27763447E+03   # ~mu_L
   2000013     1.12918616E+03   # ~mu_R
   1000014     1.27496406E+03   # ~nu_muL
   1000015     2.80614452E+03   # ~tau_1
   2000015     3.91821809E+03   # ~tau_2
   1000016     3.91701606E+03   # ~nu_tauL
   1000021     2.65111281E+03   # ~g
   1000022     2.91400181E+02   # ~chi_10
   1000023     8.57972705E+02   # ~chi_20
   1000025    -3.98593295E+03   # ~chi_30
   1000035     3.98617278E+03   # ~chi_40
   1000024     8.58127900E+02   # ~chi_1+
   1000037     3.98695317E+03   # ~chi_2+
#
BLOCK NMIX  # Neutralino Mixing Matrix
  1  1     9.99935006E-01   # N_11
  1  2     4.20898133E-04   # N_12
  1  3    -1.13754949E-02   # N_13
  1  4     6.35570557E-04   # N_14
  2  1    -1.96414636E-04   # N_21
  2  2     9.99802299E-01   # N_22
  2  3     1.98176250E-02   # N_23
  2  4     1.60838588E-03   # N_24
  3  1    -8.49772751E-03   # N_31
  3  2     1.28745445E-02   # N_32
  3  3    -7.06991086E-01   # N_33
  3  4     7.07054198E-01   # N_34
  4  1     7.59822601E-03   # N_41
  4  2    -1.51470358E-02   # N_42
  4  3     7.06853213E-01   # N_43
  4  4     7.07157245E-01   # N_44
#
BLOCK UMIX  # Chargino Mixing Matrix U
  1  1     9.99609528E-01   # U_11
  1  2     2.79426503E-02   # U_12
  2  1    -2.79426503E-02   # U_21
  2  2     9.99609528E-01   # U_22
#
BLOCK VMIX  # Chargino Mixing Matrix V
  1  1     9.99997947E-01   # V_11
  1  2    -2.02615304E-03   # V_12
  2  1    -2.02615304E-03   # V_21
  2  2    -9.99997947E-01   # V_22
#
BLOCK STOPMIX  # Stop Mixing Matrix
  1  1    -3.18505469E-01   # cos(theta_t)
  1  2     9.47921023E-01   # sin(theta_t)
  2  1    -9.47921023E-01   # -sin(theta_t)
  2  2    -3.18505469E-01   # cos(theta_t)
#
BLOCK SBOTMIX  # Sbottom Mixing Matrix
  1  1     9.99873640E-01   # cos(theta_b)
  1  2    -1.58966674E-02   # sin(theta_b)
  2  1     1.58966674E-02   # -sin(theta_b)
  2  2     9.99873640E-01   # cos(theta_b)
#
BLOCK STAUMIX  # Stau Mixing Matrix
  1  1    -9.35100730E-03   # cos(theta_tau)
  1  2     9.99956278E-01   # sin(theta_tau)
  2  1    -9.99956278E-01   # -sin(theta_tau)
  2  2    -9.35100730E-03   # cos(theta_tau)
#
BLOCK ALPHA  # Higgs mixing
          -1.07482131E-01   # Mixing angle in the neutral Higgs boson sector
#
BLOCK HMIX Q=  1.02787600E+03  # DRbar Higgs Parameters
         1    -3.99889467E+03   # mu(Q)MSSM           
         2     9.34532078E+00   # tan                 
         3     2.45575504E+02   # higgs               
         4     1.86221677E+06   # mA^2(Q)MSSM         
#
BLOCK GAUGE Q=  1.02787600E+03  # The gauge couplings
     1     3.61267398E-01   # gprime(Q) DRbar
     2     6.36631903E-01   # g(Q) DRbar
     3     1.03877789E+00   # g3(Q) DRbar
#
BLOCK AU Q=  1.02787600E+03  # The trilinear couplings
  1  1     0.00000000E+00   # A_u(Q) DRbar
  2  2     0.00000000E+00   # A_c(Q) DRbar
  3  3     1.47663000E+03   # A_t(Q) DRbar
#
BLOCK AD Q=  1.02787600E+03  # The trilinear couplings
  1  1     0.00000000E+00   # A_d(Q) DRbar
  2  2     0.00000000E+00   # A_s(Q) DRbar
  3  3    -8.90129999E+02   # A_b(Q) DRbar
#
BLOCK AE Q=  1.02787600E+03  # The trilinear couplings
  1  1     0.00000000E+00   # A_e(Q) DRbar
  2  2     0.00000000E+00   # A_mu(Q) DRbar
  3  3     2.42422000E+03   # A_tau(Q) DRbar
#
BLOCK Yu Q=  1.02787600E+03  # The Yukawa couplings
  1  1     0.00000000E+00   # y_u(Q) DRbar
  2  2     0.00000000E+00   # y_c(Q) DRbar
  3  3     8.61097654E-01   # y_t(Q) DRbar
#
BLOCK Yd Q=  1.02787600E+03  # The Yukawa couplings
  1  1     0.00000000E+00   # y_d(Q) DRbar
  2  2     0.00000000E+00   # y_s(Q) DRbar
  3  3     1.53886876E-01   # y_b(Q) DRbar
#
BLOCK Ye Q=  1.02787600E+03  # The Yukawa couplings
  1  1     0.00000000E+00   # y_e(Q) DRbar
  2  2     0.00000000E+00   # y_mu(Q) DRbar
  3  3     9.50850703E-02   # y_tau(Q) DRbar
#
BLOCK MSOFT Q=  1.02787600E+03  # The soft SUSY breaking masses at the scale Q
         1     2.89400000E+02   # M_1(Q)              
         2     8.28880000E+02   # M_2(Q)              
         3     2.69874000E+03   # M_3(Q)              
        21    -1.35963059E+07   # mH1^2(Q)            
        22    -1.56929662E+07   # mH2^2(Q)            
        31     1.25879000E+03   # meL(Q)              
        32     1.25879000E+03   # mmuL(Q)             
        33     3.90701000E+03   # mtauL(Q)            
        34     1.15828000E+03   # meR(Q)              
        35     1.15828000E+03   # mmuR(Q)             
        36     2.81597000E+03   # mtauR(Q)            
        41     1.46510000E+03   # mqL1(Q)             
        42     1.46510000E+03   # mqL2(Q)             
        43     1.19174000E+03   # mqL3(Q)             
        44     3.53672000E+03   # muR(Q)              
        45     3.53672000E+03   # mcR(Q)              
        46     9.00119994E+02   # mtR(Q)              
        47     8.17249997E+02   # mdR(Q)              
        48     8.17249997E+02   # msR(Q)              
        49     2.73383000E+03   # mbR(Q)              
#
Block HiggsBoundsInputHiggsCouplingsFermions
# ScalarNormEffCoupSq PseudoSNormEffCoupSq NP   IP1 IP2 IP2
    1.01655861E+00    0.00000000E+00        3  25   5   5  # h0-b-b eff. coupling^2, normalised to SM
    8.73184619E+01    0.00000000E+00        3  35   5   5  # H0-b-b eff. coupling^2, normalised to SM
    0.00000000E+00    8.73350205E+01        3  36   5   5  # A0-b-b eff. coupling^2, normalised to SM
#
    9.99810401E-01    0.00000000E+00        3  25   6   6  # h0-t-t eff. coupling^2, normalised to SM
    1.16397592E-02    0.00000000E+00        3  35   6   6  # H0-t-t eff. coupling^2, normalised to SM
    0.00000000E+00    1.14501605E-02        3  36   6   6  # A0-t-t eff. coupling^2, normalised to SM
#
    1.01655861E+00    0.00000000E+00        3  25  15  15  # h0-tau-tau eff. coupling^2, normalised to SM
    8.73184619E+01    0.00000000E+00        3  35  15  15  # H0-tau-tau eff. coupling^2, normalised to SM
    0.00000000E+00    8.73350205E+01        3  36  15  15  # A0-tau-tau eff. coupling^2, normalised to SM
#
Block HiggsBoundsInputHiggsCouplingsBosons
    9.99999221E-01        3  25  24  24  # h0-W-W eff. coupling^2, normalised to SM
    7.78514886E-07        3  35  24  24  # H0-W-W eff. coupling^2, normalised to SM
    0.00000000E+00        3  36  24  24  # A0-W-W eff. coupling^2, normalised to SM
#
    9.99999221E-01        3  25  23  23  # h0-Z-Z eff. coupling^2, normalised to SM
    7.78514886E-07        3  35  23  23  # H0-Z-Z eff. coupling^2, normalised to SM
    0.00000000E+00        3  36  23  23  # A0-Z-Z eff. coupling^2, normalised to SM
#
    4.83097442E-01        3  25  21  21  # h0-g-g eff. coupling^2, normalised to SM
    3.57693213E-05        3  35  21  21  # H0-g-g eff. coupling^2, normalised to SM
    3.54652310E-08        3  36  21  21  # A0-g-g eff. coupling^2, normalised to SM
#
    0.00000000E+00        3  25  25  23  # h0-h0-Z eff. coupling^2, normalised to SM
    0.00000000E+00        3  35  25  23  # H0-h0-Z eff. coupling^2, normalised to SM
    7.78514886E-07        3  36  25  23  # A0-h0-Z eff. coupling^2, normalised to SM
    0.00000000E+00        3  35  35  23  # H0-H0-Z eff. coupling^2, normalised to SM
    9.99999221E-01        3  36  35  23  # A0-H0-Z eff. coupling^2, normalised to SM
    0.00000000E+00        3  36  36  23  # A0-A0-Z eff. coupling^2, normalised to SM
#
    0.00000000E+00        4  25  21  21  23  # h0-g-g-Z eff. coupling^2, normalised to SM
    0.00000000E+00        4  35  21  21  23  # H0-g-g-Z eff. coupling^2, normalised to SM
    0.00000000E+00        4  36  21  21  23  # A0-g-g-Z eff. coupling^2, normalised to SM
#
#
#
#                             =================
#                             |The decay table|
#                             =================
#
# - The QCD corrections to the decays gluino -> squark  + quark
#                                     squark -> gaugino + quark_prime
#                                     squark -> squark_prime + Higgs
#                                     squark -> gluino  + quark
#   are included.
#
# - The multi-body decays for the inos, stops and sbottoms are included.
#
# - The loop induced decays for the gluino, neutralinos and stops
#   are included.
#
# - The SUSY decays of the top quark are included.
#
#
#         PDG            Width
DECAY         6     1.42676442E+00   # top decays
#          BR         NDA      ID1       ID2
     1.00000000E+00    2           5        24   # BR(t ->  b    W+)
#
#         PDG            Width
DECAY   1000021     3.15281403E+02   # gluino decays
#          BR         NDA      ID1       ID2
     4.07716726E-02    2     1000001        -1   # BR(~g -> ~d_L  db)
     4.07716726E-02    2    -1000001         1   # BR(~g -> ~d_L* d )
     7.07964530E-02    2     2000001        -1   # BR(~g -> ~d_R  db)
     7.07964530E-02    2    -2000001         1   # BR(~g -> ~d_R* d )
     4.08671338E-02    2     1000002        -2   # BR(~g -> ~u_L  ub)
     4.08671338E-02    2    -1000002         2   # BR(~g -> ~u_L* u )
     4.07716726E-02    2     1000003        -3   # BR(~g -> ~s_L  sb)
     4.07716726E-02    2    -1000003         3   # BR(~g -> ~s_L* s )
     7.07964530E-02    2     2000003        -3   # BR(~g -> ~s_R  sb)
     7.07964530E-02    2    -2000003         3   # BR(~g -> ~s_R* s )
     4.08671148E-02    2     1000004        -4   # BR(~g -> ~c_L  cb)
     4.08671148E-02    2    -1000004         4   # BR(~g -> ~c_L* c )
     5.95251704E-02    2     1000005        -5   # BR(~g -> ~b_1  bb)
     5.95251704E-02    2    -1000005         5   # BR(~g -> ~b_1* b )
     8.35824006E-02    2     1000006        -6   # BR(~g -> ~t_1  tb)
     8.35824006E-02    2    -1000006         6   # BR(~g -> ~t_1* t )
     5.20219292E-02    2     2000006        -6   # BR(~g -> ~t_2  tb)
     5.20219292E-02    2    -2000006         6   # BR(~g -> ~t_2* t )
#
#         PDG            Width
DECAY   1000006     5.85808410E-11   # stop1 decays
#           BR         NDA      ID1       ID2
     9.77863009E-01    2     1000022         4   # BR(~t_1 -> ~chi_10 c )
     7.53902710E-03    2     1000022         2   # BR(~t_1 -> ~chi_10 u )
#           BR         NDA      ID1       ID2       ID3       ID4
     4.77852477E-03    4        4       -3        1000022      5   # BR(~t_1 -> c  sb  ~chi_10  b)
     5.00180596E-03    4        2       -1        1000022      5   # BR(~t_1 -> u  db  ~chi_10  b)
     1.68145418E-03    4        -11       12        1000022      5   # BR(~t_1 -> e+  nu_e  ~chi_10  b)
     1.61310419E-03    4        -13       14        1000022      5   # BR(~t_1 -> mu+  nu_mu  ~chi_10  b)
     1.52307475E-03    4        -15       16        1000022      5   # BR(~t_1 -> tau+  nu_tau  ~chi_10  b)
#
#         PDG            Width
DECAY   2000006     4.07057176E+01   # stop2 decays
#          BR         NDA      ID1       ID2
     8.23012220E-03    2     1000022         6   # BR(~t_2 -> ~chi_10 t )
     4.45336526E-03    2     1000023         6   # BR(~t_2 -> ~chi_20 t )
     0.00000000E+00    2     1000025         6   # BR(~t_2 -> ~chi_30 t )
     2.12021769E-02    2     1000024         5   # BR(~t_2 -> ~chi_1+ b )
     3.53798134E-01    2     1000006        25   # BR(~t_2 -> ~t_1    h )
     6.12316202E-01    2     1000006        23   # BR(~t_2 -> ~t_1    Z )
#
#         PDG            Width
DECAY   1000005     4.41315577E+01   # sbottom1 decays
#          BR         NDA      ID1       ID2
     2.70886033E-03    2     1000022         5   # BR(~b_1 -> ~chi_10 b )
     5.84889178E-03    2     1000023         5   # BR(~b_1 -> ~chi_20 b )
     9.91442248E-01    2     1000006       -24   # BR(~b_1 -> ~t_1    W-)
#
#         PDG            Width
DECAY   2000005     6.60149978E+00   # sbottom2 decays
#          BR         NDA      ID1       ID2
     2.33098684E-01    2     1000022         5   # BR(~b_2 -> ~chi_10 b )
     1.12681109E-04    2     1000023         5   # BR(~b_2 -> ~chi_20 b )
     2.23834999E-04    2    -1000024         6   # BR(~b_2 -> ~chi_1- t )
     7.80043357E-02    2     1000021         5   # BR(~b_2 -> ~g      b )
     1.70287736E-01    2     1000005        25   # BR(~b_2 -> ~b_1    h )
     1.05280728E-02    2     1000005        35   # BR(~b_2 -> ~b_1    H )
     1.03556202E-02    2     1000005        36   # BR(~b_2 -> ~b_1    A )
     1.03353485E-03    2     1000006       -37   # BR(~b_2 -> ~t_1    H-)
     1.85311438E-02    2     2000006       -37   # BR(~b_2 -> ~t_2    H-)
     1.62308112E-01    2     1000005        23   # BR(~b_2 -> ~b_1    Z )
     4.72171870E-02    2     1000006       -24   # BR(~b_2 -> ~t_1    W-)
     2.68299058E-01    2     2000006       -24   # BR(~b_2 -> ~t_2    W-)
#
#         PDG            Width
DECAY   1000002     7.34631055E+00   # sup_L decays
#          BR         NDA      ID1       ID2
     2.61304164E-02    2     1000022         2   # BR(~u_L -> ~chi_10 u)
     3.24610295E-01    2     1000023         2   # BR(~u_L -> ~chi_20 u)
     6.49259289E-01    2     1000024         1   # BR(~u_L -> ~chi_1+ d)
#
#         PDG            Width
DECAY   2000002     6.04279355E+01   # sup_R decays
#          BR         NDA      ID1       ID2
     1.27066311E-01    2     1000022         2   # BR(~u_R -> ~chi_10 u)
     4.41807844E-09    2     1000023         2   # BR(~u_R -> ~chi_20 u)
     8.72933684E-01    2     1000021         2   # BR(~u_R -> ~g      u)
#
#         PDG            Width
DECAY   1000001     7.37427450E+00   # sdown_L decays
#          BR         NDA      ID1       ID2
     2.58419536E-02    2     1000022         1   # BR(~d_L -> ~chi_10 d)
     3.24906461E-01    2     1000023         1   # BR(~d_L -> ~chi_20 d)
     6.49251585E-01    2    -1000024         2   # BR(~d_L -> ~chi_1- u)
#
#         PDG            Width
DECAY   2000001     2.71953957E-01   # sdown_R decays
#          BR         NDA      ID1       ID2
     1.00000000E+00    2     1000022         1   # BR(~d_R -> ~chi_10 d)
#
#         PDG            Width
DECAY   1000004     7.22072338E+00   # scharm_L decays
#          BR         NDA      ID1       ID2
     2.62893068E-02    2     1000022         4   # BR(~c_L -> ~chi_10 c)
     3.24556905E-01    2     1000023         4   # BR(~c_L -> ~chi_20 c)
     6.49153788E-01    2     1000024         3   # BR(~c_L -> ~chi_1+ s)
#
#         PDG            Width
DECAY   2000004     4.72229797E+01   # scharm_R decays
#          BR         NDA      ID1       ID2
     1.70715549E-01    2     1000022         4   # BR(~c_R -> ~chi_10 c)
     5.91607521E-09    2     1000023         4   # BR(~c_R -> ~chi_20 c)
     8.29284445E-01    2     1000021         4   # BR(~c_R -> ~g      c)
#
#         PDG            Width
DECAY   1000003     7.24893139E+00   # sstrange_L decays
#          BR         NDA      ID1       ID2
     2.59986469E-02    2     1000022         3   # BR(~s_L -> ~chi_10 s)
     3.24855922E-01    2     1000023         3   # BR(~s_L -> ~chi_20 s)
     6.49145431E-01    2    -1000024         4   # BR(~s_L -> ~chi_1- c)
#
#         PDG            Width
DECAY   2000003     2.58703834E-01   # sstrange_R decays
#          BR         NDA      ID1       ID2
     1.00000000E+00    2     1000022         3   # BR(~s_R -> ~chi_10 s)
#
#         PDG            Width
DECAY   1000011     6.14561511E+00   # selectron_L decays
#          BR         NDA      ID1       ID2
     2.42876408E-01    2     1000022        11   # BR(~e_L -> ~chi_10 e-)
     2.52501929E-01    2     1000023        11   # BR(~e_L -> ~chi_20 e-)
     5.04621663E-01    2    -1000024        12   # BR(~e_L -> ~chi_1- nu_e)
#
#         PDG            Width
DECAY   2000011     5.10817817E+00   # selectron_R decays
#          BR         NDA      ID1       ID2
     9.99999992E-01    2     1000022        11   # BR(~e_R -> ~chi_10 e-)
     7.91207397E-09    2     1000023        11   # BR(~e_R -> ~chi_20 e-)
#
#         PDG            Width
DECAY   1000013     6.14561502E+00   # smuon_L decays
#          BR         NDA      ID1       ID2
     2.42876408E-01    2     1000022        13   # BR(~mu_L -> ~chi_10 mu-)
     2.52501922E-01    2     1000023        13   # BR(~mu_L -> ~chi_20 mu-)
     5.04621671E-01    2    -1000024        14   # BR(~mu_L -> ~chi_1- nu_mu)
#
#         PDG            Width
DECAY   2000013     5.10817806E+00   # smuon_R decays
#          BR         NDA      ID1       ID2
     9.99999992E-01    2     1000022        13   # BR(~mu_R -> ~chi_10 mu-)
     7.91207336E-09    2     1000023        13   # BR(~mu_R -> ~chi_20 mu-)
#
#         PDG            Width
DECAY   1000015     1.42623400E+01   # stau_1 decays
#          BR         NDA      ID1       ID2
     9.99642249E-01    2     1000022        15   # BR(~tau_1 -> ~chi_10  tau-)
     1.19443228E-04    2     1000023        15   # BR(~tau_1 -> ~chi_20  tau-)
     2.38307682E-04    2    -1000024        16   # BR(~tau_1 -> ~chi_1-  nu_tau)
#
#         PDG            Width
DECAY   2000015     4.83458883E+01   # stau_2 decays
#          BR         NDA      ID1       ID2
     1.04218467E-01    2     1000022        15   # BR(~tau_2 -> ~chi_10  tau-)
     2.95934112E-01    2     1000023        15   # BR(~tau_2 -> ~chi_20  tau-)
     5.91739385E-01    2    -1000024        16   # BR(~tau_2 -> ~chi_1-  nu_tau)
     4.12049108E-03    2     1000015        25   # BR(~tau_2 -> ~tau_1   h)
     3.98754520E-03    2     1000015        23   # BR(~tau_2 -> ~tau_1   Z)
#
#         PDG            Width
DECAY   1000012     6.09880489E+00   # snu_eL decays
#          BR         NDA      ID1       ID2
     2.43393404E-01    2     1000022        12   # BR(~nu_eL -> ~chi_10 nu_e)
     2.52274601E-01    2     1000023        12   # BR(~nu_eL -> ~chi_20 nu_e)
     5.04331995E-01    2     1000024        11   # BR(~nu_eL -> ~chi_1+ e-)
#
#         PDG            Width
DECAY   1000014     6.09880475E+00   # snu_muL decays
#          BR         NDA      ID1       ID2
     2.43393410E-01    2     1000022        14   # BR(~nu_muL -> ~chi_10 nu_mu)
     2.52274607E-01    2     1000023        14   # BR(~nu_muL -> ~chi_20 nu_mu)
     5.04331983E-01    2     1000024        13   # BR(~nu_muL -> ~chi_1+ mu-)
#
#         PDG            Width
DECAY   1000016     4.83314876E+01   # snu_tauL decays
#          BR         NDA      ID1       ID2
     1.03887058E-01    2     1000022        16   # BR(~nu_tauL -> ~chi_10 nu_tau)
     2.96088668E-01    2     1000023        16   # BR(~nu_tauL -> ~chi_20 nu_tau)
     5.92266540E-01    2     1000024        15   # BR(~nu_tauL -> ~chi_1+ tau-)
     7.75773318E-03    2    -1000015       -24   # BR(~nu_tauL -> ~tau_1+ W-)
#
#         PDG            Width
DECAY   1000024     7.72936772E-01   # chargino1+ decays
#          BR         NDA      ID1       ID2
     9.99924978E-01    2     1000006        -5   # BR(~chi_1+ -> ~t_1     bb)
     7.50215004E-05    2     1000022        24   # BR(~chi_1+ -> ~chi_10  W+)
#
#         PDG            Width
DECAY   1000037     2.12022337E+02   # chargino2+ decays
#          BR         NDA      ID1       ID2
     6.82076385E-07    2     1000002        -1   # BR(~chi_2+ -> ~u_L     db)
     1.29617055E-04    2    -1000001         2   # BR(~chi_2+ -> ~d_L*    u )
     6.82076382E-07    2     1000004        -3   # BR(~chi_2+ -> ~c_L     sb)
     1.29617048E-04    2    -1000003         4   # BR(~chi_2+ -> ~s_L*     c )
     3.70985830E-01    2     1000006        -5   # BR(~chi_2+ -> ~t_1     bb)
     4.64248230E-02    2     2000006        -5   # BR(~chi_2+ -> ~t_2     bb)
     3.64753865E-01    2    -1000005         6   # BR(~chi_2+ -> ~b_1*    t )
     3.65316876E-03    2    -2000005         6   # BR(~chi_2+ -> ~b_2*    t )
     2.50830488E-07    2     1000012       -11   # BR(~chi_2+ -> ~nu_eL   e+  )
     2.50830488E-07    2     1000014       -13   # BR(~chi_2+ -> ~nu_muL mu+ )
     2.04470485E-06    2     1000016       -15   # BR(~chi_2+ -> ~nu_tau1 tau+)
     4.76602181E-05    2    -1000011        12   # BR(~chi_2+ -> ~e_L+    nu_e)
     4.76602181E-05    2    -1000013        14   # BR(~chi_2+ -> ~mu_L+   nu_mu)
     4.28761533E-04    2    -1000015        16   # BR(~chi_2+ -> ~tau_1+  nu_tau)
     7.62426646E-08    2    -2000015        16   # BR(~chi_2+ -> ~tau_2+  nu_tau)
     3.25801592E-02    2     1000024        23   # BR(~chi_2+ -> ~chi_1+  Z )
     1.19309621E-02    2     1000022        24   # BR(~chi_2+ -> ~chi_10  W+)
     3.14977397E-02    2     1000023        24   # BR(~chi_2+ -> ~chi_20  W+)
     3.44024287E-02    2     1000024        25   # BR(~chi_2+ -> ~chi_1+  h )
     3.12033377E-02    2     1000024        35   # BR(~chi_2+ -> ~chi_1+  H )
     3.10871543E-02    2     1000024        36   # BR(~chi_2+ -> ~chi_1+  A )
     9.59767716E-03    2     1000022        37   # BR(~chi_2+ -> ~chi_10  H+)
     3.10955515E-02    2     1000023        37   # BR(~chi_2+ -> ~chi_20  H+)
#
#         PDG            Width
DECAY   1000022     0.00000000E+00   # neutralino1 decays
#
#         PDG            Width
DECAY   1000023     7.58240472E-01   # neutralino2 decays
#          BR         NDA      ID1       ID2
     9.74613029E-06    2     1000022        23   # BR(~chi_20 -> ~chi_10   Z )
     1.60469400E-05    2     1000022        25   # BR(~chi_20 -> ~chi_10   h )
     5.71634383E-09    2     2000001        -1   # BR(~chi_20 -> ~d_R      db)
     5.71634383E-09    2    -2000001         1   # BR(~chi_20 -> ~d_R*     d )
     5.71634383E-09    2     2000003        -3   # BR(~chi_20 -> ~s _R      sb)
     5.71634383E-09    2    -2000003         3   # BR(~chi_20 -> ~s _R*     s )
     4.99987092E-01    2     1000006        -6   # BR(~chi_20 -> ~t_1      tb)
     4.99987092E-01    2    -1000006         6   # BR(~chi_20 -> ~t_1*     t )
#
#         PDG            Width
DECAY   1000025     2.11240580E+02   # neutralino3 decays
#          BR         NDA      ID1       ID2
     5.44964236E-03    2     1000022        23   # BR(~chi_30 -> ~chi_10   Z )
     1.91077471E-02    2     1000023        23   # BR(~chi_30 -> ~chi_20   Z )
     3.14645226E-02    2     1000024       -24   # BR(~chi_30 -> ~chi_1+   W-)
     3.14645226E-02    2    -1000024        24   # BR(~chi_30 -> ~chi_1-   W+)
     6.32385689E-03    2     1000022        25   # BR(~chi_30 -> ~chi_10   h )
     3.05496341E-03    2     1000022        35   # BR(~chi_30 -> ~chi_10   H )
     6.56416400E-03    2     1000022        36   # BR(~chi_30 -> ~chi_10   A )
     1.35099602E-02    2     1000023        25   # BR(~chi_30 -> ~chi_20   h )
     5.95600459E-03    2     1000023        35   # BR(~chi_30 -> ~chi_20   H )
     2.52252904E-02    2     1000023        36   # BR(~chi_30 -> ~chi_20   A )
     3.11746287E-02    2     1000024       -37   # BR(~chi_30 -> ~chi_1+   H-)
     3.11746287E-02    2    -1000024        37   # BR(~chi_30 -> ~chi_1-   H+)
     1.05806550E-05    2     1000002        -2   # BR(~chi_30 -> ~u_L      ub)
     1.05806550E-05    2    -1000002         2   # BR(~chi_30 -> ~u_L*     u )
     2.09982838E-07    2     2000002        -2   # BR(~chi_30 -> ~u_R      ub)
     2.09982838E-07    2    -2000002         2   # BR(~chi_30 -> ~u_R*     u )
     1.74652888E-05    2     1000001        -1   # BR(~chi_30 -> ~d_L      db)
     1.74652888E-05    2    -1000001         1   # BR(~chi_30 -> ~d_L*     d )
     1.06536615E-06    2     2000001        -1   # BR(~chi_30 -> ~d_R      db)
     1.06536615E-06    2    -2000001         1   # BR(~chi_30 -> ~d_R*     d )
     1.05806544E-05    2     1000004        -4   # BR(~chi_30 -> ~c_L      cb)
     1.05806544E-05    2    -1000004         4   # BR(~chi_30 -> ~c_L*     c )
     2.09981638E-07    2     2000004        -4   # BR(~chi_30 -> ~c_R      cb)
     2.09981638E-07    2    -2000004         4   # BR(~chi_30 -> ~c_R*     c )
     1.74652888E-05    2     1000003        -3   # BR(~chi_30 -> ~s _L      sb)
     1.74652888E-05    2    -1000003         3   # BR(~chi_30 -> ~s _L*     s )
     1.06536615E-06    2     2000003        -3   # BR(~chi_30 -> ~s _R      sb)
     1.06536615E-06    2    -2000003         3   # BR(~chi_30 -> ~s _R*     s )
     2.15155435E-01    2     1000006        -6   # BR(~chi_30 -> ~t_1      tb)
     2.15155435E-01    2    -1000006         6   # BR(~chi_30 -> ~t_1*     t )
     1.71554442E-01    2     2000006        -6   # BR(~chi_30 -> ~t_2      tb)
     1.71554442E-01    2    -2000006         6   # BR(~chi_30 -> ~t_2*     t )
     5.86899007E-03    2     1000005        -5   # BR(~chi_30 -> ~b_1      bb)
     5.86899007E-03    2    -1000005         5   # BR(~chi_30 -> ~b_1*     b )
     1.88123802E-03    2     2000005        -5   # BR(~chi_30 -> ~b_2      bb)
     1.88123802E-03    2    -2000005         5   # BR(~chi_30 -> ~b_2*     b )
     1.98554716E-06    2     1000011       -11   # BR(~chi_30 -> ~e_L-     e+)
     1.98554716E-06    2    -1000011        11   # BR(~chi_30 -> ~e_L+     e-)
     2.99282256E-06    2     2000011       -11   # BR(~chi_30 -> ~e_R-     e+)
     2.99282256E-06    2    -2000011        11   # BR(~chi_30 -> ~e_R+     e-)
     1.98554716E-06    2     1000013       -13   # BR(~chi_30 -> ~mu_L-    mu+)
     1.98554716E-06    2    -1000013        13   # BR(~chi_30 -> ~mu_L+    mu-)
     2.99282256E-06    2     2000013       -13   # BR(~chi_30 -> ~mu_R-    mu+)
     2.99282256E-06    2    -2000013        13   # BR(~chi_30 -> ~mu_R+    mu-)
     2.16153386E-04    2     1000015       -15   # BR(~chi_30 -> ~tau_1-   tau+)
     2.16153386E-04    2    -1000015        15   # BR(~chi_30 -> ~tau_1+   tau-)
     9.64019965E-07    2     2000015       -15   # BR(~chi_30 -> ~tau_2-   tau+)
     9.64019965E-07    2    -2000015        15   # BR(~chi_30 -> ~tau_2+   tau-)
     9.59917582E-06    2     1000012       -12   # BR(~chi_30 -> ~nu_eL    nu_eb)
     9.59917582E-06    2    -1000012        12   # BR(~chi_30 -> ~nu_eL*   nu_e )
     9.59917582E-06    2     1000014       -14   # BR(~chi_30 -> ~nu_muL   nu_mub)
     9.59917582E-06    2    -1000014        14   # BR(~chi_30 -> ~nu_muL*  nu_mu )
     1.39989345E-08    2     1000016       -16   # BR(~chi_30 -> ~nu_tau1  nu_taub)
     1.39989345E-08    2    -1000016        16   # BR(~chi_30 -> ~nu_tau1* nu_tau )
#
#         PDG            Width
DECAY   1000035     2.11982127E+02   # neutralino4 decays
#          BR         NDA      ID1       ID2
     6.79426291E-03    2     1000022        23   # BR(~chi_40 -> ~chi_10   Z )
     1.37692862E-02    2     1000023        23   # BR(~chi_40 -> ~chi_20   Z )
     3.25036138E-02    2     1000024       -24   # BR(~chi_40 -> ~chi_1+   W-)
     3.25036138E-02    2    -1000024        24   # BR(~chi_40 -> ~chi_1-   W+)
     5.48274916E-03    2     1000022        25   # BR(~chi_40 -> ~chi_10   h )
     6.56698179E-03    2     1000022        35   # BR(~chi_40 -> ~chi_10   H )
     3.03929325E-03    2     1000022        36   # BR(~chi_40 -> ~chi_10   A )
     2.09633326E-02    2     1000023        25   # BR(~chi_40 -> ~chi_20   h )
     2.52348486E-02    2     1000023        35   # BR(~chi_40 -> ~chi_20   H )
     5.91894787E-03    2     1000023        36   # BR(~chi_40 -> ~chi_20   A )
     3.10622790E-02    2     1000024       -37   # BR(~chi_40 -> ~chi_1+   H-)
     3.10622790E-02    2    -1000024        37   # BR(~chi_40 -> ~chi_1-   H+)
     1.56122636E-05    2     1000002        -2   # BR(~chi_40 -> ~u_L      ub)
     1.56122636E-05    2    -1000002         2   # BR(~chi_40 -> ~u_L*     u )
     1.67452167E-07    2     2000002        -2   # BR(~chi_40 -> ~u_R      ub)
     1.67452167E-07    2    -2000002         2   # BR(~chi_40 -> ~u_R*     u )
     2.28263240E-05    2     1000001        -1   # BR(~chi_40 -> ~d_L      db)
     2.28263240E-05    2    -1000001         1   # BR(~chi_40 -> ~d_L*     d )
     8.48839805E-07    2     2000001        -1   # BR(~chi_40 -> ~d_R      db)
     8.48839805E-07    2    -2000001         1   # BR(~chi_40 -> ~d_R*     d )
     1.56122627E-05    2     1000004        -4   # BR(~chi_40 -> ~c_L      cb)
     1.56122627E-05    2    -1000004         4   # BR(~chi_40 -> ~c_L*     c )
     1.67451212E-07    2     2000004        -4   # BR(~chi_40 -> ~c_R      cb)
     1.67451212E-07    2    -2000004         4   # BR(~chi_40 -> ~c_R*     c )
     2.28263240E-05    2     1000003        -3   # BR(~chi_40 -> ~s _L      sb)
     2.28263240E-05    2    -1000003         3   # BR(~chi_40 -> ~s _L*     s )
     8.48839805E-07    2     2000003        -3   # BR(~chi_40 -> ~s _R      sb)
     8.48839805E-07    2    -2000003         3   # BR(~chi_40 -> ~s _R*     s )
     1.96237242E-01    2     1000006        -6   # BR(~chi_40 -> ~t_1      tb)
     1.96237242E-01    2    -1000006         6   # BR(~chi_40 -> ~t_1*     t )
     1.88251316E-01    2     2000006        -6   # BR(~chi_40 -> ~t_2      tb)
     1.88251316E-01    2    -2000006         6   # BR(~chi_40 -> ~t_2*     t )
     5.85471905E-03    2     1000005        -5   # BR(~chi_40 -> ~b_1      bb)
     5.85471905E-03    2    -1000005         5   # BR(~chi_40 -> ~b_1*     b )
     1.87577838E-03    2     2000005        -5   # BR(~chi_40 -> ~b_2      bb)
     1.87577838E-03    2    -2000005         5   # BR(~chi_40 -> ~b_2*     b )
     3.58286793E-06    2     1000011       -11   # BR(~chi_40 -> ~e_L-     e+)
     3.58286793E-06    2    -1000011        11   # BR(~chi_40 -> ~e_L+     e-)
     2.38458681E-06    2     2000011       -11   # BR(~chi_40 -> ~e_R-     e+)
     2.38458681E-06    2    -2000011        11   # BR(~chi_40 -> ~e_R+     e-)
     3.58286793E-06    2     1000013       -13   # BR(~chi_40 -> ~mu_L-    mu+)
     3.58286793E-06    2    -1000013        13   # BR(~chi_40 -> ~mu_L+    mu-)
     2.38458681E-06    2     2000013       -13   # BR(~chi_40 -> ~mu_R-    mu+)
     2.38458681E-06    2    -2000013        13   # BR(~chi_40 -> ~mu_R+    mu-)
     2.15228842E-04    2     1000015       -15   # BR(~chi_40 -> ~tau_1-   tau+)
     2.15228842E-04    2    -1000015        15   # BR(~chi_40 -> ~tau_1+   tau-)
     9.76871873E-07    2     2000015       -15   # BR(~chi_40 -> ~tau_2-   tau+)
     9.76871873E-07    2    -2000015        15   # BR(~chi_40 -> ~tau_2+   tau-)
     1.15663274E-05    2     1000012       -12   # BR(~chi_40 -> ~nu_eL    nu_eb)
     1.15663274E-05    2    -1000012        12   # BR(~chi_40 -> ~nu_eL*   nu_e )
     1.15663274E-05    2     1000014       -14   # BR(~chi_40 -> ~nu_muL   nu_mub)
     1.15663274E-05    2    -1000014        14   # BR(~chi_40 -> ~nu_muL*  nu_mu )
     1.69818060E-08    2     1000016       -16   # BR(~chi_40 -> ~nu_tau1  nu_taub)
     1.69818060E-08    2    -1000016        16   # BR(~chi_40 -> ~nu_tau1* nu_tau )
#
#         PDG            Width
DECAY        25     3.66829248E-03   # h decays
#          BR         NDA      ID1       ID2
     5.71160084E-01    2           5        -5   # BR(h -> b       bb     )
     7.18411967E-02    2         -15        15   # BR(h -> tau+    tau-   )
     2.54338560E-04    2         -13        13   # BR(h -> mu+     mu-    )
     2.79829562E-04    2           3        -3   # BR(h -> s       sb     )
     2.36730641E-02    2           4        -4   # BR(h -> c       cb     )
     6.44731186E-02    2          21        21   # BR(h -> g       g      )
     2.82699033E-03    2          22        22   # BR(h -> gam     gam    )
     1.73857470E-03    2          22        23   # BR(h -> Z       gam    )
     2.34333097E-01    2          24       -24   # BR(h -> W+      W-     )
     2.94197061E-02    2          23        23   # BR(h -> Z       Z      )
#
#         PDG            Width
DECAY        35     1.90239766E+02   # H decays
#          BR         NDA      ID1       ID2
     1.29140392E-02    2           5        -5   # BR(H -> b       bb     )
     1.36058652E-03    2         -15        15   # BR(H -> tau+    tau-   )
     4.92191239E-06    2         -13        13   # BR(H -> mu+     mu-    )
     7.78109377E-06    2           3        -3   # BR(H -> s       sb     )
     3.94183022E-08    2           4        -4   # BR(H -> c       cb     )
     3.70499573E-03    2           6        -6   # BR(H -> t       tb     )
     2.60092222E-04    2          21        21   # BR(H -> g       g      )
     1.22059727E-06    2          22        22   # BR(H -> gam     gam    )
     4.20195890E-09    2          23        22   # BR(H -> Z       gam    )
     3.65681803E-06    2          24       -24   # BR(H -> W+      W-     )
     1.81614703E-06    2          23        23   # BR(H -> Z       Z      )
     6.48840900E-06    2          25        25   # BR(H -> h       h      )
     1.72183835E-06    2     1000022   1000022   # BR(H -> ~chi_10 ~chi_10)
     2.72494099E-06    2     1000022   1000023   # BR(H -> ~chi_10 ~chi_20)
     4.68462822E-01    2     1000006  -1000006   # BR(H -> ~t_1    ~t_1*  )
     2.56633471E-01    2     1000006  -2000006   # BR(H -> ~t_1    ~t_2*  )
     2.56633471E-01    2     2000006  -1000006   # BR(H -> ~t_2    ~t_1*  )
     7.31519927E-08    2     2000001  -2000001   # BR(H -> ~d_R    ~d_R*  )
     7.31519927E-08    2     2000003  -2000003   # BR(H -> ~s_R    ~s_R*  )
#
#         PDG            Width
DECAY        36     1.66241379E+02   # A decays
#          BR         NDA      ID1       ID2
     1.48499022E-02    2           5        -5   # BR(A -> b       bb     )
     1.56544231E-03    2         -15        15   # BR(A -> tau+    tau-   )
     5.66292879E-06    2         -13        13   # BR(A -> mu+     mu-    )
     8.95245514E-06    2           3        -3   # BR(A -> s       sb     )
     4.49805999E-08    2           4        -4   # BR(A -> c       cb     )
     4.38017645E-03    2           6        -6   # BR(A -> t       tb     )
     9.87138185E-06    2          21        21   # BR(A -> g       g      )
     2.31713053E-08    2          22        22   # BR(A -> gam     gam    )
     9.21041967E-09    2          23        22   # BR(A -> Z       gam    )
     4.25364186E-06    2          23        25   # BR(A -> Z       h      )
     2.44734560E-06    2     1000022   1000022   # BR(A -> ~chi_10 ~chi_10)
     7.83134711E-06    2     1000022   1000023   # BR(A -> ~chi_10 ~chi_20)
     4.89582691E-01    2     1000006  -2000006   # BR(A -> ~t_1    ~t_2*  )
     4.89582691E-01    2    -1000006   2000006   # BR(A -> ~t_1*   ~t_2   )
#
#         PDG            Width
DECAY        37     1.93881496E+02   # H+ decays
#          BR         NDA      ID1       ID2
     2.35960297E-05    2           4        -5   # BR(H+ -> c       bb     )
     1.34351864E-03    2         -15        16   # BR(H+ -> tau+    nu_tau )
     4.86012822E-06    2         -13        14   # BR(H+ -> mu+     nu_mu  )
     2.35958526E-07    2           2        -5   # BR(H+ -> u       bb     )
     3.83084730E-07    2           2        -3   # BR(H+ -> u       sb     )
     7.57720064E-06    2           4        -3   # BR(H+ -> c       sb     )
     1.75790616E-02    2           6        -5   # BR(H+ -> t       bb     )
     3.66799809E-06    2          24        25   # BR(H+ -> W+      h      )
     2.73851545E-14    2          24        36   # BR(H+ -> W+      A      )
     9.50973969E-06    2     1000024   1000022   # BR(H+ -> ~chi_1+ ~chi_10)
     9.81027590E-01    2     1000006  -1000005   # BR(H+ -> ~t_1    ~b_1*  )
