#
#                              ======================
#                              | THE SUSYHIT OUTPUT |
#                              ======================
#
#
#              ------------------------------------------------------
#              |     This is the output of the SUSY-HIT package     |
#              |  created by A.Djouadi, M.Muehlleitner and M.Spira. |
#              |  In case of problems with SUSY-HIT email to        |
#              |           margarete.muehlleitner@cern.ch           |
#              |           michael.spira@psi.ch                     |
#              |           abdelhak.djouadi@cern.ch                 |
#              ------------------------------------------------------
#
#              ------------------------------------------------------
#              |  SUSY Les Houches Accord - MSSM Spectrum + Decays  |
#              |              based on the decay programs           |
#              |                                                    |
#              |                     SDECAY 1.3b                    |
#              |                                                    |
#              |  Authors: M.Muhlleitner, A.Djouadi and Y.Mambrini  |
#              |  Ref.:    Comput.Phys.Commun.168(2005)46           |
#              |           [hep-ph/0311167]                         |
#              |                                                    |
#              |                     HDECAY 3.4                     |
#              |                                                    |
#              |  By: A.Djouadi,J.Kalinowski,M.Muhlleitner,M.Spira  |
#              |  Ref.:    Comput.Phys.Commun.108(1998)56           |
#              |           [hep-ph/9704448]                         |
#              |                                                    |
#              |                                                    |
#              |  If not stated otherwise all DRbar couplings and   |
#              |  soft SUSY breaking masses are given at the scale  |
#              |  Q=  0.28794230E+04
#              |                                                    |
#              ------------------------------------------------------
#
#
BLOCK DCINFO  # Decay Program information
     1   SDECAY/HDECAY # decay calculator
     2   1.3b  /3.4    # version number
#
BLOCK SPINFO  # Spectrum calculator information
     1     SOFTSUSY    # spectrum calculator               
     2     3.4.0       # version number                    
#
BLOCK MODSEL  # Model selection
     1     0   #  nonUniversal                                     
#
BLOCK SMINPUTS  # Standard Model inputs
         1     1.27908970E+02   # alpha_em^-1(M_Z)^MSbar
         2     1.16637870E-05   # G_F [GeV^-2]
         3     1.18400000E-01   # alpha_S(M_Z)^MSbar
         4     9.11876000E+01   # M_Z pole mass
         5     4.18000000E+00   # mb(mb)^MSbar
         6     1.73200000E+02   # mt pole mass
         7     1.77700000E+00   # mtau pole mass
#
BLOCK MINPAR  # Input parameters - minimal models
         3     3.63000000E+01   # tanb                
#
BLOCK EXTPAR  # Input parameters - non-minimal models
         0    -1.00000000E+00   # Set                 
         1     4.58000000E+01   # M_1(MX)             
         2    -6.80000000E+02   # M_2(MX)             
         3     2.62883000E+03   # M_3(MX)             
        11     3.38899000E+03   # At(MX)              
        12     2.53523000E+03   # Ab(MX)              
        13     2.68725000E+03   # Atau(MX)            
        23    -2.22650000E+02   # mu(MX)              
        26     1.51469000E+03   # mA(pole)            
        31     1.96447000E+03   # meL(MX)             
        32     1.96447000E+03   # mmuL(MX)            
        33     1.01855000E+03   # mtauL(MX)           
        34     3.00816000E+03   # meR(MX)             
        35     3.00816000E+03   # mmuR(MX)            
        36     3.20775000E+03   # mtauR(MX)           
        41     3.97239000E+03   # mqL1(MX)            
        42     3.97239000E+03   # mqL2(MX)            
        43     3.24368000E+03   # mqL3(MX)            
        44     2.52842000E+03   # muR(MX)             
        45     2.52842000E+03   # mcR(MX)             
        46     2.55454000E+03   # mtR(MX)             
        47     1.00470000E+03   # mdR(MX)             
        48     1.00470000E+03   # msR(MX)             
        49     2.89330000E+02   # mbR(MX)             
#
BLOCK MASS  # Mass Spectrum
# PDG code           mass       particle
        24     8.03910536E+01   # W+
        25     1.26992472E+02   # h
        35     1.51470123E+03   # H
        36     1.51469000E+03   # A
        37     1.51710295E+03   # H+
         5     4.81876030E+00   # b-quark pole mass calculated from mb(mb)_Msbar
   1000001     4.03917881E+03   # ~d_L
   2000001     1.17304055E+03   # ~d_R
   1000002     4.03853989E+03   # ~u_L
   2000002     2.62793828E+03   # ~u_R
   1000003     4.03917881E+03   # ~s_L
   2000003     1.17304055E+03   # ~s_R
   1000004     4.03853989E+03   # ~c_L
   2000004     2.62793828E+03   # ~c_R
   1000005     5.77804695E+02   # ~b_1
   2000005     3.27921192E+03   # ~b_2
   1000006     2.58722510E+03   # ~t_1
   2000006     3.28906960E+03   # ~t_2
   1000011     1.96817148E+03   # ~e_L
   2000011     3.01370547E+03   # ~e_R
   1000012     1.96625480E+03   # ~nu_eL
   1000013     1.96817148E+03   # ~mu_L
   2000013     3.01370547E+03   # ~mu_R
   1000014     1.96625480E+03   # ~nu_muL
   1000015     1.01459841E+03   # ~tau_1
   2000015     3.20050172E+03   # ~tau_2
   1000016     1.01121843E+03   # ~nu_tauL
   1000021     2.80408361E+03   # ~g
   1000022     4.41419483E+01   # ~chi_10
   1000023    -2.29884895E+02   # ~chi_20
   1000025     2.40953940E+02   # ~chi_30
   1000035    -7.24343369E+02   # ~chi_40
   1000024     2.29735765E+02   # ~chi_1+
   1000037     7.24540360E+02   # ~chi_2+
#
BLOCK NMIX  # Neutralino Mixing Matrix
  1  1     9.81222354E-01   # N_11
  1  2     2.78418346E-03   # N_12
  1  3    -1.90386342E-01   # N_13
  1  4    -3.07893080E-02   # N_14
  2  1    -1.14147389E-01   # N_21
  2  2    -1.16411542E-01   # N_22
  2  3    -7.02099214E-01   # N_23
  2  4     6.93163343E-01   # N_24
  3  1     1.55312152E-01   # N_31
  3  2    -5.74653410E-02   # N_32
  3  3     6.84856584E-01   # N_33
  3  4     7.09610688E-01   # N_34
  4  1    -7.15549413E-03   # N_41
  4  2     9.91533326E-01   # N_42
  4  3    -4.22041938E-02   # N_43
  4  4     1.22593920E-01   # N_44
#
BLOCK UMIX  # Chargino Mixing Matrix U
  1  1     5.97818187E-02   # U_11
  1  2     9.98211468E-01   # U_12
  2  1    -9.98211468E-01   # U_21
  2  2     5.97818187E-02   # U_22
#
BLOCK VMIX  # Chargino Mixing Matrix V
  1  1    -1.73829327E-01   # V_11
  1  2    -9.84775794E-01   # V_12
  2  1     9.84775794E-01   # V_21
  2  2    -1.73829327E-01   # V_22
#
BLOCK STOPMIX  # Stop Mixing Matrix
  1  1    -1.09310209E-01   # cos(theta_t)
  1  2     9.94007685E-01   # sin(theta_t)
  2  1    -9.94007685E-01   # -sin(theta_t)
  2  2    -1.09310209E-01   # cos(theta_t)
#
BLOCK SBOTMIX  # Sbottom Mixing Matrix
  1  1    -2.44736190E-03   # cos(theta_b)
  1  2     9.99997005E-01   # sin(theta_b)
  2  1    -9.99997005E-01   # -sin(theta_b)
  2  2    -2.44736190E-03   # cos(theta_b)
#
BLOCK STAUMIX  # Stau Mixing Matrix
  1  1     9.99997760E-01   # cos(theta_tau)
  1  2    -2.11659986E-03   # sin(theta_tau)
  2  1     2.11659986E-03   # -sin(theta_tau)
  2  2     9.99997760E-01   # cos(theta_tau)
#
BLOCK ALPHA  # Higgs mixing
          -2.86195033E-02   # Mixing angle in the neutral Higgs boson sector
#
BLOCK HMIX Q=  2.87942300E+03  # DRbar Higgs Parameters
         1    -2.28189391E+02   # mu(Q)MSSM           
         2     3.53050849E+01   # tan                 
         3     2.41333826E+02   # higgs               
         4     2.43403250E+06   # mA^2(Q)MSSM         
#
BLOCK GAUGE Q=  2.87942300E+03  # The gauge couplings
     1     3.65173452E-01   # gprime(Q) DRbar
     2     6.40446878E-01   # g(Q) DRbar
     3     1.01372347E+00   # g3(Q) DRbar
#
BLOCK AU Q=  2.87942300E+03  # The trilinear couplings
  1  1     0.00000000E+00   # A_u(Q) DRbar
  2  2     0.00000000E+00   # A_c(Q) DRbar
  3  3     3.38899001E+03   # A_t(Q) DRbar
#
BLOCK AD Q=  2.87942300E+03  # The trilinear couplings
  1  1     0.00000000E+00   # A_d(Q) DRbar
  2  2     0.00000000E+00   # A_s(Q) DRbar
  3  3     2.53523001E+03   # A_b(Q) DRbar
#
BLOCK AE Q=  2.87942300E+03  # The trilinear couplings
  1  1     0.00000000E+00   # A_e(Q) DRbar
  2  2     0.00000000E+00   # A_mu(Q) DRbar
  3  3     2.68725000E+03   # A_tau(Q) DRbar
#
BLOCK Yu Q=  2.87942300E+03  # The Yukawa couplings
  1  1     0.00000000E+00   # y_u(Q) DRbar
  2  2     0.00000000E+00   # y_c(Q) DRbar
  3  3     8.38809021E-01   # y_t(Q) DRbar
#
BLOCK Yd Q=  2.87942300E+03  # The Yukawa couplings
  1  1     0.00000000E+00   # y_d(Q) DRbar
  2  2     0.00000000E+00   # y_s(Q) DRbar
  3  3     5.06193802E-01   # y_b(Q) DRbar
#
BLOCK Ye Q=  2.87942300E+03  # The Yukawa couplings
  1  1     0.00000000E+00   # y_e(Q) DRbar
  2  2     0.00000000E+00   # y_mu(Q) DRbar
  3  3     3.70981431E-01   # y_tau(Q) DRbar
#
BLOCK MSOFT Q=  2.87942300E+03  # The soft SUSY breaking masses at the scale Q
         1     4.58000000E+01   # M_1(Q)              
         2    -6.80000000E+02   # M_2(Q)              
         3     2.62883000E+03   # M_3(Q)              
        21     2.36512101E+06   # mH1^2(Q)            
        22     1.27791734E+05   # mH2^2(Q)            
        31     1.96447000E+03   # meL(Q)              
        32     1.96447000E+03   # mmuL(Q)             
        33     1.01855000E+03   # mtauL(Q)            
        34     3.00816000E+03   # meR(Q)              
        35     3.00816000E+03   # mmuR(Q)             
        36     3.20775000E+03   # mtauR(Q)            
        41     3.97239000E+03   # mqL1(Q)             
        42     3.97239000E+03   # mqL2(Q)             
        43     3.24367999E+03   # mqL3(Q)             
        44     2.52841999E+03   # muR(Q)              
        45     2.52841999E+03   # mcR(Q)              
        46     2.55453999E+03   # mtR(Q)              
        47     1.00469998E+03   # mdR(Q)              
        48     1.00469998E+03   # msR(Q)              
        49     2.89329935E+02   # mbR(Q)              
#
Block HiggsBoundsInputHiggsCouplingsFermions
# ScalarNormEffCoupSq PseudoSNormEffCoupSq NP   IP1 IP2 IP2
    1.02147658E+00    0.00000000E+00        3  25   5   5  # h0-b-b eff. coupling^2, normalised to SM
    1.24642754E+03    0.00000000E+00        3  35   5   5  # H0-b-b eff. coupling^2, normalised to SM
    0.00000000E+00    1.24644902E+03        3  36   5   5  # A0-b-b eff. coupling^2, normalised to SM
#
    9.99982770E-01    0.00000000E+00        3  25   6   6  # h0-t-t eff. coupling^2, normalised to SM
    8.19509313E-04    0.00000000E+00        3  35   6   6  # H0-t-t eff. coupling^2, normalised to SM
    0.00000000E+00    8.02279102E-04        3  36   6   6  # A0-t-t eff. coupling^2, normalised to SM
#
    1.02147658E+00    0.00000000E+00        3  25  15  15  # h0-tau-tau eff. coupling^2, normalised to SM
    1.24642754E+03    0.00000000E+00        3  35  15  15  # H0-tau-tau eff. coupling^2, normalised to SM
    0.00000000E+00    1.24644902E+03        3  36  15  15  # A0-tau-tau eff. coupling^2, normalised to SM
#
Block HiggsBoundsInputHiggsCouplingsBosons
    9.99999908E-01        3  25  24  24  # h0-W-W eff. coupling^2, normalised to SM
    9.15320106E-08        3  35  24  24  # H0-W-W eff. coupling^2, normalised to SM
    0.00000000E+00        3  36  24  24  # A0-W-W eff. coupling^2, normalised to SM
#
    9.99999908E-01        3  25  23  23  # h0-Z-Z eff. coupling^2, normalised to SM
    9.15320106E-08        3  35  23  23  # H0-Z-Z eff. coupling^2, normalised to SM
    0.00000000E+00        3  36  23  23  # A0-Z-Z eff. coupling^2, normalised to SM
#
    8.89092734E-01        3  25  21  21  # h0-g-g eff. coupling^2, normalised to SM
    5.26735732E-09        3  35  21  21  # H0-g-g eff. coupling^2, normalised to SM
    1.81844895E-08        3  36  21  21  # A0-g-g eff. coupling^2, normalised to SM
#
    0.00000000E+00        3  25  25  23  # h0-h0-Z eff. coupling^2, normalised to SM
    0.00000000E+00        3  35  25  23  # H0-h0-Z eff. coupling^2, normalised to SM
    9.15320106E-08        3  36  25  23  # A0-h0-Z eff. coupling^2, normalised to SM
    0.00000000E+00        3  35  35  23  # H0-H0-Z eff. coupling^2, normalised to SM
    9.99999908E-01        3  36  35  23  # A0-H0-Z eff. coupling^2, normalised to SM
    0.00000000E+00        3  36  36  23  # A0-A0-Z eff. coupling^2, normalised to SM
#
    0.00000000E+00        4  25  21  21  23  # h0-g-g-Z eff. coupling^2, normalised to SM
    0.00000000E+00        4  35  21  21  23  # H0-g-g-Z eff. coupling^2, normalised to SM
    0.00000000E+00        4  36  21  21  23  # A0-g-g-Z eff. coupling^2, normalised to SM
#
#
#
#                             =================
#                             |The decay table|
#                             =================
#
# - The QCD corrections to the decays gluino -> squark  + quark
#                                     squark -> gaugino + quark_prime
#                                     squark -> squark_prime + Higgs
#                                     squark -> gluino  + quark
#   are included.
#
# - The multi-body decays for the inos, stops and sbottoms are included.
#
# - The loop induced decays for the gluino, neutralinos and stops
#   are included.
#
# - The SUSY decays of the top quark are included.
#
#
#         PDG            Width
DECAY         6     1.44451413E+00   # top decays
#          BR         NDA      ID1       ID2
     1.00000000E+00    2           5        24   # BR(t ->  b    W+)
#
#         PDG            Width
DECAY   1000021     1.29046740E+02   # gluino decays
#          BR         NDA      ID1       ID2
     1.47169956E-01    2     2000001        -1   # BR(~g -> ~d_R  db)
     1.47169956E-01    2    -2000001         1   # BR(~g -> ~d_R* d )
     3.20195555E-03    2     2000002        -2   # BR(~g -> ~u_R  ub)
     3.20195555E-03    2    -2000002         2   # BR(~g -> ~u_R* u )
     1.47169956E-01    2     2000003        -3   # BR(~g -> ~s_R  sb)
     1.47169956E-01    2    -2000003         3   # BR(~g -> ~s_R* s )
     3.20182852E-03    2     2000004        -4   # BR(~g -> ~c_R  cb)
     3.20182852E-03    2    -2000004         4   # BR(~g -> ~c_R* c )
     1.95731607E-01    2     1000005        -5   # BR(~g -> ~b_1  bb)
     1.95731607E-01    2    -1000005         5   # BR(~g -> ~b_1* b )
     3.52469665E-03    2     1000006        -6   # BR(~g -> ~t_1  tb)
     3.52469665E-03    2    -1000006         6   # BR(~g -> ~t_1* t )
#
#         PDG            Width
DECAY   1000006     7.70355619E+01   # stop1 decays
#          BR         NDA      ID1       ID2
     7.41514020E-02    2     1000022         6   # BR(~t_1 -> ~chi_10 t )
     2.23017594E-01    2     1000023         6   # BR(~t_1 -> ~chi_20 t )
     2.39074207E-01    2     1000025         6   # BR(~t_1 -> ~chi_30 t )
     1.61124166E-03    2     1000035         6   # BR(~t_1 -> ~chi_40 t )
     4.58604659E-01    2     1000024         5   # BR(~t_1 -> ~chi_1+ b )
     3.28300754E-03    2     1000037         5   # BR(~t_1 -> ~chi_2+ b )
     2.49206133E-04    2     1000005        37   # BR(~t_1 -> ~b_1    H+)
     8.68273965E-06    2     1000005        24   # BR(~t_1 -> ~b_1    W+)
#
#         PDG            Width
DECAY   2000006     1.35574212E+02   # stop2 decays
#          BR         NDA      ID1       ID2
     5.14330150E-03    2     1000022         6   # BR(~t_2 -> ~chi_10 t )
     1.61125317E-01    2     1000023         6   # BR(~t_2 -> ~chi_20 t )
     1.64023996E-01    2     1000025         6   # BR(~t_2 -> ~chi_30 t )
     9.62440020E-02    2     1000035         6   # BR(~t_2 -> ~chi_40 t )
     1.20764909E-01    2     1000024         5   # BR(~t_2 -> ~chi_1+ b )
     1.80976338E-01    2     1000037         5   # BR(~t_2 -> ~chi_2+ b )
     9.77937999E-02    2     1000021         6   # BR(~t_2 -> ~g      t )
     6.46601337E-02    2     1000006        25   # BR(~t_2 -> ~t_1    h )
     5.39888398E-02    2     1000005        37   # BR(~t_2 -> ~b_1    H+)
     5.43885789E-02    2     1000006        23   # BR(~t_2 -> ~t_1    Z )
     8.90783056E-04    2     1000005        24   # BR(~t_2 -> ~b_1    W+)
#
#         PDG            Width
DECAY   1000005     3.98130126E+00   # sbottom1 decays
#          BR         NDA      ID1       ID2
     1.08365411E-01    2     1000022         5   # BR(~b_1 -> ~chi_10 b )
     2.59405597E-01    2     1000023         5   # BR(~b_1 -> ~chi_20 b )
     2.37641189E-01    2     1000025         5   # BR(~b_1 -> ~chi_30 b )
     3.94587803E-01    2    -1000024         6   # BR(~b_1 -> ~chi_1- t )
#
#         PDG            Width
DECAY   2000005     1.32930435E+02   # sbottom2 decays
#          BR         NDA      ID1       ID2
     7.89398487E-03    2     1000022         5   # BR(~b_2 -> ~chi_10 b )
     6.22511224E-02    2     1000023         5   # BR(~b_2 -> ~chi_20 b )
     5.91498927E-02    2     1000025         5   # BR(~b_2 -> ~chi_30 b )
     9.00059414E-02    2     1000035         5   # BR(~b_2 -> ~chi_40 b )
     3.30165789E-01    2    -1000024         6   # BR(~b_2 -> ~chi_1- t )
     1.91803371E-01    2    -1000037         6   # BR(~b_2 -> ~chi_2- t )
     9.71624735E-02    2     1000021         5   # BR(~b_2 -> ~g      b )
     5.10720433E-04    2     1000005        25   # BR(~b_2 -> ~b_1    h )
     2.75637442E-02    2     1000005        35   # BR(~b_2 -> ~b_1    H )
     2.75663296E-02    2     1000005        36   # BR(~b_2 -> ~b_1    A )
     4.68700999E-04    2     1000005        23   # BR(~b_2 -> ~b_1    Z )
     1.05457929E-01    2     1000006       -24   # BR(~b_2 -> ~t_1    W-)
#
#         PDG            Width
DECAY   1000002     1.27804669E+02   # sup_L decays
#          BR         NDA      ID1       ID2
     4.41169636E-03    2     1000022         2   # BR(~u_L -> ~chi_10 u)
     2.33664132E-03    2     1000023         2   # BR(~u_L -> ~chi_20 u)
     9.56233522E-05    2     1000025         2   # BR(~u_L -> ~chi_30 u)
     1.13516282E-01    2     1000035         2   # BR(~u_L -> ~chi_40 u)
     7.40359381E-03    2     1000024         1   # BR(~u_L -> ~chi_1+ d)
     2.24556227E-01    2     1000037         1   # BR(~u_L -> ~chi_2+ d)
     6.47679936E-01    2     1000021         2   # BR(~u_L -> ~g      u)
#
#         PDG            Width
DECAY   2000002     6.01071337E+00   # sup_R decays
#          BR         NDA      ID1       ID2
     9.63315013E-01    2     1000022         2   # BR(~u_R -> ~chi_10 u)
     1.28626814E-02    2     1000023         2   # BR(~u_R -> ~chi_20 u)
     2.37783564E-02    2     1000025         2   # BR(~u_R -> ~chi_30 u)
     4.39492710E-05    2     1000035         2   # BR(~u_R -> ~chi_40 u)
#
#         PDG            Width
DECAY   1000001     1.27824044E+02   # sdown_L decays
#          BR         NDA      ID1       ID2
     4.15598671E-03    2     1000022         1   # BR(~d_L -> ~chi_10 d)
     1.09905682E-03    2     1000023         1   # BR(~d_L -> ~chi_20 d)
     9.26399428E-04    2     1000025         1   # BR(~d_L -> ~chi_30 d)
     1.14144412E-01    2     1000035         1   # BR(~d_L -> ~chi_40 d)
     8.75670164E-04    2    -1000024         2   # BR(~d_L -> ~chi_1- u)
     2.30732763E-01    2    -1000037         2   # BR(~d_L -> ~chi_2- u)
     6.48065712E-01    2     1000021         1   # BR(~d_L -> ~g      d)
#
#         PDG            Width
DECAY   2000001     7.02492180E-01   # sdown_R decays
#          BR         NDA      ID1       ID2
     9.65548667E-01    2     1000022         1   # BR(~d_R -> ~chi_10 d)
     1.21370320E-02    2     1000023         1   # BR(~d_R -> ~chi_20 d)
     2.22944416E-02    2     1000025         1   # BR(~d_R -> ~chi_30 d)
     1.98590900E-05    2     1000035         1   # BR(~d_R -> ~chi_40 d)
#
#         PDG            Width
DECAY   1000004     1.06027641E+02   # scharm_L decays
#          BR         NDA      ID1       ID2
     5.56626314E-03    2     1000022         4   # BR(~c_L -> ~chi_10 c)
     2.94497361E-03    2     1000023         4   # BR(~c_L -> ~chi_20 c)
     1.20511045E-04    2     1000025         4   # BR(~c_L -> ~chi_30 c)
     1.42722632E-01    2     1000035         4   # BR(~c_L -> ~chi_40 c)
     9.33109102E-03    2     1000024         3   # BR(~c_L -> ~chi_1+ s)
     2.82331635E-01    2     1000037         3   # BR(~c_L -> ~chi_2+ s)
     5.56982894E-01    2     1000021         4   # BR(~c_L -> ~g      c)
#
#         PDG            Width
DECAY   2000004     6.18998911E+00   # scharm_R decays
#          BR         NDA      ID1       ID2
     9.63365071E-01    2     1000022         4   # BR(~c_R -> ~chi_10 c)
     1.28457909E-02    2     1000023         4   # BR(~c_R -> ~chi_20 c)
     2.37453712E-02    2     1000025         4   # BR(~c_R -> ~chi_30 c)
     4.37673018E-05    2     1000035         4   # BR(~c_R -> ~chi_40 c)
#
#         PDG            Width
DECAY   1000003     1.06024961E+02   # sstrange_L decays
#          BR         NDA      ID1       ID2
     5.24453556E-03    2     1000022         3   # BR(~s_L -> ~chi_10 s)
     1.38542937E-03    2     1000023         3   # BR(~s_L -> ~chi_20 s)
     1.16771285E-03    2     1000025         3   # BR(~s_L -> ~chi_30 s)
     1.43537215E-01    2     1000035         3   # BR(~s_L -> ~chi_40 s)
     1.10383735E-03    2    -1000024         4   # BR(~s_L -> ~chi_1- c)
     2.90147394E-01    2    -1000037         4   # BR(~s_L -> ~chi_2- c)
     5.57413876E-01    2     1000021         3   # BR(~s_L -> ~g      s)
#
#         PDG            Width
DECAY   2000003     6.87595645E-01   # sstrange_R decays
#          BR         NDA      ID1       ID2
     9.65606026E-01    2     1000022         3   # BR(~s_R -> ~chi_10 s)
     1.21174637E-02    2     1000023         3   # BR(~s_R -> ~chi_20 s)
     2.22567977E-02    2     1000025         3   # BR(~s_R -> ~chi_30 s)
     1.97124318E-05    2     1000035         3   # BR(~s_R -> ~chi_40 s)
#
#         PDG            Width
DECAY   1000011     2.06690161E+01   # selectron_L decays
#          BR         NDA      ID1       ID2
     1.22701886E-01    2     1000022        11   # BR(~e_L -> ~chi_10 e-)
     1.24513293E-02    2     1000023        11   # BR(~e_L -> ~chi_20 e-)
     3.64395124E-04    2     1000025        11   # BR(~e_L -> ~chi_30 e-)
     2.83157396E-01    2     1000035        11   # BR(~e_L -> ~chi_40 e-)
     2.70185478E-03    2    -1000024        12   # BR(~e_L -> ~chi_1- nu_e)
     5.78623139E-01    2    -1000037        12   # BR(~e_L -> ~chi_2- nu_e)
#
#         PDG            Width
DECAY   2000011     1.59763704E+01   # selectron_R decays
#          BR         NDA      ID1       ID2
     9.63229387E-01    2     1000022        11   # BR(~e_R -> ~chi_10 e-)
     1.28897485E-02    2     1000023        11   # BR(~e_R -> ~chi_20 e-)
     2.38353686E-02    2     1000025        11   # BR(~e_R -> ~chi_30 e-)
     4.54963101E-05    2     1000035        11   # BR(~e_R -> ~chi_40 e-)
#
#         PDG            Width
DECAY   1000013     2.06690160E+01   # smuon_L decays
#          BR         NDA      ID1       ID2
     1.22701886E-01    2     1000022        13   # BR(~mu_L -> ~chi_10 mu-)
     1.24513293E-02    2     1000023        13   # BR(~mu_L -> ~chi_20 mu-)
     3.64395123E-04    2     1000025        13   # BR(~mu_L -> ~chi_30 mu-)
     2.83157394E-01    2     1000035        13   # BR(~mu_L -> ~chi_40 mu-)
     2.70185479E-03    2    -1000024        14   # BR(~mu_L -> ~chi_1- nu_mu)
     5.78623140E-01    2    -1000037        14   # BR(~mu_L -> ~chi_2- nu_mu)
#
#         PDG            Width
DECAY   2000013     1.59763703E+01   # smuon_R decays
#          BR         NDA      ID1       ID2
     9.63229387E-01    2     1000022        13   # BR(~mu_R -> ~chi_10 mu-)
     1.28897485E-02    2     1000023        13   # BR(~mu_R -> ~chi_20 mu-)
     2.38353686E-02    2     1000025        13   # BR(~mu_R -> ~chi_30 mu-)
     4.54963101E-05    2     1000035        13   # BR(~mu_R -> ~chi_40 mu-)
#
#         PDG            Width
DECAY   1000015     6.90315140E+00   # stau_1 decays
#          BR         NDA      ID1       ID2
     2.03598703E-01    2     1000022        15   # BR(~tau_1 -> ~chi_10  tau-)
     1.96275060E-01    2     1000023        15   # BR(~tau_1 -> ~chi_20  tau-)
     1.68403820E-01    2     1000025        15   # BR(~tau_1 -> ~chi_30  tau-)
     1.40769413E-01    2     1000035        15   # BR(~tau_1 -> ~chi_40  tau-)
     4.01759710E-03    2    -1000024        16   # BR(~tau_1 -> ~chi_1-  nu_tau)
     2.86935408E-01    2    -1000037        16   # BR(~tau_1 -> ~chi_2-  nu_tau)
#
#         PDG            Width
DECAY   2000015     4.18831446E+01   # stau_2 decays
#          BR         NDA      ID1       ID2
     3.97684139E-01    2     1000022        15   # BR(~tau_2 -> ~chi_10  tau-)
     1.07268155E-01    2     1000023        15   # BR(~tau_2 -> ~chi_20  tau-)
     1.06794408E-01    2     1000025        15   # BR(~tau_2 -> ~chi_30  tau-)
     3.96323366E-04    2     1000035        15   # BR(~tau_2 -> ~chi_40  tau-)
     2.06243055E-01    2    -1000024        16   # BR(~tau_2 -> ~chi_1-  nu_tau)
     7.57696503E-04    2    -1000037        16   # BR(~tau_2 -> ~chi_2-  nu_tau)
     8.87998709E-02    2     1000016       -37   # BR(~tau_2 -> ~nu_tauL H-)
     1.61065686E-03    2     1000016       -24   # BR(~tau_2 -> ~nu_tauL W-)
     8.52717304E-04    2     1000015        25   # BR(~tau_2 -> ~tau_1   h)
     4.43809117E-02    2     1000015        35   # BR(~tau_2 -> ~tau_1   H)
     4.43851217E-02    2     1000015        36   # BR(~tau_2 -> ~tau_1   A)
     8.26944229E-04    2     1000015        23   # BR(~tau_2 -> ~tau_1   Z)
#
#         PDG            Width
DECAY   1000012     2.07035432E+01   # snu_eL decays
#          BR         NDA      ID1       ID2
     1.19965793E-01    2     1000022        12   # BR(~nu_eL -> ~chi_10 nu_e)
     9.93088180E-04    2     1000023        12   # BR(~nu_eL -> ~chi_20 nu_e)
     8.01596384E-03    2     1000025        12   # BR(~nu_eL -> ~chi_30 nu_e)
     2.86921181E-01    2     1000035        12   # BR(~nu_eL -> ~chi_40 nu_e)
     2.27823459E-02    2     1000024        11   # BR(~nu_eL -> ~chi_1+ e-)
     5.61321628E-01    2     1000037        11   # BR(~nu_eL -> ~chi_2+ e-)
#
#         PDG            Width
DECAY   1000014     2.07035431E+01   # snu_muL decays
#          BR         NDA      ID1       ID2
     1.19965794E-01    2     1000022        14   # BR(~nu_muL -> ~chi_10 nu_mu)
     9.93088184E-04    2     1000023        14   # BR(~nu_muL -> ~chi_20 nu_mu)
     8.01596388E-03    2     1000025        14   # BR(~nu_muL -> ~chi_30 nu_mu)
     2.86921183E-01    2     1000035        14   # BR(~nu_muL -> ~chi_40 nu_mu)
     2.27823458E-02    2     1000024        13   # BR(~nu_muL -> ~chi_1+ mu-)
     5.61321626E-01    2     1000037        13   # BR(~nu_muL -> ~chi_2+ mu-)
#
#         PDG            Width
DECAY   1000016     6.93370988E+00   # snu_tauL decays
#          BR         NDA      ID1       ID2
     1.83705772E-01    2     1000022        16   # BR(~nu_tauL -> ~chi_10 nu_tau)
     1.40972910E-03    2     1000023        16   # BR(~nu_tauL -> ~chi_20 nu_tau)
     1.12878366E-02    2     1000025        16   # BR(~nu_tauL -> ~chi_30 nu_tau)
     1.39834039E-01    2     1000035        16   # BR(~nu_tauL -> ~chi_40 nu_tau)
     3.90033262E-01    2     1000024        15   # BR(~nu_tauL -> ~chi_1+ tau-)
     2.73729362E-01    2     1000037        15   # BR(~nu_tauL -> ~chi_2+ tau-)
#
#         PDG            Width
DECAY   1000024     1.15080963E-01   # chargino1+ decays
#          BR         NDA      ID1       ID2
     1.00000000E+00    2     1000022        24   # BR(~chi_1+ -> ~chi_10  W+)
#
#         PDG            Width
DECAY   1000037     5.63611962E+00   # chargino2+ decays
#          BR         NDA      ID1       ID2
     2.56099133E-01    2     1000024        23   # BR(~chi_2+ -> ~chi_1+  Z )
     4.97837977E-03    2     1000022        24   # BR(~chi_2+ -> ~chi_10  W+)
     2.54180012E-01    2     1000023        24   # BR(~chi_2+ -> ~chi_20  W+)
     2.46414083E-01    2     1000025        24   # BR(~chi_2+ -> ~chi_30  W+)
     2.38328392E-01    2     1000024        25   # BR(~chi_2+ -> ~chi_1+  h )
#
#         PDG            Width
DECAY   1000022     0.00000000E+00   # neutralino1 decays
#
#         PDG            Width
DECAY   1000023     8.04704222E-02   # neutralino2 decays
#          BR         NDA      ID1       ID2
     8.02498320E-01    2     1000022        23   # BR(~chi_20 -> ~chi_10   Z )
     1.97501680E-01    2     1000022        25   # BR(~chi_20 -> ~chi_10   h )
#
#         PDG            Width
DECAY   1000025     1.04831242E-01   # neutralino3 decays
#          BR         NDA      ID1       ID2
     4.97025277E-01    2     1000022        23   # BR(~chi_30 -> ~chi_10   Z )
     5.02974723E-01    2     1000022        25   # BR(~chi_30 -> ~chi_10   h )
#
#         PDG            Width
DECAY   1000035     5.63457419E+00   # neutralino4 decays
#          BR         NDA      ID1       ID2
     3.00459408E-03    2     1000022        23   # BR(~chi_40 -> ~chi_10   Z )
     5.05745810E-02    2     1000023        23   # BR(~chi_40 -> ~chi_20   Z )
     1.98828758E-01    2     1000025        23   # BR(~chi_40 -> ~chi_30   Z )
     2.56666487E-01    2     1000024       -24   # BR(~chi_40 -> ~chi_1+   W-)
     2.56666487E-01    2    -1000024        24   # BR(~chi_40 -> ~chi_1-   W+)
     1.90823035E-03    2     1000022        25   # BR(~chi_40 -> ~chi_10   h )
     1.90584088E-01    2     1000023        25   # BR(~chi_40 -> ~chi_20   h )
     4.13506467E-02    2     1000025        25   # BR(~chi_40 -> ~chi_30   h )
     2.08063548E-04    2     1000005        -5   # BR(~chi_40 -> ~b_1      bb)
     2.08063548E-04    2    -1000005         5   # BR(~chi_40 -> ~b_1*     b )
#
#         PDG            Width
DECAY        25     4.31623360E-03   # h decays
#          BR         NDA      ID1       ID2
     5.46937751E-01    2           5        -5   # BR(h -> b       bb     )
     6.21891765E-02    2         -15        15   # BR(h -> tau+    tau-   )
     2.20162690E-04    2         -13        13   # BR(h -> mu+     mu-    )
     2.39702211E-04    2           3        -3   # BR(h -> s       sb     )
     2.03503162E-02    2           4        -4   # BR(h -> c       cb     )
     7.74896225E-02    2          21        21   # BR(h -> g       g      )
     2.33641041E-03    2          22        22   # BR(h -> gam     gam    )
     1.72243826E-03    2          22        23   # BR(h -> Z       gam    )
     2.41242104E-01    2          24       -24   # BR(h -> W+      W-     )
     3.10324814E-02    2          23        23   # BR(h -> Z       Z      )
     1.62398352E-02    2     1000022   1000022   # BR(h -> ~chi_10 ~chi_10)
#
#         PDG            Width
DECAY        35     4.13463573E+01   # H decays
#          BR         NDA      ID1       ID2
     6.02345277E-01    2           5        -5   # BR(H -> b       bb     )
     9.12456853E-02    2         -15        15   # BR(H -> tau+    tau-   )
     3.28858694E-04    2         -13        13   # BR(H -> mu+     mu-    )
     2.43333169E-04    2           3        -3   # BR(H -> s       sb     )
     1.35456604E-08    2           4        -4   # BR(H -> c       cb     )
     1.28334845E-03    2           6        -6   # BR(H -> t       tb     )
     2.76083257E-05    2          21        21   # BR(H -> g       g      )
     7.57439898E-08    2          22        22   # BR(H -> gam     gam    )
     1.22828041E-08    2          23        22   # BR(H -> Z       gam    )
     2.43986348E-06    2          24       -24   # BR(H -> W+      W-     )
     1.21264811E-06    2          23        23   # BR(H -> Z       Z      )
     8.09213002E-06    2          25        25   # BR(H -> h       h      )
     7.93277275E-03    2     1000024  -1000024   # BR(H -> ~chi_1+ ~chi_1-)
     2.22684046E-05    2     1000037  -1000037   # BR(H -> ~chi_2+ ~chi_2-)
     8.38207232E-02    2     1000024  -1000037   # BR(H -> ~chi_1+ ~chi_2-)
     8.38207232E-02    2     1000037  -1000024   # BR(H -> ~chi_2+ ~chi_1-)
     3.08611963E-03    2     1000022   1000022   # BR(H -> ~chi_10 ~chi_10)
     3.82340550E-04    2     1000023   1000023   # BR(H -> ~chi_20 ~chi_20)
     2.60158638E-03    2     1000025   1000025   # BR(H -> ~chi_30 ~chi_30)
     1.14688799E-05    2     1000035   1000035   # BR(H -> ~chi_40 ~chi_40)
     2.01144615E-02    2     1000022   1000023   # BR(H -> ~chi_10 ~chi_20)
     1.70168711E-02    2     1000022   1000025   # BR(H -> ~chi_10 ~chi_30)
     2.76339478E-03    2     1000022   1000035   # BR(H -> ~chi_10 ~chi_40)
     4.78438513E-04    2     1000023   1000025   # BR(H -> ~chi_20 ~chi_30)
     3.15012387E-02    2     1000023   1000035   # BR(H -> ~chi_20 ~chi_40)
     5.09560393E-02    2     1000025   1000035   # BR(H -> ~chi_30 ~chi_40)
     5.59559275E-06    2     1000005  -1000005   # BR(H -> ~b_1    ~b_1*  )
#
#         PDG            Width
DECAY        36     4.13323289E+01   # A decays
#          BR         NDA      ID1       ID2
     6.02574183E-01    2           5        -5   # BR(A -> b       bb     )
     9.12780819E-02    2         -15        15   # BR(A -> tau+    tau-   )
     3.28973595E-04    2         -13        13   # BR(A -> mu+     mu-    )
     2.43432170E-04    2           3        -3   # BR(A -> s       sb     )
     1.33869957E-08    2           4        -4   # BR(A -> c       cb     )
     1.30563707E-03    2           6        -6   # BR(A -> t       tb     )
     5.13113809E-05    2          21        21   # BR(A -> g       g      )
     2.03732529E-07    2          22        22   # BR(A -> gam     gam    )
     2.67803975E-08    2          23        22   # BR(A -> Z       gam    )
     2.44521195E-06    2          23        25   # BR(A -> Z       h      )
     9.08412342E-03    2     1000024  -1000024   # BR(A -> ~chi_1+ ~chi_1-)
     3.67946517E-04    2     1000037  -1000037   # BR(A -> ~chi_2+ ~chi_2-)
     8.29630791E-02    2     1000024  -1000037   # BR(A -> ~chi_1+ ~chi_2-)
     8.29630791E-02    2     1000037  -1000024   # BR(A -> ~chi_2+ ~chi_1-)
     3.04118227E-03    2     1000022   1000022   # BR(A -> ~chi_10 ~chi_10)
     4.71453610E-04    2     1000023   1000023   # BR(A -> ~chi_20 ~chi_20)
     2.57320513E-03    2     1000025   1000025   # BR(A -> ~chi_30 ~chi_30)
     1.87477837E-04    2     1000035   1000035   # BR(A -> ~chi_40 ~chi_40)
     2.20322674E-02    2     1000022   1000023   # BR(A -> ~chi_10 ~chi_20)
     1.52946202E-02    2     1000022   1000025   # BR(A -> ~chi_10 ~chi_30)
     2.41088458E-03    2     1000022   1000035   # BR(A -> ~chi_10 ~chi_40)
     5.58710160E-04    2     1000023   1000025   # BR(A -> ~chi_20 ~chi_30)
     5.22000330E-02    2     1000023   1000035   # BR(A -> ~chi_20 ~chi_40)
     3.00676295E-02    2     1000025   1000035   # BR(A -> ~chi_30 ~chi_40)
#
#         PDG            Width
DECAY        37     4.19606692E+01   # H+ decays
#          BR         NDA      ID1       ID2
     1.02982363E-03    2           4        -5   # BR(H+ -> c       bb     )
     9.00544699E-02    2         -15        16   # BR(H+ -> tau+    nu_tau )
     3.24563596E-04    2         -13        14   # BR(H+ -> mu+     nu_mu  )
     1.02981916E-05    2           2        -5   # BR(H+ -> u       bb     )
     1.19816920E-05    2           2        -3   # BR(H+ -> u       sb     )
     2.35848546E-04    2           4        -3   # BR(H+ -> c       sb     )
     6.09372108E-01    2           6        -5   # BR(H+ -> t       bb     )
     2.42637235E-06    2          24        25   # BR(H+ -> W+      h      )
     2.56116160E-12    2          24        36   # BR(H+ -> W+      A      )
     4.31084446E-02    2     1000024   1000022   # BR(H+ -> ~chi_1+ ~chi_10)
     1.93525701E-03    2     1000024   1000023   # BR(H+ -> ~chi_1+ ~chi_20)
     1.51294626E-04    2     1000024   1000025   # BR(H+ -> ~chi_1+ ~chi_30)
     8.35937219E-02    2     1000024   1000035   # BR(H+ -> ~chi_1+ ~chi_40)
     5.12956542E-03    2     1000037   1000022   # BR(H+ -> ~chi_2+ ~chi_10)
     8.56184817E-02    2     1000037   1000023   # BR(H+ -> ~chi_2+ ~chi_20)
     7.94217087E-02    2     1000037   1000025   # BR(H+ -> ~chi_2+ ~chi_30)
     6.42389659E-09    2     1000037   1000035   # BR(H+ -> ~chi_2+ ~chi_40)
