#
#                              ======================
#                              | THE SUSYHIT OUTPUT |
#                              ======================
#
#
#              ------------------------------------------------------
#              |     This is the output of the SUSY-HIT package     |
#              |  created by A.Djouadi, M.Muehlleitner and M.Spira. |
#              |  In case of problems with SUSY-HIT email to        |
#              |           margarete.muehlleitner@cern.ch           |
#              |           michael.spira@psi.ch                     |
#              |           abdelhak.djouadi@cern.ch                 |
#              ------------------------------------------------------
#
#              ------------------------------------------------------
#              |  SUSY Les Houches Accord - MSSM Spectrum + Decays  |
#              |              based on the decay programs           |
#              |                                                    |
#              |                     SDECAY 1.3b                    |
#              |                                                    |
#              |  Authors: M.Muhlleitner, A.Djouadi and Y.Mambrini  |
#              |  Ref.:    Comput.Phys.Commun.168(2005)46           |
#              |           [hep-ph/0311167]                         |
#              |                                                    |
#              |                     HDECAY 3.4                     |
#              |                                                    |
#              |  By: A.Djouadi,J.Kalinowski,M.Muhlleitner,M.Spira  |
#              |  Ref.:    Comput.Phys.Commun.108(1998)56           |
#              |           [hep-ph/9704448]                         |
#              |                                                    |
#              |                                                    |
#              |  If not stated otherwise all DRbar couplings and   |
#              |  soft SUSY breaking masses are given at the scale  |
#              |  Q=  0.12623460E+04
#              |                                                    |
#              ------------------------------------------------------
#
#
BLOCK DCINFO  # Decay Program information
     1   SDECAY/HDECAY # decay calculator
     2   1.3b  /3.4    # version number
#
BLOCK SPINFO  # Spectrum calculator information
     1     SOFTSUSY    # spectrum calculator               
     2     3.4.0       # version number                    
#
BLOCK MODSEL  # Model selection
     1     0   #  nonUniversal                                     
#
BLOCK SMINPUTS  # Standard Model inputs
         1     1.27908970E+02   # alpha_em^-1(M_Z)^MSbar
         2     1.16637870E-05   # G_F [GeV^-2]
         3     1.18400000E-01   # alpha_S(M_Z)^MSbar
         4     9.11876000E+01   # M_Z pole mass
         5     4.18000000E+00   # mb(mb)^MSbar
         6     1.73200000E+02   # mt pole mass
         7     1.77700000E+00   # mtau pole mass
#
BLOCK MINPAR  # Input parameters - minimal models
         3     4.41900000E+01   # tanb                
#
BLOCK EXTPAR  # Input parameters - non-minimal models
         0    -1.00000000E+00   # Set                 
         1    -1.26173000E+03   # M_1(MX)             
         2     5.03410000E+02   # M_2(MX)             
         3     1.13992000E+03   # M_3(MX)             
        11     1.94346000E+03   # At(MX)              
        12     6.68180000E+02   # Ab(MX)              
        13    -1.61045000E+03   # Atau(MX)            
        23    -4.60490000E+02   # mu(MX)              
        26     2.26114000E+03   # mA(pole)            
        31     1.06762000E+03   # meL(MX)             
        32     1.06762000E+03   # mmuL(MX)            
        33     3.94361000E+03   # mtauL(MX)           
        34     4.51840000E+02   # meR(MX)             
        35     4.51840000E+02   # mmuR(MX)            
        36     1.13433000E+03   # mtauR(MX)           
        41     3.27226000E+03   # mqL1(MX)            
        42     3.27226000E+03   # mqL2(MX)            
        43     1.61815000E+03   # mqL3(MX)            
        44     3.21029000E+03   # muR(MX)             
        45     3.21029000E+03   # mcR(MX)             
        46     9.86840000E+02   # mtR(MX)             
        47     2.94780000E+03   # mdR(MX)             
        48     2.94780000E+03   # msR(MX)             
        49     3.12159000E+03   # mbR(MX)             
#
BLOCK MASS  # Mass Spectrum
# PDG code           mass       particle
        24     8.04060390E+01   # W+
        25     1.24790570E+02   # h
        35     2.26112715E+03   # H
        36     2.26114004E+03   # A
        37     2.26282666E+03   # H+
         5     4.81876030E+00   # b-quark pole mass calculated from mb(mb)_Msbar
   1000001     3.30257793E+03   # ~d_L
   2000001     2.97080085E+03   # ~d_R
   1000002     3.30174948E+03   # ~u_L
   2000002     3.23694674E+03   # ~u_R
   1000003     3.30257793E+03   # ~s_L
   2000003     2.97080085E+03   # ~s_R
   1000004     3.30174948E+03   # ~c_L
   2000004     3.23694674E+03   # ~c_R
   1000005     1.63621301E+03   # ~b_1
   2000005     3.14315247E+03   # ~b_2
   1000006     1.00735036E+03   # ~t_1
   2000006     1.65508564E+03   # ~t_2
   1000011     1.07567326E+03   # ~e_L
   2000011     4.47152821E+02   # ~e_R
   1000012     1.07242234E+03   # ~nu_eL
   1000013     1.07567326E+03   # ~mu_L
   2000013     4.47152821E+02   # ~mu_R
   1000014     1.07242234E+03   # ~nu_muL
   1000015     1.15995231E+03   # ~tau_1
   2000015     3.95211570E+03   # ~tau_2
   1000016     3.95097583E+03   # ~nu_tauL
   1000021     1.30850133E+03   # ~g
   1000022     4.46665494E+02   # ~chi_10
   1000023    -4.80423117E+02   # ~chi_20
   1000025     5.67729060E+02   # ~chi_30
   1000035    -1.25784053E+03   # ~chi_40
   1000024     4.48622266E+02   # ~chi_1+
   1000037     5.68621068E+02   # ~chi_2+
#
BLOCK NMIX  # Neutralino Mixing Matrix
  1  1     1.48002991E-02   # N_11
  1  2     5.22901282E-01   # N_12
  1  3     6.24573549E-01   # N_13
  1  4     5.79881955E-01   # N_14
  2  1     4.15381292E-02   # N_21
  2  2     5.68075267E-02   # N_22
  2  3    -7.04353433E-01   # N_23
  2  4     7.06352412E-01   # N_24
  3  1    -9.72666164E-03   # N_31
  3  2     8.50496215E-01   # N_32
  3  3    -3.36917555E-01   # N_33
  3  4    -4.03792201E-01   # N_34
  4  1     9.98979943E-01   # N_41
  4  2    -1.82814967E-03   # N_42
  4  3     1.67536551E-02   # N_43
  4  4    -4.18932677E-02   # N_44
#
BLOCK UMIX  # Chargino Mixing Matrix U
  1  1     4.82904375E-01   # U_11
  1  2     8.75673092E-01   # U_12
  2  1    -8.75673092E-01   # U_21
  2  2     4.82904375E-01   # U_22
#
BLOCK VMIX  # Chargino Mixing Matrix V
  1  1     5.78917172E-01   # V_11
  1  2    -8.15386355E-01   # V_12
  2  1    -8.15386355E-01   # V_21
  2  2    -5.78917172E-01   # V_22
#
BLOCK STOPMIX  # Stop Mixing Matrix
  1  1    -1.61189688E-01   # cos(theta_t)
  1  2     9.86923444E-01   # sin(theta_t)
  2  1    -9.86923444E-01   # -sin(theta_t)
  2  2    -1.61189688E-01   # cos(theta_t)
#
BLOCK SBOTMIX  # Sbottom Mixing Matrix
  1  1     9.99971192E-01   # cos(theta_b)
  1  2    -7.59046574E-03   # sin(theta_b)
  2  1     7.59046574E-03   # -sin(theta_b)
  2  2     9.99971192E-01   # cos(theta_b)
#
BLOCK STAUMIX  # Stau Mixing Matrix
  1  1    -2.40988591E-03   # cos(theta_tau)
  1  2     9.99997096E-01   # sin(theta_tau)
  2  1    -9.99997096E-01   # -sin(theta_tau)
  2  2    -2.40988591E-03   # cos(theta_tau)
#
BLOCK ALPHA  # Higgs mixing
          -2.29749764E-02   # Mixing angle in the neutral Higgs boson sector
#
BLOCK HMIX Q=  1.26234600E+03  # DRbar Higgs Parameters
         1    -4.70582992E+02   # mu(Q)MSSM           
         2     4.36502524E+01   # tan                 
         3     2.42884937E+02   # higgs               
         4     5.23741083E+06   # mA^2(Q)MSSM         
#
BLOCK GAUGE Q=  1.26234600E+03  # The gauge couplings
     1     3.62706704E-01   # gprime(Q) DRbar
     2     6.39642905E-01   # g(Q) DRbar
     3     1.04351305E+00   # g3(Q) DRbar
#
BLOCK AU Q=  1.26234600E+03  # The trilinear couplings
  1  1     0.00000000E+00   # A_u(Q) DRbar
  2  2     0.00000000E+00   # A_c(Q) DRbar
  3  3     1.94346000E+03   # A_t(Q) DRbar
#
BLOCK AD Q=  1.26234600E+03  # The trilinear couplings
  1  1     0.00000000E+00   # A_d(Q) DRbar
  2  2     0.00000000E+00   # A_s(Q) DRbar
  3  3     6.68180001E+02   # A_b(Q) DRbar
#
BLOCK AE Q=  1.26234600E+03  # The trilinear couplings
  1  1     0.00000000E+00   # A_e(Q) DRbar
  2  2     0.00000000E+00   # A_mu(Q) DRbar
  3  3    -1.61045000E+03   # A_tau(Q) DRbar
#
BLOCK Yu Q=  1.26234600E+03  # The Yukawa couplings
  1  1     0.00000000E+00   # y_u(Q) DRbar
  2  2     0.00000000E+00   # y_c(Q) DRbar
  3  3     8.69562759E-01   # y_t(Q) DRbar
#
BLOCK Yd Q=  1.26234600E+03  # The Yukawa couplings
  1  1     0.00000000E+00   # y_d(Q) DRbar
  2  2     0.00000000E+00   # y_s(Q) DRbar
  3  3     6.72445103E-01   # y_b(Q) DRbar
#
BLOCK Ye Q=  1.26234600E+03  # The Yukawa couplings
  1  1     0.00000000E+00   # y_e(Q) DRbar
  2  2     0.00000000E+00   # y_mu(Q) DRbar
  3  3     4.46287976E-01   # y_tau(Q) DRbar
#
BLOCK MSOFT Q=  1.26234600E+03  # The soft SUSY breaking masses at the scale Q
         1    -1.26173000E+03   # M_1(Q)              
         2     5.03410000E+02   # M_2(Q)              
         3     1.13992000E+03   # M_3(Q)              
        21     4.83727927E+06   # mH1^2(Q)            
        22    -1.98627629E+05   # mH2^2(Q)            
        31     1.06762000E+03   # meL(Q)              
        32     1.06762000E+03   # mmuL(Q)             
        33     3.94361000E+03   # mtauL(Q)            
        34     4.51840000E+02   # meR(Q)              
        35     4.51840000E+02   # mmuR(Q)             
        36     1.13433000E+03   # mtauR(Q)            
        41     3.27226000E+03   # mqL1(Q)             
        42     3.27226000E+03   # mqL2(Q)             
        43     1.61815000E+03   # mqL3(Q)             
        44     3.21029000E+03   # muR(Q)              
        45     3.21029000E+03   # mcR(Q)              
        46     9.86839998E+02   # mtR(Q)              
        47     2.94780000E+03   # mdR(Q)              
        48     2.94780000E+03   # msR(Q)              
        49     3.12159000E+03   # mbR(Q)              
#
Block HiggsBoundsInputHiggsCouplingsFermions
# ScalarNormEffCoupSq PseudoSNormEffCoupSq NP   IP1 IP2 IP2
    1.00608605E+00    0.00000000E+00        3  25   5   5  # h0-b-b eff. coupling^2, normalised to SM
    1.90533845E+03    0.00000000E+00        3  35   5   5  # H0-b-b eff. coupling^2, normalised to SM
    0.00000000E+00    1.90534453E+03        3  36   5   5  # A0-b-b eff. coupling^2, normalised to SM
#
    9.99996806E-01    0.00000000E+00        3  25   6   6  # h0-t-t eff. coupling^2, normalised to SM
    5.28033660E-04    0.00000000E+00        3  35   6   6  # H0-t-t eff. coupling^2, normalised to SM
    0.00000000E+00    5.24839462E-04        3  36   6   6  # A0-t-t eff. coupling^2, normalised to SM
#
    1.00608605E+00    0.00000000E+00        3  25  15  15  # h0-tau-tau eff. coupling^2, normalised to SM
    1.90533845E+03    0.00000000E+00        3  35  15  15  # H0-tau-tau eff. coupling^2, normalised to SM
    0.00000000E+00    1.90534453E+03        3  36  15  15  # A0-tau-tau eff. coupling^2, normalised to SM
#
Block HiggsBoundsInputHiggsCouplingsBosons
    9.99999995E-01        3  25  24  24  # h0-W-W eff. coupling^2, normalised to SM
    4.84528447E-09        3  35  24  24  # H0-W-W eff. coupling^2, normalised to SM
    0.00000000E+00        3  36  24  24  # A0-W-W eff. coupling^2, normalised to SM
#
    9.99999995E-01        3  25  23  23  # h0-Z-Z eff. coupling^2, normalised to SM
    4.84528447E-09        3  35  23  23  # H0-Z-Z eff. coupling^2, normalised to SM
    0.00000000E+00        3  36  23  23  # A0-Z-Z eff. coupling^2, normalised to SM
#
    8.92371116E-01        3  25  21  21  # h0-g-g eff. coupling^2, normalised to SM
    4.58388223E-11        3  35  21  21  # H0-g-g eff. coupling^2, normalised to SM
    1.14174192E-10        3  36  21  21  # A0-g-g eff. coupling^2, normalised to SM
#
    0.00000000E+00        3  25  25  23  # h0-h0-Z eff. coupling^2, normalised to SM
    0.00000000E+00        3  35  25  23  # H0-h0-Z eff. coupling^2, normalised to SM
    4.84528447E-09        3  36  25  23  # A0-h0-Z eff. coupling^2, normalised to SM
    0.00000000E+00        3  35  35  23  # H0-H0-Z eff. coupling^2, normalised to SM
    9.99999995E-01        3  36  35  23  # A0-H0-Z eff. coupling^2, normalised to SM
    0.00000000E+00        3  36  36  23  # A0-A0-Z eff. coupling^2, normalised to SM
#
    0.00000000E+00        4  25  21  21  23  # h0-g-g-Z eff. coupling^2, normalised to SM
    0.00000000E+00        4  35  21  21  23  # H0-g-g-Z eff. coupling^2, normalised to SM
    0.00000000E+00        4  36  21  21  23  # A0-g-g-Z eff. coupling^2, normalised to SM
#
#
#
#                             =================
#                             |The decay table|
#                             =================
#
# - The QCD corrections to the decays gluino -> squark  + quark
#                                     squark -> gaugino + quark_prime
#                                     squark -> squark_prime + Higgs
#                                     squark -> gluino  + quark
#   are included.
#
# - The multi-body decays for the inos, stops and sbottoms are included.
#
# - The loop induced decays for the gluino, neutralinos and stops
#   are included.
#
# - The SUSY decays of the top quark are included.
#
#
#         PDG            Width
DECAY         6     1.44021945E+00   # top decays
#          BR         NDA      ID1       ID2
     1.00000000E+00    2           5        24   # BR(t ->  b    W+)
#
#         PDG            Width
DECAY   1000021     4.94366604E+00   # gluino decays
#          BR         NDA      ID1       ID2
     5.00000000E-01    2     1000006        -6   # BR(~g -> ~t_1  tb)
     5.00000000E-01    2    -1000006         6   # BR(~g -> ~t_1* t )
#
#         PDG            Width
DECAY   1000006     1.65231356E+01   # stop1 decays
#          BR         NDA      ID1       ID2
     1.66646215E-01    2     1000022         6   # BR(~t_1 -> ~chi_10 t )
     2.24990956E-01    2     1000023         6   # BR(~t_1 -> ~chi_20 t )
     9.12617847E-02    2     1000025         6   # BR(~t_1 -> ~chi_30 t )
     3.25838760E-01    2     1000024         5   # BR(~t_1 -> ~chi_1+ b )
     1.91262284E-01    2     1000037         5   # BR(~t_1 -> ~chi_2+ b )
#
#         PDG            Width
DECAY   2000006     8.06755200E+01   # stop2 decays
#          BR         NDA      ID1       ID2
     1.11927391E-01    2     1000022         6   # BR(~t_2 -> ~chi_10 t )
     1.30484108E-01    2     1000023         6   # BR(~t_2 -> ~chi_20 t )
     7.47156904E-02    2     1000025         6   # BR(~t_2 -> ~chi_30 t )
     5.63704104E-04    2     1000035         6   # BR(~t_2 -> ~chi_40 t )
     1.99297532E-01    2     1000024         5   # BR(~t_2 -> ~chi_1+ b )
     9.20917527E-02    2     1000037         5   # BR(~t_2 -> ~chi_2+ b )
     1.60103327E-01    2     1000021         6   # BR(~t_2 -> ~g      t )
     1.19638787E-01    2     1000006        25   # BR(~t_2 -> ~t_1    h )
     1.11177708E-01    2     1000006        23   # BR(~t_2 -> ~t_1    Z )
#
#         PDG            Width
DECAY   1000005     7.71247201E+01   # sbottom1 decays
#          BR         NDA      ID1       ID2
     8.44300662E-02    2     1000022         5   # BR(~b_1 -> ~chi_10 b )
     7.92057201E-02    2     1000023         5   # BR(~b_1 -> ~chi_20 b )
     6.47215060E-02    2     1000025         5   # BR(~b_1 -> ~chi_30 b )
     5.32271544E-04    2     1000035         5   # BR(~b_1 -> ~chi_40 b )
     2.01333837E-01    2    -1000024         6   # BR(~b_1 -> ~chi_1- t )
     1.93903952E-01    2    -1000037         6   # BR(~b_1 -> ~chi_2- t )
     1.59186983E-01    2     1000021         5   # BR(~b_1 -> ~g      b )
     2.16685664E-01    2     1000006       -24   # BR(~b_1 -> ~t_1    W-)
#
#         PDG            Width
DECAY   2000005     1.80075665E+02   # sbottom2 decays
#          BR         NDA      ID1       ID2
     5.83108161E-02    2     1000022         5   # BR(~b_2 -> ~chi_10 b )
     7.43539657E-02    2     1000023         5   # BR(~b_2 -> ~chi_20 b )
     1.71158314E-02    2     1000025         5   # BR(~b_2 -> ~chi_30 b )
     7.18888717E-03    2     1000035         5   # BR(~b_2 -> ~chi_40 b )
     1.13941621E-01    2    -1000024         6   # BR(~b_2 -> ~chi_1- t )
     3.49535315E-02    2    -1000037         6   # BR(~b_2 -> ~chi_2- t )
     6.89128514E-01    2     1000021         5   # BR(~b_2 -> ~g      b )
     1.36379528E-03    2     1000005        25   # BR(~b_2 -> ~b_1    h )
     1.23733123E-03    2     1000005        23   # BR(~b_2 -> ~b_1    Z )
     1.17077836E-04    2     1000006       -24   # BR(~b_2 -> ~t_1    W-)
     2.28862880E-03    2     2000006       -24   # BR(~b_2 -> ~t_2    W-)
#
#         PDG            Width
DECAY   1000002     1.94966220E+02   # sup_L decays
#          BR         NDA      ID1       ID2
     1.77451668E-02    2     1000022         2   # BR(~u_L -> ~chi_10 u)
     2.66902107E-04    2     1000023         2   # BR(~u_L -> ~chi_20 u)
     4.52021822E-02    2     1000025         2   # BR(~u_L -> ~chi_30 u)
     1.70492870E-03    2     1000035         2   # BR(~u_L -> ~chi_40 u)
     4.30257870E-02    2     1000024         1   # BR(~u_L -> ~chi_1+ d)
     8.34389195E-02    2     1000037         1   # BR(~u_L -> ~chi_2+ d)
     8.08616114E-01    2     1000021         2   # BR(~u_L -> ~g      u)
#
#         PDG            Width
DECAY   2000002     1.57495839E+02   # sup_R decays
#          BR         NDA      ID1       ID2
     9.74099038E-06    2     1000022         2   # BR(~u_R -> ~chi_10 u)
     7.62680384E-05    2     1000023         2   # BR(~u_R -> ~chi_20 u)
     4.10836349E-06    2     1000025         2   # BR(~u_R -> ~chi_30 u)
     3.32924402E-02    2     1000035         2   # BR(~u_R -> ~chi_40 u)
     9.66617442E-01    2     1000021         2   # BR(~u_R -> ~g      u)
#
#         PDG            Width
DECAY   1000001     1.94982722E+02   # sdown_L decays
#          BR         NDA      ID1       ID2
     1.73727110E-02    2     1000022         1   # BR(~d_L -> ~chi_10 d)
     1.53036032E-04    2     1000023         1   # BR(~d_L -> ~chi_20 d)
     4.56038004E-02    2     1000025         1   # BR(~d_L -> ~chi_30 d)
     1.77285157E-03    2     1000035         1   # BR(~d_L -> ~chi_40 d)
     2.99433009E-02    2    -1000024         2   # BR(~d_L -> ~chi_1- u)
     9.62525575E-02    2    -1000037         2   # BR(~d_L -> ~chi_2- u)
     8.08901743E-01    2     1000021         1   # BR(~d_L -> ~g      d)
#
#         PDG            Width
DECAY   2000001     1.30817111E+02   # sdown_R decays
#          BR         NDA      ID1       ID2
     2.66879190E-06    2     1000022         1   # BR(~d_R -> ~chi_10 d)
     2.08715904E-05    2     1000023         1   # BR(~d_R -> ~chi_20 d)
     1.12047048E-06    2     1000025         1   # BR(~d_R -> ~chi_30 d)
     8.59210311E-03    2     1000035         1   # BR(~d_R -> ~chi_40 d)
     9.91383236E-01    2     1000021         1   # BR(~d_R -> ~g      d)
#
#         PDG            Width
DECAY   1000004     1.74121140E+02   # scharm_L decays
#          BR         NDA      ID1       ID2
     2.05540908E-02    2     1000022         4   # BR(~c_L -> ~chi_10 c)
     3.09126862E-04    2     1000023         4   # BR(~c_L -> ~chi_20 c)
     5.23437441E-02    2     1000025         4   # BR(~c_L -> ~chi_30 c)
     1.97207017E-03    2     1000035         4   # BR(~c_L -> ~chi_40 c)
     4.98362347E-02    2     1000024         3   # BR(~c_L -> ~chi_1+ s)
     9.66214375E-02    2     1000037         3   # BR(~c_L -> ~chi_2+ s)
     7.78363296E-01    2     1000021         4   # BR(~c_L -> ~g      c)
#
#         PDG            Width
DECAY   2000004     1.36306361E+02   # scharm_R decays
#          BR         NDA      ID1       ID2
     1.16452991E-05    2     1000022         4   # BR(~c_R -> ~chi_10 c)
     9.11705842E-05    2     1000023         4   # BR(~c_R -> ~chi_20 c)
     4.91017307E-06    2     1000025         4   # BR(~c_R -> ~chi_30 c)
     3.97407316E-02    2     1000035         4   # BR(~c_R -> ~chi_40 c)
     9.60151542E-01    2     1000021         4   # BR(~c_R -> ~g      c)
#
#         PDG            Width
DECAY   1000003     1.74125445E+02   # sstrange_L decays
#          BR         NDA      ID1       ID2
     2.01238451E-02    2     1000022         3   # BR(~s_L -> ~chi_10 s)
     1.77257105E-04    2     1000023         3   # BR(~s_L -> ~chi_20 s)
     5.28118881E-02    2     1000025         3   # BR(~s_L -> ~chi_30 s)
     2.05075816E-03    2     1000035         3   # BR(~s_L -> ~chi_40 s)
     3.46849408E-02    2    -1000024         4   # BR(~s_L -> ~chi_1- c)
     1.11465909E-01    2    -1000037         4   # BR(~s_L -> ~chi_2- c)
     7.78685402E-01    2     1000021         3   # BR(~s_L -> ~g      s)
#
#         PDG            Width
DECAY   2000003     1.12655500E+02   # sstrange_R decays
#          BR         NDA      ID1       ID2
     3.20944942E-06    2     1000022         3   # BR(~s_R -> ~chi_10 s)
     2.50972641E-05    2     1000023         3   # BR(~s_R -> ~chi_20 s)
     1.34698459E-06    2     1000025         3   # BR(~s_R -> ~chi_30 s)
     1.03101654E-02    2     1000035         3   # BR(~s_R -> ~chi_40 s)
     9.89660181E-01    2     1000021         3   # BR(~s_R -> ~g      s)
#
#         PDG            Width
DECAY   1000011     7.37043180E+00   # selectron_L decays
#          BR         NDA      ID1       ID2
     1.14827331E-01    2     1000022        11   # BR(~e_L -> ~chi_10 e-)
     2.45815793E-03    2     1000023        11   # BR(~e_L -> ~chi_20 e-)
     2.20726619E-01    2     1000025        11   # BR(~e_L -> ~chi_30 e-)
     1.89032997E-01    2    -1000024        12   # BR(~e_L -> ~chi_1- nu_e)
     4.72954895E-01    2    -1000037        12   # BR(~e_L -> ~chi_2- nu_e)
#
#         PDG            Width
DECAY   2000011     2.43323230E-09   # selectron_R decays
#          BR         NDA      ID1       ID2
     1.00000000E+00    2     1000022        11   # BR(~e_R -> ~chi_10 e-)
#
#         PDG            Width
DECAY   1000013     7.37043171E+00   # smuon_L decays
#          BR         NDA      ID1       ID2
     1.14827329E-01    2     1000022        13   # BR(~mu_L -> ~chi_10 mu-)
     2.45815789E-03    2     1000023        13   # BR(~mu_L -> ~chi_20 mu-)
     2.20726613E-01    2     1000025        13   # BR(~mu_L -> ~chi_30 mu-)
     1.89032999E-01    2    -1000024        14   # BR(~mu_L -> ~chi_1- nu_mu)
     4.72954901E-01    2    -1000037        14   # BR(~mu_L -> ~chi_2- nu_mu)
#
#         PDG            Width
DECAY   2000013     2.37529430E-09   # smuon_R decays
#          BR         NDA      ID1       ID2
     1.00000000E+00    2     1000022        13   # BR(~mu_R -> ~chi_10 mu-)
#
#         PDG            Width
DECAY   1000015     6.34598068E+00   # stau_1 decays
#          BR         NDA      ID1       ID2
     2.05918862E-01    2     1000022        15   # BR(~tau_1 -> ~chi_10  tau-)
     2.47639829E-01    2     1000023        15   # BR(~tau_1 -> ~chi_20  tau-)
     4.70010107E-02    2     1000025        15   # BR(~tau_1 -> ~chi_30  tau-)
     4.03181352E-01    2    -1000024        16   # BR(~tau_1 -> ~chi_1-  nu_tau)
     9.62589461E-02    2    -1000037        16   # BR(~tau_1 -> ~chi_2-  nu_tau)
#
#         PDG            Width
DECAY   2000015     6.72915831E+01   # stau_2 decays
#          BR         NDA      ID1       ID2
     1.53893993E-01    2     1000022        15   # BR(~tau_2 -> ~chi_10  tau-)
     1.13594571E-01    2     1000023        15   # BR(~tau_2 -> ~chi_20  tau-)
     1.89325534E-01    2     1000025        15   # BR(~tau_2 -> ~chi_30  tau-)
     6.16099977E-02    2     1000035        15   # BR(~tau_2 -> ~chi_40  tau-)
     1.07963424E-01    2    -1000024        16   # BR(~tau_2 -> ~chi_1-  nu_tau)
     3.52201786E-01    2    -1000037        16   # BR(~tau_2 -> ~chi_2-  nu_tau)
     1.27741851E-03    2     1000015        25   # BR(~tau_2 -> ~tau_1   h)
     9.41065218E-03    2     1000015        35   # BR(~tau_2 -> ~tau_1   H)
     9.41040870E-03    2     1000015        36   # BR(~tau_2 -> ~tau_1   A)
     1.31221476E-03    2     1000015        23   # BR(~tau_2 -> ~tau_1   Z)
#
#         PDG            Width
DECAY   1000012     7.43946076E+00   # snu_eL decays
#          BR         NDA      ID1       ID2
     1.06095992E-01    2     1000022        12   # BR(~nu_eL -> ~chi_10 nu_e)
     4.14486233E-04    2     1000023        12   # BR(~nu_eL -> ~chi_20 nu_e)
     2.22699175E-01    2     1000025        12   # BR(~nu_eL -> ~chi_30 nu_e)
     2.67654108E-01    2     1000024        11   # BR(~nu_eL -> ~chi_1+ e-)
     4.03136240E-01    2     1000037        11   # BR(~nu_eL -> ~chi_2+ e-)
#
#         PDG            Width
DECAY   1000014     7.43946059E+00   # snu_muL decays
#          BR         NDA      ID1       ID2
     1.06095994E-01    2     1000022        14   # BR(~nu_muL -> ~chi_10 nu_mu)
     4.14486243E-04    2     1000023        14   # BR(~nu_muL -> ~chi_20 nu_mu)
     2.22699180E-01    2     1000025        14   # BR(~nu_muL -> ~chi_30 nu_mu)
     2.67654106E-01    2     1000024        13   # BR(~nu_muL -> ~chi_1+ mu-)
     4.03136234E-01    2     1000037        13   # BR(~nu_muL -> ~chi_2+ mu-)
#
#         PDG            Width
DECAY   1000016     6.73010701E+01   # snu_tauL decays
#          BR         NDA      ID1       ID2
     6.16411371E-02    2     1000022        16   # BR(~nu_tauL -> ~chi_10 nu_tau)
     2.56445027E-04    2     1000023        16   # BR(~nu_tauL -> ~chi_20 nu_tau)
     1.67917099E-01    2     1000025        16   # BR(~nu_tauL -> ~chi_30 nu_tau)
     6.23136040E-02    2     1000035        16   # BR(~nu_tauL -> ~chi_40 nu_tau)
     3.29880924E-01    2     1000024        15   # BR(~nu_tauL -> ~chi_1+ tau-)
     3.56661972E-01    2     1000037        15   # BR(~nu_tauL -> ~chi_2+ tau-)
     1.87764497E-02    2    -1000015       -37   # BR(~nu_tauL -> ~tau_1+ H-)
     2.55236945E-03    2    -1000015       -24   # BR(~nu_tauL -> ~tau_1+ W-)
#
#         PDG            Width
DECAY   1000024     3.12937746E-11   # chargino1+ decays
#           BR         NDA      ID1       ID2       ID3
     5.99192159E-01    3     1000022         2        -1   # BR(~chi_1+ -> ~chi_10 u    db)
     2.00266847E-01    3     1000022       -11        12   # BR(~chi_1+ -> ~chi_10 e+   nu_e)
     2.00266847E-01    3     1000022       -13        14   # BR(~chi_1+ -> ~chi_10 mu+  nu_mu)
     2.74146578E-04    3     1000022       -15        16   # BR(~chi_1+ -> ~chi_10 tau+ nu_tau)
#
#         PDG            Width
DECAY   1000037     4.87180304E-01   # chargino2+ decays
#          BR         NDA      ID1       ID2
     3.70988266E-01    2     1000024        23   # BR(~chi_2+ -> ~chi_1+  Z )
     5.66843129E-01    2     1000022        24   # BR(~chi_2+ -> ~chi_10  W+)
     6.21686049E-02    2     1000023        24   # BR(~chi_2+ -> ~chi_20  W+)
#
#         PDG            Width
DECAY   1000022     0.00000000E+00   # neutralino1 decays
#
#         PDG            Width
DECAY   1000023     2.44000800E-04   # neutralino2 decays
#           BR         NDA      ID1       ID2       ID3
     2.24581231E-02    3        -1       1        1000022   # BR(~chi_20 -> db  d  ~chi_10)
     1.70151081E-02    3        -2       2        1000022   # BR(~chi_20 -> ub  u  ~chi_10)
     2.21777962E-02    3        -3       3        1000022   # BR(~chi_20 -> sb  s  ~chi_10)
     1.71618289E-02    3        -4       4        1000022   # BR(~chi_20 -> cb  c  ~chi_10)
     1.86814961E-02    3        -5       5        1000022   # BR(~chi_20 -> bb  b  ~chi_10)
     2.98294104E-01    3        -11       11        1000022   # BR(~chi_20 -> e+  e-  ~chi_10)
     1.01339832E-02    3        -12       12        1000022   # BR(~chi_20 -> nu_eb  nu_e  ~chi_10)
     2.98290006E-01    3        -13       13        1000022   # BR(~chi_20 -> mu+  mu-  ~chi_10)
     9.91226259E-03    3        -14       14        1000022   # BR(~chi_20 -> nu_mub  nu_mu  ~chi_10)
     4.97006567E-03    3        -15       15        1000022   # BR(~chi_20 -> tau+  tau-  ~chi_10)
     1.00139016E-02    3        -16       16        1000022   # BR(~chi_20 -> nu_taub  nu_tau  ~chi_10)
     4.55326376E-02    3        2       -1        -1000024   # BR(~chi_20 -> u  db  ~chi_1-)
     4.47006731E-02    3        4       -3        -1000024   # BR(~chi_20 -> c  sb  ~chi_1-)
     1.52950318E-02    3        12       -11        -1000024   # BR(~chi_20 -> nu_e  e+  ~chi_1-)
     1.51757699E-02    3        14       -13        -1000024   # BR(~chi_20 -> nu_mu  mu+  ~chi_1-)
     1.51192127E-02    3        16       -15        -1000024   # BR(~chi_20 -> nu_tau  tau+  ~chi_1-)
     4.49670657E-02    3        -2       1        1000024   # BR(~chi_20 -> ub  d  ~chi_1+)
     4.48318202E-02    3        -4       3        1000024   # BR(~chi_20 -> cb  s  ~chi_1+)
     1.50860161E-02    3        -12       11        1000024   # BR(~chi_20 -> nu_eb  e-  ~chi_1+)
     1.51163439E-02    3        -14       13        1000024   # BR(~chi_20 -> nu_mub  mu-  ~chi_1+)
     1.50667539E-02    3        -16       15        1000024   # BR(~chi_20 -> nu_taub  tau-  ~chi_1+)
#
#         PDG            Width
DECAY   1000025     5.57891794E-01   # neutralino3 decays
#          BR         NDA      ID1       ID2
     4.58000272E-03    2     1000022        23   # BR(~chi_30 -> ~chi_10   Z )
     4.97637358E-01    2     1000024       -24   # BR(~chi_30 -> ~chi_1+   W-)
     4.97637358E-01    2    -1000024        24   # BR(~chi_30 -> ~chi_1-   W+)
     3.63203516E-05    2     2000011       -11   # BR(~chi_30 -> ~e_R-     e+)
     3.63203516E-05    2    -2000011        11   # BR(~chi_30 -> ~e_R+     e-)
     3.63203516E-05    2     2000013       -13   # BR(~chi_30 -> ~mu_R-    mu+)
     3.63203516E-05    2    -2000013        13   # BR(~chi_30 -> ~mu_R+    mu-)
#
#         PDG            Width
DECAY   1000035     1.44987816E+01   # neutralino4 decays
#          BR         NDA      ID1       ID2
     3.52649062E-02    2     1000022        23   # BR(~chi_40 -> ~chi_10   Z )
     8.89687930E-03    2     1000023        23   # BR(~chi_40 -> ~chi_20   Z )
     1.11519793E-02    2     1000025        23   # BR(~chi_40 -> ~chi_30   Z )
     4.13758032E-02    2     1000024       -24   # BR(~chi_40 -> ~chi_1+   W-)
     4.13758032E-02    2    -1000024        24   # BR(~chi_40 -> ~chi_1-   W+)
     1.28288402E-02    2     1000037       -24   # BR(~chi_40 -> ~chi_2+   W-)
     1.28288402E-02    2    -1000037        24   # BR(~chi_40 -> ~chi_2-   W+)
     7.26481110E-03    2     1000022        25   # BR(~chi_40 -> ~chi_10   h )
     4.78533780E-02    2     1000023        25   # BR(~chi_40 -> ~chi_20   h )
     1.43210416E-03    2     1000025        25   # BR(~chi_40 -> ~chi_30   h )
     2.22828589E-02    2     1000006        -6   # BR(~chi_40 -> ~t_1      tb)
     2.22828589E-02    2    -1000006         6   # BR(~chi_40 -> ~t_1*     t )
     4.06293921E-03    2     1000011       -11   # BR(~chi_40 -> ~e_L-     e+)
     4.06293921E-03    2    -1000011        11   # BR(~chi_40 -> ~e_L+     e-)
     1.72941469E-01    2     2000011       -11   # BR(~chi_40 -> ~e_R-     e+)
     1.72941469E-01    2    -2000011        11   # BR(~chi_40 -> ~e_R+     e-)
     4.06293921E-03    2     1000013       -13   # BR(~chi_40 -> ~mu_L-    mu+)
     4.06293921E-03    2    -1000013        13   # BR(~chi_40 -> ~mu_L+    mu-)
     1.72941469E-01    2     2000013       -13   # BR(~chi_40 -> ~mu_R-    mu+)
     1.72941469E-01    2    -2000013        13   # BR(~chi_40 -> ~mu_R+    mu-)
     5.06752453E-03    2     1000015       -15   # BR(~chi_40 -> ~tau_1-   tau+)
     5.06752453E-03    2    -1000015        15   # BR(~chi_40 -> ~tau_1+   tau-)
     4.25206377E-03    2     1000012       -12   # BR(~chi_40 -> ~nu_eL    nu_eb)
     4.25206377E-03    2    -1000012        12   # BR(~chi_40 -> ~nu_eL*   nu_e )
     4.25206377E-03    2     1000014       -14   # BR(~chi_40 -> ~nu_muL   nu_mub)
     4.25206377E-03    2    -1000014        14   # BR(~chi_40 -> ~nu_muL*  nu_mu )
#
#         PDG            Width
DECAY        25     3.88566611E-03   # h decays
#          BR         NDA      ID1       ID2
     5.87288119E-01    2           5        -5   # BR(h -> b       bb     )
     6.68851639E-02    2         -15        15   # BR(h -> tau+    tau-   )
     2.36793947E-04    2         -13        13   # BR(h -> mu+     mu-    )
     2.58557685E-04    2           3        -3   # BR(h -> s       sb     )
     2.22903105E-02    2           4        -4   # BR(h -> c       cb     )
     8.18717818E-02    2          21        21   # BR(h -> g       g      )
     2.39731195E-03    2          22        22   # BR(h -> gam     gam    )
     1.57850525E-03    2          22        23   # BR(h -> Z       gam    )
     2.10894648E-01    2          24       -24   # BR(h -> W+      W-     )
     2.62988073E-02    2          23        23   # BR(h -> Z       Z      )
#
#         PDG            Width
DECAY        35     9.78515547E+01   # H decays
#          BR         NDA      ID1       ID2
     6.59053784E-01    2           5        -5   # BR(H -> b       bb     )
     9.24577284E-02    2         -15        15   # BR(H -> tau+    tau-   )
     3.47162655E-04    2         -13        13   # BR(H -> mu+     mu-    )
     2.25681701E-04    2           3        -3   # BR(H -> s       sb     )
     5.20258859E-09    2           4        -4   # BR(H -> c       cb     )
     5.06789404E-04    2           6        -6   # BR(H -> t       tb     )
     1.53703494E-05    2          21        21   # BR(H -> g       g      )
     3.06161413E-08    2          22        22   # BR(H -> gam     gam    )
     7.45861736E-09    2          23        22   # BR(H -> Z       gam    )
     1.83306864E-07    2          24       -24   # BR(H -> W+      W-     )
     9.13602555E-08    2          23        23   # BR(H -> Z       Z      )
     8.11196574E-07    2          25        25   # BR(H -> h       h      )
     4.03569603E-02    2     1000024  -1000024   # BR(H -> ~chi_1+ ~chi_1-)
     2.07987377E-02    2     1000037  -1000037   # BR(H -> ~chi_2+ ~chi_2-)
     4.79478655E-02    2     1000024  -1000037   # BR(H -> ~chi_1+ ~chi_2-)
     4.79478655E-02    2     1000037  -1000024   # BR(H -> ~chi_2+ ~chi_1-)
     1.63977878E-02    2     1000022   1000022   # BR(H -> ~chi_10 ~chi_10)
     8.23524745E-05    2     1000023   1000023   # BR(H -> ~chi_20 ~chi_20)
     1.11235196E-02    2     1000025   1000025   # BR(H -> ~chi_30 ~chi_30)
     9.86714505E-03    2     1000022   1000023   # BR(H -> ~chi_10 ~chi_20)
     9.43774268E-03    2     1000022   1000025   # BR(H -> ~chi_10 ~chi_30)
     5.83944828E-03    2     1000022   1000035   # BR(H -> ~chi_10 ~chi_40)
     3.12734013E-02    2     1000023   1000025   # BR(H -> ~chi_20 ~chi_30)
     3.28701613E-03    2     1000023   1000035   # BR(H -> ~chi_20 ~chi_40)
     1.98045595E-03    2     1000025   1000035   # BR(H -> ~chi_30 ~chi_40)
     1.05180034E-03    2     1000006  -1000006   # BR(H -> ~t_1    ~t_1*  )
     2.04540223E-08    2     1000011  -1000011   # BR(H -> ~e_L-   ~e_L+  )
     3.92307521E-08    2     2000011  -2000011   # BR(H -> ~e_R-   ~e_R+  )
     2.04540223E-08    2     1000013  -1000013   # BR(H -> ~mu_L-  ~mu_L+ )
     3.92307521E-08    2     2000013  -2000013   # BR(H -> ~mu_R-  ~mu_R+ )
     6.82867965E-08    2     1000012  -1000012   # BR(H -> ~nu_eL  ~nu_eL*   )
     6.82867965E-08    2     1000014  -1000014   # BR(H -> ~nu_muL ~nu_muL*  )
#
#         PDG            Width
DECAY        36     9.77523311E+01   # A decays
#          BR         NDA      ID1       ID2
     6.59738771E-01    2           5        -5   # BR(A -> b       bb     )
     9.25526276E-02    2         -15        15   # BR(A -> tau+    tau-   )
     3.47518097E-04    2         -13        13   # BR(A -> mu+     mu-    )
     2.25920942E-04    2           3        -3   # BR(A -> s       sb     )
     5.22412736E-09    2           4        -4   # BR(A -> c       cb     )
     5.12352849E-04    2           6        -6   # BR(A -> t       tb     )
     2.42831320E-05    2          21        21   # BR(A -> g       g      )
     6.72920548E-09    2          22        22   # BR(A -> gam     gam    )
     1.49941561E-08    2          23        22   # BR(A -> Z       gam    )
     1.85414895E-07    2          23        25   # BR(A -> Z       h      )
     4.46490205E-02    2     1000024  -1000024   # BR(A -> ~chi_1+ ~chi_1-)
     2.47634634E-02    2     1000037  -1000037   # BR(A -> ~chi_2+ ~chi_2-)
     4.38999575E-02    2     1000024  -1000037   # BR(A -> ~chi_1+ ~chi_2-)
     4.38999575E-02    2     1000037  -1000024   # BR(A -> ~chi_2+ ~chi_1-)
     1.78617300E-02    2     1000022   1000022   # BR(A -> ~chi_10 ~chi_10)
     1.10304245E-04    2     1000023   1000023   # BR(A -> ~chi_20 ~chi_20)
     1.33384272E-02    2     1000025   1000025   # BR(A -> ~chi_30 ~chi_30)
     9.11293064E-03    2     1000022   1000023   # BR(A -> ~chi_10 ~chi_20)
     1.09604403E-02    2     1000022   1000025   # BR(A -> ~chi_10 ~chi_30)
     2.63787950E-03    2     1000022   1000035   # BR(A -> ~chi_10 ~chi_40)
     2.68855803E-02    2     1000023   1000025   # BR(A -> ~chi_20 ~chi_30)
     7.77955026E-03    2     1000023   1000035   # BR(A -> ~chi_20 ~chi_40)
     6.99072813E-04    2     1000025   1000035   # BR(A -> ~chi_30 ~chi_40)
#
#         PDG            Width
DECAY        37     9.96748488E+01   # H+ decays
#          BR         NDA      ID1       ID2
     1.12183638E-03    2           4        -5   # BR(H+ -> c       bb     )
     9.08351876E-02    2         -15        16   # BR(H+ -> tau+    nu_tau )
     3.41069425E-04    2         -13        14   # BR(H+ -> mu+     nu_mu  )
     1.12183412E-05    2           2        -5   # BR(H+ -> u       bb     )
     1.10778665E-05    2           2        -3   # BR(H+ -> u       sb     )
     2.18050915E-04    2           4        -3   # BR(H+ -> c       sb     )
     6.65981403E-01    2           6        -5   # BR(H+ -> t       bb     )
     1.82449448E-07    2          24        25   # BR(H+ -> W+      h      )
     1.80083960E-13    2          24        36   # BR(H+ -> W+      A      )
     1.20035302E-04    2     1000024   1000022   # BR(H+ -> ~chi_1+ ~chi_10)
     2.42485461E-02    2     1000024   1000023   # BR(H+ -> ~chi_1+ ~chi_20)
     7.22583010E-02    2     1000024   1000025   # BR(H+ -> ~chi_1+ ~chi_30)
     8.09495577E-03    2     1000024   1000035   # BR(H+ -> ~chi_1+ ~chi_40)
     8.14576436E-02    2     1000037   1000022   # BR(H+ -> ~chi_2+ ~chi_10)
     5.26175320E-02    2     1000037   1000023   # BR(H+ -> ~chi_2+ ~chi_20)
     6.06967048E-06    2     1000037   1000025   # BR(H+ -> ~chi_2+ ~chi_30)
     2.67673068E-03    2     1000037   1000035   # BR(H+ -> ~chi_2+ ~chi_40)
     8.01893533E-08    2    -1000011   1000012   # BR(H+ -> ~e_L+   ~nu_eL )
     8.01893533E-08    2    -1000013   1000014   # BR(H+ -> ~mu_L+  ~nu_muL)
