#
#                              ======================
#                              | THE SUSYHIT OUTPUT |
#                              ======================
#
#
#              ------------------------------------------------------
#              |     This is the output of the SUSY-HIT package     |
#              |  created by A.Djouadi, M.Muehlleitner and M.Spira. |
#              |  In case of problems with SUSY-HIT email to        |
#              |           margarete.muehlleitner@cern.ch           |
#              |           michael.spira@psi.ch                     |
#              |           abdelhak.djouadi@cern.ch                 |
#              ------------------------------------------------------
#
#              ------------------------------------------------------
#              |  SUSY Les Houches Accord - MSSM Spectrum + Decays  |
#              |              based on the decay programs           |
#              |                                                    |
#              |                     SDECAY 1.3b                    |
#              |                                                    |
#              |  Authors: M.Muhlleitner, A.Djouadi and Y.Mambrini  |
#              |  Ref.:    Comput.Phys.Commun.168(2005)46           |
#              |           [hep-ph/0311167]                         |
#              |                                                    |
#              |                     HDECAY 3.4                     |
#              |                                                    |
#              |  By: A.Djouadi,J.Kalinowski,M.Muhlleitner,M.Spira  |
#              |  Ref.:    Comput.Phys.Commun.108(1998)56           |
#              |           [hep-ph/9704448]                         |
#              |                                                    |
#              |                                                    |
#              |  If not stated otherwise all DRbar couplings and   |
#              |  soft SUSY breaking masses are given at the scale  |
#              |  Q=  0.28375580E+04
#              |                                                    |
#              ------------------------------------------------------
#
#
BLOCK DCINFO  # Decay Program information
     1   SDECAY/HDECAY # decay calculator
     2   1.3b  /3.4    # version number
#
BLOCK SPINFO  # Spectrum calculator information
     1     SOFTSUSY    # spectrum calculator               
     2     3.4.0       # version number                    
#
BLOCK MODSEL  # Model selection
     1     0   #  nonUniversal                                     
#
BLOCK SMINPUTS  # Standard Model inputs
         1     1.27908970E+02   # alpha_em^-1(M_Z)^MSbar
         2     1.16637870E-05   # G_F [GeV^-2]
         3     1.18400000E-01   # alpha_S(M_Z)^MSbar
         4     9.11876000E+01   # M_Z pole mass
         5     4.18000000E+00   # mb(mb)^MSbar
         6     1.73200000E+02   # mt pole mass
         7     1.77700000E+00   # mtau pole mass
#
BLOCK MINPAR  # Input parameters - minimal models
         3     3.75400000E+01   # tanb                
#
BLOCK EXTPAR  # Input parameters - non-minimal models
         0    -1.00000000E+00   # Set                 
         1    -1.68477000E+03   # M_1(MX)             
         2    -1.15563000E+03   # M_2(MX)             
         3     1.18920000E+03   # M_3(MX)             
        11    -3.57298000E+03   # At(MX)              
        12     3.00714000E+03   # Ab(MX)              
        13    -2.17901000E+03   # Atau(MX)            
        23    -1.04340000E+02   # mu(MX)              
        26     2.66897000E+03   # mA(pole)            
        31     5.64610000E+02   # meL(MX)             
        32     5.64610000E+02   # mmuL(MX)            
        33     5.84310000E+02   # mtauL(MX)           
        34     1.52535000E+03   # meR(MX)             
        35     1.52535000E+03   # mmuR(MX)            
        36     7.93780000E+02   # mtauR(MX)           
        41     1.79869000E+03   # mqL1(MX)            
        42     1.79869000E+03   # mqL2(MX)            
        43     3.27974000E+03   # mqL3(MX)            
        44     2.20351000E+03   # muR(MX)             
        45     2.20351000E+03   # mcR(MX)             
        46     2.45405000E+03   # mtR(MX)             
        47     2.07591000E+03   # mdR(MX)             
        48     2.07591000E+03   # msR(MX)             
        49     3.88476000E+03   # mbR(MX)             
#
BLOCK MASS  # Mass Spectrum
# PDG code           mass       particle
        24     8.03784716E+01   # W+
        25     1.26297898E+02   # h
        35     2.66897599E+03   # H
        36     2.66897003E+03   # A
        37     2.67036908E+03   # H+
         5     4.81876030E+00   # b-quark pole mass calculated from mb(mb)_Msbar
   1000001     1.85797397E+03   # ~d_L
   2000001     2.11985870E+03   # ~d_R
   1000002     1.85644357E+03   # ~u_L
   2000002     2.24621632E+03   # ~u_R
   1000003     1.85797397E+03   # ~s_L
   2000003     2.11985870E+03   # ~s_R
   1000004     1.85644357E+03   # ~c_L
   2000004     2.24621632E+03   # ~c_R
   1000005     3.27950285E+03   # ~b_1
   2000005     3.90825321E+03   # ~b_2
   1000006     2.42689767E+03   # ~t_1
   2000006     3.29001778E+03   # ~t_2
   1000011     5.98012386E+02   # ~e_L
   2000011     1.53654807E+03   # ~e_R
   1000012     5.92437531E+02   # ~nu_eL
   1000013     5.98012386E+02   # ~mu_L
   2000013     1.53654807E+03   # ~mu_R
   1000014     5.92437531E+02   # ~nu_muL
   1000015     6.04613086E+02   # ~tau_1
   2000015     7.92671386E+02   # ~tau_2
   1000016     5.99143776E+02   # ~nu_tauL
   1000021     1.38411489E+03   # ~g
   1000022    -1.06728924E+02   # ~chi_10
   1000023     1.12849997E+02   # ~chi_20
   1000025    -1.17921947E+03   # ~chi_30
   1000035    -1.65480150E+03   # ~chi_40
   1000024     1.09715914E+02   # ~chi_1+
   1000037     1.17941774E+03   # ~chi_2+
#
BLOCK NMIX  # Neutralino Mixing Matrix
  1  1    -2.04080871E-02   # N_11
  1  2     5.24822939E-02   # N_12
  1  3     7.16532136E-01   # N_13
  1  4    -6.95277511E-01   # N_14
  2  1     1.74111254E-02   # N_21
  2  2    -4.25590853E-02   # N_22
  2  3     6.97504453E-01   # N_23
  2  4     7.15103569E-01   # N_24
  3  1     6.30149495E-03   # N_31
  3  2     9.97704512E-01   # N_32
  3  3    -7.92697065E-03   # N_33
  3  4     6.69564167E-02   # N_34
  4  1     9.99620255E-01   # N_41
  4  2    -4.47666514E-03   # N_42
  4  3     2.52962512E-03   # N_43
  4  4    -2.70722479E-02   # N_44
#
BLOCK UMIX  # Chargino Mixing Matrix U
  1  1     1.12718560E-02   # U_11
  1  2     9.99936471E-01   # U_12
  2  1    -9.99936471E-01   # U_21
  2  2     1.12718560E-02   # U_22
#
BLOCK VMIX  # Chargino Mixing Matrix V
  1  1    -9.52330493E-02   # V_11
  1  2    -9.95455005E-01   # V_12
  2  1     9.95455005E-01   # V_21
  2  2    -9.52330493E-02   # V_22
#
BLOCK STOPMIX  # Stop Mixing Matrix
  1  1     1.04582471E-01   # cos(theta_t)
  1  2     9.94516217E-01   # sin(theta_t)
  2  1    -9.94516217E-01   # -sin(theta_t)
  2  2     1.04582471E-01   # cos(theta_t)
#
BLOCK SBOTMIX  # Sbottom Mixing Matrix
  1  1     9.99993917E-01   # cos(theta_b)
  1  2    -3.48797405E-03   # sin(theta_b)
  2  1     3.48797405E-03   # -sin(theta_b)
  2  2     9.99993917E-01   # cos(theta_b)
#
BLOCK STAUMIX  # Stau Mixing Matrix
  1  1     9.99920841E-01   # cos(theta_tau)
  1  2    -1.25821991E-02   # sin(theta_tau)
  2  1     1.25821991E-02   # -sin(theta_tau)
  2  2     9.99920841E-01   # cos(theta_tau)
#
BLOCK ALPHA  # Higgs mixing
          -2.74458394E-02   # Mixing angle in the neutral Higgs boson sector
#
BLOCK HMIX Q=  2.83755800E+03  # DRbar Higgs Parameters
         1    -1.06572017E+02   # mu(Q)MSSM           
         2     3.65537988E+01   # tan                 
         3     2.42029970E+02   # higgs               
         4     7.31497679E+06   # mA^2(Q)MSSM         
#
BLOCK GAUGE Q=  2.83755800E+03  # The gauge couplings
     1     3.65771538E-01   # gprime(Q) DRbar
     2     6.42346516E-01   # g(Q) DRbar
     3     1.02743520E+00   # g3(Q) DRbar
#
BLOCK AU Q=  2.83755800E+03  # The trilinear couplings
  1  1     0.00000000E+00   # A_u(Q) DRbar
  2  2     0.00000000E+00   # A_c(Q) DRbar
  3  3    -3.57297999E+03   # A_t(Q) DRbar
#
BLOCK AD Q=  2.83755800E+03  # The trilinear couplings
  1  1     0.00000000E+00   # A_d(Q) DRbar
  2  2     0.00000000E+00   # A_s(Q) DRbar
  3  3     3.00714000E+03   # A_b(Q) DRbar
#
BLOCK AE Q=  2.83755800E+03  # The trilinear couplings
  1  1     0.00000000E+00   # A_e(Q) DRbar
  2  2     0.00000000E+00   # A_mu(Q) DRbar
  3  3    -2.17901000E+03   # A_tau(Q) DRbar
#
BLOCK Yu Q=  2.83755800E+03  # The Yukawa couplings
  1  1     0.00000000E+00   # y_u(Q) DRbar
  2  2     0.00000000E+00   # y_c(Q) DRbar
  3  3     8.21212976E-01   # y_t(Q) DRbar
#
BLOCK Yd Q=  2.83755800E+03  # The Yukawa couplings
  1  1     0.00000000E+00   # y_d(Q) DRbar
  2  2     0.00000000E+00   # y_s(Q) DRbar
  3  3     4.94168627E-01   # y_b(Q) DRbar
#
BLOCK Ye Q=  2.83755800E+03  # The Yukawa couplings
  1  1     0.00000000E+00   # y_e(Q) DRbar
  2  2     0.00000000E+00   # y_mu(Q) DRbar
  3  3     3.81990357E-01   # y_tau(Q) DRbar
#
BLOCK MSOFT Q=  2.83755800E+03  # The soft SUSY breaking masses at the scale Q
         1    -1.68477000E+03   # M_1(Q)              
         2    -1.15563000E+03   # M_2(Q)              
         3     1.18920000E+03   # M_3(Q)              
        21     7.22049142E+06   # mH1^2(Q)            
        22     1.49303515E+05   # mH2^2(Q)            
        31     5.64610000E+02   # meL(Q)              
        32     5.64610000E+02   # mmuL(Q)             
        33     5.84310000E+02   # mtauL(Q)            
        34     1.52535000E+03   # meR(Q)              
        35     1.52535000E+03   # mmuR(Q)             
        36     7.93780000E+02   # mtauR(Q)            
        41     1.79869000E+03   # mqL1(Q)             
        42     1.79869000E+03   # mqL2(Q)             
        43     3.27974000E+03   # mqL3(Q)             
        44     2.20351000E+03   # muR(Q)              
        45     2.20351000E+03   # mcR(Q)              
        46     2.45404999E+03   # mtR(Q)              
        47     2.07591000E+03   # mdR(Q)              
        48     2.07591000E+03   # msR(Q)              
        49     3.88476000E+03   # mbR(Q)              
#
Block HiggsBoundsInputHiggsCouplingsFermions
# ScalarNormEffCoupSq PseudoSNormEffCoupSq NP   IP1 IP2 IP2
    1.00701033E+00    0.00000000E+00        3  25   5   5  # h0-b-b eff. coupling^2, normalised to SM
    1.33617320E+03    0.00000000E+00        3  35   5   5  # H0-b-b eff. coupling^2, normalised to SM
    0.00000000E+00    1.33618021E+03        3  36   5   5  # A0-b-b eff. coupling^2, normalised to SM
#
    9.99994753E-01    0.00000000E+00        3  25   6   6  # h0-t-t eff. coupling^2, normalised to SM
    7.53648589E-04    0.00000000E+00        3  35   6   6  # H0-t-t eff. coupling^2, normalised to SM
    0.00000000E+00    7.48402046E-04        3  36   6   6  # A0-t-t eff. coupling^2, normalised to SM
#
    1.00701033E+00    0.00000000E+00        3  25  15  15  # h0-tau-tau eff. coupling^2, normalised to SM
    1.33617320E+03    0.00000000E+00        3  35  15  15  # H0-tau-tau eff. coupling^2, normalised to SM
    0.00000000E+00    1.33618021E+03        3  36  15  15  # A0-tau-tau eff. coupling^2, normalised to SM
#
Block HiggsBoundsInputHiggsCouplingsBosons
    9.99999991E-01        3  25  24  24  # h0-W-W eff. coupling^2, normalised to SM
    9.16293161E-09        3  35  24  24  # H0-W-W eff. coupling^2, normalised to SM
    0.00000000E+00        3  36  24  24  # A0-W-W eff. coupling^2, normalised to SM
#
    9.99999991E-01        3  25  23  23  # h0-Z-Z eff. coupling^2, normalised to SM
    9.16293161E-09        3  35  23  23  # H0-Z-Z eff. coupling^2, normalised to SM
    0.00000000E+00        3  36  23  23  # A0-Z-Z eff. coupling^2, normalised to SM
#
    8.88671049E-01        3  25  21  21  # h0-g-g eff. coupling^2, normalised to SM
    2.28871940E-12        3  35  21  21  # H0-g-g eff. coupling^2, normalised to SM
    1.11618837E-11        3  36  21  21  # A0-g-g eff. coupling^2, normalised to SM
#
    0.00000000E+00        3  25  25  23  # h0-h0-Z eff. coupling^2, normalised to SM
    0.00000000E+00        3  35  25  23  # H0-h0-Z eff. coupling^2, normalised to SM
    9.16293161E-09        3  36  25  23  # A0-h0-Z eff. coupling^2, normalised to SM
    0.00000000E+00        3  35  35  23  # H0-H0-Z eff. coupling^2, normalised to SM
    9.99999991E-01        3  36  35  23  # A0-H0-Z eff. coupling^2, normalised to SM
    0.00000000E+00        3  36  36  23  # A0-A0-Z eff. coupling^2, normalised to SM
#
    0.00000000E+00        4  25  21  21  23  # h0-g-g-Z eff. coupling^2, normalised to SM
    0.00000000E+00        4  35  21  21  23  # H0-g-g-Z eff. coupling^2, normalised to SM
    0.00000000E+00        4  36  21  21  23  # A0-g-g-Z eff. coupling^2, normalised to SM
#
#
#
#                             =================
#                             |The decay table|
#                             =================
#
# - The QCD corrections to the decays gluino -> squark  + quark
#                                     squark -> gaugino + quark_prime
#                                     squark -> squark_prime + Higgs
#                                     squark -> gluino  + quark
#   are included.
#
# - The multi-body decays for the inos, stops and sbottoms are included.
#
# - The loop induced decays for the gluino, neutralinos and stops
#   are included.
#
# - The SUSY decays of the top quark are included.
#
#
#         PDG            Width
DECAY         6     1.45366382E+00   # top decays
#          BR         NDA      ID1       ID2
     1.00000000E+00    2           5        24   # BR(t ->  b    W+)
#
#         PDG            Width
DECAY   1000021     4.58532149E-03   # gluino decays
#          BR         NDA      ID1       ID2
     7.54594621E-03    2     1000022        21   # BR(~g -> ~chi_10 g)
     8.98656282E-03    2     1000023        21   # BR(~g -> ~chi_20 g)
     2.70185633E-06    2     1000025        21   # BR(~g -> ~chi_30 g)
#           BR         NDA      ID1       ID2       ID3
     1.02978478E-03    3     1000022         1        -1   # BR(~g -> ~chi_10 d  db)
     8.56688409E-04    3     1000023         1        -1   # BR(~g -> ~chi_20 d  db)
     2.85808182E-04    3     1000025         1        -1   # BR(~g -> ~chi_30 d  db)
     7.91198899E-04    3     1000022         2        -2   # BR(~g -> ~chi_10 u  ub)
     6.50624755E-04    3     1000023         2        -2   # BR(~g -> ~chi_20 u  ub)
     2.89034447E-04    3     1000025         2        -2   # BR(~g -> ~chi_30 u  ub)
     1.02978478E-03    3     1000022         3        -3   # BR(~g -> ~chi_10 s  sb)
     8.56688409E-04    3     1000023         3        -3   # BR(~g -> ~chi_20 s  sb)
     2.85808182E-04    3     1000025         3        -3   # BR(~g -> ~chi_30 s  sb)
     7.91198899E-04    3     1000022         4        -4   # BR(~g -> ~chi_10 c  cb)
     6.50624755E-04    3     1000023         4        -4   # BR(~g -> ~chi_20 c  cb)
     2.89034447E-04    3     1000025         4        -4   # BR(~g -> ~chi_30 c  cb)
     3.21211395E-02    3     1000022         5        -5   # BR(~g -> ~chi_10 b  bb)
     3.01982936E-02    3     1000023         5        -5   # BR(~g -> ~chi_20 b  bb)
     1.09645879E-05    3     1000025         5        -5   # BR(~g -> ~chi_30 b  bb)
     1.87840147E-01    3     1000022         6        -6   # BR(~g -> ~chi_10 t  tb)
     2.02887693E-01    3     1000023         6        -6   # BR(~g -> ~chi_20 t  tb)
     3.24740076E-03    3     1000024         1        -2   # BR(~g -> ~chi_1+ d  ub)
     3.24740076E-03    3    -1000024         2        -1   # BR(~g -> ~chi_1- u  db)
     5.72309779E-04    3     1000037         1        -2   # BR(~g -> ~chi_2+ d  ub)
     5.72309779E-04    3    -1000037         2        -1   # BR(~g -> ~chi_2- u  db)
     3.24740076E-03    3     1000024         3        -4   # BR(~g -> ~chi_1+ s  cb)
     3.24740076E-03    3    -1000024         4        -3   # BR(~g -> ~chi_1- c  sb)
     5.72309779E-04    3     1000037         3        -4   # BR(~g -> ~chi_2+ s  cb)
     5.72309779E-04    3    -1000037         4        -3   # BR(~g -> ~chi_2- c  sb)
     2.53660557E-01    3     1000024         5        -6   # BR(~g -> ~chi_1+ b  tb)
     2.53660557E-01    3    -1000024         6        -5   # BR(~g -> ~chi_1- t  bb)
     1.58636223E-07    3     1000037         5        -6   # BR(~g -> ~chi_2+ b  tb)
     1.58636223E-07    3    -1000037         6        -5   # BR(~g -> ~chi_2- t  bb)
#
#         PDG            Width
DECAY   1000006     1.27556869E+02   # stop1 decays
#          BR         NDA      ID1       ID2
     1.20537027E-01    2     1000022         6   # BR(~t_1 -> ~chi_10 t )
     1.27412418E-01    2     1000023         6   # BR(~t_1 -> ~chi_20 t )
     2.28127622E-03    2     1000025         6   # BR(~t_1 -> ~chi_30 t )
     1.26449159E-02    2     1000035         6   # BR(~t_1 -> ~chi_40 t )
     2.46265097E-01    2     1000024         5   # BR(~t_1 -> ~chi_1+ b )
     4.62079814E-03    2     1000037         5   # BR(~t_1 -> ~chi_2+ b )
     4.86238468E-01    2     1000021         6   # BR(~t_1 -> ~g      t )
#
#         PDG            Width
DECAY   2000006     2.36452802E+02   # stop2 decays
#          BR         NDA      ID1       ID2
     9.05483908E-02    2     1000022         6   # BR(~t_2 -> ~chi_10 t )
     9.56879369E-02    2     1000023         6   # BR(~t_2 -> ~chi_20 t )
     4.24930053E-02    2     1000025         6   # BR(~t_2 -> ~chi_30 t )
     1.18722727E-03    2     1000035         6   # BR(~t_2 -> ~chi_40 t )
     7.26115585E-02    2     1000024         5   # BR(~t_2 -> ~chi_1+ b )
     8.28534337E-02    2     1000037         5   # BR(~t_2 -> ~chi_2+ b )
     5.17609123E-01    2     1000021         6   # BR(~t_2 -> ~g      t )
     4.74265176E-02    2     1000006        25   # BR(~t_2 -> ~t_1    h )
     4.95828067E-02    2     1000006        23   # BR(~t_2 -> ~t_1    Z )
#
#         PDG            Width
DECAY   1000005     2.36848562E+02   # sbottom1 decays
#          BR         NDA      ID1       ID2
     3.46634622E-02    2     1000022         5   # BR(~b_1 -> ~chi_10 b )
     3.27529465E-02    2     1000023         5   # BR(~b_1 -> ~chi_20 b )
     4.27848924E-02    2     1000025         5   # BR(~b_1 -> ~chi_30 b )
     1.19094507E-03    2     1000035         5   # BR(~b_1 -> ~chi_40 b )
     1.82654852E-01    2    -1000024         6   # BR(~b_1 -> ~chi_1- t )
     8.76893006E-02    2    -1000037         6   # BR(~b_1 -> ~chi_2- t )
     5.23778594E-01    2     1000021         5   # BR(~b_1 -> ~g      b )
     9.44850066E-02    2     1000006       -24   # BR(~b_1 -> ~t_1    W-)
#
#         PDG            Width
DECAY   2000005     2.06834902E+02   # sbottom2 decays
#          BR         NDA      ID1       ID2
     4.70386392E-02    2     1000022         5   # BR(~b_2 -> ~chi_10 b )
     4.46117375E-02    2     1000023         5   # BR(~b_2 -> ~chi_20 b )
     9.73589176E-06    2     1000025         5   # BR(~b_2 -> ~chi_30 b )
     7.52348391E-03    2     1000035         5   # BR(~b_2 -> ~chi_40 b )
     9.12780654E-02    2    -1000024         6   # BR(~b_2 -> ~chi_1- t )
     1.89175097E-05    2    -1000037         6   # BR(~b_2 -> ~chi_2- t )
     8.09400632E-01    2     1000021         5   # BR(~b_2 -> ~g      b )
     3.11970837E-05    2     1000005        25   # BR(~b_2 -> ~b_1    h )
     2.87831541E-05    2     1000005        23   # BR(~b_2 -> ~b_1    Z )
     5.63215952E-06    2     1000006       -24   # BR(~b_2 -> ~t_1    W-)
     5.31761757E-05    2     2000006       -24   # BR(~b_2 -> ~t_2    W-)
#
#         PDG            Width
DECAY   1000002     3.60667404E+01   # sup_L decays
#          BR         NDA      ID1       ID2
     4.72585731E-04    2     1000022         2   # BR(~u_L -> ~chi_10 u)
     3.07979679E-04    2     1000023         2   # BR(~u_L -> ~chi_20 u)
     7.25888351E-02    2     1000025         2   # BR(~u_L -> ~chi_30 u)
     3.07001532E-04    2     1000035         2   # BR(~u_L -> ~chi_40 u)
     3.62670634E-03    2     1000024         1   # BR(~u_L -> ~chi_1+ d)
     1.44113139E-01    2     1000037         1   # BR(~u_L -> ~chi_2+ d)
     7.78583752E-01    2     1000021         2   # BR(~u_L -> ~g      u)
#
#         PDG            Width
DECAY   2000002     6.73692266E+01   # sup_R decays
#          BR         NDA      ID1       ID2
     3.13498029E-05    2     1000022         2   # BR(~u_R -> ~chi_10 u)
     2.28074483E-05    2     1000023         2   # BR(~u_R -> ~chi_20 u)
     1.58921477E-06    2     1000025         2   # BR(~u_R -> ~chi_30 u)
     1.61097121E-02    2     1000035         2   # BR(~u_R -> ~chi_40 u)
     9.83834541E-01    2     1000021         2   # BR(~u_R -> ~g      u)
#
#         PDG            Width
DECAY   1000001     3.61463710E+01   # sdown_L decays
#          BR         NDA      ID1       ID2
     6.34379159E-04    2     1000022         1   # BR(~d_L -> ~chi_10 d)
     4.19861367E-04    2     1000023         1   # BR(~d_L -> ~chi_20 d)
     7.23017174E-02    2     1000025         1   # BR(~d_L -> ~chi_30 d)
     3.41148384E-04    2     1000035         1   # BR(~d_L -> ~chi_40 d)
     5.07392012E-05    2    -1000024         2   # BR(~d_L -> ~chi_1- u)
     1.45534865E-01    2    -1000037         2   # BR(~d_L -> ~chi_2- u)
     7.80717290E-01    2     1000021         1   # BR(~d_L -> ~g      d)
#
#         PDG            Width
DECAY   2000001     5.36921664E+01   # sdown_R decays
#          BR         NDA      ID1       ID2
     9.26002978E-06    2     1000022         1   # BR(~d_R -> ~chi_10 d)
     6.73641107E-06    2     1000023         1   # BR(~d_R -> ~chi_20 d)
     4.27536997E-07    2     1000025         1   # BR(~d_R -> ~chi_30 d)
     3.49494953E-03    2     1000035         1   # BR(~d_R -> ~chi_40 d)
     9.96488626E-01    2     1000021         1   # BR(~d_R -> ~g      d)
#
#         PDG            Width
DECAY   1000004     2.87602120E+01   # scharm_L decays
#          BR         NDA      ID1       ID2
     6.21840635E-04    2     1000022         4   # BR(~c_L -> ~chi_10 c)
     4.05215769E-04    2     1000023         4   # BR(~c_L -> ~chi_20 c)
     9.40624364E-02    2     1000025         4   # BR(~c_L -> ~chi_30 c)
     3.83742980E-04    2     1000035         4   # BR(~c_L -> ~chi_40 c)
     4.77193773E-03    2     1000024         3   # BR(~c_L -> ~chi_1+ s)
     1.86745023E-01    2     1000037         3   # BR(~c_L -> ~chi_2+ s)
     7.13009803E-01    2     1000021         4   # BR(~c_L -> ~g      c)
#
#         PDG            Width
DECAY   2000004     4.95160398E+01   # scharm_R decays
#          BR         NDA      ID1       ID2
     4.44983885E-05    2     1000022         4   # BR(~c_R -> ~chi_10 c)
     3.23713965E-05    2     1000023         4   # BR(~c_R -> ~chi_20 c)
     2.23635831E-06    2     1000025         4   # BR(~c_R -> ~chi_30 c)
     2.24236107E-02    2     1000035         4   # BR(~c_R -> ~chi_40 c)
     9.77497283E-01    2     1000021         4   # BR(~c_R -> ~g      c)
#
#         PDG            Width
DECAY   1000003     2.87986545E+01   # sstrange_L decays
#          BR         NDA      ID1       ID2
     8.35439590E-04    2     1000022         3   # BR(~s_L -> ~chi_10 s)
     5.52888913E-04    2     1000023         3   # BR(~s_L -> ~chi_20 s)
     9.37734989E-02    2     1000025         3   # BR(~s_L -> ~chi_30 s)
     4.26915954E-04    2     1000035         3   # BR(~s_L -> ~chi_40 s)
     6.68178870E-05    2    -1000024         4   # BR(~s_L -> ~chi_1- c)
     1.88753346E-01    2    -1000037         4   # BR(~s_L -> ~chi_2- c)
     7.15591093E-01    2     1000021         3   # BR(~s_L -> ~g      s)
#
#         PDG            Width
DECAY   2000003     3.92637701E+01   # sstrange_R decays
#          BR         NDA      ID1       ID2
     1.32328208E-05    2     1000022         3   # BR(~s_R -> ~chi_10 s)
     9.62589310E-06    2     1000023         3   # BR(~s_R -> ~chi_20 s)
     6.04704610E-07    2     1000025         3   # BR(~s_R -> ~chi_30 s)
     4.86926344E-03    2     1000035         3   # BR(~s_R -> ~chi_40 s)
     9.95107273E-01    2     1000021         3   # BR(~s_R -> ~g      s)
#
#         PDG            Width
DECAY   1000011     6.85616196E-03   # selectron_L decays
#          BR         NDA      ID1       ID2
     5.60241977E-01    2     1000022        11   # BR(~e_L -> ~chi_10 e-)
     3.54810944E-01    2     1000023        11   # BR(~e_L -> ~chi_20 e-)
     8.49470783E-02    2    -1000024        12   # BR(~e_L -> ~chi_1- nu_e)
#
#         PDG            Width
DECAY   2000011     1.15572082E-02   # selectron_R decays
#           BR         NDA      ID1       ID2
     2.91928792E-01    2     1000022        11   # BR(~e_R -> ~chi_10 e-)
     2.12240867E-01    2     1000023        11   # BR(~e_R -> ~chi_20 e-)
#           BR         NDA      ID1       ID2       ID3
     2.47663619E-02    3        11       -11        1000011   # BR(~e_R- -> e-  e+  ~e_L-)
     1.22659381E-02    3        11       11        -1000011   # BR(~e_R- -> e-  e-  ~e_L+)
     2.53720445E-02    3        11       -12        1000012   # BR(~e_R- -> e-  nu_eb  ~nu_eL)
     1.24848491E-02    3        11       12        -1000012   # BR(~e_R- -> e-  nu_e  ~nu_eL*)
     2.46045581E-02    3        11       -13        1000013   # BR(~e_R- -> e-  mu+  ~mu_L-)
     1.22503634E-02    3        11       13        -1000013   # BR(~e_R- -> e-  mu-  ~mu_L+)
     2.51046789E-02    3        11       -14        1000014   # BR(~e_R- -> e-  nu_mub  ~nu_muL)
     1.25315732E-02    3        11       14        -1000014   # BR(~e_R- -> e-  nu_mu  ~nu_muL*)
     2.41892328E-02    3        11       -15        1000015   # BR(~e_R- -> e-  tau+  ~tau_1-)
     1.18705138E-02    3        11       15        -1000015   # BR(~e_R- -> e-  tau-  ~tau_1+)
     2.55476924E-02    3        11       -15        2000015   # BR(~e_R- -> e-  tau+  ~tau_2-)
     4.56174182E-02    3        11       15        -2000015   # BR(~e_R- -> e-  tau-  ~tau_2+)
     2.46400337E-02    3        11       -16        1000016   # BR(~e_R- -> e-  nu_taub  ~nu_tau1)
     1.23135274E-02    3        11       16        -1000016   # BR(~e_R- -> e-  nu_tau  ~nu_tau1*)
     1.79645461E-02    3        11       23        1000022   # BR(~e_R- -> e-  Z  ~chi_10)
     2.80344522E-02    3        11       25        1000022   # BR(~e_R- -> e-  h  ~chi_10)
     3.12047680E-02    3        11       23        1000023   # BR(~e_R- -> e-  Z  ~chi_20)
     1.81280805E-02    3        11       25        1000023   # BR(~e_R- -> e-  h  ~chi_20)
     1.58178340E-06    3        11       23        1000025   # BR(~e_R- -> e-  Z  ~chi_30)
     8.48734386E-05    3        11       25        1000025   # BR(~e_R- -> e-  h  ~chi_30)
     2.71899576E-02    3        11       -24        1000024   # BR(~e_R- -> e-  W-  ~chi_1+)
     7.94759413E-02    3        11       24        -1000024   # BR(~e_R- -> e-  W+  ~chi_1-)
     9.25742605E-05    3        11       -24        1000037   # BR(~e_R- -> e-  W-  ~chi_2+)
     9.47806757E-05    3        11       24        -1000037   # BR(~e_R- -> e-  W+  ~chi_2-)
#
#         PDG            Width
DECAY   1000013     6.85616154E-03   # smuon_L decays
#          BR         NDA      ID1       ID2
     5.60241974E-01    2     1000022        13   # BR(~mu_L -> ~chi_10 mu-)
     3.54810942E-01    2     1000023        13   # BR(~mu_L -> ~chi_20 mu-)
     8.49470835E-02    2    -1000024        14   # BR(~mu_L -> ~chi_1- nu_mu)
#
#         PDG            Width
DECAY   2000013     1.15614428E-02   # smuon_R decays
#           BR         NDA      ID1       ID2
     2.91821865E-01    2     1000022        13   # BR(~mu_R -> ~chi_10 mu-)
     2.12163127E-01    2     1000023        13   # BR(~mu_R -> ~chi_20 mu-)
#           BR         NDA      ID1       ID2       ID3
     2.48074573E-02    3        13       -11        1000011   # BR(~mu_R- -> mu-  e+  ~e_L-)
     1.22458764E-02    3        13       11        -1000011   # BR(~mu_R- -> mu-  e-  ~e_L+)
     2.53627514E-02    3        13       -12        1000012   # BR(~mu_R- -> mu-  nu_eb  ~nu_eL)
     1.24802762E-02    3        13       12        -1000012   # BR(~mu_R- -> mu-  nu_e  ~nu_eL*)
     2.45955461E-02    3        13       -13        1000013   # BR(~mu_R- -> mu-  mu+  ~mu_L-)
     1.22614455E-02    3        13       13        -1000013   # BR(~mu_R- -> mu-  mu-  ~mu_L+)
     2.53022052E-02    3        13       -14        1000014   # BR(~mu_R- -> mu-  nu_mub  ~nu_muL)
     1.25269832E-02    3        13       14        -1000014   # BR(~mu_R- -> mu-  nu_mu  ~nu_muL*)
     2.41803730E-02    3        13       -15        1000015   # BR(~mu_R- -> mu-  tau+  ~tau_1-)
     1.18661661E-02    3        13       15        -1000015   # BR(~mu_R- -> mu-  tau-  ~tau_1+)
     2.55383349E-02    3        13       -15        2000015   # BR(~mu_R- -> mu-  tau+  ~tau_2-)
     4.56007098E-02    3        13       15        -2000015   # BR(~mu_R- -> mu-  tau-  ~tau_2+)
     2.46310088E-02    3        13       -16        1000016   # BR(~mu_R- -> mu-  nu_taub  ~nu_tau1)
     1.23090174E-02    3        13       16        -1000016   # BR(~mu_R- -> mu-  nu_tau  ~nu_tau1*)
     1.79579663E-02    3        13       23        1000022   # BR(~mu_R- -> mu-  Z  ~chi_10)
     2.80241839E-02    3        13       25        1000022   # BR(~mu_R- -> mu-  h  ~chi_10)
     3.12175569E-02    3        13       23        1000023   # BR(~mu_R- -> mu-  Z  ~chi_20)
     1.80946275E-02    3        13       25        1000023   # BR(~mu_R- -> mu-  h  ~chi_20)
     1.58033908E-06    3        13       23        1000025   # BR(~mu_R- -> mu-  Z  ~chi_30)
     8.46598487E-05    3        13       25        1000025   # BR(~mu_R- -> mu-  h  ~chi_30)
     2.72924414E-02    3        13       -24        1000024   # BR(~mu_R- -> mu-  W-  ~chi_1+)
     7.94468315E-02    3        13       24        -1000024   # BR(~mu_R- -> mu-  W+  ~chi_1-)
     9.22981691E-05    3        13       -24        1000037   # BR(~mu_R- -> mu-  W-  ~chi_2+)
     9.47113627E-05    3        13       24        -1000037   # BR(~mu_R- -> mu-  W+  ~chi_2-)
#
#         PDG            Width
DECAY   1000015     1.64948149E+00   # stau_1 decays
#          BR         NDA      ID1       ID2
     5.16422484E-01    2     1000022        15   # BR(~tau_1 -> ~chi_10  tau-)
     4.82587937E-01    2     1000023        15   # BR(~tau_1 -> ~chi_20  tau-)
     9.89579275E-04    2    -1000024        16   # BR(~tau_1 -> ~chi_1-  nu_tau)
#
#         PDG            Width
DECAY   2000015     4.43319556E+00   # stau_2 decays
#          BR         NDA      ID1       ID2
     2.56599832E-01    2     1000022        15   # BR(~tau_2 -> ~chi_10  tau-)
     2.43198132E-01    2     1000023        15   # BR(~tau_2 -> ~chi_20  tau-)
     4.98974202E-01    2    -1000024        16   # BR(~tau_2 -> ~chi_1-  nu_tau)
     6.66689885E-04    2     1000016       -24   # BR(~tau_2 -> ~nu_tauL W-)
     2.78591967E-04    2     1000015        25   # BR(~tau_2 -> ~tau_1   h)
     2.82552057E-04    2     1000015        23   # BR(~tau_2 -> ~tau_1   Z)
#
#         PDG            Width
DECAY   1000012     5.67033091E-02   # snu_eL decays
#          BR         NDA      ID1       ID2
     1.64959001E-01    2     1000022        12   # BR(~nu_eL -> ~chi_10 nu_e)
     1.09660737E-01    2     1000023        12   # BR(~nu_eL -> ~chi_20 nu_e)
     7.25380263E-01    2     1000024        11   # BR(~nu_eL -> ~chi_1+ e-)
#
#         PDG            Width
DECAY   1000014     5.67033063E-02   # snu_muL decays
#          BR         NDA      ID1       ID2
     1.64959009E-01    2     1000022        14   # BR(~nu_muL -> ~chi_10 nu_mu)
     1.09660742E-01    2     1000023        14   # BR(~nu_muL -> ~chi_20 nu_mu)
     7.25380249E-01    2     1000024        13   # BR(~nu_muL -> ~chi_1+ mu-)
#
#         PDG            Width
DECAY   1000016     1.68118795E+00   # snu_tauL decays
#          BR         NDA      ID1       ID2
     5.63514347E-03    2     1000022        16   # BR(~nu_tauL -> ~chi_10 nu_tau)
     3.74679097E-03    2     1000023        16   # BR(~nu_tauL -> ~chi_20 nu_tau)
     9.90618066E-01    2     1000024        15   # BR(~nu_tauL -> ~chi_1+ tau-)
#
#         PDG            Width
DECAY   1000024     2.56453586E-10   # chargino1+ decays
#           BR         NDA      ID1       ID2       ID3
     3.67474030E-01    3     1000022         2        -1   # BR(~chi_1+ -> ~chi_10 u    db)
     3.67474030E-01    3     1000022         4        -3   # BR(~chi_1+ -> ~chi_10 c    sb)
     1.22504921E-01    3     1000022       -11        12   # BR(~chi_1+ -> ~chi_10 e+   nu_e)
     1.22504921E-01    3     1000022       -13        14   # BR(~chi_1+ -> ~chi_10 mu+  nu_mu)
     2.00420979E-02    3     1000022       -15        16   # BR(~chi_1+ -> ~chi_10 tau+ nu_tau)
#
#         PDG            Width
DECAY   1000037     2.53521219E+01   # chargino2+ decays
#          BR         NDA      ID1       ID2
     1.05771409E-01    2     1000012       -11   # BR(~chi_2+ -> ~nu_eL   e+  )
     1.05771409E-01    2     1000014       -13   # BR(~chi_2+ -> ~nu_muL mu+ )
     1.04151096E-01    2     1000016       -15   # BR(~chi_2+ -> ~nu_tau1 tau+)
     1.05368199E-01    2    -1000011        12   # BR(~chi_2+ -> ~e_L+    nu_e)
     1.05368199E-01    2    -1000013        14   # BR(~chi_2+ -> ~mu_L+   nu_mu)
     1.03721708E-01    2    -1000015        16   # BR(~chi_2+ -> ~tau_1+  nu_tau)
     2.13462662E-05    2    -2000015        16   # BR(~chi_2+ -> ~tau_2+  nu_tau)
     9.38134873E-02    2     1000024        23   # BR(~chi_2+ -> ~chi_1+  Z )
     8.88485469E-02    2     1000022        24   # BR(~chi_2+ -> ~chi_10  W+)
     9.38587235E-02    2     1000023        24   # BR(~chi_2+ -> ~chi_20  W+)
     9.33058758E-02    2     1000024        25   # BR(~chi_2+ -> ~chi_1+  h )
#
#         PDG            Width
DECAY   1000022     0.00000000E+00   # neutralino1 decays
#
#         PDG            Width
DECAY   1000023     7.85805358E-09   # neutralino2 decays
#          BR         NDA      ID1       ID2
     4.40273496E-02    2     1000022        22   # BR(~chi_20 -> ~chi_10 gam)
#           BR         NDA      ID1       ID2       ID3
     1.22362114E-01    3     1000022        -2         2   # BR(~chi_20 -> ~chi_10 ub      u)
     1.58746450E-01    3     1000022        -1         1   # BR(~chi_20 -> ~chi_10 db      d)
     1.22362114E-01    3     1000022        -4         4   # BR(~chi_20 -> ~chi_10 cb      c)
     1.58746450E-01    3     1000022        -3         3   # BR(~chi_20 -> ~chi_10 sb      s)
     3.64160645E-02    3     1000022       -11        11   # BR(~chi_20 -> ~chi_10 e+      e-)
     3.64160645E-02    3     1000022       -13        13   # BR(~chi_20 -> ~chi_10 mu+     mu-)
     1.94313489E-02    3     1000022       -15        15   # BR(~chi_20 -> ~chi_10 tau+    tau-)
     7.28141805E-02    3     1000022       -12        12   # BR(~chi_20 -> ~chi_10 nu_eb   nu_e)
     7.28141805E-02    3     1000022       -14        14   # BR(~chi_20 -> ~chi_10 nu_mub  nu_mu)
     7.28139711E-02    3     1000022       -16        16   # BR(~chi_20 -> ~chi_10 nu_taub nu_tau)
     1.51960613E-02    3     1000024        -2         1   # BR(~chi_20 -> ~chi_1+ ub      d)
     1.51960613E-02    3    -1000024        -1         2   # BR(~chi_20 -> ~chi_1- db      u)
     1.51960613E-02    3     1000024        -4         3   # BR(~chi_20 -> ~chi_1+ cb      s)
     1.51960613E-02    3    -1000024        -3         4   # BR(~chi_20 -> ~chi_1- sb      c)
     5.06579177E-03    3     1000024       -12        11   # BR(~chi_20 -> ~chi_1+ nu_eb   e-)
     5.06579177E-03    3    -1000024        12       -11   # BR(~chi_20 -> ~chi_1- nu_e    e+)
     5.06579177E-03    3     1000024       -14        13   # BR(~chi_20 -> ~chi_1+ nu_mub  mu-)
     5.06579177E-03    3    -1000024        14       -13   # BR(~chi_20 -> ~chi_1- nu_mu   mu+)
     1.00114964E-03    3     1000024       -16        15   # BR(~chi_20 -> ~chi_1+ nu_taub tau-)
     1.00114964E-03    3    -1000024        16       -15   # BR(~chi_20 -> ~chi_1- nu_tau  tau+)
#
#         PDG            Width
DECAY   1000025     2.53410937E+01   # neutralino3 decays
#          BR         NDA      ID1       ID2
     3.45783923E-02    2     1000022        23   # BR(~chi_30 -> ~chi_10   Z )
     5.84738346E-02    2     1000023        23   # BR(~chi_30 -> ~chi_20   Z )
     9.30396598E-02    2     1000024       -24   # BR(~chi_30 -> ~chi_1+   W-)
     9.30396598E-02    2    -1000024        24   # BR(~chi_30 -> ~chi_1-   W+)
     5.49711750E-02    2     1000022        25   # BR(~chi_30 -> ~chi_10   h )
     3.56939190E-02    2     1000023        25   # BR(~chi_30 -> ~chi_20   h )
     5.28289234E-02    2     1000011       -11   # BR(~chi_30 -> ~e_L-     e+)
     5.28289234E-02    2    -1000011        11   # BR(~chi_30 -> ~e_L+     e-)
     5.28289234E-02    2     1000013       -13   # BR(~chi_30 -> ~mu_L-    mu+)
     5.28289234E-02    2    -1000013        13   # BR(~chi_30 -> ~mu_L+    mu-)
     5.20024944E-02    2     1000015       -15   # BR(~chi_30 -> ~tau_1-   tau+)
     5.20024944E-02    2    -1000015        15   # BR(~chi_30 -> ~tau_1+   tau-)
     1.21347433E-05    2     2000015       -15   # BR(~chi_30 -> ~tau_2-   tau+)
     1.21347433E-05    2    -2000015        15   # BR(~chi_30 -> ~tau_2+   tau-)
     5.27456600E-02    2     1000012       -12   # BR(~chi_30 -> ~nu_eL    nu_eb)
     5.27456600E-02    2    -1000012        12   # BR(~chi_30 -> ~nu_eL*   nu_e )
     5.27456600E-02    2     1000014       -14   # BR(~chi_30 -> ~nu_muL   nu_mub)
     5.27456600E-02    2    -1000014        14   # BR(~chi_30 -> ~nu_muL*  nu_mu )
     5.19378838E-02    2     1000016       -16   # BR(~chi_30 -> ~nu_tau1  nu_taub)
     5.19378838E-02    2    -1000016        16   # BR(~chi_30 -> ~nu_tau1* nu_tau )
#
#         PDG            Width
DECAY   1000035     1.97608136E+01   # neutralino4 decays
#          BR         NDA      ID1       ID2
     2.14401171E-02    2     1000022        23   # BR(~chi_40 -> ~chi_10   Z )
     3.29351159E-02    2     1000023        23   # BR(~chi_40 -> ~chi_20   Z )
     3.02082970E-05    2     1000025        23   # BR(~chi_40 -> ~chi_30   Z )
     5.03201646E-02    2     1000024       -24   # BR(~chi_40 -> ~chi_1+   W-)
     5.03201646E-02    2    -1000024        24   # BR(~chi_40 -> ~chi_1-   W+)
     9.94429022E-04    2     1000037       -24   # BR(~chi_40 -> ~chi_2+   W-)
     9.94429022E-04    2    -1000037        24   # BR(~chi_40 -> ~chi_2-   W+)
     3.19672926E-02    2     1000022        25   # BR(~chi_40 -> ~chi_10   h )
     2.31934638E-02    2     1000023        25   # BR(~chi_40 -> ~chi_20   h )
     1.02290120E-03    2     1000025        25   # BR(~chi_40 -> ~chi_30   h )
     4.14273040E-02    2     1000011       -11   # BR(~chi_40 -> ~e_L-     e+)
     4.14273040E-02    2    -1000011        11   # BR(~chi_40 -> ~e_L+     e-)
     4.23013051E-03    2     2000011       -11   # BR(~chi_40 -> ~e_R-     e+)
     4.23013051E-03    2    -2000011        11   # BR(~chi_40 -> ~e_R+     e-)
     4.14273040E-02    2     1000013       -13   # BR(~chi_40 -> ~mu_L-    mu+)
     4.14273040E-02    2    -1000013        13   # BR(~chi_40 -> ~mu_L+    mu-)
     4.23013051E-03    2     2000013       -13   # BR(~chi_40 -> ~mu_R-    mu+)
     4.23013051E-03    2    -2000013        13   # BR(~chi_40 -> ~mu_R+    mu-)
     4.11636592E-02    2     1000015       -15   # BR(~chi_40 -> ~tau_1-   tau+)
     4.11636592E-02    2    -1000015        15   # BR(~chi_40 -> ~tau_1+   tau-)
     1.32229726E-01    2     2000015       -15   # BR(~chi_40 -> ~tau_2-   tau+)
     1.32229726E-01    2    -2000015        15   # BR(~chi_40 -> ~tau_2+   tau-)
     4.29899709E-02    2     1000012       -12   # BR(~chi_40 -> ~nu_eL    nu_eb)
     4.29899709E-02    2    -1000012        12   # BR(~chi_40 -> ~nu_eL*   nu_e )
     4.29899709E-02    2     1000014       -14   # BR(~chi_40 -> ~nu_muL   nu_mub)
     4.29899709E-02    2    -1000014        14   # BR(~chi_40 -> ~nu_muL*  nu_mu )
     4.27026612E-02    2     1000016       -16   # BR(~chi_40 -> ~nu_tau1  nu_taub)
     4.27026612E-02    2    -1000016        16   # BR(~chi_40 -> ~nu_tau1* nu_tau )
#
#         PDG            Width
DECAY        25     4.19853869E-03   # h decays
#          BR         NDA      ID1       ID2
     5.73625497E-01    2           5        -5   # BR(h -> b       bb     )
     6.26979585E-02    2         -15        15   # BR(h -> tau+    tau-   )
     2.21923383E-04    2         -13        13   # BR(h -> mu+     mu-    )
     2.41799294E-04    2           3        -3   # BR(h -> s       sb     )
     2.08290612E-02    2           4        -4   # BR(h -> c       cb     )
     7.83559083E-02    2          21        21   # BR(h -> g       g      )
     2.34467828E-03    2          22        22   # BR(h -> gam     gam    )
     1.66726589E-03    2          22        23   # BR(h -> Z       gam    )
     2.30687639E-01    2          24       -24   # BR(h -> W+      W-     )
     2.93282690E-02    2          23        23   # BR(h -> Z       Z      )
#
#         PDG            Width
DECAY        35     7.49340109E+01   # H decays
#          BR         NDA      ID1       ID2
     5.36942109E-01    2           5        -5   # BR(H -> b       bb     )
     9.52731649E-02    2         -15        15   # BR(H -> tau+    tau-   )
     3.37352180E-04    2         -13        13   # BR(H -> mu+     mu-    )
     2.28741451E-04    2           3        -3   # BR(H -> s       sb     )
     1.11897765E-08    2           4        -4   # BR(H -> c       cb     )
     1.09640301E-03    2           6        -6   # BR(H -> t       tb     )
     1.02400068E-05    2          21        21   # BR(H -> g       g      )
     8.19277526E-09    2          22        22   # BR(H -> gam     gam    )
     5.57632172E-09    2          23        22   # BR(H -> Z       gam    )
     7.46121043E-07    2          24       -24   # BR(H -> W+      W-     )
     3.72107015E-07    2          23        23   # BR(H -> Z       Z      )
     2.52418344E-06    2          25        25   # BR(H -> h       h      )
     2.69184685E-03    2     1000024  -1000024   # BR(H -> ~chi_1+ ~chi_1-)
     2.28968835E-06    2     1000037  -1000037   # BR(H -> ~chi_2+ ~chi_2-)
     9.66591953E-02    2     1000024  -1000037   # BR(H -> ~chi_1+ ~chi_2-)
     9.66591953E-02    2     1000037  -1000024   # BR(H -> ~chi_2+ ~chi_1-)
     5.84792833E-04    2     1000022   1000022   # BR(H -> ~chi_10 ~chi_10)
     4.13439995E-04    2     1000023   1000023   # BR(H -> ~chi_20 ~chi_20)
     1.13512557E-06    2     1000025   1000025   # BR(H -> ~chi_30 ~chi_30)
     1.29788928E-05    2     1000022   1000023   # BR(H -> ~chi_10 ~chi_20)
     4.46690493E-02    2     1000022   1000025   # BR(H -> ~chi_10 ~chi_30)
     7.39017609E-03    2     1000022   1000035   # BR(H -> ~chi_10 ~chi_40)
     5.17720312E-02    2     1000023   1000025   # BR(H -> ~chi_20 ~chi_30)
     9.22659904E-03    2     1000023   1000035   # BR(H -> ~chi_20 ~chi_40)
     9.33548412E-08    2     1000011  -1000011   # BR(H -> ~e_L-   ~e_L+  )
     9.33548412E-08    2     1000013  -1000013   # BR(H -> ~mu_L-  ~mu_L+ )
     1.83808667E-05    2     1000015  -1000015   # BR(H -> ~tau_1- ~tau_1+)
     1.65281217E-05    2     2000015  -2000015   # BR(H -> ~tau_2- ~tau_2+)
     2.79947915E-02    2     1000015  -2000015   # BR(H -> ~tau_1- ~tau_2+)
     2.79947915E-02    2     2000015  -1000015   # BR(H -> ~tau_2- ~tau_1+)
     3.04930614E-07    2     1000012  -1000012   # BR(H -> ~nu_eL  ~nu_eL*   )
     3.04930614E-07    2     1000014  -1000014   # BR(H -> ~nu_muL ~nu_muL*  )
     3.04077350E-07    2     1000016  -1000016   # BR(H -> ~nu_tauL ~nu_tauL*)
#
#         PDG            Width
DECAY        36     7.49347212E+01   # A decays
#          BR         NDA      ID1       ID2
     5.36951712E-01    2           5        -5   # BR(A -> b       bb     )
     9.52727266E-02    2         -15        15   # BR(A -> tau+    tau-   )
     3.37350030E-04    2         -13        13   # BR(A -> mu+     mu-    )
     2.28752070E-04    2           3        -3   # BR(A -> s       sb     )
     1.12144664E-08    2           4        -4   # BR(A -> c       cb     )
     1.10099577E-03    2           6        -6   # BR(A -> t       tb     )
     2.26133049E-05    2          21        21   # BR(A -> g       g      )
     4.26447063E-08    2          22        22   # BR(A -> gam     gam    )
     1.56012776E-08    2          23        22   # BR(A -> Z       gam    )
     7.55117212E-07    2          23        25   # BR(A -> Z       h      )
     2.74538141E-03    2     1000024  -1000024   # BR(A -> ~chi_1+ ~chi_1-)
     2.69933986E-05    2     1000037  -1000037   # BR(A -> ~chi_2+ ~chi_2-)
     9.66154305E-02    2     1000024  -1000037   # BR(A -> ~chi_1+ ~chi_2-)
     9.66154305E-02    2     1000037  -1000024   # BR(A -> ~chi_2+ ~chi_1-)
     6.54627139E-04    2     1000022   1000022   # BR(A -> ~chi_10 ~chi_10)
     3.72141235E-04    2     1000023   1000023   # BR(A -> ~chi_20 ~chi_20)
     1.33040504E-05    2     1000025   1000025   # BR(A -> ~chi_30 ~chi_30)
     3.48005660E-06    2     1000022   1000023   # BR(A -> ~chi_10 ~chi_20)
     5.42247148E-02    2     1000022   1000025   # BR(A -> ~chi_10 ~chi_30)
     9.65980220E-03    2     1000022   1000035   # BR(A -> ~chi_10 ~chi_40)
     4.21790361E-02    2     1000023   1000025   # BR(A -> ~chi_20 ~chi_30)
     6.95080313E-03    2     1000023   1000035   # BR(A -> ~chi_20 ~chi_40)
     2.80119404E-02    2     1000015  -2000015   # BR(A -> ~tau_1- ~tau_2+)
     2.80119404E-02    2    -1000015   2000015   # BR(A -> ~tau_1+ ~tau_2-)
#
#         PDG            Width
DECAY        37     7.46908945E+01   # H+ decays
#          BR         NDA      ID1       ID2
     9.00811709E-04    2           4        -5   # BR(H+ -> c       bb     )
     9.56338464E-02    2         -15        16   # BR(H+ -> tau+    nu_tau )
     3.38628714E-04    2         -13        14   # BR(H+ -> mu+     nu_mu  )
     9.00810373E-06    2           2        -5   # BR(H+ -> u       bb     )
     1.14781185E-05    2           2        -3   # BR(H+ -> u       sb     )
     2.25934990E-04    2           4        -3   # BR(H+ -> c       sb     )
     5.35955661E-01    2           6        -5   # BR(H+ -> t       bb     )
     7.59379274E-07    2          24        25   # BR(H+ -> W+      h      )
     9.44025914E-14    2          24        36   # BR(H+ -> W+      A      )
     1.36826647E-04    2     1000024   1000022   # BR(H+ -> ~chi_1+ ~chi_10)
     2.96391004E-04    2     1000024   1000023   # BR(H+ -> ~chi_1+ ~chi_20)
     9.81947342E-02    2     1000024   1000025   # BR(H+ -> ~chi_1+ ~chi_30)
     1.61469683E-02    2     1000024   1000035   # BR(H+ -> ~chi_1+ ~chi_40)
     1.00671412E-01    2     1000037   1000022   # BR(H+ -> ~chi_2+ ~chi_10)
     9.52133204E-02    2     1000037   1000023   # BR(H+ -> ~chi_2+ ~chi_20)
     3.97983115E-10    2     1000037   1000025   # BR(H+ -> ~chi_2+ ~chi_30)
     3.67507638E-07    2    -1000011   1000012   # BR(H+ -> ~e_L+   ~nu_eL )
     3.67507638E-07    2    -1000013   1000014   # BR(H+ -> ~mu_L+  ~nu_muL)
     7.01584344E-06    2    -1000015   1000016   # BR(H+ -> ~tau_1+ ~nu_tauL)
     5.62564671E-02    2    -2000015   1000016   # BR(H+ -> ~tau_2+ ~nu_tauL)
