#
#                              ======================
#                              | THE SUSYHIT OUTPUT |
#                              ======================
#
#
#              ------------------------------------------------------
#              |     This is the output of the SUSY-HIT package     |
#              |  created by A.Djouadi, M.Muehlleitner and M.Spira. |
#              |  In case of problems with SUSY-HIT email to        |
#              |           margarete.muehlleitner@cern.ch           |
#              |           michael.spira@psi.ch                     |
#              |           abdelhak.djouadi@cern.ch                 |
#              ------------------------------------------------------
#
#              ------------------------------------------------------
#              |  SUSY Les Houches Accord - MSSM Spectrum + Decays  |
#              |              based on the decay programs           |
#              |                                                    |
#              |                     SDECAY 1.3b                    |
#              |                                                    |
#              |  Authors: M.Muhlleitner, A.Djouadi and Y.Mambrini  |
#              |  Ref.:    Comput.Phys.Commun.168(2005)46           |
#              |           [hep-ph/0311167]                         |
#              |                                                    |
#              |                     HDECAY 3.4                     |
#              |                                                    |
#              |  By: A.Djouadi,J.Kalinowski,M.Muhlleitner,M.Spira  |
#              |  Ref.:    Comput.Phys.Commun.108(1998)56           |
#              |           [hep-ph/9704448]                         |
#              |                                                    |
#              |                                                    |
#              |  If not stated otherwise all DRbar couplings and   |
#              |  soft SUSY breaking masses are given at the scale  |
#              |  Q=  0.34545100E+04
#              |                                                    |
#              ------------------------------------------------------
#
#
BLOCK DCINFO  # Decay Program information
     1   SDECAY/HDECAY # decay calculator
     2   1.3b  /3.4    # version number
#
BLOCK SPINFO  # Spectrum calculator information
     1     SOFTSUSY    # spectrum calculator               
     2     3.4.0       # version number                    
#
BLOCK MODSEL  # Model selection
     1     0   #  nonUniversal                                     
#
BLOCK SMINPUTS  # Standard Model inputs
         1     1.27908970E+02   # alpha_em^-1(M_Z)^MSbar
         2     1.16637870E-05   # G_F [GeV^-2]
         3     1.18400000E-01   # alpha_S(M_Z)^MSbar
         4     9.11876000E+01   # M_Z pole mass
         5     4.18000000E+00   # mb(mb)^MSbar
         6     1.73200000E+02   # mt pole mass
         7     1.77700000E+00   # mtau pole mass
#
BLOCK MINPAR  # Input parameters - minimal models
         3     3.95300000E+01   # tanb                
#
BLOCK EXTPAR  # Input parameters - non-minimal models
         0    -1.00000000E+00   # Set                 
         1    -1.47318000E+03   # M_1(MX)             
         2     1.31320000E+03   # M_2(MX)             
         3     3.03946000E+03   # M_3(MX)             
        11    -4.01207000E+03   # At(MX)              
        12     6.65520000E+02   # Ab(MX)              
        13     2.03826000E+03   # Atau(MX)            
        23    -1.85120000E+02   # mu(MX)              
        26     3.49649000E+03   # mA(pole)            
        31     2.23744000E+03   # meL(MX)             
        32     2.23744000E+03   # mmuL(MX)            
        33     3.30870000E+02   # mtauL(MX)           
        34     3.18505000E+03   # meR(MX)             
        35     3.18505000E+03   # mmuR(MX)            
        36     2.90058000E+03   # mtauR(MX)           
        41     1.79411000E+03   # mqL1(MX)            
        42     1.79411000E+03   # mqL2(MX)            
        43     3.35450000E+03   # mqL3(MX)            
        44     7.72370000E+02   # muR(MX)             
        45     7.72370000E+02   # mcR(MX)             
        46     3.55622000E+03   # mtR(MX)             
        47     8.79640000E+02   # mdR(MX)             
        48     8.79640000E+02   # msR(MX)             
        49     2.96477000E+03   # mbR(MX)             
#
BLOCK MASS  # Mass Spectrum
# PDG code           mass       particle
        24     8.03720106E+01   # W+
        25     1.26658583E+02   # h
        35     3.49649464E+03   # H
        36     3.49649017E+03   # A
        37     3.49784289E+03   # H+
         5     4.81876030E+00   # b-quark pole mass calculated from mb(mb)_Msbar
   1000001     1.96413084E+03   # ~d_L
   2000001     1.11299166E+03   # ~d_R
   1000002     1.96261815E+03   # ~u_L
   2000002     1.03299977E+03   # ~u_R
   1000003     1.96413084E+03   # ~s_L
   2000003     1.11299166E+03   # ~s_R
   1000004     1.96261815E+03   # ~c_L
   2000004     1.03299977E+03   # ~c_R
   1000005     3.05885619E+03   # ~b_1
   2000005     3.41762655E+03   # ~b_2
   1000006     3.38381551E+03   # ~t_1
   2000006     3.60836564E+03   # ~t_2
   1000011     2.25116643E+03   # ~e_L
   2000011     3.18772367E+03   # ~e_R
   1000012     2.24945607E+03   # ~nu_eL
   1000013     2.25116643E+03   # ~mu_L
   2000013     3.18772367E+03   # ~mu_R
   1000014     2.24945607E+03   # ~nu_muL
   1000015     3.77914459E+02   # ~tau_1
   2000015     2.89191860E+03   # ~tau_2
   1000016     3.69393582E+02   # ~nu_tauL
   1000021     3.13189869E+03   # ~g
   1000022     1.93841969E+02   # ~chi_10
   1000023    -1.97243778E+02   # ~chi_20
   1000025     1.34511765E+03   # ~chi_30
   1000035    -1.44470615E+03   # ~chi_40
   1000024     1.95753041E+02   # ~chi_1+
   1000037     1.34529142E+03   # ~chi_2+
#
BLOCK NMIX  # Neutralino Mixing Matrix
  1  1     1.81492816E-02   # N_11
  1  2     4.70282055E-02   # N_12
  1  3     7.10059856E-01   # N_13
  1  4     7.02334644E-01   # N_14
  2  1     2.52991306E-02   # N_21
  2  2     3.74580154E-02   # N_22
  2  3    -7.04089052E-01   # N_23
  2  4     7.08671615E-01   # N_24
  3  1    -9.34069685E-04   # N_31
  3  2     9.98190608E-01   # N_32
  3  3    -7.02749976E-03   # N_33
  3  4    -5.97097341E-02   # N_34
  4  1     9.99514725E-01   # N_41
  4  2    -8.69225594E-04   # N_42
  4  3     4.92158881E-03   # N_43
  4  4    -3.07463384E-02   # N_44
#
BLOCK UMIX  # Chargino Mixing Matrix U
  1  1     9.96743523E-03   # U_11
  1  2     9.99950324E-01   # U_12
  2  1    -9.99950324E-01   # U_21
  2  2     9.96743523E-03   # U_22
#
BLOCK VMIX  # Chargino Mixing Matrix V
  1  1     8.45617607E-02   # V_11
  1  2    -9.96418240E-01   # V_12
  2  1    -9.96418240E-01   # V_21
  2  2    -8.45617607E-02   # V_22
#
BLOCK STOPMIX  # Stop Mixing Matrix
  1  1     9.19870022E-01   # cos(theta_t)
  1  2     3.92223333E-01   # sin(theta_t)
  2  1    -3.92223333E-01   # -sin(theta_t)
  2  2     9.19870022E-01   # cos(theta_t)
#
BLOCK SBOTMIX  # Sbottom Mixing Matrix
  1  1    -7.51748409E-03   # cos(theta_b)
  1  2     9.99971743E-01   # sin(theta_b)
  2  1    -9.99971743E-01   # -sin(theta_b)
  2  2    -7.51748409E-03   # cos(theta_b)
#
BLOCK STAUMIX  # Stau Mixing Matrix
  1  1     9.99998252E-01   # cos(theta_tau)
  1  2    -1.86975853E-03   # sin(theta_tau)
  2  1     1.86975853E-03   # -sin(theta_tau)
  2  2     9.99998252E-01   # cos(theta_tau)
#
BLOCK ALPHA  # Higgs mixing
          -2.59910558E-02   # Mixing angle in the neutral Higgs boson sector
#
BLOCK HMIX Q=  3.45451000E+03  # DRbar Higgs Parameters
         1    -1.89321693E+02   # mu(Q)MSSM           
         2     3.85420065E+01   # tan                 
         3     2.41907819E+02   # higgs               
         4     1.20786531E+07   # mA^2(Q)MSSM         
#
BLOCK GAUGE Q=  3.45451000E+03  # The gauge couplings
     1     3.65939517E-01   # gprime(Q) DRbar
     2     6.40655672E-01   # g(Q) DRbar
     3     1.00993092E+00   # g3(Q) DRbar
#
BLOCK AU Q=  3.45451000E+03  # The trilinear couplings
  1  1     0.00000000E+00   # A_u(Q) DRbar
  2  2     0.00000000E+00   # A_c(Q) DRbar
  3  3    -4.01206998E+03   # A_t(Q) DRbar
#
BLOCK AD Q=  3.45451000E+03  # The trilinear couplings
  1  1     0.00000000E+00   # A_d(Q) DRbar
  2  2     0.00000000E+00   # A_s(Q) DRbar
  3  3     6.65520012E+02   # A_b(Q) DRbar
#
BLOCK AE Q=  3.45451000E+03  # The trilinear couplings
  1  1     0.00000000E+00   # A_e(Q) DRbar
  2  2     0.00000000E+00   # A_mu(Q) DRbar
  3  3     2.03826000E+03   # A_tau(Q) DRbar
#
BLOCK Yu Q=  3.45451000E+03  # The Yukawa couplings
  1  1     0.00000000E+00   # y_u(Q) DRbar
  2  2     0.00000000E+00   # y_c(Q) DRbar
  3  3     8.10754381E-01   # y_t(Q) DRbar
#
BLOCK Yd Q=  3.45451000E+03  # The Yukawa couplings
  1  1     0.00000000E+00   # y_d(Q) DRbar
  2  2     0.00000000E+00   # y_s(Q) DRbar
  3  3     5.16703494E-01   # y_b(Q) DRbar
#
BLOCK Ye Q=  3.45451000E+03  # The Yukawa couplings
  1  1     0.00000000E+00   # y_e(Q) DRbar
  2  2     0.00000000E+00   # y_mu(Q) DRbar
  3  3     3.70164496E-01   # y_tau(Q) DRbar
#
BLOCK MSOFT Q=  3.45451000E+03  # The soft SUSY breaking masses at the scale Q
         1    -1.47318000E+03   # M_1(Q)              
         2     1.31320000E+03   # M_2(Q)              
         3     3.03946000E+03   # M_3(Q)              
        21     1.24050249E+07   # mH1^2(Q)            
        22     2.37636051E+05   # mH2^2(Q)            
        31     2.23744000E+03   # meL(Q)              
        32     2.23744000E+03   # mmuL(Q)             
        33     3.30870003E+02   # mtauL(Q)            
        34     3.18505000E+03   # meR(Q)              
        35     3.18505000E+03   # mmuR(Q)             
        36     2.90058000E+03   # mtauR(Q)            
        41     1.79410998E+03   # mqL1(Q)             
        42     1.79410998E+03   # mqL2(Q)             
        43     3.35449997E+03   # mqL3(Q)             
        44     7.72369953E+02   # muR(Q)              
        45     7.72369953E+02   # mcR(Q)              
        46     3.55621997E+03   # mtR(Q)              
        47     8.79639959E+02   # mdR(Q)              
        48     8.79639959E+02   # msR(Q)              
        49     2.96476998E+03   # mbR(Q)              
#
Block HiggsBoundsInputHiggsCouplingsFermions
# ScalarNormEffCoupSq PseudoSNormEffCoupSq NP   IP1 IP2 IP2
    1.00394737E+00    0.00000000E+00        3  25   5   5  # h0-b-b eff. coupling^2, normalised to SM
    1.48548232E+03    0.00000000E+00        3  35   5   5  # H0-b-b eff. coupling^2, normalised to SM
    0.00000000E+00    1.48548627E+03        3  36   5   5  # A0-b-b eff. coupling^2, normalised to SM
#
    9.99997343E-01    0.00000000E+00        3  25   6   6  # h0-t-t eff. coupling^2, normalised to SM
    6.75837534E-04    0.00000000E+00        3  35   6   6  # H0-t-t eff. coupling^2, normalised to SM
    0.00000000E+00    6.73180240E-04        3  36   6   6  # A0-t-t eff. coupling^2, normalised to SM
#
    1.00394737E+00    0.00000000E+00        3  25  15  15  # h0-tau-tau eff. coupling^2, normalised to SM
    1.48548232E+03    0.00000000E+00        3  35  15  15  # H0-tau-tau eff. coupling^2, normalised to SM
    0.00000000E+00    1.48548627E+03        3  36  15  15  # A0-tau-tau eff. coupling^2, normalised to SM
#
Block HiggsBoundsInputHiggsCouplingsBosons
    9.99999997E-01        3  25  24  24  # h0-W-W eff. coupling^2, normalised to SM
    2.61717398E-09        3  35  24  24  # H0-W-W eff. coupling^2, normalised to SM
    0.00000000E+00        3  36  24  24  # A0-W-W eff. coupling^2, normalised to SM
#
    9.99999997E-01        3  25  23  23  # h0-Z-Z eff. coupling^2, normalised to SM
    2.61717398E-09        3  35  23  23  # H0-Z-Z eff. coupling^2, normalised to SM
    0.00000000E+00        3  36  23  23  # A0-Z-Z eff. coupling^2, normalised to SM
#
    8.87376064E-01        3  25  21  21  # h0-g-g eff. coupling^2, normalised to SM
    1.84086458E-13        3  35  21  21  # H0-g-g eff. coupling^2, normalised to SM
    9.13468432E-13        3  36  21  21  # A0-g-g eff. coupling^2, normalised to SM
#
    0.00000000E+00        3  25  25  23  # h0-h0-Z eff. coupling^2, normalised to SM
    0.00000000E+00        3  35  25  23  # H0-h0-Z eff. coupling^2, normalised to SM
    2.61717398E-09        3  36  25  23  # A0-h0-Z eff. coupling^2, normalised to SM
    0.00000000E+00        3  35  35  23  # H0-H0-Z eff. coupling^2, normalised to SM
    9.99999997E-01        3  36  35  23  # A0-H0-Z eff. coupling^2, normalised to SM
    0.00000000E+00        3  36  36  23  # A0-A0-Z eff. coupling^2, normalised to SM
#
    0.00000000E+00        4  25  21  21  23  # h0-g-g-Z eff. coupling^2, normalised to SM
    0.00000000E+00        4  35  21  21  23  # H0-g-g-Z eff. coupling^2, normalised to SM
    0.00000000E+00        4  36  21  21  23  # A0-g-g-Z eff. coupling^2, normalised to SM
#
#
#
#                             =================
#                             |The decay table|
#                             =================
#
# - The QCD corrections to the decays gluino -> squark  + quark
#                                     squark -> gaugino + quark_prime
#                                     squark -> squark_prime + Higgs
#                                     squark -> gluino  + quark
#   are included.
#
# - The multi-body decays for the inos, stops and sbottoms are included.
#
# - The loop induced decays for the gluino, neutralinos and stops
#   are included.
#
# - The SUSY decays of the top quark are included.
#
#
#         PDG            Width
DECAY         6     1.44631109E+00   # top decays
#          BR         NDA      ID1       ID2
     1.00000000E+00    2           5        24   # BR(t ->  b    W+)
#
#         PDG            Width
DECAY   1000021     2.96131722E+02   # gluino decays
#          BR         NDA      ID1       ID2
     4.00844027E-02    2     1000001        -1   # BR(~g -> ~d_L  db)
     4.00844027E-02    2    -1000001         1   # BR(~g -> ~d_L* d )
     8.31312114E-02    2     2000001        -1   # BR(~g -> ~d_R  db)
     8.31312114E-02    2    -2000001         1   # BR(~g -> ~d_R* d )
     4.01644629E-02    2     1000002        -2   # BR(~g -> ~u_L  ub)
     4.01644629E-02    2    -1000002         2   # BR(~g -> ~u_L* u )
     8.64948798E-02    2     2000002        -2   # BR(~g -> ~u_R  ub)
     8.64948798E-02    2    -2000002         2   # BR(~g -> ~u_R* u )
     4.00844027E-02    2     1000003        -3   # BR(~g -> ~s_L  sb)
     4.00844027E-02    2    -1000003         3   # BR(~g -> ~s_L* s )
     8.31312114E-02    2     2000003        -3   # BR(~g -> ~s_R  sb)
     8.31312114E-02    2    -2000003         3   # BR(~g -> ~s_R* s )
     4.01644409E-02    2     1000004        -4   # BR(~g -> ~c_L  cb)
     4.01644409E-02    2    -1000004         4   # BR(~g -> ~c_L* c )
     8.64948737E-02    2     2000004        -4   # BR(~g -> ~c_R  cb)
     8.64948737E-02    2    -2000004         4   # BR(~g -> ~c_R* c )
     2.50114681E-04    2     1000005        -5   # BR(~g -> ~b_1  bb)
     2.50114681E-04    2    -1000005         5   # BR(~g -> ~b_1* b )
#
#         PDG            Width
DECAY   1000006     9.63097371E+01   # stop1 decays
#          BR         NDA      ID1       ID2
     2.27952636E-01    2     1000022         6   # BR(~t_1 -> ~chi_10 t )
     2.32238127E-01    2     1000023         6   # BR(~t_1 -> ~chi_20 t )
     7.92938110E-02    2     1000025         6   # BR(~t_1 -> ~chi_30 t )
     1.32778709E-02    2     1000035         6   # BR(~t_1 -> ~chi_40 t )
     2.50234827E-01    2     1000024         5   # BR(~t_1 -> ~chi_1+ b )
     1.55567516E-01    2     1000037         5   # BR(~t_1 -> ~chi_2+ b )
     4.13676177E-02    2     1000021         6   # BR(~t_1 -> ~g      t )
     6.75943398E-05    2     1000005        24   # BR(~t_1 -> ~b_1    W+)
#
#         PDG            Width
DECAY   2000006     1.14709174E+02   # stop2 decays
#          BR         NDA      ID1       ID2
     1.97410787E-01    2     1000022         6   # BR(~t_2 -> ~chi_10 t )
     2.01012121E-01    2     1000023         6   # BR(~t_2 -> ~chi_20 t )
     2.30312800E-02    2     1000025         6   # BR(~t_2 -> ~chi_30 t )
     4.35371950E-02    2     1000035         6   # BR(~t_2 -> ~chi_40 t )
     3.49711666E-01    2     1000024         5   # BR(~t_2 -> ~chi_1+ b )
     4.55808885E-02    2     1000037         5   # BR(~t_2 -> ~chi_2+ b )
     7.20301748E-02    2     1000021         6   # BR(~t_2 -> ~g      t )
     1.20339148E-02    2     1000006        25   # BR(~t_2 -> ~t_1    h )
     2.32239254E-02    2     1000006        23   # BR(~t_2 -> ~t_1    Z )
     4.85288918E-05    2     1000005        24   # BR(~t_2 -> ~b_1    W+)
     3.23795185E-02    2     2000005        24   # BR(~t_2 -> ~b_2    W+)
#
#         PDG            Width
DECAY   1000005     3.32189479E+01   # sbottom1 decays
#          BR         NDA      ID1       ID2
     2.44796774E-01    2     1000022         5   # BR(~b_1 -> ~chi_10 b )
     2.40376485E-01    2     1000023         5   # BR(~b_1 -> ~chi_20 b )
     8.48649794E-08    2     1000025         5   # BR(~b_1 -> ~chi_30 b )
     3.28698618E-02    2     1000035         5   # BR(~b_1 -> ~chi_40 b )
     4.81956375E-01    2    -1000024         6   # BR(~b_1 -> ~chi_1- t )
     4.20034293E-07    2    -1000037         6   # BR(~b_1 -> ~chi_2- t )
#
#         PDG            Width
DECAY   2000005     9.71713954E+01   # sbottom2 decays
#          BR         NDA      ID1       ID2
     9.37897475E-02    2     1000022         5   # BR(~b_2 -> ~chi_10 b )
     9.21859894E-02    2     1000023         5   # BR(~b_2 -> ~chi_20 b )
     1.02228168E-01    2     1000025         5   # BR(~b_2 -> ~chi_30 b )
     3.54880189E-03    2     1000035         5   # BR(~b_2 -> ~chi_40 b )
     4.51273114E-01    2    -1000024         6   # BR(~b_2 -> ~chi_1- t )
     2.07999490E-01    2    -1000037         6   # BR(~b_2 -> ~chi_2- t )
     4.88576758E-02    2     1000021         5   # BR(~b_2 -> ~g      b )
     6.31961852E-05    2     1000005        25   # BR(~b_2 -> ~b_1    h )
     5.38170347E-05    2     1000005        23   # BR(~b_2 -> ~b_1    Z )
#
#         PDG            Width
DECAY   1000002     7.00994673E+00   # sup_L decays
#          BR         NDA      ID1       ID2
     2.86048817E-03    2     1000022         2   # BR(~u_L -> ~chi_10 u)
     2.00451346E-03    2     1000023         2   # BR(~u_L -> ~chi_20 u)
     3.24234133E-01    2     1000025         2   # BR(~u_L -> ~chi_30 u)
     8.75024592E-03    2     1000035         2   # BR(~u_L -> ~chi_40 u)
     1.60453882E-02    2     1000024         1   # BR(~u_L -> ~chi_1+ d)
     6.46105231E-01    2     1000037         1   # BR(~u_L -> ~chi_2+ d)
#
#         PDG            Width
DECAY   2000002     2.55679633E-03   # sup_R decays
#           BR         NDA      ID1       ID2
     3.03507312E-01    2     1000022         2   # BR(~u_R -> ~chi_10 u)
     5.88231230E-01    2     1000023         2   # BR(~u_R -> ~chi_20 u)
#           BR         NDA      ID1       ID2       ID3
     1.14142842E-02    3        2       -15        1000015   # BR(~u_R -> u  tau+  ~tau_1-)
     2.76158093E-03    3        2       15        -1000015   # BR(~u_R -> u  tau-  ~tau_1+)
     1.20619697E-02    3        2       -16        1000016   # BR(~u_R -> u  nu_taub  ~nu_tau1)
     3.00833504E-03    3        2       16        -1000016   # BR(~u_R -> u  nu_tau  ~nu_tau1*)
     1.48846428E-02    3        2       23        1000022   # BR(~u_R -> u  Z  ~chi_10)
     4.64018188E-03    3        2       25        1000022   # BR(~u_R -> u  h  ~chi_10)
     7.12727869E-03    3        2       23        1000023   # BR(~u_R -> u  Z  ~chi_20)
     1.29228127E-02    3        2       25        1000023   # BR(~u_R -> u  h  ~chi_20)
     6.78466243E-03    3        2       -24        1000024   # BR(~u_R -> u  W-  ~chi_1+)
     3.26557102E-02    3        2       24        -1000024   # BR(~u_R -> u  W+  ~chi_1-)
#
#         PDG            Width
DECAY   1000001     6.94692587E+00   # sdown_L decays
#          BR         NDA      ID1       ID2
     2.15186050E-03    2     1000022         1   # BR(~d_L -> ~chi_10 d)
     1.20676889E-03    2     1000023         1   # BR(~d_L -> ~chi_20 d)
     3.28532831E-01    2     1000025         1   # BR(~d_L -> ~chi_30 d)
     9.03141036E-03    2     1000035         1   # BR(~d_L -> ~chi_40 d)
     2.25123161E-04    2    -1000024         2   # BR(~d_L -> ~chi_1- u)
     6.58852006E-01    2    -1000037         2   # BR(~d_L -> ~chi_2- u)
#
#         PDG            Width
DECAY   2000001     7.19571263E-04   # sdown_R decays
#           BR         NDA      ID1       ID2
     2.92376235E-01    2     1000022         1   # BR(~d_R -> ~chi_10 d)
     5.66867913E-01    2     1000023         1   # BR(~d_R -> ~chi_20 d)
#           BR         NDA      ID1       ID2       ID3
     1.41181291E-05    3        1       -2        2000002   # BR(~d_R -> d  ub  ~u_R)
     1.01133833E-04    3        1       2        -2000002   # BR(~d_R -> d  u  ~u_R*)
     1.40806068E-05    3        1       -4        2000004   # BR(~d_R -> d  cb  ~c_R)
     9.97844184E-05    3        1       4        -2000004   # BR(~d_R -> d  c  ~c_R*)
     1.64917648E-02    3        1       -15        1000015   # BR(~d_R -> d  tau+  ~tau_1-)
     4.61288571E-03    3        1       15        -1000015   # BR(~d_R -> d  tau-  ~tau_1+)
     1.72477705E-02    3        1       -16        1000016   # BR(~d_R -> d  nu_taub  ~nu_tau1)
     5.00700929E-03    3        1       16        -1000016   # BR(~d_R -> d  nu_tau  ~nu_tau1*)
     1.69475917E-02    3        1       23        1000022   # BR(~d_R -> d  Z  ~chi_10)
     6.01719416E-03    3        1       25        1000022   # BR(~d_R -> d  h  ~chi_10)
     6.62033108E-03    3        1       23        1000023   # BR(~d_R -> d  Z  ~chi_20)
     1.67280166E-02    3        1       25        1000023   # BR(~d_R -> d  h  ~chi_20)
     9.66853508E-03    3        1       -24        1000024   # BR(~d_R -> d  W-  ~chi_1+)
     4.11856358E-02    3        1       24        -1000024   # BR(~d_R -> d  W+  ~chi_1-)
#
#         PDG            Width
DECAY   1000004     6.92277593E+00   # scharm_L decays
#          BR         NDA      ID1       ID2
     2.89263681E-03    2     1000022         4   # BR(~c_L -> ~chi_10 c)
     2.02699472E-03    2     1000023         4   # BR(~c_L -> ~chi_20 c)
     3.24166539E-01    2     1000025         4   # BR(~c_L -> ~chi_30 c)
     8.71819751E-03    2     1000035         4   # BR(~c_L -> ~chi_40 c)
     1.62255283E-02    2     1000024         3   # BR(~c_L -> ~chi_1+ s)
     6.45970104E-01    2     1000037         3   # BR(~c_L -> ~chi_2+ s)
#
#         PDG            Width
DECAY   2000004     2.48002077E-03   # scharm_R decays
#           BR         NDA      ID1       ID2
     3.02428230E-01    2     1000022         4   # BR(~c_R -> ~chi_10 c)
     5.86126655E-01    2     1000023         4   # BR(~c_R -> ~chi_20 c)
#           BR         NDA      ID1       ID2       ID3
     1.17011117E-02    3        4       -15        1000015   # BR(~c_R -> c  tau+  ~tau_1-)
     2.86207280E-03    3        4       15        -1000015   # BR(~c_R -> c  tau-  ~tau_1+)
     1.24821535E-02    3        4       -16        1000016   # BR(~c_R -> c  nu_taub  ~nu_tau1)
     3.09642568E-03    3        4       16        -1000016   # BR(~c_R -> c  nu_tau  ~nu_tau1*)
     1.52595496E-02    3        4       23        1000022   # BR(~c_R -> c  Z  ~chi_10)
     4.74471832E-03    3        4       25        1000022   # BR(~c_R -> c  h  ~chi_10)
     7.32534187E-03    3        4       23        1000023   # BR(~c_R -> c  Z  ~chi_20)
     1.34252908E-02    3        4       25        1000023   # BR(~c_R -> c  h  ~chi_20)
     6.99550592E-03    3        4       -24        1000024   # BR(~c_R -> c  W-  ~chi_1+)
     3.35529448E-02    3        4       24        -1000024   # BR(~c_R -> c  W+  ~chi_1-)
#
#         PDG            Width
DECAY   1000003     6.85964395E+00   # sstrange_L decays
#          BR         NDA      ID1       ID2
     2.17642677E-03    2     1000022         3   # BR(~s_L -> ~chi_10 s)
     1.22051730E-03    2     1000023         3   # BR(~s_L -> ~chi_20 s)
     3.28531446E-01    2     1000025         3   # BR(~s_L -> ~chi_30 s)
     9.00031566E-03    2     1000035         3   # BR(~s_L -> ~chi_40 s)
     2.27690096E-04    2    -1000024         4   # BR(~s_L -> ~chi_1- c)
     6.58843604E-01    2    -1000037         4   # BR(~s_L -> ~chi_2- c)
#
#         PDG            Width
DECAY   2000003     7.01091587E-04   # sstrange_R decays
#           BR         NDA      ID1       ID2
     2.91083601E-01    2     1000022         3   # BR(~s_R -> ~chi_10 s)
     5.64348648E-01    2     1000023         3   # BR(~s_R -> ~chi_20 s)
#           BR         NDA      ID1       ID2       ID3
     1.45843998E-05    3        3       -2        2000002   # BR(~s_R -> s  ub  ~u_R)
     1.03688307E-04    3        3       2        -2000002   # BR(~s_R -> s  u  ~u_R*)
     1.47184764E-05    3        3       -4        2000004   # BR(~s_R -> s  cb  ~c_R)
     1.03830942E-04    3        3       4        -2000004   # BR(~s_R -> s  c  ~c_R*)
     1.69264618E-02    3        3       -15        1000015   # BR(~s_R -> s  tau+  ~tau_1-)
     4.73447416E-03    3        3       15        -1000015   # BR(~s_R -> s  tau-  ~tau_1+)
     1.77023947E-02    3        3       -16        1000016   # BR(~s_R -> s  nu_taub  ~nu_tau1)
     5.13898621E-03    3        3       16        -1000016   # BR(~s_R -> s  nu_tau  ~nu_tau1*)
     1.73943037E-02    3        3       23        1000022   # BR(~s_R -> s  Z  ~chi_10)
     6.27592754E-03    3        3       25        1000022   # BR(~s_R -> s  h  ~chi_10)
     6.79483264E-03    3        3       23        1000023   # BR(~s_R -> s  Z  ~chi_20)
     1.71689409E-02    3        3       25        1000023   # BR(~s_R -> s  h  ~chi_20)
     9.92338252E-03    3        3       -24        1000024   # BR(~s_R -> s  W-  ~chi_1+)
     4.22712247E-02    3        3       24        -1000024   # BR(~s_R -> s  W+  ~chi_1-)
#
#         PDG            Width
DECAY   1000011     1.24672142E+01   # selectron_L decays
#          BR         NDA      ID1       ID2
     2.39260787E-03    2     1000022        11   # BR(~e_L -> ~chi_10 e-)
     1.95602820E-03    2     1000023        11   # BR(~e_L -> ~chi_20 e-)
     3.03340905E-01    2     1000025        11   # BR(~e_L -> ~chi_30 e-)
     8.28669655E-02    2     1000035        11   # BR(~e_L -> ~chi_40 e-)
     1.44275246E-04    2    -1000024        12   # BR(~e_L -> ~chi_1- nu_e)
     6.09299218E-01    2    -1000037        12   # BR(~e_L -> ~chi_2- nu_e)
#
#         PDG            Width
DECAY   2000011     1.07299743E+01   # selectron_R decays
#          BR         NDA      ID1       ID2
     5.17561393E-04    2     1000022        11   # BR(~e_R -> ~chi_10 e-)
     1.00540268E-03    2     1000023        11   # BR(~e_R -> ~chi_20 e-)
     9.33045104E-07    2     1000025        11   # BR(~e_R -> ~chi_30 e-)
     9.98476103E-01    2     1000035        11   # BR(~e_R -> ~chi_40 e-)
#
#         PDG            Width
DECAY   1000013     1.24672142E+01   # smuon_L decays
#          BR         NDA      ID1       ID2
     2.39260787E-03    2     1000022        13   # BR(~mu_L -> ~chi_10 mu-)
     1.95602820E-03    2     1000023        13   # BR(~mu_L -> ~chi_20 mu-)
     3.03340903E-01    2     1000025        13   # BR(~mu_L -> ~chi_30 mu-)
     8.28669648E-02    2     1000035        13   # BR(~mu_L -> ~chi_40 mu-)
     1.44275246E-04    2    -1000024        14   # BR(~mu_L -> ~chi_1- nu_mu)
     6.09299221E-01    2    -1000037        14   # BR(~mu_L -> ~chi_2- nu_mu)
#
#         PDG            Width
DECAY   2000013     1.07299742E+01   # smuon_R decays
#          BR         NDA      ID1       ID2
     5.17561394E-04    2     1000022        13   # BR(~mu_R -> ~chi_10 mu-)
     1.00540268E-03    2     1000023        13   # BR(~mu_R -> ~chi_20 mu-)
     9.33045104E-07    2     1000025        13   # BR(~mu_R -> ~chi_30 mu-)
     9.98476103E-01    2     1000035        13   # BR(~mu_R -> ~chi_40 mu-)
#
#         PDG            Width
DECAY   1000015     5.58250322E-01   # stau_1 decays
#          BR         NDA      ID1       ID2
     5.10931131E-01    2     1000022        15   # BR(~tau_1 -> ~chi_10  tau-)
     4.88707670E-01    2     1000023        15   # BR(~tau_1 -> ~chi_20  tau-)
     3.61198884E-04    2    -1000024        16   # BR(~tau_1 -> ~chi_1-  nu_tau)
#
#         PDG            Width
DECAY   2000015     2.44093656E+01   # stau_2 decays
#          BR         NDA      ID1       ID2
     1.61538718E-01    2     1000022        15   # BR(~tau_2 -> ~chi_10  tau-)
     1.59041289E-01    2     1000023        15   # BR(~tau_2 -> ~chi_20  tau-)
     1.75336867E-05    2     1000025        15   # BR(~tau_2 -> ~chi_30  tau-)
     3.55155959E-01    2     1000035        15   # BR(~tau_2 -> ~chi_40  tau-)
     3.19954062E-01    2    -1000024        16   # BR(~tau_2 -> ~chi_1-  nu_tau)
     3.45701919E-05    2    -1000037        16   # BR(~tau_2 -> ~chi_2-  nu_tau)
     2.07884609E-03    2     1000016       -24   # BR(~tau_2 -> ~nu_tauL W-)
     1.11133713E-03    2     1000015        25   # BR(~tau_2 -> ~tau_1   h)
     1.06768472E-03    2     1000015        23   # BR(~tau_2 -> ~tau_1   Z)
#
#         PDG            Width
DECAY   1000012     1.24876046E+01   # snu_eL decays
#          BR         NDA      ID1       ID2
     9.73850895E-04    2     1000022        12   # BR(~nu_eL -> ~chi_10 nu_e)
     3.83331026E-04    2     1000023        12   # BR(~nu_eL -> ~chi_20 nu_e)
     3.02751054E-01    2     1000025        12   # BR(~nu_eL -> ~chi_30 nu_e)
     8.29966780E-02    2     1000035        12   # BR(~nu_eL -> ~chi_40 nu_e)
     1.03591266E-02    2     1000024        11   # BR(~nu_eL -> ~chi_1+ e-)
     6.02535960E-01    2     1000037        11   # BR(~nu_eL -> ~chi_2+ e-)
#
#         PDG            Width
DECAY   1000014     1.24876045E+01   # snu_muL decays
#          BR         NDA      ID1       ID2
     9.73850902E-04    2     1000022        14   # BR(~nu_muL -> ~chi_10 nu_mu)
     3.83331028E-04    2     1000023        14   # BR(~nu_muL -> ~chi_20 nu_mu)
     3.02751056E-01    2     1000025        14   # BR(~nu_muL -> ~chi_30 nu_mu)
     8.29966786E-02    2     1000035        14   # BR(~nu_muL -> ~chi_40 nu_mu)
     1.03591266E-02    2     1000024        13   # BR(~nu_muL -> ~chi_1+ mu-)
     6.02535957E-01    2     1000037        13   # BR(~nu_muL -> ~chi_2+ mu-)
#
#         PDG            Width
DECAY   1000016     5.34415224E-01   # snu_tauL decays
#          BR         NDA      ID1       ID2
     1.99164071E-03    2     1000022        16   # BR(~nu_tauL -> ~chi_10 nu_tau)
     7.63407316E-04    2     1000023        16   # BR(~nu_tauL -> ~chi_20 nu_tau)
     9.97244952E-01    2     1000024        15   # BR(~nu_tauL -> ~chi_1+ tau-)
#
#         PDG            Width
DECAY   1000024     1.70894472E-11   # chargino1+ decays
#           BR         NDA      ID1       ID2       ID3
     5.99935197E-01    3     1000022         2        -1   # BR(~chi_1+ -> ~chi_10 u    db)
     1.99977759E-01    3     1000022       -11        12   # BR(~chi_1+ -> ~chi_10 e+   nu_e)
     1.99977759E-01    3     1000022       -13        14   # BR(~chi_1+ -> ~chi_10 mu+  nu_mu)
     1.09285533E-04    3     1000022       -15        16   # BR(~chi_1+ -> ~chi_10 tau+ nu_tau)
#
#         PDG            Width
DECAY   1000037     1.98418874E+01   # chargino2+ decays
#          BR         NDA      ID1       ID2
     2.34966998E-01    2     1000016       -15   # BR(~chi_2+ -> ~nu_tau1 tau+)
     2.34816817E-01    2    -1000015        16   # BR(~chi_2+ -> ~tau_1+  nu_tau)
     1.34724192E-01    2     1000024        23   # BR(~chi_2+ -> ~chi_1+  Z )
     1.30213310E-01    2     1000022        24   # BR(~chi_2+ -> ~chi_10  W+)
     1.32485300E-01    2     1000023        24   # BR(~chi_2+ -> ~chi_20  W+)
     1.32793382E-01    2     1000024        25   # BR(~chi_2+ -> ~chi_1+  h )
#
#         PDG            Width
DECAY   1000022     0.00000000E+00   # neutralino1 decays
#
#         PDG            Width
DECAY   1000023     4.55075759E-10   # neutralino2 decays
#          BR         NDA      ID1       ID2
     1.59194211E-01    2     1000022        22   # BR(~chi_20 -> ~chi_10 gam)
#           BR         NDA      ID1       ID2       ID3
     1.17340128E-01    3     1000022        -2         2   # BR(~chi_20 -> ~chi_10 ub      u)
     1.52303518E-01    3     1000022        -1         1   # BR(~chi_20 -> ~chi_10 db      d)
     1.17340128E-01    3     1000022        -4         4   # BR(~chi_20 -> ~chi_10 cb      c)
     1.52303518E-01    3     1000022        -3         3   # BR(~chi_20 -> ~chi_10 sb      s)
     3.49830452E-02    3     1000022       -11        11   # BR(~chi_20 -> ~chi_10 e+      e-)
     3.49830452E-02    3     1000022       -13        13   # BR(~chi_20 -> ~chi_10 mu+     mu-)
     6.99489323E-02    3     1000022       -12        12   # BR(~chi_20 -> ~chi_10 nu_eb   nu_e)
     6.99489323E-02    3     1000022       -14        14   # BR(~chi_20 -> ~chi_10 nu_mub  nu_mu)
     6.99563324E-02    3     1000022       -16        16   # BR(~chi_20 -> ~chi_10 nu_taub nu_tau)
     6.50947242E-03    3     1000024        -2         1   # BR(~chi_20 -> ~chi_1+ ub      d)
     6.50947242E-03    3    -1000024        -1         2   # BR(~chi_20 -> ~chi_1- db      u)
     2.16981607E-03    3     1000024       -12        11   # BR(~chi_20 -> ~chi_1+ nu_eb   e-)
     2.16981607E-03    3    -1000024        12       -11   # BR(~chi_20 -> ~chi_1- nu_e    e+)
     2.16981607E-03    3     1000024       -14        13   # BR(~chi_20 -> ~chi_1+ nu_mub  mu-)
     2.16981607E-03    3    -1000024        14       -13   # BR(~chi_20 -> ~chi_1- nu_mu   mu+)
#
#         PDG            Width
DECAY   1000025     1.98389947E+01   # neutralino3 decays
#          BR         NDA      ID1       ID2
     5.14038691E-02    2     1000022        23   # BR(~chi_30 -> ~chi_10   Z )
     8.32327645E-02    2     1000023        23   # BR(~chi_30 -> ~chi_20   Z )
     1.32042125E-01    2     1000024       -24   # BR(~chi_30 -> ~chi_1+   W-)
     1.32042125E-01    2    -1000024        24   # BR(~chi_30 -> ~chi_1-   W+)
     8.08499785E-02    2     1000022        25   # BR(~chi_30 -> ~chi_10   h )
     5.06449006E-02    2     1000023        25   # BR(~chi_30 -> ~chi_20   h )
     3.66685077E-08    2     2000002        -2   # BR(~chi_30 -> ~u_R      ub)
     3.66685077E-08    2    -2000002         2   # BR(~chi_30 -> ~u_R*     u )
     5.45629165E-09    2     2000001        -1   # BR(~chi_30 -> ~d_R      db)
     5.45629165E-09    2    -2000001         1   # BR(~chi_30 -> ~d_R*     d )
     3.66681570E-08    2     2000004        -4   # BR(~chi_30 -> ~c_R      cb)
     3.66681570E-08    2    -2000004         4   # BR(~chi_30 -> ~c_R*     c )
     5.45629165E-09    2     2000003        -3   # BR(~chi_30 -> ~s _R      sb)
     5.45629165E-09    2    -2000003         3   # BR(~chi_30 -> ~s _R*     s )
     1.16874964E-01    2     1000015       -15   # BR(~chi_30 -> ~tau_1-   tau+)
     1.16874964E-01    2    -1000015        15   # BR(~chi_30 -> ~tau_1+   tau-)
     1.18017071E-01    2     1000016       -16   # BR(~chi_30 -> ~nu_tau1  nu_taub)
     1.18017071E-01    2    -1000016        16   # BR(~chi_30 -> ~nu_tau1* nu_tau )
#
#         PDG            Width
DECAY   1000035     1.28736011E+01   # neutralino4 decays
#          BR         NDA      ID1       ID2
     4.53049447E-02    2     1000022        23   # BR(~chi_40 -> ~chi_10   Z )
     2.42814335E-02    2     1000023        23   # BR(~chi_40 -> ~chi_20   Z )
     4.09475338E-08    2     1000025        23   # BR(~chi_40 -> ~chi_30   Z )
     6.77937283E-02    2     1000024       -24   # BR(~chi_40 -> ~chi_1+   W-)
     6.77937283E-02    2    -1000024        24   # BR(~chi_40 -> ~chi_1-   W+)
     1.25933550E-07    2     1000037       -24   # BR(~chi_40 -> ~chi_2+   W-)
     1.25933550E-07    2    -1000037        24   # BR(~chi_40 -> ~chi_2-   W+)
     2.54445987E-02    2     1000022        25   # BR(~chi_40 -> ~chi_10   h )
     4.96076333E-02    2     1000023        25   # BR(~chi_40 -> ~chi_20   h )
     9.79185692E-02    2     2000002        -2   # BR(~chi_40 -> ~u_R      ub)
     9.79185692E-02    2    -2000002         2   # BR(~chi_40 -> ~u_R*     u )
     1.70092761E-02    2     2000001        -1   # BR(~chi_40 -> ~d_R      db)
     1.70092761E-02    2    -2000001         1   # BR(~chi_40 -> ~d_R*     d )
     9.79180697E-02    2     2000004        -4   # BR(~chi_40 -> ~c_R      cb)
     9.79180697E-02    2    -2000004         4   # BR(~chi_40 -> ~c_R*     c )
     1.70092761E-02    2     2000003        -3   # BR(~chi_40 -> ~s _R      sb)
     1.70092761E-02    2    -2000003         3   # BR(~chi_40 -> ~s _R*     s )
     6.46069292E-02    2     1000015       -15   # BR(~chi_40 -> ~tau_1-   tau+)
     6.46069292E-02    2    -1000015        15   # BR(~chi_40 -> ~tau_1+   tau-)
     6.54247001E-02    2     1000016       -16   # BR(~chi_40 -> ~nu_tau1  nu_taub)
     6.54247001E-02    2    -1000016        16   # BR(~chi_40 -> ~nu_tau1* nu_tau )
#
#         PDG            Width
DECAY        25     4.21679177E-03   # h decays
#          BR         NDA      ID1       ID2
     5.64168061E-01    2           5        -5   # BR(h -> b       bb     )
     6.24315112E-02    2         -15        15   # BR(h -> tau+    tau-   )
     2.20952464E-04    2         -13        13   # BR(h -> mu+     mu-    )
     2.40601653E-04    2           3        -3   # BR(h -> s       sb     )
     2.07865161E-02    2           4        -4   # BR(h -> c       cb     )
     7.86229927E-02    2          21        21   # BR(h -> g       g      )
     2.35694153E-03    2          22        22   # BR(h -> gam     gam    )
     1.71219659E-03    2          22        23   # BR(h -> Z       gam    )
     2.38950681E-01    2          24       -24   # BR(h -> W+      W-     )
     3.05095457E-02    2          23        23   # BR(h -> Z       Z      )
#
#         PDG            Width
DECAY        35     1.04822201E+02   # H decays
#          BR         NDA      ID1       ID2
     5.46555536E-01    2           5        -5   # BR(H -> b       bb     )
     1.10522264E-01    2         -15        15   # BR(H -> tau+    tau-   )
     3.69263323E-04    2         -13        13   # BR(H -> mu+     mu-    )
     2.44962160E-04    2           3        -3   # BR(H -> s       sb     )
     9.06643311E-09    2           4        -4   # BR(H -> c       cb     )
     8.93570872E-04    2           6        -6   # BR(H -> t       tb     )
     6.74126405E-06    2          21        21   # BR(H -> g       g      )
     8.93407007E-09    2          22        22   # BR(H -> gam     gam    )
     4.03896755E-09    2          23        22   # BR(H -> Z       gam    )
     3.43340730E-07    2          24       -24   # BR(H -> W+      W-     )
     1.71349143E-07    2          23        23   # BR(H -> Z       Z      )
     1.25278748E-06    2          25        25   # BR(H -> h       h      )
     1.99514529E-03    2     1000024  -1000024   # BR(H -> ~chi_1+ ~chi_1-)
     1.08323076E-05    2     1000037  -1000037   # BR(H -> ~chi_2+ ~chi_2-)
     1.00757616E-01    2     1000024  -1000037   # BR(H -> ~chi_1+ ~chi_2-)
     1.00757616E-01    2     1000037  -1000024   # BR(H -> ~chi_2+ ~chi_1-)
     2.04769894E-04    2     1000022   1000022   # BR(H -> ~chi_10 ~chi_10)
     7.44515036E-05    2     1000023   1000023   # BR(H -> ~chi_20 ~chi_20)
     5.40828322E-06    2     1000025   1000025   # BR(H -> ~chi_30 ~chi_30)
     2.46924519E-07    2     1000035   1000035   # BR(H -> ~chi_40 ~chi_40)
     9.37406064E-06    2     1000022   1000023   # BR(H -> ~chi_10 ~chi_20)
     5.10667451E-02    2     1000022   1000025   # BR(H -> ~chi_10 ~chi_30)
     1.55130139E-02    2     1000022   1000035   # BR(H -> ~chi_10 ~chi_40)
     5.01509285E-02    2     1000023   1000025   # BR(H -> ~chi_20 ~chi_30)
     1.23041187E-02    2     1000023   1000035   # BR(H -> ~chi_20 ~chi_40)
     6.47047227E-06    2     1000025   1000035   # BR(H -> ~chi_30 ~chi_40)
     3.57383955E-08    2     2000002  -2000002   # BR(H -> ~u_R    ~u_R*  )
     3.57383955E-08    2     2000004  -2000004   # BR(H -> ~c_R    ~c_R*  )
     8.54040411E-09    2     2000001  -2000001   # BR(H -> ~d_R    ~d_R*  )
     8.54040411E-09    2     2000003  -2000003   # BR(H -> ~s_R    ~s_R*  )
     2.33074870E-07    2     1000015  -1000015   # BR(H -> ~tau_1- ~tau_1+)
     4.27432529E-03    2     1000015  -2000015   # BR(H -> ~tau_1- ~tau_2+)
     4.27432529E-03    2     2000015  -1000015   # BR(H -> ~tau_2- ~tau_1+)
     1.63037032E-07    2     1000016  -1000016   # BR(H -> ~nu_tauL ~nu_tauL*)
#
#         PDG            Width
DECAY        36     1.04824601E+02   # A decays
#          BR         NDA      ID1       ID2
     5.46555150E-01    2           5        -5   # BR(A -> b       bb     )
     1.10519990E-01    2         -15        15   # BR(A -> tau+    tau-   )
     3.69255372E-04    2         -13        13   # BR(A -> mu+     mu-    )
     2.44968471E-04    2           3        -3   # BR(A -> s       sb     )
     9.11439265E-09    2           4        -4   # BR(A -> c       cb     )
     8.95636251E-04    2           6        -6   # BR(A -> t       tb     )
     1.50163709E-05    2          21        21   # BR(A -> g       g      )
     5.92083923E-10    2          22        22   # BR(A -> gam     gam    )
     1.14932617E-08    2          23        22   # BR(A -> Z       gam    )
     3.48137085E-07    2          23        25   # BR(A -> Z       h      )
     1.99593026E-03    2     1000024  -1000024   # BR(A -> ~chi_1+ ~chi_1-)
     1.08074240E-05    2     1000037  -1000037   # BR(A -> ~chi_2+ ~chi_2-)
     1.00756006E-01    2     1000024  -1000037   # BR(A -> ~chi_1+ ~chi_2-)
     1.00756006E-01    2     1000037  -1000024   # BR(A -> ~chi_2+ ~chi_1-)
     1.87065800E-04    2     1000022   1000022   # BR(A -> ~chi_10 ~chi_10)
     8.37239638E-05    2     1000023   1000023   # BR(A -> ~chi_20 ~chi_20)
     5.40402902E-06    2     1000025   1000025   # BR(A -> ~chi_30 ~chi_30)
     1.49886995E-06    2     1000035   1000035   # BR(A -> ~chi_40 ~chi_40)
     1.50423989E-05    2     1000022   1000023   # BR(A -> ~chi_10 ~chi_20)
     5.09681723E-02    2     1000022   1000025   # BR(A -> ~chi_10 ~chi_30)
     1.25222134E-02    2     1000022   1000035   # BR(A -> ~chi_10 ~chi_40)
     5.02499014E-02    2     1000023   1000025   # BR(A -> ~chi_20 ~chi_30)
     1.52969137E-02    2     1000023   1000035   # BR(A -> ~chi_20 ~chi_40)
     2.31582310E-06    2     1000025   1000035   # BR(A -> ~chi_30 ~chi_40)
     4.27430626E-03    2     1000015  -2000015   # BR(A -> ~tau_1- ~tau_2+)
     4.27430626E-03    2    -1000015   2000015   # BR(A -> ~tau_1+ ~tau_2-)
#
#         PDG            Width
DECAY        37     1.05252247E+02   # H+ decays
#          BR         NDA      ID1       ID2
     9.21163583E-04    2           4        -5   # BR(H+ -> c       bb     )
     1.10113525E-01    2         -15        16   # BR(H+ -> tau+    nu_tau )
     3.67897341E-04    2         -13        14   # BR(H+ -> mu+     nu_mu  )
     9.21162766E-06    2           2        -5   # BR(H+ -> u       bb     )
     1.22100753E-05    2           2        -3   # BR(H+ -> u       sb     )
     2.40340068E-04    2           4        -3   # BR(H+ -> c       sb     )
     5.48331937E-01    2           6        -5   # BR(H+ -> t       bb     )
     3.47285457E-07    2          24        25   # BR(H+ -> W+      h      )
     5.66212115E-14    2          24        36   # BR(H+ -> W+      A      )
     3.03958160E-04    2     1000024   1000022   # BR(H+ -> ~chi_1+ ~chi_10)
     5.16299868E-04    2     1000024   1000023   # BR(H+ -> ~chi_1+ ~chi_20)
     1.00698496E-01    2     1000024   1000025   # BR(H+ -> ~chi_1+ ~chi_30)
     2.75419772E-02    2     1000024   1000035   # BR(H+ -> ~chi_1+ ~chi_40)
     1.02119147E-01    2     1000037   1000022   # BR(H+ -> ~chi_2+ ~chi_10)
     1.00156385E-01    2     1000037   1000023   # BR(H+ -> ~chi_2+ ~chi_20)
     2.84203817E-12    2     1000037   1000025   # BR(H+ -> ~chi_2+ ~chi_30)
     8.77164166E-06    2     1000037   1000035   # BR(H+ -> ~chi_2+ ~chi_40)
     3.90719265E-07    2    -1000015   1000016   # BR(H+ -> ~tau_1+ ~nu_tauL)
     8.65794359E-03    2    -2000015   1000016   # BR(H+ -> ~tau_2+ ~nu_tauL)
