#
#                              ======================
#                              | THE SUSYHIT OUTPUT |
#                              ======================
#
#
#              ------------------------------------------------------
#              |     This is the output of the SUSY-HIT package     |
#              |  created by A.Djouadi, M.Muehlleitner and M.Spira. |
#              |  In case of problems with SUSY-HIT email to        |
#              |           margarete.muehlleitner@cern.ch           |
#              |           michael.spira@psi.ch                     |
#              |           abdelhak.djouadi@cern.ch                 |
#              ------------------------------------------------------
#
#              ------------------------------------------------------
#              |  SUSY Les Houches Accord - MSSM Spectrum + Decays  |
#              |              based on the decay programs           |
#              |                                                    |
#              |                     SDECAY 1.3b                    |
#              |                                                    |
#              |  Authors: M.Muhlleitner, A.Djouadi and Y.Mambrini  |
#              |  Ref.:    Comput.Phys.Commun.168(2005)46           |
#              |           [hep-ph/0311167]                         |
#              |                                                    |
#              |                     HDECAY 3.4                     |
#              |                                                    |
#              |  By: A.Djouadi,J.Kalinowski,M.Muhlleitner,M.Spira  |
#              |  Ref.:    Comput.Phys.Commun.108(1998)56           |
#              |           [hep-ph/9704448]                         |
#              |                                                    |
#              |                                                    |
#              |  If not stated otherwise all DRbar couplings and   |
#              |  soft SUSY breaking masses are given at the scale  |
#              |  Q=  0.29197210E+04
#              |                                                    |
#              ------------------------------------------------------
#
#
BLOCK DCINFO  # Decay Program information
     1   SDECAY/HDECAY # decay calculator
     2   1.3b  /3.4    # version number
#
BLOCK SPINFO  # Spectrum calculator information
     1     SOFTSUSY    # spectrum calculator               
     2     3.4.0       # version number                    
#
BLOCK MODSEL  # Model selection
     1     0   #  nonUniversal                                     
#
BLOCK SMINPUTS  # Standard Model inputs
         1     1.27908970E+02   # alpha_em^-1(M_Z)^MSbar
         2     1.16637870E-05   # G_F [GeV^-2]
         3     1.18400000E-01   # alpha_S(M_Z)^MSbar
         4     9.11876000E+01   # M_Z pole mass
         5     4.18000000E+00   # mb(mb)^MSbar
         6     1.73200000E+02   # mt pole mass
         7     1.77700000E+00   # mtau pole mass
#
BLOCK MINPAR  # Input parameters - minimal models
         3     1.92500000E+01   # tanb                
#
BLOCK EXTPAR  # Input parameters - non-minimal models
         0    -1.00000000E+00   # Set                 
         1    -1.16120000E+03   # M_1(MX)             
         2     3.80370000E+02   # M_2(MX)             
         3     1.45092000E+03   # M_3(MX)             
        11     3.68011000E+03   # At(MX)              
        12    -1.90965000E+03   # Ab(MX)              
        13    -1.67630000E+03   # Atau(MX)            
        23    -3.78325000E+03   # mu(MX)              
        26     2.56832000E+03   # mA(pole)            
        31     3.78537000E+03   # meL(MX)             
        32     3.78537000E+03   # mmuL(MX)            
        33     2.93749000E+03   # mtauL(MX)           
        34     1.59977000E+03   # meR(MX)             
        35     1.59977000E+03   # mmuR(MX)            
        36     3.98534000E+03   # mtauR(MX)           
        41     1.41715000E+03   # mqL1(MX)            
        42     1.41715000E+03   # mqL2(MX)            
        43     2.59282000E+03   # mqL3(MX)            
        44     2.86540000E+03   # muR(MX)             
        45     2.86540000E+03   # mcR(MX)             
        46     3.28757000E+03   # mtR(MX)             
        47     3.97390000E+02   # mdR(MX)             
        48     3.97390000E+02   # msR(MX)             
        49     3.80047000E+03   # mbR(MX)             
#
BLOCK MASS  # Mass Spectrum
# PDG code           mass       particle
        24     8.03906696E+01   # W+
        25     1.26492770E+02   # h
        35     2.56826732E+03   # H
        36     2.56831999E+03   # A
        37     2.56973485E+03   # H+
         5     4.81876030E+00   # b-quark pole mass calculated from mb(mb)_Msbar
   1000001     1.50979829E+03   # ~d_L
   2000001     6.03699455E+02   # ~d_R
   1000002     1.50789549E+03   # ~u_L
   2000002     2.90639218E+03   # ~u_R
   1000003     1.50979829E+03   # ~s_L
   2000003     6.03699455E+02   # ~s_R
   1000004     1.50789549E+03   # ~c_L
   2000004     2.90639218E+03   # ~c_R
   1000005     2.63035187E+03   # ~b_1
   2000005     3.83714980E+03   # ~b_2
   1000006     2.62070172E+03   # ~t_1
   2000006     3.28509927E+03   # ~t_2
   1000011     3.79114799E+03   # ~e_L
   2000011     1.61517191E+03   # ~e_R
   1000012     3.78998433E+03   # ~nu_eL
   1000013     3.79114799E+03   # ~mu_L
   2000013     1.61517191E+03   # ~mu_R
   1000014     3.78998433E+03   # ~nu_muL
   1000015     2.94037668E+03   # ~tau_1
   2000015     3.99092601E+03   # ~tau_2
   1000016     2.93933294E+03   # ~nu_tauL
   1000021     1.61695252E+03   # ~g
   1000022     4.05147226E+02   # ~chi_10
   1000023    -1.15076396E+03   # ~chi_20
   1000025     3.82938762E+03   # ~chi_30
   1000035    -3.82966057E+03   # ~chi_40
   1000024     4.05311462E+02   # ~chi_1+
   1000037     3.83036490E+03   # ~chi_2+
#
BLOCK NMIX  # Neutralino Mixing Matrix
  1  1    -2.05630399E-05   # N_11
  1  2     9.99795365E-01   # N_12
  1  3     2.02111284E-02   # N_13
  1  4     8.58684834E-04   # N_14
  2  1     9.99906174E-01   # N_21
  2  2     2.77545536E-04   # N_22
  2  3    -1.29067895E-02   # N_23
  2  4     4.58043280E-03   # N_24
  3  1     5.88966747E-03   # N_31
  3  2    -1.48975344E-02   # N_32
  3  3     7.06908097E-01   # N_33
  3  4     7.07123976E-01   # N_34
  4  1    -1.23674575E-02   # N_41
  4  2     1.36826134E-02   # N_42
  4  3    -7.06898767E-01   # N_43
  4  4     7.07074229E-01   # N_44
#
BLOCK UMIX  # Chargino Mixing Matrix U
  1  1     9.99591541E-01   # U_11
  1  2     2.85788508E-02   # U_12
  2  1    -2.85788508E-02   # U_21
  2  2     9.99591541E-01   # U_22
#
BLOCK VMIX  # Chargino Mixing Matrix V
  1  1     9.99999265E-01   # V_11
  1  2    -1.21247158E-03   # V_12
  2  1    -1.21247158E-03   # V_21
  2  2    -9.99999265E-01   # V_22
#
BLOCK STOPMIX  # Stop Mixing Matrix
  1  1     9.91065632E-01   # cos(theta_t)
  1  2    -1.33375084E-01   # sin(theta_t)
  2  1     1.33375084E-01   # -sin(theta_t)
  2  2     9.91065632E-01   # cos(theta_t)
#
BLOCK SBOTMIX  # Sbottom Mixing Matrix
  1  1     9.99692909E-01   # cos(theta_b)
  1  2    -2.47807929E-02   # sin(theta_b)
  2  1     2.47807929E-02   # -sin(theta_b)
  2  2     9.99692909E-01   # cos(theta_b)
#
BLOCK STAUMIX  # Stau Mixing Matrix
  1  1     9.99860867E-01   # cos(theta_tau)
  1  2    -1.66807267E-02   # sin(theta_tau)
  2  1     1.66807267E-02   # -sin(theta_tau)
  2  2     9.99860867E-01   # cos(theta_tau)
#
BLOCK ALPHA  # Higgs mixing
          -5.42543734E-02   # Mixing angle in the neutral Higgs boson sector
#
BLOCK HMIX Q=  2.91972100E+03  # DRbar Higgs Parameters
         1    -3.85553340E+03   # mu(Q)MSSM           
         2     1.84551014E+01   # tan                 
         3     2.43021174E+02   # higgs               
         4     6.71472963E+06   # mA^2(Q)MSSM         
#
BLOCK GAUGE Q=  2.91972100E+03  # The gauge couplings
     1     3.64588466E-01   # gprime(Q) DRbar
     2     6.39655724E-01   # g(Q) DRbar
     3     1.02626563E+00   # g3(Q) DRbar
#
BLOCK AU Q=  2.91972100E+03  # The trilinear couplings
  1  1     0.00000000E+00   # A_u(Q) DRbar
  2  2     0.00000000E+00   # A_c(Q) DRbar
  3  3     3.68011001E+03   # A_t(Q) DRbar
#
BLOCK AD Q=  2.91972100E+03  # The trilinear couplings
  1  1     0.00000000E+00   # A_d(Q) DRbar
  2  2     0.00000000E+00   # A_s(Q) DRbar
  3  3    -1.90965000E+03   # A_b(Q) DRbar
#
BLOCK AE Q=  2.91972100E+03  # The trilinear couplings
  1  1     0.00000000E+00   # A_e(Q) DRbar
  2  2     0.00000000E+00   # A_mu(Q) DRbar
  3  3    -1.67630000E+03   # A_tau(Q) DRbar
#
BLOCK Yu Q=  2.91972100E+03  # The Yukawa couplings
  1  1     0.00000000E+00   # y_u(Q) DRbar
  2  2     0.00000000E+00   # y_c(Q) DRbar
  3  3     8.33122973E-01   # y_t(Q) DRbar
#
BLOCK Yd Q=  2.91972100E+03  # The Yukawa couplings
  1  1     0.00000000E+00   # y_d(Q) DRbar
  2  2     0.00000000E+00   # y_s(Q) DRbar
  3  3     3.01345997E-01   # y_b(Q) DRbar
#
BLOCK Ye Q=  2.91972100E+03  # The Yukawa couplings
  1  1     0.00000000E+00   # y_e(Q) DRbar
  2  2     0.00000000E+00   # y_mu(Q) DRbar
  3  3     1.86663885E-01   # y_tau(Q) DRbar
#
BLOCK MSOFT Q=  2.91972100E+03  # The soft SUSY breaking masses at the scale Q
         1    -1.16120000E+03   # M_1(Q)              
         2     3.80370000E+02   # M_2(Q)              
         3     1.45092000E+03   # M_3(Q)              
        21    -8.33383457E+06   # mH1^2(Q)            
        22    -1.47248538E+07   # mH2^2(Q)            
        31     3.78537000E+03   # meL(Q)              
        32     3.78537000E+03   # mmuL(Q)             
        33     2.93749000E+03   # mtauL(Q)            
        34     1.59977000E+03   # meR(Q)              
        35     1.59977000E+03   # mmuR(Q)             
        36     3.98534000E+03   # mtauR(Q)            
        41     1.41715000E+03   # mqL1(Q)             
        42     1.41715000E+03   # mqL2(Q)             
        43     2.59282000E+03   # mqL3(Q)             
        44     2.86540000E+03   # muR(Q)              
        45     2.86540000E+03   # mcR(Q)              
        46     3.28757000E+03   # mtR(Q)              
        47     3.97389983E+02   # mdR(Q)              
        48     3.97389983E+02   # msR(Q)              
        49     3.80047000E+03   # mbR(Q)              
#
Block HiggsBoundsInputHiggsCouplingsFermions
# ScalarNormEffCoupSq PseudoSNormEffCoupSq NP   IP1 IP2 IP2
    1.00449890E+00    0.00000000E+00        3  25   5   5  # h0-b-b eff. coupling^2, normalised to SM
    3.40586269E+02    0.00000000E+00        3  35   5   5  # H0-b-b eff. coupling^2, normalised to SM
    0.00000000E+00    3.40590768E+02        3  36   5   5  # A0-b-b eff. coupling^2, normalised to SM
#
    9.99986791E-01    0.00000000E+00        3  25   6   6  # h0-t-t eff. coupling^2, normalised to SM
    2.94928400E-03    0.00000000E+00        3  35   6   6  # H0-t-t eff. coupling^2, normalised to SM
    0.00000000E+00    2.93607489E-03        3  36   6   6  # A0-t-t eff. coupling^2, normalised to SM
#
    1.00449890E+00    0.00000000E+00        3  25  15  15  # h0-tau-tau eff. coupling^2, normalised to SM
    3.40586269E+02    0.00000000E+00        3  35  15  15  # H0-tau-tau eff. coupling^2, normalised to SM
    0.00000000E+00    3.40590768E+02        3  36  15  15  # A0-tau-tau eff. coupling^2, normalised to SM
#
Block HiggsBoundsInputHiggsCouplingsBosons
    9.99999985E-01        3  25  24  24  # h0-W-W eff. coupling^2, normalised to SM
    1.48233926E-08        3  35  24  24  # H0-W-W eff. coupling^2, normalised to SM
    0.00000000E+00        3  36  24  24  # A0-W-W eff. coupling^2, normalised to SM
#
    9.99999985E-01        3  25  23  23  # h0-Z-Z eff. coupling^2, normalised to SM
    1.48233926E-08        3  35  23  23  # H0-Z-Z eff. coupling^2, normalised to SM
    0.00000000E+00        3  36  23  23  # A0-Z-Z eff. coupling^2, normalised to SM
#
    8.90883012E-01        3  25  21  21  # h0-g-g eff. coupling^2, normalised to SM
    1.05561297E-13        3  35  21  21  # H0-g-g eff. coupling^2, normalised to SM
    5.93351910E-12        3  36  21  21  # A0-g-g eff. coupling^2, normalised to SM
#
    0.00000000E+00        3  25  25  23  # h0-h0-Z eff. coupling^2, normalised to SM
    0.00000000E+00        3  35  25  23  # H0-h0-Z eff. coupling^2, normalised to SM
    1.48233926E-08        3  36  25  23  # A0-h0-Z eff. coupling^2, normalised to SM
    0.00000000E+00        3  35  35  23  # H0-H0-Z eff. coupling^2, normalised to SM
    9.99999985E-01        3  36  35  23  # A0-H0-Z eff. coupling^2, normalised to SM
    0.00000000E+00        3  36  36  23  # A0-A0-Z eff. coupling^2, normalised to SM
#
    0.00000000E+00        4  25  21  21  23  # h0-g-g-Z eff. coupling^2, normalised to SM
    0.00000000E+00        4  35  21  21  23  # H0-g-g-Z eff. coupling^2, normalised to SM
    0.00000000E+00        4  36  21  21  23  # A0-g-g-Z eff. coupling^2, normalised to SM
#
#
#
#                             =================
#                             |The decay table|
#                             =================
#
# - The QCD corrections to the decays gluino -> squark  + quark
#                                     squark -> gaugino + quark_prime
#                                     squark -> squark_prime + Higgs
#                                     squark -> gluino  + quark
#   are included.
#
# - The multi-body decays for the inos, stops and sbottoms are included.
#
# - The loop induced decays for the gluino, neutralinos and stops
#   are included.
#
# - The SUSY decays of the top quark are included.
#
#
#         PDG            Width
DECAY         6     1.44096466E+00   # top decays
#          BR         NDA      ID1       ID2
     1.00000000E+00    2           5        24   # BR(t ->  b    W+)
#
#         PDG            Width
DECAY   1000021     5.97924003E+01   # gluino decays
#          BR         NDA      ID1       ID2
     5.30379098E-03    2     1000001        -1   # BR(~g -> ~d_L  db)
     5.30379098E-03    2    -1000001         1   # BR(~g -> ~d_L* d )
     2.39209306E-01    2     2000001        -1   # BR(~g -> ~d_R  db)
     2.39209306E-01    2    -2000001         1   # BR(~g -> ~d_R* d )
     5.48714388E-03    2     1000002        -2   # BR(~g -> ~u_L  ub)
     5.48714388E-03    2    -1000002         2   # BR(~g -> ~u_L* u )
     5.30379098E-03    2     1000003        -3   # BR(~g -> ~s_L  sb)
     5.30379098E-03    2    -1000003         3   # BR(~g -> ~s_L* s )
     2.39209306E-01    2     2000003        -3   # BR(~g -> ~s_R  sb)
     2.39209306E-01    2    -2000003         3   # BR(~g -> ~s_R* s )
     5.48666135E-03    2     1000004        -4   # BR(~g -> ~c_L  cb)
     5.48666135E-03    2    -1000004         4   # BR(~g -> ~c_L* c )
#
#         PDG            Width
DECAY   1000006     8.31454039E+01   # stop1 decays
#          BR         NDA      ID1       ID2
     1.18844902E-01    2     1000022         6   # BR(~t_1 -> ~chi_10 t )
     4.13470132E-03    2     1000023         6   # BR(~t_1 -> ~chi_20 t )
     2.40035719E-01    2     1000024         5   # BR(~t_1 -> ~chi_1+ b )
     6.36984677E-01    2     1000021         6   # BR(~t_1 -> ~g      t )
#
#         PDG            Width
DECAY   2000006     1.50557747E+02   # stop2 decays
#          BR         NDA      ID1       ID2
     1.55859470E-03    2     1000022         6   # BR(~t_2 -> ~chi_10 t )
     3.83022483E-02    2     1000023         6   # BR(~t_2 -> ~chi_20 t )
     0.00000000E+00    2     1000025         6   # BR(~t_2 -> ~chi_30 t )
     3.13693543E-03    2     1000024         5   # BR(~t_2 -> ~chi_1+ b )
     7.05822433E-01    2     1000021         6   # BR(~t_2 -> ~g      t )
     6.97929846E-02    2     1000006        25   # BR(~t_2 -> ~t_1    h )
     6.22942231E-02    2     1000006        23   # BR(~t_2 -> ~t_1    Z )
     1.19092581E-01    2     1000005        24   # BR(~t_2 -> ~b_1    W+)
#
#         PDG            Width
DECAY   1000005     8.75302182E+01   # sbottom1 decays
#          BR         NDA      ID1       ID2
     1.16553284E-01    2     1000022         5   # BR(~b_1 -> ~chi_10 b )
     2.90715319E-03    2     1000023         5   # BR(~b_1 -> ~chi_20 b )
     2.30826709E-01    2    -1000024         6   # BR(~b_1 -> ~chi_1- t )
     6.49712853E-01    2     1000021         5   # BR(~b_1 -> ~g      b )
#
#         PDG            Width
DECAY   2000005     1.53540387E+02   # sbottom2 decays
#          BR         NDA      ID1       ID2
     1.27429078E-05    2     1000022         5   # BR(~b_2 -> ~chi_10 b )
     1.21408819E-02    2     1000023         5   # BR(~b_2 -> ~chi_20 b )
     2.78796337E-07    2     1000025         5   # BR(~b_2 -> ~chi_30 b )
     2.74886690E-07    2     1000035         5   # BR(~b_2 -> ~chi_40 b )
     2.53418904E-05    2    -1000024         6   # BR(~b_2 -> ~chi_1- t )
     9.44549915E-01    2     1000021         5   # BR(~b_2 -> ~g      b )
     1.13293351E-02    2     1000005        25   # BR(~b_2 -> ~b_1    h )
     1.08102006E-02    2     1000005        23   # BR(~b_2 -> ~b_1    Z )
     2.10843573E-02    2     1000006       -24   # BR(~b_2 -> ~t_1    W-)
     4.66717873E-05    2     2000006       -24   # BR(~b_2 -> ~t_2    W-)
#
#         PDG            Width
DECAY   1000002     1.54866092E+01   # sup_L decays
#          BR         NDA      ID1       ID2
     3.32440504E-01    2     1000022         2   # BR(~u_L -> ~chi_10 u)
     2.48497552E-03    2     1000023         2   # BR(~u_L -> ~chi_20 u)
     6.65074521E-01    2     1000024         1   # BR(~u_L -> ~chi_1+ d)
#
#         PDG            Width
DECAY   2000002     1.26930897E+02   # sup_R decays
#          BR         NDA      ID1       ID2
     2.10663033E-11    2     1000022         2   # BR(~u_R -> ~chi_10 u)
     3.69594818E-02    2     1000023         2   # BR(~u_R -> ~chi_20 u)
     9.63040518E-01    2     1000021         2   # BR(~u_R -> ~g      u)
#
#         PDG            Width
DECAY   1000001     1.55015888E+01   # sdown_L decays
#          BR         NDA      ID1       ID2
     3.32623679E-01    2     1000022         1   # BR(~d_L -> ~chi_10 d)
     2.48803062E-03    2     1000023         1   # BR(~d_L -> ~chi_20 d)
     6.64888290E-01    2    -1000024         2   # BR(~d_L -> ~chi_1- u)
#
#         PDG            Width
DECAY   2000001     4.77608725E-11   # sdown_R decays
#           BR         NDA      ID1       ID2
     9.84503382E-01    2     1000022         1   # BR(~d_R -> ~chi_10 d)
#           BR         NDA      ID1       ID2       ID3
     1.21917790E-03    3        1       23        1000022   # BR(~d_R -> d  Z  ~chi_10)
     2.50267622E-04    3        1       25        1000022   # BR(~d_R -> d  h  ~chi_10)
     9.24878414E-03    3        1       -24        1000024   # BR(~d_R -> d  W-  ~chi_1+)
     4.77838842E-03    3        1       24        -1000024   # BR(~d_R -> d  W+  ~chi_1-)
#
#         PDG            Width
DECAY   1000004     1.58841862E+01   # scharm_L decays
#          BR         NDA      ID1       ID2
     3.32455745E-01    2     1000022         4   # BR(~c_L -> ~chi_10 c)
     2.43863919E-03    2     1000023         4   # BR(~c_L -> ~chi_20 c)
     6.65105616E-01    2     1000024         3   # BR(~c_L -> ~chi_1+ s)
#
#         PDG            Width
DECAY   2000004     8.22809937E+01   # scharm_R decays
#          BR         NDA      ID1       ID2
     3.37573307E-11    2     1000022         4   # BR(~c_R -> ~chi_10 c)
     5.90266494E-02    2     1000023         4   # BR(~c_R -> ~chi_20 c)
     9.40973351E-01    2     1000021         4   # BR(~c_R -> ~g      c)
#
#         PDG            Width
DECAY   1000003     1.59019557E+01   # sstrange_L decays
#          BR         NDA      ID1       ID2
     3.32639722E-01    2     1000022         3   # BR(~s_L -> ~chi_10 s)
     2.44187574E-03    2     1000023         3   # BR(~s_L -> ~chi_20 s)
     6.64918402E-01    2    -1000024         4   # BR(~s_L -> ~chi_1- c)
#
#         PDG            Width
DECAY   2000003     4.60550560E-11   # sstrange_R decays
#           BR         NDA      ID1       ID2
     9.83916684E-01    2     1000022         3   # BR(~s_R -> ~chi_10 s)
#           BR         NDA      ID1       ID2       ID3
     1.26861207E-03    3        3       23        1000022   # BR(~s_R -> s  Z  ~chi_10)
     2.59298349E-04    3        3       25        1000022   # BR(~s_R -> s  h  ~chi_10)
     9.59351781E-03    3        3       -24        1000024   # BR(~s_R -> s  W-  ~chi_1+)
     4.96188735E-03    3        3       24        -1000024   # BR(~s_R -> s  W+  ~chi_1-)
#
#         PDG            Width
DECAY   1000011     4.93415986E+01   # selectron_L decays
#          BR         NDA      ID1       ID2
     3.05481931E-01    2     1000022        11   # BR(~e_L -> ~chi_10 e-)
     8.38004134E-02    2     1000023        11   # BR(~e_L -> ~chi_20 e-)
     6.10717655E-01    2    -1000024        12   # BR(~e_L -> ~chi_1- nu_e)
#
#         PDG            Width
DECAY   2000011     2.07067403E+00   # selectron_R decays
#          BR         NDA      ID1       ID2
     1.53179641E-09    2     1000022        11   # BR(~e_R -> ~chi_10 e-)
     9.99999998E-01    2     1000023        11   # BR(~e_R -> ~chi_20 e-)
#
#         PDG            Width
DECAY   1000013     4.93415986E+01   # smuon_L decays
#          BR         NDA      ID1       ID2
     3.05481931E-01    2     1000022        13   # BR(~mu_L -> ~chi_10 mu-)
     8.38004133E-02    2     1000023        13   # BR(~mu_L -> ~chi_20 mu-)
     6.10717656E-01    2    -1000024        14   # BR(~mu_L -> ~chi_1- nu_mu)
#
#         PDG            Width
DECAY   2000013     2.07067396E+00   # smuon_R decays
#          BR         NDA      ID1       ID2
     1.53179644E-09    2     1000022        13   # BR(~mu_R -> ~chi_10 mu-)
     9.99999998E-01    2     1000023        13   # BR(~mu_R -> ~chi_20 mu-)
#
#         PDG            Width
DECAY   1000015     3.73217205E+01   # stau_1 decays
#          BR         NDA      ID1       ID2
     3.08480836E-01    2     1000022        15   # BR(~tau_1 -> ~chi_10  tau-)
     7.48581023E-02    2     1000023        15   # BR(~tau_1 -> ~chi_20  tau-)
     6.16661062E-01    2    -1000024        16   # BR(~tau_1 -> ~chi_1-  nu_tau)
#
#         PDG            Width
DECAY   2000015     1.99287060E+01   # stau_2 decays
#          BR         NDA      ID1       ID2
     5.55034101E-05    2     1000022        15   # BR(~tau_2 -> ~chi_10  tau-)
     8.89946785E-01    2     1000023        15   # BR(~tau_2 -> ~chi_20  tau-)
     4.37132717E-04    2     1000025        15   # BR(~tau_2 -> ~chi_30  tau-)
     4.37566183E-04    2     1000035        15   # BR(~tau_2 -> ~chi_40  tau-)
     1.10929111E-04    2    -1000024        16   # BR(~tau_2 -> ~chi_1-  nu_tau)
     8.64830608E-04    2    -1000037        16   # BR(~tau_2 -> ~chi_2-  nu_tau)
     5.30636193E-02    2     1000016       -24   # BR(~tau_2 -> ~nu_tauL W-)
     2.79111854E-02    2     1000015        25   # BR(~tau_2 -> ~tau_1   h)
     2.71724479E-02    2     1000015        23   # BR(~tau_2 -> ~tau_1   Z)
#
#         PDG            Width
DECAY   1000012     4.93425398E+01   # snu_eL decays
#          BR         NDA      ID1       ID2
     3.05392328E-01    2     1000022        12   # BR(~nu_eL -> ~chi_10 nu_e)
     8.35996439E-02    2     1000023        12   # BR(~nu_eL -> ~chi_20 nu_e)
     6.11008029E-01    2     1000024        11   # BR(~nu_eL -> ~chi_1+ e-)
#
#         PDG            Width
DECAY   1000014     4.93425398E+01   # snu_muL decays
#          BR         NDA      ID1       ID2
     3.05392328E-01    2     1000022        14   # BR(~nu_muL -> ~chi_10 nu_mu)
     8.35996440E-02    2     1000023        14   # BR(~nu_muL -> ~chi_20 nu_mu)
     6.11008028E-01    2     1000024        13   # BR(~nu_muL -> ~chi_1+ mu-)
#
#         PDG            Width
DECAY   1000016     3.73179459E+01   # snu_tauL decays
#          BR         NDA      ID1       ID2
     3.08386389E-01    2     1000022        16   # BR(~nu_tauL -> ~chi_10 nu_tau)
     7.45788893E-02    2     1000023        16   # BR(~nu_tauL -> ~chi_20 nu_tau)
     6.17034722E-01    2     1000024        15   # BR(~nu_tauL -> ~chi_1+ tau-)
#
#         PDG            Width
DECAY   1000024     3.57371630E-15   # chargino1+ decays
#           BR         NDA      ID1       ID2       ID3
     1.95481220E-02    3     1000022       -11        12   # BR(~chi_1+ -> ~chi_10 e+   nu_e)
     2.19280740E-03    3     1000022       -13        14   # BR(~chi_1+ -> ~chi_10 mu+  nu_mu)
     9.78259070E-01    2     1000022       211             # BR(~chi_1+ -> ~chi_10 pi+)
#
#         PDG            Width
DECAY   1000037     6.26383663E+01   # chargino2+ decays
#          BR         NDA      ID1       ID2
     7.59323247E-07    2     1000002        -1   # BR(~chi_2+ -> ~u_L     db)
     4.21475599E-04    2    -1000001         2   # BR(~chi_2+ -> ~d_L*    u )
     7.59323244E-07    2     1000004        -3   # BR(~chi_2+ -> ~c_L     sb)
     4.21475566E-04    2    -1000003         4   # BR(~chi_2+ -> ~s_L*     c )
     5.26334597E-02    2     1000006        -5   # BR(~chi_2+ -> ~t_1     bb)
     8.70980117E-02    2     2000006        -5   # BR(~chi_2+ -> ~t_2     bb)
     3.49495507E-01    2    -1000005         6   # BR(~chi_2+ -> ~b_1*    t )
     1.60942090E-10    2     1000012       -11   # BR(~chi_2+ -> ~nu_eL   e+  )
     1.60942090E-10    2     1000014       -13   # BR(~chi_2+ -> ~nu_muL mu+ )
     3.57968785E-03    2     1000016       -15   # BR(~chi_2+ -> ~nu_tau1 tau+)
     8.43627062E-08    2    -1000011        12   # BR(~chi_2+ -> ~e_L+    nu_e)
     8.43627062E-08    2    -1000013        14   # BR(~chi_2+ -> ~mu_L+   nu_mu)
     2.35995199E-05    2    -1000015        16   # BR(~chi_2+ -> ~tau_1+  nu_tau)
     1.14960104E-01    2     1000024        23   # BR(~chi_2+ -> ~chi_1+  Z )
     1.11706266E-01    2     1000022        24   # BR(~chi_2+ -> ~chi_10  W+)
     3.99043020E-02    2     1000023        24   # BR(~chi_2+ -> ~chi_20  W+)
     1.21233664E-01    2     1000024        25   # BR(~chi_2+ -> ~chi_1+  h )
     3.78094437E-02    2     1000024        35   # BR(~chi_2+ -> ~chi_1+  H )
     3.78059334E-02    2     1000024        36   # BR(~chi_2+ -> ~chi_1+  A )
     3.77791829E-02    2     1000022        37   # BR(~chi_2+ -> ~chi_10  H+)
     5.12619936E-03    2     1000023        37   # BR(~chi_2+ -> ~chi_20  H+)
#
#         PDG            Width
DECAY   1000022     0.00000000E+00   # neutralino1 decays
#
#         PDG            Width
DECAY   1000023     2.13085747E+00   # neutralino2 decays
#          BR         NDA      ID1       ID2
     1.07418364E-05    2     1000022        23   # BR(~chi_20 -> ~chi_10   Z )
     2.41006453E-05    2     1000024       -24   # BR(~chi_20 -> ~chi_1+   W-)
     2.41006453E-05    2    -1000024        24   # BR(~chi_20 -> ~chi_1-   W+)
     1.12789677E-05    2     1000022        25   # BR(~chi_20 -> ~chi_10   h )
     2.49982444E-01    2     2000001        -1   # BR(~chi_20 -> ~d_R      db)
     2.49982444E-01    2    -2000001         1   # BR(~chi_20 -> ~d_R*     d )
     2.49982444E-01    2     2000003        -3   # BR(~chi_20 -> ~s _R      sb)
     2.49982444E-01    2    -2000003         3   # BR(~chi_20 -> ~s _R*     s )
#
#         PDG            Width
DECAY   1000025     6.16225549E+01   # neutralino3 decays
#          BR         NDA      ID1       ID2
     5.34801477E-02    2     1000022        23   # BR(~chi_30 -> ~chi_10   Z )
     3.39547372E-02    2     1000023        23   # BR(~chi_30 -> ~chi_20   Z )
     1.13517545E-01    2     1000024       -24   # BR(~chi_30 -> ~chi_1+   W-)
     1.13517545E-01    2    -1000024        24   # BR(~chi_30 -> ~chi_1-   W+)
     6.80148176E-02    2     1000022        25   # BR(~chi_30 -> ~chi_10   h )
     2.81134953E-02    2     1000022        35   # BR(~chi_30 -> ~chi_10   H )
     1.02357150E-02    2     1000022        36   # BR(~chi_30 -> ~chi_10   A )
     8.11846265E-03    2     1000023        25   # BR(~chi_30 -> ~chi_20   h )
     1.98482127E-04    2     1000023        35   # BR(~chi_30 -> ~chi_20   H )
     5.01998501E-03    2     1000023        36   # BR(~chi_30 -> ~chi_20   A )
     3.83167478E-02    2     1000024       -37   # BR(~chi_30 -> ~chi_1+   H-)
     3.83167478E-02    2    -1000024        37   # BR(~chi_30 -> ~chi_1-   H+)
     4.98159522E-05    2     1000002        -2   # BR(~chi_30 -> ~u_L      ub)
     4.98159522E-05    2    -1000002         2   # BR(~chi_30 -> ~u_L*     u )
     1.33913485E-06    2     2000002        -2   # BR(~chi_30 -> ~u_R      ub)
     1.33913485E-06    2    -2000002         2   # BR(~chi_30 -> ~u_R*     u )
     6.72507934E-05    2     1000001        -1   # BR(~chi_30 -> ~d_L      db)
     6.72507934E-05    2    -1000001         1   # BR(~chi_30 -> ~d_L*     d )
     1.74775429E-06    2     2000001        -1   # BR(~chi_30 -> ~d_R      db)
     1.74775429E-06    2    -2000001         1   # BR(~chi_30 -> ~d_R*     d )
     4.98159483E-05    2     1000004        -4   # BR(~chi_30 -> ~c_L      cb)
     4.98159483E-05    2    -1000004         4   # BR(~chi_30 -> ~c_L*     c )
     1.33913332E-06    2     2000004        -4   # BR(~chi_30 -> ~c_R      cb)
     1.33913332E-06    2    -2000004         4   # BR(~chi_30 -> ~c_R*     c )
     6.72507934E-05    2     1000003        -3   # BR(~chi_30 -> ~s _L      sb)
     6.72507934E-05    2    -1000003         3   # BR(~chi_30 -> ~s _L*     s )
     1.74775429E-06    2     2000003        -3   # BR(~chi_30 -> ~s _R      sb)
     1.74775429E-06    2    -2000003         3   # BR(~chi_30 -> ~s _R*     s )
     1.72615812E-01    2     1000006        -6   # BR(~chi_30 -> ~t_1      tb)
     1.72615812E-01    2    -1000006         6   # BR(~chi_30 -> ~t_1*     t )
     4.64535350E-02    2     2000006        -6   # BR(~chi_30 -> ~t_2      tb)
     4.64535350E-02    2    -2000006         6   # BR(~chi_30 -> ~t_2*     t )
     2.34611018E-02    2     1000005        -5   # BR(~chi_30 -> ~b_1      bb)
     2.34611018E-02    2    -1000005         5   # BR(~chi_30 -> ~b_1*     b )
     6.65100893E-09    2     1000011       -11   # BR(~chi_30 -> ~e_L-     e+)
     6.65100893E-09    2    -1000011        11   # BR(~chi_30 -> ~e_L+     e-)
     3.85261149E-06    2     2000011       -11   # BR(~chi_30 -> ~e_R-     e+)
     3.85261149E-06    2    -2000011        11   # BR(~chi_30 -> ~e_R+     e-)
     6.65100893E-09    2     1000013       -13   # BR(~chi_30 -> ~mu_L-    mu+)
     6.65100893E-09    2    -1000013        13   # BR(~chi_30 -> ~mu_L+    mu-)
     3.85261149E-06    2     2000013       -13   # BR(~chi_30 -> ~mu_R-    mu+)
     3.85261149E-06    2    -2000013        13   # BR(~chi_30 -> ~mu_R+    mu-)
     1.81216405E-03    2     1000015       -15   # BR(~chi_30 -> ~tau_1-   tau+)
     1.81216405E-03    2    -1000015        15   # BR(~chi_30 -> ~tau_1+   tau-)
     1.76635683E-08    2     1000012       -12   # BR(~chi_30 -> ~nu_eL    nu_eb)
     1.76635683E-08    2    -1000012        12   # BR(~chi_30 -> ~nu_eL*   nu_e )
     1.76635683E-08    2     1000014       -14   # BR(~chi_30 -> ~nu_muL   nu_mub)
     1.76635683E-08    2    -1000014        14   # BR(~chi_30 -> ~nu_muL*  nu_mu )
     7.11248999E-06    2     1000016       -16   # BR(~chi_30 -> ~nu_tau1  nu_taub)
     7.11248999E-06    2    -1000016        16   # BR(~chi_30 -> ~nu_tau1* nu_tau )
#
#         PDG            Width
DECAY   1000035     6.23970640E+01   # neutralino4 decays
#          BR         NDA      ID1       ID2
     6.25752227E-02    2     1000022        23   # BR(~chi_40 -> ~chi_10   Z )
     7.61953049E-03    2     1000023        23   # BR(~chi_40 -> ~chi_20   Z )
     1.12095885E-01    2     1000024       -24   # BR(~chi_40 -> ~chi_1+   W-)
     1.12095885E-01    2    -1000024        24   # BR(~chi_40 -> ~chi_1-   W+)
     5.45589598E-02    2     1000022        25   # BR(~chi_40 -> ~chi_10   h )
     1.01094608E-02    2     1000022        35   # BR(~chi_40 -> ~chi_10   H )
     2.77598581E-02    2     1000022        36   # BR(~chi_40 -> ~chi_10   A )
     3.44609368E-02    2     1000023        25   # BR(~chi_40 -> ~chi_20   h )
     4.96322291E-03    2     1000023        35   # BR(~chi_40 -> ~chi_20   H )
     1.96507205E-04    2     1000023        36   # BR(~chi_40 -> ~chi_20   A )
     3.78416447E-02    2     1000024       -37   # BR(~chi_40 -> ~chi_1+   H-)
     3.78416447E-02    2    -1000024        37   # BR(~chi_40 -> ~chi_1-   H+)
     3.32868587E-05    2     1000002        -2   # BR(~chi_40 -> ~u_L      ub)
     3.32868587E-05    2    -1000002         2   # BR(~chi_40 -> ~u_L*     u )
     5.83413093E-06    2     2000002        -2   # BR(~chi_40 -> ~u_R      ub)
     5.83413093E-06    2    -2000002         2   # BR(~chi_40 -> ~u_R*     u )
     6.65554523E-05    2     1000001        -1   # BR(~chi_40 -> ~d_L      db)
     6.65554523E-05    2    -1000001         1   # BR(~chi_40 -> ~d_L*     d )
     7.61148952E-06    2     2000001        -1   # BR(~chi_40 -> ~d_R      db)
     7.61148952E-06    2    -2000001         1   # BR(~chi_40 -> ~d_R*     d )
     3.32868561E-05    2     1000004        -4   # BR(~chi_40 -> ~c_L      cb)
     3.32868561E-05    2    -1000004         4   # BR(~chi_40 -> ~c_L*     c )
     5.83412428E-06    2     2000004        -4   # BR(~chi_40 -> ~c_R      cb)
     5.83412428E-06    2    -2000004         4   # BR(~chi_40 -> ~c_R*     c )
     6.65554523E-05    2     1000003        -3   # BR(~chi_40 -> ~s _L      sb)
     6.65554523E-05    2    -1000003         3   # BR(~chi_40 -> ~s _L*     s )
     7.61148952E-06    2     2000003        -3   # BR(~chi_40 -> ~s _R      sb)
     7.61148952E-06    2    -2000003         3   # BR(~chi_40 -> ~s _R*     s )
     1.85185892E-01    2     1000006        -6   # BR(~chi_40 -> ~t_1      tb)
     1.85185892E-01    2    -1000006         6   # BR(~chi_40 -> ~t_1*     t )
     3.85308532E-02    2     2000006        -6   # BR(~chi_40 -> ~t_2      tb)
     3.85308532E-02    2    -2000006         6   # BR(~chi_40 -> ~t_2*     t )
     2.31667607E-02    2     1000005        -5   # BR(~chi_40 -> ~b_1      bb)
     2.31667607E-02    2    -1000005         5   # BR(~chi_40 -> ~b_1*     b )
     2.20092416E-09    2     1000011       -11   # BR(~chi_40 -> ~e_L-     e+)
     2.20092416E-09    2    -1000011        11   # BR(~chi_40 -> ~e_L+     e-)
     1.67790670E-05    2     2000011       -11   # BR(~chi_40 -> ~e_R-     e+)
     1.67790670E-05    2    -2000011        11   # BR(~chi_40 -> ~e_R+     e-)
     2.20092416E-09    2     1000013       -13   # BR(~chi_40 -> ~mu_L-    mu+)
     2.20092416E-09    2    -1000013        13   # BR(~chi_40 -> ~mu_L+    mu-)
     1.67790670E-05    2     2000013       -13   # BR(~chi_40 -> ~mu_R-    mu+)
     1.67790670E-05    2    -2000013        13   # BR(~chi_40 -> ~mu_R+    mu-)
     1.78786670E-03    2     1000015       -15   # BR(~chi_40 -> ~tau_1-   tau+)
     1.78786670E-03    2    -1000015        15   # BR(~chi_40 -> ~tau_1+   tau-)
     2.28097701E-08    2     1000012       -12   # BR(~chi_40 -> ~nu_eL    nu_eb)
     2.28097701E-08    2    -1000012        12   # BR(~chi_40 -> ~nu_eL*   nu_e )
     2.28097701E-08    2     1000014       -14   # BR(~chi_40 -> ~nu_muL   nu_mub)
     2.28097701E-08    2    -1000014        14   # BR(~chi_40 -> ~nu_muL*  nu_mu )
     9.06438462E-06    2     1000016       -16   # BR(~chi_40 -> ~nu_tau1  nu_taub)
     9.06438462E-06    2    -1000016        16   # BR(~chi_40 -> ~nu_tau1* nu_tau )
#
#         PDG            Width
DECAY        25     3.99038078E-03   # h decays
#          BR         NDA      ID1       ID2
     5.45456529E-01    2           5        -5   # BR(h -> b       bb     )
     6.59158129E-02    2         -15        15   # BR(h -> tau+    tau-   )
     2.33310357E-04    2         -13        13   # BR(h -> mu+     mu-    )
     2.56249366E-04    2           3        -3   # BR(h -> s       sb     )
     2.19425911E-02    2           4        -4   # BR(h -> c       cb     )
     8.29247070E-02    2          21        21   # BR(h -> g       g      )
     2.48084474E-03    2          22        22   # BR(h -> gam     gam    )
     1.78482532E-03    2          22        23   # BR(h -> Z       gam    )
     2.47406386E-01    2          24       -24   # BR(h -> W+      W-     )
     3.15987451E-02    2          23        23   # BR(h -> Z       Z      )
#
#         PDG            Width
DECAY        35     1.62242077E+01   # H decays
#          BR         NDA      ID1       ID2
     8.63298052E-01    2           5        -5   # BR(H -> b       bb     )
     1.13309848E-01    2         -15        15   # BR(H -> tau+    tau-   )
     4.00040840E-04    2         -13        13   # BR(H -> mu+     mu-    )
     2.13260386E-03    2           3        -3   # BR(H -> s       sb     )
     1.95631556E-07    2           4        -4   # BR(H -> c       cb     )
     1.91461172E-02    2           6        -6   # BR(H -> t       tb     )
     8.45805202E-06    2          21        21   # BR(H -> g       g      )
     3.92734943E-09    2          22        22   # BR(H -> gam     gam    )
     9.43898844E-09    2          23        22   # BR(H -> Z       gam    )
     4.96510091E-06    2          24       -24   # BR(H -> W+      W-     )
     2.47587887E-06    2          23        23   # BR(H -> Z       Z      )
     2.55735538E-05    2          25        25   # BR(H -> h       h      )
     9.38593925E-04    2     1000024  -1000024   # BR(H -> ~chi_1+ ~chi_1-)
     4.69314346E-04    2     1000022   1000022   # BR(H -> ~chi_10 ~chi_10)
     5.36762234E-06    2     1000023   1000023   # BR(H -> ~chi_20 ~chi_20)
     2.57635627E-04    2     1000022   1000023   # BR(H -> ~chi_10 ~chi_20)
     3.72188179E-07    2     2000001  -2000001   # BR(H -> ~d_R    ~d_R*  )
     3.72188179E-07    2     2000003  -2000003   # BR(H -> ~s_R    ~s_R*  )
#
#         PDG            Width
DECAY        36     1.62299535E+01   # A decays
#          BR         NDA      ID1       ID2
     8.63075481E-01    2           5        -5   # BR(A -> b       bb     )
     1.13273759E-01    2         -15        15   # BR(A -> tau+    tau-   )
     3.99912668E-04    2         -13        13   # BR(A -> mu+     mu-    )
     2.13233679E-03    2           3        -3   # BR(A -> s       sb     )
     1.96488531E-07    2           4        -4   # BR(A -> c       cb     )
     1.92866730E-02    2           6        -6   # BR(A -> t       tb     )
     6.33962119E-05    2          21        21   # BR(A -> g       g      )
     4.39047422E-08    2          22        22   # BR(A -> gam     gam    )
     5.51976452E-08    2          23        22   # BR(A -> Z       gam    )
     5.02160765E-06    2          23        25   # BR(A -> Z       h      )
     1.03256777E-03    2     1000024  -1000024   # BR(A -> ~chi_1+ ~chi_1-)
     5.16248036E-04    2     1000022   1000022   # BR(A -> ~chi_10 ~chi_10)
     2.94313083E-05    2     1000023   1000023   # BR(A -> ~chi_20 ~chi_20)
     1.84877152E-04    2     1000022   1000023   # BR(A -> ~chi_10 ~chi_20)
#
#         PDG            Width
DECAY        37     1.72547634E+01   # H+ decays
#          BR         NDA      ID1       ID2
     1.46758675E-03    2           4        -5   # BR(H+ -> c       bb     )
     1.06604801E-01    2         -15        16   # BR(H+ -> tau+    nu_tau )
     3.76367931E-04    2         -13        14   # BR(H+ -> mu+     nu_mu  )
     1.46758414E-05    2           2        -5   # BR(H+ -> u       bb     )
     1.00293779E-04    2           2        -3   # BR(H+ -> u       sb     )
     1.97426306E-03    2           4        -3   # BR(H+ -> c       sb     )
     8.89040375E-01    2           6        -5   # BR(H+ -> t       bb     )
     4.73524559E-06    2          24        25   # BR(H+ -> W+      h      )
     4.32241515E-13    2          24        36   # BR(H+ -> W+      A      )
     1.31488627E-12    2     1000024   1000022   # BR(H+ -> ~chi_1+ ~chi_10)
     4.16901655E-04    2     1000024   1000023   # BR(H+ -> ~chi_1+ ~chi_20)
