#
#                              ======================
#                              | THE SUSYHIT OUTPUT |
#                              ======================
#
#
#              ------------------------------------------------------
#              |     This is the output of the SUSY-HIT package     |
#              |  created by A.Djouadi, M.Muehlleitner and M.Spira. |
#              |  In case of problems with SUSY-HIT email to        |
#              |           margarete.muehlleitner@cern.ch           |
#              |           michael.spira@psi.ch                     |
#              |           abdelhak.djouadi@cern.ch                 |
#              ------------------------------------------------------
#
#              ------------------------------------------------------
#              |  SUSY Les Houches Accord - MSSM Spectrum + Decays  |
#              |              based on the decay programs           |
#              |                                                    |
#              |                     SDECAY 1.3b                    |
#              |                                                    |
#              |  Authors: M.Muhlleitner, A.Djouadi and Y.Mambrini  |
#              |  Ref.:    Comput.Phys.Commun.168(2005)46           |
#              |           [hep-ph/0311167]                         |
#              |                                                    |
#              |                     HDECAY 3.4                     |
#              |                                                    |
#              |  By: A.Djouadi,J.Kalinowski,M.Muhlleitner,M.Spira  |
#              |  Ref.:    Comput.Phys.Commun.108(1998)56           |
#              |           [hep-ph/9704448]                         |
#              |                                                    |
#              |                                                    |
#              |  If not stated otherwise all DRbar couplings and   |
#              |  soft SUSY breaking masses are given at the scale  |
#              |  Q=  0.31775350E+04
#              |                                                    |
#              ------------------------------------------------------
#
#
BLOCK DCINFO  # Decay Program information
     1   SDECAY/HDECAY # decay calculator
     2   1.3b  /3.4    # version number
#
BLOCK SPINFO  # Spectrum calculator information
     1     SOFTSUSY    # spectrum calculator               
     2     3.4.0       # version number                    
#
BLOCK MODSEL  # Model selection
     1     0   #  nonUniversal                                     
#
BLOCK SMINPUTS  # Standard Model inputs
         1     1.27908970E+02   # alpha_em^-1(M_Z)^MSbar
         2     1.16637870E-05   # G_F [GeV^-2]
         3     1.18400000E-01   # alpha_S(M_Z)^MSbar
         4     9.11876000E+01   # M_Z pole mass
         5     4.18000000E+00   # mb(mb)^MSbar
         6     1.73200000E+02   # mt pole mass
         7     1.77700000E+00   # mtau pole mass
#
BLOCK MINPAR  # Input parameters - minimal models
         3     4.63200000E+01   # tanb                
#
BLOCK EXTPAR  # Input parameters - non-minimal models
         0    -1.00000000E+00   # Set                 
         1    -1.66857000E+03   # M_1(MX)             
         2     3.15630000E+02   # M_2(MX)             
         3     2.59629000E+03   # M_3(MX)             
        11    -3.16868000E+03   # At(MX)              
        12    -3.57080000E+03   # Ab(MX)              
        13    -3.70938000E+03   # Atau(MX)            
        23     1.34557000E+03   # mu(MX)              
        26     1.91722000E+03   # mA(pole)            
        31     1.55894000E+03   # meL(MX)             
        32     1.55894000E+03   # mmuL(MX)            
        33     1.86985000E+03   # mtauL(MX)           
        34     3.86782000E+03   # meR(MX)             
        35     3.86782000E+03   # mmuR(MX)            
        36     7.60110000E+02   # mtauR(MX)           
        41     1.20359000E+03   # mqL1(MX)            
        42     1.20359000E+03   # mqL2(MX)            
        43     3.39385000E+03   # mqL3(MX)            
        44     1.09457000E+03   # muR(MX)             
        45     1.09457000E+03   # mcR(MX)             
        46     2.97270000E+03   # mtR(MX)             
        47     1.11737000E+03   # mdR(MX)             
        48     1.11737000E+03   # msR(MX)             
        49     3.08260000E+02   # mbR(MX)             
#
BLOCK MASS  # Mass Spectrum
# PDG code           mass       particle
        24     8.03684298E+01   # W+
        25     1.25410545E+02   # h
        35     1.91720344E+03   # H
        36     1.91721992E+03   # A
        37     1.91880112E+03   # H+
         5     4.81876030E+00   # b-quark pole mass calculated from mb(mb)_Msbar
   1000001     1.37509088E+03   # ~d_L
   2000001     1.29456039E+03   # ~d_R
   1000002     1.37283745E+03   # ~u_L
   2000002     1.27236232E+03   # ~u_R
   1000003     1.37509088E+03   # ~s_L
   2000003     1.29456039E+03   # ~s_R
   1000004     1.37283745E+03   # ~c_L
   2000004     1.27236232E+03   # ~c_R
   1000005     6.31244740E+02   # ~b_1
   2000005     3.43115500E+03   # ~b_2
   1000006     3.00119217E+03   # ~t_1
   2000006     3.44445434E+03   # ~t_2
   1000011     1.56324018E+03   # ~e_L
   2000011     3.87373685E+03   # ~e_R
   1000012     1.56090918E+03   # ~nu_eL
   1000013     1.56324018E+03   # ~mu_L
   2000013     3.87373685E+03   # ~mu_R
   1000014     1.56090918E+03   # ~nu_muL
   1000015     7.33213376E+02   # ~tau_1
   2000015     1.85643399E+03   # ~tau_2
   1000016     1.85312102E+03   # ~nu_tauL
   1000021     2.67456585E+03   # ~g
   1000022     3.32097114E+02   # ~chi_10
   1000023    -1.37220118E+03   # ~chi_20
   1000025     1.37737134E+03   # ~chi_30
   1000035    -1.63550225E+03   # ~chi_40
   1000024     3.32264689E+02   # ~chi_1+
   1000037     1.37911034E+03   # ~chi_2+
#
BLOCK NMIX  # Neutralino Mixing Matrix
  1  1     3.83932458E-04   # N_11
  1  2     9.98047217E-01   # N_12
  1  3    -6.04582887E-02   # N_13
  1  4     1.56971306E-02   # N_14
  2  1     1.08643798E-01   # N_21
  2  2     3.14998722E-02   # N_22
  2  3     7.02992370E-01   # N_23
  2  4     7.02143868E-01   # N_24
  3  1    -1.05544631E-02   # N_31
  3  2     5.38414741E-02   # N_32
  3  3     7.05223916E-01   # N_33
  3  4    -7.06858491E-01   # N_34
  4  1     9.94024638E-01   # N_41
  4  2    -3.25664024E-03   # N_42
  4  3    -6.93235228E-02   # N_43
  4  4    -8.42535608E-02   # N_44
#
BLOCK UMIX  # Chargino Mixing Matrix U
  1  1     9.96352398E-01   # U_11
  1  2    -8.53340434E-02   # U_12
  2  1     8.53340434E-02   # U_21
  2  2     9.96352398E-01   # U_22
#
BLOCK VMIX  # Chargino Mixing Matrix V
  1  1     9.99754743E-01   # V_11
  1  2    -2.21461769E-02   # V_12
  2  1     2.21461769E-02   # V_21
  2  2     9.99754743E-01   # V_22
#
BLOCK STOPMIX  # Stop Mixing Matrix
  1  1     1.66063380E-01   # cos(theta_t)
  1  2     9.86115081E-01   # sin(theta_t)
  2  1    -9.86115081E-01   # -sin(theta_t)
  2  2     1.66063380E-01   # cos(theta_t)
#
BLOCK SBOTMIX  # Sbottom Mixing Matrix
  1  1     1.10310874E-02   # cos(theta_b)
  1  2     9.99939156E-01   # sin(theta_b)
  2  1    -9.99939156E-01   # -sin(theta_b)
  2  2     1.10310874E-02   # cos(theta_b)
#
BLOCK STAUMIX  # Stau Mixing Matrix
  1  1     4.10507752E-02   # cos(theta_tau)
  1  2     9.99157062E-01   # sin(theta_tau)
  2  1    -9.99157062E-01   # -sin(theta_tau)
  2  2     4.10507752E-02   # cos(theta_tau)
#
BLOCK ALPHA  # Higgs mixing
          -2.22184096E-02   # Mixing angle in the neutral Higgs boson sector
#
BLOCK HMIX Q=  3.17753500E+03  # DRbar Higgs Parameters
         1     1.36899089E+03   # mu(Q)MSSM           
         2     4.52102659E+01   # tan                 
         3     2.42168730E+02   # higgs               
         4     2.68392977E+06   # mA^2(Q)MSSM         
#
BLOCK GAUGE Q=  3.17753500E+03  # The gauge couplings
     1     3.65384441E-01   # gprime(Q) DRbar
     2     6.41437001E-01   # g(Q) DRbar
     3     1.01632585E+00   # g3(Q) DRbar
#
BLOCK AU Q=  3.17753500E+03  # The trilinear couplings
  1  1     0.00000000E+00   # A_u(Q) DRbar
  2  2     0.00000000E+00   # A_c(Q) DRbar
  3  3    -3.16867998E+03   # A_t(Q) DRbar
#
BLOCK AD Q=  3.17753500E+03  # The trilinear couplings
  1  1     0.00000000E+00   # A_d(Q) DRbar
  2  2     0.00000000E+00   # A_s(Q) DRbar
  3  3    -3.57079999E+03   # A_b(Q) DRbar
#
BLOCK AE Q=  3.17753500E+03  # The trilinear couplings
  1  1     0.00000000E+00   # A_e(Q) DRbar
  2  2     0.00000000E+00   # A_mu(Q) DRbar
  3  3    -3.70938000E+03   # A_tau(Q) DRbar
#
BLOCK Yu Q=  3.17753500E+03  # The Yukawa couplings
  1  1     0.00000000E+00   # y_u(Q) DRbar
  2  2     0.00000000E+00   # y_c(Q) DRbar
  3  3     8.13946179E-01   # y_t(Q) DRbar
#
BLOCK Yd Q=  3.17753500E+03  # The Yukawa couplings
  1  1     0.00000000E+00   # y_d(Q) DRbar
  2  2     0.00000000E+00   # y_s(Q) DRbar
  3  3     5.02857889E-01   # y_b(Q) DRbar
#
BLOCK Ye Q=  3.17753500E+03  # The Yukawa couplings
  1  1     0.00000000E+00   # y_e(Q) DRbar
  2  2     0.00000000E+00   # y_mu(Q) DRbar
  3  3     4.75053710E-01   # y_tau(Q) DRbar
#
BLOCK MSOFT Q=  3.17753500E+03  # The soft SUSY breaking masses at the scale Q
         1    -1.66857000E+03   # M_1(Q)              
         2     3.15630000E+02   # M_2(Q)              
         3     2.59629000E+03   # M_3(Q)              
        21     1.87518598E+06   # mH1^2(Q)            
        22    -1.65827870E+06   # mH2^2(Q)            
        31     1.55894000E+03   # meL(Q)              
        32     1.55894000E+03   # mmuL(Q)             
        33     1.86985000E+03   # mtauL(Q)            
        34     3.86782000E+03   # meR(Q)              
        35     3.86782000E+03   # mmuR(Q)             
        36     7.60110000E+02   # mtauR(Q)            
        41     1.20358998E+03   # mqL1(Q)             
        42     1.20358998E+03   # mqL2(Q)             
        43     3.39384998E+03   # mqL3(Q)             
        44     1.09456998E+03   # muR(Q)              
        45     1.09456998E+03   # mcR(Q)              
        46     2.97269997E+03   # mtR(Q)              
        47     1.11736998E+03   # mdR(Q)              
        48     1.11736998E+03   # msR(Q)              
        49     3.08259859E+02   # mbR(Q)              
#
Block HiggsBoundsInputHiggsCouplingsFermions
# ScalarNormEffCoupSq PseudoSNormEffCoupSq NP   IP1 IP2 IP2
    1.00934821E+00    0.00000000E+00        3  25   5   5  # h0-b-b eff. coupling^2, normalised to SM
    2.04395879E+03    0.00000000E+00        3  35   5   5  # H0-b-b eff. coupling^2, normalised to SM
    0.00000000E+00    2.04396814E+03        3  36   5   5  # A0-b-b eff. coupling^2, normalised to SM
#
    9.99995426E-01    0.00000000E+00        3  25   6   6  # h0-t-t eff. coupling^2, normalised to SM
    4.93817977E-04    0.00000000E+00        3  35   6   6  # H0-t-t eff. coupling^2, normalised to SM
    0.00000000E+00    4.89244416E-04        3  36   6   6  # A0-t-t eff. coupling^2, normalised to SM
#
    1.00934821E+00    0.00000000E+00        3  25  15  15  # h0-tau-tau eff. coupling^2, normalised to SM
    2.04395879E+03    0.00000000E+00        3  35  15  15  # H0-tau-tau eff. coupling^2, normalised to SM
    0.00000000E+00    2.04396814E+03        3  36  15  15  # A0-tau-tau eff. coupling^2, normalised to SM
#
Block HiggsBoundsInputHiggsCouplingsBosons
    9.99999989E-01        3  25  24  24  # h0-W-W eff. coupling^2, normalised to SM
    1.06390125E-08        3  35  24  24  # H0-W-W eff. coupling^2, normalised to SM
    0.00000000E+00        3  36  24  24  # A0-W-W eff. coupling^2, normalised to SM
#
    9.99999989E-01        3  25  23  23  # h0-Z-Z eff. coupling^2, normalised to SM
    1.06390125E-08        3  35  23  23  # H0-Z-Z eff. coupling^2, normalised to SM
    0.00000000E+00        3  36  23  23  # A0-Z-Z eff. coupling^2, normalised to SM
#
    8.83739093E-01        3  25  21  21  # h0-g-g eff. coupling^2, normalised to SM
    2.88769651E-10        3  35  21  21  # H0-g-g eff. coupling^2, normalised to SM
    9.94620789E-10        3  36  21  21  # A0-g-g eff. coupling^2, normalised to SM
#
    0.00000000E+00        3  25  25  23  # h0-h0-Z eff. coupling^2, normalised to SM
    0.00000000E+00        3  35  25  23  # H0-h0-Z eff. coupling^2, normalised to SM
    1.06390125E-08        3  36  25  23  # A0-h0-Z eff. coupling^2, normalised to SM
    0.00000000E+00        3  35  35  23  # H0-H0-Z eff. coupling^2, normalised to SM
    9.99999989E-01        3  36  35  23  # A0-H0-Z eff. coupling^2, normalised to SM
    0.00000000E+00        3  36  36  23  # A0-A0-Z eff. coupling^2, normalised to SM
#
    0.00000000E+00        4  25  21  21  23  # h0-g-g-Z eff. coupling^2, normalised to SM
    0.00000000E+00        4  35  21  21  23  # H0-g-g-Z eff. coupling^2, normalised to SM
    0.00000000E+00        4  36  21  21  23  # A0-g-g-Z eff. coupling^2, normalised to SM
#
#
#
#                             =================
#                             |The decay table|
#                             =================
#
# - The QCD corrections to the decays gluino -> squark  + quark
#                                     squark -> gaugino + quark_prime
#                                     squark -> squark_prime + Higgs
#                                     squark -> gluino  + quark
#   are included.
#
# - The multi-body decays for the inos, stops and sbottoms are included.
#
# - The loop induced decays for the gluino, neutralinos and stops
#   are included.
#
# - The SUSY decays of the top quark are included.
#
#
#         PDG            Width
DECAY         6     1.45000223E+00   # top decays
#          BR         NDA      ID1       ID2
     1.00000000E+00    2           5        24   # BR(t ->  b    W+)
#
#         PDG            Width
DECAY   1000021     3.09785612E+02   # gluino decays
#          BR         NDA      ID1       ID2
     4.98805000E-02    2     1000001        -1   # BR(~g -> ~d_L  db)
     4.98805000E-02    2    -1000001         1   # BR(~g -> ~d_L* d )
     5.40393319E-02    2     2000001        -1   # BR(~g -> ~d_R  db)
     5.40393319E-02    2    -2000001         1   # BR(~g -> ~d_R* d )
     4.99979572E-02    2     1000002        -2   # BR(~g -> ~u_L  ub)
     4.99979572E-02    2    -1000002         2   # BR(~g -> ~u_L* u )
     5.51695060E-02    2     2000002        -2   # BR(~g -> ~u_R  ub)
     5.51695060E-02    2    -2000002         2   # BR(~g -> ~u_R* u )
     4.98805000E-02    2     1000003        -3   # BR(~g -> ~s_L  sb)
     4.98805000E-02    2    -1000003         3   # BR(~g -> ~s_L* s )
     5.40393319E-02    2     2000003        -3   # BR(~g -> ~s_R  sb)
     5.40393319E-02    2    -2000003         3   # BR(~g -> ~s_R* s )
     4.99979405E-02    2     1000004        -4   # BR(~g -> ~c_L  cb)
     4.99979405E-02    2    -1000004         4   # BR(~g -> ~c_L* c )
     5.51694917E-02    2     2000004        -4   # BR(~g -> ~c_R  cb)
     5.51694917E-02    2    -2000004         4   # BR(~g -> ~c_R* c )
     8.18254407E-02    2     1000005        -5   # BR(~g -> ~b_1  bb)
     8.18254407E-02    2    -1000005         5   # BR(~g -> ~b_1* b )
#
#         PDG            Width
DECAY   1000006     6.00079717E+01   # stop1 decays
#          BR         NDA      ID1       ID2
     7.42820015E-03    2     1000022         6   # BR(~t_1 -> ~chi_10 t )
     2.03123892E-01    2     1000023         6   # BR(~t_1 -> ~chi_20 t )
     1.95632939E-01    2     1000025         6   # BR(~t_1 -> ~chi_30 t )
     6.21431364E-02    2     1000035         6   # BR(~t_1 -> ~chi_40 t )
     1.50394251E-02    2     1000024         5   # BR(~t_1 -> ~chi_1+ b )
     4.00470308E-01    2     1000037         5   # BR(~t_1 -> ~chi_2+ b )
     1.12896772E-01    2     1000021         6   # BR(~t_1 -> ~g      t )
     2.43112155E-03    2     1000005        37   # BR(~t_1 -> ~b_1    H+)
     8.34205514E-04    2     1000005        24   # BR(~t_1 -> ~b_1    W+)
#
#         PDG            Width
DECAY   2000006     1.35059744E+02   # stop2 decays
#          BR         NDA      ID1       ID2
     9.78230652E-02    2     1000022         6   # BR(~t_2 -> ~chi_10 t )
     1.16191600E-01    2     1000023         6   # BR(~t_2 -> ~chi_20 t )
     1.21996423E-01    2     1000025         6   # BR(~t_2 -> ~chi_30 t )
     2.68381897E-03    2     1000035         6   # BR(~t_2 -> ~chi_40 t )
     1.98140997E-01    2     1000024         5   # BR(~t_2 -> ~chi_1+ b )
     9.53514352E-02    2     1000037         5   # BR(~t_2 -> ~chi_2+ b )
     1.99418220E-01    2     1000021         6   # BR(~t_2 -> ~g      t )
     2.99384758E-02    2     1000006        25   # BR(~t_2 -> ~t_1    h )
     8.34106163E-02    2     1000005        37   # BR(~t_2 -> ~b_1    H+)
     3.46058991E-02    2     1000006        23   # BR(~t_2 -> ~t_1    Z )
     2.04394497E-02    2     1000005        24   # BR(~t_2 -> ~b_1    W+)
#
#         PDG            Width
DECAY   1000005     1.99511915E-02   # sbottom1 decays
#          BR         NDA      ID1       ID2
     4.12283409E-01    2     1000022         5   # BR(~b_1 -> ~chi_10 b )
     5.87716591E-01    2    -1000024         6   # BR(~b_1 -> ~chi_1- t )
#
#         PDG            Width
DECAY   2000005     1.37292041E+02   # sbottom2 decays
#          BR         NDA      ID1       ID2
     1.00255892E-01    2     1000022         5   # BR(~b_2 -> ~chi_10 b )
     4.38145010E-02    2     1000023         5   # BR(~b_2 -> ~chi_20 b )
     4.43071433E-02    2     1000025         5   # BR(~b_2 -> ~chi_30 b )
     2.66908773E-03    2     1000035         5   # BR(~b_2 -> ~chi_40 b )
     1.97981251E-01    2    -1000024         6   # BR(~b_2 -> ~chi_1- t )
     2.32656287E-01    2    -1000037         6   # BR(~b_2 -> ~chi_2- t )
     2.10827843E-01    2     1000021         5   # BR(~b_2 -> ~g      b )
     1.07847692E-02    2     1000005        25   # BR(~b_2 -> ~b_1    h )
     4.15070063E-02    2     1000005        35   # BR(~b_2 -> ~b_1    H )
     4.15295866E-02    2     1000005        36   # BR(~b_2 -> ~b_1    A )
     1.04985930E-02    2     1000005        23   # BR(~b_2 -> ~b_1    Z )
     6.31680404E-02    2     1000006       -24   # BR(~b_2 -> ~t_1    W-)
#
#         PDG            Width
DECAY   1000002     1.51180954E+01   # sup_L decays
#          BR         NDA      ID1       ID2
     3.32634073E-01    2     1000022         2   # BR(~u_L -> ~chi_10 u)
     1.13902214E-09    2     1000023         2   # BR(~u_L -> ~chi_20 u)
     6.67365925E-01    2     1000024         1   # BR(~u_L -> ~chi_1+ d)
#
#         PDG            Width
DECAY   2000002     2.09618014E-03   # sup_R decays
#           BR         NDA      ID1       ID2
     1.86658503E-04    2     1000022         2   # BR(~u_R -> ~chi_10 u)
#           BR         NDA      ID1       ID2       ID3
     1.12919684E-01    3        2       -5        1000005   # BR(~u_R -> u  bb  ~b_1)
     8.58084649E-01    3        2       5        -1000005   # BR(~u_R -> u  b  ~b_1*)
     7.96162490E-03    3        2       -15        1000015   # BR(~u_R -> u  tau+  ~tau_1-)
     2.00564824E-02    3        2       15        -1000015   # BR(~u_R -> u  tau-  ~tau_1+)
     1.88185162E-04    3        2       23        1000022   # BR(~u_R -> u  Z  ~chi_10)
     7.52750191E-05    3        2       25        1000022   # BR(~u_R -> u  h  ~chi_10)
     4.21810122E-04    3        2       -24        1000024   # BR(~u_R -> u  W-  ~chi_1+)
     1.05630235E-04    3        2       24        -1000024   # BR(~u_R -> u  W+  ~chi_1-)
#
#         PDG            Width
DECAY   1000001     1.50776130E+01   # sdown_L decays
#          BR         NDA      ID1       ID2
     3.34084208E-01    2     1000022         1   # BR(~d_L -> ~chi_10 d)
     9.60095065E-10    2     1000023         1   # BR(~d_L -> ~chi_20 d)
     6.65915791E-01    2    -1000024         2   # BR(~d_L -> ~chi_1- u)
#
#         PDG            Width
DECAY   2000001     2.31251997E-03   # sdown_R decays
#           BR         NDA      ID1       ID2
     4.32126977E-05    2     1000022         1   # BR(~d_R -> ~chi_10 d)
#           BR         NDA      ID1       ID2       ID3
     1.63782369E-08    3        1       -2        2000002   # BR(~d_R -> d  ub  ~u_R)
     6.64123993E-08    3        1       2        -2000002   # BR(~d_R -> d  u  ~u_R*)
     1.59968348E-08    3        1       -4        2000004   # BR(~d_R -> d  cb  ~c_R)
     6.57724049E-08    3        1       4        -2000004   # BR(~d_R -> d  c  ~c_R*)
     1.15320085E-01    3        1       -5        1000005   # BR(~d_R -> d  bb  ~b_1)
     8.76619455E-01    3        1       5        -1000005   # BR(~d_R -> d  b  ~b_1*)
     2.25476971E-03    3        1       -15        1000015   # BR(~d_R -> d  tau+  ~tau_1-)
     5.51951989E-03    3        1       15        -1000015   # BR(~d_R -> d  tau-  ~tau_1+)
     5.77854468E-05    3        1       23        1000022   # BR(~d_R -> d  Z  ~chi_10)
     2.23215369E-05    3        1       25        1000022   # BR(~d_R -> d  h  ~chi_10)
     1.26891877E-04    3        1       -24        1000024   # BR(~d_R -> d  W-  ~chi_1+)
     3.57938530E-05    3        1       24        -1000024   # BR(~d_R -> d  W+  ~chi_1-)
#
#         PDG            Width
DECAY   1000004     1.49158871E+01   # scharm_L decays
#          BR         NDA      ID1       ID2
     3.32633676E-01    2     1000022         4   # BR(~c_L -> ~chi_10 c)
     6.67366324E-01    2     1000024         3   # BR(~c_L -> ~chi_1+ s)
#
#         PDG            Width
DECAY   2000004     2.09798516E-03   # scharm_R decays
#           BR         NDA      ID1       ID2
     1.83277832E-04    2     1000022         4   # BR(~c_R -> ~chi_10 c)
#           BR         NDA      ID1       ID2       ID3
     1.12522245E-01    3        4       -5        1000005   # BR(~c_R -> c  bb  ~b_1)
     8.58395012E-01    3        4       5        -1000005   # BR(~c_R -> c  b  ~b_1*)
     7.93046599E-03    3        4       -15        1000015   # BR(~c_R -> c  tau+  ~tau_1-)
     2.01760245E-02    3        4       15        -1000015   # BR(~c_R -> c  tau-  ~tau_1+)
     1.87899327E-04    3        4       23        1000022   # BR(~c_R -> c  Z  ~chi_10)
     7.50481951E-05    3        4       25        1000022   # BR(~c_R -> c  h  ~chi_10)
     4.24450094E-04    3        4       -24        1000024   # BR(~c_R -> c  W-  ~chi_1+)
     1.05577486E-04    3        4       24        -1000024   # BR(~c_R -> c  W+  ~chi_1-)
#
#         PDG            Width
DECAY   1000003     1.48772302E+01   # sstrange_L decays
#          BR         NDA      ID1       ID2
     3.34084808E-01    2     1000022         3   # BR(~s_L -> ~chi_10 s)
     7.88006773E-10    2     1000023         3   # BR(~s_L -> ~chi_20 s)
     6.65915191E-01    2    -1000024         4   # BR(~s_L -> ~chi_1- c)
#
#         PDG            Width
DECAY   2000003     2.31250383E-03   # sstrange_R decays
#           BR         NDA      ID1       ID2
     4.25048573E-05    2     1000022         3   # BR(~s_R -> ~chi_10 s)
#           BR         NDA      ID1       ID2       ID3
     1.63554324E-08    3        3       -2        2000002   # BR(~s_R -> s  ub  ~u_R)
     6.66593492E-08    3        3       2        -2000002   # BR(~s_R -> s  u  ~u_R*)
     1.60440816E-08    3        3       -4        2000004   # BR(~s_R -> s  cb  ~c_R)
     6.53879999E-08    3        3       4        -2000004   # BR(~s_R -> s  c  ~c_R*)
     1.15320890E-01    3        3       -5        1000005   # BR(~s_R -> s  bb  ~b_1)
     8.76625577E-01    3        3       5        -1000005   # BR(~s_R -> s  b  ~b_1*)
     2.25478546E-03    3        3       -15        1000015   # BR(~s_R -> s  tau+  ~tau_1-)
     5.51393682E-03    3        3       15        -1000015   # BR(~s_R -> s  tau-  ~tau_1+)
     5.91869291E-05    3        3       23        1000022   # BR(~s_R -> s  Z  ~chi_10)
     2.23216928E-05    3        3       25        1000022   # BR(~s_R -> s  h  ~chi_10)
     1.25154388E-04    3        3       -24        1000024   # BR(~s_R -> s  W-  ~chi_1+)
     3.54784278E-05    3        3       24        -1000024   # BR(~s_R -> s  W+  ~chi_1-)
#
#         PDG            Width
DECAY   1000011     1.74021487E+01   # selectron_L decays
#          BR         NDA      ID1       ID2
     3.34049414E-01    2     1000022        11   # BR(~e_L -> ~chi_10 e-)
     1.68846774E-04    2     1000023        11   # BR(~e_L -> ~chi_20 e-)
     4.20731024E-05    2     1000025        11   # BR(~e_L -> ~chi_30 e-)
     6.65476494E-01    2    -1000024        12   # BR(~e_L -> ~chi_1- nu_e)
     2.63172179E-04    2    -1000037        12   # BR(~e_L -> ~chi_2- nu_e)
#
#         PDG            Width
DECAY   2000011     1.39171309E+01   # selectron_R decays
#          BR         NDA      ID1       ID2
     2.14754787E-07    2     1000022        11   # BR(~e_R -> ~chi_10 e-)
     1.33471879E-02    2     1000023        11   # BR(~e_R -> ~chi_20 e-)
     1.25692903E-04    2     1000025        11   # BR(~e_R -> ~chi_30 e-)
     9.86526904E-01    2     1000035        11   # BR(~e_R -> ~chi_40 e-)
#
#         PDG            Width
DECAY   1000013     1.74021486E+01   # smuon_L decays
#          BR         NDA      ID1       ID2
     3.34049412E-01    2     1000022        13   # BR(~mu_L -> ~chi_10 mu-)
     1.68846745E-04    2     1000023        13   # BR(~mu_L -> ~chi_20 mu-)
     4.20730949E-05    2     1000025        13   # BR(~mu_L -> ~chi_30 mu-)
     6.65476496E-01    2    -1000024        14   # BR(~mu_L -> ~chi_1- nu_mu)
     2.63172180E-04    2    -1000037        14   # BR(~mu_L -> ~chi_2- nu_mu)
#
#         PDG            Width
DECAY   2000013     1.39171309E+01   # smuon_R decays
#          BR         NDA      ID1       ID2
     2.14754787E-07    2     1000022        13   # BR(~mu_R -> ~chi_10 mu-)
     1.33471879E-02    2     1000023        13   # BR(~mu_R -> ~chi_20 mu-)
     1.25692903E-04    2     1000025        13   # BR(~mu_R -> ~chi_30 mu-)
     9.86526904E-01    2     1000035        13   # BR(~mu_R -> ~chi_40 mu-)
#
#         PDG            Width
DECAY   1000015     6.16373930E-02   # stau_1 decays
#          BR         NDA      ID1       ID2
     3.34378185E-01    2     1000022        15   # BR(~tau_1 -> ~chi_10  tau-)
     6.65621815E-01    2    -1000024        16   # BR(~tau_1 -> ~chi_1-  nu_tau)
#
#         PDG            Width
DECAY   2000015     2.71842194E+01   # stau_2 decays
#          BR         NDA      ID1       ID2
     2.60223940E-01    2     1000022        15   # BR(~tau_2 -> ~chi_10  tau-)
     3.15462954E-02    2     1000023        15   # BR(~tau_2 -> ~chi_20  tau-)
     3.11665952E-02    2     1000025        15   # BR(~tau_2 -> ~chi_30  tau-)
     4.59694547E-03    2     1000035        15   # BR(~tau_2 -> ~chi_40  tau-)
     5.16354588E-01    2    -1000024        16   # BR(~tau_2 -> ~chi_1-  nu_tau)
     1.49889638E-03    2    -1000037        16   # BR(~tau_2 -> ~chi_2-  nu_tau)
     7.79279979E-02    2     1000015        25   # BR(~tau_2 -> ~tau_1   h)
     7.66847414E-02    2     1000015        23   # BR(~tau_2 -> ~tau_1   Z)
#
#         PDG            Width
DECAY   1000012     1.74387810E+01   # snu_eL decays
#          BR         NDA      ID1       ID2
     3.32465060E-01    2     1000022        12   # BR(~nu_eL -> ~chi_10 nu_e)
     1.74575056E-05    2     1000023        12   # BR(~nu_eL -> ~chi_20 nu_e)
     6.42951575E-05    2     1000025        12   # BR(~nu_eL -> ~chi_30 nu_e)
     6.67435894E-01    2     1000024        11   # BR(~nu_eL -> ~chi_1+ e-)
     1.72929588E-05    2     1000037        11   # BR(~nu_eL -> ~chi_2+ e-)
#
#         PDG            Width
DECAY   1000014     1.74387808E+01   # snu_muL decays
#          BR         NDA      ID1       ID2
     3.32465063E-01    2     1000022        14   # BR(~nu_muL -> ~chi_10 nu_mu)
     1.74575057E-05    2     1000023        14   # BR(~nu_muL -> ~chi_20 nu_mu)
     6.42951580E-05    2     1000025        14   # BR(~nu_muL -> ~chi_30 nu_mu)
     6.67435892E-01    2     1000024        13   # BR(~nu_muL -> ~chi_1+ mu-)
     1.72929556E-05    2     1000037        13   # BR(~nu_muL -> ~chi_2+ mu-)
#
#         PDG            Width
DECAY   1000016     2.71449260E+01   # snu_tauL decays
#          BR         NDA      ID1       ID2
     2.60604344E-01    2     1000022        16   # BR(~nu_tauL -> ~chi_10 nu_tau)
     5.26363027E-05    2     1000023        16   # BR(~nu_tauL -> ~chi_20 nu_tau)
     2.00485969E-04    2     1000025        16   # BR(~nu_tauL -> ~chi_30 nu_tau)
     4.42870460E-03    2     1000035        16   # BR(~nu_tauL -> ~chi_40 nu_tau)
     5.25254054E-01    2     1000024        15   # BR(~nu_tauL -> ~chi_1+ tau-)
     6.06307502E-02    2     1000037        15   # BR(~nu_tauL -> ~chi_2+ tau-)
     1.48829025E-01    2    -1000015       -24   # BR(~nu_tauL -> ~tau_1+ W-)
#
#         PDG            Width
DECAY   1000024     3.98567970E-15   # chargino1+ decays
#           BR         NDA      ID1       ID2       ID3
     1.93805330E-02    3     1000022       -11        12   # BR(~chi_1+ -> ~chi_10 e+   nu_e)
     2.41434540E-03    3     1000022       -13        14   # BR(~chi_1+ -> ~chi_10 mu+  nu_mu)
     9.78205120E-01    2     1000022       211             # BR(~chi_1+ -> ~chi_10 pi+)
#
#         PDG            Width
DECAY   1000037     1.62219772E+01   # chargino2+ decays
#          BR         NDA      ID1       ID2
     5.04058340E-08    2     1000002        -1   # BR(~chi_2+ -> ~u_L     db)
     3.13620040E-07    2    -1000001         2   # BR(~chi_2+ -> ~d_L*    u )
     5.03203938E-08    2     1000004        -3   # BR(~chi_2+ -> ~c_L     sb)
     2.92393171E-07    2    -1000003         4   # BR(~chi_2+ -> ~s_L*     c )
     3.96904796E-01    2    -1000005         6   # BR(~chi_2+ -> ~b_1*    t )
     9.64026396E-02    2    -1000015        16   # BR(~chi_2+ -> ~tau_1+  nu_tau)
     1.69408931E-01    2     1000024        23   # BR(~chi_2+ -> ~chi_1+  Z )
     1.65152093E-01    2     1000022        24   # BR(~chi_2+ -> ~chi_10  W+)
     1.72130834E-01    2     1000024        25   # BR(~chi_2+ -> ~chi_1+  h )
#
#         PDG            Width
DECAY   1000022     0.00000000E+00   # neutralino1 decays
#
#         PDG            Width
DECAY   1000023     1.59248662E+01   # neutralino2 decays
#          BR         NDA      ID1       ID2
     1.25489734E-01    2     1000022        23   # BR(~chi_20 -> ~chi_10   Z )
     1.64799311E-01    2     1000024       -24   # BR(~chi_20 -> ~chi_1+   W-)
     1.64799311E-01    2    -1000024        24   # BR(~chi_20 -> ~chi_1-   W+)
     4.35767699E-02    2     1000022        25   # BR(~chi_20 -> ~chi_10   h )
     7.55127875E-05    2     2000002        -2   # BR(~chi_20 -> ~u_R      ub)
     7.55127875E-05    2    -2000002         2   # BR(~chi_20 -> ~u_R*     u )
     1.17187016E-05    2     2000001        -1   # BR(~chi_20 -> ~d_R      db)
     1.17187016E-05    2    -2000001         1   # BR(~chi_20 -> ~d_R*     d )
     7.55043662E-05    2     2000004        -4   # BR(~chi_20 -> ~c_R      cb)
     7.55043662E-05    2    -2000004         4   # BR(~chi_20 -> ~c_R*     c )
     1.17187016E-05    2     2000003        -3   # BR(~chi_20 -> ~s _R      sb)
     1.17187016E-05    2    -2000003         3   # BR(~chi_20 -> ~s _R*     s )
     2.00223545E-01    2     1000005        -5   # BR(~chi_20 -> ~b_1      bb)
     2.00223545E-01    2    -1000005         5   # BR(~chi_20 -> ~b_1*     b )
     5.02694368E-02    2     1000015       -15   # BR(~chi_20 -> ~tau_1-   tau+)
     5.02694368E-02    2    -1000015        15   # BR(~chi_20 -> ~tau_1+   tau-)
#
#         PDG            Width
DECAY   1000025     1.61936921E+01   # neutralino3 decays
#          BR         NDA      ID1       ID2
     4.40274750E-02    2     1000022        23   # BR(~chi_30 -> ~chi_10   Z )
     1.66218830E-01    2     1000024       -24   # BR(~chi_30 -> ~chi_1+   W-)
     1.66218830E-01    2    -1000024        24   # BR(~chi_30 -> ~chi_1-   W+)
     1.28827375E-01    2     1000022        25   # BR(~chi_30 -> ~chi_10   h )
     7.34444208E-08    2     1000002        -2   # BR(~chi_30 -> ~u_L      ub)
     7.34444208E-08    2    -1000002         2   # BR(~chi_30 -> ~u_L*     u )
     7.68171816E-07    2     2000002        -2   # BR(~chi_30 -> ~u_R      ub)
     7.68171816E-07    2    -2000002         2   # BR(~chi_30 -> ~u_R*     u )
     2.22298312E-08    2     1000001        -1   # BR(~chi_30 -> ~d_L      db)
     2.22298312E-08    2    -1000001         1   # BR(~chi_30 -> ~d_L*     d )
     1.22512776E-07    2     2000001        -1   # BR(~chi_30 -> ~d_R      db)
     1.22512776E-07    2    -2000001         1   # BR(~chi_30 -> ~d_R*     d )
     6.95563757E-08    2     1000004        -4   # BR(~chi_30 -> ~c_L      cb)
     6.95563757E-08    2    -1000004         4   # BR(~chi_30 -> ~c_L*     c )
     7.68094536E-07    2     2000004        -4   # BR(~chi_30 -> ~c_R      cb)
     7.68094536E-07    2    -2000004         4   # BR(~chi_30 -> ~c_R*     c )
     2.22298312E-08    2     1000003        -3   # BR(~chi_30 -> ~s _L      sb)
     2.22298312E-08    2    -1000003         3   # BR(~chi_30 -> ~s _L*     s )
     1.22512776E-07    2     2000003        -3   # BR(~chi_30 -> ~s _R      sb)
     1.22512776E-07    2    -2000003         3   # BR(~chi_30 -> ~s _R*     s )
     1.98886564E-01    2     1000005        -5   # BR(~chi_30 -> ~b_1      bb)
     1.98886564E-01    2    -1000005         5   # BR(~chi_30 -> ~b_1*     b )
     4.84652132E-02    2     1000015       -15   # BR(~chi_30 -> ~tau_1-   tau+)
     4.84652132E-02    2    -1000015        15   # BR(~chi_30 -> ~tau_1+   tau-)
#
#         PDG            Width
DECAY   1000035     1.40518870E+01   # neutralino4 decays
#          BR         NDA      ID1       ID2
     2.70770350E-03    2     1000022        23   # BR(~chi_40 -> ~chi_10   Z )
     3.32392676E-04    2     1000023        23   # BR(~chi_40 -> ~chi_20   Z )
     2.40491749E-02    2     1000025        23   # BR(~chi_40 -> ~chi_30   Z )
     3.78705071E-03    2     1000024       -24   # BR(~chi_40 -> ~chi_1+   W-)
     3.78705071E-03    2    -1000024        24   # BR(~chi_40 -> ~chi_1-   W+)
     2.43527216E-02    2     1000037       -24   # BR(~chi_40 -> ~chi_2+   W-)
     2.43527216E-02    2    -1000037        24   # BR(~chi_40 -> ~chi_2-   W+)
     1.21374121E-03    2     1000022        25   # BR(~chi_40 -> ~chi_10   h )
     3.15429739E-02    2     1000023        25   # BR(~chi_40 -> ~chi_20   h )
     1.90094877E-04    2     1000025        25   # BR(~chi_40 -> ~chi_30   h )
     2.21105257E-03    2     1000002        -2   # BR(~chi_40 -> ~u_L      ub)
     2.21105257E-03    2    -1000002         2   # BR(~chi_40 -> ~u_L*     u )
     6.48522865E-02    2     2000002        -2   # BR(~chi_40 -> ~u_R      ub)
     6.48522865E-02    2    -2000002         2   # BR(~chi_40 -> ~u_R*     u )
     2.33265730E-03    2     1000001        -1   # BR(~chi_40 -> ~d_L      db)
     2.33265730E-03    2    -1000001         1   # BR(~chi_40 -> ~d_L*     d )
     1.45331755E-02    2     2000001        -1   # BR(~chi_40 -> ~d_R      db)
     1.45331755E-02    2    -2000001         1   # BR(~chi_40 -> ~d_R*     d )
     2.21101942E-03    2     1000004        -4   # BR(~chi_40 -> ~c_L      cb)
     2.21101942E-03    2    -1000004         4   # BR(~chi_40 -> ~c_L*     c )
     6.48518147E-02    2     2000004        -4   # BR(~chi_40 -> ~c_R      cb)
     6.48518147E-02    2    -2000004         4   # BR(~chi_40 -> ~c_R*     c )
     2.33265730E-03    2     1000003        -3   # BR(~chi_40 -> ~s _L      sb)
     2.33265730E-03    2    -1000003         3   # BR(~chi_40 -> ~s _L*     s )
     1.45331755E-02    2     2000003        -3   # BR(~chi_40 -> ~s _R      sb)
     1.45331755E-02    2    -2000003         3   # BR(~chi_40 -> ~s _R*     s )
     7.64934112E-02    2     1000005        -5   # BR(~chi_40 -> ~b_1      bb)
     7.64934112E-02    2    -1000005         5   # BR(~chi_40 -> ~b_1*     b )
     5.63697028E-04    2     1000011       -11   # BR(~chi_40 -> ~e_L-     e+)
     5.63697028E-04    2    -1000011        11   # BR(~chi_40 -> ~e_L+     e-)
     5.63697028E-04    2     1000013       -13   # BR(~chi_40 -> ~mu_L-    mu+)
     5.63697028E-04    2    -1000013        13   # BR(~chi_40 -> ~mu_L+    mu-)
     1.95136075E-01    2     1000015       -15   # BR(~chi_40 -> ~tau_1-   tau+)
     1.95136075E-01    2    -1000015        15   # BR(~chi_40 -> ~tau_1+   tau-)
     6.13733889E-04    2     1000012       -12   # BR(~chi_40 -> ~nu_eL    nu_eb)
     6.13733889E-04    2    -1000012        12   # BR(~chi_40 -> ~nu_eL*   nu_e )
     6.13733889E-04    2     1000014       -14   # BR(~chi_40 -> ~nu_muL   nu_mub)
     6.13733889E-04    2    -1000014        14   # BR(~chi_40 -> ~nu_muL*  nu_mu )
#
#         PDG            Width
DECAY        25     4.92806190E-03   # h decays
#          BR         NDA      ID1       ID2
     6.59085892E-01    2           5        -5   # BR(h -> b       bb     )
     5.31587254E-02    2         -15        15   # BR(h -> tau+    tau-   )
     1.88160642E-04    2         -13        13   # BR(h -> mu+     mu-    )
     2.04701967E-04    2           3        -3   # BR(h -> s       sb     )
     1.76454543E-02    2           4        -4   # BR(h -> c       cb     )
     6.51922886E-02    2          21        21   # BR(h -> g       g      )
     1.94090063E-03    2          22        22   # BR(h -> gam     gam    )
     1.31367563E-03    2          22        23   # BR(h -> Z       gam    )
     1.78866490E-01    2          24       -24   # BR(h -> W+      W-     )
     2.24037111E-02    2          23        23   # BR(h -> Z       Z      )
#
#         PDG            Width
DECAY        35     5.53749376E+01   # H decays
#          BR         NDA      ID1       ID2
     7.77320980E-01    2           5        -5   # BR(H -> b       bb     )
     1.40146927E-01    2         -15        15   # BR(H -> tau+    tau-   )
     4.95367182E-04    2         -13        13   # BR(H -> mu+     mu-    )
     1.65453320E-04    2           3        -3   # BR(H -> s       sb     )
     7.45909805E-09    2           4        -4   # BR(H -> c       cb     )
     7.20460773E-04    2           6        -6   # BR(H -> t       tb     )
     2.65996473E-05    2          21        21   # BR(H -> g       g      )
     4.91422240E-08    2          22        22   # BR(H -> gam     gam    )
     1.52359292E-08    2          23        22   # BR(H -> Z       gam    )
     4.32221115E-07    2          24       -24   # BR(H -> W+      W-     )
     2.15227619E-07    2          23        23   # BR(H -> Z       Z      )
     2.08818676E-06    2          25        25   # BR(H -> h       h      )
     1.74221061E-03    2     1000024  -1000024   # BR(H -> ~chi_1+ ~chi_1-)
     2.55522995E-02    2     1000024  -1000037   # BR(H -> ~chi_1+ ~chi_2-)
     2.55522995E-02    2     1000037  -1000024   # BR(H -> ~chi_2+ ~chi_1-)
     8.71312950E-04    2     1000022   1000022   # BR(H -> ~chi_10 ~chi_10)
     2.05705357E-02    2     1000022   1000023   # BR(H -> ~chi_10 ~chi_20)
     5.34605511E-03    2     1000022   1000025   # BR(H -> ~chi_10 ~chi_30)
     3.27879360E-04    2     1000005  -1000005   # BR(H -> ~b_1    ~b_1*  )
     1.15881242E-03    2     1000015  -1000015   # BR(H -> ~tau_1- ~tau_1+)
#
#         PDG            Width
DECAY        36     5.52913155E+01   # A decays
#          BR         NDA      ID1       ID2
     7.78518370E-01    2           5        -5   # BR(A -> b       bb     )
     1.40361229E-01    2         -15        15   # BR(A -> tau+    tau-   )
     4.96122963E-04    2         -13        13   # BR(A -> mu+     mu-    )
     1.65711596E-04    2           3        -3   # BR(A -> s       sb     )
     7.46934906E-09    2           4        -4   # BR(A -> c       cb     )
     7.31365486E-04    2           6        -6   # BR(A -> t       tb     )
     4.94433940E-05    2          21        21   # BR(A -> g       g      )
     7.21881356E-08    2          22        22   # BR(A -> gam     gam    )
     2.78594751E-08    2          23        22   # BR(A -> Z       gam    )
     4.36283913E-07    2          23        25   # BR(A -> Z       h      )
     2.02913877E-03    2     1000024  -1000024   # BR(A -> ~chi_1+ ~chi_1-)
     2.54771943E-02    2     1000024  -1000037   # BR(A -> ~chi_1+ ~chi_2-)
     2.54771943E-02    2     1000037  -1000024   # BR(A -> ~chi_2+ ~chi_1-)
     1.01476111E-03    2     1000022   1000022   # BR(A -> ~chi_10 ~chi_10)
     5.60687121E-03    2     1000022   1000023   # BR(A -> ~chi_10 ~chi_20)
     2.00720544E-02    2     1000022   1000025   # BR(A -> ~chi_10 ~chi_30)
#
#         PDG            Width
DECAY        37     4.17438940E+01   # H+ decays
#          BR         NDA      ID1       ID2
     1.19323464E-03    2           4        -5   # BR(H+ -> c       bb     )
     1.86066916E-01    2         -15        16   # BR(H+ -> tau+    nu_tau )
     6.57674985E-04    2         -13        14   # BR(H+ -> mu+     nu_mu  )
     1.19323133E-05    2           2        -5   # BR(H+ -> u       bb     )
     1.09692277E-05    2           2        -3   # BR(H+ -> u       sb     )
     2.15917109E-04    2           4        -3   # BR(H+ -> c       sb     )
     7.07813685E-01    2           6        -5   # BR(H+ -> t       bb     )
     5.80213924E-07    2          24        25   # BR(H+ -> W+      h      )
     3.11351882E-13    2          24        36   # BR(H+ -> W+      A      )
     3.66969651E-12    2     1000024   1000022   # BR(H+ -> ~chi_1+ ~chi_10)
     3.51820783E-02    2     1000024   1000023   # BR(H+ -> ~chi_1+ ~chi_20)
     3.44062182E-02    2     1000024   1000025   # BR(H+ -> ~chi_1+ ~chi_30)
     3.44407938E-02    2     1000037   1000022   # BR(H+ -> ~chi_2+ ~chi_10)
