#
#                              ======================
#                              | THE SUSYHIT OUTPUT |
#                              ======================
#
#
#              ------------------------------------------------------
#              |     This is the output of the SUSY-HIT package     |
#              |  created by A.Djouadi, M.Muehlleitner and M.Spira. |
#              |  In case of problems with SUSY-HIT email to        |
#              |           margarete.muehlleitner@cern.ch           |
#              |           michael.spira@psi.ch                     |
#              |           abdelhak.djouadi@cern.ch                 |
#              ------------------------------------------------------
#
#              ------------------------------------------------------
#              |  SUSY Les Houches Accord - MSSM Spectrum + Decays  |
#              |              based on the decay programs           |
#              |                                                    |
#              |                     SDECAY 1.3b                    |
#              |                                                    |
#              |  Authors: M.Muhlleitner, A.Djouadi and Y.Mambrini  |
#              |  Ref.:    Comput.Phys.Commun.168(2005)46           |
#              |           [hep-ph/0311167]                         |
#              |                                                    |
#              |                     HDECAY 3.4                     |
#              |                                                    |
#              |  By: A.Djouadi,J.Kalinowski,M.Muhlleitner,M.Spira  |
#              |  Ref.:    Comput.Phys.Commun.108(1998)56           |
#              |           [hep-ph/9704448]                         |
#              |                                                    |
#              |                                                    |
#              |  If not stated otherwise all DRbar couplings and   |
#              |  soft SUSY breaking masses are given at the scale  |
#              |  Q=  0.10605980E+04
#              |                                                    |
#              ------------------------------------------------------
#
#
BLOCK DCINFO  # Decay Program information
     1   SDECAY/HDECAY # decay calculator
     2   1.3b  /3.4    # version number
#
BLOCK SPINFO  # Spectrum calculator information
     1     SOFTSUSY    # spectrum calculator               
     2     3.4.0       # version number                    
#
BLOCK MODSEL  # Model selection
     1     0   #  nonUniversal                                     
#
BLOCK SMINPUTS  # Standard Model inputs
         1     1.27908970E+02   # alpha_em^-1(M_Z)^MSbar
         2     1.16637870E-05   # G_F [GeV^-2]
         3     1.18400000E-01   # alpha_S(M_Z)^MSbar
         4     9.11876000E+01   # M_Z pole mass
         5     4.18000000E+00   # mb(mb)^MSbar
         6     1.73200000E+02   # mt pole mass
         7     1.77700000E+00   # mtau pole mass
#
BLOCK MINPAR  # Input parameters - minimal models
         3     8.15000000E+00   # tanb                
#
BLOCK EXTPAR  # Input parameters - non-minimal models
         0    -1.00000000E+00   # Set                 
         1    -2.89778000E+03   # M_1(MX)             
         2    -5.25650000E+02   # M_2(MX)             
         3     1.98853000E+03   # M_3(MX)             
        11     2.69715000E+03   # At(MX)              
        12     1.41941000E+03   # Ab(MX)              
        13    -1.16892000E+03   # Atau(MX)            
        23    -9.82730000E+02   # mu(MX)              
        26     1.44520000E+03   # mA(pole)            
        31     2.14434000E+03   # meL(MX)             
        32     2.14434000E+03   # mmuL(MX)            
        33     2.65753000E+03   # mtauL(MX)           
        34     2.00889000E+03   # meR(MX)             
        35     2.00889000E+03   # mmuR(MX)            
        36     2.07094000E+03   # mtauR(MX)           
        41     2.66420000E+03   # mqL1(MX)            
        42     2.66420000E+03   # mqL2(MX)            
        43     9.18190000E+02   # mqL3(MX)            
        44     1.22979000E+03   # muR(MX)             
        45     1.22979000E+03   # mcR(MX)             
        46     1.28636000E+03   # mtR(MX)             
        47     1.14245000E+03   # mdR(MX)             
        48     1.14245000E+03   # msR(MX)             
        49     3.45987000E+03   # mbR(MX)             
#
BLOCK MASS  # Mass Spectrum
# PDG code           mass       particle
        24     8.04165648E+01   # W+
        25     1.27178792E+02   # h
        35     1.44492657E+03   # H
        36     1.44520000E+03   # A
        37     1.44760316E+03   # H+
         5     4.81876030E+00   # b-quark pole mass calculated from mb(mb)_Msbar
   1000001     2.68498004E+03   # ~d_L
   2000001     1.16499516E+03   # ~d_R
   1000002     2.68402122E+03   # ~u_L
   2000002     1.24243706E+03   # ~u_R
   1000003     2.68498004E+03   # ~s_L
   2000003     1.16499516E+03   # ~s_R
   1000004     2.68402122E+03   # ~c_L
   2000004     1.24243706E+03   # ~c_R
   1000005     9.19859065E+02   # ~b_1
   2000005     3.47267154E+03   # ~b_2
   1000006     8.09406497E+02   # ~t_1
   2000006     1.31949677E+03   # ~t_2
   1000011     2.14520415E+03   # ~e_L
   2000011     2.01266630E+03   # ~e_R
   1000012     2.14349584E+03   # ~nu_eL
   1000013     2.14520415E+03   # ~mu_L
   2000013     2.01266630E+03   # ~mu_R
   1000014     2.14349584E+03   # ~nu_muL
   1000015     2.07485999E+03   # ~tau_1
   2000015     2.65991308E+03   # ~tau_2
   1000016     2.65846399E+03   # ~nu_tauL
   1000021     2.02559271E+03   # ~g
   1000022    -5.44677412E+02   # ~chi_10
   1000023     9.97279384E+02   # ~chi_20
   1000025    -1.00074903E+03   # ~chi_30
   1000035    -2.89246291E+03   # ~chi_40
   1000024     5.44885552E+02   # ~chi_1+
   1000037     1.00598344E+03   # ~chi_2+
#
BLOCK NMIX  # Neutralino Mixing Matrix
  1  1    -1.77922831E-03   # N_11
  1  2     9.89873095E-01   # N_12
  1  3     1.20092170E-01   # N_13
  1  4    -7.56700786E-02   # N_14
  2  1     7.07852140E-03   # N_21
  2  2    -3.14930622E-02   # N_22
  2  3     7.05674849E-01   # N_23
  2  4     7.07800176E-01   # N_24
  3  1    -1.88462842E-02   # N_31
  3  2    -1.38416230E-01   # N_32
  3  3     6.98233961E-01   # N_33
  3  4    -7.02107613E-01   # N_34
  4  1     9.99795752E-01   # N_41
  4  2    -6.24624637E-04   # N_42
  4  3     8.37936398E-03   # N_43
  4  4    -1.83806868E-02   # N_44
#
BLOCK UMIX  # Chargino Mixing Matrix U
  1  1     9.85677582E-01   # U_11
  1  2     1.68640757E-01   # U_12
  2  1    -1.68640757E-01   # U_21
  2  2     9.85677582E-01   # U_22
#
BLOCK VMIX  # Chargino Mixing Matrix V
  1  1    -9.94323977E-01   # V_11
  1  2    -1.06394681E-01   # V_12
  2  1     1.06394681E-01   # V_21
  2  2    -9.94323977E-01   # V_22
#
BLOCK STOPMIX  # Stop Mixing Matrix
  1  1     9.00313531E-01   # cos(theta_t)
  1  2    -4.35241939E-01   # sin(theta_t)
  2  1     4.35241939E-01   # -sin(theta_t)
  2  2     9.00313531E-01   # cos(theta_t)
#
BLOCK SBOTMIX  # Sbottom Mixing Matrix
  1  1     9.99998155E-01   # cos(theta_b)
  1  2    -1.92093639E-03   # sin(theta_b)
  2  1     1.92093639E-03   # -sin(theta_b)
  2  2     9.99998155E-01   # cos(theta_b)
#
BLOCK STAUMIX  # Stau Mixing Matrix
  1  1    -4.27819773E-03   # cos(theta_tau)
  1  2     9.99990848E-01   # sin(theta_tau)
  2  1    -9.99990848E-01   # -sin(theta_tau)
  2  2    -4.27819773E-03   # cos(theta_tau)
#
BLOCK ALPHA  # Higgs mixing
          -1.28535268E-01   # Mixing angle in the neutral Higgs boson sector
#
BLOCK HMIX Q=  1.06059800E+03  # DRbar Higgs Parameters
         1    -9.94525362E+02   # mu(Q)MSSM           
         2     7.84535772E+00   # tan                 
         3     2.43456492E+02   # higgs               
         4     2.06866794E+06   # mA^2(Q)MSSM         
#
BLOCK GAUGE Q=  1.06059800E+03  # The gauge couplings
     1     3.61792096E-01   # gprime(Q) DRbar
     2     6.38723160E-01   # g(Q) DRbar
     3     1.04354006E+00   # g3(Q) DRbar
#
BLOCK AU Q=  1.06059800E+03  # The trilinear couplings
  1  1     0.00000000E+00   # A_u(Q) DRbar
  2  2     0.00000000E+00   # A_c(Q) DRbar
  3  3     2.69715000E+03   # A_t(Q) DRbar
#
BLOCK AD Q=  1.06059800E+03  # The trilinear couplings
  1  1     0.00000000E+00   # A_d(Q) DRbar
  2  2     0.00000000E+00   # A_s(Q) DRbar
  3  3     1.41941000E+03   # A_b(Q) DRbar
#
BLOCK AE Q=  1.06059800E+03  # The trilinear couplings
  1  1     0.00000000E+00   # A_e(Q) DRbar
  2  2     0.00000000E+00   # A_mu(Q) DRbar
  3  3    -1.16892000E+03   # A_tau(Q) DRbar
#
BLOCK Yu Q=  1.06059800E+03  # The Yukawa couplings
  1  1     0.00000000E+00   # y_u(Q) DRbar
  2  2     0.00000000E+00   # y_c(Q) DRbar
  3  3     8.83901674E-01   # y_t(Q) DRbar
#
BLOCK Yd Q=  1.06059800E+03  # The Yukawa couplings
  1  1     0.00000000E+00   # y_d(Q) DRbar
  2  2     0.00000000E+00   # y_s(Q) DRbar
  3  3     1.18335133E-01   # y_b(Q) DRbar
#
BLOCK Ye Q=  1.06059800E+03  # The Yukawa couplings
  1  1     0.00000000E+00   # y_e(Q) DRbar
  2  2     0.00000000E+00   # y_mu(Q) DRbar
  3  3     8.12094769E-02   # y_tau(Q) DRbar
#
BLOCK MSOFT Q=  1.06059800E+03  # The soft SUSY breaking masses at the scale Q
         1    -2.89778000E+03   # M_1(Q)              
         2    -5.25650000E+02   # M_2(Q)              
         3     1.98853000E+03   # M_3(Q)              
        21     1.06774374E+06   # mH1^2(Q)            
        22    -9.45536563E+05   # mH2^2(Q)            
        31     2.14434000E+03   # meL(Q)              
        32     2.14434000E+03   # mmuL(Q)             
        33     2.65753000E+03   # mtauL(Q)            
        34     2.00889000E+03   # meR(Q)              
        35     2.00889000E+03   # mmuR(Q)             
        36     2.07094000E+03   # mtauR(Q)            
        41     2.66420000E+03   # mqL1(Q)             
        42     2.66420000E+03   # mqL2(Q)             
        43     9.18189998E+02   # mqL3(Q)             
        44     1.22979000E+03   # muR(Q)              
        45     1.22979000E+03   # mcR(Q)              
        46     1.28636000E+03   # mtR(Q)              
        47     1.14245000E+03   # mdR(Q)              
        48     1.14245000E+03   # msR(Q)              
        49     3.45987000E+03   # mbR(Q)              
#
Block HiggsBoundsInputHiggsCouplingsFermions
# ScalarNormEffCoupSq PseudoSNormEffCoupSq NP   IP1 IP2 IP2
    1.02772374E+00    0.00000000E+00        3  25   5   5  # h0-b-b eff. coupling^2, normalised to SM
    6.15219140E+01    0.00000000E+00        3  35   5   5  # H0-b-b eff. coupling^2, normalised to SM
    0.00000000E+00    6.15496378E+01        3  36   5   5  # A0-b-b eff. coupling^2, normalised to SM
#
    9.99549571E-01    0.00000000E+00        3  25   6   6  # h0-t-t eff. coupling^2, normalised to SM
    1.66974783E-02    0.00000000E+00        3  35   6   6  # H0-t-t eff. coupling^2, normalised to SM
    0.00000000E+00    1.62470493E-02        3  36   6   6  # A0-t-t eff. coupling^2, normalised to SM
#
    1.02772374E+00    0.00000000E+00        3  25  15  15  # h0-tau-tau eff. coupling^2, normalised to SM
    6.15219140E+01    0.00000000E+00        3  35  15  15  # H0-tau-tau eff. coupling^2, normalised to SM
    0.00000000E+00    6.15496378E+01        3  36  15  15  # A0-tau-tau eff. coupling^2, normalised to SM
#
Block HiggsBoundsInputHiggsCouplingsBosons
    9.99996920E-01        3  25  24  24  # h0-W-W eff. coupling^2, normalised to SM
    3.08004381E-06        3  35  24  24  # H0-W-W eff. coupling^2, normalised to SM
    0.00000000E+00        3  36  24  24  # A0-W-W eff. coupling^2, normalised to SM
#
    9.99996920E-01        3  25  23  23  # h0-Z-Z eff. coupling^2, normalised to SM
    3.08004381E-06        3  35  23  23  # H0-Z-Z eff. coupling^2, normalised to SM
    0.00000000E+00        3  36  23  23  # A0-Z-Z eff. coupling^2, normalised to SM
#
    7.86770266E-01        3  25  21  21  # h0-g-g eff. coupling^2, normalised to SM
    1.39695574E-08        3  35  21  21  # H0-g-g eff. coupling^2, normalised to SM
    3.94549489E-08        3  36  21  21  # A0-g-g eff. coupling^2, normalised to SM
#
    0.00000000E+00        3  25  25  23  # h0-h0-Z eff. coupling^2, normalised to SM
    0.00000000E+00        3  35  25  23  # H0-h0-Z eff. coupling^2, normalised to SM
    3.08004381E-06        3  36  25  23  # A0-h0-Z eff. coupling^2, normalised to SM
    0.00000000E+00        3  35  35  23  # H0-H0-Z eff. coupling^2, normalised to SM
    9.99996920E-01        3  36  35  23  # A0-H0-Z eff. coupling^2, normalised to SM
    0.00000000E+00        3  36  36  23  # A0-A0-Z eff. coupling^2, normalised to SM
#
    0.00000000E+00        4  25  21  21  23  # h0-g-g-Z eff. coupling^2, normalised to SM
    0.00000000E+00        4  35  21  21  23  # H0-g-g-Z eff. coupling^2, normalised to SM
    0.00000000E+00        4  36  21  21  23  # A0-g-g-Z eff. coupling^2, normalised to SM
#
#
#
#                             =================
#                             |The decay table|
#                             =================
#
# - The QCD corrections to the decays gluino -> squark  + quark
#                                     squark -> gaugino + quark_prime
#                                     squark -> squark_prime + Higgs
#                                     squark -> gluino  + quark
#   are included.
#
# - The multi-body decays for the inos, stops and sbottoms are included.
#
# - The loop induced decays for the gluino, neutralinos and stops
#   are included.
#
# - The SUSY decays of the top quark are included.
#
#
#         PDG            Width
DECAY         6     1.43561139E+00   # top decays
#          BR         NDA      ID1       ID2
     1.00000000E+00    2           5        24   # BR(t ->  b    W+)
#
#         PDG            Width
DECAY   1000021     1.32413640E+02   # gluino decays
#          BR         NDA      ID1       ID2
     6.88944896E-02    2     2000001        -1   # BR(~g -> ~d_R  db)
     6.88944896E-02    2    -2000001         1   # BR(~g -> ~d_R* d )
     5.98564610E-02    2     2000002        -2   # BR(~g -> ~u_R  ub)
     5.98564610E-02    2    -2000002         2   # BR(~g -> ~u_R* u )
     6.88944896E-02    2     2000003        -3   # BR(~g -> ~s_R  sb)
     6.88944896E-02    2    -2000003         3   # BR(~g -> ~s_R* s )
     5.98563832E-02    2     2000004        -4   # BR(~g -> ~c_R  cb)
     5.98563832E-02    2    -2000004         4   # BR(~g -> ~c_R* c )
     9.02327888E-02    2     1000005        -5   # BR(~g -> ~b_1  bb)
     9.02327888E-02    2    -1000005         5   # BR(~g -> ~b_1* b )
     1.15513847E-01    2     1000006        -6   # BR(~g -> ~t_1  tb)
     1.15513847E-01    2    -1000006         6   # BR(~g -> ~t_1* t )
     3.67515402E-02    2     2000006        -6   # BR(~g -> ~t_2  tb)
     3.67515402E-02    2    -2000006         6   # BR(~g -> ~t_2* t )
#
#         PDG            Width
DECAY   1000006     2.33679266E+00   # stop1 decays
#          BR         NDA      ID1       ID2
     2.26654632E-01    2     1000022         6   # BR(~t_1 -> ~chi_10 t )
     7.73345368E-01    2     1000024         5   # BR(~t_1 -> ~chi_1+ b )
#
#         PDG            Width
DECAY   2000006     7.88368206E+01   # stop2 decays
#          BR         NDA      ID1       ID2
     3.88287458E-03    2     1000022         6   # BR(~t_2 -> ~chi_10 t )
     1.17787545E-02    2     1000023         6   # BR(~t_2 -> ~chi_20 t )
     2.72899976E-02    2     1000025         6   # BR(~t_2 -> ~chi_30 t )
     8.43782834E-03    2     1000024         5   # BR(~t_2 -> ~chi_1+ b )
     3.95497097E-02    2     1000037         5   # BR(~t_2 -> ~chi_2+ b )
     1.35380965E-01    2     1000006        25   # BR(~t_2 -> ~t_1    h )
     3.32371775E-01    2     1000006        23   # BR(~t_2 -> ~t_1    Z )
     4.41308096E-01    2     1000005        24   # BR(~t_2 -> ~b_1    W+)
#
#         PDG            Width
DECAY   1000005     5.33160948E+00   # sbottom1 decays
#          BR         NDA      ID1       ID2
     2.89607812E-01    2     1000022         5   # BR(~b_1 -> ~chi_10 b )
     4.36146555E-01    2    -1000024         6   # BR(~b_1 -> ~chi_1- t )
     2.74245633E-01    2     1000006       -24   # BR(~b_1 -> ~t_1    W-)
#
#         PDG            Width
DECAY   2000005     8.95030330E+01   # sbottom2 decays
#          BR         NDA      ID1       ID2
     1.30975472E-04    2     1000022         5   # BR(~b_2 -> ~chi_10 b )
     4.53553113E-03    2     1000023         5   # BR(~b_2 -> ~chi_20 b )
     4.44906921E-03    2     1000025         5   # BR(~b_2 -> ~chi_30 b )
     2.10507547E-03    2     1000035         5   # BR(~b_2 -> ~chi_40 b )
     2.56835566E-04    2    -1000024         6   # BR(~b_2 -> ~chi_1- t )
     8.80173328E-03    2    -1000037         6   # BR(~b_2 -> ~chi_2- t )
     9.75717515E-01    2     1000021         5   # BR(~b_2 -> ~g      b )
     5.68266465E-04    2     1000005        25   # BR(~b_2 -> ~b_1    h )
     5.31589125E-04    2     1000005        35   # BR(~b_2 -> ~b_1    H )
     5.33346723E-04    2     1000005        36   # BR(~b_2 -> ~b_1    A )
     7.98989931E-04    2     1000006       -37   # BR(~b_2 -> ~t_1    H-)
     2.55285608E-04    2     2000006       -37   # BR(~b_2 -> ~t_2    H-)
     4.46230488E-04    2     1000005        23   # BR(~b_2 -> ~b_1    Z )
     7.41313638E-04    2     1000006       -24   # BR(~b_2 -> ~t_1    W-)
     1.28243176E-04    2     2000006       -24   # BR(~b_2 -> ~t_2    W-)
#
#         PDG            Width
DECAY   1000002     6.82952647E+01   # sup_L decays
#          BR         NDA      ID1       ID2
     1.36998550E-01    2     1000022         2   # BR(~u_L -> ~chi_10 u)
     1.03175521E-04    2     1000023         2   # BR(~u_L -> ~chi_20 u)
     2.28179364E-03    2     1000025         2   # BR(~u_L -> ~chi_30 u)
     2.76636657E-01    2     1000024         1   # BR(~u_L -> ~chi_1+ d)
     2.55429768E-03    2     1000037         1   # BR(~u_L -> ~chi_2+ d)
     5.81425526E-01    2     1000021         2   # BR(~u_L -> ~g      u)
#
#         PDG            Width
DECAY   2000002     1.07147469E-03   # sup_R decays
#           BR         NDA      ID1       ID2
     5.58211498E-03    2     1000022         2   # BR(~u_R -> ~chi_10 u)
#           BR         NDA      ID1       ID2       ID3
     6.71317773E-05    3        2       -1        2000001   # BR(~u_R -> u  db  ~d_R)
     1.92435717E-04    3        2       1        -2000001   # BR(~u_R -> u  d  ~d_R*)
     6.82731948E-05    3        2       -3        2000003   # BR(~u_R -> u  sb  ~s_R)
     1.92342388E-04    3        2       3        -2000003   # BR(~u_R -> u  s  ~s_R*)
     1.76765725E-01    3        2       -5        1000005   # BR(~u_R -> u  bb  ~b_1)
     5.03399667E-02    3        2       5        -1000005   # BR(~u_R -> u  b  ~b_1*)
     4.03667959E-01    3        2       -6        1000006   # BR(~u_R -> u  tb  ~t_1)
     2.52735788E-01    3        2       6        -1000006   # BR(~u_R -> u  t  ~t_1*)
     6.82899941E-03    3        2       23        1000022   # BR(~u_R -> u  Z  ~chi_10)
     2.88546248E-02    3        2       25        1000022   # BR(~u_R -> u  h  ~chi_10)
     6.31018174E-05    3        2       23        1000023   # BR(~u_R -> u  Z  ~chi_20)
     4.56203031E-06    3        2       25        1000023   # BR(~u_R -> u  h  ~chi_20)
     2.30514078E-05    3        2       23        1000025   # BR(~u_R -> u  Z  ~chi_30)
     4.19048631E-05    3        2       25        1000025   # BR(~u_R -> u  h  ~chi_30)
     3.68678799E-02    3        2       -24        1000024   # BR(~u_R -> u  W-  ~chi_1+)
     3.75837157E-02    3        2       24        -1000024   # BR(~u_R -> u  W+  ~chi_1-)
     2.53855741E-05    3        2       -24        1000037   # BR(~u_R -> u  W-  ~chi_2+)
     9.50372427E-05    3        2       24        -1000037   # BR(~u_R -> u  W+  ~chi_2-)
#
#         PDG            Width
DECAY   1000001     6.83323166E+01   # sdown_L decays
#          BR         NDA      ID1       ID2
     1.37168932E-01    2     1000022         1   # BR(~d_L -> ~chi_10 d)
     1.22282666E-04    2     1000023         1   # BR(~d_L -> ~chi_20 d)
     2.05887663E-03    2     1000025         1   # BR(~d_L -> ~chi_30 d)
     2.71815313E-01    2    -1000024         2   # BR(~d_L -> ~chi_1- u)
     6.41771879E-03    2    -1000037         2   # BR(~d_L -> ~chi_2- u)
     5.82416876E-01    2     1000021         1   # BR(~d_L -> ~g      d)
#
#         PDG            Width
DECAY   2000001     2.83873418E-04   # sdown_R decays
#           BR         NDA      ID1       ID2
     4.64004869E-03    2     1000022         1   # BR(~d_R -> ~chi_10 d)
#           BR         NDA      ID1       ID2       ID3
     1.88696780E-01    3        1       -5        1000005   # BR(~d_R -> d  bb  ~b_1)
     5.07127442E-02    3        1       5        -1000005   # BR(~d_R -> d  b  ~b_1*)
     4.32164452E-01    3        1       -6        1000006   # BR(~d_R -> d  tb  ~t_1)
     2.68672568E-01    3        1       6        -1000006   # BR(~d_R -> d  t  ~t_1*)
     3.39929680E-03    3        1       23        1000022   # BR(~d_R -> d  Z  ~chi_10)
     1.43750691E-02    3        1       25        1000022   # BR(~d_R -> d  h  ~chi_10)
     2.95984036E-06    3        1       23        1000023   # BR(~d_R -> d  Z  ~chi_20)
     1.11412334E-07    3        1       25        1000023   # BR(~d_R -> d  h  ~chi_20)
     2.51827032E-07    3        1       23        1000025   # BR(~d_R -> d  Z  ~chi_30)
     8.17512263E-07    3        1       25        1000025   # BR(~d_R -> d  h  ~chi_30)
     1.85839873E-02    3        1       -24        1000024   # BR(~d_R -> d  W-  ~chi_1+)
     1.87435655E-02    3        1       24        -1000024   # BR(~d_R -> d  W+  ~chi_1-)
     1.51676760E-06    3        1       -24        1000037   # BR(~d_R -> d  W-  ~chi_2+)
     5.83112013E-06    3        1       24        -1000037   # BR(~d_R -> d  W+  ~chi_2-)
#
#         PDG            Width
DECAY   1000004     5.86868433E+01   # scharm_L decays
#          BR         NDA      ID1       ID2
     1.67073265E-01    2     1000022         4   # BR(~c_L -> ~chi_10 c)
     1.25397838E-04    2     1000023         4   # BR(~c_L -> ~chi_20 c)
     2.77317513E-03    2     1000025         4   # BR(~c_L -> ~chi_30 c)
     3.37365261E-01    2     1000024         3   # BR(~c_L -> ~chi_1+ s)
     3.10423072E-03    2     1000037         3   # BR(~c_L -> ~chi_2+ s)
     4.89558671E-01    2     1000021         4   # BR(~c_L -> ~g      c)
#
#         PDG            Width
DECAY   2000004     1.07151211E-03   # scharm_R decays
#           BR         NDA      ID1       ID2
     5.54439270E-03    2     1000022         4   # BR(~c_R -> ~chi_10 c)
#           BR         NDA      ID1       ID2       ID3
     6.80216292E-05    3        4       -1        2000001   # BR(~c_R -> c  db  ~d_R)
     1.91533065E-04    3        4       1        -2000001   # BR(~c_R -> c  d  ~d_R*)
     6.78545756E-05    3        4       -3        2000003   # BR(~c_R -> c  sb  ~s_R)
     1.93091610E-04    3        4       3        -2000003   # BR(~c_R -> c  s  ~s_R*)
     1.76246257E-01    3        4       -5        1000005   # BR(~c_R -> c  bb  ~b_1)
     5.08766995E-02    3        4       5        -1000005   # BR(~c_R -> c  b  ~b_1*)
     4.03485871E-01    3        4       -6        1000006   # BR(~c_R -> c  tb  ~t_1)
     2.52941610E-01    3        4       6        -1000006   # BR(~c_R -> c  t  ~t_1*)
     6.82866752E-03    3        4       23        1000022   # BR(~c_R -> c  Z  ~chi_10)
     2.88536168E-02    3        4       25        1000022   # BR(~c_R -> c  h  ~chi_10)
     6.31444095E-05    3        4       23        1000023   # BR(~c_R -> c  Z  ~chi_20)
     4.60050793E-06    3        4       25        1000023   # BR(~c_R -> c  h  ~chi_20)
     2.29367448E-05    3        4       23        1000025   # BR(~c_R -> c  Z  ~chi_30)
     4.19444626E-05    3        4       25        1000025   # BR(~c_R -> c  h  ~chi_30)
     3.68665920E-02    3        4       -24        1000024   # BR(~c_R -> c  W-  ~chi_1+)
     3.75824027E-02    3        4       24        -1000024   # BR(~c_R -> c  W+  ~chi_1-)
     2.52446982E-05    3        4       -24        1000037   # BR(~c_R -> c  W-  ~chi_2+)
     9.55192188E-05    3        4       24        -1000037   # BR(~c_R -> c  W+  ~chi_2-)
#
#         PDG            Width
DECAY   1000003     5.86956321E+01   # sstrange_L decays
#          BR         NDA      ID1       ID2
     1.67345319E-01    2     1000022         3   # BR(~s_L -> ~chi_10 s)
     1.48677822E-04    2     1000023         3   # BR(~s_L -> ~chi_20 s)
     2.50322093E-03    2     1000025         3   # BR(~s_L -> ~chi_30 s)
     3.31612494E-01    2    -1000024         4   # BR(~s_L -> ~chi_1- c)
     7.80244079E-03    2    -1000037         4   # BR(~s_L -> ~chi_2- c)
     4.90587848E-01    2     1000021         3   # BR(~s_L -> ~g      s)
#
#         PDG            Width
DECAY   2000003     2.85226332E-04   # sstrange_R decays
#           BR         NDA      ID1       ID2
     4.56868761E-03    2     1000022         3   # BR(~s_R -> ~chi_10 s)
#           BR         NDA      ID1       ID2       ID3
     1.91528600E-01    3        3       -5        1000005   # BR(~s_R -> s  bb  ~b_1)
     5.04721983E-02    3        3       5        -1000005   # BR(~s_R -> s  b  ~b_1*)
     4.31131302E-01    3        3       -6        1000006   # BR(~s_R -> s  tb  ~t_1)
     2.67447256E-01    3        3       6        -1000006   # BR(~s_R -> s  t  ~t_1*)
     3.38313784E-03    3        3       23        1000022   # BR(~s_R -> s  Z  ~chi_10)
     1.43068838E-02    3        3       25        1000022   # BR(~s_R -> s  h  ~chi_10)
     2.94562565E-06    3        3       23        1000023   # BR(~s_R -> s  Z  ~chi_20)
     1.10442117E-07    3        3       25        1000023   # BR(~s_R -> s  h  ~chi_20)
     2.49391419E-07    3        3       23        1000025   # BR(~s_R -> s  Z  ~chi_30)
     8.13073597E-07    3        3       25        1000025   # BR(~s_R -> s  h  ~chi_30)
     1.84958379E-02    3        3       -24        1000024   # BR(~s_R -> s  W-  ~chi_1+)
     1.86546591E-02    3        3       24        -1000024   # BR(~s_R -> s  W+  ~chi_1-)
     1.51101056E-06    3        3       -24        1000037   # BR(~s_R -> s  W-  ~chi_2+)
     5.80836975E-06    3        3       24        -1000037   # BR(~s_R -> s  W+  ~chi_2-)
#
#         PDG            Width
DECAY   1000011     2.26778730E+01   # selectron_L decays
#          BR         NDA      ID1       ID2
     3.28536571E-01    2     1000022        11   # BR(~e_L -> ~chi_10 e-)
     1.78170811E-04    2     1000023        11   # BR(~e_L -> ~chi_20 e-)
     5.22304926E-03    2     1000025        11   # BR(~e_L -> ~chi_30 e-)
     6.52774913E-01    2    -1000024        12   # BR(~e_L -> ~chi_1- nu_e)
     1.32872961E-02    2    -1000037        12   # BR(~e_L -> ~chi_2- nu_e)
#
#         PDG            Width
DECAY   2000011     3.28454605E-03   # selectron_R decays
#           BR         NDA      ID1       ID2
     8.67710218E-03    2     1000022        11   # BR(~e_R -> ~chi_10 e-)
#           BR         NDA      ID1       ID2       ID3
     2.80340109E-03    3        11       -1        2000001   # BR(~e_R- -> e-  db  ~d_R)
     8.94705069E-03    3        11       1        -2000001   # BR(~e_R- -> e-  d  ~d_R*)
     7.68934264E-03    3        11       -2        2000002   # BR(~e_R- -> e-  ub  ~u_R)
     2.34970066E-02    3        11       2        -2000002   # BR(~e_R- -> e-  u  ~u_R*)
     2.77670030E-03    3        11       -3        2000003   # BR(~e_R- -> e-  sb  ~s_R)
     9.01250875E-03    3        11       3        -2000003   # BR(~e_R- -> e-  s  ~s_R*)
     7.61505536E-03    3        11       -4        2000004   # BR(~e_R- -> e-  cb  ~c_R)
     2.39542996E-02    3        11       4        -2000004   # BR(~e_R- -> e-  c  ~c_R*)
     7.66163714E-03    3        11       -5        1000005   # BR(~e_R- -> e-  bb  ~b_1)
     2.53755005E-03    3        11       5        -1000005   # BR(~e_R- -> e-  b  ~b_1*)
     8.22975218E-02    3        11       -6        1000006   # BR(~e_R- -> e-  tb  ~t_1)
     8.26994038E-02    3        11       6        -1000006   # BR(~e_R- -> e-  t  ~t_1*)
     4.30105098E-03    3        11       -6        2000006   # BR(~e_R- -> e-  tb  ~t_2)
     9.78552272E-03    3        11       6        -2000006   # BR(~e_R- -> e-  t  ~t_2*)
     3.71405966E-02    3        11       23        1000022   # BR(~e_R- -> e-  Z  ~chi_10)
     1.56636562E-01    3        11       25        1000022   # BR(~e_R- -> e-  h  ~chi_10)
     1.41188460E-09    3        11       35        1000022   # BR(~e_R- -> e-  H  ~chi_10)
     9.61594069E-11    3        11       36        1000022   # BR(~e_R- -> e-  A  ~chi_10)
     2.69611078E-02    3        11       23        1000023   # BR(~e_R- -> e-  Z  ~chi_20)
     2.22128109E-03    3        11       25        1000023   # BR(~e_R- -> e-  h  ~chi_20)
     2.45848281E-03    3        11       23        1000025   # BR(~e_R- -> e-  Z  ~chi_30)
     2.65376093E-02    3        11       25        1000025   # BR(~e_R- -> e-  h  ~chi_30)
     2.00566529E-01    3        11       -24        1000024   # BR(~e_R- -> e-  W-  ~chi_1+)
     2.03653713E-01    3        11       24        -1000024   # BR(~e_R- -> e-  W+  ~chi_1-)
     1.38533603E-09    3        11       -37        1000024   # BR(~e_R- -> e-  H-  ~chi_1+)
     4.76839105E-10    3        11       37        -1000024   # BR(~e_R- -> e-  H+  ~chi_1-)
     1.61017685E-02    3        11       -24        1000037   # BR(~e_R- -> e-  W-  ~chi_2+)
     4.34671939E-02    3        11       24        -1000037   # BR(~e_R- -> e-  W+  ~chi_2-)
#
#         PDG            Width
DECAY   1000013     2.26778729E+01   # smuon_L decays
#          BR         NDA      ID1       ID2
     3.28536569E-01    2     1000022        13   # BR(~mu_L -> ~chi_10 mu-)
     1.78170810E-04    2     1000023        13   # BR(~mu_L -> ~chi_20 mu-)
     5.22304922E-03    2     1000025        13   # BR(~mu_L -> ~chi_30 mu-)
     6.52774914E-01    2    -1000024        14   # BR(~mu_L -> ~chi_1- nu_mu)
     1.32872961E-02    2    -1000037        14   # BR(~mu_L -> ~chi_2- nu_mu)
#
#         PDG            Width
DECAY   2000013     3.28505725E-03   # smuon_R decays
#           BR         NDA      ID1       ID2
     8.67575180E-03    2     1000022        13   # BR(~mu_R -> ~chi_10 mu-)
#           BR         NDA      ID1       ID2       ID3
     2.80296485E-03    3        13       -1        2000001   # BR(~mu_R- -> mu-  db  ~d_R)
     8.94565839E-03    3        13       1        -2000001   # BR(~mu_R- -> mu-  d  ~d_R*)
     7.68814606E-03    3        13       -2        2000002   # BR(~mu_R- -> mu-  ub  ~u_R)
     2.34933500E-02    3        13       2        -2000002   # BR(~mu_R- -> mu-  u  ~u_R*)
     2.78330005E-03    3        13       -3        2000003   # BR(~mu_R- -> mu-  sb  ~s_R)
     9.01110626E-03    3        13       3        -2000003   # BR(~mu_R- -> mu-  s  ~s_R*)
     7.61387034E-03    3        13       -4        2000004   # BR(~mu_R- -> mu-  cb  ~c_R)
     2.39225664E-02    3        13       4        -2000004   # BR(~mu_R- -> mu-  c  ~c_R*)
     7.66044487E-03    3        13       -5        1000005   # BR(~mu_R- -> mu-  bb  ~b_1)
     2.53715517E-03    3        13       5        -1000005   # BR(~mu_R- -> mu-  b  ~b_1*)
     8.23699495E-02    3        13       -6        1000006   # BR(~mu_R- -> mu-  tb  ~t_1)
     8.26865345E-02    3        13       6        -1000006   # BR(~mu_R- -> mu-  t  ~t_1*)
     4.35273997E-03    3        13       -6        2000006   # BR(~mu_R- -> mu-  tb  ~t_2)
     9.78399995E-03    3        13       6        -2000006   # BR(~mu_R- -> mu-  t  ~t_2*)
     3.71348170E-02    3        13       23        1000022   # BR(~mu_R- -> mu-  Z  ~chi_10)
     1.56612187E-01    3        13       25        1000022   # BR(~mu_R- -> mu-  h  ~chi_10)
     1.40630730E-09    3        13       35        1000022   # BR(~mu_R- -> mu-  H  ~chi_10)
     9.59557096E-11    3        13       36        1000022   # BR(~mu_R- -> mu-  A  ~chi_10)
     2.69511284E-02    3        13       23        1000023   # BR(~mu_R- -> mu-  Z  ~chi_20)
     2.22093541E-03    3        13       25        1000023   # BR(~mu_R- -> mu-  h  ~chi_20)
     2.46330562E-03    3        13       23        1000025   # BR(~mu_R- -> mu-  Z  ~chi_30)
     2.65334797E-02    3        13       25        1000025   # BR(~mu_R- -> mu-  h  ~chi_30)
     2.00574891E-01    3        13       -24        1000024   # BR(~mu_R- -> mu-  W-  ~chi_1+)
     2.03622022E-01    3        13       24        -1000024   # BR(~mu_R- -> mu-  W+  ~chi_1-)
     1.37964110E-09    3        13       -37        1000024   # BR(~mu_R- -> mu-  H-  ~chi_1+)
     4.79595903E-10    3        13       37        -1000024   # BR(~mu_R- -> mu-  H+  ~chi_1-)
     1.60992628E-02    3        13       -24        1000037   # BR(~mu_R- -> mu-  W-  ~chi_2+)
     4.34604297E-02    3        13       24        -1000037   # BR(~mu_R- -> mu-  W+  ~chi_2-)
#
#         PDG            Width
DECAY   1000015     3.27468462E-01   # stau_1 decays
#          BR         NDA      ID1       ID2
     1.49629910E-02    2     1000022        15   # BR(~tau_1 -> ~chi_10  tau-)
     2.45153023E-01    2     1000023        15   # BR(~tau_1 -> ~chi_20  tau-)
     2.43395102E-01    2     1000025        15   # BR(~tau_1 -> ~chi_30  tau-)
     2.93468747E-02    2    -1000024        16   # BR(~tau_1 -> ~chi_1-  nu_tau)
     4.67142009E-01    2    -1000037        16   # BR(~tau_1 -> ~chi_2-  nu_tau)
#
#         PDG            Width
DECAY   2000015     2.98431678E+01   # stau_2 decays
#          BR         NDA      ID1       ID2
     3.24733479E-01    2     1000022        15   # BR(~tau_2 -> ~chi_10  tau-)
     4.51222410E-03    2     1000023        15   # BR(~tau_2 -> ~chi_20  tau-)
     1.01686384E-02    2     1000025        15   # BR(~tau_2 -> ~chi_30  tau-)
     6.44945072E-01    2    -1000024        16   # BR(~tau_2 -> ~chi_1-  nu_tau)
     1.52046680E-02    2    -1000037        16   # BR(~tau_2 -> ~chi_2-  nu_tau)
     2.20856260E-04    2     1000015        25   # BR(~tau_2 -> ~tau_1   h)
     2.15061402E-04    2     1000015        23   # BR(~tau_2 -> ~tau_1   Z)
#
#         PDG            Width
DECAY   1000012     2.27356790E+01   # snu_eL decays
#          BR         NDA      ID1       ID2
     3.28704259E-01    2     1000022        12   # BR(~nu_eL -> ~chi_10 nu_e)
     2.96057258E-04    2     1000023        12   # BR(~nu_eL -> ~chi_20 nu_e)
     3.81806963E-03    2     1000025        12   # BR(~nu_eL -> ~chi_30 nu_e)
     6.61915270E-01    2     1000024        11   # BR(~nu_eL -> ~chi_1+ e-)
     5.26634409E-03    2     1000037        11   # BR(~nu_eL -> ~chi_2+ e-)
#
#         PDG            Width
DECAY   1000014     2.27356790E+01   # snu_muL decays
#          BR         NDA      ID1       ID2
     3.28704260E-01    2     1000022        14   # BR(~nu_muL -> ~chi_10 nu_mu)
     2.96057259E-04    2     1000023        14   # BR(~nu_muL -> ~chi_20 nu_mu)
     3.81806964E-03    2     1000025        14   # BR(~nu_muL -> ~chi_30 nu_mu)
     6.61915269E-01    2     1000024        13   # BR(~nu_muL -> ~chi_1+ mu-)
     5.26634407E-03    2     1000037        13   # BR(~nu_muL -> ~chi_2+ mu-)
#
#         PDG            Width
DECAY   1000016     2.98891222E+01   # snu_tauL decays
#          BR         NDA      ID1       ID2
     3.25265036E-01    2     1000022        16   # BR(~nu_tauL -> ~chi_10 nu_tau)
     3.35912588E-04    2     1000023        16   # BR(~nu_tauL -> ~chi_20 nu_tau)
     4.33886906E-03    2     1000025        16   # BR(~nu_tauL -> ~chi_30 nu_tau)
     6.55310784E-01    2     1000024        15   # BR(~nu_tauL -> ~chi_1+ tau-)
     1.43306735E-02    2     1000037        15   # BR(~nu_tauL -> ~chi_2+ tau-)
     4.18724385E-04    2    -1000015       -24   # BR(~nu_tauL -> ~tau_1+ W-)
#
#         PDG            Width
DECAY   1000024     1.03083740E-14   # chargino1+ decays
#           BR         NDA      ID1       ID2       ID3
     2.21568850E-02    3     1000022       -11        12   # BR(~chi_1+ -> ~chi_10 e+   nu_e)
     6.22168760E-03    3     1000022       -13        14   # BR(~chi_1+ -> ~chi_10 mu+  nu_mu)
     9.71621430E-01    2     1000022       211             # BR(~chi_1+ -> ~chi_10 pi+)
#
#         PDG            Width
DECAY   1000037     6.66000437E+00   # chargino2+ decays
#          BR         NDA      ID1       ID2
     6.50724024E-02    2     1000006        -5   # BR(~chi_2+ -> ~t_1     bb)
     3.21137432E-01    2     1000024        23   # BR(~chi_2+ -> ~chi_1+  Z )
     3.14505013E-01    2     1000022        24   # BR(~chi_2+ -> ~chi_10  W+)
     2.99285153E-01    2     1000024        25   # BR(~chi_2+ -> ~chi_1+  h )
#
#         PDG            Width
DECAY   1000022     0.00000000E+00   # neutralino1 decays
#
#         PDG            Width
DECAY   1000023     6.50747217E+00   # neutralino2 decays
#          BR         NDA      ID1       ID2
     3.06709693E-01    2     1000022        23   # BR(~chi_20 -> ~chi_10   Z )
     3.16397918E-01    2     1000024       -24   # BR(~chi_20 -> ~chi_1+   W-)
     3.16397918E-01    2    -1000024        24   # BR(~chi_20 -> ~chi_1-   W+)
     1.46901759E-02    2     1000022        25   # BR(~chi_20 -> ~chi_10   h )
     2.21552110E-02    2     1000006        -6   # BR(~chi_20 -> ~t_1      tb)
     2.21552110E-02    2    -1000006         6   # BR(~chi_20 -> ~t_1*     t )
     7.46936510E-04    2     1000005        -5   # BR(~chi_20 -> ~b_1      bb)
     7.46936510E-04    2    -1000005         5   # BR(~chi_20 -> ~b_1*     b )
#
#         PDG            Width
DECAY   1000025     8.15868667E+00   # neutralino3 decays
#          BR         NDA      ID1       ID2
     1.37135490E-02    2     1000022        23   # BR(~chi_30 -> ~chi_10   Z )
     2.58690104E-01    2     1000024       -24   # BR(~chi_30 -> ~chi_1+   W-)
     2.58690104E-01    2    -1000024        24   # BR(~chi_30 -> ~chi_1-   W+)
     2.33654465E-01    2     1000022        25   # BR(~chi_30 -> ~chi_10   h )
     1.16755704E-01    2     1000006        -6   # BR(~chi_30 -> ~t_1      tb)
     1.16755704E-01    2    -1000006         6   # BR(~chi_30 -> ~t_1*     t )
     8.70184918E-04    2     1000005        -5   # BR(~chi_30 -> ~b_1      bb)
     8.70184918E-04    2    -1000005         5   # BR(~chi_30 -> ~b_1*     b )
#
#         PDG            Width
DECAY   1000035     7.38022469E+01   # neutralino4 decays
#          BR         NDA      ID1       ID2
     1.40425636E-05    2     1000022        23   # BR(~chi_40 -> ~chi_10   Z )
     2.58192993E-02    2     1000023        23   # BR(~chi_40 -> ~chi_20   Z )
     3.59725832E-03    2     1000025        23   # BR(~chi_40 -> ~chi_30   Z )
     1.34186554E-04    2     1000024       -24   # BR(~chi_40 -> ~chi_1+   W-)
     1.34186554E-04    2    -1000024        24   # BR(~chi_40 -> ~chi_1-   W+)
     2.84783947E-02    2     1000037       -24   # BR(~chi_40 -> ~chi_2+   W-)
     2.84783947E-02    2    -1000037        24   # BR(~chi_40 -> ~chi_2-   W+)
     1.11534981E-04    2     1000022        25   # BR(~chi_40 -> ~chi_10   h )
     2.00872331E-04    2     1000022        35   # BR(~chi_40 -> ~chi_10   H )
     8.74536005E-05    2     1000022        36   # BR(~chi_40 -> ~chi_10   A )
     3.57504417E-03    2     1000023        25   # BR(~chi_40 -> ~chi_20   h )
     1.52161848E-03    2     1000023        35   # BR(~chi_40 -> ~chi_20   H )
     7.87633918E-03    2     1000023        36   # BR(~chi_40 -> ~chi_20   A )
     2.53531683E-02    2     1000025        25   # BR(~chi_40 -> ~chi_30   h )
     7.68052440E-03    2     1000025        35   # BR(~chi_40 -> ~chi_30   H )
     1.47499488E-03    2     1000025        36   # BR(~chi_40 -> ~chi_30   A )
     2.82435159E-04    2     1000024       -37   # BR(~chi_40 -> ~chi_1+   H-)
     2.82435159E-04    2    -1000024        37   # BR(~chi_40 -> ~chi_1-   H+)
     9.05122495E-03    2     1000037       -37   # BR(~chi_40 -> ~chi_2+   H-)
     9.05122495E-03    2    -1000037        37   # BR(~chi_40 -> ~chi_2-   H+)
     1.66238553E-04    2     1000002        -2   # BR(~chi_40 -> ~u_L      ub)
     1.66238553E-04    2    -1000002         2   # BR(~chi_40 -> ~u_L*     u )
     8.69041593E-02    2     2000002        -2   # BR(~chi_40 -> ~u_R      ub)
     8.69041593E-02    2    -2000002         2   # BR(~chi_40 -> ~u_R*     u )
     1.66995982E-04    2     1000001        -1   # BR(~chi_40 -> ~d_L      db)
     1.66995982E-04    2    -1000001         1   # BR(~chi_40 -> ~d_L*     d )
     2.29154927E-02    2     2000001        -1   # BR(~chi_40 -> ~d_R      db)
     2.29154927E-02    2    -2000001         1   # BR(~chi_40 -> ~d_R*     d )
     1.66234102E-04    2     1000004        -4   # BR(~chi_40 -> ~c_L      cb)
     1.66234102E-04    2    -1000004         4   # BR(~chi_40 -> ~c_L*     c )
     8.69041439E-02    2     2000004        -4   # BR(~chi_40 -> ~c_R      cb)
     8.69041439E-02    2    -2000004         4   # BR(~chi_40 -> ~c_R*     c )
     1.66995982E-04    2     1000003        -3   # BR(~chi_40 -> ~s _L      sb)
     1.66995982E-04    2    -1000003         3   # BR(~chi_40 -> ~s _L*     s )
     2.29154927E-02    2     2000003        -3   # BR(~chi_40 -> ~s _R      sb)
     2.29154927E-02    2    -2000003         3   # BR(~chi_40 -> ~s _R*     s )
     2.18370443E-02    2     1000006        -6   # BR(~chi_40 -> ~t_1      tb)
     2.18370443E-02    2    -1000006         6   # BR(~chi_40 -> ~t_1*     t )
     7.40990603E-02    2     2000006        -6   # BR(~chi_40 -> ~t_2      tb)
     7.40990603E-02    2    -2000006         6   # BR(~chi_40 -> ~t_2*     t )
     6.91392704E-03    2     1000005        -5   # BR(~chi_40 -> ~b_1      bb)
     6.91392704E-03    2    -1000005         5   # BR(~chi_40 -> ~b_1*     b )
     5.15205272E-03    2     1000011       -11   # BR(~chi_40 -> ~e_L-     e+)
     5.15205272E-03    2    -1000011        11   # BR(~chi_40 -> ~e_L+     e-)
     2.71433446E-02    2     2000011       -11   # BR(~chi_40 -> ~e_R-     e+)
     2.71433446E-02    2    -2000011        11   # BR(~chi_40 -> ~e_R+     e-)
     5.15205272E-03    2     1000013       -13   # BR(~chi_40 -> ~mu_L-    mu+)
     5.15205272E-03    2    -1000013        13   # BR(~chi_40 -> ~mu_L+    mu-)
     2.71433446E-02    2     2000013       -13   # BR(~chi_40 -> ~mu_R-    mu+)
     2.71433446E-02    2    -2000013        13   # BR(~chi_40 -> ~mu_R+    mu-)
     2.40387306E-02    2     1000015       -15   # BR(~chi_40 -> ~tau_1-   tau+)
     2.40387306E-02    2    -1000015        15   # BR(~chi_40 -> ~tau_1+   tau-)
     6.06278331E-04    2     2000015       -15   # BR(~chi_40 -> ~tau_2-   tau+)
     6.06278331E-04    2    -2000015        15   # BR(~chi_40 -> ~tau_2+   tau-)
     5.19499539E-03    2     1000012       -12   # BR(~chi_40 -> ~nu_eL    nu_eb)
     5.19499539E-03    2    -1000012        12   # BR(~chi_40 -> ~nu_eL*   nu_e )
     5.19499539E-03    2     1000014       -14   # BR(~chi_40 -> ~nu_muL   nu_mub)
     5.19499539E-03    2    -1000014        14   # BR(~chi_40 -> ~nu_muL*  nu_mu )
     6.16104121E-04    2     1000016       -16   # BR(~chi_40 -> ~nu_tau1  nu_taub)
     6.16104121E-04    2    -1000016        16   # BR(~chi_40 -> ~nu_tau1* nu_tau )
#
#         PDG            Width
DECAY        25     4.30370611E-03   # h decays
#          BR         NDA      ID1       ID2
     5.60954243E-01    2           5        -5   # BR(h -> b       bb     )
     6.28623895E-02    2         -15        15   # BR(h -> tau+    tau-   )
     2.22495043E-04    2         -13        13   # BR(h -> mu+     mu-    )
     2.42240818E-04    2           3        -3   # BR(h -> s       sb     )
     2.04247573E-02    2           4        -4   # BR(h -> c       cb     )
     7.34258071E-02    2          21        21   # BR(h -> g       g      )
     2.40388641E-03    2          22        22   # BR(h -> gam     gam    )
     1.75666504E-03    2          22        23   # BR(h -> Z       gam    )
     2.45880404E-01    2          24       -24   # BR(h -> W+      W-     )
     3.18271116E-02    2          23        23   # BR(h -> Z       Z      )
#
#         PDG            Width
DECAY        35     2.61082220E+00   # H decays
#          BR         NDA      ID1       ID2
     4.80879536E-01    2           5        -5   # BR(H -> b       bb     )
     7.01072323E-02    2         -15        15   # BR(H -> tau+    tau-   )
     2.47401823E-04    2         -13        13   # BR(H -> mu+     mu-    )
     1.86326364E-04    2           3        -3   # BR(H -> s       sb     )
     4.19806573E-06    2           4        -4   # BR(H -> c       cb     )
     3.95635298E-01    2           6        -6   # BR(H -> t       tb     )
     4.63862768E-04    2          21        21   # BR(H -> g       g      )
     3.28239268E-06    2          22        22   # BR(H -> gam     gam    )
     4.48915933E-07    2          23        22   # BR(H -> Z       gam    )
     1.12670500E-03    2          24       -24   # BR(H -> W+      W-     )
     5.59714316E-04    2          23        23   # BR(H -> Z       Z      )
     4.05507757E-03    2          25        25   # BR(H -> h       h      )
     3.10784169E-02    2     1000024  -1000024   # BR(H -> ~chi_1+ ~chi_1-)
     1.56524993E-02    2     1000022   1000022   # BR(H -> ~chi_10 ~chi_10)
#
#         PDG            Width
DECAY        36     2.88569149E+00   # A decays
#          BR         NDA      ID1       ID2
     4.35507383E-01    2           5        -5   # BR(A -> b       bb     )
     6.34704123E-02    2         -15        15   # BR(A -> tau+    tau-   )
     2.23979852E-04    2         -13        13   # BR(A -> mu+     mu-    )
     1.68873903E-04    2           3        -3   # BR(A -> s       sb     )
     3.73022608E-06    2           4        -4   # BR(A -> c       cb     )
     3.63404426E-01    2           6        -6   # BR(A -> t       tb     )
     7.06577690E-04    2          21        21   # BR(A -> g       g      )
     5.17238478E-06    2          22        22   # BR(A -> gam     gam    )
     7.03767268E-07    2          23        22   # BR(A -> Z       gam    )
     1.02029620E-03    2          23        25   # BR(A -> Z       h      )
     9.00638088E-02    2     1000024  -1000024   # BR(A -> ~chi_1+ ~chi_1-)
     4.54246359E-02    2     1000022   1000022   # BR(A -> ~chi_10 ~chi_10)
#
#         PDG            Width
DECAY        37     2.48094916E+00   # H+ decays
#          BR         NDA      ID1       ID2
     8.65610053E-04    2           4        -5   # BR(H+ -> c       bb     )
     7.39477436E-02    2         -15        16   # BR(H+ -> tau+    nu_tau )
     2.60953158E-04    2         -13        14   # BR(H+ -> mu+     nu_mu  )
     8.65598985E-06    2           2        -5   # BR(H+ -> u       bb     )
     9.80740222E-06    2           2        -3   # BR(H+ -> u       sb     )
     1.97197323E-04    2           4        -3   # BR(H+ -> c       sb     )
     9.23513394E-01    2           6        -5   # BR(H+ -> t       bb     )
     1.19606664E-03    2          24        25   # BR(H+ -> W+      h      )
     4.24410390E-11    2          24        36   # BR(H+ -> W+      A      )
     5.71327583E-07    2     1000024   1000022   # BR(H+ -> ~chi_1+ ~chi_10)
