#
#                              ======================
#                              | THE SUSYHIT OUTPUT |
#                              ======================
#
#
#              ------------------------------------------------------
#              |     This is the output of the SUSY-HIT package     |
#              |  created by A.Djouadi, M.Muehlleitner and M.Spira. |
#              |  In case of problems with SUSY-HIT email to        |
#              |           margarete.muehlleitner@cern.ch           |
#              |           michael.spira@psi.ch                     |
#              |           abdelhak.djouadi@cern.ch                 |
#              ------------------------------------------------------
#
#              ------------------------------------------------------
#              |  SUSY Les Houches Accord - MSSM Spectrum + Decays  |
#              |              based on the decay programs           |
#              |                                                    |
#              |                     SDECAY 1.3b                    |
#              |                                                    |
#              |  Authors: M.Muhlleitner, A.Djouadi and Y.Mambrini  |
#              |  Ref.:    Comput.Phys.Commun.168(2005)46           |
#              |           [hep-ph/0311167]                         |
#              |                                                    |
#              |                     HDECAY 3.4                     |
#              |                                                    |
#              |  By: A.Djouadi,J.Kalinowski,M.Muhlleitner,M.Spira  |
#              |  Ref.:    Comput.Phys.Commun.108(1998)56           |
#              |           [hep-ph/9704448]                         |
#              |                                                    |
#              |                                                    |
#              |  If not stated otherwise all DRbar couplings and   |
#              |  soft SUSY breaking masses are given at the scale  |
#              |  Q=  0.96627410E+03
#              |                                                    |
#              ------------------------------------------------------
#
#
BLOCK DCINFO  # Decay Program information
     1   SDECAY/HDECAY # decay calculator
     2   1.3b  /3.4    # version number
#
BLOCK SPINFO  # Spectrum calculator information
     1     SOFTSUSY    # spectrum calculator               
     2     3.4.0       # version number                    
#
BLOCK MODSEL  # Model selection
     1     0   #  nonUniversal                                     
#
BLOCK SMINPUTS  # Standard Model inputs
         1     1.27908970E+02   # alpha_em^-1(M_Z)^MSbar
         2     1.16637870E-05   # G_F [GeV^-2]
         3     1.18400000E-01   # alpha_S(M_Z)^MSbar
         4     9.11876000E+01   # M_Z pole mass
         5     4.18000000E+00   # mb(mb)^MSbar
         6     1.73200000E+02   # mt pole mass
         7     1.77700000E+00   # mtau pole mass
#
BLOCK MINPAR  # Input parameters - minimal models
         3     4.34000000E+01   # tanb                
#
BLOCK EXTPAR  # Input parameters - non-minimal models
         0    -1.00000000E+00   # Set                 
         1     2.66961000E+03   # M_1(MX)             
         2    -4.05020000E+02   # M_2(MX)             
         3     1.47898000E+03   # M_3(MX)             
        11    -2.51937000E+03   # At(MX)              
        12     3.08593000E+03   # Ab(MX)              
        13    -9.89610000E+02   # Atau(MX)            
        23    -2.05239000E+03   # mu(MX)              
        26     2.97765000E+03   # mA(pole)            
        31     3.04006000E+03   # meL(MX)             
        32     3.04006000E+03   # mmuL(MX)            
        33     2.32257000E+03   # mtauL(MX)           
        34     8.14450000E+02   # meR(MX)             
        35     8.14450000E+02   # mmuR(MX)            
        36     4.28850000E+02   # mtauR(MX)           
        41     3.07042000E+03   # mqL1(MX)            
        42     3.07042000E+03   # mqL2(MX)            
        43     5.59490000E+02   # mqL3(MX)            
        44     1.63851000E+03   # muR(MX)             
        45     1.63851000E+03   # mcR(MX)             
        46     1.73129000E+03   # mtR(MX)             
        47     1.09332000E+03   # mdR(MX)             
        48     1.09332000E+03   # msR(MX)             
        49     3.31310000E+03   # mbR(MX)             
#
BLOCK MASS  # Mass Spectrum
# PDG code           mass       particle
        24     8.03764936E+01   # W+
        25     1.26283788E+02   # h
        35     2.97844822E+03   # H
        36     2.97765017E+03   # A
        37     2.97860590E+03   # H+
         5     4.81876030E+00   # b-quark pole mass calculated from mb(mb)_Msbar
   1000001     3.09093906E+03   # ~d_L
   2000001     1.12542941E+03   # ~d_R
   1000002     3.09003778E+03   # ~u_L
   2000002     1.66670470E+03   # ~u_R
   1000003     3.09093906E+03   # ~s_L
   2000003     1.12542941E+03   # ~s_R
   1000004     3.09003778E+03   # ~c_L
   2000004     1.66670470E+03   # ~c_R
   1000005     8.01569342E+02   # ~b_1
   2000005     3.36842745E+03   # ~b_2
   1000006     7.82691019E+02   # ~t_1
   2000006     1.77181942E+03   # ~t_2
   1000011     3.04624632E+03   # ~e_L
   2000011     7.95732349E+02   # ~e_R
   1000012     3.04487521E+03   # ~nu_eL
   1000013     3.04624632E+03   # ~mu_L
   2000013     7.95732349E+02   # ~mu_R
   1000014     3.04487521E+03   # ~nu_muL
   1000015     4.65295070E+02   # ~tau_1
   2000015     2.33418195E+03   # ~tau_2
   1000016     2.33131929E+03   # ~nu_tauL
   1000021     1.57524360E+03   # ~g
   1000022    -4.29459411E+02   # ~chi_10
   1000023     2.10690939E+03   # ~chi_20
   1000025    -2.10947072E+03   # ~chi_30
   1000035     2.67292580E+03   # ~chi_40
   1000024     4.29616954E+02   # ~chi_1+
   1000037     2.11087753E+03   # ~chi_2+
#
BLOCK NMIX  # Neutralino Mixing Matrix
  1  1     8.82059272E-05   # N_11
  1  2     9.99172072E-01   # N_12
  1  3     3.98227173E-02   # N_13
  1  4    -8.32553863E-03   # N_14
  2  1    -5.27816987E-02   # N_21
  2  2    -2.22568595E-02   # N_22
  2  3     7.06107498E-01   # N_23
  2  4     7.05783909E-01   # N_24
  3  1     6.58677363E-03   # N_31
  3  2    -3.40399984E-02   # N_32
  3  3     7.06229172E-01   # N_33
  3  4    -7.07133827E-01   # N_34
  4  1     9.98584347E-01   # N_41
  4  2    -1.04014648E-03   # N_42
  4  3     3.26605049E-02   # N_43
  4  4     4.19703539E-02   # N_44
#
BLOCK UMIX  # Chargino Mixing Matrix U
  1  1     9.98416403E-01   # U_11
  1  2     5.62555448E-02   # U_12
  2  1    -5.62555448E-02   # U_21
  2  2     9.98416403E-01   # U_22
#
BLOCK VMIX  # Chargino Mixing Matrix V
  1  1    -9.99931188E-01   # V_11
  1  2    -1.17311060E-02   # V_12
  2  1     1.17311060E-02   # V_21
  2  2    -9.99931188E-01   # V_22
#
BLOCK STOPMIX  # Stop Mixing Matrix
  1  1     9.89166053E-01   # cos(theta_t)
  1  2     1.46800952E-01   # sin(theta_t)
  2  1    -1.46800952E-01   # -sin(theta_t)
  2  2     9.89166053E-01   # cos(theta_t)
#
BLOCK SBOTMIX  # Sbottom Mixing Matrix
  1  1     9.99611532E-01   # cos(theta_b)
  1  2    -2.78708646E-02   # sin(theta_b)
  2  1     2.78708646E-02   # -sin(theta_b)
  2  2     9.99611532E-01   # cos(theta_b)
#
BLOCK STAUMIX  # Stau Mixing Matrix
  1  1    -3.20711540E-02   # cos(theta_tau)
  1  2     9.99485588E-01   # sin(theta_tau)
  2  1    -9.99485588E-01   # -sin(theta_tau)
  2  2    -3.20711540E-02   # cos(theta_tau)
#
BLOCK ALPHA  # Higgs mixing
          -2.31504039E-02   # Mixing angle in the neutral Higgs boson sector
#
BLOCK HMIX Q=  9.66274100E+02  # DRbar Higgs Parameters
         1    -2.10358569E+03   # mu(Q)MSSM           
         2     4.34439991E+01   # tan                 
         3     2.43745167E+02   # higgs               
         4     1.32765321E+07   # mA^2(Q)MSSM         
#
BLOCK GAUGE Q=  9.66274100E+02  # The gauge couplings
     1     3.61579343E-01   # gprime(Q) DRbar
     2     6.38515623E-01   # g(Q) DRbar
     3     1.05168586E+00   # g3(Q) DRbar
#
BLOCK AU Q=  9.66274100E+02  # The trilinear couplings
  1  1     0.00000000E+00   # A_u(Q) DRbar
  2  2     0.00000000E+00   # A_c(Q) DRbar
  3  3    -2.51937000E+03   # A_t(Q) DRbar
#
BLOCK AD Q=  9.66274100E+02  # The trilinear couplings
  1  1     0.00000000E+00   # A_d(Q) DRbar
  2  2     0.00000000E+00   # A_s(Q) DRbar
  3  3     3.08593000E+03   # A_b(Q) DRbar
#
BLOCK AE Q=  9.66274100E+02  # The trilinear couplings
  1  1     0.00000000E+00   # A_e(Q) DRbar
  2  2     0.00000000E+00   # A_mu(Q) DRbar
  3  3    -9.89610000E+02   # A_tau(Q) DRbar
#
BLOCK Yu Q=  9.66274100E+02  # The Yukawa couplings
  1  1     0.00000000E+00   # y_u(Q) DRbar
  2  2     0.00000000E+00   # y_c(Q) DRbar
  3  3     8.38493970E-01   # y_t(Q) DRbar
#
BLOCK Yd Q=  9.66274100E+02  # The Yukawa couplings
  1  1     0.00000000E+00   # y_d(Q) DRbar
  2  2     0.00000000E+00   # y_s(Q) DRbar
  3  3     8.12721626E-01   # y_b(Q) DRbar
#
BLOCK Ye Q=  9.66274100E+02  # The Yukawa couplings
  1  1     0.00000000E+00   # y_e(Q) DRbar
  2  2     0.00000000E+00   # y_mu(Q) DRbar
  3  3     4.57589897E-01   # y_tau(Q) DRbar
#
BLOCK MSOFT Q=  9.66274100E+02  # The soft SUSY breaking masses at the scale Q
         1     2.66961000E+03   # M_1(Q)              
         2    -4.05020000E+02   # M_2(Q)              
         3     1.47898000E+03   # M_3(Q)              
        21     4.61266509E+06   # mH1^2(Q)            
        22    -4.52886570E+06   # mH2^2(Q)            
        31     3.04006000E+03   # meL(Q)              
        32     3.04006000E+03   # mmuL(Q)             
        33     2.32257000E+03   # mtauL(Q)            
        34     8.14450000E+02   # meR(Q)              
        35     8.14450000E+02   # mmuR(Q)             
        36     4.28850000E+02   # mtauR(Q)            
        41     3.07042000E+03   # mqL1(Q)             
        42     3.07042000E+03   # mqL2(Q)             
        43     5.59489996E+02   # mqL3(Q)             
        44     1.63851000E+03   # muR(Q)              
        45     1.63851000E+03   # mcR(Q)              
        46     1.73129000E+03   # mtR(Q)              
        47     1.09332000E+03   # mdR(Q)              
        48     1.09332000E+03   # msR(Q)              
        49     3.31310000E+03   # mbR(Q)              
#
Block HiggsBoundsInputHiggsCouplingsFermions
# ScalarNormEffCoupSq PseudoSNormEffCoupSq NP   IP1 IP2 IP2
    1.01188042E+00    0.00000000E+00        3  25   5   5  # h0-b-b eff. coupling^2, normalised to SM
    1.88736918E+03    0.00000000E+00        3  35   5   5  # H0-b-b eff. coupling^2, normalised to SM
    0.00000000E+00    1.88738106E+03        3  36   5   5  # A0-b-b eff. coupling^2, normalised to SM
#
    9.99993705E-01    0.00000000E+00        3  25   6   6  # h0-t-t eff. coupling^2, normalised to SM
    5.36129373E-04    0.00000000E+00        3  35   6   6  # H0-t-t eff. coupling^2, normalised to SM
    0.00000000E+00    5.29834712E-04        3  36   6   6  # A0-t-t eff. coupling^2, normalised to SM
#
    1.01188042E+00    0.00000000E+00        3  25  15  15  # h0-tau-tau eff. coupling^2, normalised to SM
    1.88736918E+03    0.00000000E+00        3  35  15  15  # H0-tau-tau eff. coupling^2, normalised to SM
    0.00000000E+00    1.88738106E+03        3  36  15  15  # A0-tau-tau eff. coupling^2, normalised to SM
#
Block HiggsBoundsInputHiggsCouplingsBosons
    9.99999981E-01        3  25  24  24  # h0-W-W eff. coupling^2, normalised to SM
    1.85856256E-08        3  35  24  24  # H0-W-W eff. coupling^2, normalised to SM
    0.00000000E+00        3  36  24  24  # A0-W-W eff. coupling^2, normalised to SM
#
    9.99999981E-01        3  25  23  23  # h0-Z-Z eff. coupling^2, normalised to SM
    1.85856256E-08        3  35  23  23  # H0-Z-Z eff. coupling^2, normalised to SM
    0.00000000E+00        3  36  23  23  # A0-Z-Z eff. coupling^2, normalised to SM
#
    8.52339322E-01        3  25  21  21  # h0-g-g eff. coupling^2, normalised to SM
    1.99277091E-11        3  35  21  21  # H0-g-g eff. coupling^2, normalised to SM
    5.91930949E-12        3  36  21  21  # A0-g-g eff. coupling^2, normalised to SM
#
    0.00000000E+00        3  25  25  23  # h0-h0-Z eff. coupling^2, normalised to SM
    0.00000000E+00        3  35  25  23  # H0-h0-Z eff. coupling^2, normalised to SM
    1.85856256E-08        3  36  25  23  # A0-h0-Z eff. coupling^2, normalised to SM
    0.00000000E+00        3  35  35  23  # H0-H0-Z eff. coupling^2, normalised to SM
    9.99999981E-01        3  36  35  23  # A0-H0-Z eff. coupling^2, normalised to SM
    0.00000000E+00        3  36  36  23  # A0-A0-Z eff. coupling^2, normalised to SM
#
    0.00000000E+00        4  25  21  21  23  # h0-g-g-Z eff. coupling^2, normalised to SM
    0.00000000E+00        4  35  21  21  23  # H0-g-g-Z eff. coupling^2, normalised to SM
    0.00000000E+00        4  36  21  21  23  # A0-g-g-Z eff. coupling^2, normalised to SM
#
#
#
#                             =================
#                             |The decay table|
#                             =================
#
# - The QCD corrections to the decays gluino -> squark  + quark
#                                     squark -> gaugino + quark_prime
#                                     squark -> squark_prime + Higgs
#                                     squark -> gluino  + quark
#   are included.
#
# - The multi-body decays for the inos, stops and sbottoms are included.
#
# - The loop induced decays for the gluino, neutralinos and stops
#   are included.
#
# - The SUSY decays of the top quark are included.
#
#
#         PDG            Width
DECAY         6     1.43646473E+00   # top decays
#          BR         NDA      ID1       ID2
     1.00000000E+00    2           5        24   # BR(t ->  b    W+)
#
#         PDG            Width
DECAY   1000021     4.84904772E+01   # gluino decays
#          BR         NDA      ID1       ID2
     6.78495499E-02    2     2000001        -1   # BR(~g -> ~d_R  db)
     6.78495499E-02    2    -2000001         1   # BR(~g -> ~d_R* d )
     6.78495499E-02    2     2000003        -3   # BR(~g -> ~s_R  sb)
     6.78495499E-02    2    -2000003         3   # BR(~g -> ~s_R* s )
     1.87550078E-01    2     1000005        -5   # BR(~g -> ~b_1  bb)
     1.87550078E-01    2    -1000005         5   # BR(~g -> ~b_1* b )
     1.76750822E-01    2     1000006        -6   # BR(~g -> ~t_1  tb)
     1.76750822E-01    2    -1000006         6   # BR(~g -> ~t_1* t )
#
#         PDG            Width
DECAY   1000006     4.22485347E+00   # stop1 decays
#          BR         NDA      ID1       ID2
     2.83028204E-01    2     1000022         6   # BR(~t_1 -> ~chi_10 t )
     7.16971796E-01    2     1000024         5   # BR(~t_1 -> ~chi_1+ b )
#
#         PDG            Width
DECAY   2000006     7.63680970E+01   # stop2 decays
#          BR         NDA      ID1       ID2
     2.13754781E-03    2     1000022         6   # BR(~t_2 -> ~chi_10 t )
     4.39415720E-03    2     1000024         5   # BR(~t_2 -> ~chi_1+ b )
     2.01536149E-02    2     1000021         6   # BR(~t_2 -> ~g      t )
     2.29654920E-01    2     1000006        25   # BR(~t_2 -> ~t_1    h )
     2.54128495E-01    2     1000006        23   # BR(~t_2 -> ~t_1    Z )
     4.89531265E-01    2     1000005        24   # BR(~t_2 -> ~b_1    W+)
#
#         PDG            Width
DECAY   1000005     4.33696334E+00   # sbottom1 decays
#          BR         NDA      ID1       ID2
     3.82980741E-01    2     1000022         5   # BR(~b_1 -> ~chi_10 b )
     6.17019259E-01    2    -1000024         6   # BR(~b_1 -> ~chi_1- t )
#
#         PDG            Width
DECAY   2000005     1.85767305E+02   # sbottom2 decays
#          BR         NDA      ID1       ID2
     1.36872196E-04    2     1000022         5   # BR(~b_2 -> ~chi_10 b )
     4.40188410E-02    2     1000023         5   # BR(~b_2 -> ~chi_20 b )
     4.39840763E-02    2     1000025         5   # BR(~b_2 -> ~chi_30 b )
     1.48290191E-03    2     1000035         5   # BR(~b_2 -> ~chi_40 b )
     2.71022179E-04    2    -1000024         6   # BR(~b_2 -> ~chi_1- t )
     8.70891290E-02    2    -1000037         6   # BR(~b_2 -> ~chi_2- t )
     6.49542195E-01    2     1000021         5   # BR(~b_2 -> ~g      b )
     4.66579502E-02    2     1000005        25   # BR(~b_2 -> ~b_1    h )
     4.30653914E-02    2     1000005        23   # BR(~b_2 -> ~b_1    Z )
     8.29368652E-02    2     1000006       -24   # BR(~b_2 -> ~t_1    W-)
     8.14755587E-04    2     2000006       -24   # BR(~b_2 -> ~t_2    W-)
#
#         PDG            Width
DECAY   1000002     1.59260227E+02   # sup_L decays
#          BR         NDA      ID1       ID2
     7.27288254E-02    2     1000022         2   # BR(~u_L -> ~chi_10 u)
     2.27689929E-05    2     1000023         2   # BR(~u_L -> ~chi_20 u)
     2.34929304E-05    2     1000025         2   # BR(~u_L -> ~chi_30 u)
     1.74496749E-04    2     1000035         2   # BR(~u_L -> ~chi_40 u)
     1.45669788E-01    2     1000024         1   # BR(~u_L -> ~chi_1+ d)
     5.99770574E-06    2     1000037         1   # BR(~u_L -> ~chi_2+ d)
     7.81374630E-01    2     1000021         2   # BR(~u_L -> ~g      u)
#
#         PDG            Width
DECAY   2000002     1.39606004E+00   # sup_R decays
#           BR         NDA      ID1       ID2
     1.78428421E-08    2     1000022         2   # BR(~u_R -> ~chi_10 u)
     9.99999982E-01    2     1000021         2   # BR(~u_R -> ~g      u)
#
#         PDG            Width
DECAY   1000001     1.59306854E+02   # sdown_L decays
#          BR         NDA      ID1       ID2
     7.27259426E-02    2     1000022         1   # BR(~d_L -> ~chi_10 d)
     3.31817115E-06    2     1000023         1   # BR(~d_L -> ~chi_20 d)
     2.72178131E-05    2     1000025         1   # BR(~d_L -> ~chi_30 d)
     1.78998727E-04    2     1000035         1   # BR(~d_L -> ~chi_40 d)
     1.45232701E-01    2    -1000024         2   # BR(~d_L -> ~chi_1- u)
     1.38062524E-04    2    -1000037         2   # BR(~d_L -> ~chi_2- u)
     7.81693759E-01    2     1000021         1   # BR(~d_L -> ~g      d)
#
#         PDG            Width
DECAY   2000001     9.67437906E-04   # sdown_R decays
#           BR         NDA      ID1       ID2
     3.80673908E-06    2     1000022         1   # BR(~d_R -> ~chi_10 d)
#           BR         NDA      ID1       ID2       ID3
     5.35372861E-01    3        1       -5        1000005   # BR(~d_R -> d  bb  ~b_1)
     2.00860436E-01    3        1       5        -1000005   # BR(~d_R -> d  b  ~b_1*)
     1.92053670E-01    3        1       -6        1000006   # BR(~d_R -> d  tb  ~t_1)
     6.51845453E-02    3        1       6        -1000006   # BR(~d_R -> d  t  ~t_1*)
     3.05993799E-05    3        1       -11        2000011   # BR(~d_R -> d  e+  ~e_R-)
     2.34547353E-04    3        1       11        -2000011   # BR(~d_R -> d  e-  ~e_R+)
     3.04608697E-05    3        1       -13        2000013   # BR(~d_R -> d  mu+  ~mu_R-)
     2.35064182E-04    3        1       13        -2000013   # BR(~d_R -> d  mu-  ~mu_R+)
     4.89013297E-04    3        1       -15        1000015   # BR(~d_R -> d  tau+  ~tau_1-)
     5.50319557E-03    3        1       15        -1000015   # BR(~d_R -> d  tau-  ~tau_1+)
     2.08457823E-07    3        1       23        1000022   # BR(~d_R -> d  Z  ~chi_10)
     5.09831170E-07    3        1       25        1000022   # BR(~d_R -> d  h  ~chi_10)
     1.03438163E-06    3        1       -24        1000024   # BR(~d_R -> d  W-  ~chi_1+)
     4.76361322E-08    3        1       24        -1000024   # BR(~d_R -> d  W+  ~chi_1-)
#
#         PDG            Width
DECAY   1000004     1.35490625E+02   # scharm_L decays
#          BR         NDA      ID1       ID2
     8.88077265E-02    2     1000022         4   # BR(~c_L -> ~chi_10 c)
     2.74921467E-05    2     1000023         4   # BR(~c_L -> ~chi_20 c)
     2.83648592E-05    2     1000025         4   # BR(~c_L -> ~chi_30 c)
     2.05977992E-04    2     1000035         4   # BR(~c_L -> ~chi_40 c)
     1.77874463E-01    2     1000024         3   # BR(~c_L -> ~chi_1+ s)
     7.24131710E-06    2     1000037         3   # BR(~c_L -> ~chi_2+ s)
     7.33048734E-01    2     1000021         4   # BR(~c_L -> ~g      c)
#
#         PDG            Width
DECAY   2000004     1.11407254E+00   # scharm_R decays
#           BR         NDA      ID1       ID2
     2.34559282E-08    2     1000022         4   # BR(~c_R -> ~chi_10 c)
     9.99999977E-01    2     1000021         4   # BR(~c_R -> ~g      c)
#
#         PDG            Width
DECAY   1000003     1.35517729E+02   # sstrange_L decays
#          BR         NDA      ID1       ID2
     8.88120320E-02    2     1000022         3   # BR(~s_L -> ~chi_10 s)
     4.00690717E-06    2     1000023         3   # BR(~s_L -> ~chi_20 s)
     3.28656614E-05    2     1000025         3   # BR(~s_L -> ~chi_30 s)
     2.11326768E-04    2     1000035         3   # BR(~s_L -> ~chi_40 s)
     1.77356230E-01    2    -1000024         4   # BR(~s_L -> ~chi_1- c)
     1.66706519E-04    2    -1000037         4   # BR(~s_L -> ~chi_2- c)
     7.33416832E-01    2     1000021         3   # BR(~s_L -> ~g      s)
#
#         PDG            Width
DECAY   2000003     9.67910948E-04   # sstrange_R decays
#           BR         NDA      ID1       ID2
     3.81689252E-06    2     1000022         3   # BR(~s_R -> ~chi_10 s)
#           BR         NDA      ID1       ID2       ID3
     5.34656624E-01    3        3       -5        1000005   # BR(~s_R -> s  bb  ~b_1)
     2.00772603E-01    3        3       5        -1000005   # BR(~s_R -> s  b  ~b_1*)
     1.93013624E-01    3        3       -6        1000006   # BR(~s_R -> s  tb  ~t_1)
     6.49873835E-02    3        3       6        -1000006   # BR(~s_R -> s  t  ~t_1*)
     3.05844252E-05    3        3       -11        2000011   # BR(~s_R -> s  e+  ~e_R-)
     2.34432724E-04    3        3       11        -2000011   # BR(~s_R -> s  e-  ~e_R+)
     3.04459827E-05    3        3       -13        2000013   # BR(~s_R -> s  mu+  ~mu_R-)
     2.34412061E-04    3        3       13        -2000013   # BR(~s_R -> s  mu-  ~mu_R+)
     4.88825962E-04    3        3       -15        1000015   # BR(~s_R -> s  tau+  ~tau_1-)
     5.54544818E-03    3        3       15        -1000015   # BR(~s_R -> s  tau-  ~tau_1+)
     2.08025336E-07    3        3       23        1000022   # BR(~s_R -> s  Z  ~chi_10)
     5.09582003E-07    3        3       25        1000022   # BR(~s_R -> s  h  ~chi_10)
     1.03397942E-06    3        3       -24        1000024   # BR(~s_R -> s  W-  ~chi_1+)
     4.76128513E-08    3        3       24        -1000024   # BR(~s_R -> s  W+  ~chi_1-)
#
#         PDG            Width
DECAY   1000011     3.57508786E+01   # selectron_L decays
#          BR         NDA      ID1       ID2
     3.31442459E-01    2     1000022        11   # BR(~e_L -> ~chi_10 e-)
     2.55679009E-04    2     1000023        11   # BR(~e_L -> ~chi_20 e-)
     8.59970463E-05    2     1000025        11   # BR(~e_L -> ~chi_30 e-)
     5.82808673E-03    2     1000035        11   # BR(~e_L -> ~chi_40 e-)
     6.61796757E-01    2    -1000024        12   # BR(~e_L -> ~chi_1- nu_e)
     5.91021079E-04    2    -1000037        12   # BR(~e_L -> ~chi_2- nu_e)
#
#         PDG            Width
DECAY   2000011     3.45120592E-06   # selectron_R decays
#           BR         NDA      ID1       ID2
     4.68714929E-03    2     1000022        11   # BR(~e_R -> ~chi_10 e-)
#           BR         NDA      ID1       ID2       ID3
     5.21556824E-02    3        11       -15        1000015   # BR(~e_R- -> e-  tau+  ~tau_1-)
     9.42916787E-01    3        11       15        -1000015   # BR(~e_R- -> e-  tau-  ~tau_1+)
     1.52865408E-05    3        11       23        1000022   # BR(~e_R- -> e-  Z  ~chi_10)
     8.69116496E-05    3        11       25        1000022   # BR(~e_R- -> e-  h  ~chi_10)
     1.18347038E-04    3        11       -24        1000024   # BR(~e_R- -> e-  W-  ~chi_1+)
     1.98365445E-05    3        11       24        -1000024   # BR(~e_R- -> e-  W+  ~chi_1-)
#
#         PDG            Width
DECAY   1000013     3.57508786E+01   # smuon_L decays
#          BR         NDA      ID1       ID2
     3.31442459E-01    2     1000022        13   # BR(~mu_L -> ~chi_10 mu-)
     2.55679007E-04    2     1000023        13   # BR(~mu_L -> ~chi_20 mu-)
     8.59970456E-05    2     1000025        13   # BR(~mu_L -> ~chi_30 mu-)
     5.82808647E-03    2     1000035        13   # BR(~mu_L -> ~chi_40 mu-)
     6.61796758E-01    2    -1000024        14   # BR(~mu_L -> ~chi_1- nu_mu)
     5.91021079E-04    2    -1000037        14   # BR(~mu_L -> ~chi_2- nu_mu)
#
#         PDG            Width
DECAY   2000013     3.44205087E-06   # smuon_R decays
#           BR         NDA      ID1       ID2
     4.69961567E-03    2     1000022        13   # BR(~mu_R -> ~chi_10 mu-)
#           BR         NDA      ID1       ID2       ID3
     5.23060254E-02    3        13       -15        1000015   # BR(~mu_R- -> mu-  tau+  ~tau_1-)
     9.42751901E-01    3        13       15        -1000015   # BR(~mu_R- -> mu-  tau-  ~tau_1+)
     1.53449214E-05    3        13       23        1000022   # BR(~mu_R- -> mu-  Z  ~chi_10)
     8.70643728E-05    3        13       25        1000022   # BR(~mu_R- -> mu-  h  ~chi_10)
     1.20097005E-04    3        13       -24        1000024   # BR(~mu_R- -> mu-  W-  ~chi_1+)
     1.99514774E-05    3        13       24        -1000024   # BR(~mu_R- -> mu-  W+  ~chi_1-)
#
#         PDG            Width
DECAY   1000015     6.45547976E-04   # stau_1 decays
#          BR         NDA      ID1       ID2
     3.35063575E-01    2     1000022        15   # BR(~tau_1 -> ~chi_10  tau-)
     6.64936425E-01    2    -1000024        16   # BR(~tau_1 -> ~chi_1-  nu_tau)
#
#         PDG            Width
DECAY   2000015     3.40783484E+01   # stau_2 decays
#          BR         NDA      ID1       ID2
     2.58367060E-01    2     1000022        15   # BR(~tau_2 -> ~chi_10  tau-)
     4.89705093E-03    2     1000023        15   # BR(~tau_2 -> ~chi_20  tau-)
     4.80983538E-03    2     1000025        15   # BR(~tau_2 -> ~chi_30  tau-)
     5.15045227E-01    2    -1000024        16   # BR(~tau_2 -> ~chi_1-  nu_tau)
     1.15585738E-04    2    -1000037        16   # BR(~tau_2 -> ~chi_2-  nu_tau)
     1.07979385E-01    2     1000015        25   # BR(~tau_2 -> ~tau_1   h)
     1.08785856E-01    2     1000015        23   # BR(~tau_2 -> ~tau_1   Z)
#
#         PDG            Width
DECAY   1000012     3.57757558E+01   # snu_eL decays
#          BR         NDA      ID1       ID2
     3.30984622E-01    2     1000022        12   # BR(~nu_eL -> ~chi_10 nu_e)
     5.46210238E-06    2     1000023        12   # BR(~nu_eL -> ~chi_20 nu_e)
     1.33163456E-04    2     1000025        12   # BR(~nu_eL -> ~chi_30 nu_e)
     5.82910140E-03    2     1000035        12   # BR(~nu_eL -> ~chi_40 nu_e)
     6.63022022E-01    2     1000024        11   # BR(~nu_eL -> ~chi_1+ e-)
     2.56288762E-05    2     1000037        11   # BR(~nu_eL -> ~chi_2+ e-)
#
#         PDG            Width
DECAY   1000014     3.57757557E+01   # snu_muL decays
#          BR         NDA      ID1       ID2
     3.30984623E-01    2     1000022        14   # BR(~nu_muL -> ~chi_10 nu_mu)
     5.46210239E-06    2     1000023        14   # BR(~nu_muL -> ~chi_20 nu_mu)
     1.33163456E-04    2     1000025        14   # BR(~nu_muL -> ~chi_30 nu_mu)
     5.82910141E-03    2     1000035        14   # BR(~nu_muL -> ~chi_40 nu_mu)
     6.63022021E-01    2     1000024        13   # BR(~nu_muL -> ~chi_1+ mu-)
     2.56288760E-05    2     1000037        13   # BR(~nu_muL -> ~chi_2+ mu-)
#
#         PDG            Width
DECAY   1000016     3.40087544E+01   # snu_tauL decays
#          BR         NDA      ID1       ID2
     2.59002874E-01    2     1000022        16   # BR(~nu_tauL -> ~chi_10 nu_tau)
     5.43844959E-07    2     1000023        16   # BR(~nu_tauL -> ~chi_20 nu_tau)
     1.30308903E-05    2     1000025        16   # BR(~nu_tauL -> ~chi_30 nu_tau)
     5.19648829E-01    2     1000024        15   # BR(~nu_tauL -> ~chi_1+ tau-)
     9.24493768E-03    2     1000037        15   # BR(~nu_tauL -> ~chi_2+ tau-)
     2.12089784E-01    2    -1000015       -24   # BR(~nu_tauL -> ~tau_1+ W-)
#
#         PDG            Width
DECAY   1000024     2.77745910E-15   # chargino1+ decays
#           BR         NDA      ID1       ID2       ID3
     2.04293650E-02    3     1000022       -11        12   # BR(~chi_1+ -> ~chi_10 e+   nu_e)
     1.80294470E-03    3     1000022       -13        14   # BR(~chi_1+ -> ~chi_10 mu+  nu_mu)
     9.77767690E-01    2     1000022       211             # BR(~chi_1+ -> ~chi_10 pi+)
#
#         PDG            Width
DECAY   1000037     8.38440081E+01   # chargino2+ decays
#          BR         NDA      ID1       ID2
     3.68970619E-01    2     1000006        -5   # BR(~chi_2+ -> ~t_1     bb)
     4.61151550E-02    2     2000006        -5   # BR(~chi_2+ -> ~t_2     bb)
     3.83216623E-01    2    -1000005         6   # BR(~chi_2+ -> ~b_1*    t )
     4.70287566E-02    2    -1000015        16   # BR(~chi_2+ -> ~tau_1+  nu_tau)
     5.23318263E-02    2     1000024        23   # BR(~chi_2+ -> ~chi_1+  Z )
     5.10358774E-02    2     1000022        24   # BR(~chi_2+ -> ~chi_10  W+)
     5.13011424E-02    2     1000024        25   # BR(~chi_2+ -> ~chi_1+  h )
#
#         PDG            Width
DECAY   1000022     0.00000000E+00   # neutralino1 decays
#
#         PDG            Width
DECAY   1000023     8.42425825E+01   # neutralino2 decays
#          BR         NDA      ID1       ID2
     3.62911275E-02    2     1000022        23   # BR(~chi_20 -> ~chi_10   Z )
     5.05538751E-02    2     1000024       -24   # BR(~chi_20 -> ~chi_1+   W-)
     5.05538751E-02    2    -1000024        24   # BR(~chi_20 -> ~chi_1-   W+)
     1.44665410E-02    2     1000022        25   # BR(~chi_20 -> ~chi_10   h )
     3.31804867E-05    2     2000002        -2   # BR(~chi_20 -> ~u_R      ub)
     3.31804867E-05    2    -2000002         2   # BR(~chi_20 -> ~u_R*     u )
     2.96670001E-05    2     2000001        -1   # BR(~chi_20 -> ~d_R      db)
     2.96670001E-05    2    -2000001         1   # BR(~chi_20 -> ~d_R*     d )
     3.31803123E-05    2     2000004        -4   # BR(~chi_20 -> ~c_R      cb)
     3.31803123E-05    2    -2000004         4   # BR(~chi_20 -> ~c_R*     c )
     2.96670001E-05    2     2000003        -3   # BR(~chi_20 -> ~s _R      sb)
     2.96670001E-05    2    -2000003         3   # BR(~chi_20 -> ~s _R*     s )
     2.03079911E-01    2     1000006        -6   # BR(~chi_20 -> ~t_1      tb)
     2.03079911E-01    2    -1000006         6   # BR(~chi_20 -> ~t_1*     t )
     1.70963799E-02    2     2000006        -6   # BR(~chi_20 -> ~t_2      tb)
     1.70963799E-02    2    -2000006         6   # BR(~chi_20 -> ~t_2*     t )
     1.79827896E-01    2     1000005        -5   # BR(~chi_20 -> ~b_1      bb)
     1.79827896E-01    2    -1000005         5   # BR(~chi_20 -> ~b_1*     b )
     1.33212319E-04    2     2000011       -11   # BR(~chi_20 -> ~e_R-     e+)
     1.33212319E-04    2    -2000011        11   # BR(~chi_20 -> ~e_R+     e-)
     1.33212319E-04    2     2000013       -13   # BR(~chi_20 -> ~mu_R-    mu+)
     1.33212319E-04    2    -2000013        13   # BR(~chi_20 -> ~mu_R+    mu-)
     2.36709840E-02    2     1000015       -15   # BR(~chi_20 -> ~tau_1-   tau+)
     2.36709840E-02    2    -1000015        15   # BR(~chi_20 -> ~tau_1+   tau-)
#
#         PDG            Width
DECAY   1000025     8.21546566E+01   # neutralino3 decays
#          BR         NDA      ID1       ID2
     1.60651173E-02    2     1000022        23   # BR(~chi_30 -> ~chi_10   Z )
     5.22845212E-02    2     1000024       -24   # BR(~chi_30 -> ~chi_1+   W-)
     5.22845212E-02    2    -1000024        24   # BR(~chi_30 -> ~chi_1-   W+)
     3.74736527E-02    2     1000022        25   # BR(~chi_30 -> ~chi_10   h )
     5.34751448E-07    2     2000002        -2   # BR(~chi_30 -> ~u_R      ub)
     5.34751448E-07    2    -2000002         2   # BR(~chi_30 -> ~u_R*     u )
     4.75251144E-07    2     2000001        -1   # BR(~chi_30 -> ~d_R      db)
     4.75251144E-07    2    -2000001         1   # BR(~chi_30 -> ~d_R*     d )
     5.34748673E-07    2     2000004        -4   # BR(~chi_30 -> ~c_R      cb)
     5.34748673E-07    2    -2000004         4   # BR(~chi_30 -> ~c_R*     c )
     4.75251144E-07    2     2000003        -3   # BR(~chi_30 -> ~s _R      sb)
     4.75251144E-07    2    -2000003         3   # BR(~chi_30 -> ~s _R*     s )
     1.88769646E-01    2     1000006        -6   # BR(~chi_30 -> ~t_1      tb)
     1.88769646E-01    2    -1000006         6   # BR(~chi_30 -> ~t_1*     t )
     2.34747674E-02    2     2000006        -6   # BR(~chi_30 -> ~t_2      tb)
     2.34747674E-02    2    -2000006         6   # BR(~chi_30 -> ~t_2*     t )
     1.84631099E-01    2     1000005        -5   # BR(~chi_30 -> ~b_1      bb)
     1.84631099E-01    2    -1000005         5   # BR(~chi_30 -> ~b_1*     b )
     2.13157644E-06    2     2000011       -11   # BR(~chi_30 -> ~e_R-     e+)
     2.13157644E-06    2    -2000011        11   # BR(~chi_30 -> ~e_R+     e-)
     2.13157644E-06    2     2000013       -13   # BR(~chi_30 -> ~mu_R-    mu+)
     2.13157644E-06    2    -2000013        13   # BR(~chi_30 -> ~mu_R+    mu-)
     2.40642984E-02    2     1000015       -15   # BR(~chi_30 -> ~tau_1-   tau+)
     2.40642984E-02    2    -1000015        15   # BR(~chi_30 -> ~tau_1+   tau-)
#
#         PDG            Width
DECAY   1000035     6.72695747E+01   # neutralino4 decays
#          BR         NDA      ID1       ID2
     2.29872004E-04    2     1000022        23   # BR(~chi_40 -> ~chi_10   Z )
     2.21689482E-04    2     1000023        23   # BR(~chi_40 -> ~chi_20   Z )
     1.31212026E-02    2     1000025        23   # BR(~chi_40 -> ~chi_30   Z )
     3.28587808E-04    2     1000024       -24   # BR(~chi_40 -> ~chi_1+   W-)
     3.28587808E-04    2    -1000024        24   # BR(~chi_40 -> ~chi_1-   W+)
     1.30409921E-02    2     1000037       -24   # BR(~chi_40 -> ~chi_2+   W-)
     1.30409921E-02    2    -1000037        24   # BR(~chi_40 -> ~chi_2-   W+)
     1.18407730E-04    2     1000022        25   # BR(~chi_40 -> ~chi_10   h )
     1.44624663E-02    2     1000023        25   # BR(~chi_40 -> ~chi_20   h )
     2.08202042E-04    2     1000025        25   # BR(~chi_40 -> ~chi_30   h )
     4.97604991E-02    2     2000002        -2   # BR(~chi_40 -> ~u_R      ub)
     4.97604991E-02    2    -2000002         2   # BR(~chi_40 -> ~u_R*     u )
     2.24068072E-02    2     2000001        -1   # BR(~chi_40 -> ~d_R      db)
     2.24068072E-02    2    -2000001         1   # BR(~chi_40 -> ~d_R*     d )
     4.97604608E-02    2     2000004        -4   # BR(~chi_40 -> ~c_R      cb)
     4.97604608E-02    2    -2000004         4   # BR(~chi_40 -> ~c_R*     c )
     2.24068072E-02    2     2000003        -3   # BR(~chi_40 -> ~s _R      sb)
     2.24068072E-02    2    -2000003         3   # BR(~chi_40 -> ~s _R*     s )
     7.67426370E-03    2     1000006        -6   # BR(~chi_40 -> ~t_1      tb)
     7.67426370E-03    2    -1000006         6   # BR(~chi_40 -> ~t_1*     t )
     4.19254251E-02    2     2000006        -6   # BR(~chi_40 -> ~t_2      tb)
     4.19254251E-02    2    -2000006         6   # BR(~chi_40 -> ~t_2*     t )
     7.54285470E-03    2     1000005        -5   # BR(~chi_40 -> ~b_1      bb)
     7.54285470E-03    2    -1000005         5   # BR(~chi_40 -> ~b_1*     b )
     8.55989715E-02    2     2000011       -11   # BR(~chi_40 -> ~e_R-     e+)
     8.55989715E-02    2    -2000011        11   # BR(~chi_40 -> ~e_R+     e-)
     8.55989715E-02    2     2000013       -13   # BR(~chi_40 -> ~mu_R-    mu+)
     8.55989715E-02    2    -2000013        13   # BR(~chi_40 -> ~mu_R+    mu-)
     9.68343526E-02    2     1000015       -15   # BR(~chi_40 -> ~tau_1-   tau+)
     9.68343526E-02    2    -1000015        15   # BR(~chi_40 -> ~tau_1+   tau-)
     1.45963872E-03    2     2000015       -15   # BR(~chi_40 -> ~tau_2-   tau+)
     1.45963872E-03    2    -2000015        15   # BR(~chi_40 -> ~tau_2+   tau-)
     1.48044792E-03    2     1000016       -16   # BR(~chi_40 -> ~nu_tau1  nu_taub)
     1.48044792E-03    2    -1000016        16   # BR(~chi_40 -> ~nu_tau1* nu_tau )
#
#         PDG            Width
DECAY        25     3.65667092E-03   # h decays
#          BR         NDA      ID1       ID2
     5.12372478E-01    2           5        -5   # BR(h -> b       bb     )
     7.23158046E-02    2         -15        15   # BR(h -> tau+    tau-   )
     2.55988281E-04    2         -13        13   # BR(h -> mu+     mu-    )
     2.80592848E-04    2           3        -3   # BR(h -> s       sb     )
     2.39134671E-02    2           4        -4   # BR(h -> c       cb     )
     8.80796717E-02    2          21        21   # BR(h -> g       g      )
     2.70645460E-03    2          22        22   # BR(h -> gam     gam    )
     1.91187332E-03    2          22        23   # BR(h -> Z       gam    )
     2.64547249E-01    2          24       -24   # BR(h -> W+      W-     )
     3.36164202E-02    2          23        23   # BR(h -> Z       Z      )
#
#         PDG            Width
DECAY        35     1.30943613E+02   # H decays
#          BR         NDA      ID1       ID2
     5.87681458E-01    2           5        -5   # BR(H -> b       bb     )
     8.44686613E-02    2         -15        15   # BR(H -> tau+    tau-   )
     3.03368849E-04    2         -13        13   # BR(H -> mu+     mu-    )
     4.52753907E-04    2           3        -3   # BR(H -> s       sb     )
     5.00929234E-09    2           4        -4   # BR(H -> c       cb     )
     4.92209180E-04    2           6        -6   # BR(H -> t       tb     )
     2.84822193E-05    2          21        21   # BR(H -> g       g      )
     5.87518734E-08    2          22        22   # BR(H -> gam     gam    )
     4.80406363E-09    2          23        22   # BR(H -> Z       gam    )
     1.20494689E-06    2          24       -24   # BR(H -> W+      W-     )
     6.01128039E-07    2          23        23   # BR(H -> Z       Z      )
     1.49956433E-06    2          25        25   # BR(H -> h       h      )
     2.66214957E-15    2          23        36   # BR(H -> Z       A      )
     5.30328058E-04    2     1000024  -1000024   # BR(H -> ~chi_1+ ~chi_1-)
     2.01569886E-02    2     1000024  -1000037   # BR(H -> ~chi_1+ ~chi_2-)
     2.01569886E-02    2     1000037  -1000024   # BR(H -> ~chi_2+ ~chi_1-)
     2.65339061E-04    2     1000022   1000022   # BR(H -> ~chi_10 ~chi_10)
     1.48649484E-02    2     1000022   1000023   # BR(H -> ~chi_10 ~chi_20)
     5.38095420E-03    2     1000022   1000025   # BR(H -> ~chi_10 ~chi_30)
     1.73877233E-02    2     1000006  -1000006   # BR(H -> ~t_1    ~t_1*  )
     1.21741968E-01    2     1000006  -2000006   # BR(H -> ~t_1    ~t_2*  )
     1.21741968E-01    2     2000006  -1000006   # BR(H -> ~t_2    ~t_1*  )
     5.38300398E-09    2     2000001  -2000001   # BR(H -> ~d_R    ~d_R*  )
     5.38300398E-09    2     2000003  -2000003   # BR(H -> ~s_R    ~s_R*  )
     1.45725683E-03    2     1000005  -1000005   # BR(H -> ~b_1    ~b_1*  )
     2.08434841E-08    2     2000011  -2000011   # BR(H -> ~e_R-   ~e_R+  )
     2.08434841E-08    2     2000013  -2000013   # BR(H -> ~mu_R-  ~mu_R+ )
     2.19682846E-05    2     1000015  -1000015   # BR(H -> ~tau_1- ~tau_1+)
     1.43160446E-03    2     1000015  -2000015   # BR(H -> ~tau_1- ~tau_2+)
     1.43160446E-03    2     2000015  -1000015   # BR(H -> ~tau_2- ~tau_1+)
#
#         PDG            Width
DECAY        36     1.31422564E+02   # A decays
#          BR         NDA      ID1       ID2
     5.85406573E-01    2           5        -5   # BR(A -> b       bb     )
     8.41389400E-02    2         -15        15   # BR(A -> tau+    tau-   )
     3.02184212E-04    2         -13        13   # BR(A -> mu+     mu-    )
     4.51017894E-04    2           3        -3   # BR(A -> s       sb     )
     4.97695036E-09    2           4        -4   # BR(A -> c       cb     )
     4.88844769E-04    2           6        -6   # BR(A -> t       tb     )
     1.54483467E-05    2          21        21   # BR(A -> g       g      )
     2.22444908E-08    2          22        22   # BR(A -> gam     gam    )
     1.07924350E-08    2          23        22   # BR(A -> Z       gam    )
     1.21517370E-06    2          23        25   # BR(A -> Z       h      )
     5.87383478E-04    2     1000024  -1000024   # BR(A -> ~chi_1+ ~chi_1-)
     2.00229215E-02    2     1000024  -1000037   # BR(A -> ~chi_1+ ~chi_2-)
     2.00229215E-02    2     1000037  -1000024   # BR(A -> ~chi_2+ ~chi_1-)
     2.93889075E-04    2     1000022   1000022   # BR(A -> ~chi_10 ~chi_10)
     5.42206206E-03    2     1000022   1000023   # BR(A -> ~chi_10 ~chi_20)
     1.46512590E-02    2     1000022   1000025   # BR(A -> ~chi_10 ~chi_30)
     1.32668891E-01    2     1000006  -2000006   # BR(A -> ~t_1    ~t_2*  )
     1.32668891E-01    2    -1000006   2000006   # BR(A -> ~t_1*   ~t_2   )
     1.42875996E-03    2     1000015  -2000015   # BR(A -> ~tau_1- ~tau_2+)
     1.42875996E-03    2    -1000015   2000015   # BR(A -> ~tau_1+ ~tau_2-)
#
#         PDG            Width
DECAY        37     1.59556406E+02   # H+ decays
#          BR         NDA      ID1       ID2
     9.91593298E-04    2           4        -5   # BR(H+ -> c       bb     )
     6.93253547E-02    2         -15        16   # BR(H+ -> tau+    nu_tau )
     2.48981360E-04    2         -13        14   # BR(H+ -> mu+     nu_mu  )
     9.91592115E-06    2           2        -5   # BR(H+ -> u       bb     )
     1.85825999E-05    2           2        -3   # BR(H+ -> u       sb     )
     3.65765905E-04    2           4        -3   # BR(H+ -> c       sb     )
     5.89430940E-01    2           6        -5   # BR(H+ -> t       bb     )
     1.00250963E-06    2          24        25   # BR(H+ -> W+      h      )
     6.57566088E-15    2          24        36   # BR(H+ -> W+      A      )
     2.12441250E-11    2     1000024   1000022   # BR(H+ -> ~chi_1+ ~chi_10)
     1.67359877E-02    2     1000024   1000023   # BR(H+ -> ~chi_1+ ~chi_20)
     1.66077887E-02    2     1000024   1000025   # BR(H+ -> ~chi_1+ ~chi_30)
     1.66191027E-02    2     1000037   1000022   # BR(H+ -> ~chi_2+ ~chi_10)
     2.37693939E-03    2    -1000015   1000016   # BR(H+ -> ~tau_1+ ~nu_tauL)
     1.76839537E-02    2     1000006  -1000005   # BR(H+ -> ~t_1    ~b_1*  )
     2.69584091E-01    2     2000006  -1000005   # BR(H+ -> ~t_2    ~b_1*  )
