#
#                              ======================
#                              | THE SUSYHIT OUTPUT |
#                              ======================
#
#
#              ------------------------------------------------------
#              |     This is the output of the SUSY-HIT package     |
#              |  created by A.Djouadi, M.Muehlleitner and M.Spira. |
#              |  In case of problems with SUSY-HIT email to        |
#              |           margarete.muehlleitner@cern.ch           |
#              |           michael.spira@psi.ch                     |
#              |           abdelhak.djouadi@cern.ch                 |
#              ------------------------------------------------------
#
#              ------------------------------------------------------
#              |  SUSY Les Houches Accord - MSSM Spectrum + Decays  |
#              |              based on the decay programs           |
#              |                                                    |
#              |                     SDECAY 1.3b                    |
#              |                                                    |
#              |  Authors: M.Muhlleitner, A.Djouadi and Y.Mambrini  |
#              |  Ref.:    Comput.Phys.Commun.168(2005)46           |
#              |           [hep-ph/0311167]                         |
#              |                                                    |
#              |                     HDECAY 3.4                     |
#              |                                                    |
#              |  By: A.Djouadi,J.Kalinowski,M.Muhlleitner,M.Spira  |
#              |  Ref.:    Comput.Phys.Commun.108(1998)56           |
#              |           [hep-ph/9704448]                         |
#              |                                                    |
#              |                                                    |
#              |  If not stated otherwise all DRbar couplings and   |
#              |  soft SUSY breaking masses are given at the scale  |
#              |  Q=  0.23651380E+04
#              |                                                    |
#              ------------------------------------------------------
#
#
BLOCK DCINFO  # Decay Program information
     1   SDECAY/HDECAY # decay calculator
     2   1.3b  /3.4    # version number
#
BLOCK SPINFO  # Spectrum calculator information
     1     SOFTSUSY    # spectrum calculator               
     2     3.4.0       # version number                    
#
BLOCK MODSEL  # Model selection
     1     0   #  nonUniversal                                     
#
BLOCK SMINPUTS  # Standard Model inputs
         1     1.27908970E+02   # alpha_em^-1(M_Z)^MSbar
         2     1.16637870E-05   # G_F [GeV^-2]
         3     1.18400000E-01   # alpha_S(M_Z)^MSbar
         4     9.11876000E+01   # M_Z pole mass
         5     4.18000000E+00   # mb(mb)^MSbar
         6     1.73200000E+02   # mt pole mass
         7     1.77700000E+00   # mtau pole mass
#
BLOCK MINPAR  # Input parameters - minimal models
         3     3.05500000E+01   # tanb                
#
BLOCK EXTPAR  # Input parameters - non-minimal models
         0    -1.00000000E+00   # Set                 
         1     2.50460000E+03   # M_1(MX)             
         2    -3.13646000E+03   # M_2(MX)             
         3     1.10118000E+03   # M_3(MX)             
        11     3.04704000E+03   # At(MX)              
        12     2.24455000E+03   # Ab(MX)              
        13     2.94424000E+03   # Atau(MX)            
        23     1.28070000E+02   # mu(MX)              
        26     9.97920000E+02   # mA(pole)            
        31     6.46240000E+02   # meL(MX)             
        32     6.46240000E+02   # mmuL(MX)            
        33     1.75176000E+03   # mtauL(MX)           
        34     8.92360000E+02   # meR(MX)             
        35     8.92360000E+02   # mmuR(MX)            
        36     3.35480000E+02   # mtauR(MX)           
        41     2.67622000E+03   # mqL1(MX)            
        42     2.67622000E+03   # mqL2(MX)            
        43     2.84018000E+03   # mqL3(MX)            
        44     3.79953000E+03   # muR(MX)             
        45     3.79953000E+03   # mcR(MX)             
        46     1.96841000E+03   # mtR(MX)             
        47     3.68997000E+03   # mdR(MX)             
        48     3.68997000E+03   # msR(MX)             
        49     1.69945000E+03   # mbR(MX)             
#
BLOCK MASS  # Mass Spectrum
# PDG code           mass       particle
        24     8.04098082E+01   # W+
        25     1.24973694E+02   # h
        35     9.97944595E+02   # H
        36     9.97919977E+02   # A
        37     1.00165741E+03   # H+
         5     4.81876030E+00   # b-quark pole mass calculated from mb(mb)_Msbar
   1000001     2.72695888E+03   # ~d_L
   2000001     3.72491096E+03   # ~d_R
   1000002     2.72594074E+03   # ~u_L
   2000002     3.83679628E+03   # ~u_R
   1000003     2.72695888E+03   # ~s_L
   2000003     3.72491096E+03   # ~s_R
   1000004     2.72594074E+03   # ~c_L
   2000004     3.83679628E+03   # ~c_R
   1000005     1.73178128E+03   # ~b_1
   2000005     2.85233116E+03   # ~b_2
   1000006     1.95275836E+03   # ~t_1
   2000006     2.86276356E+03   # ~t_2
   1000011     6.84506663E+02   # ~e_L
   2000011     9.04832882E+02   # ~e_R
   1000012     6.79665334E+02   # ~nu_eL
   1000013     6.84506663E+02   # ~mu_L
   2000013     9.04832882E+02   # ~mu_R
   1000014     6.79665334E+02   # ~nu_muL
   1000015     3.32034667E+02   # ~tau_1
   2000015     1.76937343E+03   # ~tau_2
   1000016     1.76728109E+03   # ~nu_tauL
   1000021     1.30484368E+03   # ~g
   1000022    -1.34447831E+02   # ~chi_10
   1000023     1.35836200E+02   # ~chi_20
   1000025     2.47432466E+03   # ~chi_30
   1000035    -3.11749692E+03   # ~chi_40
   1000024     1.35489714E+02   # ~chi_1+
   1000037     3.11766291E+03   # ~chi_2+
#
BLOCK NMIX  # Neutralino Mixing Matrix
  1  1    -1.15438158E-02   # N_11
  1  2    -1.78958661E-02   # N_12
  1  3     7.08921995E-01   # N_13
  1  4     7.04965306E-01   # N_14
  2  1    -1.38431486E-02   # N_21
  2  2    -1.76871093E-02   # N_22
  2  3    -7.05285094E-01   # N_23
  2  4     7.08567901E-01   # N_24
  3  1     9.99837520E-01   # N_31
  3  2    -2.50269907E-04   # N_32
  3  3    -1.57991549E-03   # N_33
  3  4     1.79547817E-02   # N_34
  4  1    -2.01266347E-04   # N_41
  4  2     9.99683371E-01   # N_42
  4  3     2.11990272E-04   # N_43
  4  4     2.51609428E-02   # N_44
#
BLOCK UMIX  # Chargino Mixing Matrix U
  1  1    -3.01883554E-04   # U_11
  1  2     9.99999954E-01   # U_12
  2  1    -9.99999954E-01   # U_21
  2  2    -3.01883554E-04   # U_22
#
BLOCK VMIX  # Chargino Mixing Matrix V
  1  1     3.55927620E-02   # V_11
  1  2     9.99366377E-01   # V_12
  2  1     9.99366377E-01   # V_21
  2  2    -3.55927620E-02   # V_22
#
BLOCK STOPMIX  # Stop Mixing Matrix
  1  1    -9.72217489E-02   # cos(theta_t)
  1  2     9.95262745E-01   # sin(theta_t)
  2  1    -9.95262745E-01   # -sin(theta_t)
  2  2    -9.72217489E-02   # cos(theta_t)
#
BLOCK SBOTMIX  # Sbottom Mixing Matrix
  1  1     7.52613136E-04   # cos(theta_b)
  1  2     9.99999717E-01   # sin(theta_b)
  2  1    -9.99999717E-01   # -sin(theta_b)
  2  2     7.52613136E-04   # cos(theta_b)
#
BLOCK STAUMIX  # Stau Mixing Matrix
  1  1     5.30444105E-04   # cos(theta_tau)
  1  2     9.99999859E-01   # sin(theta_tau)
  2  1    -9.99999859E-01   # -sin(theta_tau)
  2  2     5.30444105E-04   # cos(theta_tau)
#
BLOCK ALPHA  # Higgs mixing
          -3.47288174E-02   # Mixing angle in the neutral Higgs boson sector
#
BLOCK HMIX Q=  2.36513800E+03  # DRbar Higgs Parameters
         1     1.30557238E+02   # mu(Q)MSSM           
         2     2.95041448E+01   # tan                 
         3     2.43079439E+02   # higgs               
         4     9.34179928E+05   # mA^2(Q)MSSM         
#
BLOCK GAUGE Q=  2.36513800E+03  # The gauge couplings
     1     3.65060805E-01   # gprime(Q) DRbar
     2     6.38914509E-01   # g(Q) DRbar
     3     1.02939175E+00   # g3(Q) DRbar
#
BLOCK AU Q=  2.36513800E+03  # The trilinear couplings
  1  1     0.00000000E+00   # A_u(Q) DRbar
  2  2     0.00000000E+00   # A_c(Q) DRbar
  3  3     3.04704000E+03   # A_t(Q) DRbar
#
BLOCK AD Q=  2.36513800E+03  # The trilinear couplings
  1  1     0.00000000E+00   # A_d(Q) DRbar
  2  2     0.00000000E+00   # A_s(Q) DRbar
  3  3     2.24455000E+03   # A_b(Q) DRbar
#
BLOCK AE Q=  2.36513800E+03  # The trilinear couplings
  1  1     0.00000000E+00   # A_e(Q) DRbar
  2  2     0.00000000E+00   # A_mu(Q) DRbar
  3  3     2.94424000E+03   # A_tau(Q) DRbar
#
BLOCK Yu Q=  2.36513800E+03  # The Yukawa couplings
  1  1     0.00000000E+00   # y_u(Q) DRbar
  2  2     0.00000000E+00   # y_c(Q) DRbar
  3  3     8.47094008E-01   # y_t(Q) DRbar
#
BLOCK Yd Q=  2.36513800E+03  # The Yukawa couplings
  1  1     0.00000000E+00   # y_d(Q) DRbar
  2  2     0.00000000E+00   # y_s(Q) DRbar
  3  3     3.99782539E-01   # y_b(Q) DRbar
#
BLOCK Ye Q=  2.36513800E+03  # The Yukawa couplings
  1  1     0.00000000E+00   # y_e(Q) DRbar
  2  2     0.00000000E+00   # y_mu(Q) DRbar
  3  3     3.00606586E-01   # y_tau(Q) DRbar
#
BLOCK MSOFT Q=  2.36513800E+03  # The soft SUSY breaking masses at the scale Q
         1     2.50460000E+03   # M_1(Q)              
         2    -3.13646000E+03   # M_2(Q)              
         3     1.10118000E+03   # M_3(Q)              
        21     9.79651321E+05   # mH1^2(Q)            
        22     7.06201223E+04   # mH2^2(Q)            
        31     6.46240000E+02   # meL(Q)              
        32     6.46240000E+02   # mmuL(Q)             
        33     1.75176000E+03   # mtauL(Q)            
        34     8.92360000E+02   # meR(Q)              
        35     8.92360000E+02   # mmuR(Q)             
        36     3.35480000E+02   # mtauR(Q)            
        41     2.67622000E+03   # mqL1(Q)             
        42     2.67622000E+03   # mqL2(Q)             
        43     2.84018000E+03   # mqL3(Q)             
        44     3.79953000E+03   # muR(Q)              
        45     3.79953000E+03   # mcR(Q)              
        46     1.96841000E+03   # mtR(Q)              
        47     3.68997000E+03   # mdR(Q)              
        48     3.68997000E+03   # msR(Q)              
        49     1.69945000E+03   # mbR(Q)              
#
Block HiggsBoundsInputHiggsCouplingsFermions
# ScalarNormEffCoupSq PseudoSNormEffCoupSq NP   IP1 IP2 IP2
    1.05067903E+00    0.00000000E+00        3  25   5   5  # h0-b-b eff. coupling^2, normalised to SM
    8.70443881E+02    0.00000000E+00        3  35   5   5  # H0-b-b eff. coupling^2, normalised to SM
    0.00000000E+00    8.70494560E+02        3  36   5   5  # A0-b-b eff. coupling^2, normalised to SM
#
    9.99941781E-01    0.00000000E+00        3  25   6   6  # h0-t-t eff. coupling^2, normalised to SM
    1.20699092E-03    0.00000000E+00        3  35   6   6  # H0-t-t eff. coupling^2, normalised to SM
    0.00000000E+00    1.14877226E-03        3  36   6   6  # A0-t-t eff. coupling^2, normalised to SM
#
    1.05067903E+00    0.00000000E+00        3  25  15  15  # h0-tau-tau eff. coupling^2, normalised to SM
    8.70443881E+02    0.00000000E+00        3  35  15  15  # H0-tau-tau eff. coupling^2, normalised to SM
    0.00000000E+00    8.70494560E+02        3  36  15  15  # A0-tau-tau eff. coupling^2, normalised to SM
#
Block HiggsBoundsInputHiggsCouplingsBosons
    9.99999280E-01        3  25  24  24  # h0-W-W eff. coupling^2, normalised to SM
    7.19517933E-07        3  35  24  24  # H0-W-W eff. coupling^2, normalised to SM
    0.00000000E+00        3  36  24  24  # A0-W-W eff. coupling^2, normalised to SM
#
    9.99999280E-01        3  25  23  23  # h0-Z-Z eff. coupling^2, normalised to SM
    7.19517933E-07        3  35  23  23  # H0-Z-Z eff. coupling^2, normalised to SM
    0.00000000E+00        3  36  23  23  # A0-Z-Z eff. coupling^2, normalised to SM
#
    8.86603884E-01        3  25  21  21  # h0-g-g eff. coupling^2, normalised to SM
    2.42598308E-04        3  35  21  21  # H0-g-g eff. coupling^2, normalised to SM
    7.70898268E-04        3  36  21  21  # A0-g-g eff. coupling^2, normalised to SM
#
    0.00000000E+00        3  25  25  23  # h0-h0-Z eff. coupling^2, normalised to SM
    0.00000000E+00        3  35  25  23  # H0-h0-Z eff. coupling^2, normalised to SM
    7.19517933E-07        3  36  25  23  # A0-h0-Z eff. coupling^2, normalised to SM
    0.00000000E+00        3  35  35  23  # H0-H0-Z eff. coupling^2, normalised to SM
    9.99999280E-01        3  36  35  23  # A0-H0-Z eff. coupling^2, normalised to SM
    0.00000000E+00        3  36  36  23  # A0-A0-Z eff. coupling^2, normalised to SM
#
    0.00000000E+00        4  25  21  21  23  # h0-g-g-Z eff. coupling^2, normalised to SM
    0.00000000E+00        4  35  21  21  23  # H0-g-g-Z eff. coupling^2, normalised to SM
    0.00000000E+00        4  36  21  21  23  # A0-g-g-Z eff. coupling^2, normalised to SM
#
#
#
#                             =================
#                             |The decay table|
#                             =================
#
# - The QCD corrections to the decays gluino -> squark  + quark
#                                     squark -> gaugino + quark_prime
#                                     squark -> squark_prime + Higgs
#                                     squark -> gluino  + quark
#   are included.
#
# - The multi-body decays for the inos, stops and sbottoms are included.
#
# - The loop induced decays for the gluino, neutralinos and stops
#   are included.
#
# - The SUSY decays of the top quark are included.
#
#
#         PDG            Width
DECAY         6     1.43677306E+00   # top decays
#          BR         NDA      ID1       ID2
     1.00000000E+00    2           5        24   # BR(t ->  b    W+)
#
#         PDG            Width
DECAY   1000021     1.11915224E-02   # gluino decays
#          BR         NDA      ID1       ID2
     7.29491793E-03    2     1000022        21   # BR(~g -> ~chi_10 g)
     6.06585155E-03    2     1000023        21   # BR(~g -> ~chi_20 g)
#           BR         NDA      ID1       ID2       ID3
     3.28476013E-06    3     1000022         1        -1   # BR(~g -> ~chi_10 d  db)
     4.28593033E-06    3     1000023         1        -1   # BR(~g -> ~chi_20 d  db)
     5.51498478E-06    3     1000022         2        -2   # BR(~g -> ~chi_10 u  ub)
     8.05527727E-06    3     1000023         2        -2   # BR(~g -> ~chi_20 u  ub)
     3.28476013E-06    3     1000022         3        -3   # BR(~g -> ~chi_10 s  sb)
     4.28593033E-06    3     1000023         3        -3   # BR(~g -> ~chi_20 s  sb)
     5.51498478E-06    3     1000022         4        -4   # BR(~g -> ~chi_10 c  cb)
     8.05527727E-06    3     1000023         4        -4   # BR(~g -> ~chi_20 c  cb)
     7.82100840E-02    3     1000022         5        -5   # BR(~g -> ~chi_10 b  bb)
     7.73149800E-02    3     1000023         5        -5   # BR(~g -> ~chi_20 b  bb)
     1.56800342E-01    3     1000022         6        -6   # BR(~g -> ~chi_10 t  tb)
     1.67661258E-01    3     1000023         6        -6   # BR(~g -> ~chi_20 t  tb)
     1.98471087E-05    3     1000024         1        -2   # BR(~g -> ~chi_1+ d  ub)
     1.98471087E-05    3    -1000024         2        -1   # BR(~g -> ~chi_1- u  db)
     1.98471087E-05    3     1000024         3        -4   # BR(~g -> ~chi_1+ s  cb)
     1.98471087E-05    3    -1000024         4        -3   # BR(~g -> ~chi_1- c  sb)
     2.53265448E-01    3     1000024         5        -6   # BR(~g -> ~chi_1+ b  tb)
     2.53265448E-01    3    -1000024         6        -5   # BR(~g -> ~chi_1- t  bb)
#
#         PDG            Width
DECAY   1000006     8.52671411E+01   # stop1 decays
#          BR         NDA      ID1       ID2
     1.58310813E-01    2     1000022         6   # BR(~t_1 -> ~chi_10 t )
     1.60580453E-01    2     1000023         6   # BR(~t_1 -> ~chi_20 t )
     3.22698233E-01    2     1000024         5   # BR(~t_1 -> ~chi_1+ b )
     3.58410499E-01    2     1000021         6   # BR(~t_1 -> ~g      t )
     2.30814477E-09    2     1000005        24   # BR(~t_1 -> ~b_1    W+)
#
#         PDG            Width
DECAY   2000006     1.74777723E+02   # stop2 decays
#          BR         NDA      ID1       ID2
     1.14788395E-01    2     1000022         6   # BR(~t_2 -> ~chi_10 t )
     1.15763061E-01    2     1000023         6   # BR(~t_2 -> ~chi_20 t )
     1.69870785E-04    2     1000025         6   # BR(~t_2 -> ~chi_30 t )
     5.25099187E-02    2     1000024         5   # BR(~t_2 -> ~chi_1+ b )
     5.78939247E-01    2     1000021         6   # BR(~t_2 -> ~g      t )
     6.73006144E-02    2     1000006        25   # BR(~t_2 -> ~t_1    h )
     9.25431706E-03    2     1000005        37   # BR(~t_2 -> ~b_1    H+)
     6.12626165E-02    2     1000006        23   # BR(~t_2 -> ~t_1    Z )
     1.19601936E-05    2     1000005        24   # BR(~t_2 -> ~b_1    W+)
#
#         PDG            Width
DECAY   1000005     2.89604070E+01   # sbottom1 decays
#          BR         NDA      ID1       ID2
     9.44139009E-02    2     1000022         5   # BR(~b_1 -> ~chi_10 b )
     9.34212346E-02    2     1000023         5   # BR(~b_1 -> ~chi_20 b )
     1.84022717E-01    2    -1000024         6   # BR(~b_1 -> ~chi_1- t )
     6.28142148E-01    2     1000021         5   # BR(~b_1 -> ~g      b )
#
#         PDG            Width
DECAY   2000005     1.71483204E+02   # sbottom2 decays
#          BR         NDA      ID1       ID2
     2.64778061E-02    2     1000022         5   # BR(~b_2 -> ~chi_10 b )
     2.62045754E-02    2     1000023         5   # BR(~b_2 -> ~chi_20 b )
     1.50439863E-04    2     1000025         5   # BR(~b_2 -> ~chi_30 b )
     2.34334565E-01    2    -1000024         6   # BR(~b_2 -> ~chi_1- t )
     5.84634501E-01    2     1000021         5   # BR(~b_2 -> ~g      b )
     5.61566385E-06    2     1000005        25   # BR(~b_2 -> ~b_1    h )
     4.60248854E-03    2     1000005        35   # BR(~b_2 -> ~b_1    H )
     4.60277059E-03    2     1000005        36   # BR(~b_2 -> ~b_1    A )
     6.18268300E-06    2     1000005        23   # BR(~b_2 -> ~b_1    Z )
     1.18981055E-01    2     1000006       -24   # BR(~b_2 -> ~t_1    W-)
#
#         PDG            Width
DECAY   1000002     1.12152707E+02   # sup_L decays
#          BR         NDA      ID1       ID2
     3.82347514E-05    2     1000022         2   # BR(~u_L -> ~chi_10 u)
     3.91081773E-05    2     1000023         2   # BR(~u_L -> ~chi_20 u)
     1.11628231E-04    2     1000025         2   # BR(~u_L -> ~chi_30 u)
     2.39898374E-04    2     1000024         1   # BR(~u_L -> ~chi_1+ d)
     9.99571130E-01    2     1000021         2   # BR(~u_L -> ~g      u)
#
#         PDG            Width
DECAY   2000002     2.10665239E+02   # sup_R decays
#          BR         NDA      ID1       ID2
     5.52417680E-06    2     1000022         2   # BR(~u_R -> ~chi_10 u)
     7.94360937E-06    2     1000023         2   # BR(~u_R -> ~chi_20 u)
     1.42486754E-02    2     1000025         2   # BR(~u_R -> ~chi_30 u)
     1.97788973E-10    2     1000035         2   # BR(~u_R -> ~chi_40 u)
     9.85737857E-01    2     1000021         2   # BR(~u_R -> ~g      u)
#
#         PDG            Width
DECAY   1000001     1.12213960E+02   # sdown_L decays
#          BR         NDA      ID1       ID2
     2.33281683E-05    2     1000022         1   # BR(~d_L -> ~chi_10 d)
     2.14436386E-05    2     1000023         1   # BR(~d_L -> ~chi_20 d)
     1.12967473E-04    2     1000025         1   # BR(~d_L -> ~chi_30 d)
     1.72548943E-08    2    -1000024         2   # BR(~d_L -> ~chi_1- u)
     9.99842243E-01    2     1000021         1   # BR(~d_L -> ~g      d)
#
#         PDG            Width
DECAY   2000001     1.99070234E+02   # sdown_R decays
#          BR         NDA      ID1       ID2
     1.41829712E-06    2     1000022         1   # BR(~d_R -> ~chi_10 d)
     2.03946514E-06    2     1000023         1   # BR(~d_R -> ~chi_20 d)
     3.35144632E-03    2     1000025         1   # BR(~d_R -> ~chi_30 d)
     3.96274976E-11    2     1000035         1   # BR(~d_R -> ~chi_40 d)
     9.96645096E-01    2     1000021         1   # BR(~d_R -> ~g      d)
#
#         PDG            Width
DECAY   1000004     9.11113058E+01   # scharm_L decays
#          BR         NDA      ID1       ID2
     4.88166377E-05    2     1000022         4   # BR(~c_L -> ~chi_10 c)
     4.99314092E-05    2     1000023         4   # BR(~c_L -> ~chi_20 c)
     1.36238944E-04    2     1000025         4   # BR(~c_L -> ~chi_30 c)
     3.06291305E-04    2     1000024         3   # BR(~c_L -> ~chi_1+ s)
     9.99458722E-01    2     1000021         4   # BR(~c_L -> ~g      c)
#
#         PDG            Width
DECAY   2000004     1.71768889E+02   # scharm_R decays
#          BR         NDA      ID1       ID2
     6.99783594E-06    2     1000022         4   # BR(~c_R -> ~chi_10 c)
     1.00626548E-05    2     1000023         4   # BR(~c_R -> ~chi_20 c)
     1.79549330E-02    2     1000025         4   # BR(~c_R -> ~chi_30 c)
     2.46220320E-10    2     1000035         4   # BR(~c_R -> ~chi_40 c)
     9.82028006E-01    2     1000021         4   # BR(~c_R -> ~g      c)
#
#         PDG            Width
DECAY   1000003     9.11543254E+01   # sstrange_L decays
#          BR         NDA      ID1       ID2
     2.97865246E-05    2     1000022         3   # BR(~s_L -> ~chi_10 s)
     2.73800559E-05    2     1000023         3   # BR(~s_L -> ~chi_20 s)
     1.37905018E-04    2     1000025         3   # BR(~s_L -> ~chi_30 s)
     2.20317421E-08    2    -1000024         4   # BR(~s_L -> ~chi_1- c)
     9.99804906E-01    2     1000021         3   # BR(~s_L -> ~g      s)
#
#         PDG            Width
DECAY   2000003     1.61847069E+02   # sstrange_R decays
#          BR         NDA      ID1       ID2
     1.80229363E-06    2     1000022         3   # BR(~s_R -> ~chi_10 s)
     2.59163008E-06    2     1000023         3   # BR(~s_R -> ~chi_20 s)
     4.23212025E-03    2     1000025         3   # BR(~s_R -> ~chi_30 s)
     4.92862094E-11    2     1000035         3   # BR(~s_R -> ~chi_40 s)
     9.95763486E-01    2     1000021         3   # BR(~s_R -> ~g      s)
#
#         PDG            Width
DECAY   1000011     3.22205538E-03   # selectron_L decays
#          BR         NDA      ID1       ID2
     4.78295668E-01    2     1000022        11   # BR(~e_L -> ~chi_10 e-)
     5.21559180E-01    2     1000023        11   # BR(~e_L -> ~chi_20 e-)
     1.45152288E-04    2    -1000024        12   # BR(~e_L -> ~chi_1- nu_e)
#
#         PDG            Width
DECAY   2000011     1.59571931E-03   # selectron_R decays
#           BR         NDA      ID1       ID2
     3.83185560E-01    2     1000022        11   # BR(~e_R -> ~chi_10 e-)
     5.50519778E-01    2     1000023        11   # BR(~e_R -> ~chi_20 e-)
#           BR         NDA      ID1       ID2       ID3
     7.59657410E-05    3        11       -11        1000011   # BR(~e_R- -> e-  e+  ~e_L-)
     7.60660093E-06    3        11       11        -1000011   # BR(~e_R- -> e-  e-  ~e_L+)
     8.31349217E-05    3        11       -12        1000012   # BR(~e_R- -> e-  nu_eb  ~nu_eL)
     8.83238042E-06    3        11       12        -1000012   # BR(~e_R- -> e-  nu_e  ~nu_eL*)
     7.60096084E-05    3        11       -13        1000013   # BR(~e_R- -> e-  mu+  ~mu_L-)
     7.65485503E-06    3        11       13        -1000013   # BR(~e_R- -> e-  mu-  ~mu_L+)
     8.47454806E-05    3        11       -14        1000014   # BR(~e_R- -> e-  nu_mub  ~nu_muL)
     8.72647207E-06    3        11       14        -1000014   # BR(~e_R- -> e-  nu_mu  ~nu_muL*)
     1.45269909E-03    3        11       -15        1000015   # BR(~e_R- -> e-  tau+  ~tau_1-)
     2.40599958E-02    3        11       15        -1000015   # BR(~e_R- -> e-  tau-  ~tau_1+)
     5.71710822E-03    3        11       23        1000022   # BR(~e_R- -> e-  Z  ~chi_10)
     3.16315029E-03    3        11       25        1000022   # BR(~e_R- -> e-  h  ~chi_10)
     3.23904083E-03    3        11       23        1000023   # BR(~e_R- -> e-  Z  ~chi_20)
     5.70933743E-03    3        11       25        1000023   # BR(~e_R- -> e-  h  ~chi_20)
     1.11755243E-03    3        11       -24        1000024   # BR(~e_R- -> e-  W-  ~chi_1+)
     2.14831015E-02    3        11       24        -1000024   # BR(~e_R- -> e-  W+  ~chi_1-)
#
#         PDG            Width
DECAY   1000013     3.22205521E-03   # smuon_L decays
#          BR         NDA      ID1       ID2
     4.78295668E-01    2     1000022        13   # BR(~mu_L -> ~chi_10 mu-)
     5.21559180E-01    2     1000023        13   # BR(~mu_L -> ~chi_20 mu-)
     1.45152295E-04    2    -1000024        14   # BR(~mu_L -> ~chi_1- nu_mu)
#
#         PDG            Width
DECAY   2000013     1.59534565E-03   # smuon_R decays
#           BR         NDA      ID1       ID2
     3.83275300E-01    2     1000022        13   # BR(~mu_R -> ~chi_10 mu-)
     5.50648708E-01    2     1000023        13   # BR(~mu_R -> ~chi_20 mu-)
#           BR         NDA      ID1       ID2       ID3
     7.59835340E-05    3        13       -11        1000011   # BR(~mu_R- -> mu-  e+  ~e_L-)
     7.65664797E-06    3        13       11        -1000011   # BR(~mu_R- -> mu-  e-  ~e_L+)
     8.31982714E-05    3        13       -12        1000012   # BR(~mu_R- -> mu-  nu_eb  ~nu_eL)
     8.88835598E-06    3        13       12        -1000012   # BR(~mu_R- -> mu-  nu_e  ~nu_eL*)
     7.60274116E-05    3        13       -13        1000013   # BR(~mu_R- -> mu-  mu+  ~mu_L-)
     7.61778492E-06    3        13       13        -1000013   # BR(~mu_R- -> mu-  mu-  ~mu_L+)
     8.57995886E-05    3        13       -14        1000014   # BR(~mu_R- -> mu-  nu_mub  ~nu_muL)
     8.51038146E-06    3        13       14        -1000014   # BR(~mu_R- -> mu-  nu_mu  ~nu_muL*)
     1.45303935E-03    3        13       -15        1000015   # BR(~mu_R- -> mu-  tau+  ~tau_1-)
     2.39346252E-02    3        13       15        -1000015   # BR(~mu_R- -> mu-  tau-  ~tau_1+)
     5.66234661E-03    3        13       23        1000022   # BR(~mu_R- -> mu-  Z  ~chi_10)
     3.16389117E-03    3        13       25        1000022   # BR(~mu_R- -> mu-  h  ~chi_10)
     3.23986217E-03    3        13       23        1000023   # BR(~mu_R- -> mu-  Z  ~chi_20)
     5.67538453E-03    3        13       25        1000023   # BR(~mu_R- -> mu-  h  ~chi_20)
     1.11066840E-03    3        13       -24        1000024   # BR(~mu_R- -> mu-  W-  ~chi_1+)
     2.14824920E-02    3        13       24        -1000024   # BR(~mu_R- -> mu-  W+  ~chi_1-)
#
#         PDG            Width
DECAY   1000015     8.30438063E-01   # stau_1 decays
#          BR         NDA      ID1       ID2
     2.52606612E-01    2     1000022        15   # BR(~tau_1 -> ~chi_10  tau-)
     2.48046848E-01    2     1000023        15   # BR(~tau_1 -> ~chi_20  tau-)
     4.99346540E-01    2    -1000024        16   # BR(~tau_1 -> ~chi_1-  nu_tau)
#
#         PDG            Width
DECAY   2000015     8.54562128E+00   # stau_2 decays
#          BR         NDA      ID1       ID2
     1.85410526E-01    2     1000022        15   # BR(~tau_2 -> ~chi_10  tau-)
     1.83528801E-01    2     1000023        15   # BR(~tau_2 -> ~chi_20  tau-)
     4.54760529E-09    2    -1000024        16   # BR(~tau_2 -> ~chi_1-  nu_tau)
     4.55110366E-05    2     1000015        25   # BR(~tau_2 -> ~tau_1   h)
     3.15479026E-01    2     1000015        35   # BR(~tau_2 -> ~tau_1   H)
     3.15483552E-01    2     1000015        36   # BR(~tau_2 -> ~tau_1   A)
     5.25790133E-05    2     1000015        23   # BR(~tau_2 -> ~tau_1   Z)
#
#         PDG            Width
DECAY   1000012     7.01635160E-03   # snu_eL decays
#          BR         NDA      ID1       ID2
     4.63719066E-02    2     1000022        12   # BR(~nu_eL -> ~chi_10 nu_e)
     3.46589475E-02    2     1000023        12   # BR(~nu_eL -> ~chi_20 nu_e)
     9.18969146E-01    2     1000024        11   # BR(~nu_eL -> ~chi_1+ e-)
#
#         PDG            Width
DECAY   1000014     7.01635127E-03   # snu_muL decays
#          BR         NDA      ID1       ID2
     4.63719088E-02    2     1000022        14   # BR(~nu_muL -> ~chi_10 nu_mu)
     3.46589492E-02    2     1000023        14   # BR(~nu_muL -> ~chi_20 nu_mu)
     9.18969142E-01    2     1000024        13   # BR(~nu_muL -> ~chi_1+ mu-)
#
#         PDG            Width
DECAY   1000016     8.52453266E+00   # snu_tauL decays
#          BR         NDA      ID1       ID2
     1.06251715E-04    2     1000022        16   # BR(~nu_tauL -> ~chi_10 nu_tau)
     7.95290920E-05    2     1000023        16   # BR(~nu_tauL -> ~chi_20 nu_tau)
     3.70449831E-01    2     1000024        15   # BR(~nu_tauL -> ~chi_1+ tau-)
     6.29262373E-01    2    -1000015       -37   # BR(~nu_tauL -> ~tau_1+ H-)
     1.02015859E-04    2    -1000015       -24   # BR(~nu_tauL -> ~tau_1+ W-)
#
#         PDG            Width
DECAY   1000024     8.12824116E-13   # chargino1+ decays
#           BR         NDA      ID1       ID2       ID3
     5.99998728E-01    3     1000022         2        -1   # BR(~chi_1+ -> ~chi_10 u    db)
     2.00000636E-01    3     1000022       -11        12   # BR(~chi_1+ -> ~chi_10 e+   nu_e)
     2.00000636E-01    3     1000022       -13        14   # BR(~chi_1+ -> ~chi_10 mu+  nu_mu)
#
#         PDG            Width
DECAY   1000037     1.12503681E+02   # chargino2+ decays
#          BR         NDA      ID1       ID2
     1.86511297E-02    2     1000002        -1   # BR(~chi_2+ -> ~u_L     db)
     1.85858475E-02    2    -1000001         2   # BR(~chi_2+ -> ~d_L*    u )
     1.86511212E-02    2     1000004        -3   # BR(~chi_2+ -> ~c_L     sb)
     1.85857115E-02    2    -1000003         4   # BR(~chi_2+ -> ~s_L*     c )
     3.14064073E-04    2     1000006        -5   # BR(~chi_2+ -> ~t_1     bb)
     8.28912746E-03    2     2000006        -5   # BR(~chi_2+ -> ~t_2     bb)
     5.02531723E-08    2    -1000005         6   # BR(~chi_2+ -> ~b_1*    t )
     6.49621757E-03    2    -2000005         6   # BR(~chi_2+ -> ~b_2*    t )
     1.01953874E-01    2     1000012       -11   # BR(~chi_2+ -> ~nu_eL   e+  )
     1.01953874E-01    2     1000014       -13   # BR(~chi_2+ -> ~nu_muL mu+ )
     5.17622657E-02    2     1000016       -15   # BR(~chi_2+ -> ~nu_tau1 tau+)
     1.01937592E-01    2    -1000011        12   # BR(~chi_2+ -> ~e_L+    nu_e)
     1.01937592E-01    2    -1000013        14   # BR(~chi_2+ -> ~mu_L+   nu_mu)
     1.65927639E-08    2    -1000015        16   # BR(~chi_2+ -> ~tau_1+  nu_tau)
     5.17116957E-02    2    -2000015        16   # BR(~chi_2+ -> ~tau_2+  nu_tau)
     5.48796261E-02    2     1000024        23   # BR(~chi_2+ -> ~chi_1+  Z )
     5.29685899E-02    2     1000022        24   # BR(~chi_2+ -> ~chi_10  W+)
     5.35205219E-02    2     1000023        24   # BR(~chi_2+ -> ~chi_20  W+)
     8.67861236E-07    2     1000025        24   # BR(~chi_2+ -> ~chi_30  W+)
     5.56723239E-02    2     1000024        25   # BR(~chi_2+ -> ~chi_1+  h )
     4.55475441E-02    2     1000024        35   # BR(~chi_2+ -> ~chi_1+  H )
     4.55409782E-02    2     1000024        36   # BR(~chi_2+ -> ~chi_1+  A )
     4.57511642E-02    2     1000022        37   # BR(~chi_2+ -> ~chi_10  H+)
     4.52882053E-02    2     1000023        37   # BR(~chi_2+ -> ~chi_20  H+)
#
#         PDG            Width
DECAY   1000022     0.00000000E+00   # neutralino1 decays
#
#         PDG            Width
DECAY   1000023     7.92826912E-12   # neutralino2 decays
#          BR         NDA      ID1       ID2
     5.41708739E-01    2     1000022        22   # BR(~chi_20 -> ~chi_10 gam)
#           BR         NDA      ID1       ID2       ID3
     7.64815644E-02    3     1000022        -2         2   # BR(~chi_20 -> ~chi_10 ub      u)
     9.92766687E-02    3     1000022        -1         1   # BR(~chi_20 -> ~chi_10 db      d)
     9.92766687E-02    3     1000022        -3         3   # BR(~chi_20 -> ~chi_10 sb      s)
     2.28057233E-02    3     1000022       -11        11   # BR(~chi_20 -> ~chi_10 e+      e-)
     2.28057233E-02    3     1000022       -13        13   # BR(~chi_20 -> ~chi_10 mu+     mu-)
     4.56015609E-02    3     1000022       -12        12   # BR(~chi_20 -> ~chi_10 nu_eb   nu_e)
     4.56015609E-02    3     1000022       -14        14   # BR(~chi_20 -> ~chi_10 nu_mub  nu_mu)
     4.56014389E-02    3     1000022       -16        16   # BR(~chi_20 -> ~chi_10 nu_taub nu_tau)
     2.52105221E-04    3     1000024        -2         1   # BR(~chi_20 -> ~chi_1+ ub      d)
     2.52105221E-04    3    -1000024        -1         2   # BR(~chi_20 -> ~chi_1- db      u)
     8.40354411E-05    3     1000024       -12        11   # BR(~chi_20 -> ~chi_1+ nu_eb   e-)
     8.40354411E-05    3    -1000024        12       -11   # BR(~chi_20 -> ~chi_1- nu_e    e+)
     8.40354411E-05    3     1000024       -14        13   # BR(~chi_20 -> ~chi_1+ nu_mub  mu-)
     8.40354411E-05    3    -1000024        14       -13   # BR(~chi_20 -> ~chi_1- nu_mu   mu+)
#
#         PDG            Width
DECAY   1000025     5.94109910E+01   # neutralino3 decays
#          BR         NDA      ID1       ID2
     1.55303081E-02    2     1000022        23   # BR(~chi_30 -> ~chi_10   Z )
     1.10319418E-02    2     1000023        23   # BR(~chi_30 -> ~chi_20   Z )
     2.57791512E-02    2     1000024       -24   # BR(~chi_30 -> ~chi_1+   W-)
     2.57791512E-02    2    -1000024        24   # BR(~chi_30 -> ~chi_1-   W+)
     1.13353516E-02    2     1000022        25   # BR(~chi_30 -> ~chi_10   h )
     9.04537931E-03    2     1000022        35   # BR(~chi_30 -> ~chi_10   H )
     1.02355932E-02    2     1000022        36   # BR(~chi_30 -> ~chi_10   A )
     1.63816476E-02    2     1000023        25   # BR(~chi_30 -> ~chi_20   h )
     1.01182516E-02    2     1000023        35   # BR(~chi_30 -> ~chi_20   H )
     8.93239628E-03    2     1000023        36   # BR(~chi_30 -> ~chi_20   A )
     1.90777085E-02    2     1000024       -37   # BR(~chi_30 -> ~chi_1+   H-)
     1.90777085E-02    2    -1000024        37   # BR(~chi_30 -> ~chi_1-   H+)
     1.96898509E-02    2     1000006        -6   # BR(~chi_30 -> ~t_1      tb)
     1.96898509E-02    2    -1000006         6   # BR(~chi_30 -> ~t_1*     t )
     9.57501389E-03    2     1000005        -5   # BR(~chi_30 -> ~b_1      bb)
     9.57501389E-03    2    -1000005         5   # BR(~chi_30 -> ~b_1*     b )
     2.35132465E-02    2     1000011       -11   # BR(~chi_30 -> ~e_L-     e+)
     2.35132465E-02    2    -1000011        11   # BR(~chi_30 -> ~e_L+     e-)
     8.28356990E-02    2     2000011       -11   # BR(~chi_30 -> ~e_R-     e+)
     8.28356990E-02    2    -2000011        11   # BR(~chi_30 -> ~e_R+     e-)
     2.35132465E-02    2     1000013       -13   # BR(~chi_30 -> ~mu_L-    mu+)
     2.35132465E-02    2    -1000013        13   # BR(~chi_30 -> ~mu_L+    mu-)
     8.28356990E-02    2     2000013       -13   # BR(~chi_30 -> ~mu_R-    mu+)
     8.28356990E-02    2    -2000013        13   # BR(~chi_30 -> ~mu_R+    mu-)
     1.06444737E-01    2     1000015       -15   # BR(~chi_30 -> ~tau_1-   tau+)
     1.06444737E-01    2    -1000015        15   # BR(~chi_30 -> ~tau_1+   tau-)
     6.58352100E-03    2     2000015       -15   # BR(~chi_30 -> ~tau_2-   tau+)
     6.58352100E-03    2    -2000015        15   # BR(~chi_30 -> ~tau_2+   tau-)
     2.36095481E-02    2     1000012       -12   # BR(~chi_30 -> ~nu_eL    nu_eb)
     2.36095481E-02    2    -1000012        12   # BR(~chi_30 -> ~nu_eL*   nu_e )
     2.36095481E-02    2     1000014       -14   # BR(~chi_30 -> ~nu_muL   nu_mub)
     2.36095481E-02    2    -1000014        14   # BR(~chi_30 -> ~nu_muL*  nu_mu )
     6.62759504E-03    2     1000016       -16   # BR(~chi_30 -> ~nu_tau1  nu_taub)
     6.62759504E-03    2    -1000016        16   # BR(~chi_30 -> ~nu_tau1* nu_tau )
#
#         PDG            Width
DECAY   1000035     1.12484310E+02   # neutralino4 decays
#          BR         NDA      ID1       ID2
     2.68396408E-02    2     1000022        23   # BR(~chi_40 -> ~chi_10   Z )
     2.80287947E-02    2     1000023        23   # BR(~chi_40 -> ~chi_20   Z )
     8.76832550E-07    2     1000025        23   # BR(~chi_40 -> ~chi_30   Z )
     5.33044239E-02    2     1000024       -24   # BR(~chi_40 -> ~chi_1+   W-)
     5.33044239E-02    2    -1000024        24   # BR(~chi_40 -> ~chi_1-   W+)
     2.81303555E-02    2     1000022        25   # BR(~chi_40 -> ~chi_10   h )
     2.66634118E-02    2     1000022        35   # BR(~chi_40 -> ~chi_10   H )
     1.91924841E-02    2     1000022        36   # BR(~chi_40 -> ~chi_10   A )
     2.74526809E-02    2     1000023        25   # BR(~chi_40 -> ~chi_20   h )
     1.89269141E-02    2     1000023        35   # BR(~chi_40 -> ~chi_20   H )
     2.63908680E-02    2     1000023        36   # BR(~chi_40 -> ~chi_20   A )
     1.10070112E-08    2     1000025        25   # BR(~chi_40 -> ~chi_30   h )
     4.54858286E-02    2     1000024       -37   # BR(~chi_40 -> ~chi_1+   H-)
     4.54858286E-02    2    -1000024        37   # BR(~chi_40 -> ~chi_1-   H+)
     9.32553761E-03    2     1000002        -2   # BR(~chi_40 -> ~u_L      ub)
     9.32553761E-03    2    -1000002         2   # BR(~chi_40 -> ~u_L*     u )
     9.28252851E-03    2     1000001        -1   # BR(~chi_40 -> ~d_L      db)
     9.28252851E-03    2    -1000001         1   # BR(~chi_40 -> ~d_L*     d )
     9.32546967E-03    2     1000004        -4   # BR(~chi_40 -> ~c_L      cb)
     9.32546967E-03    2    -1000004         4   # BR(~chi_40 -> ~c_L*     c )
     9.28252851E-03    2     1000003        -3   # BR(~chi_40 -> ~s _L      sb)
     9.28252851E-03    2    -1000003         3   # BR(~chi_40 -> ~s _L*     s )
     1.52429445E-04    2     1000006        -6   # BR(~chi_40 -> ~t_1      tb)
     1.52429445E-04    2    -1000006         6   # BR(~chi_40 -> ~t_1*     t )
     2.90119685E-03    2     2000006        -6   # BR(~chi_40 -> ~t_2      tb)
     2.90119685E-03    2    -2000006         6   # BR(~chi_40 -> ~t_2*     t )
     2.61854386E-08    2     1000005        -5   # BR(~chi_40 -> ~b_1      bb)
     2.61854386E-08    2    -1000005         5   # BR(~chi_40 -> ~b_1*     b )
     4.47528949E-03    2     2000005        -5   # BR(~chi_40 -> ~b_2      bb)
     4.47528949E-03    2    -2000005         5   # BR(~chi_40 -> ~b_2*     b )
     5.09303198E-02    2     1000011       -11   # BR(~chi_40 -> ~e_L-     e+)
     5.09303198E-02    2    -1000011        11   # BR(~chi_40 -> ~e_L+     e-)
     2.49619868E-09    2     2000011       -11   # BR(~chi_40 -> ~e_R-     e+)
     2.49619868E-09    2    -2000011        11   # BR(~chi_40 -> ~e_R+     e-)
     5.09303198E-02    2     1000013       -13   # BR(~chi_40 -> ~mu_L-    mu+)
     5.09303198E-02    2    -1000013        13   # BR(~chi_40 -> ~mu_L+    mu-)
     2.49619868E-09    2     2000013       -13   # BR(~chi_40 -> ~mu_R-    mu+)
     2.49619868E-09    2    -2000013        13   # BR(~chi_40 -> ~mu_R+    mu-)
     1.12256771E-08    2     1000015       -15   # BR(~chi_40 -> ~tau_1-   tau+)
     1.12256771E-08    2    -1000015        15   # BR(~chi_40 -> ~tau_1+   tau-)
     2.58339947E-02    2     2000015       -15   # BR(~chi_40 -> ~tau_2-   tau+)
     2.58339947E-02    2    -2000015        15   # BR(~chi_40 -> ~tau_2+   tau-)
     5.10265454E-02    2     1000012       -12   # BR(~chi_40 -> ~nu_eL    nu_eb)
     5.10265454E-02    2    -1000012        12   # BR(~chi_40 -> ~nu_eL*   nu_e )
     5.10265454E-02    2     1000014       -14   # BR(~chi_40 -> ~nu_muL   nu_mub)
     5.10265454E-02    2    -1000014        14   # BR(~chi_40 -> ~nu_muL*  nu_mu )
     2.59039809E-02    2     1000016       -16   # BR(~chi_40 -> ~nu_tau1  nu_taub)
     2.59039809E-02    2    -1000016        16   # BR(~chi_40 -> ~nu_tau1* nu_tau )
#
#         PDG            Width
DECAY        25     4.16018077E-03   # h decays
#          BR         NDA      ID1       ID2
     6.07033031E-01    2           5        -5   # BR(h -> b       bb     )
     6.53565127E-02    2         -15        15   # BR(h -> tau+    tau-   )
     2.31399834E-04    2         -13        13   # BR(h -> mu+     mu-    )
     2.52209257E-04    2           3        -3   # BR(h -> s       sb     )
     2.08428331E-02    2           4        -4   # BR(h -> c       cb     )
     7.65539862E-02    2          21        21   # BR(h -> g       g      )
     2.25211794E-03    2          22        22   # BR(h -> gam     gam    )
     1.49898495E-03    2          22        23   # BR(h -> Z       gam    )
     2.00845359E-01    2          24       -24   # BR(h -> W+      W-     )
     2.51335662E-02    2          23        23   # BR(h -> Z       Z      )
#
#         PDG            Width
DECAY        35     1.29284251E+01   # H decays
#          BR         NDA      ID1       ID2
     8.53003936E-01    2           5        -5   # BR(H -> b       bb     )
     1.41221392E-01    2         -15        15   # BR(H -> tau+    tau-   )
     5.04711215E-04    2         -13        13   # BR(H -> mu+     mu-    )
     3.56623386E-04    2           3        -3   # BR(H -> s       sb     )
     4.47279894E-08    2           4        -4   # BR(H -> c       cb     )
     3.92893856E-03    2           6        -6   # BR(H -> t       tb     )
     8.46496672E-05    2          21        21   # BR(H -> g       g      )
     1.95913412E-08    2          22        22   # BR(H -> gam     gam    )
     3.33515039E-08    2          23        22   # BR(H -> Z       gam    )
     1.71462088E-05    2          24       -24   # BR(H -> W+      W-     )
     8.46671895E-06    2          23        23   # BR(H -> Z       Z      )
     6.26416245E-05    2          25        25   # BR(H -> h       h      )
     7.39406564E-04    2     1000024  -1000024   # BR(H -> ~chi_1+ ~chi_1-)
     4.31913668E-05    2     1000022   1000022   # BR(H -> ~chi_10 ~chi_10)
     2.85618754E-05    2     1000023   1000023   # BR(H -> ~chi_20 ~chi_20)
     6.00653410E-08    2     1000022   1000023   # BR(H -> ~chi_10 ~chi_20)
     1.77749605E-07    2     1000015  -1000015   # BR(H -> ~tau_1- ~tau_1+)
#
#         PDG            Width
DECAY        36     1.29327662E+01   # A decays
#          BR         NDA      ID1       ID2
     8.52797997E-01    2           5        -5   # BR(A -> b       bb     )
     1.41180459E-01    2         -15        15   # BR(A -> tau+    tau-   )
     5.04558393E-04    2         -13        13   # BR(A -> mu+     mu-    )
     3.56546554E-04    2           3        -3   # BR(A -> s       sb     )
     4.29443335E-08    2           4        -4   # BR(A -> c       cb     )
     4.11881484E-03    2           6        -6   # BR(A -> t       tb     )
     1.50844163E-04    2          21        21   # BR(A -> g       g      )
     4.58685867E-08    2          22        22   # BR(A -> gam     gam    )
     6.33162326E-08    2          23        22   # BR(A -> Z       gam    )
     1.68526607E-05    2          23        25   # BR(A -> Z       h      )
     7.97093989E-04    2     1000024  -1000024   # BR(A -> ~chi_1+ ~chi_1-)
     4.06178755E-05    2     1000022   1000022   # BR(A -> ~chi_10 ~chi_10)
     3.54029082E-05    2     1000023   1000023   # BR(A -> ~chi_20 ~chi_20)
     6.60263200E-07    2     1000022   1000023   # BR(A -> ~chi_10 ~chi_20)
#
#         PDG            Width
DECAY        37     1.25060112E+01   # H+ decays
#          BR         NDA      ID1       ID2
     1.45185716E-03    2           4        -5   # BR(H+ -> c       bb     )
     1.46544902E-01    2         -15        16   # BR(H+ -> tau+    nu_tau )
     5.23730107E-04    2         -13        14   # BR(H+ -> mu+     nu_mu  )
     1.45184330E-05    2           2        -5   # BR(H+ -> u       bb     )
     1.84284708E-05    2           2        -3   # BR(H+ -> u       sb     )
     3.62770148E-04    2           4        -3   # BR(H+ -> c       sb     )
     8.50685021E-01    2           6        -5   # BR(H+ -> t       bb     )
     1.77375455E-05    2          24        25   # BR(H+ -> W+      h      )
     7.64191204E-11    2          24        36   # BR(H+ -> W+      A      )
     1.78237630E-04    2     1000024   1000022   # BR(H+ -> ~chi_1+ ~chi_10)
     2.02797350E-04    2     1000024   1000023   # BR(H+ -> ~chi_1+ ~chi_20)
