#
#                              ======================
#                              | THE SUSYHIT OUTPUT |
#                              ======================
#
#
#              ------------------------------------------------------
#              |     This is the output of the SUSY-HIT package     |
#              |  created by A.Djouadi, M.Muehlleitner and M.Spira. |
#              |  In case of problems with SUSY-HIT email to        |
#              |           margarete.muehlleitner@cern.ch           |
#              |           michael.spira@psi.ch                     |
#              |           abdelhak.djouadi@cern.ch                 |
#              ------------------------------------------------------
#
#              ------------------------------------------------------
#              |  SUSY Les Houches Accord - MSSM Spectrum + Decays  |
#              |              based on the decay programs           |
#              |                                                    |
#              |                     SDECAY 1.3b                    |
#              |                                                    |
#              |  Authors: M.Muhlleitner, A.Djouadi and Y.Mambrini  |
#              |  Ref.:    Comput.Phys.Commun.168(2005)46           |
#              |           [hep-ph/0311167]                         |
#              |                                                    |
#              |                     HDECAY 3.4                     |
#              |                                                    |
#              |  By: A.Djouadi,J.Kalinowski,M.Muhlleitner,M.Spira  |
#              |  Ref.:    Comput.Phys.Commun.108(1998)56           |
#              |           [hep-ph/9704448]                         |
#              |                                                    |
#              |                                                    |
#              |  If not stated otherwise all DRbar couplings and   |
#              |  soft SUSY breaking masses are given at the scale  |
#              |  Q=  0.22608720E+04
#              |                                                    |
#              ------------------------------------------------------
#
#
BLOCK DCINFO  # Decay Program information
     1   SDECAY/HDECAY # decay calculator
     2   1.3b  /3.4    # version number
#
BLOCK SPINFO  # Spectrum calculator information
     1     SOFTSUSY    # spectrum calculator               
     2     3.4.0       # version number                    
#
BLOCK MODSEL  # Model selection
     1     0   #  nonUniversal                                     
#
BLOCK SMINPUTS  # Standard Model inputs
         1     1.27908970E+02   # alpha_em^-1(M_Z)^MSbar
         2     1.16637870E-05   # G_F [GeV^-2]
         3     1.18400000E-01   # alpha_S(M_Z)^MSbar
         4     9.11876000E+01   # M_Z pole mass
         5     4.18000000E+00   # mb(mb)^MSbar
         6     1.73200000E+02   # mt pole mass
         7     1.77700000E+00   # mtau pole mass
#
BLOCK MINPAR  # Input parameters - minimal models
         3     4.90900000E+01   # tanb                
#
BLOCK EXTPAR  # Input parameters - non-minimal models
         0    -1.00000000E+00   # Set                 
         1     2.42137000E+03   # M_1(MX)             
         2     2.30963000E+03   # M_2(MX)             
         3     1.25811000E+03   # M_3(MX)             
        11    -3.25826000E+03   # At(MX)              
        12    -3.19020000E+02   # Ab(MX)              
        13    -2.50471000E+03   # Atau(MX)            
        23     3.22790000E+02   # mu(MX)              
        26     3.05436000E+03   # mA(pole)            
        31     9.14790000E+02   # meL(MX)             
        32     9.14790000E+02   # mmuL(MX)            
        33     4.82240000E+02   # mtauL(MX)           
        34     3.00968000E+03   # meR(MX)             
        35     3.00968000E+03   # mmuR(MX)            
        36     2.23548000E+03   # mtauR(MX)           
        41     3.08799000E+03   # mqL1(MX)            
        42     3.08799000E+03   # mqL2(MX)            
        43     3.17909000E+03   # mqL3(MX)            
        44     1.71741000E+03   # muR(MX)             
        45     1.71741000E+03   # mcR(MX)             
        46     1.60721000E+03   # mtR(MX)             
        47     2.87485000E+03   # mdR(MX)             
        48     2.87485000E+03   # msR(MX)             
        49     7.40220000E+02   # mbR(MX)             
#
BLOCK MASS  # Mass Spectrum
# PDG code           mass       particle
        24     8.03871597E+01   # W+
        25     1.25290303E+02   # h
        35     3.05435807E+03   # H
        36     3.05436002E+03   # A
        37     3.05553427E+03   # H+
         5     4.81876030E+00   # b-quark pole mass calculated from mb(mb)_Msbar
   1000001     3.13312105E+03   # ~d_L
   2000001     2.90944415E+03   # ~d_R
   1000002     3.13225459E+03   # ~u_L
   2000002     1.76954408E+03   # ~u_R
   1000003     3.13312105E+03   # ~s_L
   2000003     2.90944415E+03   # ~s_R
   1000004     3.13225459E+03   # ~c_L
   2000004     1.76954408E+03   # ~c_R
   1000005     8.15762665E+02   # ~b_1
   2000005     3.19032242E+03   # ~b_2
   1000006     1.62231281E+03   # ~t_1
   2000006     3.19749521E+03   # ~t_2
   1000011     9.46347689E+02   # ~e_L
   2000011     3.01592587E+03   # ~e_R
   1000012     9.42727010E+02   # ~nu_eL
   1000013     9.46347689E+02   # ~mu_L
   2000013     3.01592587E+03   # ~mu_R
   1000014     9.42727010E+02   # ~nu_muL
   1000015     5.19653253E+02   # ~tau_1
   2000015     2.23043824E+03   # ~tau_2
   1000016     5.13633275E+02   # ~nu_tauL
   1000021     1.44446039E+03   # ~g
   1000022     3.35020971E+02   # ~chi_10
   1000023    -3.38820319E+02   # ~chi_20
   1000025     2.33836402E+03   # ~chi_30
   1000035     2.39099518E+03   # ~chi_40
   1000024     3.37072401E+02   # ~chi_1+
   1000037     2.33857781E+03   # ~chi_2+
#
BLOCK NMIX  # Neutralino Mixing Matrix
  1  1     1.58036248E-02   # N_11
  1  2    -2.82365061E-02   # N_12
  1  3     7.08952945E-01   # N_13
  1  4    -7.04513071E-01   # N_14
  2  1    -1.14595287E-02   # N_21
  2  2     2.04373990E-02   # N_22
  2  3     7.05226549E-01   # N_23
  2  4     7.08594740E-01   # N_24
  3  1     1.72064620E-02   # N_31
  3  2     9.99255794E-01   # N_32
  3  3     5.55631618E-03   # N_33
  3  4    -3.40723289E-02   # N_34
  4  1     9.99661374E-01   # N_41
  4  2    -1.65188084E-02   # N_42
  4  3    -3.21915712E-03   # N_43
  4  4     1.98470070E-02   # N_44
#
BLOCK UMIX  # Chargino Mixing Matrix U
  1  1    -7.94803937E-03   # U_11
  1  2     9.99968414E-01   # U_12
  2  1    -9.99968414E-01   # U_21
  2  2    -7.94803937E-03   # U_22
#
BLOCK VMIX  # Chargino Mixing Matrix V
  1  1    -4.87172884E-02   # V_11
  1  2     9.98812608E-01   # V_12
  2  1    -9.98812608E-01   # V_21
  2  2    -4.87172884E-02   # V_22
#
BLOCK STOPMIX  # Stop Mixing Matrix
  1  1     6.42989457E-02   # cos(theta_t)
  1  2     9.97930682E-01   # sin(theta_t)
  2  1    -9.97930682E-01   # -sin(theta_t)
  2  2     6.42989457E-02   # cos(theta_t)
#
BLOCK SBOTMIX  # Sbottom Mixing Matrix
  1  1     3.83069595E-03   # cos(theta_b)
  1  2     9.99992663E-01   # sin(theta_b)
  2  1    -9.99992663E-01   # -sin(theta_b)
  2  2     3.83069595E-03   # cos(theta_b)
#
BLOCK STAUMIX  # Stau Mixing Matrix
  1  1     9.99973482E-01   # cos(theta_tau)
  1  2     7.28253368E-03   # sin(theta_tau)
  2  1    -7.28253368E-03   # -sin(theta_tau)
  2  2     9.99973482E-01   # cos(theta_tau)
#
BLOCK ALPHA  # Higgs mixing
          -2.06421030E-02   # Mixing angle in the neutral Higgs boson sector
#
BLOCK HMIX Q=  2.26087200E+03  # DRbar Higgs Parameters
         1     3.30602708E+02   # mu(Q)MSSM           
         2     4.85525868E+01   # tan                 
         3     2.43000949E+02   # higgs               
         4     9.78224884E+06   # mA^2(Q)MSSM         
#
BLOCK GAUGE Q=  2.26087200E+03  # The gauge couplings
     1     3.64588989E-01   # gprime(Q) DRbar
     2     6.37753849E-01   # g(Q) DRbar
     3     1.03179537E+00   # g3(Q) DRbar
#
BLOCK AU Q=  2.26087200E+03  # The trilinear couplings
  1  1     0.00000000E+00   # A_u(Q) DRbar
  2  2     0.00000000E+00   # A_c(Q) DRbar
  3  3    -3.25825999E+03   # A_t(Q) DRbar
#
BLOCK AD Q=  2.26087200E+03  # The trilinear couplings
  1  1     0.00000000E+00   # A_d(Q) DRbar
  2  2     0.00000000E+00   # A_s(Q) DRbar
  3  3    -3.19019996E+02   # A_b(Q) DRbar
#
BLOCK AE Q=  2.26087200E+03  # The trilinear couplings
  1  1     0.00000000E+00   # A_e(Q) DRbar
  2  2     0.00000000E+00   # A_mu(Q) DRbar
  3  3    -2.50471000E+03   # A_tau(Q) DRbar
#
BLOCK Yu Q=  2.26087200E+03  # The Yukawa couplings
  1  1     0.00000000E+00   # y_u(Q) DRbar
  2  2     0.00000000E+00   # y_c(Q) DRbar
  3  3     8.27519817E-01   # y_t(Q) DRbar
#
BLOCK Yd Q=  2.26087200E+03  # The Yukawa couplings
  1  1     0.00000000E+00   # y_d(Q) DRbar
  2  2     0.00000000E+00   # y_s(Q) DRbar
  3  3     6.51781783E-01   # y_b(Q) DRbar
#
BLOCK Ye Q=  2.26087200E+03  # The Yukawa couplings
  1  1     0.00000000E+00   # y_e(Q) DRbar
  2  2     0.00000000E+00   # y_mu(Q) DRbar
  3  3     5.25119725E-01   # y_tau(Q) DRbar
#
BLOCK MSOFT Q=  2.26087200E+03  # The soft SUSY breaking masses at the scale Q
         1     2.42137000E+03   # M_1(Q)              
         2     2.30963000E+03   # M_2(Q)              
         3     1.25811000E+03   # M_3(Q)              
        21     9.37092421E+06   # mH1^2(Q)            
        22    -7.71045429E+04   # mH2^2(Q)            
        31     9.14790000E+02   # meL(Q)              
        32     9.14790000E+02   # mmuL(Q)             
        33     4.82240000E+02   # mtauL(Q)            
        34     3.00968000E+03   # meR(Q)              
        35     3.00968000E+03   # mmuR(Q)             
        36     2.23548000E+03   # mtauR(Q)            
        41     3.08799000E+03   # mqL1(Q)             
        42     3.08799000E+03   # mqL2(Q)             
        43     3.17909000E+03   # mqL3(Q)             
        44     1.71741000E+03   # muR(Q)              
        45     1.71741000E+03   # mcR(Q)              
        46     1.60720999E+03   # mtR(Q)              
        47     2.87485000E+03   # mdR(Q)              
        48     2.87485000E+03   # msR(Q)              
        49     7.40219989E+02   # mbR(Q)              
#
Block HiggsBoundsInputHiggsCouplingsFermions
# ScalarNormEffCoupSq PseudoSNormEffCoupSq NP   IP1 IP2 IP2
    1.00474334E+00    0.00000000E+00        3  25   5   5  # h0-b-b eff. coupling^2, normalised to SM
    2.35734894E+03    0.00000000E+00        3  35   5   5  # H0-b-b eff. coupling^2, normalised to SM
    0.00000000E+00    2.35735368E+03        3  36   5   5  # A0-b-b eff. coupling^2, normalised to SM
#
    9.99997988E-01    0.00000000E+00        3  25   6   6  # h0-t-t eff. coupling^2, normalised to SM
    4.26216627E-04    0.00000000E+00        3  35   6   6  # H0-t-t eff. coupling^2, normalised to SM
    0.00000000E+00    4.24204482E-04        3  36   6   6  # A0-t-t eff. coupling^2, normalised to SM
#
    1.00474334E+00    0.00000000E+00        3  25  15  15  # h0-tau-tau eff. coupling^2, normalised to SM
    2.35734894E+03    0.00000000E+00        3  35  15  15  # H0-tau-tau eff. coupling^2, normalised to SM
    0.00000000E+00    2.35735368E+03        3  36  15  15  # A0-tau-tau eff. coupling^2, normalised to SM
#
Block HiggsBoundsInputHiggsCouplingsBosons
    9.99999998E-01        3  25  24  24  # h0-W-W eff. coupling^2, normalised to SM
    2.38042882E-09        3  35  24  24  # H0-W-W eff. coupling^2, normalised to SM
    0.00000000E+00        3  36  24  24  # A0-W-W eff. coupling^2, normalised to SM
#
    9.99999998E-01        3  25  23  23  # h0-Z-Z eff. coupling^2, normalised to SM
    2.38042882E-09        3  35  23  23  # H0-Z-Z eff. coupling^2, normalised to SM
    0.00000000E+00        3  36  23  23  # A0-Z-Z eff. coupling^2, normalised to SM
#
    8.90264592E-01        3  25  21  21  # h0-g-g eff. coupling^2, normalised to SM
    2.72016764E-12        3  35  21  21  # H0-g-g eff. coupling^2, normalised to SM
    6.44533021E-12        3  36  21  21  # A0-g-g eff. coupling^2, normalised to SM
#
    0.00000000E+00        3  25  25  23  # h0-h0-Z eff. coupling^2, normalised to SM
    0.00000000E+00        3  35  25  23  # H0-h0-Z eff. coupling^2, normalised to SM
    2.38042882E-09        3  36  25  23  # A0-h0-Z eff. coupling^2, normalised to SM
    0.00000000E+00        3  35  35  23  # H0-H0-Z eff. coupling^2, normalised to SM
    9.99999998E-01        3  36  35  23  # A0-H0-Z eff. coupling^2, normalised to SM
    0.00000000E+00        3  36  36  23  # A0-A0-Z eff. coupling^2, normalised to SM
#
    0.00000000E+00        4  25  21  21  23  # h0-g-g-Z eff. coupling^2, normalised to SM
    0.00000000E+00        4  35  21  21  23  # H0-g-g-Z eff. coupling^2, normalised to SM
    0.00000000E+00        4  36  21  21  23  # A0-g-g-Z eff. coupling^2, normalised to SM
#
#
#
#                             =================
#                             |The decay table|
#                             =================
#
# - The QCD corrections to the decays gluino -> squark  + quark
#                                     squark -> gaugino + quark_prime
#                                     squark -> squark_prime + Higgs
#                                     squark -> gluino  + quark
#   are included.
#
# - The multi-body decays for the inos, stops and sbottoms are included.
#
# - The loop induced decays for the gluino, neutralinos and stops
#   are included.
#
# - The SUSY decays of the top quark are included.
#
#
#         PDG            Width
DECAY         6     1.43256473E+00   # top decays
#          BR         NDA      ID1       ID2
     1.00000000E+00    2           5        24   # BR(t ->  b    W+)
#
#         PDG            Width
DECAY   1000021     1.52415350E+01   # gluino decays
#          BR         NDA      ID1       ID2
     5.00000000E-01    2     1000005        -5   # BR(~g -> ~b_1  bb)
     5.00000000E-01    2    -1000005         5   # BR(~g -> ~b_1* b )
#
#         PDG            Width
DECAY   1000006     4.09654439E+01   # stop1 decays
#          BR         NDA      ID1       ID2
     2.38625863E-01    2     1000022         6   # BR(~t_1 -> ~chi_10 t )
     2.43909519E-01    2     1000023         6   # BR(~t_1 -> ~chi_20 t )
     4.94302833E-01    2     1000024         5   # BR(~t_1 -> ~chi_1+ b )
     2.31601606E-02    2     1000021         6   # BR(~t_1 -> ~g      t )
     1.62404466E-06    2     1000005        24   # BR(~t_1 -> ~b_1    W+)
#
#         PDG            Width
DECAY   2000006     2.23913534E+02   # stop2 decays
#          BR         NDA      ID1       ID2
     9.36700941E-02    2     1000022         6   # BR(~t_2 -> ~chi_10 t )
     9.45827210E-02    2     1000023         6   # BR(~t_2 -> ~chi_20 t )
     1.25753399E-02    2     1000025         6   # BR(~t_2 -> ~chi_30 t )
     3.39796977E-04    2     1000035         6   # BR(~t_2 -> ~chi_40 t )
     1.17663376E-01    2     1000024         5   # BR(~t_2 -> ~chi_1+ b )
     2.50373828E-02    2     1000037         5   # BR(~t_2 -> ~chi_2+ b )
     5.02191231E-01    2     1000021         6   # BR(~t_2 -> ~g      t )
     7.38422995E-02    2     1000006        25   # BR(~t_2 -> ~t_1    h )
     7.90087150E-02    2     1000006        23   # BR(~t_2 -> ~t_1    Z )
     1.08904355E-03    2     1000005        24   # BR(~t_2 -> ~b_1    W+)
#
#         PDG            Width
DECAY   1000005     8.86566533E+00   # sbottom1 decays
#          BR         NDA      ID1       ID2
     2.70159646E-01    2     1000022         5   # BR(~b_1 -> ~chi_10 b )
     2.64755151E-01    2     1000023         5   # BR(~b_1 -> ~chi_20 b )
     4.65085203E-01    2    -1000024         6   # BR(~b_1 -> ~chi_1- t )
#
#         PDG            Width
DECAY   2000005     2.25134169E+02   # sbottom2 decays
#          BR         NDA      ID1       ID2
     5.89120810E-02    2     1000022         5   # BR(~b_2 -> ~chi_10 b )
     5.82673314E-02    2     1000023         5   # BR(~b_2 -> ~chi_20 b )
     1.21818462E-02    2     1000025         5   # BR(~b_2 -> ~chi_30 b )
     4.72659725E-04    2     1000035         5   # BR(~b_2 -> ~chi_40 b )
     1.87172417E-01    2    -1000024         6   # BR(~b_2 -> ~chi_1- t )
     2.44861295E-02    2    -1000037         6   # BR(~b_2 -> ~chi_2- t )
     5.05837054E-01    2     1000021         5   # BR(~b_2 -> ~g      b )
     6.23030834E-04    2     1000005        25   # BR(~b_2 -> ~b_1    h )
     5.56070081E-04    2     1000005        23   # BR(~b_2 -> ~b_1    Z )
     1.51491380E-01    2     1000006       -24   # BR(~b_2 -> ~t_1    W-)
#
#         PDG            Width
DECAY   1000002     1.46865570E+02   # sup_L decays
#          BR         NDA      ID1       ID2
     5.17931222E-05    2     1000022         2   # BR(~u_L -> ~chi_10 u)
     2.71074177E-05    2     1000023         2   # BR(~u_L -> ~chi_20 u)
     1.66381602E-02    2     1000025         2   # BR(~u_L -> ~chi_30 u)
     4.45937704E-04    2     1000035         2   # BR(~u_L -> ~chi_40 u)
     3.86265843E-04    2     1000024         1   # BR(~u_L -> ~chi_1+ d)
     3.30146779E-02    2     1000037         1   # BR(~u_L -> ~chi_2+ d)
     9.49436058E-01    2     1000021         2   # BR(~u_L -> ~g      u)
#
#         PDG            Width
DECAY   2000002     1.41498685E+01   # sup_R decays
#          BR         NDA      ID1       ID2
     6.50434044E-05    2     1000022         2   # BR(~u_R -> ~chi_10 u)
     3.41432842E-05    2     1000023         2   # BR(~u_R -> ~chi_20 u)
     9.99900813E-01    2     1000021         2   # BR(~u_R -> ~g      u)
#
#         PDG            Width
DECAY   1000001     1.46915588E+02   # sdown_L decays
#          BR         NDA      ID1       ID2
     7.94758145E-05    2     1000022         1   # BR(~d_L -> ~chi_10 d)
     4.16288787E-05    2     1000023         1   # BR(~d_L -> ~chi_20 d)
     1.64427440E-02    2     1000025         1   # BR(~d_L -> ~chi_30 d)
     6.32306368E-04    2     1000035         1   # BR(~d_L -> ~chi_40 d)
     1.02806292E-05    2    -1000024         2   # BR(~d_L -> ~chi_1- u)
     3.31345468E-02    2    -1000037         2   # BR(~d_L -> ~chi_2- u)
     9.49659017E-01    2     1000021         1   # BR(~d_L -> ~g      d)
#
#         PDG            Width
DECAY   2000001     1.18810974E+02   # sdown_R decays
#          BR         NDA      ID1       ID2
     3.37413144E-06    2     1000022         1   # BR(~d_R -> ~chi_10 d)
     1.77305892E-06    2     1000023         1   # BR(~d_R -> ~chi_20 d)
     5.26067066E-07    2     1000025         1   # BR(~d_R -> ~chi_30 d)
     1.49687216E-03    2     1000035         1   # BR(~d_R -> ~chi_40 d)
     9.98497455E-01    2     1000021         1   # BR(~d_R -> ~g      d)
#
#         PDG            Width
DECAY   1000004     1.17249273E+02   # scharm_L decays
#          BR         NDA      ID1       ID2
     6.72079736E-05    2     1000022         4   # BR(~c_L -> ~chi_10 c)
     3.51747253E-05    2     1000023         4   # BR(~c_L -> ~chi_20 c)
     2.12871140E-02    2     1000025         4   # BR(~c_L -> ~chi_30 c)
     5.69678649E-04    2     1000035         4   # BR(~c_L -> ~chi_40 c)
     5.01224062E-04    2     1000024         3   # BR(~c_L -> ~chi_1+ s)
     4.22393407E-02    2     1000037         3   # BR(~c_L -> ~chi_2+ s)
     9.35300260E-01    2     1000021         4   # BR(~c_L -> ~g      c)
#
#         PDG            Width
DECAY   2000004     1.11285183E+01   # scharm_R decays
#          BR         NDA      ID1       ID2
     8.67792813E-05    2     1000022         4   # BR(~c_R -> ~chi_10 c)
     4.55511413E-05    2     1000023         4   # BR(~c_R -> ~chi_20 c)
     9.99867670E-01    2     1000021         4   # BR(~c_R -> ~g      c)
#
#         PDG            Width
DECAY   1000003     1.17280975E+02   # sstrange_L decays
#          BR         NDA      ID1       ID2
     1.03136569E-04    2     1000022         3   # BR(~s_L -> ~chi_10 s)
     5.40214538E-05    2     1000023         3   # BR(~s_L -> ~chi_20 s)
     2.10389957E-02    2     1000025         3   # BR(~s_L -> ~chi_30 s)
     8.07837351E-04    2     1000035         3   # BR(~s_L -> ~chi_40 s)
     1.33411710E-05    2    -1000024         4   # BR(~s_L -> ~chi_1- c)
     4.23963380E-02    2    -1000037         4   # BR(~s_L -> ~chi_2- c)
     9.35586330E-01    2     1000021         3   # BR(~s_L -> ~g      s)
#
#         PDG            Width
DECAY   2000003     9.34802789E+01   # sstrange_R decays
#          BR         NDA      ID1       ID2
     4.44768650E-06    2     1000022         3   # BR(~s_R -> ~chi_10 s)
     2.33715755E-06    2     1000023         3   # BR(~s_R -> ~chi_20 s)
     6.78746831E-07    2     1000025         3   # BR(~s_R -> ~chi_30 s)
     1.92626594E-03    2     1000035         3   # BR(~s_R -> ~chi_40 s)
     9.98066270E-01    2     1000021         3   # BR(~s_R -> ~g      s)
#
#         PDG            Width
DECAY   1000011     2.00996634E-03   # selectron_L decays
#          BR         NDA      ID1       ID2
     5.37341832E-01    2     1000022        11   # BR(~e_L -> ~chi_10 e-)
     2.79181784E-01    2     1000023        11   # BR(~e_L -> ~chi_20 e-)
     1.83476384E-01    2    -1000024        12   # BR(~e_L -> ~chi_1- nu_e)
#
#         PDG            Width
DECAY   2000011     2.20643718E+00   # selectron_R decays
#          BR         NDA      ID1       ID2
     1.76126618E-03    2     1000022        11   # BR(~e_R -> ~chi_10 e-)
     9.25544960E-04    2     1000023        11   # BR(~e_R -> ~chi_20 e-)
     3.40485399E-04    2     1000025        11   # BR(~e_R -> ~chi_30 e-)
     9.96972703E-01    2     1000035        11   # BR(~e_R -> ~chi_40 e-)
#
#         PDG            Width
DECAY   1000013     2.00996628E-03   # smuon_L decays
#          BR         NDA      ID1       ID2
     5.37341829E-01    2     1000022        13   # BR(~mu_L -> ~chi_10 mu-)
     2.79181782E-01    2     1000023        13   # BR(~mu_L -> ~chi_20 mu-)
     1.83476389E-01    2    -1000024        14   # BR(~mu_L -> ~chi_1- nu_mu)
#
#         PDG            Width
DECAY   2000013     2.20643714E+00   # smuon_R decays
#          BR         NDA      ID1       ID2
     1.76126621E-03    2     1000022        13   # BR(~mu_R -> ~chi_10 mu-)
     9.25544975E-04    2     1000023        13   # BR(~mu_R -> ~chi_20 mu-)
     3.40485400E-04    2     1000025        13   # BR(~mu_R -> ~chi_30 mu-)
     9.96972703E-01    2     1000035        13   # BR(~mu_R -> ~chi_40 mu-)
#
#         PDG            Width
DECAY   1000015     9.58255343E-01   # stau_1 decays
#          BR         NDA      ID1       ID2
     5.10935871E-01    2     1000022        15   # BR(~tau_1 -> ~chi_10  tau-)
     4.88777854E-01    2     1000023        15   # BR(~tau_1 -> ~chi_20  tau-)
     2.86274630E-04    2    -1000024        16   # BR(~tau_1 -> ~chi_1-  nu_tau)
#
#         PDG            Width
DECAY   2000015     2.40073622E+01   # stau_2 decays
#          BR         NDA      ID1       ID2
     2.44695097E-01    2     1000022        15   # BR(~tau_2 -> ~chi_10  tau-)
     2.42094138E-01    2     1000023        15   # BR(~tau_2 -> ~chi_20  tau-)
     4.86534680E-01    2    -1000024        16   # BR(~tau_2 -> ~chi_1-  nu_tau)
     1.29730754E-02    2     1000016       -24   # BR(~tau_2 -> ~nu_tauL W-)
     7.05028640E-03    2     1000015        25   # BR(~tau_2 -> ~tau_1   h)
     6.65272334E-03    2     1000015        23   # BR(~tau_2 -> ~tau_1   Z)
#
#         PDG            Width
DECAY   1000012     1.99227261E-02   # snu_eL decays
#          BR         NDA      ID1       ID2
     2.03011637E-01    2     1000022        12   # BR(~nu_eL -> ~chi_10 nu_e)
     1.05746891E-01    2     1000023        12   # BR(~nu_eL -> ~chi_20 nu_e)
     6.91241473E-01    2     1000024        11   # BR(~nu_eL -> ~chi_1+ e-)
#
#         PDG            Width
DECAY   1000014     1.99227256E-02   # snu_muL decays
#          BR         NDA      ID1       ID2
     2.03011641E-01    2     1000022        14   # BR(~nu_muL -> ~chi_10 nu_mu)
     1.05746893E-01    2     1000023        14   # BR(~nu_muL -> ~chi_20 nu_mu)
     6.91241466E-01    2     1000024        13   # BR(~nu_muL -> ~chi_1+ mu-)
#
#         PDG            Width
DECAY   1000016     9.16991154E-01   # snu_tauL decays
#          BR         NDA      ID1       ID2
     1.03922541E-03    2     1000022        16   # BR(~nu_tauL -> ~chi_10 nu_tau)
     5.26658824E-04    2     1000023        16   # BR(~nu_tauL -> ~chi_20 nu_tau)
     9.98434116E-01    2     1000024        15   # BR(~nu_tauL -> ~chi_1+ tau-)
#
#         PDG            Width
DECAY   1000024     3.84050894E-11   # chargino1+ decays
#           BR         NDA      ID1       ID2       ID3
     3.74770500E-01    3     1000022         2        -1   # BR(~chi_1+ -> ~chi_10 u    db)
     3.74770500E-01    3     1000022         4        -3   # BR(~chi_1+ -> ~chi_10 c    sb)
     1.24925410E-01    3     1000022       -11        12   # BR(~chi_1+ -> ~chi_10 e+   nu_e)
     1.24925410E-01    3     1000022       -13        14   # BR(~chi_1+ -> ~chi_10 mu+  nu_mu)
     6.08180494E-04    3     1000022       -15        16   # BR(~chi_1+ -> ~chi_10 tau+ nu_tau)
#
#         PDG            Width
DECAY   1000037     6.21568029E+01   # chargino2+ decays
#          BR         NDA      ID1       ID2
     1.92096651E-07    2     1000006        -5   # BR(~chi_2+ -> ~t_1     bb)
     6.62173725E-06    2    -1000005         6   # BR(~chi_2+ -> ~b_1*    t )
     1.06512694E-01    2     1000012       -11   # BR(~chi_2+ -> ~nu_eL   e+  )
     1.06512694E-01    2     1000014       -13   # BR(~chi_2+ -> ~nu_muL mu+ )
     1.37563245E-01    2     1000016       -15   # BR(~chi_2+ -> ~nu_tau1 tau+)
     1.06440731E-01    2    -1000011        12   # BR(~chi_2+ -> ~e_L+    nu_e)
     1.06440731E-01    2    -1000013        14   # BR(~chi_2+ -> ~mu_L+   nu_mu)
     1.37529023E-01    2    -1000015        16   # BR(~chi_2+ -> ~tau_1+  nu_tau)
     2.37519296E-07    2    -2000015        16   # BR(~chi_2+ -> ~tau_2+  nu_tau)
     7.57661438E-02    2     1000024        23   # BR(~chi_2+ -> ~chi_1+  Z )
     7.30434627E-02    2     1000022        24   # BR(~chi_2+ -> ~chi_10  W+)
     7.38746073E-02    2     1000023        24   # BR(~chi_2+ -> ~chi_20  W+)
     7.63096177E-02    2     1000024        25   # BR(~chi_2+ -> ~chi_1+  h )
#
#         PDG            Width
DECAY   1000022     0.00000000E+00   # neutralino1 decays
#
#         PDG            Width
DECAY   1000023     7.44954043E-10   # neutralino2 decays
#          BR         NDA      ID1       ID2
     1.05250065E-01    2     1000022        22   # BR(~chi_20 -> ~chi_10 gam)
#           BR         NDA      ID1       ID2       ID3
     1.23879404E-01    3     1000022        -2         2   # BR(~chi_20 -> ~chi_10 ub      u)
     1.60813845E-01    3     1000022        -1         1   # BR(~chi_20 -> ~chi_10 db      d)
     1.23879404E-01    3     1000022        -4         4   # BR(~chi_20 -> ~chi_10 cb      c)
     1.60813845E-01    3     1000022        -3         3   # BR(~chi_20 -> ~chi_10 sb      s)
     3.69506126E-02    3     1000022       -11        11   # BR(~chi_20 -> ~chi_10 e+      e-)
     3.69506126E-02    3     1000022       -13        13   # BR(~chi_20 -> ~chi_10 mu+     mu-)
     8.67632464E-04    3     1000022       -15        15   # BR(~chi_20 -> ~chi_10 tau+    tau-)
     7.38867187E-02    3     1000022       -12        12   # BR(~chi_20 -> ~chi_10 nu_eb   nu_e)
     7.38867187E-02    3     1000022       -14        14   # BR(~chi_20 -> ~chi_10 nu_mub  nu_mu)
     7.38917167E-02    3     1000022       -16        16   # BR(~chi_20 -> ~chi_10 nu_taub nu_tau)
     8.67879378E-03    3     1000024        -2         1   # BR(~chi_20 -> ~chi_1+ ub      d)
     8.67879378E-03    3    -1000024        -1         2   # BR(~chi_20 -> ~chi_1- db      u)
     2.89295927E-03    3     1000024       -12        11   # BR(~chi_20 -> ~chi_1+ nu_eb   e-)
     2.89295927E-03    3    -1000024        12       -11   # BR(~chi_20 -> ~chi_1- nu_e    e+)
     2.89295927E-03    3     1000024       -14        13   # BR(~chi_20 -> ~chi_1+ nu_mub  mu-)
     2.89295927E-03    3    -1000024        14       -13   # BR(~chi_20 -> ~chi_1- nu_mu   mu+)
#
#         PDG            Width
DECAY   1000025     6.21382459E+01   # neutralino3 decays
#          BR         NDA      ID1       ID2
     2.51620274E-02    2     1000022        23   # BR(~chi_30 -> ~chi_10   Z )
     4.90095240E-02    2     1000023        23   # BR(~chi_30 -> ~chi_20   Z )
     7.52249416E-02    2     1000024       -24   # BR(~chi_30 -> ~chi_1+   W-)
     7.52249416E-02    2    -1000024        24   # BR(~chi_30 -> ~chi_1-   W+)
     4.88871299E-02    2     1000022        25   # BR(~chi_30 -> ~chi_10   h )
     2.54380646E-02    2     1000023        25   # BR(~chi_30 -> ~chi_20   h )
     7.02416429E-06    2     2000002        -2   # BR(~chi_30 -> ~u_R      ub)
     7.02416429E-06    2    -2000002         2   # BR(~chi_30 -> ~u_R*     u )
     7.02414323E-06    2     2000004        -4   # BR(~chi_30 -> ~c_R      cb)
     7.02414323E-06    2    -2000004         4   # BR(~chi_30 -> ~c_R*     c )
     1.66699579E-05    2     1000006        -6   # BR(~chi_30 -> ~t_1      tb)
     1.66699579E-05    2    -1000006         6   # BR(~chi_30 -> ~t_1*     t )
     1.08232902E-05    2     1000005        -5   # BR(~chi_30 -> ~b_1      bb)
     1.08232902E-05    2    -1000005         5   # BR(~chi_30 -> ~b_1*     b )
     5.42033297E-02    2     1000011       -11   # BR(~chi_30 -> ~e_L-     e+)
     5.42033297E-02    2    -1000011        11   # BR(~chi_30 -> ~e_L+     e-)
     5.42033297E-02    2     1000013       -13   # BR(~chi_30 -> ~mu_L-    mu+)
     5.42033297E-02    2    -1000013        13   # BR(~chi_30 -> ~mu_L+    mu-)
     7.00399287E-02    2     1000015       -15   # BR(~chi_30 -> ~tau_1-   tau+)
     7.00399287E-02    2    -1000015        15   # BR(~chi_30 -> ~tau_1+   tau-)
     3.62262701E-07    2     2000015       -15   # BR(~chi_30 -> ~tau_2-   tau+)
     3.62262701E-07    2    -2000015        15   # BR(~chi_30 -> ~tau_2+   tau-)
     5.22664757E-02    2     1000012       -12   # BR(~chi_30 -> ~nu_eL    nu_eb)
     5.22664757E-02    2    -1000012        12   # BR(~chi_30 -> ~nu_eL*   nu_e )
     5.22664757E-02    2     1000014       -14   # BR(~chi_30 -> ~nu_muL   nu_mub)
     5.22664757E-02    2    -1000014        14   # BR(~chi_30 -> ~nu_muL*  nu_mu )
     6.75052422E-02    2     1000016       -16   # BR(~chi_30 -> ~nu_tau1  nu_taub)
     6.75052422E-02    2    -1000016        16   # BR(~chi_30 -> ~nu_tau1* nu_tau )
#
#         PDG            Width
DECAY   1000035     3.58608319E+01   # neutralino4 decays
#          BR         NDA      ID1       ID2
     1.58904039E-02    2     1000022        23   # BR(~chi_40 -> ~chi_10   Z )
     3.08467761E-02    2     1000023        23   # BR(~chi_40 -> ~chi_20   Z )
     4.02462661E-02    2     1000024       -24   # BR(~chi_40 -> ~chi_1+   W-)
     4.02462661E-02    2    -1000024        24   # BR(~chi_40 -> ~chi_1-   W+)
     3.04594538E-02    2     1000022        25   # BR(~chi_40 -> ~chi_10   h )
     1.60581863E-02    2     1000023        25   # BR(~chi_40 -> ~chi_20   h )
     4.69838341E-02    2     2000002        -2   # BR(~chi_40 -> ~u_R      ub)
     4.69838341E-02    2    -2000002         2   # BR(~chi_40 -> ~u_R*     u )
     4.69837188E-02    2     2000004        -4   # BR(~chi_40 -> ~c_R      cb)
     4.69837188E-02    2    -2000004         4   # BR(~chi_40 -> ~c_R*     c )
     6.45899065E-02    2     1000006        -6   # BR(~chi_40 -> ~t_1      tb)
     6.45899065E-02    2    -1000006         6   # BR(~chi_40 -> ~t_1*     t )
     4.58504830E-02    2     1000005        -5   # BR(~chi_40 -> ~b_1      bb)
     4.58504830E-02    2    -1000005         5   # BR(~chi_40 -> ~b_1*     b )
     2.95444110E-02    2     1000011       -11   # BR(~chi_40 -> ~e_L-     e+)
     2.95444110E-02    2    -1000011        11   # BR(~chi_40 -> ~e_L+     e-)
     2.95444110E-02    2     1000013       -13   # BR(~chi_40 -> ~mu_L-    mu+)
     2.95444110E-02    2    -1000013        13   # BR(~chi_40 -> ~mu_L+    mu-)
     3.77114922E-02    2     1000015       -15   # BR(~chi_40 -> ~tau_1-   tau+)
     3.77114922E-02    2    -1000015        15   # BR(~chi_40 -> ~tau_1+   tau-)
     2.96806683E-03    2     2000015       -15   # BR(~chi_40 -> ~tau_2-   tau+)
     2.96806683E-03    2    -2000015        15   # BR(~chi_40 -> ~tau_2+   tau-)
     3.32609066E-02    2     1000012       -12   # BR(~chi_40 -> ~nu_eL    nu_eb)
     3.32609066E-02    2    -1000012        12   # BR(~chi_40 -> ~nu_eL*   nu_e )
     3.32609066E-02    2     1000014       -14   # BR(~chi_40 -> ~nu_muL   nu_mub)
     3.32609066E-02    2    -1000014        14   # BR(~chi_40 -> ~nu_muL*  nu_mu )
     4.24281872E-02    2     1000016       -16   # BR(~chi_40 -> ~nu_tau1  nu_taub)
     4.24281872E-02    2    -1000016        16   # BR(~chi_40 -> ~nu_tau1* nu_tau )
#
#         PDG            Width
DECAY        25     4.23477758E-03   # h decays
#          BR         NDA      ID1       ID2
     6.07242737E-01    2           5        -5   # BR(h -> b       bb     )
     6.15182637E-02    2         -15        15   # BR(h -> tau+    tau-   )
     2.17764716E-04    2         -13        13   # BR(h -> mu+     mu-    )
     2.37605393E-04    2           3        -3   # BR(h -> s       sb     )
     2.05184714E-02    2           4        -4   # BR(h -> c       cb     )
     7.59282449E-02    2          21        21   # BR(h -> g       g      )
     2.24352946E-03    2          22        22   # BR(h -> gam     gam    )
     1.51353361E-03    2          22        23   # BR(h -> Z       gam    )
     2.04894735E-01    2          24       -24   # BR(h -> W+      W-     )
     2.56851151E-02    2          23        23   # BR(h -> Z       Z      )
#
#         PDG            Width
DECAY        35     1.04231445E+02   # H decays
#          BR         NDA      ID1       ID2
     7.74402365E-01    2           5        -5   # BR(H -> b       bb     )
     1.29143617E-01    2         -15        15   # BR(H -> tau+    tau-   )
     4.69681517E-04    2         -13        13   # BR(H -> mu+     mu-    )
     2.97599042E-04    2           3        -3   # BR(H -> s       sb     )
     5.11327796E-09    2           4        -4   # BR(H -> c       cb     )
     5.02704810E-04    2           6        -6   # BR(H -> t       tb     )
     1.47598349E-05    2          21        21   # BR(H -> g       g      )
     4.82857480E-09    2          22        22   # BR(H -> gam     gam    )
     8.17209906E-09    2          23        22   # BR(H -> Z       gam    )
     2.09131150E-07    2          24       -24   # BR(H -> W+      W-     )
     1.04338709E-07    2          23        23   # BR(H -> Z       Z      )
     7.45102420E-07    2          25        25   # BR(H -> h       h      )
     5.43414948E-04    2     1000024  -1000024   # BR(H -> ~chi_1+ ~chi_1-)
     1.84604557E-02    2     1000024  -1000037   # BR(H -> ~chi_1+ ~chi_2-)
     1.84604557E-02    2     1000037  -1000024   # BR(H -> ~chi_2+ ~chi_1-)
     1.49855125E-04    2     1000022   1000022   # BR(H -> ~chi_10 ~chi_10)
     8.42902358E-05    2     1000023   1000023   # BR(H -> ~chi_20 ~chi_20)
     7.68714056E-06    2     1000022   1000023   # BR(H -> ~chi_10 ~chi_20)
     5.01133992E-03    2     1000022   1000025   # BR(H -> ~chi_10 ~chi_30)
     1.23726306E-03    2     1000022   1000035   # BR(H -> ~chi_10 ~chi_40)
     1.31253214E-02    2     1000023   1000025   # BR(H -> ~chi_20 ~chi_30)
     3.57428796E-03    2     1000023   1000035   # BR(H -> ~chi_20 ~chi_40)
     1.86937054E-08    2     1000005  -1000005   # BR(H -> ~b_1    ~b_1*  )
     2.92058440E-08    2     1000011  -1000011   # BR(H -> ~e_L-   ~e_L+  )
     2.92058440E-08    2     1000013  -1000013   # BR(H -> ~mu_L-  ~mu_L+ )
     8.85310290E-06    2     1000015  -1000015   # BR(H -> ~tau_1- ~tau_1+)
     1.72522951E-02    2     1000015  -2000015   # BR(H -> ~tau_1- ~tau_2+)
     1.72522951E-02    2     2000015  -1000015   # BR(H -> ~tau_2- ~tau_1+)
     9.52858595E-08    2     1000012  -1000012   # BR(H -> ~nu_eL  ~nu_eL*   )
     9.52858595E-08    2     1000014  -1000014   # BR(H -> ~nu_muL ~nu_muL*  )
     1.14060959E-07    2     1000016  -1000016   # BR(H -> ~nu_tauL ~nu_tauL*)
#
#         PDG            Width
DECAY        36     1.04237977E+02   # A decays
#          BR         NDA      ID1       ID2
     7.74367428E-01    2           5        -5   # BR(A -> b       bb     )
     1.29136054E-01    2         -15        15   # BR(A -> tau+    tau-   )
     4.69653366E-04    2         -13        13   # BR(A -> mu+     mu-    )
     2.97590040E-04    2           3        -3   # BR(A -> s       sb     )
     5.13595810E-09    2           4        -4   # BR(A -> c       cb     )
     5.04506943E-04    2           6        -6   # BR(A -> t       tb     )
     2.27185306E-05    2          21        21   # BR(A -> g       g      )
     2.46752118E-08    2          22        22   # BR(A -> gam     gam    )
     1.57752273E-08    2          23        22   # BR(A -> Z       gam    )
     2.11891139E-07    2          23        25   # BR(A -> Z       h      )
     5.78938641E-04    2     1000024  -1000024   # BR(A -> ~chi_1+ ~chi_1-)
     1.84456532E-02    2     1000024  -1000037   # BR(A -> ~chi_1+ ~chi_2-)
     1.84456532E-02    2     1000037  -1000024   # BR(A -> ~chi_2+ ~chi_1-)
     1.70871057E-04    2     1000022   1000022   # BR(A -> ~chi_10 ~chi_10)
     8.15971558E-05    2     1000023   1000023   # BR(A -> ~chi_20 ~chi_20)
     4.31778948E-06    2     1000022   1000023   # BR(A -> ~chi_10 ~chi_20)
     1.32483960E-02    2     1000022   1000025   # BR(A -> ~chi_10 ~chi_30)
     3.60951946E-03    2     1000022   1000035   # BR(A -> ~chi_10 ~chi_40)
     4.89952500E-03    2     1000023   1000025   # BR(A -> ~chi_20 ~chi_30)
     1.20688570E-03    2     1000023   1000035   # BR(A -> ~chi_20 ~chi_40)
     1.72552170E-02    2     1000015  -2000015   # BR(A -> ~tau_1- ~tau_2+)
     1.72552170E-02    2    -1000015   2000015   # BR(A -> ~tau_1+ ~tau_2-)
#
#         PDG            Width
DECAY        37     9.83209824E+01   # H+ decays
#          BR         NDA      ID1       ID2
     1.27056588E-03    2           4        -5   # BR(H+ -> c       bb     )
     1.36960147E-01    2         -15        16   # BR(H+ -> tau+    nu_tau )
     4.98108713E-04    2         -13        14   # BR(H+ -> mu+     nu_mu  )
     1.27056443E-05    2           2        -5   # BR(H+ -> u       bb     )
     1.57838468E-05    2           2        -3   # BR(H+ -> u       sb     )
     3.10679243E-04    2           4        -3   # BR(H+ -> c       sb     )
     7.55344633E-01    2           6        -5   # BR(H+ -> t       bb     )
     2.25038106E-07    2          24        25   # BR(H+ -> W+      h      )
     2.98752621E-14    2          24        36   # BR(H+ -> W+      A      )
     1.74755102E-05    2     1000024   1000022   # BR(H+ -> ~chi_1+ ~chi_10)
     6.20877033E-05    2     1000024   1000023   # BR(H+ -> ~chi_1+ ~chi_20)
     2.00186145E-02    2     1000024   1000025   # BR(H+ -> ~chi_1+ ~chi_30)
     4.52498137E-03    2     1000024   1000035   # BR(H+ -> ~chi_1+ ~chi_40)
     1.98153865E-02    2     1000037   1000022   # BR(H+ -> ~chi_2+ ~chi_10)
     1.95281006E-02    2     1000037   1000023   # BR(H+ -> ~chi_2+ ~chi_20)
     1.21564931E-07    2    -1000011   1000012   # BR(H+ -> ~e_L+   ~nu_eL )
     1.21564931E-07    2    -1000013   1000014   # BR(H+ -> ~mu_L+  ~nu_muL)
     5.81811743E-06    2    -1000015   1000016   # BR(H+ -> ~tau_1+ ~nu_tauL)
     3.69180923E-02    2    -2000015   1000016   # BR(H+ -> ~tau_2+ ~nu_tauL)
     4.69635179E-03    2     1000006  -1000005   # BR(H+ -> ~t_1    ~b_1*  )
