#
#                              ======================
#                              | THE SUSYHIT OUTPUT |
#                              ======================
#
#
#              ------------------------------------------------------
#              |     This is the output of the SUSY-HIT package     |
#              |  created by A.Djouadi, M.Muehlleitner and M.Spira. |
#              |  In case of problems with SUSY-HIT email to        |
#              |           margarete.muehlleitner@cern.ch           |
#              |           michael.spira@psi.ch                     |
#              |           abdelhak.djouadi@cern.ch                 |
#              ------------------------------------------------------
#
#              ------------------------------------------------------
#              |  SUSY Les Houches Accord - MSSM Spectrum + Decays  |
#              |              based on the decay programs           |
#              |                                                    |
#              |                     SDECAY 1.3b                    |
#              |                                                    |
#              |  Authors: M.Muhlleitner, A.Djouadi and Y.Mambrini  |
#              |  Ref.:    Comput.Phys.Commun.168(2005)46           |
#              |           [hep-ph/0311167]                         |
#              |                                                    |
#              |                     HDECAY 3.4                     |
#              |                                                    |
#              |  By: A.Djouadi,J.Kalinowski,M.Muhlleitner,M.Spira  |
#              |  Ref.:    Comput.Phys.Commun.108(1998)56           |
#              |           [hep-ph/9704448]                         |
#              |                                                    |
#              |                                                    |
#              |  If not stated otherwise all DRbar couplings and   |
#              |  soft SUSY breaking masses are given at the scale  |
#              |  Q=  0.18574520E+04
#              |                                                    |
#              ------------------------------------------------------
#
#
BLOCK DCINFO  # Decay Program information
     1   SDECAY/HDECAY # decay calculator
     2   1.3b  /3.4    # version number
#
BLOCK SPINFO  # Spectrum calculator information
     1     SOFTSUSY    # spectrum calculator               
     2     3.4.0       # version number                    
#
BLOCK MODSEL  # Model selection
     1     0   #  nonUniversal                                     
#
BLOCK SMINPUTS  # Standard Model inputs
         1     1.27908970E+02   # alpha_em^-1(M_Z)^MSbar
         2     1.16637870E-05   # G_F [GeV^-2]
         3     1.18400000E-01   # alpha_S(M_Z)^MSbar
         4     9.11876000E+01   # M_Z pole mass
         5     4.18000000E+00   # mb(mb)^MSbar
         6     1.73200000E+02   # mt pole mass
         7     1.77700000E+00   # mtau pole mass
#
BLOCK MINPAR  # Input parameters - minimal models
         3     5.94600000E+01   # tanb                
#
BLOCK EXTPAR  # Input parameters - non-minimal models
         0    -1.00000000E+00   # Set                 
         1     6.85700000E+02   # M_1(MX)             
         2     2.43467000E+03   # M_2(MX)             
         3     3.05052000E+03   # M_3(MX)             
        11     3.52933000E+03   # At(MX)              
        12    -3.80532000E+03   # Ab(MX)              
        13    -3.21840000E+03   # Atau(MX)            
        23     4.80420000E+02   # mu(MX)              
        26     2.62377000E+03   # mA(pole)            
        31     1.06880000E+03   # meL(MX)             
        32     1.06880000E+03   # mmuL(MX)            
        33     5.64550000E+02   # mtauL(MX)           
        34     2.18851000E+03   # meR(MX)             
        35     2.18851000E+03   # mmuR(MX)            
        36     1.17204000E+03   # mtauR(MX)           
        41     9.50340000E+02   # mqL1(MX)            
        42     9.50340000E+02   # mqL2(MX)            
        43     8.81290000E+02   # mqL3(MX)            
        44     5.28340000E+02   # muR(MX)             
        45     5.28340000E+02   # mcR(MX)             
        46     3.90905000E+03   # mtR(MX)             
        47     1.16767000E+03   # mdR(MX)             
        48     1.16767000E+03   # msR(MX)             
        49     1.50802000E+03   # mbR(MX)             
#
BLOCK MASS  # Mass Spectrum
# PDG code           mass       particle
        24     8.03923695E+01   # W+
        25     1.27115016E+02   # h
        35     2.62395028E+03   # H
        36     2.62377260E+03   # A
        37     2.62488746E+03   # H+
         5     4.81876030E+00   # b-quark pole mass calculated from mb(mb)_Msbar
   1000001     1.00851291E+03   # ~d_L
   2000001     1.21078582E+03   # ~d_R
   1000002     1.00540410E+03   # ~u_L
   2000002     5.71950816E+02   # ~u_R
   1000003     1.00851291E+03   # ~s_L
   2000003     1.21078582E+03   # ~s_R
   1000004     1.00540410E+03   # ~c_L
   2000004     5.71950816E+02   # ~c_R
   1000005     9.53120358E+02   # ~b_1
   2000005     1.52515005E+03   # ~b_2
   1000006     9.53503835E+02   # ~t_1
   2000006     3.93126106E+03   # ~t_2
   1000011     1.09274711E+03   # ~e_L
   2000011     2.18602835E+03   # ~e_R
   1000012     1.08958889E+03   # ~nu_eL
   1000013     1.09274711E+03   # ~mu_L
   2000013     2.18602835E+03   # ~mu_R
   1000014     1.08958889E+03   # ~nu_muL
   1000015     5.78931281E+02   # ~tau_1
   2000015     1.13403462E+03   # ~tau_2
   1000016     5.76831842E+02   # ~nu_tauL
   1000021     3.02444168E+03   # ~g
   1000022     4.87499087E+02   # ~chi_10
   1000023    -4.95620453E+02   # ~chi_20
   1000025     6.79809848E+02   # ~chi_30
   1000035     2.39745086E+03   # ~chi_40
   1000024     4.93631732E+02   # ~chi_1+
   1000037     2.39761659E+03   # ~chi_2+
#
BLOCK NMIX  # Neutralino Mixing Matrix
  1  1     1.60220125E-01   # N_11
  1  2    -2.94235650E-02   # N_12
  1  3     7.02058711E-01   # N_13
  1  4    -6.93236851E-01   # N_14
  2  1    -2.53186627E-02   # N_21
  2  2     1.91558551E-02   # N_22
  2  3     7.05592158E-01   # N_23
  2  4     7.07906579E-01   # N_24
  3  1     9.86756110E-01   # N_31
  3  2     6.20667084E-03   # N_32
  3  3    -9.58819681E-02   # N_33
  3  4     1.30692408E-01   # N_34
  4  1    -9.25811123E-04   # N_41
  4  2     9.99364190E-01   # N_42
  4  3     7.74087852E-03   # N_43
  4  4    -3.47913408E-02   # N_44
#
BLOCK UMIX  # Chargino Mixing Matrix U
  1  1    -1.09471505E-02   # U_11
  1  2     9.99940078E-01   # U_12
  2  1    -9.99940078E-01   # U_21
  2  2    -1.09471505E-02   # U_22
#
BLOCK VMIX  # Chargino Mixing Matrix V
  1  1    -4.92045822E-02   # V_11
  1  2     9.98788721E-01   # V_12
  2  1    -9.98788721E-01   # V_21
  2  2    -4.92045822E-02   # V_22
#
BLOCK STOPMIX  # Stop Mixing Matrix
  1  1     9.99380970E-01   # cos(theta_t)
  1  2    -3.51806311E-02   # sin(theta_t)
  2  1     3.51806311E-02   # -sin(theta_t)
  2  2     9.99380970E-01   # cos(theta_t)
#
BLOCK SBOTMIX  # Sbottom Mixing Matrix
  1  1     9.98885414E-01   # cos(theta_b)
  1  2     4.72009502E-02   # sin(theta_b)
  2  1    -4.72009502E-02   # -sin(theta_b)
  2  2     9.98885414E-01   # cos(theta_b)
#
BLOCK STAUMIX  # Stau Mixing Matrix
  1  1     9.97975092E-01   # cos(theta_tau)
  1  2     6.36059411E-02   # sin(theta_tau)
  2  1    -6.36059411E-02   # -sin(theta_tau)
  2  2     9.97975092E-01   # cos(theta_tau)
#
BLOCK ALPHA  # Higgs mixing
          -1.69813276E-02   # Mixing angle in the neutral Higgs boson sector
#
BLOCK HMIX Q=  1.85745200E+03  # DRbar Higgs Parameters
         1     4.88836946E+02   # mu(Q)MSSM           
         2     5.91386825E+01   # tan                 
         3     2.43581192E+02   # higgs               
         4     5.12814393E+06   # mA^2(Q)MSSM         
#
BLOCK GAUGE Q=  1.85745200E+03  # The gauge couplings
     1     3.63897438E-01   # gprime(Q) DRbar
     2     6.38467528E-01   # g(Q) DRbar
     3     1.02583890E+00   # g3(Q) DRbar
#
BLOCK AU Q=  1.85745200E+03  # The trilinear couplings
  1  1     0.00000000E+00   # A_u(Q) DRbar
  2  2     0.00000000E+00   # A_c(Q) DRbar
  3  3     3.52933001E+03   # A_t(Q) DRbar
#
BLOCK AD Q=  1.85745200E+03  # The trilinear couplings
  1  1     0.00000000E+00   # A_d(Q) DRbar
  2  2     0.00000000E+00   # A_s(Q) DRbar
  3  3    -3.80531999E+03   # A_b(Q) DRbar
#
BLOCK AE Q=  1.85745200E+03  # The trilinear couplings
  1  1     0.00000000E+00   # A_e(Q) DRbar
  2  2     0.00000000E+00   # A_mu(Q) DRbar
  3  3    -3.21840000E+03   # A_tau(Q) DRbar
#
BLOCK Yu Q=  1.85745200E+03  # The Yukawa couplings
  1  1     0.00000000E+00   # y_u(Q) DRbar
  2  2     0.00000000E+00   # y_c(Q) DRbar
  3  3     8.43027328E-01   # y_t(Q) DRbar
#
BLOCK Yd Q=  1.85745200E+03  # The Yukawa couplings
  1  1     0.00000000E+00   # y_d(Q) DRbar
  2  2     0.00000000E+00   # y_s(Q) DRbar
  3  3     6.93095938E-01   # y_b(Q) DRbar
#
BLOCK Ye Q=  1.85745200E+03  # The Yukawa couplings
  1  1     0.00000000E+00   # y_e(Q) DRbar
  2  2     0.00000000E+00   # y_mu(Q) DRbar
  3  3     6.69857711E-01   # y_tau(Q) DRbar
#
BLOCK MSOFT Q=  1.85745200E+03  # The soft SUSY breaking masses at the scale Q
         1     6.85700000E+02   # M_1(Q)              
         2     2.43467000E+03   # M_2(Q)              
         3     3.05052000E+03   # M_3(Q)              
        21     7.11954361E+06   # mH1^2(Q)            
        22    -4.44222203E+05   # mH2^2(Q)            
        31     1.06880000E+03   # meL(Q)              
        32     1.06880000E+03   # mmuL(Q)             
        33     5.64549999E+02   # mtauL(Q)            
        34     2.18851000E+03   # meR(Q)              
        35     2.18851000E+03   # mmuR(Q)             
        36     1.17204000E+03   # mtauR(Q)            
        41     9.50339986E+02   # mqL1(Q)             
        42     9.50339986E+02   # mqL2(Q)             
        43     8.81289968E+02   # mqL3(Q)             
        44     5.28339976E+02   # muR(Q)              
        45     5.28339976E+02   # mcR(Q)              
        46     3.90904999E+03   # mtR(Q)              
        47     1.16766999E+03   # mdR(Q)              
        48     1.16766999E+03   # msR(Q)              
        49     1.50801998E+03   # mbR(Q)              
#
Block HiggsBoundsInputHiggsCouplingsFermions
# ScalarNormEffCoupSq PseudoSNormEffCoupSq NP   IP1 IP2 IP2
    1.00871617E+00    0.00000000E+00        3  25   5   5  # h0-b-b eff. coupling^2, normalised to SM
    3.49737505E+03    0.00000000E+00        3  35   5   5  # H0-b-b eff. coupling^2, normalised to SM
    0.00000000E+00    3.49738377E+03        3  36   5   5  # A0-b-b eff. coupling^2, normalised to SM
#
    9.99997508E-01    0.00000000E+00        3  25   6   6  # h0-t-t eff. coupling^2, normalised to SM
    2.88420214E-04    0.00000000E+00        3  35   6   6  # H0-t-t eff. coupling^2, normalised to SM
    0.00000000E+00    2.85928015E-04        3  36   6   6  # A0-t-t eff. coupling^2, normalised to SM
#
    1.00871617E+00    0.00000000E+00        3  25  15  15  # h0-tau-tau eff. coupling^2, normalised to SM
    3.49737505E+03    0.00000000E+00        3  35  15  15  # H0-tau-tau eff. coupling^2, normalised to SM
    0.00000000E+00    3.49738377E+03        3  36  15  15  # A0-tau-tau eff. coupling^2, normalised to SM
#
Block HiggsBoundsInputHiggsCouplingsBosons
    9.99999995E-01        3  25  24  24  # h0-W-W eff. coupling^2, normalised to SM
    5.40707626E-09        3  35  24  24  # H0-W-W eff. coupling^2, normalised to SM
    0.00000000E+00        3  36  24  24  # A0-W-W eff. coupling^2, normalised to SM
#
    9.99999995E-01        3  25  23  23  # h0-Z-Z eff. coupling^2, normalised to SM
    5.40707626E-09        3  35  23  23  # H0-Z-Z eff. coupling^2, normalised to SM
    0.00000000E+00        3  36  23  23  # A0-Z-Z eff. coupling^2, normalised to SM
#
    8.88176429E-01        3  25  21  21  # h0-g-g eff. coupling^2, normalised to SM
    7.73616612E-12        3  35  21  21  # H0-g-g eff. coupling^2, normalised to SM
    5.83253828E-11        3  36  21  21  # A0-g-g eff. coupling^2, normalised to SM
#
    0.00000000E+00        3  25  25  23  # h0-h0-Z eff. coupling^2, normalised to SM
    0.00000000E+00        3  35  25  23  # H0-h0-Z eff. coupling^2, normalised to SM
    5.40707626E-09        3  36  25  23  # A0-h0-Z eff. coupling^2, normalised to SM
    0.00000000E+00        3  35  35  23  # H0-H0-Z eff. coupling^2, normalised to SM
    9.99999995E-01        3  36  35  23  # A0-H0-Z eff. coupling^2, normalised to SM
    0.00000000E+00        3  36  36  23  # A0-A0-Z eff. coupling^2, normalised to SM
#
    0.00000000E+00        4  25  21  21  23  # h0-g-g-Z eff. coupling^2, normalised to SM
    0.00000000E+00        4  35  21  21  23  # H0-g-g-Z eff. coupling^2, normalised to SM
    0.00000000E+00        4  36  21  21  23  # A0-g-g-Z eff. coupling^2, normalised to SM
#
#
#
#                             =================
#                             |The decay table|
#                             =================
#
# - The QCD corrections to the decays gluino -> squark  + quark
#                                     squark -> gaugino + quark_prime
#                                     squark -> squark_prime + Higgs
#                                     squark -> gluino  + quark
#   are included.
#
# - The multi-body decays for the inos, stops and sbottoms are included.
#
# - The loop induced decays for the gluino, neutralinos and stops
#   are included.
#
# - The SUSY decays of the top quark are included.
#
#
#         PDG            Width
DECAY         6     1.43554051E+00   # top decays
#          BR         NDA      ID1       ID2
     1.00000000E+00    2           5        24   # BR(t ->  b    W+)
#
#         PDG            Width
DECAY   1000021     5.48770496E+02   # gluino decays
#          BR         NDA      ID1       ID2
     4.58325429E-02    2     1000001        -1   # BR(~g -> ~d_L  db)
     4.58325429E-02    2    -1000001         1   # BR(~g -> ~d_L* d )
     4.09110079E-02    2     2000001        -1   # BR(~g -> ~d_R  db)
     4.09110079E-02    2    -2000001         1   # BR(~g -> ~d_R* d )
     4.59031598E-02    2     1000002        -2   # BR(~g -> ~u_L  ub)
     4.59031598E-02    2    -1000002         2   # BR(~g -> ~u_L* u )
     5.39418561E-02    2     2000002        -2   # BR(~g -> ~u_R  ub)
     5.39418561E-02    2    -2000002         2   # BR(~g -> ~u_R* u )
     4.58325429E-02    2     1000003        -3   # BR(~g -> ~s_L  sb)
     4.58325429E-02    2    -1000003         3   # BR(~g -> ~s_L* s )
     4.09110079E-02    2     2000003        -3   # BR(~g -> ~s_R  sb)
     4.09110079E-02    2    -2000003         3   # BR(~g -> ~s_R* s )
     4.59031562E-02    2     1000004        -4   # BR(~g -> ~c_L  cb)
     4.59031562E-02    2    -1000004         4   # BR(~g -> ~c_L* c )
     5.39418550E-02    2     2000004        -4   # BR(~g -> ~c_R  cb)
     5.39418550E-02    2    -2000004         4   # BR(~g -> ~c_R* c )
     4.70560975E-02    2     1000005        -5   # BR(~g -> ~b_1  bb)
     4.70560975E-02    2    -1000005         5   # BR(~g -> ~b_1* b )
     3.23653237E-02    2     2000005        -5   # BR(~g -> ~b_2  bb)
     3.23653237E-02    2    -2000005         5   # BR(~g -> ~b_2* b )
     4.74014500E-02    2     1000006        -6   # BR(~g -> ~t_1  tb)
     4.74014500E-02    2    -1000006         6   # BR(~g -> ~t_1* t )
#
#         PDG            Width
DECAY   1000006     1.11704603E+01   # stop1 decays
#          BR         NDA      ID1       ID2
     2.82016520E-01    2     1000022         6   # BR(~t_1 -> ~chi_10 t )
     2.78487977E-01    2     1000023         6   # BR(~t_1 -> ~chi_20 t )
     3.05338139E-03    2     1000025         6   # BR(~t_1 -> ~chi_30 t )
     4.36442122E-01    2     1000024         5   # BR(~t_1 -> ~chi_1+ b )
#
#         PDG            Width
DECAY   2000006     2.33359014E+02   # stop2 decays
#          BR         NDA      ID1       ID2
     1.11914933E-01    2     1000022         6   # BR(~t_2 -> ~chi_10 t )
     1.15496249E-01    2     1000023         6   # BR(~t_2 -> ~chi_20 t )
     3.95343196E-02    2     1000025         6   # BR(~t_2 -> ~chi_30 t )
     2.35056695E-05    2     1000035         6   # BR(~t_2 -> ~chi_40 t )
     2.30685658E-01    2     1000024         5   # BR(~t_2 -> ~chi_1+ b )
     4.78317688E-05    2     1000037         5   # BR(~t_2 -> ~chi_2+ b )
     1.54793534E-01    2     1000021         6   # BR(~t_2 -> ~g      t )
     8.92992969E-02    2     1000006        25   # BR(~t_2 -> ~t_1    h )
     8.66357470E-04    2     1000006        35   # BR(~t_2 -> ~t_1    H )
     8.70141979E-04    2     1000006        36   # BR(~t_2 -> ~t_1    A )
     1.73564597E-03    2     1000005        37   # BR(~t_2 -> ~b_1    H+)
     8.65071671E-02    2     1000006        23   # BR(~t_2 -> ~t_1    Z )
     1.67949787E-01    2     1000005        24   # BR(~t_2 -> ~b_1    W+)
     2.75572441E-04    2     2000005        24   # BR(~t_2 -> ~b_2    W+)
#
#         PDG            Width
DECAY   1000005     1.10914352E+01   # sbottom1 decays
#          BR         NDA      ID1       ID2
     2.23370560E-01    2     1000022         5   # BR(~b_1 -> ~chi_10 b )
     2.17176805E-01    2     1000023         5   # BR(~b_1 -> ~chi_20 b )
     4.01109049E-03    2     1000025         5   # BR(~b_1 -> ~chi_30 b )
     5.55441545E-01    2    -1000024         6   # BR(~b_1 -> ~chi_1- t )
#
#         PDG            Width
DECAY   2000005     2.58675372E+01   # sbottom2 decays
#          BR         NDA      ID1       ID2
     2.22211593E-01    2     1000022         5   # BR(~b_2 -> ~chi_10 b )
     2.25021140E-01    2     1000023         5   # BR(~b_2 -> ~chi_20 b )
     2.61186509E-02    2     1000025         5   # BR(~b_2 -> ~chi_30 b )
     4.41325949E-01    2    -1000024         6   # BR(~b_2 -> ~chi_1- t )
     2.19843638E-02    2     1000005        25   # BR(~b_2 -> ~b_1    h )
     2.14058916E-02    2     1000005        23   # BR(~b_2 -> ~b_1    Z )
     4.19324125E-02    2     1000006       -24   # BR(~b_2 -> ~t_1    W-)
#
#         PDG            Width
DECAY   1000002     5.93114736E-02   # sup_L decays
#          BR         NDA      ID1       ID2
     4.30662345E-05    2     1000022         2   # BR(~u_L -> ~chi_10 u)
     8.41343843E-03    2     1000023         2   # BR(~u_L -> ~chi_20 u)
     7.92572742E-01    2     1000025         2   # BR(~u_L -> ~chi_30 u)
     1.98970753E-01    2     1000024         1   # BR(~u_L -> ~chi_1+ d)
#
#         PDG            Width
DECAY   2000002     2.85507980E-03   # sup_R decays
#          BR         NDA      ID1       ID2
     9.79650610E-01    2     1000022         2   # BR(~u_R -> ~chi_10 u)
     2.03493898E-02    2     1000023         2   # BR(~u_R -> ~chi_20 u)
#
#         PDG            Width
DECAY   1000001     5.26433064E-02   # sdown_L decays
#          BR         NDA      ID1       ID2
     1.69636591E-01    2     1000022         1   # BR(~d_L -> ~chi_10 d)
     2.66379934E-02    2     1000023         1   # BR(~d_L -> ~chi_20 d)
     7.92553138E-01    2     1000025         1   # BR(~d_L -> ~chi_30 d)
     1.11722777E-02    2    -1000024         2   # BR(~d_L -> ~chi_1- u)
#
#         PDG            Width
DECAY   2000001     3.46907878E-01   # sdown_R decays
#          BR         NDA      ID1       ID2
     3.78476445E-02    2     1000022         1   # BR(~d_R -> ~chi_10 d)
     9.32935719E-04    2     1000023         1   # BR(~d_R -> ~chi_20 d)
     9.61219420E-01    2     1000025         1   # BR(~d_R -> ~chi_30 d)
#
#         PDG            Width
DECAY   1000004     5.69104346E-02   # scharm_L decays
#          BR         NDA      ID1       ID2
     4.32478461E-05    2     1000022         4   # BR(~c_L -> ~chi_10 c)
     8.44793477E-03    2     1000023         4   # BR(~c_L -> ~chi_20 c)
     7.91714805E-01    2     1000025         4   # BR(~c_L -> ~chi_30 c)
     1.99794012E-01    2     1000024         3   # BR(~c_L -> ~chi_1+ s)
#
#         PDG            Width
DECAY   2000004     2.62480341E-03   # scharm_R decays
#          BR         NDA      ID1       ID2
     9.79707442E-01    2     1000022         4   # BR(~c_R -> ~chi_10 c)
     2.02925582E-02    2     1000023         4   # BR(~c_R -> ~chi_20 c)
#
#         PDG            Width
DECAY   1000003     5.05249017E-02   # sstrange_L decays
#          BR         NDA      ID1       ID2
     1.70338537E-01    2     1000022         3   # BR(~s_L -> ~chi_10 s)
     2.67451448E-02    2     1000023         3   # BR(~s_L -> ~chi_20 s)
     7.91698839E-01    2     1000025         3   # BR(~s_L -> ~chi_30 s)
     1.12174795E-02    2    -1000024         4   # BR(~s_L -> ~chi_1- c)
#
#         PDG            Width
DECAY   2000003     3.36713271E-01   # sstrange_R decays
#          BR         NDA      ID1       ID2
     3.79393290E-02    2     1000022         3   # BR(~s_R -> ~chi_10 s)
     9.35131678E-04    2     1000023         3   # BR(~s_R -> ~chi_20 s)
     9.61125539E-01    2     1000025         3   # BR(~s_R -> ~chi_30 s)
#
#         PDG            Width
DECAY   1000011     5.49920752E-01   # selectron_L decays
#          BR         NDA      ID1       ID2
     1.98034417E-02    2     1000022        11   # BR(~e_L -> ~chi_10 e-)
     1.13507654E-04    2     1000023        11   # BR(~e_L -> ~chi_20 e-)
     9.78859602E-01    2     1000025        11   # BR(~e_L -> ~chi_30 e-)
     1.22344822E-03    2    -1000024        12   # BR(~e_L -> ~chi_1- nu_e)
#
#         PDG            Width
DECAY   2000011     9.42423989E+00   # selectron_R decays
#          BR         NDA      ID1       ID2
     2.83304795E-02    2     1000022        11   # BR(~e_R -> ~chi_10 e-)
     7.04973493E-04    2     1000023        11   # BR(~e_R -> ~chi_20 e-)
     9.70964547E-01    2     1000025        11   # BR(~e_R -> ~chi_30 e-)
#
#         PDG            Width
DECAY   1000013     5.49920725E-01   # smuon_L decays
#          BR         NDA      ID1       ID2
     1.98034421E-02    2     1000022        13   # BR(~mu_L -> ~chi_10 mu-)
     1.13507656E-04    2     1000023        13   # BR(~mu_L -> ~chi_20 mu-)
     9.78859602E-01    2     1000025        13   # BR(~mu_L -> ~chi_30 mu-)
     1.22344828E-03    2    -1000024        14   # BR(~mu_L -> ~chi_1- nu_mu)
#
#         PDG            Width
DECAY   2000013     9.42423984E+00   # smuon_R decays
#          BR         NDA      ID1       ID2
     2.83304795E-02    2     1000022        13   # BR(~mu_R -> ~chi_10 mu-)
     7.04973493E-04    2     1000023        13   # BR(~mu_R -> ~chi_20 mu-)
     9.70964547E-01    2     1000025        13   # BR(~mu_R -> ~chi_30 mu-)
#
#         PDG            Width
DECAY   1000015     4.04766740E-01   # stau_1 decays
#          BR         NDA      ID1       ID2
     5.42196366E-01    2     1000022        15   # BR(~tau_1 -> ~chi_10  tau-)
     4.52591809E-01    2     1000023        15   # BR(~tau_1 -> ~chi_20  tau-)
     5.21182521E-03    2    -1000024        16   # BR(~tau_1 -> ~chi_1-  nu_tau)
#
#         PDG            Width
DECAY   2000015     1.87444060E+01   # stau_2 decays
#          BR         NDA      ID1       ID2
     1.79648974E-01    2     1000022        15   # BR(~tau_2 -> ~chi_10  tau-)
     1.76768416E-01    2     1000023        15   # BR(~tau_2 -> ~chi_20  tau-)
     1.30122821E-01    2     1000025        15   # BR(~tau_2 -> ~chi_30  tau-)
     3.52851102E-01    2    -1000024        16   # BR(~tau_2 -> ~chi_1-  nu_tau)
     7.76850285E-02    2     1000016       -24   # BR(~tau_2 -> ~nu_tauL W-)
     4.38013314E-02    2     1000015        25   # BR(~tau_2 -> ~tau_1   h)
     3.91223265E-02    2     1000015        23   # BR(~tau_2 -> ~tau_1   Z)
#
#         PDG            Width
DECAY   1000012     5.67653800E-01   # snu_eL decays
#          BR         NDA      ID1       ID2
     7.25864430E-02    2     1000022        12   # BR(~nu_eL -> ~chi_10 nu_e)
     5.52244742E-03    2     1000023        12   # BR(~nu_eL -> ~chi_20 nu_e)
     8.98086543E-01    2     1000025        12   # BR(~nu_eL -> ~chi_30 nu_e)
     2.38045666E-02    2     1000024        11   # BR(~nu_eL -> ~chi_1+ e-)
#
#         PDG            Width
DECAY   1000014     5.67653800E-01   # snu_muL decays
#          BR         NDA      ID1       ID2
     7.25864431E-02    2     1000022        14   # BR(~nu_muL -> ~chi_10 nu_mu)
     5.52244743E-03    2     1000023        14   # BR(~nu_muL -> ~chi_20 nu_mu)
     8.98086544E-01    2     1000025        14   # BR(~nu_muL -> ~chi_30 nu_mu)
     2.38045659E-02    2     1000024        13   # BR(~nu_muL -> ~chi_1+ mu-)
#
#         PDG            Width
DECAY   1000016     3.71878880E-01   # snu_tauL decays
#          BR         NDA      ID1       ID2
     7.48718056E-03    2     1000022        16   # BR(~nu_tauL -> ~chi_10 nu_tau)
     4.86120356E-04    2     1000023        16   # BR(~nu_tauL -> ~chi_20 nu_tau)
     9.92026699E-01    2     1000024        15   # BR(~nu_tauL -> ~chi_1+ tau-)
#
#         PDG            Width
DECAY   1000024     9.66475997E-09   # chargino1+ decays
#           BR         NDA      ID1       ID2       ID3
     3.45809600E-01    3     1000022         2        -1   # BR(~chi_1+ -> ~chi_10 u    db)
     3.45809600E-01    3     1000022         4        -3   # BR(~chi_1+ -> ~chi_10 c    sb)
     1.15273368E-01    3     1000022       -11        12   # BR(~chi_1+ -> ~chi_10 e+   nu_e)
     1.15273368E-01    3     1000022       -13        14   # BR(~chi_1+ -> ~chi_10 mu+  nu_mu)
     7.78340644E-02    3     1000022       -15        16   # BR(~chi_1+ -> ~chi_10 tau+ nu_tau)
#
#         PDG            Width
DECAY   1000037     1.80317476E+02   # chargino2+ decays
#          BR         NDA      ID1       ID2
     1.08598134E-01    2     1000002        -1   # BR(~chi_2+ -> ~u_L     db)
     1.08563478E-01    2    -1000001         2   # BR(~chi_2+ -> ~d_L*    u )
     1.08598133E-01    2     1000004        -3   # BR(~chi_2+ -> ~c_L     sb)
     1.08563453E-01    2    -1000003         4   # BR(~chi_2+ -> ~s_L*     c )
     1.14739128E-01    2     1000006        -5   # BR(~chi_2+ -> ~t_1     bb)
     1.11948878E-01    2    -1000005         6   # BR(~chi_2+ -> ~b_1*    t )
     1.93182545E-04    2    -2000005         6   # BR(~chi_2+ -> ~b_2*    t )
     3.38638997E-02    2     1000012       -11   # BR(~chi_2+ -> ~nu_eL   e+  )
     3.38638997E-02    2     1000014       -13   # BR(~chi_2+ -> ~nu_muL mu+ )
     4.77441089E-02    2     1000016       -15   # BR(~chi_2+ -> ~nu_tau1 tau+)
     3.38395217E-02    2    -1000011        12   # BR(~chi_2+ -> ~e_L+    nu_e)
     3.38395217E-02    2    -1000013        14   # BR(~chi_2+ -> ~mu_L+   nu_mu)
     4.75436885E-02    2    -1000015        16   # BR(~chi_2+ -> ~tau_1+  nu_tau)
     1.83075140E-04    2    -2000015        16   # BR(~chi_2+ -> ~tau_2+  nu_tau)
     2.74604312E-02    2     1000024        23   # BR(~chi_2+ -> ~chi_1+  Z )
     2.54676737E-02    2     1000022        24   # BR(~chi_2+ -> ~chi_10  W+)
     2.67461241E-02    2     1000023        24   # BR(~chi_2+ -> ~chi_20  W+)
     1.21376324E-03    2     1000025        24   # BR(~chi_2+ -> ~chi_30  W+)
     2.70299063E-02    2     1000024        25   # BR(~chi_2+ -> ~chi_1+  h )
#
#         PDG            Width
DECAY   1000022     0.00000000E+00   # neutralino1 decays
#
#         PDG            Width
DECAY   1000023     3.04595085E-08   # neutralino2 decays
#          BR         NDA      ID1       ID2
     4.65636821E-02    2     1000022        22   # BR(~chi_20 -> ~chi_10 gam)
#           BR         NDA      ID1       ID2       ID3
     1.31602588E-01    3     1000022        -2         2   # BR(~chi_20 -> ~chi_10 ub      u)
     1.70722521E-01    3     1000022        -1         1   # BR(~chi_20 -> ~chi_10 db      d)
     1.31602588E-01    3     1000022        -4         4   # BR(~chi_20 -> ~chi_10 cb      c)
     1.70722521E-01    3     1000022        -3         3   # BR(~chi_20 -> ~chi_10 sb      s)
     3.91800114E-02    3     1000022       -11        11   # BR(~chi_20 -> ~chi_10 e+      e-)
     3.91800114E-02    3     1000022       -13        13   # BR(~chi_20 -> ~chi_10 mu+     mu-)
     3.32069855E-02    3     1000022       -15        15   # BR(~chi_20 -> ~chi_10 tau+    tau-)
     7.83361933E-02    3     1000022       -12        12   # BR(~chi_20 -> ~chi_10 nu_eb   nu_e)
     7.83361933E-02    3     1000022       -14        14   # BR(~chi_20 -> ~chi_10 nu_mub  nu_mu)
     7.83762365E-02    3     1000022       -16        16   # BR(~chi_20 -> ~chi_10 nu_taub nu_tau)
     4.06847525E-04    3     1000024        -2         1   # BR(~chi_20 -> ~chi_1+ ub      d)
     4.06847525E-04    3    -1000024        -1         2   # BR(~chi_20 -> ~chi_1- db      u)
     4.06847525E-04    3     1000024        -4         3   # BR(~chi_20 -> ~chi_1+ cb      s)
     4.06847525E-04    3    -1000024        -3         4   # BR(~chi_20 -> ~chi_1- sb      c)
     1.35616824E-04    3     1000024       -12        11   # BR(~chi_20 -> ~chi_1+ nu_eb   e-)
     1.35616824E-04    3    -1000024        12       -11   # BR(~chi_20 -> ~chi_1- nu_e    e+)
     1.35616824E-04    3     1000024       -14        13   # BR(~chi_20 -> ~chi_1+ nu_mub  mu-)
     1.35616824E-04    3    -1000024        14       -13   # BR(~chi_20 -> ~chi_1- nu_mu   mu+)
     3.06011444E-07    3     1000024       -16        15   # BR(~chi_20 -> ~chi_1+ nu_taub tau-)
     3.06011444E-07    3    -1000024        16       -15   # BR(~chi_20 -> ~chi_1- nu_tau  tau+)
#
#         PDG            Width
DECAY   1000025     1.79818692E+00   # neutralino3 decays
#          BR         NDA      ID1       ID2
     4.43590981E-03    2     1000022        23   # BR(~chi_30 -> ~chi_10   Z )
     9.85191405E-02    2     1000023        23   # BR(~chi_30 -> ~chi_20   Z )
     1.14534967E-01    2     1000024       -24   # BR(~chi_30 -> ~chi_1+   W-)
     1.14534967E-01    2    -1000024        24   # BR(~chi_30 -> ~chi_1-   W+)
     1.14503750E-01    2     1000022        25   # BR(~chi_30 -> ~chi_10   h )
     1.45365429E-03    2     1000023        25   # BR(~chi_30 -> ~chi_20   h )
     1.18910348E-01    2     2000002        -2   # BR(~chi_30 -> ~u_R      ub)
     1.18910348E-01    2    -2000002         2   # BR(~chi_30 -> ~u_R*     u )
     1.18900207E-01    2     2000004        -4   # BR(~chi_30 -> ~c_R      cb)
     1.18900207E-01    2    -2000004         4   # BR(~chi_30 -> ~c_R*     c )
     1.96063612E-02    2     1000015       -15   # BR(~chi_30 -> ~tau_1-   tau+)
     1.96063612E-02    2    -1000015        15   # BR(~chi_30 -> ~tau_1+   tau-)
     1.85918893E-02    2     1000016       -16   # BR(~chi_30 -> ~nu_tau1  nu_taub)
     1.85918893E-02    2    -1000016        16   # BR(~chi_30 -> ~nu_tau1* nu_tau )
#
#         PDG            Width
DECAY   1000035     1.80293298E+02   # neutralino4 decays
#          BR         NDA      ID1       ID2
     7.60795878E-03    2     1000022        23   # BR(~chi_40 -> ~chi_10   Z )
     1.95715051E-02    2     1000023        23   # BR(~chi_40 -> ~chi_20   Z )
     2.78748615E-04    2     1000025        23   # BR(~chi_40 -> ~chi_30   Z )
     2.67280616E-02    2     1000024       -24   # BR(~chi_40 -> ~chi_1+   W-)
     2.67280616E-02    2    -1000024        24   # BR(~chi_40 -> ~chi_1-   W+)
     1.82840480E-02    2     1000022        25   # BR(~chi_40 -> ~chi_10   h )
     7.77491657E-03    2     1000023        25   # BR(~chi_40 -> ~chi_20   h )
     9.35103755E-04    2     1000025        25   # BR(~chi_40 -> ~chi_30   h )
     5.43431336E-02    2     1000002        -2   # BR(~chi_40 -> ~u_L      ub)
     5.43431336E-02    2    -1000002         2   # BR(~chi_40 -> ~u_L*     u )
     3.51973882E-08    2     2000002        -2   # BR(~chi_40 -> ~u_R      ub)
     3.51973882E-08    2    -2000002         2   # BR(~chi_40 -> ~u_R*     u )
     5.42389065E-02    2     1000001        -1   # BR(~chi_40 -> ~d_L      db)
     5.42389065E-02    2    -1000001         1   # BR(~chi_40 -> ~d_L*     d )
     5.51286418E-09    2     2000001        -1   # BR(~chi_40 -> ~d_R      db)
     5.51286418E-09    2    -2000001         1   # BR(~chi_40 -> ~d_R*     d )
     5.43431209E-02    2     1000004        -4   # BR(~chi_40 -> ~c_L      cb)
     5.43431209E-02    2    -1000004         4   # BR(~chi_40 -> ~c_L*     c )
     3.51973862E-08    2     2000004        -4   # BR(~chi_40 -> ~c_R      cb)
     3.51973862E-08    2    -2000004         4   # BR(~chi_40 -> ~c_R*     c )
     5.42389065E-02    2     1000003        -3   # BR(~chi_40 -> ~s _L      sb)
     5.42389065E-02    2    -1000003         3   # BR(~chi_40 -> ~s _L*     s )
     5.51286418E-09    2     2000003        -3   # BR(~chi_40 -> ~s _R      sb)
     5.51286418E-09    2    -2000003         3   # BR(~chi_40 -> ~s _R*     s )
     5.62499604E-02    2     1000006        -6   # BR(~chi_40 -> ~t_1      tb)
     5.62499604E-02    2    -1000006         6   # BR(~chi_40 -> ~t_1*     t )
     5.70907922E-02    2     1000005        -5   # BR(~chi_40 -> ~b_1      bb)
     5.70907922E-02    2    -1000005         5   # BR(~chi_40 -> ~b_1*     b )
     9.99467665E-05    2     2000005        -5   # BR(~chi_40 -> ~b_2      bb)
     9.99467665E-05    2    -2000005         5   # BR(~chi_40 -> ~b_2*     b )
     1.68823083E-02    2     1000011       -11   # BR(~chi_40 -> ~e_L-     e+)
     1.68823083E-02    2    -1000011        11   # BR(~chi_40 -> ~e_L+     e-)
     8.53487538E-10    2     2000011       -11   # BR(~chi_40 -> ~e_R-     e+)
     8.53487538E-10    2    -2000011        11   # BR(~chi_40 -> ~e_R+     e-)
     1.68823083E-02    2     1000013       -13   # BR(~chi_40 -> ~mu_L-    mu+)
     1.68823083E-02    2    -1000013        13   # BR(~chi_40 -> ~mu_L+    mu-)
     8.53487538E-10    2     2000013       -13   # BR(~chi_40 -> ~mu_R-    mu+)
     8.53487538E-10    2    -2000013        13   # BR(~chi_40 -> ~mu_R+    mu-)
     2.37227474E-02    2     1000015       -15   # BR(~chi_40 -> ~tau_1-   tau+)
     2.37227474E-02    2    -1000015        15   # BR(~chi_40 -> ~tau_1+   tau-)
     9.14087296E-05    2     2000015       -15   # BR(~chi_40 -> ~tau_2-   tau+)
     9.14087296E-05    2    -2000015        15   # BR(~chi_40 -> ~tau_2+   tau-)
     1.69692537E-02    2     1000012       -12   # BR(~chi_40 -> ~nu_eL    nu_eb)
     1.69692537E-02    2    -1000012        12   # BR(~chi_40 -> ~nu_eL*   nu_e )
     1.69692537E-02    2     1000014       -14   # BR(~chi_40 -> ~nu_muL   nu_mub)
     1.69692537E-02    2    -1000014        14   # BR(~chi_40 -> ~nu_muL*  nu_mu )
     2.39236678E-02    2     1000016       -16   # BR(~chi_40 -> ~nu_tau1  nu_taub)
     2.39236678E-02    2    -1000016        16   # BR(~chi_40 -> ~nu_tau1* nu_tau )
#
#         PDG            Width
DECAY        25     5.05655579E-03   # h decays
#          BR         NDA      ID1       ID2
     6.24520773E-01    2           5        -5   # BR(h -> b       bb     )
     5.24550241E-02    2         -15        15   # BR(h -> tau+    tau-   )
     1.85703401E-04    2         -13        13   # BR(h -> mu+     mu-    )
     2.01783521E-04    2           3        -3   # BR(h -> s       sb     )
     1.73845822E-02    2           4        -4   # BR(h -> c       cb     )
     6.63001785E-02    2          21        21   # BR(h -> g       g      )
     2.00047109E-03    2          22        22   # BR(h -> gam     gam    )
     1.48576585E-03    2          22        23   # BR(h -> Z       gam    )
     2.08583616E-01    2          24       -24   # BR(h -> W+      W-     )
     2.68821018E-02    2          23        23   # BR(h -> Z       Z      )
#
#         PDG            Width
DECAY        35     1.88700173E+02   # H decays
#          BR         NDA      ID1       ID2
     4.62374517E-01    2           5        -5   # BR(H -> b       bb     )
     8.51517335E-02    2         -15        15   # BR(H -> tau+    tau-   )
     3.17278544E-04    2         -13        13   # BR(H -> mu+     mu-    )
     1.46569369E-04    2           3        -3   # BR(H -> s       sb     )
     1.67569002E-09    2           4        -4   # BR(H -> c       cb     )
     1.64105706E-04    2           6        -6   # BR(H -> t       tb     )
     6.89844194E-06    2          21        21   # BR(H -> g       g      )
     3.76130658E-09    2          22        22   # BR(H -> gam     gam    )
     7.71642322E-09    2          23        22   # BR(H -> Z       gam    )
     1.66108555E-07    2          24       -24   # BR(H -> W+      W-     )
     8.28372218E-08    2          23        23   # BR(H -> Z       Z      )
     4.36465915E-07    2          25        25   # BR(H -> h       h      )
     2.25355695E-04    2     1000024  -1000024   # BR(H -> ~chi_1+ ~chi_1-)
     5.96731567E-04    2     1000022   1000022   # BR(H -> ~chi_10 ~chi_10)
     5.15788801E-05    2     1000023   1000023   # BR(H -> ~chi_20 ~chi_20)
     1.76408195E-04    2     1000025   1000025   # BR(H -> ~chi_30 ~chi_30)
     1.97387080E-04    2     1000022   1000023   # BR(H -> ~chi_10 ~chi_20)
     5.16234226E-03    2     1000022   1000025   # BR(H -> ~chi_10 ~chi_30)
     7.46495409E-03    2     1000023   1000025   # BR(H -> ~chi_20 ~chi_30)
     5.01091423E-08    2     1000002  -1000002   # BR(H -> ~u_L    ~u_L*  )
     1.25295723E-08    2     2000002  -2000002   # BR(H -> ~u_R    ~u_R*  )
     5.01091423E-08    2     1000004  -1000004   # BR(H -> ~c_L    ~c_L*  )
     1.25295723E-08    2     2000004  -2000004   # BR(H -> ~c_R    ~c_R*  )
     3.94919689E-05    2     1000006  -1000006   # BR(H -> ~t_1    ~t_1*  )
     7.31910657E-08    2     1000001  -1000001   # BR(H -> ~d_L    ~d_L*  )
     1.34037628E-09    2     2000001  -2000001   # BR(H -> ~d_R    ~d_R*  )
     7.31910657E-08    2     1000003  -1000003   # BR(H -> ~s_L    ~s_L*  )
     1.34037628E-09    2     2000003  -2000003   # BR(H -> ~s_R    ~s_R*  )
     2.57231397E-03    2     1000005  -1000005   # BR(H -> ~b_1    ~b_1*  )
     1.61886204E-01    2     1000005  -2000005   # BR(H -> ~b_1    ~b_2*  )
     1.61886204E-01    2     2000005  -1000005   # BR(H -> ~b_2    ~b_1*  )
     8.95153514E-09    2     1000011  -1000011   # BR(H -> ~e_L-   ~e_L+  )
     8.95153514E-09    2     1000013  -1000013   # BR(H -> ~mu_L-  ~mu_L+ )
     1.07982658E-03    2     1000015  -1000015   # BR(H -> ~tau_1- ~tau_1+)
     6.18376211E-04    2     2000015  -2000015   # BR(H -> ~tau_2- ~tau_2+)
     5.49403133E-02    2     1000015  -2000015   # BR(H -> ~tau_1- ~tau_2+)
     5.49403133E-02    2     2000015  -1000015   # BR(H -> ~tau_2- ~tau_1+)
     2.93041945E-08    2     1000012  -1000012   # BR(H -> ~nu_eL  ~nu_eL*   )
     2.93041945E-08    2     1000014  -1000014   # BR(H -> ~nu_muL ~nu_muL*  )
     4.72507306E-08    2     1000016  -1000016   # BR(H -> ~nu_tauL ~nu_tauL*)
#
#         PDG            Width
DECAY        36     1.88802444E+02   # A decays
#          BR         NDA      ID1       ID2
     4.62232056E-01    2           5        -5   # BR(A -> b       bb     )
     8.51002325E-02    2         -15        15   # BR(A -> tau+    tau-   )
     3.17086047E-04    2         -13        13   # BR(A -> mu+     mu-    )
     1.46484806E-04    2           3        -3   # BR(A -> s       sb     )
     1.67555634E-09    2           4        -4   # BR(A -> c       cb     )
     1.64485879E-04    2           6        -6   # BR(A -> t       tb     )
     1.89252598E-05    2          21        21   # BR(A -> g       g      )
     1.50008317E-08    2          22        22   # BR(A -> gam     gam    )
     1.20046700E-08    2          23        22   # BR(A -> Z       gam    )
     1.67946406E-07    2          23        25   # BR(A -> Z       h      )
     2.66338881E-04    2     1000024  -1000024   # BR(A -> ~chi_1+ ~chi_1-)
     7.39793628E-04    2     1000022   1000022   # BR(A -> ~chi_10 ~chi_10)
     5.61742869E-05    2     1000023   1000023   # BR(A -> ~chi_20 ~chi_20)
     2.64336983E-04    2     1000025   1000025   # BR(A -> ~chi_30 ~chi_30)
     1.50219780E-04    2     1000022   1000023   # BR(A -> ~chi_10 ~chi_20)
     6.83502464E-03    2     1000022   1000025   # BR(A -> ~chi_10 ~chi_30)
     5.60613965E-03    2     1000023   1000025   # BR(A -> ~chi_20 ~chi_30)
     1.63238349E-01    2     1000005  -2000005   # BR(A -> ~b_1    ~b_2*  )
     1.63238349E-01    2    -1000005   2000005   # BR(A -> ~b_1*   ~b_2   )
     5.58129035E-02    2     1000015  -2000015   # BR(A -> ~tau_1- ~tau_2+)
     5.58129035E-02    2    -1000015   2000015   # BR(A -> ~tau_1+ ~tau_2-)
#
#         PDG            Width
DECAY        37     3.69530485E+02   # H+ decays
#          BR         NDA      ID1       ID2
     2.69188907E-04    2           4        -5   # BR(H+ -> c       bb     )
     4.34983298E-02    2         -15        16   # BR(H+ -> tau+    nu_tau )
     1.62076096E-04    2         -13        14   # BR(H+ -> mu+     nu_mu  )
     2.69188499E-06    2           2        -5   # BR(H+ -> u       bb     )
     3.74273579E-06    2           2        -3   # BR(H+ -> u       sb     )
     7.36692172E-05    2           4        -3   # BR(H+ -> c       sb     )
     1.59905315E-01    2           6        -5   # BR(H+ -> t       bb     )
     8.59881516E-08    2          24        25   # BR(H+ -> W+      h      )
     6.13156606E-15    2          24        36   # BR(H+ -> W+      A      )
     1.17949663E-04    2     1000024   1000022   # BR(H+ -> ~chi_1+ ~chi_10)
     7.14039244E-06    2     1000024   1000023   # BR(H+ -> ~chi_1+ ~chi_20)
     6.87840829E-03    2     1000024   1000025   # BR(H+ -> ~chi_1+ ~chi_30)
     1.79514486E-08    2    -1000011   1000012   # BR(H+ -> ~e_L+   ~nu_eL )
     1.79514486E-08    2    -1000013   1000014   # BR(H+ -> ~mu_L+  ~nu_muL)
     2.80538217E-04    2    -1000015   1000016   # BR(H+ -> ~tau_1+ ~nu_tauL)
     5.68374271E-02    2    -2000015   1000016   # BR(H+ -> ~tau_2+ ~nu_tauL)
     6.21591200E-08    2     1000002  -1000001   # BR(H+ -> ~u_L    ~d_L*  )
     6.21591200E-08    2     1000004  -1000003   # BR(H+ -> ~c_L    ~s_L*  )
     3.72794014E-03    2     1000006  -1000005   # BR(H+ -> ~t_1    ~b_1*  )
     7.28235336E-01    2     1000006  -2000005   # BR(H+ -> ~t_1    ~b_2*  )
