#
#                              ======================
#                              | THE SUSYHIT OUTPUT |
#                              ======================
#
#
#              ------------------------------------------------------
#              |     This is the output of the SUSY-HIT package     |
#              |  created by A.Djouadi, M.Muehlleitner and M.Spira. |
#              |  In case of problems with SUSY-HIT email to        |
#              |           margarete.muehlleitner@cern.ch           |
#              |           michael.spira@psi.ch                     |
#              |           abdelhak.djouadi@cern.ch                 |
#              ------------------------------------------------------
#
#              ------------------------------------------------------
#              |  SUSY Les Houches Accord - MSSM Spectrum + Decays  |
#              |              based on the decay programs           |
#              |                                                    |
#              |                     SDECAY 1.3b                    |
#              |                                                    |
#              |  Authors: M.Muhlleitner, A.Djouadi and Y.Mambrini  |
#              |  Ref.:    Comput.Phys.Commun.168(2005)46           |
#              |           [hep-ph/0311167]                         |
#              |                                                    |
#              |                     HDECAY 3.4                     |
#              |                                                    |
#              |  By: A.Djouadi,J.Kalinowski,M.Muhlleitner,M.Spira  |
#              |  Ref.:    Comput.Phys.Commun.108(1998)56           |
#              |           [hep-ph/9704448]                         |
#              |                                                    |
#              |                                                    |
#              |  If not stated otherwise all DRbar couplings and   |
#              |  soft SUSY breaking masses are given at the scale  |
#              |  Q=  0.16886730E+04
#              |                                                    |
#              ------------------------------------------------------
#
#
BLOCK DCINFO  # Decay Program information
     1   SDECAY/HDECAY # decay calculator
     2   1.3b  /3.4    # version number
#
BLOCK SPINFO  # Spectrum calculator information
     1     SOFTSUSY    # spectrum calculator               
     2     3.4.0       # version number                    
#
BLOCK MODSEL  # Model selection
     1     0   #  nonUniversal                                     
#
BLOCK SMINPUTS  # Standard Model inputs
         1     1.27908970E+02   # alpha_em^-1(M_Z)^MSbar
         2     1.16637870E-05   # G_F [GeV^-2]
         3     1.18400000E-01   # alpha_S(M_Z)^MSbar
         4     9.11876000E+01   # M_Z pole mass
         5     4.18000000E+00   # mb(mb)^MSbar
         6     1.73200000E+02   # mt pole mass
         7     1.77700000E+00   # mtau pole mass
#
BLOCK MINPAR  # Input parameters - minimal models
         3     2.86700000E+01   # tanb                
#
BLOCK EXTPAR  # Input parameters - non-minimal models
         0    -1.00000000E+00   # Set                 
         1    -7.82950000E+02   # M_1(MX)             
         2    -3.49589000E+03   # M_2(MX)             
         3     1.34020000E+03   # M_3(MX)             
        11     3.09866000E+03   # At(MX)              
        12     2.37284000E+03   # Ab(MX)              
        13    -1.50882000E+03   # Atau(MX)            
        23    -4.85730000E+02   # mu(MX)              
        26     3.45939000E+03   # mA(pole)            
        31     9.72690000E+02   # meL(MX)             
        32     9.72690000E+02   # mmuL(MX)            
        33     2.65553000E+03   # mtauL(MX)           
        34     3.23770000E+03   # meR(MX)             
        35     3.23770000E+03   # mmuR(MX)            
        36     2.03109000E+03   # mtauR(MX)           
        41     2.02363000E+03   # mqL1(MX)            
        42     2.02363000E+03   # mqL2(MX)            
        43     8.76220000E+02   # mqL3(MX)            
        44     2.25206000E+03   # muR(MX)             
        45     2.25206000E+03   # mcR(MX)             
        46     3.25312000E+03   # mtR(MX)             
        47     4.27030000E+02   # mdR(MX)             
        48     4.27030000E+02   # msR(MX)             
        49     2.26497000E+03   # mbR(MX)             
#
BLOCK MASS  # Mass Spectrum
# PDG code           mass       particle
        24     8.04117597E+01   # W+
        25     1.25976438E+02   # h
        35     3.45939892E+03   # H
        36     3.45938990E+03   # A
        37     3.46059230E+03   # H+
         5     4.81876030E+00   # b-quark pole mass calculated from mb(mb)_Msbar
   1000001     2.06245620E+03   # ~d_L
   2000001     5.42296334E+02   # ~d_R
   1000002     2.06108671E+03   # ~u_L
   2000002     2.28613480E+03   # ~u_R
   1000003     2.06245620E+03   # ~s_L
   2000003     5.42296334E+02   # ~s_R
   1000004     2.06108671E+03   # ~c_L
   2000004     2.28613480E+03   # ~c_R
   1000005     9.56979223E+02   # ~b_1
   2000005     2.29693885E+03   # ~b_2
   1000006     9.55695436E+02   # ~t_1
   2000006     3.26417231E+03   # ~t_2
   1000011     9.62376458E+02   # ~e_L
   2000011     3.23980375E+03   # ~e_R
   1000012     9.58808875E+02   # ~nu_eL
   1000013     9.62376458E+02   # ~mu_L
   2000013     3.23980375E+03   # ~mu_R
   1000014     9.58808875E+02   # ~nu_muL
   1000015     2.03264548E+03   # ~tau_1
   2000015     2.66224733E+03   # ~tau_2
   1000016     2.66071083E+03   # ~nu_tauL
   1000021     1.46088573E+03   # ~g
   1000022    -4.99820430E+02   # ~chi_10
   1000023     5.06477676E+02   # ~chi_20
   1000025    -7.84406203E+02   # ~chi_30
   1000035    -3.45665124E+03   # ~chi_40
   1000024     5.04714378E+02   # ~chi_1+
   1000037     3.45681555E+03   # ~chi_2+
#
BLOCK NMIX  # Neutralino Mixing Matrix
  1  1    -1.11915065E-01   # N_11
  1  2     1.97894091E-02   # N_12
  1  3     7.05725739E-01   # N_13
  1  4    -6.99310073E-01   # N_14
  2  1     2.28445086E-02   # N_21
  2  2    -1.39434839E-02   # N_22
  2  3     7.05640843E-01   # N_23
  2  4     7.08064057E-01   # N_24
  3  1     9.93455074E-01   # N_31
  3  2     2.95623993E-03   # N_32
  3  3     6.32737033E-02   # N_33
  3  4    -9.50511205E-02   # N_34
  4  1    -4.03746603E-04   # N_41
  4  2     9.99702565E-01   # N_42
  4  3    -4.31513940E-03   # N_43
  4  4     2.39999452E-02   # N_44
#
BLOCK UMIX  # Chargino Mixing Matrix U
  1  1     6.10585108E-03   # U_11
  1  2     9.99981359E-01   # U_12
  2  1    -9.99981359E-01   # U_21
  2  2     6.10585108E-03   # U_22
#
BLOCK VMIX  # Chargino Mixing Matrix V
  1  1    -3.39566323E-02   # V_11
  1  2    -9.99423307E-01   # V_12
  2  1     9.99423307E-01   # V_21
  2  2    -3.39566323E-02   # V_22
#
BLOCK STOPMIX  # Stop Mixing Matrix
  1  1     9.98956923E-01   # cos(theta_t)
  1  2    -4.56625228E-02   # sin(theta_t)
  2  1     4.56625228E-02   # -sin(theta_t)
  2  2     9.98956923E-01   # cos(theta_t)
#
BLOCK SBOTMIX  # Sbottom Mixing Matrix
  1  1     9.99952337E-01   # cos(theta_b)
  1  2    -9.76338713E-03   # sin(theta_b)
  2  1     9.76338713E-03   # -sin(theta_b)
  2  2     9.99952337E-01   # cos(theta_b)
#
BLOCK STAUMIX  # Stau Mixing Matrix
  1  1    -7.54456512E-03   # cos(theta_tau)
  1  2     9.99971539E-01   # sin(theta_tau)
  2  1    -9.99971539E-01   # -sin(theta_tau)
  2  2    -7.54456512E-03   # cos(theta_tau)
#
BLOCK ALPHA  # Higgs mixing
          -3.59740521E-02   # Mixing angle in the neutral Higgs boson sector
#
BLOCK HMIX Q=  1.68867300E+03  # DRbar Higgs Parameters
         1    -4.95490628E+02   # mu(Q)MSSM           
         2     2.78360287E+01   # tan                 
         3     2.43727819E+02   # higgs               
         4     1.21585674E+07   # mA^2(Q)MSSM         
#
BLOCK GAUGE Q=  1.68867300E+03  # The gauge couplings
     1     3.63290863E-01   # gprime(Q) DRbar
     2     6.36898687E-01   # g(Q) DRbar
     3     1.04074722E+00   # g3(Q) DRbar
#
BLOCK AU Q=  1.68867300E+03  # The trilinear couplings
  1  1     0.00000000E+00   # A_u(Q) DRbar
  2  2     0.00000000E+00   # A_c(Q) DRbar
  3  3     3.09866000E+03   # A_t(Q) DRbar
#
BLOCK AD Q=  1.68867300E+03  # The trilinear couplings
  1  1     0.00000000E+00   # A_d(Q) DRbar
  2  2     0.00000000E+00   # A_s(Q) DRbar
  3  3     2.37284000E+03   # A_b(Q) DRbar
#
BLOCK AE Q=  1.68867300E+03  # The trilinear couplings
  1  1     0.00000000E+00   # A_e(Q) DRbar
  2  2     0.00000000E+00   # A_mu(Q) DRbar
  3  3    -1.50882000E+03   # A_tau(Q) DRbar
#
BLOCK Yu Q=  1.68867300E+03  # The Yukawa couplings
  1  1     0.00000000E+00   # y_u(Q) DRbar
  2  2     0.00000000E+00   # y_c(Q) DRbar
  3  3     8.56047298E-01   # y_t(Q) DRbar
#
BLOCK Yd Q=  1.68867300E+03  # The Yukawa couplings
  1  1     0.00000000E+00   # y_d(Q) DRbar
  2  2     0.00000000E+00   # y_s(Q) DRbar
  3  3     4.49097810E-01   # y_b(Q) DRbar
#
BLOCK Ye Q=  1.68867300E+03  # The Yukawa couplings
  1  1     0.00000000E+00   # y_e(Q) DRbar
  2  2     0.00000000E+00   # y_mu(Q) DRbar
  3  3     2.89809182E-01   # y_tau(Q) DRbar
#
BLOCK MSOFT Q=  1.68867300E+03  # The soft SUSY breaking masses at the scale Q
         1    -7.82950000E+02   # M_1(Q)              
         2    -3.49589000E+03   # M_2(Q)              
         3     1.34020000E+03   # M_3(Q)              
        21     1.17445628E+07   # mH1^2(Q)            
        22    -2.96066310E+05   # mH2^2(Q)            
        31     9.72690000E+02   # meL(Q)              
        32     9.72690000E+02   # mmuL(Q)             
        33     2.65553000E+03   # mtauL(Q)            
        34     3.23770000E+03   # meR(Q)              
        35     3.23770000E+03   # mmuR(Q)             
        36     2.03109000E+03   # mtauR(Q)            
        41     2.02363000E+03   # mqL1(Q)             
        42     2.02363000E+03   # mqL2(Q)             
        43     8.76219998E+02   # mqL3(Q)             
        44     2.25206000E+03   # muR(Q)              
        45     2.25206000E+03   # mcR(Q)              
        46     3.25312000E+03   # mtR(Q)              
        47     4.27029995E+02   # mdR(Q)              
        48     4.27029995E+02   # msR(Q)              
        49     2.26497000E+03   # mbR(Q)              
#
Block HiggsBoundsInputHiggsCouplingsFermions
# ScalarNormEffCoupSq PseudoSNormEffCoupSq NP   IP1 IP2 IP2
    1.00361247E+00    0.00000000E+00        3  25   5   5  # h0-b-b eff. coupling^2, normalised to SM
    7.74840881E+02    0.00000000E+00        3  35   5   5  # H0-b-b eff. coupling^2, normalised to SM
    0.00000000E+00    7.74844494E+02        3  36   5   5  # A0-b-b eff. coupling^2, normalised to SM
#
    9.99995338E-01    0.00000000E+00        3  25   6   6  # h0-t-t eff. coupling^2, normalised to SM
    1.29524372E-03    0.00000000E+00        3  35   6   6  # H0-t-t eff. coupling^2, normalised to SM
    0.00000000E+00    1.29058154E-03        3  36   6   6  # A0-t-t eff. coupling^2, normalised to SM
#
    1.00361247E+00    0.00000000E+00        3  25  15  15  # h0-tau-tau eff. coupling^2, normalised to SM
    7.74840881E+02    0.00000000E+00        3  35  15  15  # H0-tau-tau eff. coupling^2, normalised to SM
    0.00000000E+00    7.74844494E+02        3  36  15  15  # A0-tau-tau eff. coupling^2, normalised to SM
#
Block HiggsBoundsInputHiggsCouplingsBosons
    9.99999996E-01        3  25  24  24  # h0-W-W eff. coupling^2, normalised to SM
    4.20291959E-09        3  35  24  24  # H0-W-W eff. coupling^2, normalised to SM
    0.00000000E+00        3  36  24  24  # A0-W-W eff. coupling^2, normalised to SM
#
    9.99999996E-01        3  25  23  23  # h0-Z-Z eff. coupling^2, normalised to SM
    4.20291959E-09        3  35  23  23  # H0-Z-Z eff. coupling^2, normalised to SM
    0.00000000E+00        3  36  23  23  # A0-Z-Z eff. coupling^2, normalised to SM
#
    8.99404925E-01        3  25  21  21  # h0-g-g eff. coupling^2, normalised to SM
    1.40162875E-14        3  35  21  21  # H0-g-g eff. coupling^2, normalised to SM
    4.96966526E-13        3  36  21  21  # A0-g-g eff. coupling^2, normalised to SM
#
    0.00000000E+00        3  25  25  23  # h0-h0-Z eff. coupling^2, normalised to SM
    0.00000000E+00        3  35  25  23  # H0-h0-Z eff. coupling^2, normalised to SM
    4.20291959E-09        3  36  25  23  # A0-h0-Z eff. coupling^2, normalised to SM
    0.00000000E+00        3  35  35  23  # H0-H0-Z eff. coupling^2, normalised to SM
    9.99999996E-01        3  36  35  23  # A0-H0-Z eff. coupling^2, normalised to SM
    0.00000000E+00        3  36  36  23  # A0-A0-Z eff. coupling^2, normalised to SM
#
    0.00000000E+00        4  25  21  21  23  # h0-g-g-Z eff. coupling^2, normalised to SM
    0.00000000E+00        4  35  21  21  23  # H0-g-g-Z eff. coupling^2, normalised to SM
    0.00000000E+00        4  36  21  21  23  # A0-g-g-Z eff. coupling^2, normalised to SM
#
#
#
#                             =================
#                             |The decay table|
#                             =================
#
# - The QCD corrections to the decays gluino -> squark  + quark
#                                     squark -> gaugino + quark_prime
#                                     squark -> squark_prime + Higgs
#                                     squark -> gluino  + quark
#   are included.
#
# - The multi-body decays for the inos, stops and sbottoms are included.
#
# - The loop induced decays for the gluino, neutralinos and stops
#   are included.
#
# - The SUSY decays of the top quark are included.
#
#
#         PDG            Width
DECAY         6     1.42763461E+00   # top decays
#          BR         NDA      ID1       ID2
     1.00000000E+00    2           5        24   # BR(t ->  b    W+)
#
#         PDG            Width
DECAY   1000021     6.35521763E+01   # gluino decays
#          BR         NDA      ID1       ID2
     1.69060957E-01    2     2000001        -1   # BR(~g -> ~d_R  db)
     1.69060957E-01    2    -2000001         1   # BR(~g -> ~d_R* d )
     1.69060957E-01    2     2000003        -3   # BR(~g -> ~s_R  sb)
     1.69060957E-01    2    -2000003         3   # BR(~g -> ~s_R* s )
     8.09829458E-02    2     1000005        -5   # BR(~g -> ~b_1  bb)
     8.09829458E-02    2    -1000005         5   # BR(~g -> ~b_1* b )
     8.08951396E-02    2     1000006        -6   # BR(~g -> ~t_1  tb)
     8.08951396E-02    2    -1000006         6   # BR(~g -> ~t_1* t )
#
#         PDG            Width
DECAY   1000006     8.37458251E+00   # stop1 decays
#          BR         NDA      ID1       ID2
     3.69535702E-01    2     1000022         6   # BR(~t_1 -> ~chi_10 t )
     3.89024006E-01    2     1000023         6   # BR(~t_1 -> ~chi_20 t )
     2.41440293E-01    2     1000024         5   # BR(~t_1 -> ~chi_1+ b )
#
#         PDG            Width
DECAY   2000006     2.88186285E+02   # stop2 decays
#          BR         NDA      ID1       ID2
     7.63847773E-02    2     1000022         6   # BR(~t_2 -> ~chi_10 t )
     7.81676408E-02    2     1000023         6   # BR(~t_2 -> ~chi_20 t )
     2.49502302E-02    2     1000025         6   # BR(~t_2 -> ~chi_30 t )
     1.56550117E-01    2     1000024         5   # BR(~t_2 -> ~chi_1+ b )
     4.14819863E-01    2     1000021         6   # BR(~t_2 -> ~g      t )
     6.79811322E-02    2     1000006        25   # BR(~t_2 -> ~t_1    h )
     6.15242762E-02    2     1000006        23   # BR(~t_2 -> ~t_1    Z )
     1.19620058E-01    2     1000005        24   # BR(~t_2 -> ~b_1    W+)
     1.90526040E-06    2     2000005        24   # BR(~t_2 -> ~b_2    W+)
#
#         PDG            Width
DECAY   1000005     8.34668644E+00   # sbottom1 decays
#          BR         NDA      ID1       ID2
     1.21732927E-01    2     1000022         5   # BR(~b_1 -> ~chi_10 b )
     1.18667461E-01    2     1000023         5   # BR(~b_1 -> ~chi_20 b )
     1.91309874E-03    2     1000025         5   # BR(~b_1 -> ~chi_30 b )
     7.57686512E-01    2    -1000024         6   # BR(~b_1 -> ~chi_1- t )
#
#         PDG            Width
DECAY   2000005     6.53105287E+01   # sbottom2 decays
#          BR         NDA      ID1       ID2
     6.38630697E-02    2     1000022         5   # BR(~b_2 -> ~chi_10 b )
     6.36533450E-02    2     1000023         5   # BR(~b_2 -> ~chi_20 b )
     1.63298187E-02    2     1000025         5   # BR(~b_2 -> ~chi_30 b )
     1.26388436E-01    2    -1000024         6   # BR(~b_2 -> ~chi_1- t )
     7.16680958E-01    2     1000021         5   # BR(~b_2 -> ~g      b )
     3.71247171E-03    2     1000005        25   # BR(~b_2 -> ~b_1    h )
     3.18391541E-03    2     1000005        23   # BR(~b_2 -> ~b_1    Z )
     6.18798516E-03    2     1000006       -24   # BR(~b_2 -> ~t_1    W-)
#
#         PDG            Width
DECAY   1000002     4.03959374E+01   # sup_L decays
#          BR         NDA      ID1       ID2
     3.87271707E-07    2     1000022         2   # BR(~u_L -> ~chi_10 u)
     1.60317839E-05    2     1000023         2   # BR(~u_L -> ~chi_20 u)
     5.31713719E-03    2     1000025         2   # BR(~u_L -> ~chi_30 u)
     4.01518464E-04    2     1000024         1   # BR(~u_L -> ~chi_1+ d)
     9.94264925E-01    2     1000021         2   # BR(~u_L -> ~g      u)
#
#         PDG            Width
DECAY   2000002     6.69812170E+01   # sup_R decays
#          BR         NDA      ID1       ID2
     8.67967734E-04    2     1000022         2   # BR(~u_R -> ~chi_10 u)
     3.60695608E-05    2     1000023         2   # BR(~u_R -> ~chi_20 u)
     5.88380739E-02    2     1000025         2   # BR(~u_R -> ~chi_30 u)
     9.40257889E-01    2     1000021         2   # BR(~u_R -> ~g      u)
#
#         PDG            Width
DECAY   1000001     4.05155221E+01   # sdown_L decays
#          BR         NDA      ID1       ID2
     2.93748727E-04    2     1000022         1   # BR(~d_L -> ~chi_10 d)
     5.80520858E-05    2     1000023         1   # BR(~d_L -> ~chi_20 d)
     4.98532414E-03    2     1000025         1   # BR(~d_L -> ~chi_30 d)
     1.29549067E-05    2    -1000024         2   # BR(~d_L -> ~chi_1- u)
     9.94649920E-01    2     1000021         1   # BR(~d_L -> ~g      d)
#
#         PDG            Width
DECAY   2000001     1.00024963E-04   # sdown_R decays
#          BR         NDA      ID1       ID2
     9.70684885E-01    2     1000022         1   # BR(~d_R -> ~chi_10 d)
     2.93151150E-02    2     1000023         1   # BR(~d_R -> ~chi_20 d)
#
#         PDG            Width
DECAY   1000004     2.95682232E+01   # scharm_L decays
#          BR         NDA      ID1       ID2
     5.52850503E-07    2     1000022         4   # BR(~c_L -> ~chi_10 c)
     2.28848419E-05    2     1000023         4   # BR(~c_L -> ~chi_20 c)
     7.57035730E-03    2     1000025         4   # BR(~c_L -> ~chi_30 c)
     5.73164119E-04    2     1000024         3   # BR(~c_L -> ~chi_1+ s)
     9.91833041E-01    2     1000021         4   # BR(~c_L -> ~g      c)
#
#         PDG            Width
DECAY   2000004     5.01481854E+01   # scharm_R decays
#          BR         NDA      ID1       ID2
     1.20827768E-03    2     1000022         4   # BR(~c_R -> ~chi_10 c)
     5.02091955E-05    2     1000023         4   # BR(~c_R -> ~chi_20 c)
     8.17400143E-02    2     1000025         4   # BR(~c_R -> ~chi_30 c)
     9.17001499E-01    2     1000021         4   # BR(~c_R -> ~g      c)
#
#         PDG            Width
DECAY   1000003     2.96510236E+01   # sstrange_L decays
#          BR         NDA      ID1       ID2
     4.19401990E-04    2     1000022         3   # BR(~s_L -> ~chi_10 s)
     8.28793785E-05    2     1000023         3   # BR(~s_L -> ~chi_20 s)
     7.09898798E-03    2     1000025         3   # BR(~s_L -> ~chi_30 s)
     1.84956447E-05    2    -1000024         4   # BR(~s_L -> ~chi_1- c)
     9.92380235E-01    2     1000021         3   # BR(~s_L -> ~g      s)
#
#         PDG            Width
DECAY   2000003     9.24810404E-05   # sstrange_R decays
#          BR         NDA      ID1       ID2
     9.70865339E-01    2     1000022         3   # BR(~s_R -> ~chi_10 s)
     2.91346606E-02    2     1000023         3   # BR(~s_R -> ~chi_20 s)
#
#         PDG            Width
DECAY   1000011     1.46130611E-01   # selectron_L decays
#          BR         NDA      ID1       ID2
     2.74947640E-02    2     1000022        11   # BR(~e_L -> ~chi_10 e-)
     1.15756754E-05    2     1000023        11   # BR(~e_L -> ~chi_20 e-)
     9.71452324E-01    2     1000025        11   # BR(~e_L -> ~chi_30 e-)
     1.04133620E-03    2    -1000024        12   # BR(~e_L -> ~chi_1- nu_e)
#
#         PDG            Width
DECAY   2000011     1.50919092E+01   # selectron_R decays
#          BR         NDA      ID1       ID2
     1.34554323E-02    2     1000022        11   # BR(~e_R -> ~chi_10 e-)
     5.59907293E-04    2     1000023        11   # BR(~e_R -> ~chi_20 e-)
     9.85984660E-01    2     1000025        11   # BR(~e_R -> ~chi_30 e-)
#
#         PDG            Width
DECAY   1000013     1.46130580E-01   # smuon_L decays
#          BR         NDA      ID1       ID2
     2.74947685E-02    2     1000022        13   # BR(~mu_L -> ~chi_10 mu-)
     1.15756773E-05    2     1000023        13   # BR(~mu_L -> ~chi_20 mu-)
     9.71452319E-01    2     1000025        13   # BR(~mu_L -> ~chi_30 mu-)
     1.04133641E-03    2    -1000024        14   # BR(~mu_L -> ~chi_1- nu_mu)
#
#         PDG            Width
DECAY   2000013     1.50919091E+01   # smuon_R decays
#          BR         NDA      ID1       ID2
     1.34554323E-02    2     1000022        13   # BR(~mu_R -> ~chi_10 mu-)
     5.59907293E-04    2     1000023        13   # BR(~mu_R -> ~chi_20 mu-)
     9.85984660E-01    2     1000025        13   # BR(~mu_R -> ~chi_30 mu-)
#
#         PDG            Width
DECAY   1000015     1.37355838E+01   # stau_1 decays
#          BR         NDA      ID1       ID2
     1.17573857E-01    2     1000022        15   # BR(~tau_1 -> ~chi_10  tau-)
     1.08562799E-01    2     1000023        15   # BR(~tau_1 -> ~chi_20  tau-)
     5.56121910E-01    2     1000025        15   # BR(~tau_1 -> ~chi_30  tau-)
     2.17741434E-01    2    -1000024        16   # BR(~tau_1 -> ~chi_1-  nu_tau)
#
#         PDG            Width
DECAY   2000015     7.10944401E+00   # stau_2 decays
#          BR         NDA      ID1       ID2
     2.91987805E-01    2     1000022        15   # BR(~tau_2 -> ~chi_10  tau-)
     2.89669747E-01    2     1000023        15   # BR(~tau_2 -> ~chi_20  tau-)
     4.11406904E-01    2     1000025        15   # BR(~tau_2 -> ~chi_30  tau-)
     2.00631316E-05    2    -1000024        16   # BR(~tau_2 -> ~chi_1-  nu_tau)
     3.50389955E-03    2     1000015        25   # BR(~tau_2 -> ~tau_1   h)
     3.41158119E-03    2     1000015        23   # BR(~tau_2 -> ~tau_1   Z)
#
#         PDG            Width
DECAY   1000012     1.54929005E-01   # snu_eL decays
#          BR         NDA      ID1       ID2
     9.26173967E-02    2     1000022        12   # BR(~nu_eL -> ~chi_10 nu_e)
     9.44419807E-03    2     1000023        12   # BR(~nu_eL -> ~chi_20 nu_e)
     8.67844196E-01    2     1000025        12   # BR(~nu_eL -> ~chi_30 nu_e)
     3.00942094E-02    2     1000024        11   # BR(~nu_eL -> ~chi_1+ e-)
#
#         PDG            Width
DECAY   1000014     1.54929005E-01   # snu_muL decays
#          BR         NDA      ID1       ID2
     9.26173969E-02    2     1000022        14   # BR(~nu_muL -> ~chi_10 nu_mu)
     9.44419809E-03    2     1000023        14   # BR(~nu_muL -> ~chi_20 nu_mu)
     8.67844197E-01    2     1000025        14   # BR(~nu_muL -> ~chi_30 nu_mu)
     3.00942081E-02    2     1000024        13   # BR(~nu_muL -> ~chi_1+ mu-)
#
#         PDG            Width
DECAY   1000016     7.12290302E+00   # snu_tauL decays
#          BR         NDA      ID1       ID2
     9.80987925E-03    2     1000022        16   # BR(~nu_tauL -> ~chi_10 nu_tau)
     1.01863575E-03    2     1000023        16   # BR(~nu_tauL -> ~chi_20 nu_tau)
     3.99325469E-01    2     1000025        16   # BR(~nu_tauL -> ~chi_30 nu_tau)
     5.83234104E-01    2     1000024        15   # BR(~nu_tauL -> ~chi_1+ tau-)
     6.61191179E-03    2    -1000015       -24   # BR(~nu_tauL -> ~tau_1+ W-)
#
#         PDG            Width
DECAY   1000024     3.09055823E-09   # chargino1+ decays
#           BR         NDA      ID1       ID2       ID3
     3.51609638E-01    3     1000022         2        -1   # BR(~chi_1+ -> ~chi_10 u    db)
     3.51609638E-01    3     1000022         4        -3   # BR(~chi_1+ -> ~chi_10 c    sb)
     1.17206066E-01    3     1000022       -11        12   # BR(~chi_1+ -> ~chi_10 e+   nu_e)
     1.17206066E-01    3     1000022       -13        14   # BR(~chi_1+ -> ~chi_10 mu+  nu_mu)
     6.23685910E-02    3     1000022       -15        16   # BR(~chi_1+ -> ~chi_10 tau+ nu_tau)
#
#         PDG            Width
DECAY   1000037     2.19186861E+02   # chargino2+ decays
#          BR         NDA      ID1       ID2
     7.69176104E-02    2     1000002        -1   # BR(~chi_2+ -> ~u_L     db)
     7.68915398E-02    2    -1000001         2   # BR(~chi_2+ -> ~d_L*    u )
     7.69176086E-02    2     1000004        -3   # BR(~chi_2+ -> ~c_L     sb)
     7.68915106E-02    2    -1000003         4   # BR(~chi_2+ -> ~s_L*     c )
     1.61634377E-01    2     1000006        -5   # BR(~chi_2+ -> ~t_1     bb)
     1.86460398E-05    2     2000006        -5   # BR(~chi_2+ -> ~t_2     bb)
     1.61388492E-01    2    -1000005         6   # BR(~chi_2+ -> ~b_1*    t )
     1.15794767E-05    2    -2000005         6   # BR(~chi_2+ -> ~b_2*    t )
     5.41586847E-02    2     1000012       -11   # BR(~chi_2+ -> ~nu_eL   e+  )
     5.41586847E-02    2     1000014       -13   # BR(~chi_2+ -> ~nu_muL mu+ )
     1.05580864E-02    2     1000016       -15   # BR(~chi_2+ -> ~nu_tau1 tau+)
     5.41518226E-02    2    -1000011        12   # BR(~chi_2+ -> ~e_L+    nu_e)
     5.41518226E-02    2    -1000013        14   # BR(~chi_2+ -> ~mu_L+   nu_mu)
     6.18750679E-07    2    -1000015        16   # BR(~chi_2+ -> ~tau_1+  nu_tau)
     1.05343375E-02    2    -2000015        16   # BR(~chi_2+ -> ~tau_2+  nu_tau)
     3.37652271E-02    2     1000024        23   # BR(~chi_2+ -> ~chi_1+  Z )
     3.19183965E-02    2     1000022        24   # BR(~chi_2+ -> ~chi_10  W+)
     3.28368038E-02    2     1000023        24   # BR(~chi_2+ -> ~chi_20  W+)
     7.67465148E-04    2     1000025        24   # BR(~chi_2+ -> ~chi_30  W+)
     3.23266863E-02    2     1000024        25   # BR(~chi_2+ -> ~chi_1+  h )
#
#         PDG            Width
DECAY   1000022     0.00000000E+00   # neutralino1 decays
#
#         PDG            Width
DECAY   1000023     1.11959955E-08   # neutralino2 decays
#          BR         NDA      ID1       ID2
     4.22952305E-02    2     1000022        22   # BR(~chi_20 -> ~chi_10 gam)
#           BR         NDA      ID1       ID2       ID3
     1.33556243E-01    3     1000022        -2         2   # BR(~chi_20 -> ~chi_10 ub      u)
     1.73312663E-01    3     1000022        -1         1   # BR(~chi_20 -> ~chi_10 db      d)
     1.33556243E-01    3     1000022        -4         4   # BR(~chi_20 -> ~chi_10 cb      c)
     1.73312663E-01    3     1000022        -3         3   # BR(~chi_20 -> ~chi_10 sb      s)
     3.97873963E-02    3     1000022       -11        11   # BR(~chi_20 -> ~chi_10 e+      e-)
     3.97873963E-02    3     1000022       -13        13   # BR(~chi_20 -> ~chi_10 mu+     mu-)
     2.37355238E-02    3     1000022       -15        15   # BR(~chi_20 -> ~chi_10 tau+    tau-)
     7.95525586E-02    3     1000022       -12        12   # BR(~chi_20 -> ~chi_10 nu_eb   nu_e)
     7.95525586E-02    3     1000022       -14        14   # BR(~chi_20 -> ~chi_10 nu_mub  nu_mu)
     7.95494920E-02    3     1000022       -16        16   # BR(~chi_20 -> ~chi_10 nu_taub nu_tau)
     6.00607407E-04    3     1000024        -2         1   # BR(~chi_20 -> ~chi_1+ ub      d)
     6.00607407E-04    3    -1000024        -1         2   # BR(~chi_20 -> ~chi_1- db      u)
     2.00204185E-04    3     1000024       -12        11   # BR(~chi_20 -> ~chi_1+ nu_eb   e-)
     2.00204185E-04    3    -1000024        12       -11   # BR(~chi_20 -> ~chi_1- nu_e    e+)
     2.00204185E-04    3     1000024       -14        13   # BR(~chi_20 -> ~chi_1+ nu_mub  mu-)
     2.00204185E-04    3    -1000024        14       -13   # BR(~chi_20 -> ~chi_1- nu_mu   mu+)
#
#         PDG            Width
DECAY   1000025     2.17463916E+00   # neutralino3 decays
#          BR         NDA      ID1       ID2
     8.06649246E-03    2     1000022        23   # BR(~chi_30 -> ~chi_10   Z )
     1.50594817E-01    2     1000023        23   # BR(~chi_30 -> ~chi_20   Z )
     1.62390797E-01    2     1000024       -24   # BR(~chi_30 -> ~chi_1+   W-)
     1.62390797E-01    2    -1000024        24   # BR(~chi_30 -> ~chi_1-   W+)
     1.63940889E-01    2     1000022        25   # BR(~chi_30 -> ~chi_10   h )
     5.47799556E-03    2     1000023        25   # BR(~chi_30 -> ~chi_20   h )
     8.67845534E-02    2     2000001        -1   # BR(~chi_30 -> ~d_R      db)
     8.67845534E-02    2    -2000001         1   # BR(~chi_30 -> ~d_R*     d )
     8.67845534E-02    2     2000003        -3   # BR(~chi_30 -> ~s _R      sb)
     8.67845534E-02    2    -2000003         3   # BR(~chi_30 -> ~s _R*     s )
#
#         PDG            Width
DECAY   1000035     2.19178661E+02   # neutralino4 decays
#          BR         NDA      ID1       ID2
     1.07408488E-02    2     1000022        23   # BR(~chi_40 -> ~chi_10   Z )
     2.27832734E-02    2     1000023        23   # BR(~chi_40 -> ~chi_20   Z )
     2.08749160E-04    2     1000025        23   # BR(~chi_40 -> ~chi_30   Z )
     3.28243509E-02    2     1000024       -24   # BR(~chi_40 -> ~chi_1+   W-)
     3.28243509E-02    2    -1000024        24   # BR(~chi_40 -> ~chi_1-   W+)
     2.12335836E-02    2     1000022        25   # BR(~chi_40 -> ~chi_10   h )
     1.04999671E-02    2     1000023        25   # BR(~chi_40 -> ~chi_20   h )
     5.57043142E-04    2     1000025        25   # BR(~chi_40 -> ~chi_30   h )
     3.84699939E-02    2     1000002        -2   # BR(~chi_40 -> ~u_L      ub)
     3.84699939E-02    2    -1000002         2   # BR(~chi_40 -> ~u_L*     u )
     2.77286071E-09    2     2000002        -2   # BR(~chi_40 -> ~u_R      ub)
     2.77286071E-09    2    -2000002         2   # BR(~chi_40 -> ~u_R*     u )
     3.84258368E-02    2     1000001        -1   # BR(~chi_40 -> ~d_L      db)
     3.84258368E-02    2    -1000001         1   # BR(~chi_40 -> ~d_L*     d )
     2.06859935E-09    2     2000001        -1   # BR(~chi_40 -> ~d_R      db)
     2.06859935E-09    2    -2000001         1   # BR(~chi_40 -> ~d_R*     d )
     3.84699794E-02    2     1000004        -4   # BR(~chi_40 -> ~c_L      cb)
     3.84699794E-02    2    -1000004         4   # BR(~chi_40 -> ~c_L*     c )
     2.77285902E-09    2     2000004        -4   # BR(~chi_40 -> ~c_R      cb)
     2.77285902E-09    2    -2000004         4   # BR(~chi_40 -> ~c_R*     c )
     3.84258368E-02    2     1000003        -3   # BR(~chi_40 -> ~s _L      sb)
     3.84258368E-02    2    -1000003         3   # BR(~chi_40 -> ~s _L*     s )
     2.06859935E-09    2     2000003        -3   # BR(~chi_40 -> ~s _R      sb)
     2.06859935E-09    2    -2000003         3   # BR(~chi_40 -> ~s _R*     s )
     8.01808277E-02    2     1000006        -6   # BR(~chi_40 -> ~t_1      tb)
     8.01808277E-02    2    -1000006         6   # BR(~chi_40 -> ~t_1*     t )
     3.95984482E-06    2     2000006        -6   # BR(~chi_40 -> ~t_2      tb)
     3.95984482E-06    2    -2000006         6   # BR(~chi_40 -> ~t_2*     t )
     8.13302594E-02    2     1000005        -5   # BR(~chi_40 -> ~b_1      bb)
     8.13302594E-02    2    -1000005         5   # BR(~chi_40 -> ~b_1*     b )
     5.88832559E-06    2     2000005        -5   # BR(~chi_40 -> ~b_2      bb)
     5.88832559E-06    2    -2000005         5   # BR(~chi_40 -> ~b_2*     b )
     2.70476435E-02    2     1000011       -11   # BR(~chi_40 -> ~e_L-     e+)
     2.70476435E-02    2    -1000011        11   # BR(~chi_40 -> ~e_L+     e-)
     9.96989546E-11    2     2000011       -11   # BR(~chi_40 -> ~e_R-     e+)
     9.96989546E-11    2    -2000011        11   # BR(~chi_40 -> ~e_R+     e-)
     2.70476435E-02    2     1000013       -13   # BR(~chi_40 -> ~mu_L-    mu+)
     2.70476435E-02    2    -1000013        13   # BR(~chi_40 -> ~mu_L+    mu-)
     9.96989546E-11    2     2000013       -13   # BR(~chi_40 -> ~mu_R-    mu+)
     9.96989546E-11    2    -2000013        13   # BR(~chi_40 -> ~mu_R+    mu-)
     3.11760385E-07    2     1000015       -15   # BR(~chi_40 -> ~tau_1-   tau+)
     3.11760385E-07    2    -1000015        15   # BR(~chi_40 -> ~tau_1+   tau-)
     5.26025220E-03    2     2000015       -15   # BR(~chi_40 -> ~tau_2-   tau+)
     5.26025220E-03    2    -2000015        15   # BR(~chi_40 -> ~tau_2+   tau-)
     2.71062582E-02    2     1000012       -12   # BR(~chi_40 -> ~nu_eL    nu_eb)
     2.71062582E-02    2    -1000012        12   # BR(~chi_40 -> ~nu_eL*   nu_e )
     2.71062582E-02    2     1000014       -14   # BR(~chi_40 -> ~nu_muL   nu_mub)
     2.71062582E-02    2    -1000014        14   # BR(~chi_40 -> ~nu_muL*  nu_mu )
     5.28295688E-03    2     1000016       -16   # BR(~chi_40 -> ~nu_tau1  nu_taub)
     5.28295688E-03    2    -1000016        16   # BR(~chi_40 -> ~nu_tau1* nu_tau )
#
#         PDG            Width
DECAY        25     3.98575217E-03   # h decays
#          BR         NDA      ID1       ID2
     5.62070980E-01    2           5        -5   # BR(h -> b       bb     )
     6.56588242E-02    2         -15        15   # BR(h -> tau+    tau-   )
     2.32393472E-04    2         -13        13   # BR(h -> mu+     mu-    )
     2.53415622E-04    2           3        -3   # BR(h -> s       sb     )
     2.18962050E-02    2           4        -4   # BR(h -> c       cb     )
     8.24101221E-02    2          21        21   # BR(h -> g       g      )
     2.43790270E-03    2          22        22   # BR(h -> gam     gam    )
     1.70980279E-03    2          22        23   # BR(h -> Z       gam    )
     2.33627364E-01    2          24       -24   # BR(h -> W+      W-     )
     2.97029896E-02    2          23        23   # BR(h -> Z       Z      )
#
#         PDG            Width
DECAY        35     5.04399738E+01   # H decays
#          BR         NDA      ID1       ID2
     6.85304697E-01    2           5        -5   # BR(H -> b       bb     )
     1.06939737E-01    2         -15        15   # BR(H -> tau+    tau-   )
     3.68740223E-04    2         -13        13   # BR(H -> mu+     mu-    )
     2.95006207E-04    2           3        -3   # BR(H -> s       sb     )
     3.57764752E-08    2           4        -4   # BR(H -> c       cb     )
     3.52546636E-03    2           6        -6   # BR(H -> t       tb     )
     3.70098309E-06    2          21        21   # BR(H -> g       g      )
     1.72865355E-08    2          22        22   # BR(H -> gam     gam    )
     3.12745285E-09    2          23        22   # BR(H -> Z       gam    )
     1.10967748E-06    2          24       -24   # BR(H -> W+      W-     )
     5.53786353E-07    2          23        23   # BR(H -> Z       Z      )
     4.14029665E-06    2          25        25   # BR(H -> h       h      )
     5.78994032E-04    2     1000024  -1000024   # BR(H -> ~chi_1+ ~chi_1-)
     1.49835474E-03    2     1000022   1000022   # BR(H -> ~chi_10 ~chi_10)
     1.85912391E-04    2     1000023   1000023   # BR(H -> ~chi_20 ~chi_20)
     4.11535922E-04    2     1000025   1000025   # BR(H -> ~chi_30 ~chi_30)
     4.54408354E-04    2     1000022   1000023   # BR(H -> ~chi_10 ~chi_20)
     2.91919137E-02    2     1000022   1000025   # BR(H -> ~chi_10 ~chi_30)
     4.01709767E-02    2     1000023   1000025   # BR(H -> ~chi_20 ~chi_30)
     1.71952329E-04    2     1000006  -1000006   # BR(H -> ~t_1    ~t_1*  )
     4.19972960E-08    2     2000001  -2000001   # BR(H -> ~d_R    ~d_R*  )
     4.19972960E-08    2     2000003  -2000003   # BR(H -> ~s_R    ~s_R*  )
     5.75882507E-05    2     1000005  -1000005   # BR(H -> ~b_1    ~b_1*  )
     6.54168060E-02    2     1000005  -2000005   # BR(H -> ~b_1    ~b_2*  )
     6.54168060E-02    2     2000005  -1000005   # BR(H -> ~b_2    ~b_1*  )
     1.71824185E-07    2     1000011  -1000011   # BR(H -> ~e_L-   ~e_L+  )
     1.71824185E-07    2     1000013  -1000013   # BR(H -> ~mu_L-  ~mu_L+ )
     5.58266188E-07    2     1000012  -1000012   # BR(H -> ~nu_eL  ~nu_eL*   )
     5.58266188E-07    2     1000014  -1000014   # BR(H -> ~nu_muL ~nu_muL*  )
#
#         PDG            Width
DECAY        36     5.04378760E+01   # A decays
#          BR         NDA      ID1       ID2
     6.85348598E-01    2           5        -5   # BR(A -> b       bb     )
     1.06944525E-01    2         -15        15   # BR(A -> tau+    tau-   )
     3.68756366E-04    2         -13        13   # BR(A -> mu+     mu-    )
     2.95045759E-04    2           3        -3   # BR(A -> s       sb     )
     3.59799492E-08    2           4        -4   # BR(A -> c       cb     )
     3.53552860E-03    2           6        -6   # BR(A -> t       tb     )
     2.20382752E-05    2          21        21   # BR(A -> g       g      )
     3.90937495E-08    2          22        22   # BR(A -> gam     gam    )
     1.84710935E-08    2          23        22   # BR(A -> Z       gam    )
     1.12522518E-06    2          23        25   # BR(A -> Z       h      )
     6.49479752E-04    2     1000024  -1000024   # BR(A -> ~chi_1+ ~chi_1-)
     1.88549472E-03    2     1000022   1000022   # BR(A -> ~chi_10 ~chi_10)
     1.76016539E-04    2     1000023   1000023   # BR(A -> ~chi_20 ~chi_20)
     6.43203320E-04    2     1000025   1000025   # BR(A -> ~chi_30 ~chi_30)
     3.12781204E-04    2     1000022   1000023   # BR(A -> ~chi_10 ~chi_20)
     3.87449957E-02    2     1000022   1000025   # BR(A -> ~chi_10 ~chi_30)
     3.01726016E-02    2     1000023   1000025   # BR(A -> ~chi_20 ~chi_30)
     6.54498583E-02    2     1000005  -2000005   # BR(A -> ~b_1    ~b_2*  )
     6.54498583E-02    2    -1000005   2000005   # BR(A -> ~b_1*   ~b_2   )
#
#         PDG            Width
DECAY        37     6.35671683E+01   # H+ decays
#          BR         NDA      ID1       ID2
     9.88855614E-04    2           4        -5   # BR(H+ -> c       bb     )
     8.48854789E-02    2         -15        16   # BR(H+ -> tau+    nu_tau )
     2.92694374E-04    2         -13        14   # BR(H+ -> mu+     nu_mu  )
     9.88854689E-06    2           2        -5   # BR(H+ -> u       bb     )
     1.17152232E-05    2           2        -3   # BR(H+ -> u       sb     )
     2.30618553E-04    2           4        -3   # BR(H+ -> c       sb     )
     5.90426832E-01    2           6        -5   # BR(H+ -> t       bb     )
     8.94169961E-07    2          24        25   # BR(H+ -> W+      h      )
     5.20226667E-14    2          24        36   # BR(H+ -> W+      A      )
     4.54241246E-04    2     1000024   1000022   # BR(H+ -> ~chi_1+ ~chi_10)
     1.33734830E-05    2     1000024   1000023   # BR(H+ -> ~chi_1+ ~chi_20)
     5.67258352E-02    2     1000024   1000025   # BR(H+ -> ~chi_1+ ~chi_30)
     5.34224485E-07    2    -1000011   1000012   # BR(H+ -> ~e_L+   ~nu_eL )
     5.34224485E-07    2    -1000013   1000014   # BR(H+ -> ~mu_L+  ~nu_muL)
     1.21696872E-05    2     1000006  -1000005   # BR(H+ -> ~t_1    ~b_1*  )
     2.65946335E-01    2     1000006  -2000005   # BR(H+ -> ~t_1    ~b_2*  )
