#=====================================================================
#  ISAJET SUSY parameters in SUSY Les Houches Accord format
#   Created from isa.wig and isa.out by isa2lha.py (b.k.gjelsten@fys.uio.no)
#===================================================================== SPINFO
Block SPINFO   # Program information
     1   ISASUSY FROM ISAJET            # Spectrum Calculator
     2   V7.80   29-OCT-2009 12:50:36   # Version
#===================================================================== MODSEL
Block MODSEL   # Model selection
     1     0   # General MSSM Simulation
#===================================================================== SMINPUTS
Block SMINPUTS   # Standard Model inputs
     1     1.28040973e+02   # alpha_em^{-1}
     3     1.20000000e-01   # alpha_s(m_Z)
     6     1.72500000e+02   # m_{top}(pole)
#===================================================================== MINPAR
Block MINPAR   # SUSY breaking input parameters
     3     6.00000000e+00   # tan(beta)
#===================================================================== MASS
Block MASS   # Scalar and gaugino mass spectrum
# PDG code     mass               particle
        25     1.19702500e+02   # h
        35     1.00709420e+03   # H
        36     1.00000000e+03   # A
        37     1.00966150e+03   # H+
   1000001     3.00055370e+03   # dL
   1000002     2.99954740e+03   # uL
   1000003     3.00055370e+03   # sL
   1000004     2.99954790e+03   # cL
   1000005     2.99874150e+03   # b1
   1000006     2.83527340e+03   # t1
   1000011     3.00035110e+03   # eL
   1000012     2.99934470e+03   # snue
   1000013     3.00035110e+03   # muL
   1000014     2.99934470e+03   # snum
   1000015     3.02799400e+02   # ta1
   1000016     2.99934470e+03   # snut
   1000021     3.00000000e+03   # gl
   1000022     9.83465000e+01   # N1
   1000023     5.07216900e+02   # N2
   1000024     5.06841400e+02   # C1
   1000025    -6.02847800e+02   # N3
   1000035     6.47284700e+02   # N4
   1000037     6.46952500e+02   # C2
   2000001     3.00010130e+03   # dR
   2000002     2.99979740e+03   # uR
   2000003     3.00010130e+03   # sR
   2000004     2.99979760e+03   # cR
   2000005     3.00191530e+03   # b2
   2000006     3.16127510e+03   # t2
   2000011     3.02827000e+02   # eR
   2000013     3.02827000e+02   # muR
   2000015     3.00036500e+03   # ta2
#===================================================================== ALPHA
Block ALPHA   # Effective Higgs mixing parameter
          -1.68786480e-01   # alpha_h
#===================================================================== STOPMIX
Block STOPMIX   # stop mixing matrix
  1  1     7.07377504e-01   # O_{11}
  1  2    -7.06835955e-01   # O_{12}
  2  1     7.06835955e-01   # O_{21}
  2  2     7.07377504e-01   # O_{22}
#===================================================================== SBOTMIX
Block SBOTMIX   # sbottom mixing matrix
  1  1     6.54614345e-01   # O_{11}
  1  2     7.55963001e-01   # O_{12}
  2  1    -7.55963001e-01   # O_{21}
  2  2     6.54614345e-01   # O_{22}
#===================================================================== STAUMIX
Block STAUMIX   # stau mixing matrix
  1  1    -4.32051034e-08   # O_{11}
  1  2    -1.00000000e+00   # O_{12}
  2  1     1.00000000e+00   # O_{21}
  2  2    -4.32051034e-08   # O_{22}
#===================================================================== NMIX
Block NMIX   # neutralino mixing matrix
  1  1     9.96668100e-01   # 
  1  2    -6.63907000e-03   # 
  1  3     7.73850700e-02   # 
  1  4    -2.49016000e-02   # 
  2  1    -4.76038300e-02   # 
  2  2    -8.24387490e-01   # 
  2  3     4.21939610e-01   # 
  2  4    -3.74280990e-01   # 
  3  1     3.66682700e-02   # 
  3  2    -4.06741300e-02   # 
  3  3    -7.03701620e-01   # 
  3  4    -7.08381950e-01   # 
  4  1    -5.51537300e-02   # 
  4  2     5.64523820e-01   # 
  4  3     5.66376570e-01   # 
  4  4    -5.97903910e-01   # 
#===================================================================== UMIX
Block UMIX   # chargino U mixing matrix
  1  1    -7.99997930e-01   # Umix_{11}
  1  2     6.00002770e-01   # Umix_{12}
  2  1    -6.00002770e-01   # Umix_{21}
  2  2    -7.99997930e-01   # Umix_{22}
#===================================================================== VMIX
Block VMIX   # chargino V mixing matrix
  1  1    -8.45984400e-01   # Vmix_{11}
  1  2     5.33207600e-01   # Vmix_{12}
  2  1    -5.33207600e-01   # Vmix_{21}
  2  2    -8.45984400e-01   # Vmix_{22}
#===================================================================== HMIX
Block HMIX  Q= 3.000e+03   # Higgs mixing parameters
     1     6.00000000e+02   # mu(Q)
     2     6.00000000e+00   # tan(beta)(M_{GUT})
     4     1.00000000e+06   # m_A^2(Q)
#===================================================================== MSOFT
Block MSOFT  Q=  3.000e+03   # DRbar SUSY breaking parameters
     1     1.00000000e+02   # M1
     2     5.50000000e+02   # M2
     3     3.00000000e+03   # not M3 but m(gluino) ...
    31     3.00000000e+03   # m_L1 (m_eL)
    32     3.00000000e+03   # m_L2 (m_muL)
    33     3.00000000e+03   # m_L3 (m_tauL)
    34     2.99800000e+02   # m_eR
    35     2.99800000e+02   # m_muR
    36     2.99900000e+02   # m_tauR
    41     3.00000000e+03   # m_Q1
    42     3.00000000e+03   # m_Q2
    43     3.00000000e+03   # m_Q3
    44     3.00000000e+03   # m_uR
    45     3.00000000e+03   # m_cR
    46     3.00000000e+03   # m_tR
    47     3.00000000e+03   # m_dR
    48     3.00000000e+03   # m_sR
    49     3.00000000e+03   # m_bR
#===================================================================== AU
Block AU  Q=  3.000e+03   #
  1  1     7.34850000e+03   # A_u
  2  2     7.34850000e+03   # A_c
  3  3     7.34850000e+03   # A_t
#===================================================================== AD
Block AD  Q=  3.000e+03   #
  1  1     0.00000000e+00   # A_d
  2  2     0.00000000e+00   # A_s
  3  3     0.00000000e+00   # A_b
#===================================================================== AE
Block AE  Q=  3.000e+03   #
  1  1     3.60000000e+03   # A_e
  2  2     3.60000000e+03   # A_mu
  3  3     3.60000000e+03   # A_tau
#=====================================================================
#
#----------------------------------------------------------------------
#           PDG      WIDTH     
DECAY   1000001  3.57232022e+01   # dL decays 
#          BR         NDA          ID1       ID2       ID3       ID4
      1.26336120e-02    2      1000022         1                       
      2.21972270e-01    2      1000023         1                       
      7.31268720e-04    2      1000025         1                       
      1.06129970e-01    2      1000035         1                       
      4.27090020e-01    2     -1000024         2                       
      2.31442960e-01    2     -1000037         2                       
#----------------------------------------------------------------------
#           PDG      WIDTH     
DECAY   1000002  3.57834076e+01   # uL decays 
#          BR         NDA          ID1       ID2       ID3       ID4
      1.09010840e-02    2      1000022         2                       
      2.31096400e-01    2      1000023         2                       
      3.74640280e-04    2      1000025         2                       
      9.85927880e-02    2      1000035         2                       
      4.76631020e-01    2      1000024         1                       
      1.82404150e-01    2      1000037         1                       
#----------------------------------------------------------------------
#           PDG      WIDTH     
DECAY   1000003  3.57232022e+01   # sL decays 
#          BR         NDA          ID1       ID2       ID3       ID4
      1.26336150e-02    2      1000022         3                       
      2.21972320e-01    2      1000023         3                       
      7.31268840e-04    2      1000025         3                       
      1.06130000e-01    2      1000035         3                       
      4.27089930e-01    2     -1000024         4                       
      2.31442900e-01    2     -1000037         4                       
#----------------------------------------------------------------------
#           PDG      WIDTH     
DECAY   1000004  3.57834076e+01   # cL decays 
#          BR         NDA          ID1       ID2       ID3       ID4
      1.09010800e-02    2      1000022         4                       
      2.31096330e-01    2      1000023         4                       
      3.74640250e-04    2      1000025         4                       
      9.85927510e-02    2      1000035         4                       
      4.76631080e-01    2      1000024         3                       
      1.82404180e-01    2      1000037         3                       
#----------------------------------------------------------------------
#           PDG      WIDTH     
DECAY   1000005  3.42313293e+01   # b1 decays 
#          BR         NDA          ID1       ID2       ID3       ID4
      3.68656630e-02    2      1000022         5                       
      1.24633540e-01    2      1000023         5                       
      4.10503940e-03    2      1000025         5                       
      2.96038500e-02    2      1000035         5                       
      3.53069600e-01    2     -1000024         6                       
      3.65221260e-01    2     -1000037         6                       
      8.65011220e-02    2          -24   1000006                       
#----------------------------------------------------------------------
#           PDG      WIDTH     
DECAY   1000006  6.62426280e+01   # t1 decays 
#          BR         NDA          ID1       ID2       ID3       ID4
      4.63307800e-02    2      1000022         6                       
      4.05055550e-02    2      1000023         6                       
      2.18327760e-01    2      1000025         6                       
      2.95554310e-01    2      1000035         6                       
      8.32783620e-03    2      1000024         5                       
      3.90953840e-01    2      1000037         5                       
#----------------------------------------------------------------------
#           PDG      WIDTH     
DECAY   2000001  1.69094412e+00   # dR decays 
#          BR         NDA          ID1       ID2       ID3       ID4
      9.93841890e-01    2      1000022         1                       
      2.14409830e-03    2      1000023         1                       
      1.24145640e-03    2      1000025         1                       
      2.77265530e-03    2      1000035         1                       
#----------------------------------------------------------------------
#           PDG      WIDTH     
DECAY   2000002  6.76318575e+00   # uR decays 
#          BR         NDA          ID1       ID2       ID3       ID4
      9.93841830e-01    2      1000022         2                       
      2.14407310e-03    2      1000023         2                       
      1.24143540e-03    2      1000025         2                       
      2.77260090e-03    2      1000035         2                       
#----------------------------------------------------------------------
#           PDG      WIDTH     
DECAY   2000003  1.69094412e+00   # sR decays 
#          BR         NDA          ID1       ID2       ID3       ID4
      9.93841890e-01    2      1000022         3                       
      2.14409830e-03    2      1000023         3                       
      1.24145640e-03    2      1000025         3                       
      2.77265530e-03    2      1000035         3                       
#----------------------------------------------------------------------
#           PDG      WIDTH     
DECAY   2000004  6.76318575e+00   # cR decays 
#          BR         NDA          ID1       ID2       ID3       ID4
      9.93841830e-01    2      1000022         4                       
      2.14407340e-03    2      1000023         4                       
      1.24143520e-03    2      1000025         4                       
      2.77260090e-03    2      1000035         4                       
#----------------------------------------------------------------------
#           PDG      WIDTH     
DECAY   2000005  4.51316511e+01   # b2 decays 
#          BR         NDA          ID1       ID2       ID3       ID4
      1.94026180e-02    2      1000022         5                       
      8.48890770e-02    2      1000023         5                       
      7.51057450e-03    2      1000025         5                       
      6.80958330e-02    2      1000035         5                       
      2.76215520e-01    2     -1000024         6                       
      4.49659590e-01    2     -1000037         6                       
      9.42267400e-02    2          -24   1000006                       
#----------------------------------------------------------------------
#           PDG      WIDTH     
DECAY   2000006  1.00502359e+02   # t2 decays 
#          BR         NDA          ID1       ID2       ID3       ID4
      2.78701990e-01    2      1000024         5                       
      3.00144310e-02    2      1000037         5                       
      1.71573400e-01    2           23   1000006                       
      2.88948750e-02    2           24   1000005                       
      3.56677990e-02    2           24   2000005                       
      4.04605870e-02    2      1000022         6                       
      1.55368040e-01    2      1000023         6                       
      1.90223800e-01    2      1000025         6                       
      6.90951940e-02    2      1000035         6                       
#----------------------------------------------------------------------
#           PDG      WIDTH     
DECAY   1000011  3.91157069e+01   # eL decays 
#          BR         NDA          ID1       ID2       ID3       ID4
      9.43448250e-02    2      1000022        11                       
      2.20410300e-01    2      1000023        11                       
      1.25197840e-04    2      1000025        11                       
      8.37611630e-02    2      1000035        11                       
      3.90010360e-01    2     -1000024        12                       
      2.11348160e-01    2     -1000037        12                       
#----------------------------------------------------------------------
#           PDG      WIDTH     
DECAY   1000012  3.91459498e+01   # snue decays 
#          BR         NDA          ID1       ID2       ID3       ID4
      9.89212240e-02    2      1000022        12                       
      1.93900630e-01    2      1000023        12                       
      1.09879920e-03    2      1000025        12                       
      1.03729780e-01    2      1000035        12                       
      4.35635150e-01    2      1000024        11                       
      1.66714400e-01    2      1000037        11                       
#----------------------------------------------------------------------
#           PDG      WIDTH     
DECAY   1000013  3.91157069e+01   # muL decays 
#          BR         NDA          ID1       ID2       ID3       ID4
      9.43448250e-02    2      1000022        13                       
      2.20410300e-01    2      1000023        13                       
      1.25197840e-04    2      1000025        13                       
      8.37611630e-02    2      1000035        13                       
      3.90010360e-01    2     -1000024        14                       
      2.11348160e-01    2     -1000037        14                       
#----------------------------------------------------------------------
#           PDG      WIDTH     
DECAY   1000014  3.91459498e+01   # snum decays 
#          BR         NDA          ID1       ID2       ID3       ID4
      9.89212240e-02    2      1000022        14                       
      1.93900630e-01    2      1000023        14                       
      1.09879920e-03    2      1000025        14                       
      1.03729780e-01    2      1000035        14                       
      4.35635150e-01    2      1000024        13                       
      1.66714400e-01    2      1000037        13                       
#----------------------------------------------------------------------
#           PDG      WIDTH     
DECAY   1000015  1.22401160e+00   # ta1 decays 
#          BR         NDA          ID1       ID2       ID3       ID4
      1.00000000e+00    2      1000022        15                       
#----------------------------------------------------------------------
#           PDG      WIDTH     
DECAY   1000016  3.96458258e+01   # snut decays 
#          BR         NDA          ID1       ID2       ID3       ID4
      9.76784900e-02    2      1000022        16                       
      1.91464680e-01    2      1000023        16                       
      1.08499510e-03    2      1000025        16                       
      1.02426630e-01    2      1000035        16                       
      4.32037680e-01    2      1000024        15                       
      1.67864530e-01    2      1000037        15                       
      7.44297400e-03    2           37   1000015                       
#----------------------------------------------------------------------
#           PDG      WIDTH     
DECAY   2000011  1.22426204e+00   # eR decays 
#          BR         NDA          ID1       ID2       ID3       ID4
      1.00000000e+00    2      1000022        11                       
#----------------------------------------------------------------------
#           PDG      WIDTH     
DECAY   2000013  1.22426204e+00   # muR decays 
#          BR         NDA          ID1       ID2       ID3       ID4
      1.00000000e+00    2      1000022        13                       
#----------------------------------------------------------------------
#           PDG      WIDTH     
DECAY   2000015  3.96148059e+01   # ta2 decays 
#          BR         NDA          ID1       ID2       ID3       ID4
      9.31908120e-02    2      1000022        15                       
      2.18564940e-01    2      1000023        15                       
      2.65951150e-03    2      1000025        15                       
      8.43351110e-02    2      1000035        15                       
      3.85102420e-01    2     -1000024        16                       
      2.08688570e-01    2     -1000037        16                       
      3.73281820e-03    2           36   1000015                       
      3.72585310e-03    2           35   1000015                       
#----------------------------------------------------------------------
#           PDG      WIDTH     
DECAY   1000021  1.83439703e+00   # gl decays 
#          BR         NDA          ID1       ID2       ID3       ID4
      1.28446500e-02    3      1000024         1        -2             
      1.28446500e-02    3     -1000024         2        -1             
      1.28446500e-02    3      1000024         3        -4             
      1.28446500e-02    3     -1000024         4        -3             
      3.35781870e-02    3      1000024         5        -6             
      3.35781870e-02    3     -1000024         6        -5             
      6.73583100e-03    3      1000037         1        -2             
      6.73583100e-03    3     -1000037         2        -1             
      6.73583100e-03    3      1000037         3        -4             
      6.73583100e-03    3     -1000037         4        -3             
      1.68148960e-01    3      1000037         5        -6             
      1.68148960e-01    3     -1000037         6        -5             
      3.17149750e-05    2      1000022        21                       
      3.89252670e-03    3      1000022         1        -1             
      3.89252670e-03    3      1000022         3        -3             
      3.85983660e-03    3      1000022         5        -5             
      3.16267650e-02    3      1000022         6        -6             
      5.26539110e-04    2      1000023        21                       
      1.47314140e-02    3      1000023         1        -1             
      1.47314140e-02    3      1000023         3        -3             
      1.49245140e-02    3      1000023         5        -5             
      3.56440800e-02    3      1000023         6        -6             
      1.15880370e-03    2      1000025        21                       
      4.10599100e-05    3      1000025         1        -1             
      4.10599100e-05    3      1000025         3        -3             
      9.97168830e-04    3      1000025         5        -5             
      1.61984180e-01    3      1000025         6        -6             
      5.48637760e-04    2      1000035        21                       
      6.95103690e-03    3      1000035         1        -1             
      6.95103690e-03    3      1000035         3        -3             
      7.53122890e-03    3      1000035         5        -5             
      2.08158020e-01    3      1000035         6        -6             
#----------------------------------------------------------------------
#           PDG      WIDTH     
DECAY   1000023  1.30476153e-01   # N2 decays 
#          BR         NDA          ID1       ID2       ID3       ID4
      1.65687740e-01    2      1000022        23                       
      7.58016710e-01    2      1000022        25                       
      9.27842590e-03    2      2000011       -11                       
      9.27842590e-03    2     -2000011        11                       
      9.27842590e-03    2      2000013       -13                       
      9.27842590e-03    2     -2000013        13                       
      1.95908750e-02    2      1000015       -15                       
      1.95908750e-02    2     -1000015        15                       
#----------------------------------------------------------------------
#           PDG      WIDTH     
DECAY   1000025  6.50523819e-01   # N3 decays 
#          BR         NDA          ID1       ID2       ID3       ID4
      1.50511580e-01    2      1000024       -24                       
      1.50511580e-01    2     -1000024        24                       
      5.19091370e-01    2      1000022        23                       
      2.42860320e-02    2      1000023        23                       
      1.26003270e-01    2      1000022        25                       
      1.77129920e-03    2      2000011       -11                       
      1.77129920e-03    2     -2000011        11                       
      1.77129920e-03    2      2000013       -13                       
      1.77129920e-03    2     -2000013        13                       
      1.12554670e-02    2      1000015       -15                       
      1.12554670e-02    2     -1000015        15                       
#----------------------------------------------------------------------
#           PDG      WIDTH     
DECAY   1000035  1.62234108e+00   # N4 decays 
#          BR         NDA          ID1       ID2       ID3       ID4
      3.82561830e-01    2      1000024       -24                       
      3.82561830e-01    2     -1000024        24                       
      4.37812510e-02    2      1000022        23                       
      1.01619260e-03    2      1000023        23                       
      1.23483440e-05    3      1000025         1        -1             
      1.23483440e-05    3      1000025         3        -3             
      1.07528040e-05    3      1000025         5        -5             
      1.30346460e-01    2      1000022        25                       
      4.27267510e-02    2      1000023        25                       
      1.88333150e-03    2      2000011       -11                       
      1.88333150e-03    2     -2000011        11                       
      1.88333150e-03    2      2000013       -13                       
      1.88333150e-03    2     -2000013        13                       
      4.71846010e-03    2      1000015       -15                       
      4.71846010e-03    2     -1000015        15                       
#----------------------------------------------------------------------
#           PDG      WIDTH     
DECAY   1000024  1.26710944e-01   # C1 decays 
#          BR         NDA          ID1       ID2       ID3       ID4
      9.78134750e-01    2      1000022        24                       
      2.18651630e-02    2     -1000015        16                       
#----------------------------------------------------------------------
#           PDG      WIDTH     
DECAY   1000037  1.48487378e+00   # C2 decays 
#          BR         NDA          ID1       ID2       ID3       ID4
      1.87854360e-01    2      1000022        24                       
      4.23409250e-01    2      1000023        24                       
      3.62280480e-05    3      1000025         2        -1             
      3.62280480e-05    3      1000025         4        -3             
      1.20757110e-05    3      1000025       -11        12             
      1.20757110e-05    3      1000025       -13        14             
      1.20757120e-05    3      1000025       -15        16             
      6.24373320e-03    2     -1000015        16                       
      3.32788320e-01    2      1000024        23                       
      4.95956650e-02    2      1000024        25                       
#----------------------------------------------------------------------
#           PDG      WIDTH     
DECAY        25  4.56322795e-03   # h decays 
#          BR         NDA          ID1       ID2       ID3       ID4
      1.96521710e-04    2           13       -13                       
      5.62126820e-02    2           15       -15                       
      2.35901310e-03    2            3        -3                       
      7.68953800e-01    2            5        -5                       
      3.34338990e-02    2            4        -4                       
      1.90743120e-03    2           22        22                       
      3.96497440e-02    2           21        21                       
      4.94376520e-03    3           24        11       -12             
      4.94376520e-03    3           24        13       -14             
      4.94376520e-03    3           24        15       -16             
      1.48312940e-02    3           24        -2         1             
      1.48312940e-02    3           24        -4         3             
      4.94376520e-03    3          -24       -11        12             
      4.94376520e-03    3          -24       -13        14             
      4.94376520e-03    3          -24       -15        16             
      1.48312940e-02    3          -24         2        -1             
      1.48312940e-02    3          -24         4        -3             
      5.67573590e-04    3           23        12       -12             
      5.67573590e-04    3           23        14       -14             
      5.67573590e-04    3           23        16       -16             
      2.85654100e-04    3           23        11       -11             
      2.85654100e-04    3           23        13       -13             
      2.85654100e-04    3           23        15       -15             
      9.78626660e-04    3           23         2        -2             
      9.78626660e-04    3           23         4        -4             
      1.26071230e-03    3           23         1        -1             
      1.26071230e-03    3           23         3        -3             
      1.26071230e-03    3           23         5        -5             
#----------------------------------------------------------------------
#           PDG      WIDTH     
DECAY        35  2.68412038e+00   # H decays 
#          BR         NDA          ID1       ID2       ID3       ID4
      9.67964370e-05    2           13       -13                       
      2.77234670e-02    2           15       -15                       
      1.13473520e-03    2            3        -3                       
      2.79811860e-01    2            5        -5                       
      1.02073770e-05    2            4        -4                       
      4.65699910e-01    2            6        -6                       
      2.45246750e-04    2           21        21                       
      1.57717220e-03    2           24       -24                       
      8.00763080e-04    2           23        23                       
      4.76162410e-03    2      1000022   1000022                       
      4.72422280e-02    2      1000022   1000023                       
      1.46317210e-01    2      1000022   1000025                       
      1.79005020e-02    2      1000022   1000035                       
      6.21416280e-03    2           25        25                       
      1.57768300e-04    2      2000011  -2000011                       
      1.57735720e-04    2      2000013  -2000013                       
      1.48583470e-04    2      1000015  -1000015                       
#----------------------------------------------------------------------
#           PDG      WIDTH     
DECAY        36  2.73805067e+00   # A decays 
#          BR         NDA          ID1       ID2       ID3       ID4
      9.43399280e-05    2           13       -13                       
      2.70202330e-02    2           15       -15                       
      1.10600260e-03    2            3        -3                       
      2.72966620e-01    2            5        -5                       
      4.82616690e-01    2            6        -6                       
      2.87213920e-04    2           21        21                       
      5.99406380e-03    2      1000022   1000022                       
      1.00686660e-01    2      1000022   1000023                       
      4.78506610e-02    2      1000022   1000025                       
      5.98910040e-02    2      1000022   1000035                       
      1.48658930e-03    2           25        23                       
#----------------------------------------------------------------------
#           PDG      WIDTH     
DECAY        37  2.53456044e+00   # H+ decays 
#          BR         NDA          ID1       ID2       ID3       ID4
      1.02895310e-04    2           14       -13                       
      2.94706110e-02    2           16       -15                       
      1.11831110e-03    2            4        -3                       
      7.28847210e-01    2            6        -5                       
      1.57477800e-01    2      1000024   1000022                       
      8.13401860e-02    2      1000037   1000022                       
      1.64290720e-03    2           25        24                       
#----------------------------------------------------------------------
#           PDG      WIDTH     
DECAY         6  1.14678979e+00   # t decays 
#          BR         NDA          ID1       ID2       ID3       ID4
      3.33333340e-01    3            2        -1         5             
      3.33333340e-01    3            4        -3         5             
      1.11111110e-01    3           12       -11         5             
      1.11111110e-01    3           14       -13         5             
      1.11111110e-01    3           16       -15         5             
