# SUSY Les Houches Accord 2 - MSSM spectrum + Decays
# SPheno v3.1.12 
# W. Porod, Comput. Phys. Commun. 153 (2003) 275-315, hep-ph/0301101
# in case of problems send email to porod@physik.uni-wuerzburg.de
# Created: 12.11.2012,  11:44
Block SPINFO         # Program information
     1   SPheno      # spectrum calculator
     2   v3.1.12     # version number
#
Block SPhenoINFO     # SPheno specific information
    1      2         # using 2-loop RGEs
    2      1         # using running masses for boundary conditions at mZ
Block MODSEL  # Model selection
    1    2    # mGMSB model
Block MINPAR  # Input parameters
    1    1.00000000E+05  # Lambda, scale of SUSY breaking
    2    2.50000000E+05  # M_M, messenger mass scale
    3    2.00000000E+01  # tanb at m_Z   
    4    1.00000000E+00  # Sign(mu)
    5    3.00000000E+00  # N_5 number of effective five-plets
    6    1.00000000E+00  # c_grav, Gravitino mass factor
Block gauge Q=  2.50000000E+05  # (GMSB scale)
   1    4.93675096E-01  # g'(Q)^DRbar
   2    6.49298289E-01  # g(Q)^DRbar
   3    9.40560105E-01  # g3(Q)^DRbar
Block SMINPUTS  # SM parameters
         1     1.27932491E+02  # alpha_em^-1(MZ)^MSbar
         2     1.16639000E-05  # G_mu [GeV^-2]
         3     1.17200000E-01  # alpha_s(MZ)^MSbar
         4     9.11876000E+01  # m_Z(pole)
         5     4.20000000E+00  # m_b(m_b), MSbar
         6     1.72500000E+02  # m_t(pole)
         7     1.77700000E+00  # m_tau(pole)
         8     0.00000000E+00  # m_nu_3
        11     5.10998910E-04  # m_e(pole)
        12     0.00000000E+00  # m_nu_1
        13     1.05658000E-01  # m_muon(pole)
        14     0.00000000E+00  # m_nu_2
        21     5.00000000E-03  # m_d(2 GeV), MSbar
        22     3.00000000E-03  # m_u(2 GeV), MSbar
        23     1.05000000E-01  # m_s(2 GeV), MSbar
        24     1.27000000E+00  # m_c(m_c), MSbar
Block gauge Q=  1.92195436E+03  # (SUSY scale)
   1    3.64466951E-01  # g'(Q)^DRbar
   2    6.39505778E-01  # g(Q)^DRbar
   3    1.02531384E+00  # g3(Q)^DRbar
Block Yu Q=  1.92195436E+03  # (SUSY scale)
  1  1     8.40533173E-06   # Y_u(Q)^DRbar
  2  2     3.55825761E-03   # Y_c(Q)^DRbar
  3  3     8.43778571E-01   # Y_t(Q)^DRbar
Block Yd Q=  1.92195436E+03  # (SUSY scale)
  1  1     2.52298566E-04   # Y_d(Q)^DRbar
  2  2     5.29826897E-03   # Y_s(Q)^DRbar
  3  3     2.51533860E-01   # Y_b(Q)^DRbar
Block Ye Q=  1.92195436E+03  # (SUSY scale)
  1  1     5.83808536E-05   # Y_e(Q)^DRbar
  2  2     1.20712890E-02   # Y_mu(Q)^DRbar
  3  3     2.03124178E-01   # Y_tau(Q)^DRbar
Block Au Q=  1.92195436E+03  # (SUSY scale)
  1  1    -6.17383095E+02   # A_u(Q)^DRbar
  2  2    -6.17381986E+02   # A_c(Q)^DRbar
  3  3    -5.81051578E+02   # A_t(Q)^DRbar
Block Ad Q=  1.92195436E+03  # (SUSY scale)
  1  1    -6.54951894E+02   # A_d(Q)^DRbar
  2  2    -6.54950239E+02   # A_s(Q)^DRbar
  3  3    -6.40214823E+02   # A_b(Q)^DRbar
Block Ae Q=  1.92195436E+03  # (SUSY scale)
  1  1    -6.85299600E+01   # A_e(Q)^DRbar
  2  2    -6.85289268E+01   # A_mu(Q)^DRbar
  3  3    -6.82375823E+01   # A_tau(Q)^DRbar
Block MSOFT Q=  1.92195436E+03  # soft SUSY breaking masses at Q
   1    4.29705494E+02  # M_1
   2    7.91005530E+02  # M_2
   3    2.04276143E+03  # M_3
  21    3.18033939E+05  # M^2_(H,d)
  22   -4.02841856E+05  # M^2_(H,u)
  31    6.25752210E+02  # M_(L,11)
  32    6.25746791E+02  # M_(L,22)
  33    6.24217745E+02  # M_(L,33)
  34    3.02410653E+02  # M_(E,11)
  35    3.02387839E+02  # M_(E,22)
  36    2.95883652E+02  # M_(E,33)
  41    1.99758239E+03  # M_(Q,11)
  42    1.99757882E+03  # M_(Q,22)
  43    1.93043447E+03  # M_(Q,33)
  44    1.91665850E+03  # M_(U,11)
  45    1.91665619E+03  # M_(U,22)
  46    1.78397923E+03  # M_(U,33)
  47    1.90882701E+03  # M_(D,11)
  48    1.90882176E+03  # M_(D,22)
  49    1.89704747E+03  # M_(D,33)
Block MASS  # Mass spectrum
#   PDG code      mass          particle
         6     1.72500000E+02  # m_t(pole)
        23     9.11876000E+01  # m_Z(pole)
        24     8.03126878E+01  # W+
        15     1.77700000E+00  # m_tau(pole)
        25     1.18282614E+02  # h0
        35     8.99744856E+02  # H0
        36     8.99635055E+02  # A0
        37     9.03642219E+02  # H+
   1000001     2.08090669E+03  # ~d_L
   2000001     1.98749099E+03  # ~d_R
   1000002     2.07947664E+03  # ~u_L
   2000002     1.99447844E+03  # ~u_R
   1000003     2.08090263E+03  # ~s_L
   2000003     1.98748431E+03  # ~s_R
   1000004     2.07947258E+03  # ~c_L
   2000004     1.99447564E+03  # ~c_R
   1000005     1.97078683E+03  # ~b_1
   2000005     2.00172082E+03  # ~b_2
   1000006     1.83870610E+03  # ~t_1
   2000006     2.00896930E+03  # ~t_2
   1000011     6.39959309E+02  # ~e_L-
   2000011     3.16160995E+02  # ~e_R-
   1000012     6.34618916E+02  # ~nu_eL
   1000013     6.39957296E+02  # ~mu_L-
   2000013     3.16121548E+02  # ~mu_R-
   1000014     6.34611262E+02  # ~nu_muL
   1000015     3.04859582E+02  # ~tau_1-
   2000015     6.39371247E+02  # ~tau_2-
   1000016     6.32457269E+02  # ~nu_tauL
   1000021     2.15392614E+03  # ~g
   1000022     4.17160823E+02  # ~chi_10
   1000023     6.79138981E+02  # ~chi_20
   1000025    -7.03782445E+02  # ~chi_30
   1000035     8.35073083E+02  # ~chi_40
   1000024     6.77392688E+02  # ~chi_1+
   1000037     8.35142005E+02  # ~chi_2+
   1000039     6.00000000E-09  # ~G
# Higgs mixing
Block alpha # Effective Higgs mixing angle
          -5.34594237E-02   # alpha
Block Hmix Q=  1.92195436E+03  # Higgs mixing parameters
   1    6.93185292E+02  # mu
   2    1.92077826E+01  # tan[beta](Q)
   3    2.43651567E+02  # v(Q)
   4    7.16753056E+05  # m^2_A(Q)
Block stopmix # stop mixing matrix
   1  1     1.67875091E-01   # Re[R_st(1,1)]
   1  2     9.85808274E-01   # Re[R_st(1,2)]
   2  1    -9.85808274E-01   # Re[R_st(2,1)]
   2  2     1.67875091E-01   # Re[R_st(2,2)]
Block sbotmix # sbottom mixing matrix
   1  1     2.80493039E-01   # Re[R_sb(1,1)]
   1  2     9.59856060E-01   # Re[R_sb(1,2)]
   2  1    -9.59856060E-01   # Re[R_sb(2,1)]
   2  2     2.80493039E-01   # Re[R_sb(2,2)]
Block staumix # stau mixing matrix
   1  1     7.89896152E-02   # Re[R_sta(1,1)]
   1  2     9.96875439E-01   # Re[R_sta(1,2)]
   2  1    -9.96875439E-01   # Re[R_sta(2,1)]
   2  2     7.89896152E-02   # Re[R_sta(2,2)]
Block Nmix # neutralino mixing matrix
   1  1    -9.92437331E-01   # Re[N(1,1)]
   1  2     1.40098345E-02   # Re[N(1,2)]
   1  3    -1.03148143E-01   # Re[N(1,3)]
   1  4     6.50563536E-02   # Re[N(1,4)]
   2  1     1.14827391E-01   # Re[N(2,1)]
   2  2     4.03498368E-01   # Re[N(2,2)]
   2  3    -6.51025585E-01   # Re[N(2,3)]
   2  4     6.32589459E-01   # Re[N(2,4)]
   3  1     2.63700834E-02   # Re[N(3,1)]
   3  2    -3.51260533E-02   # Re[N(3,2)]
   3  3    -7.04959484E-01   # Re[N(3,3)]
   3  4    -7.07886223E-01   # Re[N(3,4)]
   4  1    -3.44591509E-02   # Re[N(4,1)]
   4  2     9.14198530E-01   # Re[N(4,2)]
   4  3     2.61836349E-01   # Re[N(4,3)]
   4  4    -3.07400946E-01   # Re[N(4,4)]
Block Umix # chargino mixing matrix
   1  1    -3.69097475E-01   # Re[U(1,1)]
   1  2     9.29390689E-01   # Re[U(1,2)]
   2  1     9.29390689E-01   # Re[U(2,1)]
   2  2     3.69097475E-01   # Re[U(2,2)]
Block Vmix # chargino mixing matrix
   1  1    -4.33313812E-01   # Re[V(1,1)]
   1  2     9.01243109E-01   # Re[V(1,2)]
   2  1     9.01243109E-01   # Re[V(2,1)]
   2  2     4.33313812E-01   # Re[V(2,2)]
DECAY   2000011     6.00624092E-10   # ~e^-_R
#    BR                NDA      ID1      ID2
     1.67412865E-01    2     1000039        11   # BR(~e^-_R -> ~G e^-)
#    BR                NDA      ID1      ID2       ID3
     2.00124214E-01    3     1000015        11       -15   # BR(~e^-_R -> ~tau^-_1 e^- tau^+)
     6.32462921E-01    3    -1000015        11        15   # BR(~e^-_R -> ~tau^+_1 e^- tau^-)
DECAY   1000011     2.61971098E-01   # ~e^-_L
#    BR                NDA      ID1      ID2
     9.99999853E-01    2     1000022        11   # BR(~e^-_L -> chi^0_1 e^-)
     6.51893980E-08    2     2000011        23   # BR(~e^-_L -> ~e^-_R Z)
     6.83040289E-08    2     2000011        25   # BR(~e^-_L -> ~e^-_R h^0)
     1.30424311E-08    2     1000039        11   # BR(~e^-_L -> ~G e^-)
DECAY   2000013     5.91452040E-10   # ~mu^-_R
#    BR                NDA      ID1      ID2
     1.69902942E-01    2     1000039        13   # BR(~mu^-_R -> ~G mu^-)
#    BR                NDA      ID1      ID2       ID3
     1.99463908E-01    3     1000015        13       -15   # BR(~mu^-_R -> ~tau^-_1 mu^- tau^+)
     6.30633149E-01    3    -1000015        13        15   # BR(~mu^-_R -> ~tau^+_1 mu^- tau^-)
DECAY   1000013     2.63474602E-01   # ~mu^-_L
#    BR                NDA      ID1      ID2
     9.94325005E-01    2     1000022        13   # BR(~mu^-_L -> chi^0_1 mu^-)
     2.77142411E-03    2     2000013        23   # BR(~mu^-_L -> ~mu^-_R Z)
     2.90355828E-03    2     2000013        25   # BR(~mu^-_L -> ~mu^-_R h^0)
     1.29677998E-08    2     1000039        13   # BR(~mu^-_L -> ~G mu^-)
DECAY   1000015     8.38089411E-11   # ~tau^-_1
#    BR                NDA      ID1      ID2
     1.00000000E+00    2     1000039        15   # BR(~tau^-_1 -> ~G tau^-)
DECAY   2000015     6.94035752E-01   # ~tau^-_2
#    BR                NDA      ID1      ID2
     3.80646132E-01    2     1000022        15   # BR(~tau^-_2 -> chi^0_1 tau^-)
     3.06537499E-01    2     1000015        23   # BR(~tau^-_2 -> ~tau^-_1 Z)
     3.12816364E-01    2     1000015        25   # BR(~tau^-_2 -> ~tau^-_1 h^0)
     4.90027413E-09    2     1000039        15   # BR(~tau^-_2 -> ~G tau^-)
DECAY   1000012     2.79728516E-01   # ~nu_e
#    BR                NDA      ID1      ID2
     9.99999871E-01    2     1000022        12   # BR(~nu_e -> chi^0_1 nu_e)
     1.17255935E-07    2     2000011        24   # BR(~nu_e -> ~e^-_R W^+)
     1.17132780E-08    2     1000039        12   # BR(~nu_e -> ~G nu_e)
DECAY   1000014     2.81117240E-01   # ~nu_mu
#    BR                NDA      ID1      ID2
     9.95011323E-01    2     1000022        14   # BR(~nu_mu -> chi^0_1 nu_mu)
     4.98866500E-03    2     2000013        24   # BR(~nu_mu -> ~mu^-_R W^+)
     1.16547113E-08    2     1000039        14   # BR(~nu_mu -> ~G nu_mu)
DECAY   1000016     6.81732535E-01   # ~nu_tau
#    BR                NDA      ID1      ID2
     4.04672527E-01    2     1000022        16   # BR(~nu_tau -> chi^0_1 nu_tau)
     5.95327468E-01    2     1000015        24   # BR(~nu_tau -> ~tau^-_1 W^+)
     4.72489375E-09    2     1000039        16   # BR(~nu_tau -> ~G nu_tau)
DECAY   2000001     1.06410736E+00   # ~d_R
#    BR                NDA      ID1      ID2
     9.87246362E-01    2     1000022         1   # BR(~d_R -> chi^0_1 d)
     1.12832453E-02    2     1000023         1   # BR(~d_R -> chi^0_2 d)
     5.84330006E-04    2     1000025         1   # BR(~d_R -> chi^0_3 d)
     8.83200863E-04    2     1000035         1   # BR(~d_R -> chi^0_4 d)
     1.89275481E-06    2    -1000024         2   # BR(~d_R -> chi^-_1 u)
     4.14483485E-08    2    -1000037         2   # BR(~d_R -> chi^-_2 u)
     9.27663609E-07    2     1000039         1   # BR(~d_R -> ~G d)
DECAY   1000001     1.85024420E+01   # ~d_L
#    BR                NDA      ID1      ID2
     1.72915309E-02    2     1000022         1   # BR(~d_L -> chi^0_1 d)
     5.32102911E-02    2     1000023         1   # BR(~d_L -> chi^0_2 d)
     5.78103279E-04    2     1000025         1   # BR(~d_L -> chi^0_3 d)
     2.73004581E-01    2     1000035         1   # BR(~d_L -> chi^0_4 d)
     9.96392822E-02    2    -1000024         2   # BR(~d_L -> chi^-_1 u)
     5.56276145E-01    2    -1000037         2   # BR(~d_L -> chi^-_2 u)
     1.01098174E-13    2     2000002       -24   # BR(~d_L -> ~u_R W^-)
     8.53344941E-12    2     2000001        23   # BR(~d_L -> ~d_R Z)
     6.71249702E-08    2     1000039         1   # BR(~d_L -> ~G d)
DECAY   2000003     1.06588637E+00   # ~s_R
#    BR                NDA      ID1      ID2
     9.85620171E-01    2     1000022         3   # BR(~s_R -> chi^0_1 s)
     1.16675275E-02    2     1000023         3   # BR(~s_R -> chi^0_2 s)
     9.69399913E-04    2     1000025         3   # BR(~s_R -> chi^0_3 s)
     8.90425427E-04    2     1000035         3   # BR(~s_R -> chi^0_4 s)
     8.33300432E-04    2    -1000024         4   # BR(~s_R -> chi^-_1 c)
     1.82492113E-05    2    -1000037         4   # BR(~s_R -> chi^-_2 c)
     9.26099732E-07    2     1000039         3   # BR(~s_R -> ~G s)
DECAY   1000003     1.85036098E+01   # ~s_L
#    BR                NDA      ID1      ID2
     1.72900652E-02    2     1000022         3   # BR(~s_L -> chi^0_1 s)
     5.32242317E-02    2     1000023         3   # BR(~s_L -> chi^0_2 s)
     6.03029347E-04    2     1000025         3   # BR(~s_L -> chi^0_3 s)
     2.72992000E-01    2     1000035         3   # BR(~s_L -> chi^0_4 s)
     9.96417565E-02    2    -1000024         4   # BR(~s_L -> chi^-_1 c)
     5.56248829E-01    2    -1000037         4   # BR(~s_L -> chi^-_2 c)
     1.81114374E-08    2     2000004       -24   # BR(~s_L -> ~c_R W^-)
     3.76953428E-09    2     2000003        23   # BR(~s_L -> ~s_R Z)
     6.71200792E-08    2     1000039         3   # BR(~s_L -> ~G s)
DECAY   1000005     7.50589707E+00   # ~b_1
#    BR                NDA      ID1      ID2
     1.51391683E-01    2     1000022         5   # BR(~b_1 -> chi^0_1 b)
     1.74347197E-01    2     1000023         5   # BR(~b_1 -> chi^0_2 b)
     1.16694317E-01    2     1000025         5   # BR(~b_1 -> chi^0_3 b)
     1.06761374E-02    2     1000035         5   # BR(~b_1 -> chi^0_4 b)
     4.83517645E-01    2    -1000024         6   # BR(~b_1 -> chi^-_1 t)
     6.18225359E-02    2    -1000037         6   # BR(~b_1 -> chi^-_2 t)
     1.55035791E-03    2     1000006       -24   # BR(~b_1 -> ~t_1 W^-)
     1.26077588E-07    2     1000039         5   # BR(~b_1 -> ~G b)
DECAY   2000005     3.81055433E+01   # ~b_2
#    BR                NDA      ID1      ID2
     6.72361717E-03    2     1000022         5   # BR(~b_2 -> chi^0_1 b)
     3.33464932E-02    2     1000023         5   # BR(~b_2 -> chi^0_2 b)
     2.71897643E-02    2     1000025         5   # BR(~b_2 -> chi^0_3 b)
     1.27723761E-01    2     1000035         5   # BR(~b_2 -> chi^0_4 b)
     4.36620391E-01    2    -1000024         6   # BR(~b_2 -> chi^-_1 t)
     3.59737875E-01    2    -1000037         6   # BR(~b_2 -> chi^-_2 t)
     8.65807124E-03    2     1000006       -24   # BR(~b_2 -> ~t_1 W^-)
     2.68455218E-08    2     1000039         5   # BR(~b_2 -> ~G b)
DECAY   2000002     4.27419915E+00   # ~u_R
#    BR                NDA      ID1      ID2
     9.87234492E-01    2     1000022         2   # BR(~u_R -> chi^0_1 u)
     1.12957835E-02    2     1000023         2   # BR(~u_R -> chi^0_2 u)
     5.84238449E-04    2     1000025         2   # BR(~u_R -> chi^0_3 u)
     8.85250340E-04    2     1000035         2   # BR(~u_R -> chi^0_4 u)
     5.29916535E-10    2     1000024         1   # BR(~u_R -> chi^+_1 d)
     1.68698015E-11    2     1000037         1   # BR(~u_R -> chi^+_2 d)
     2.35040175E-07    2     1000039         2   # BR(~u_R -> ~G u)
DECAY   1000002     1.85722436E+01   # ~u_L
#    BR                NDA      ID1      ID2
     1.27798094E-02    2     1000022         2   # BR(~u_L -> chi^0_1 u)
     6.57546997E-02    2     1000023         2   # BR(~u_L -> chi^0_2 u)
     3.23907577E-04    2     1000025         2   # BR(~u_L -> chi^0_3 u)
     2.63977526E-01    2     1000035         2   # BR(~u_L -> chi^0_4 u)
     1.36671624E-01    2     1000024         1   # BR(~u_L -> chi^+_1 d)
     5.20492366E-01    2     1000037         1   # BR(~u_L -> chi^+_2 d)
     1.79107006E-10    2     2000001        24   # BR(~u_L -> ~d_R W^+)
     6.66432227E-08    2     1000039         2   # BR(~u_L -> ~G u)
DECAY   2000004     4.27500444E+00   # ~c_R
#    BR                NDA      ID1      ID2
     9.87045767E-01    2     1000022         4   # BR(~c_R -> chi^0_1 c)
     1.13390045E-02    2     1000023         4   # BR(~c_R -> chi^0_2 c)
     6.30630301E-04    2     1000025         4   # BR(~c_R -> chi^0_3 c)
     8.86391429E-04    2     1000035         4   # BR(~c_R -> chi^0_4 c)
     9.49493326E-05    2     1000024         3   # BR(~c_R -> chi^+_1 s)
     3.02261779E-06    2     1000037         3   # BR(~c_R -> chi^+_2 s)
     2.34993869E-07    2     1000039         4   # BR(~c_R -> ~G c)
DECAY   1000004     1.85734530E+01   # ~c_L
#    BR                NDA      ID1      ID2
     1.27791491E-02    2     1000022         4   # BR(~c_L -> chi^0_1 c)
     6.57565269E-02    2     1000023         4   # BR(~c_L -> chi^0_2 c)
     3.34725838E-04    2     1000025         4   # BR(~c_L -> chi^0_3 c)
     2.63963415E-01    2     1000035         4   # BR(~c_L -> chi^0_4 c)
     1.36700246E-01    2     1000024         3   # BR(~c_L -> chi^+_1 s)
     5.20465792E-01    2     1000037         3   # BR(~c_L -> chi^+_2 s)
     7.90051403E-08    2     2000003        24   # BR(~c_L -> ~s_R W^+)
     6.66381323E-08    2     1000039         4   # BR(~c_L -> ~G c)
DECAY   1000006     4.15475321E+01   # ~t_1
#    BR                NDA      ID1      ID2
     2.37735863E-05    2     1000022         4   # BR(~t_1 -> chi^0_1 c)
     9.29646877E-02    2     1000022         6   # BR(~t_1 -> chi^0_1 t)
     1.17022629E-04    2     1000023         4   # BR(~t_1 -> chi^0_2 c)
     1.98680561E-01    2     1000023         6   # BR(~t_1 -> chi^0_2 t)
     2.33038197E-01    2     1000025         6   # BR(~t_1 -> chi^0_3 t)
     1.86663071E-02    2     1000035         6   # BR(~t_1 -> chi^0_4 t)
     4.17816859E-01    2     1000024         5   # BR(~t_1 -> chi^+_1 b)
     3.86839500E-02    2     1000037         5   # BR(~t_1 -> chi^+_2 b)
     1.55420800E-08    2     1000039         6   # BR(~t_1 -> ~G t)
#    BR                NDA      ID1      ID2       ID3
     8.62638518E-06    3     1000022        24         5   # BR(~t_1 -> chi^0_1 W^+ b)
DECAY   2000006     4.09388364E+01   # ~t_2
#    BR                NDA      ID1      ID2
     6.65036390E-03    2     1000022         6   # BR(~t_2 -> chi^0_1 t)
     2.15575456E-01    2     1000023         6   # BR(~t_2 -> chi^0_2 t)
     2.54568076E-01    2     1000025         6   # BR(~t_2 -> chi^0_3 t)
     1.87844908E-01    2     1000035         6   # BR(~t_2 -> chi^0_4 t)
     5.68855750E-02    2     1000024         5   # BR(~t_2 -> chi^+_1 b)
     2.70503774E-01    2     1000037         5   # BR(~t_2 -> chi^+_2 b)
     4.52397917E-03    2     1000006        23   # BR(~t_2 -> ~t_1 Z)
     3.44784289E-03    2     1000006        25   # BR(~t_2 -> ~t_1 h^0)
     2.47016430E-08    2     1000039         6   # BR(~t_2 -> ~G t)
DECAY   1000024     5.37441406E-01   # chi^+_1
#    BR                NDA      ID1      ID2
     2.73497374E-08    2    -2000011        12   # BR(chi^+_1 -> ~e^+_R nu_e)
     8.06752527E-03    2    -1000011        12   # BR(chi^+_1 -> ~e^+_L nu_e)
     1.16940738E-03    2    -2000013        14   # BR(chi^+_1 -> ~mu^+_R nu_mu)
     8.06451974E-03    2    -1000013        14   # BR(chi^+_1 -> ~mu^+_L nu_mu)
     3.41097062E-01    2    -1000015        16   # BR(chi^+_1 -> ~tau^+_1 nu_tau)
     7.24947961E-03    2    -2000015        16   # BR(chi^+_1 -> ~tau^+_2 nu_tau)
     1.44003149E-02    2     1000012       -11   # BR(chi^+_1 -> ~nu_e e^+)
     1.44318462E-02    2     1000014       -13   # BR(chi^+_1 -> ~nu_mu mu^+)
     2.40571318E-02    2     1000016       -15   # BR(chi^+_1 -> ~nu_tau tau^+)
     5.81081935E-01    2     1000022        24   # BR(chi^+_1 -> chi^0_1 W^+)
#    BR                NDA      ID1      ID2       ID3
     1.98663686E-08    3     1000022        -1         2   # BR(chi^+_1 -> chi^0_1 d_bar u)
     2.05128583E-08    3     1000022        -3         4   # BR(chi^+_1 -> chi^0_1 s_bar c)
     3.59552956E-04    3     1000022        -5         6   # BR(chi^+_1 -> chi^0_1 b_bar t)
     1.92165338E-12    3     1000022       -11        12   # BR(chi^+_1 -> chi^0_1 e^+ nu_e)
     8.21270026E-08    3     1000022       -13        14   # BR(chi^+_1 -> chi^0_1 mu^+ nu_mu)
     2.10753389E-05    3     1000022       -15        16   # BR(chi^+_1 -> chi^0_1 tau^+ nu_tau)
DECAY   1000037     4.93943387E+00   # chi^+_2
#    BR                NDA      ID1      ID2
     7.53211943E-11    2    -2000011        12   # BR(chi^+_2 -> ~e^+_R nu_e)
     1.01240410E-01    2    -1000011        12   # BR(chi^+_2 -> ~e^+_L nu_e)
     3.22099893E-06    2    -2000013        14   # BR(chi^+_2 -> ~mu^+_R nu_mu)
     1.01247163E-01    2    -1000013        14   # BR(chi^+_2 -> ~mu^+_L nu_mu)
     9.75821559E-04    2    -1000015        16   # BR(chi^+_2 -> ~tau^+_1 nu_tau)
     1.03167031E-01    2    -2000015        16   # BR(chi^+_2 -> ~tau^+_2 nu_tau)
     9.97555370E-02    2     1000012       -11   # BR(chi^+_2 -> ~nu_e e^+)
     9.97671419E-02    2     1000014       -13   # BR(chi^+_2 -> ~nu_mu mu^+)
     1.03071070E-01    2     1000016       -15   # BR(chi^+_2 -> ~nu_tau tau^+)
     7.43847158E-03    2     1000022        24   # BR(chi^+_2 -> chi^0_1 W^+)
     1.30863398E-01    2     1000023        24   # BR(chi^+_2 -> chi^0_2 W^+)
     7.39867903E-02    2     1000025        24   # BR(chi^+_2 -> chi^0_3 W^+)
     1.13610557E-01    2     1000024        23   # BR(chi^+_2 -> chi^+_1 Z)
     6.48313187E-02    2     1000024        25   # BR(chi^+_2 -> chi^+_1 h^0)
#    BR                NDA      ID1      ID2       ID3
     4.11343992E-09    3     1000024         2        -2   # BR(chi^+_2 -> chi^+_1 u u_bar)
     4.10827346E-09    3     1000024         4        -4   # BR(chi^+_2 -> chi^+_1 c c_bar)
     5.34812296E-09    3     1000024         1        -1   # BR(chi^+_2 -> chi^+_1 d d_bar)
     5.39216929E-09    3     1000024         3        -3   # BR(chi^+_2 -> chi^+_1 s s_bar)
     1.10465563E-07    3     1000024         5        -5   # BR(chi^+_2 -> chi^+_1 b b_bar)
     1.08539393E-06    3     1000024        11       -11   # BR(chi^+_2 -> chi^+_1 e^- e^+)
     1.08681959E-06    3     1000024        13       -13   # BR(chi^+_2 -> chi^+_1 mu^- mu^+)
     1.44474758E-06    3     1000024        15       -15   # BR(chi^+_2 -> chi^+_1 tau^- tau^+)
     2.65619373E-06    3     1000024        12       -12   # BR(chi^+_2 -> chi^+_1 nu_e nu_bar_e)
     9.88361710E-08    3     1000022        -1         2   # BR(chi^+_2 -> chi^0_1 d_bar u)
     9.88358329E-08    3     1000022        -3         4   # BR(chi^+_2 -> chi^0_1 s_bar c)
     3.32659642E-05    3     1000022        -5         6   # BR(chi^+_2 -> chi^0_1 b_bar t)
     1.49838162E-14    3     1000022       -11        12   # BR(chi^+_2 -> chi^0_1 e^+ nu_e)
     6.40546881E-10    3     1000022       -13        14   # BR(chi^+_2 -> chi^0_1 mu^+ nu_mu)
     1.77010823E-07    3     1000022       -15        16   # BR(chi^+_2 -> chi^0_1 tau^+ nu_tau)
     2.30064036E-09    3     1000023        -1         2   # BR(chi^+_2 -> chi^0_2 d_bar u)
     2.33043221E-09    3     1000023        -3         4   # BR(chi^+_2 -> chi^0_2 s_bar c)
     5.98141295E-07    3     1000023       -11        12   # BR(chi^+_2 -> chi^0_2 e^+ nu_e)
     5.98689325E-07    3     1000023       -13        14   # BR(chi^+_2 -> chi^0_2 mu^+ nu_mu)
     7.20807731E-07    3     1000023       -15        16   # BR(chi^+_2 -> chi^0_2 tau^+ nu_tau)
     2.34160847E-11    3     1000025        -1         2   # BR(chi^+_2 -> chi^0_3 d_bar u)
     3.29059147E-11    3     1000025        -3         4   # BR(chi^+_2 -> chi^0_3 s_bar c)
     3.50976968E-09    3     1000025       -11        12   # BR(chi^+_2 -> chi^0_3 e^+ nu_e)
     3.83529583E-09    3     1000025       -13        14   # BR(chi^+_2 -> chi^0_3 mu^+ nu_mu)
     9.46487939E-08    3     1000025       -15        16   # BR(chi^+_2 -> chi^0_3 tau^+ nu_tau)
DECAY   1000022     1.25856715E+00   # chi^0_1
#    BR                NDA      ID1      ID2
     1.56277402E-01    2     2000011       -11   # BR(chi^0_1 -> ~e^-_R e^+)
     1.56277402E-01    2    -2000011        11   # BR(chi^0_1 -> ~e^+_R e^-)
     1.56382716E-01    2     2000013       -13   # BR(chi^0_1 -> ~mu^-_R mu^+)
     1.56382716E-01    2    -2000013        13   # BR(chi^0_1 -> ~mu^+_R mu^-)
     1.87339882E-01    2     1000015       -15   # BR(chi^0_1 -> ~tau^-_1 tau^+)
     1.87339882E-01    2    -1000015        15   # BR(chi^0_1 -> ~tau^+_1 tau^-)
     2.33737319E-10    2     1000039        22   # BR(chi^0_1 -> ~G photon)
     6.99752917E-11    2     1000039        23   # BR(chi^0_1 -> ~G Z)
     1.57668754E-12    2     1000039        25   # BR(chi^0_1 -> ~G h^0)
DECAY   1000023     6.59740514E-01   # chi^0_2
#    BR                NDA      ID1      ID2
     2.20068097E-02    2     2000011       -11   # BR(chi^0_2 -> ~e^-_R e^+)
     2.20068097E-02    2    -2000011        11   # BR(chi^0_2 -> ~e^+_R e^-)
     5.78125153E-03    2     1000011       -11   # BR(chi^0_2 -> ~e^-_L e^+)
     5.78125153E-03    2    -1000011        11   # BR(chi^0_2 -> ~e^+_L e^-)
     2.24733503E-02    2     2000013       -13   # BR(chi^0_2 -> ~mu^-_R mu^+)
     2.24733503E-02    2    -2000013        13   # BR(chi^0_2 -> ~mu^+_R mu^-)
     5.78938357E-03    2     1000013       -13   # BR(chi^0_2 -> ~mu^-_L mu^+)
     5.78938357E-03    2    -1000013        13   # BR(chi^0_2 -> ~mu^+_L mu^-)
     1.58895970E-01    2     1000015       -15   # BR(chi^0_2 -> ~tau^-_1 tau^+)
     1.58895970E-01    2    -1000015        15   # BR(chi^0_2 -> ~tau^+_1 tau^-)
     8.13595040E-03    2     2000015       -15   # BR(chi^0_2 -> ~tau^-_2 tau^+)
     8.13595040E-03    2    -2000015        15   # BR(chi^0_2 -> ~tau^+_2 tau^-)
     3.84795034E-03    2     1000012       -12   # BR(chi^0_2 -> ~nu_e nu_bar_e)
     3.84795034E-03    2    -1000012        12   # BR(chi^0_2 -> ~nu^*_e nu_e)
     3.84922882E-03    2     1000014       -14   # BR(chi^0_2 -> ~nu_mu nu_bar_mu)
     3.84922882E-03    2    -1000014        14   # BR(chi^0_2 -> ~nu^*_mu nu_mu)
     4.21678149E-03    2     1000016       -16   # BR(chi^0_2 -> ~nu_tau nu_bar_tau)
     4.21678149E-03    2    -1000016        16   # BR(chi^0_2 -> ~nu^*_tau nu_tau)
     2.89415641E-02    2     1000022        23   # BR(chi^0_2 -> chi^0_1 Z)
     5.01031519E-01    2     1000022        25   # BR(chi^0_2 -> chi^0_1 h^0)
     6.25495425E-10    2     1000039        22   # BR(chi^0_2 -> ~G photon)
     1.03019752E-11    2     1000039        23   # BR(chi^0_2 -> ~G Z)
     3.09339293E-09    2     1000039        25   # BR(chi^0_2 -> ~G h^0)
     8.67154622E-07    2     1000022        22   # BR(chi^0_2 -> chi^0_1 photon)
#    BR                NDA      ID1      ID2       ID3
     1.58044515E-08    3     1000022         2        -2   # BR(chi^0_2 -> chi^0_1 u u_bar)
     1.58185354E-08    3     1000022         4        -4   # BR(chi^0_2 -> chi^0_1 c c_bar)
     9.29335990E-09    3     1000022         1        -1   # BR(chi^0_2 -> chi^0_1 d d_bar)
     1.00002250E-08    3     1000022         3        -3   # BR(chi^0_2 -> chi^0_1 s s_bar)
     1.61854107E-06    3     1000022         5        -5   # BR(chi^0_2 -> chi^0_1 b b_bar)
     5.02170887E-06    3     1000022        11       -11   # BR(chi^0_2 -> chi^0_1 e^- e^+)
     5.08425262E-06    3     1000022        13       -13   # BR(chi^0_2 -> chi^0_1 mu^- mu^+)
     2.09172682E-05    3     1000022        15       -15   # BR(chi^0_2 -> chi^0_1 tau^- tau^+)
     1.32571310E-11    3     1000024         1        -2   # BR(chi^0_2 -> chi^+_1 d u_bar)
     1.32571310E-11    3    -1000024        -1         2   # BR(chi^0_2 -> chi^-_1 d_bar u)
     5.80760933E-13    3     1000024         3        -4   # BR(chi^0_2 -> chi^+_1 s c_bar)
     5.80760933E-13    3    -1000024        -3         4   # BR(chi^0_2 -> chi^-_1 s_bar c)
     4.27096091E-12    3     1000024        11       -12   # BR(chi^0_2 -> chi^+_1 e^- nu_bar_e)
     4.27096091E-12    3    -1000024       -11        12   # BR(chi^0_2 -> chi^-_1 e^+ nu_e)
     4.19412031E-12    3     1000024        13       -14   # BR(chi^0_2 -> chi^+_1 mu^- nu_bar_mu)
     4.19412031E-12    3    -1000024       -13        14   # BR(chi^0_2 -> chi^-_1 mu^+ nu_mu)
DECAY   1000025     5.92374588E-01   # chi^0_3
#    BR                NDA      ID1      ID2
     1.39100732E-03    2     2000011       -11   # BR(chi^0_3 -> ~e^-_R e^+)
     1.39100732E-03    2    -2000011        11   # BR(chi^0_3 -> ~e^+_R e^-)
     2.92628460E-05    2     1000011       -11   # BR(chi^0_3 -> ~e^-_L e^+)
     2.92628460E-05    2    -1000011        11   # BR(chi^0_3 -> ~e^+_L e^-)
     1.92322725E-03    2     2000013       -13   # BR(chi^0_3 -> ~mu^-_R mu^+)
     1.92322725E-03    2    -2000013        13   # BR(chi^0_3 -> ~mu^+_R mu^-)
     5.56733781E-05    2     1000013       -13   # BR(chi^0_3 -> ~mu^-_L mu^+)
     5.56733781E-05    2    -1000013        13   # BR(chi^0_3 -> ~mu^+_L mu^-)
     1.57393258E-01    2     1000015       -15   # BR(chi^0_3 -> ~tau^-_1 tau^+)
     1.57393258E-01    2    -1000015        15   # BR(chi^0_3 -> ~tau^+_1 tau^-)
     7.66573065E-03    2     2000015       -15   # BR(chi^0_3 -> ~tau^-_2 tau^+)
     7.66573065E-03    2    -2000015        15   # BR(chi^0_3 -> ~tau^+_2 tau^-)
     2.12324872E-04    2     1000012       -12   # BR(chi^0_3 -> ~nu_e nu_bar_e)
     2.12324872E-04    2    -1000012        12   # BR(chi^0_3 -> ~nu^*_e nu_e)
     2.12369444E-04    2     1000014       -14   # BR(chi^0_3 -> ~nu_mu nu_bar_mu)
     2.12369444E-04    2    -1000014        14   # BR(chi^0_3 -> ~nu^*_mu nu_mu)
     2.25075543E-04    2     1000016       -16   # BR(chi^0_3 -> ~nu_tau nu_bar_tau)
     2.25075543E-04    2    -1000016        16   # BR(chi^0_3 -> ~nu^*_tau nu_tau)
     6.31763540E-01    2     1000022        23   # BR(chi^0_3 -> chi^0_1 Z)
     2.99357593E-02    2     1000022        25   # BR(chi^0_3 -> chi^0_1 h^0)
     2.82477744E-13    2     1000039        22   # BR(chi^0_3 -> ~G photon)
     7.92600101E-10    2     1000039        23   # BR(chi^0_3 -> ~G Z)
     4.15163394E-09    2     1000039        25   # BR(chi^0_3 -> ~G h^0)
     7.64368180E-07    2     1000022        22   # BR(chi^0_3 -> chi^0_1 photon)
     5.36144752E-09    2     1000023        22   # BR(chi^0_3 -> chi^0_2 photon)
#    BR                NDA      ID1      ID2       ID3
     2.70703387E-10    3     1000022         2        -2   # BR(chi^0_3 -> chi^0_1 u u_bar)
     3.10700516E-10    3     1000022         4        -4   # BR(chi^0_3 -> chi^0_1 c c_bar)
     7.73727922E-11    3     1000022         1        -1   # BR(chi^0_3 -> chi^0_1 d d_bar)
     1.22602821E-09    3     1000022         3        -3   # BR(chi^0_3 -> chi^0_1 s s_bar)
     2.60714140E-06    3     1000022         5        -5   # BR(chi^0_3 -> chi^0_1 b b_bar)
     1.51485785E-07    3     1000022        11       -11   # BR(chi^0_3 -> chi^0_1 e^- e^+)
     2.45258562E-07    3     1000022        13       -13   # BR(chi^0_3 -> chi^0_1 mu^- mu^+)
     2.44706003E-05    3     1000022        15       -15   # BR(chi^0_3 -> chi^0_1 tau^- tau^+)
     1.49640718E-06    3     1000023         2        -2   # BR(chi^0_3 -> chi^0_2 u u_bar)
     1.47265629E-06    3     1000023         4        -4   # BR(chi^0_3 -> chi^0_2 c c_bar)
     1.94144021E-06    3     1000023         1        -1   # BR(chi^0_3 -> chi^0_2 d d_bar)
     1.94116300E-06    3     1000023         3        -3   # BR(chi^0_3 -> chi^0_2 s s_bar)
     1.52101157E-06    3     1000023         5        -5   # BR(chi^0_3 -> chi^0_2 b b_bar)
     4.46350233E-07    3     1000023        11       -11   # BR(chi^0_3 -> chi^0_2 e^- e^+)
     4.46287652E-07    3     1000023        13       -13   # BR(chi^0_3 -> chi^0_2 mu^- mu^+)
     4.27751803E-07    3     1000023        15       -15   # BR(chi^0_3 -> chi^0_2 tau^- tau^+)
     2.66427981E-06    3     1000023        12       -12   # BR(chi^0_3 -> chi^0_2 nu_e nu_bar_e)
     7.42047864E-06    3     1000024         1        -2   # BR(chi^0_3 -> chi^+_1 d u_bar)
     7.42047864E-06    3    -1000024        -1         2   # BR(chi^0_3 -> chi^-_1 d_bar u)
     7.33922729E-06    3     1000024         3        -4   # BR(chi^0_3 -> chi^+_1 s c_bar)
     7.33922729E-06    3    -1000024        -3         4   # BR(chi^0_3 -> chi^-_1 s_bar c)
     2.47004762E-06    3     1000024        11       -12   # BR(chi^0_3 -> chi^+_1 e^- nu_bar_e)
     2.47004762E-06    3    -1000024       -11        12   # BR(chi^0_3 -> chi^-_1 e^+ nu_e)
     2.47003846E-06    3     1000024        13       -14   # BR(chi^0_3 -> chi^+_1 mu^- nu_bar_mu)
     2.47003846E-06    3    -1000024       -13        14   # BR(chi^0_3 -> chi^-_1 mu^+ nu_mu)
     2.41678612E-06    3     1000024        15       -16   # BR(chi^0_3 -> chi^+_1 tau^- nu_bar_tau)
     2.41678612E-06    3    -1000024       -15        16   # BR(chi^0_3 -> chi^-_1 tau^+ nu_tau)
DECAY   1000035     4.94683057E+00   # chi^0_4
#    BR                NDA      ID1      ID2
     3.88749625E-04    2     2000011       -11   # BR(chi^0_4 -> ~e^-_R e^+)
     3.88749625E-04    2    -2000011        11   # BR(chi^0_4 -> ~e^+_R e^-)
     4.68011069E-02    2     1000011       -11   # BR(chi^0_4 -> ~e^-_L e^+)
     4.68011069E-02    2    -1000011        11   # BR(chi^0_4 -> ~e^+_L e^-)
     3.89953892E-04    2     2000013       -13   # BR(chi^0_4 -> ~mu^-_R mu^+)
     3.89953892E-04    2    -2000013        13   # BR(chi^0_4 -> ~mu^+_R mu^-)
     4.68069181E-02    2     1000013       -13   # BR(chi^0_4 -> ~mu^-_L mu^+)
     4.68069181E-02    2    -1000013        13   # BR(chi^0_4 -> ~mu^+_L mu^-)
     7.86338532E-04    2     1000015       -15   # BR(chi^0_4 -> ~tau^-_1 tau^+)
     7.86338532E-04    2    -1000015        15   # BR(chi^0_4 -> ~tau^+_1 tau^-)
     4.84506540E-02    2     2000015       -15   # BR(chi^0_4 -> ~tau^-_2 tau^+)
     4.84506540E-02    2    -2000015        15   # BR(chi^0_4 -> ~tau^+_2 tau^-)
     5.34421650E-02    2     1000012       -12   # BR(chi^0_4 -> ~nu_e nu_bar_e)
     5.34421650E-02    2    -1000012        12   # BR(chi^0_4 -> ~nu^*_e nu_e)
     5.34456899E-02    2     1000014       -14   # BR(chi^0_4 -> ~nu_mu nu_bar_mu)
     5.34456899E-02    2    -1000014        14   # BR(chi^0_4 -> ~nu^*_mu nu_mu)
     5.44404958E-02    2     1000016       -16   # BR(chi^0_4 -> ~nu_tau nu_bar_tau)
     5.44404958E-02    2    -1000016        16   # BR(chi^0_4 -> ~nu^*_tau nu_tau)
     1.29365793E-01    2     1000024       -24   # BR(chi^0_4 -> chi^+_1 W^-)
     1.29365793E-01    2    -1000024        24   # BR(chi^0_4 -> chi^-_1 W^+)
     8.39996174E-04    2     1000022        23   # BR(chi^0_4 -> chi^0_1 Z)
     1.15851024E-03    2     1000023        23   # BR(chi^0_4 -> chi^0_2 Z)
     5.61780337E-02    2     1000025        23   # BR(chi^0_4 -> chi^0_3 Z)
     7.92448350E-03    2     1000022        25   # BR(chi^0_4 -> chi^0_1 h^0)
     6.51760525E-02    2     1000023        25   # BR(chi^0_4 -> chi^0_2 h^0)
     7.42812754E-05    2     1000025        25   # BR(chi^0_4 -> chi^0_3 h^0)
     4.66945636E-10    2     1000039        22   # BR(chi^0_4 -> ~G photon)
     2.46521188E-09    2     1000039        23   # BR(chi^0_4 -> ~G Z)
     2.69062302E-10    2     1000039        25   # BR(chi^0_4 -> ~G h^0)
     3.07567569E-07    2     1000022        22   # BR(chi^0_4 -> chi^0_1 photon)
     1.18525790E-06    2     1000023        22   # BR(chi^0_4 -> chi^0_2 photon)
     9.17087398E-07    2     1000025        22   # BR(chi^0_4 -> chi^0_3 photon)
#    BR                NDA      ID1      ID2       ID3
     4.21695799E-08    3     1000022         2        -2   # BR(chi^0_4 -> chi^0_1 u u_bar)
     4.21618748E-08    3     1000022         4        -4   # BR(chi^0_4 -> chi^0_1 c c_bar)
     1.20933773E-06    3     1000022         6        -6   # BR(chi^0_4 -> chi^0_1 t t_bar)
     5.72493288E-08    3     1000022         1        -1   # BR(chi^0_4 -> chi^0_1 d d_bar)
     5.72619702E-08    3     1000022         3        -3   # BR(chi^0_4 -> chi^0_1 s s_bar)
     9.43757510E-08    3     1000022         5        -5   # BR(chi^0_4 -> chi^0_1 b b_bar)
     2.46888202E-07    3     1000022        11       -11   # BR(chi^0_4 -> chi^0_1 e^- e^+)
     2.47139248E-07    3     1000022        13       -13   # BR(chi^0_4 -> chi^0_1 mu^- mu^+)
     3.31628878E-07    3     1000022        15       -15   # BR(chi^0_4 -> chi^0_1 tau^- tau^+)
     3.69579192E-09    3     1000023         2        -2   # BR(chi^0_4 -> chi^0_2 u u_bar)
     3.69140058E-09    3     1000023         4        -4   # BR(chi^0_4 -> chi^0_2 c c_bar)
     3.05316098E-09    3     1000023         1        -1   # BR(chi^0_4 -> chi^0_2 d d_bar)
     3.06871154E-09    3     1000023         3        -3   # BR(chi^0_4 -> chi^0_2 s s_bar)
     3.89229659E-08    3     1000023         5        -5   # BR(chi^0_4 -> chi^0_2 b b_bar)
     9.20262261E-07    3     1000023        11       -11   # BR(chi^0_4 -> chi^0_2 e^- e^+)
     9.20915739E-07    3     1000023        13       -13   # BR(chi^0_4 -> chi^0_2 mu^- mu^+)
     1.06037636E-06    3     1000023        15       -15   # BR(chi^0_4 -> chi^0_2 tau^- tau^+)
     1.39653439E-06    3     1000023        12       -12   # BR(chi^0_4 -> chi^0_2 nu_e nu_bar_e)
     2.80674520E-12    3     1000025         2        -2   # BR(chi^0_4 -> chi^0_3 u u_bar)
     2.96035157E-12    3     1000025         4        -4   # BR(chi^0_4 -> chi^0_3 c c_bar)
     5.13733514E-12    3     1000025         1        -1   # BR(chi^0_4 -> chi^0_3 d d_bar)
     1.66385366E-11    3     1000025         3        -3   # BR(chi^0_4 -> chi^0_3 s s_bar)
     2.61404160E-08    3     1000025         5        -5   # BR(chi^0_4 -> chi^0_3 b b_bar)
     2.03307884E-10    3     1000025        11       -11   # BR(chi^0_4 -> chi^0_3 e^- e^+)
     4.79805550E-10    3     1000025        13       -13   # BR(chi^0_4 -> chi^0_3 mu^- mu^+)
     7.78628855E-08    3     1000025        15       -15   # BR(chi^0_4 -> chi^0_3 tau^- tau^+)
     3.74090438E-09    3     1000025        12       -12   # BR(chi^0_4 -> chi^0_3 nu_e nu_bar_e)
     2.40924877E-09    3     1000024         1        -2   # BR(chi^0_4 -> chi^+_1 d u_bar)
     2.40924877E-09    3    -1000024        -1         2   # BR(chi^0_4 -> chi^-_1 d_bar u)
     2.43589520E-09    3     1000024         3        -4   # BR(chi^0_4 -> chi^+_1 s c_bar)
     2.43589520E-09    3    -1000024        -3         4   # BR(chi^0_4 -> chi^-_1 s_bar c)
     5.77298313E-07    3     1000024        11       -12   # BR(chi^0_4 -> chi^+_1 e^- nu_bar_e)
     5.77298313E-07    3    -1000024       -11        12   # BR(chi^0_4 -> chi^-_1 e^+ nu_e)
     5.77801639E-07    3     1000024        13       -14   # BR(chi^0_4 -> chi^+_1 mu^- nu_bar_mu)
     5.77801639E-07    3    -1000024       -13        14   # BR(chi^0_4 -> chi^-_1 mu^+ nu_mu)
     6.96212538E-07    3     1000024        15       -16   # BR(chi^0_4 -> chi^+_1 tau^- nu_bar_tau)
     6.96212538E-07    3    -1000024       -15        16   # BR(chi^0_4 -> chi^-_1 tau^+ nu_tau)
DECAY   1000021     9.28666077E+00   # ~g
#    BR                NDA      ID1      ID2
     4.93015441E-02    2     2000002        -2   # BR(~g -> ~u_R u_bar)
     4.93015441E-02    2    -2000002         2   # BR(~g -> ~u^*_R u)
     1.11934640E-02    2     1000002        -2   # BR(~g -> ~u_L u_bar)
     1.11934640E-02    2    -1000002         2   # BR(~g -> ~u^*_L u)
     4.93005617E-02    2     2000004        -4   # BR(~g -> ~c_R c_bar)
     4.93005617E-02    2    -2000004         4   # BR(~g -> ~c^*_R c)
     1.11936657E-02    2     1000004        -4   # BR(~g -> ~c_L c_bar)
     1.11936657E-02    2    -1000004         4   # BR(~g -> ~c^*_L c)
     8.60037604E-04    2     1000006        -4   # BR(~g -> ~t_1 c_bar)
     8.60037604E-04    2    -1000006         4   # BR(~g -> ~t^*_1 c)
     1.23611748E-01    2     1000006        -6   # BR(~g -> ~t_1 t_bar)
     1.23611748E-01    2    -1000006         6   # BR(~g -> ~t^*_1 t)
     5.35364839E-02    2     2000001        -1   # BR(~g -> ~d_R d_bar)
     5.35364839E-02    2    -2000001         1   # BR(~g -> ~d^*_R d)
     1.07748558E-02    2     1000001        -1   # BR(~g -> ~d_L d_bar)
     1.07748558E-02    2    -1000001         1   # BR(~g -> ~d^*_L d)
     5.35404674E-02    2     2000003        -3   # BR(~g -> ~s_R s_bar)
     5.35404674E-02    2    -2000003         3   # BR(~g -> ~s^*_R s)
     1.07760795E-02    2     1000003        -3   # BR(~g -> ~s_L s_bar)
     1.07760795E-02    2    -1000003         3   # BR(~g -> ~s^*_L s)
     6.34556978E-02    2     1000005        -5   # BR(~g -> ~b_1 b_bar)
     6.34556978E-02    2    -1000005         5   # BR(~g -> ~b^*_1 b)
     4.57597257E-02    2     2000005        -5   # BR(~g -> ~b_2 b_bar)
     4.57597257E-02    2    -2000005         5   # BR(~g -> ~b^*_2 b)
     3.85443451E-06    2     1000022        21   # BR(~g -> chi^0_1 g)
     1.55801177E-04    2     1000023        21   # BR(~g -> chi^0_2 g)
     1.88282348E-04    2     1000025        21   # BR(~g -> chi^0_3 g)
     3.16214010E-05    2     1000035        21   # BR(~g -> chi^0_4 g)
#    BR                NDA      ID1      ID2       ID3
     2.53750623E-04    3     1000022         6        -6   # BR(~g -> chi^0_1 t t_bar)
     6.97294873E-03    3     1000023         6        -6   # BR(~g -> chi^0_2 t t_bar)
     8.30996182E-03    3     1000025         6        -6   # BR(~g -> chi^0_3 t t_bar)
     7.04568958E-03    3     1000035         6        -6   # BR(~g -> chi^0_4 t t_bar)
     9.52135352E-04    3     1000024         5        -6   # BR(~g -> chi^+_1 b t_bar)
     9.52135352E-04    3    -1000024        -5         6   # BR(~g -> chi^-_1 b_bar t)
     4.26257860E-03    3     1000037         5        -6   # BR(~g -> chi^+_2 b t_bar)
     4.26257860E-03    3    -1000037        -5         6   # BR(~g -> chi^-_2 b_bar t)
DECAY        25     2.68934572E-03   # h^0
#    BR                NDA      ID1      ID2
     8.92487183E-09    2          11       -11   # BR(h^0 -> e^- e^+)
     3.81557008E-04    2          13       -13   # BR(h^0 -> mu^- mu^+)
     1.07411342E-01    2          15       -15   # BR(h^0 -> tau^- tau^+)
     6.80776589E-07    2           1        -1   # BR(h^0 -> d d_bar)
     3.00221288E-04    2           3        -3   # BR(h^0 -> s s_bar)
     6.52258113E-01    2           5        -5   # BR(h^0 -> b b_bar)
     2.46312482E-07    2           2        -2   # BR(h^0 -> u u_bar)
     4.41328977E-02    2           4        -4   # BR(h^0 -> c c_bar)
     6.61458664E-02    2          21        21   # BR(h^0 -> g g)
     3.08646862E-03    2          22        22   # BR(h^0 -> photon photon)
# writing decays into V V* as 3-body decays
#    BR                NDA      ID1      ID2       ID3
     5.81046528E-03    3          24        11        12   # BR(h^0 -> W^+ e^- nu_e)
     5.81046528E-03    3          24        13        14   # BR(h^0 -> W^+ mu^- nu_mu)
     5.81046528E-03    3          24        15        16   # BR(h^0 -> W^+ tau^- nu_tau)
     2.03366285E-02    3          24         1        -2   # BR(h^0 -> W^+ d u_bar)
     2.03366285E-02    3          24         3        -4   # BR(h^0 -> W^+ s c_bar)
     5.81046528E-03    3         -24       -11       -12   # BR(h^0 -> W^- e^+ nu_bar_e)
     5.81046528E-03    3         -24       -13       -14   # BR(h^0 -> W^- mu^+ nu_bar_mu)
     5.81046528E-03    3         -24       -15       -16   # BR(h^0 -> W^- tau^+ nu_bar_tau)
     2.03366285E-02    3         -24        -1         2   # BR(h^0 -> W^- d_bar u)
     2.03366285E-02    3         -24        -3         4   # BR(h^0 -> W^- s_bar c)
     3.52565241E-04    3          23        11       -11   # BR(h^0 -> Z e^- e^+)
     3.52565241E-04    3          23        13       -13   # BR(h^0 -> Z mu^- mu^+)
     3.02198778E-04    3          23        15       -15   # BR(h^0 -> Z tau^- tau^+)
     2.01465852E-03    3          23        12       -12   # BR(h^0 -> Z nu_e nu_bar_e)
     1.41026096E-03    3          23         1        -1   # BR(h^0 -> Z u u_bar)
     1.41026096E-03    3          23         3        -3   # BR(h^0 -> Z c c_bar)
     1.41026096E-03    3          23         5        -5   # BR(h^0 -> Z t t_bar)
     1.41026096E-03    3          23         2        -2   # BR(h^0 -> Z u u_bar)
     1.41026096E-03    3          23         4        -4   # BR(h^0 -> Z c c_bar)
DECAY        35     4.70061531E+00   # H^0
#    BR                NDA      ID1      ID2
     1.29417773E-08    2          11       -11   # BR(H^0 -> e^- e^+)
     5.53299531E-04    2          13       -13   # BR(H^0 -> mu^- mu^+)
     1.56662884E-01    2          15       -15   # BR(H^0 -> tau^- tau^+)
     8.23344363E-07    2           1        -1   # BR(H^0 -> d d_bar)
     3.63094720E-04    2           3        -3   # BR(H^0 -> s s_bar)
     8.18355089E-01    2           5        -5   # BR(H^0 -> b b_bar)
     2.61660555E-12    2           2        -2   # BR(H^0 -> u u_bar)
     4.68925601E-07    2           4        -4   # BR(H^0 -> c c_bar)
     2.25609036E-02    2           6        -6   # BR(H^0 -> t t_bar)
     1.01137496E-05    2     2000011  -2000011   # BR(H^0 -> ~e^-_R ~e^+_R)
     1.01233599E-05    2     2000013  -2000013   # BR(H^0 -> ~mu^-_R ~mu^+_R)
     1.27613155E-05    2     1000015  -1000015   # BR(H^0 -> ~tau^-_1 ~tau^+_1)
     2.71874505E-04    2     1000022   1000022   # BR(H^0 -> chi^0_1 chi^0_1)
     3.03025604E-04    2          23        23   # BR(H^0 -> Z Z)
     5.81847000E-04    2          24       -24   # BR(H^0 -> W^+ W^-)
     2.65458997E-04    2          25        25   # BR(H^0 -> h^0 h^0)
     4.81037520E-05    2          21        21   # BR(H^0 -> g g)
     1.16301868E-07    2          22        22   # BR(H^0 -> photon photon)
DECAY        36     4.70632384E+00   # A^0
#    BR                NDA      ID1      ID2
     1.29291867E-08    2          11       -11   # BR(A^0 -> e^- e^+)
     5.52761277E-04    2          13       -13   # BR(A^0 -> mu^- mu^+)
     1.56512914E-01    2          15       -15   # BR(A^0 -> tau^- tau^+)
     8.22542257E-07    2           1        -1   # BR(A^0 -> d d_bar)
     3.62741025E-04    2           3        -3   # BR(A^0 -> s s_bar)
     8.17568362E-01    2           5        -5   # BR(A^0 -> b b_bar)
     2.28233027E-12    2           2        -2   # BR(A^0 -> u u_bar)
     4.09019491E-07    2           4        -4   # BR(A^0 -> c c_bar)
     2.22001755E-02    2           6        -6   # BR(A^0 -> t t_bar)
     2.20724315E-03    2     1000022   1000022   # BR(A^0 -> chi^0_1 chi^0_1)
     5.64475933E-04    2          25        23   # BR(A^0 -> h^0 Z)
     2.99567103E-05    2          21        21   # BR(A^0 -> g g)
     1.26123376E-07    2          22        22   # BR(A^0 -> photon photon)
DECAY        37     3.99364260E+00   # H^+
#    BR                NDA      ID1      ID2
     1.53043173E-08    2         -11        12   # BR(H^+ -> e^+ nu_e)
     6.54305191E-04    2         -13        12   # BR(H^+ -> mu^+ nu_e)
     1.85264821E-01    2         -15        12   # BR(H^+ -> tau^+ nu_e)
     8.57482179E-07    2          -1         2   # BR(H^+ -> d_bar u)
     3.78573340E-04    2          -3         4   # BR(H^+ -> s_bar c)
     8.13040126E-01    2          -5         6   # BR(H^+ -> b_bar t)
     6.61301633E-04    2          25        24   # BR(H^+ -> h^0 W^+)
DECAY         6     2.43000000E+00   # top
#    BR                NDA      ID1      ID2
     1.00000000E+00    2           5        24   # BR(t -> b W)
Block HiggsBoundsInputHiggsCouplingsFermions
# ScalarNormEffCoupSq PseudoSNormEffCoupSq NP IP1 IP2 IP2
    1.14493058E+00    0.00000000E+00        3  25   5   5  # h0-b-b eff. coupling^2, normalised to SM
    3.99855069E+02    0.00000000E+00        3  35   5   5  # H0-b-b eff. coupling^2, normalised to SM
    0.00000000E+00    4.00000000E+02        3  36   5   5  # A0-b-b eff. coupling^2, normalised to SM
#
    9.99637674E-01    0.00000000E+00        3  25   6   6  # h0-t-t eff. coupling^2, normalised to SM
    2.86232644E-03    0.00000000E+00        3  35   6   6  # H0-t-t eff. coupling^2, normalised to SM
    0.00000000E+00    2.50000000E-03        3  36   6   6  # A0-t-t eff. coupling^2, normalised to SM
#
    1.14493058E+00    0.00000000E+00        3  25  15  15  # h0-tau-tau eff. coupling^2, normalised to SM
    3.99855069E+02    0.00000000E+00        3  35  15  15  # H0-tau-tau eff. coupling^2, normalised to SM
    0.00000000E+00    4.00000000E+02        3  36  15  15  # A0-tau-tau eff. coupling^2, normalised to SM
#
Block HiggsBoundsInputHiggsCouplingsBosons
    9.99987743E-01        3  25  24  24  # h0-W-W eff. coupling^2, normalised to SM
    1.22571468E-05        3  35  24  24  # H0-W-W eff. coupling^2, normalised to SM
    0.00000000E+00        3  36  24  24  # A0-W-W eff. coupling^2, normalised to SM
#
    9.99987743E-01        3  25  23  23  # h0-Z-Z eff. coupling^2, normalised to SM
    1.22571468E-05        3  35  23  23  # H0-Z-Z eff. coupling^2, normalised to SM
    0.00000000E+00        3  36  23  23  # A0-Z-Z eff. coupling^2, normalised to SM
#
    1.16295577E+00        3  25  21  21  # h0-g-g eff. coupling^2, normalised to SM
    6.32050754E-03        3  35  21  21  # H0-g-g eff. coupling^2, normalised to SM
    1.09220625E-01        3  36  21  21  # A0-g-g eff. coupling^2, normalised to SM
#
    0.00000000E+00        3  25  25  23  # h0-h0-Z eff. coupling^2, normalised to SM
    0.00000000E+00        3  35  25  23  # H0-h0-Z eff. coupling^2, normalised to SM
    1.22571468E-05        3  36  25  23  # A0-h0-Z eff. coupling^2, normalised to SM
    0.00000000E+00        3  35  35  23  # H0-H0-Z eff. coupling^2, normalised to SM
    9.99987743E-01        3  36  35  23  # A0-H0-Z eff. coupling^2, normalised to SM
    0.00000000E+00        3  36  36  23  # A0-A0-Z eff. coupling^2, normalised to SM
#
    0.00000000E+00        4  25  21  21  23  # h0-g-g-Z eff. coupling^2, normalised to SM
    0.00000000E+00        4  35  21  21  23  # H0-g-g-Z eff. coupling^2, normalised to SM
    0.00000000E+00        4  36  21  21  23  # A0-g-g-Z eff. coupling^2, normalised to SM
Block SPhenoLowEnergy  # low energy observables
    1    3.18486399E-04   # BR(b -> s gamma)
    2    1.58922864E-06   # BR(b -> s mu+ mu-)
    3    3.53753067E-05   # BR(b -> s nu nu)
    4    5.17649098E-11   # BR(Bd -> mu+ mu-)
    5    3.38215962E-09   # BR(Bs -> mu+ mu-)
    6    1.08581722E-04   # BR(B_u -> tau nu)
    7    9.81810812E-01   # BR(B_u -> tau nu)/BR(B_u -> tau nu)_SM
    8    2.73610236E-01   # |Delta(M_Bd)| [ps^-1] 
    9    2.03021841E+01   # |Delta(M_Bs)| [ps^-1] 
   20    2.06437785E-14   # Delta(g-2)_electron/2
   21    4.43380640E-10   # Delta(g-2)_muon/2
   22    3.19590607E-08   # Delta(g-2)_tau/2
   23    0.00000000E+00   # electric dipole moment of the electron
   24    0.00000000E+00   # electric dipole moment of the muon
   25    0.00000000E+00   # electric dipole moment of the tau
   26    0.00000000E+00   # Br(mu -> e gamma)
   27    0.00000000E+00   # Br(tau -> e gamma)
   28    0.00000000E+00   # Br(tau -> mu gamma)
   29    0.00000000E+00   # Br(mu -> 3 e)
   30    0.00000000E+00   # Br(tau -> 3 e)
   31    0.00000000E+00   # Br(tau -> 3 mu)
   39    6.10938535E-04   # Delta(rho_parameter)
   40    0.00000000E+00   # BR(Z -> e mu)
   41    0.00000000E+00   # BR(Z -> e tau)
   42    0.00000000E+00   # BR(Z -> mu tau)
Block FWCOEF Q=  9.11876000E+01  # Wilson coefficients at scale Q
#    id        order  M        value         comment
Block FWCOEF Q=  1.60000000E+02  # Wilson coefficients at scale Q
#    id        order  M        value         comment
     0305 4422   00   0    -1.87758773E-01   # C7
     0305 4422   00   1    -1.92639118E-02   # C7
     0305 4322   00   1    -4.19944988E-04   # C7'
     0305 6421   00   0    -9.48898178E-02   # C8
     0305 6421   00   1    -2.82020252E-02   # C8
     0305 6321   00   1    -6.06366069E-04   # C8'
 03051111 4133   00   0    -1.02858911E+00   # C9 e+e-
 03051111 4133   00   1     1.30255296E-03   # C9 e+e-
 03051111 4233   00   1    -1.85252067E-05   # C9' e+e-
 03051111 4137   00   0    -3.96002076E+00   # C10 e+e-
 03051111 4137   00   1     4.26258537E-03   # C10 e+e-
 03051111 4237   00   1     4.38774384E-04   # C10' e+e-
 03051313 4133   00   0    -1.02858911E+00   # C9 mu+mu-
 03051313 4133   00   1     1.30248581E-03   # C9 mu+mu-
 03051313 4233   00   1    -1.85264230E-05   # C9' mu+mu-
 03051313 4137   00   0    -3.96002076E+00   # C10 mu+mu-
 03051313 4137   00   1     4.26251808E-03   # C10 mu+mu-
 03051313 4237   00   1     4.38775600E-04   # C10' mu+mu-
 03051212 4237   00   0     1.49016588E+00   # C11 nu_1 nu_1
 03051212 4237   00   1    -1.02444429E-03   # C11 nu_1 nu_1
 03051212 4137   00   1    -1.05125808E-04   # C11' nu_1 nu_1
 03051414 4237   00   0     1.49016588E+00   # C11 nu_2 nu_2
 03051414 4237   00   1    -1.02444423E-03   # C11 nu_2 nu_2
 03051414 4137   00   1    -1.05125520E-04   # C11' nu_2 nu_2
 03051616 4237   00   0     1.49016588E+00   # C11 nu_3 nu_3
 03051616 4237   00   1    -1.02442261E-03   # C11 nu_3 nu_3
 03051616 4137   00   1    -1.05044433E-04   # C11' nu_3 nu_3
