#  ISAJET SUSY parameters in SUSY Les Houches Accord 2 format
#  Created by ISALHA 2.0 Last revision: C. Balazs 21 Apr 2009
Block SPINFO   # Program information
     1    ISASUSY from ISAJET          # Spectrum Calculator
     2   7.80   29-OCT-2009 12:50:36   # Version number
Block MODSEL   # Model selection
     1     0   # general MSSM-24 model                             
Block SMINPUTS   # Standard Model inputs
     1     1.28000000E+02   # alpha_em^(-1)
     2     1.16570000E-05   # G_Fermi
     3     1.19999997E-01   # alpha_s(M_Z)
     4     9.11699982E+01   # m_{Z}(pole)
     5     4.51715469E+00   # m_{b}(m_{b})
     6     1.72500000E+02   # m_{top}(pole)
     7     1.77699995E+00   # m_{tau}(pole)
Block MINPAR   # SUSY breaking input parameters.
     3     1.00000000E+01   # tan(beta)
     4     2.50000000E+03   # mu
Block MSOFT   # Non-universal SUSY breaking parameters
     1     1.00000000E+02   # M_1(Q)          
     2     2.50000000E+03   # M_2(Q)          
     3     2.50000000E+03   # M_3(Q)          
    11     0.00000000E+00   #     At          
    12     0.00000000E+00   #     Ab          
    13     0.00000000E+00   #   Atau          
    23     2.50000000E+03   #    MUE          
    25     1.00000000E+01   #    TB           
    26     2.50000000E+03   #    MA0          
    31     1.88000000E+02   # MeL(Q)          
    32     1.88000000E+02   # MmuL(Q)         
    33     2.50000000E+03   # MtauL(Q)        
    34     1.88000000E+02   # MeR(Q)          
    35     1.88000000E+02   # MmuR(Q)         
    36     2.50000000E+03   # MtauR(Q)        
    41     2.50000000E+03   # MqL1(Q)         
    42     2.50000000E+03   # MqL2(Q)         
    43     2.50000000E+03   # MqL3(Q)         
    44     2.50000000E+03   # MuR(Q)          
    45     2.50000000E+03   # McR(Q)          
    46     2.50000000E+03   # MtR(Q)          
    47     2.50000000E+03   # MdR(Q)          
    48     2.50000000E+03   # MsR(Q)          
    49     2.50000000E+03   # MbR(Q)          
Block MASS   # Scalar and gaugino mass spectrum
#  PDG code   mass                 particle
         6     1.72500000E+02   #  top
        24     8.04229965E+01   #  W^+
        25     1.13288651E+02   #  h^0            
        35     2.51651904E+03   #  H^0            
        36     2.50000000E+03   #  A^0            
        37     2.51772192E+03   #  H^+            
   1000001     2.50068872E+03   #  dnl            
   1000002     2.49943726E+03   #  upl            
   1000003     2.50068872E+03   #  stl            
   1000004     2.49943750E+03   #  chl            
   1000005     2.48715918E+03   #  b1             
   1000006     2.49648804E+03   #  t1             
   1000011     1.93720154E+02   #  el-            
   1000012     2.50000000E+03   #  nuel
   1000013     1.93720184E+02   #  mul-           
   1000014     2.50000000E+03   #  numl
   1000015     2.49166235E+03   #  tau1           
   1000016     2.50000000E+03   #  nutl
   1000021     2.50000000E+03   #  glss           
   1000022     9.98137207E+01   #  z1ss           
   1000023     2.43826465E+03   #  z2ss           
   1000024     2.43827466E+03   #  w1ss           
   1000025    -2.50082007E+03   #  z3ss           
   1000035     2.56274170E+03   #  z4ss           
   1000037     2.56276270E+03   #  w2ss           
   2000001     2.50012598E+03   #  dnr            
   2000002     2.49974805E+03   #  upr            
   2000003     2.50012598E+03   #  str            
   2000004     2.49974829E+03   #  chr            
   2000005     2.51358838E+03   #  b2             
   2000006     2.51009106E+03   #  t2             
   2000011     1.92961624E+02   #  er-            
   2000013     1.92961655E+02   #  mur-           
   2000015     2.50912305E+03   #  tau2           
Block ALPHA   # Effective Higgs mixing parameter
         -9.99947041E-02   # alpha
Block STOPMIX   # stop mixing matrix
  1  1     7.15110242E-01   # O_{11}
  1  2     6.99011683E-01   # O_{12}
  2  1    -6.99011683E-01   # O_{21}
  2  2     7.15110242E-01   # O_{22}
Block SBOTMIX   # sbottom mixing matrix
  1  1     6.99534595E-01   # O_{11}
  1  2     7.14598715E-01   # O_{12}
  2  1    -7.14598715E-01   # O_{21}
  2  2     6.99534595E-01   # O_{22}
Block STAUMIX   # stau mixing matrix
  1  1     7.05910981E-01   # O_{11}
  1  2     7.08300591E-01   # O_{12}
  2  1    -7.08300591E-01   # O_{21}
  2  2     7.05910981E-01   # O_{22}
Block NMIX   # neutralino mixing matrix
  1  1     9.99840260E-01   #
  1  2    -1.41206110E-04   #
  1  3     1.76932961E-02   #
  1  4    -2.46590795E-03   #
  2  1     1.02591533E-02   #
  2  2     7.06980228E-01   #
  2  3    -5.05125105E-01   #
  2  4     4.94896382E-01   #
  3  1    -1.07636238E-02   #
  3  2     1.01850620E-02   #
  3  3     7.06887603E-01   #
  3  4     7.07170725E-01   #
  4  1     9.90187190E-03   #
  4  2    -7.07159936E-01   #
  4  3    -4.94819134E-01   #
  4  4     5.04956365E-01   #
Block UMIX   # chargino U mixing matrix
  1  1    -6.99869037E-01   # U_{11}
  1  2     7.14271188E-01   # U_{12}
  2  1    -7.14271188E-01   # U_{21}
  2  2    -6.99869037E-01   # U_{22}
Block VMIX   # chargino V mixing matrix
  1  1    -7.14271009E-01   # V_{11}
  1  2     6.99869215E-01   # V_{12}
  2  1    -6.99869215E-01   # V_{21}
  2  2    -7.14271009E-01   # V_{22}
Block HMIX Q=  9.11699982E+01   # Higgs mixing parameters
     1     2.50000000E+03   # mu(Q)
     2     1.00000000E+01   # tan(beta)
Block AU   #
  3  3     0.00000000E+00   # A_t
Block AD   #
  3  3     0.00000000E+00   # A_b
Block AE   #
  3  3     0.00000000E+00   # A_tau
#  ISAJET decay tables in SUSY Les Houches accord format 
#  Created by ISALHD. Last revision: C. Balazs, 2005 May 25
#  isajet_helpers.f
Block DCINFO                           # Program information
     1   ISASUGRA from ISAJET          # Spectrum Calculator
     2   7.80   29-OCT-2009 12:50:36   # Version number
#         PDG         Width
DECAY         6  1.14680767E+00   # TP    decays
#          BR          NDA       ID1       ID2       ID3       ID4
      3.33333343E-01    3            2        -1         5             # TP     -->  UP     DB     BT          
      3.33333343E-01    3            4        -3         5             # TP     -->  CH     SB     BT          
      1.11111112E-01    3          -11        12         5             # TP     -->  E+     NUE    BT          
      1.11111112E-01    3          -13        14         5             # TP     -->  MU+    NUM    BT          
      1.11111112E-01    3          -15        16         5             # TP     -->  TAU+   NUT    BT          
#         PDG         Width
DECAY   1000021  3.10818218E-02   # GLSS  decays
#          BR          NDA       ID1       ID2       ID3       ID4
      3.58105826E-05    3      1000024         1        -2             # GLSS   -->  W1SS+  DN     UB          
      3.58105826E-05    3     -1000024         2        -1             # GLSS   -->  W1SS-  UP     DB          
      3.58105826E-05    3      1000024         3        -4             # GLSS   -->  W1SS+  ST     CB          
      3.58105826E-05    3     -1000024         4        -3             # GLSS   -->  W1SS-  CH     SB          
      1.39046740E-03    2      1000022        21                       # GLSS   -->  Z1SS   GL                 
      1.93412840E-01    3      1000022         1        -1             # GLSS   -->  Z1SS   DN     DB          
      1.93412840E-01    3      1000022         3        -3             # GLSS   -->  Z1SS   ST     SB          
      9.06298906E-02    3      1000022         5        -5             # GLSS   -->  Z1SS   BT     BB          
      4.20626462E-01    3      1000022         6        -6             # GLSS   -->  Z1SS   TP     TB          
      4.66921410E-05    3      1000023         1        -1             # GLSS   -->  Z2SS   DN     DB          
      4.66921410E-05    3      1000023         3        -3             # GLSS   -->  Z2SS   ST     SB          
      1.71511623E-04    2     -1000002         2                       # GLSS   -->  UBL    UP                 
      1.71511623E-04    2      1000002        -2                       # GLSS   -->  UPL    UB                 
      3.43737338E-05    2     -2000002         2                       # GLSS   -->  UBR    UP                 
      3.43737338E-05    2      2000002        -2                       # GLSS   -->  UPR    UB                 
      4.99395393E-02    2     -1000005         5                       # GLSS   -->  BB1    BT                 
      4.99395393E-02    2      1000005        -5                       # GLSS   -->  BT1    BB                 
#         PDG         Width
DECAY   1000002  3.88799578E-01   # UPL   decays
#          BR          NDA       ID1       ID2       ID3       ID4
      9.03686762E-01    2      1000022         2                       # UPL    -->  Z1SS   UP                 
      3.17865945E-02    2      1000023         2                       # UPL    -->  Z2SS   UP                 
      6.45266250E-02    2      1000024         1                       # UPL    -->  W1SS+  DN                 
#         PDG         Width
DECAY   1000001  3.90436202E-01   # DNL   decays
#          BR          NDA       ID1       ID2       ID3       ID4
      9.03132796E-01    2      1000022         1                       # DNL    -->  Z1SS   DN                 
      3.25806253E-02    2      1000023         1                       # DNL    -->  Z2SS   DN                 
      1.09040033E-04    2      1000021         1                       # DNL    -->  GLSS   DN                 
      6.41775504E-02    2     -1000024         2                       # DNL    -->  W1SS-  UP                 
#         PDG         Width
DECAY   1000003  3.90430182E-01   # STL   decays
#          BR          NDA       ID1       ID2       ID3       ID4
      9.03146744E-01    2      1000022         3                       # STL    -->  Z1SS   ST                 
      3.25811282E-02    2      1000023         3                       # STL    -->  Z2SS   ST                 
      1.09041721E-04    2      1000021         3                       # STL    -->  GLSS   ST                 
      6.41630813E-02    2     -1000024         4                       # STL    -->  W1SS-  CH                 
#         PDG         Width
DECAY   1000004  3.88796657E-01   # CHL   decays
#          BR          NDA       ID1       ID2       ID3       ID4
      9.03693259E-01    2      1000022         4                       # CHL    -->  Z1SS   CH                 
      3.17791402E-02    2      1000023         4                       # CHL    -->  Z2SS   CH                 
      6.45276234E-02    2      1000024         3                       # CHL    -->  W1SS+  ST                 
#         PDG         Width
DECAY   1000005  9.26482975E-01   # BT1   decays
#          BR          NDA       ID1       ID2       ID3       ID4
      9.93629813E-01    2      1000022         5                       # BT1    -->  Z1SS   BT                 
      6.37020310E-03    2      1000023         5                       # BT1    -->  Z2SS   BT                 
#         PDG         Width
DECAY   1000006  2.98441529E+00   # TP1   decays
#          BR          NDA       ID1       ID2       ID3       ID4
      9.82104182E-01    2      1000022         6                       # TP1    -->  Z1SS   TP                 
      1.78958271E-02    2      1000024         5                       # TP1    -->  W1SS+  BT                 
#         PDG         Width
DECAY   2000002  5.63103199E+00   # UPR   decays
#          BR          NDA       ID1       ID2       ID3       ID4
      1.00000000E+00    2      1000022         2                       # UPR    -->  Z1SS   UP                 
#         PDG         Width
DECAY   2000001  1.40797353E+00   # DNR   decays
#          BR          NDA       ID1       ID2       ID3       ID4
      1.00000000E+00    2      1000022         1                       # DNR    -->  Z1SS   DN                 
#         PDG         Width
DECAY   2000003  1.40797353E+00   # STR   decays
#          BR          NDA       ID1       ID2       ID3       ID4
      1.00000000E+00    2      1000022         3                       # STR    -->  Z1SS   ST                 
#         PDG         Width
DECAY   2000004  5.63102961E+00   # CHR   decays
#          BR          NDA       ID1       ID2       ID3       ID4
      1.00000000E+00    2      1000022         4                       # CHR    -->  Z1SS   CH                 
#         PDG         Width
DECAY   2000005  8.55830312E-01   # BT2   decays
#          BR          NDA       ID1       ID2       ID3       ID4
      9.81870353E-01    2      1000022         5                       # BT2    -->  Z1SS   BT                 
      6.81709824E-03    2      1000023         5                       # BT2    -->  Z2SS   BT                 
      4.15036193E-05    2      1000025         5                       # BT2    -->  Z3SS   BT                 
      1.12710623E-02    2      1000021         5                       # BT2    -->  GLSS   BT                 
#         PDG         Width
DECAY   2000006  3.00507998E+00   # TP2   decays
#          BR          NDA       ID1       ID2       ID3       ID4
      5.76376857E-04    2      1000024         5                       # TP2    -->  W1SS+  BT                 
      9.99423623E-01    2      1000022         6                       # TP2    -->  Z1SS   TP                 
#         PDG         Width
DECAY   1000011  1.32788196E-01   # EL-   decays
#          BR          NDA       ID1       ID2       ID3       ID4
      1.00000000E+00    2      1000022        11                       # EL-    -->  Z1SS   E-                 
#         PDG         Width
DECAY   1000013  1.32788122E-01   # MUL-  decays
#          BR          NDA       ID1       ID2       ID3       ID4
      1.00000000E+00    2      1000022        13                       # MUL-   -->  Z1SS   MU-                
#         PDG         Width
DECAY   1000015  7.94949484E+00   # TAU1- decays
#          BR          NDA       ID1       ID2       ID3       ID4
      9.97641921E-01    2      1000022        15                       # TAU1-  -->  Z1SS   TAU-               
      8.05830525E-04    2      1000023        15                       # TAU1-  -->  Z2SS   TAU-               
      1.55225059E-03    2     -1000024        16                       # TAU1-  -->  W1SS-  NUT                
#         PDG         Width
DECAY   1000012  1.04421802E-01   # NUEL  decays
#          BR          NDA       ID1       ID2       ID3       ID4
      1.00000000E+00    2      1000022        12                       # NUEL   -->  Z1SS   NUE                
#         PDG         Width
DECAY   1000014  1.04421802E-01   # NUML  decays
#          BR          NDA       ID1       ID2       ID3       ID4
      1.00000000E+00    2      1000022        14                       # NUML   -->  Z1SS   NUM                
#         PDG         Width
DECAY   1000016  3.20561099E+00   # NUTL  decays
#          BR          NDA       ID1       ID2       ID3       ID4
      9.88380551E-01    2      1000022        16                       # NUTL   -->  Z1SS   NUT                
      3.74365877E-03    2      1000023        16                       # NUTL   -->  Z2SS   NUT                
      7.87577219E-03    2      1000024        15                       # NUTL   -->  W1SS+  TAU-               
#         PDG         Width
DECAY   2000011  5.26335120E-01   # ER-   decays
#          BR          NDA       ID1       ID2       ID3       ID4
      1.00000000E+00    2      1000022        11                       # ER-    -->  Z1SS   E-                 
#         PDG         Width
DECAY   2000013  5.26334703E-01   # MUR-  decays
#          BR          NDA       ID1       ID2       ID3       ID4
      1.00000000E+00    2      1000022        13                       # MUR-   -->  Z1SS   MU-                
#         PDG         Width
DECAY   2000015  7.92662716E+00   # TAU2- decays
#          BR          NDA       ID1       ID2       ID3       ID4
      9.97781456E-01    2      1000022        15                       # TAU2-  -->  Z1SS   TAU-               
      7.75868190E-04    2      1000023        15                       # TAU2-  -->  Z2SS   TAU-               
      1.44270260E-03    2     -1000024        16                       # TAU2-  -->  W1SS-  NUT                
#         PDG         Width
DECAY   1000023  2.10745564E+01   # Z2SS  decays
#          BR          NDA       ID1       ID2       ID3       ID4
      1.34417489E-02    2      1000022        23                       # Z2SS   -->  Z1SS   Z0                 
      1.09155581E-05    3      1000022         2        -2             # Z2SS   -->  Z1SS   UP     UB          
      1.07480500E-05    3      1000022         1        -1             # Z2SS   -->  Z1SS   DN     DB          
      1.07480500E-05    3      1000022         3        -3             # Z2SS   -->  Z1SS   ST     SB          
      1.09155426E-05    3      1000022         4        -4             # Z2SS   -->  Z1SS   CH     CB          
      2.30574606E-05    3      1000022         5        -5             # Z2SS   -->  Z1SS   BT     BB          
      4.06208601E-05    3      1000022        15       -15             # Z2SS   -->  Z1SS   TAU-   TAU+        
      3.21043517E-05    3      1000022        16       -16             # Z2SS   -->  Z1SS   NUT    ANUT        
      2.38209516E-02    2      1000022        25                       # Z2SS   -->  Z1SS   HL0                
      1.22101128E-01    2      1000011       -11                       # Z2SS   -->  EL-    E+                 
      1.22101128E-01    2     -1000011        11                       # Z2SS   -->  EL+    E-                 
      1.22101128E-01    2      1000013       -13                       # Z2SS   -->  MUL-   MU+                
      1.22101128E-01    2     -1000013        13                       # Z2SS   -->  MUL+   MU-                
      3.05814428E-05    2      2000011       -11                       # Z2SS   -->  ER-    E+                 
      3.05814428E-05    2     -2000011        11                       # Z2SS   -->  ER+    E-                 
      3.05814428E-05    2      2000013       -13                       # Z2SS   -->  MUR-   MU+                
      3.05814428E-05    2     -2000013        13                       # Z2SS   -->  MUR+   MU-                
      1.18517838E-01    2      1000012       -12                       # Z2SS   -->  NUEL   ANUE               
      1.18517838E-01    2     -1000012        12                       # Z2SS   -->  ANUEL  NUE                
      1.18517838E-01    2      1000014       -14                       # Z2SS   -->  NUML   ANUM               
      1.18517838E-01    2     -1000014        14                       # Z2SS   -->  ANUML  NUM                
#         PDG         Width
DECAY   1000025  1.63822913E+00   # Z3SS  decays
#          BR          NDA       ID1       ID2       ID3       ID4
      1.94451131E-04    3     -1000024         2        -1             # Z3SS   -->  W1SS-  UP     DB          
      6.48170462E-05    3     -1000024        12       -11             # Z3SS   -->  W1SS-  NUE    E+          
      6.48170462E-05    3     -1000024        14       -13             # Z3SS   -->  W1SS-  NUM    MU+         
      1.94451131E-04    3      1000024         1        -2             # Z3SS   -->  W1SS+  DN     UB          
      6.48170462E-05    3      1000024        11       -12             # Z3SS   -->  W1SS+  E-     ANUE        
      6.48170462E-05    3      1000024        13       -14             # Z3SS   -->  W1SS+  MU-    ANUM        
      1.94451131E-04    3     -1000024         4        -3             # Z3SS   -->  W1SS-  CH     SB          
      6.48170462E-05    3     -1000024        16       -15             # Z3SS   -->  W1SS-  NUT    TAU+        
      1.94451131E-04    3      1000024         3        -4             # Z3SS   -->  W1SS+  ST     CB          
      6.48170462E-05    3      1000024        15       -16             # Z3SS   -->  W1SS+  TAU-   ANUT        
      6.36015236E-01    2      1000022        23                       # Z3SS   -->  Z1SS   Z0                 
      2.53951031E-04    3      1000022         5        -5             # Z3SS   -->  Z1SS   BT     BB          
      1.15104362E-04    3      1000022        15       -15             # Z3SS   -->  Z1SS   TAU-   TAU+        
      4.98981790E-05    3      1000023         2        -2             # Z3SS   -->  Z2SS   UP     UB          
      6.43440289E-05    3      1000023         1        -1             # Z3SS   -->  Z2SS   DN     DB          
      6.43440289E-05    3      1000023         3        -3             # Z3SS   -->  Z2SS   ST     SB          
      4.98981790E-05    3      1000023         4        -4             # Z3SS   -->  Z2SS   CH     CB          
      6.04192828E-05    3      1000023         5        -5             # Z3SS   -->  Z2SS   BT     BB          
      1.45964104E-05    3      1000023        11       -11             # Z3SS   -->  Z2SS   E-     E+          
      1.45964104E-05    3      1000023        13       -13             # Z3SS   -->  Z2SS   MU-    MU+         
      1.43980778E-05    3      1000023        15       -15             # Z3SS   -->  Z2SS   TAU-   TAU+        
      2.90422668E-05    3      1000023        12       -12             # Z3SS   -->  Z2SS   NUE    ANUE        
      2.90422668E-05    3      1000023        14       -14             # Z3SS   -->  Z2SS   NUM    ANUM        
      2.90422668E-05    3      1000023        16       -16             # Z3SS   -->  Z2SS   NUT    ANUT        
      3.56653214E-01    2      1000022        25                       # Z3SS   -->  Z1SS   HL0                
      3.42720850E-05    2      1000005        -5                       # Z3SS   -->  BT1    BB                 
      3.42720850E-05    2     -1000005         5                       # Z3SS   -->  BB1    BT                 
      5.78562576E-05    2      1000011       -11                       # Z3SS   -->  EL-    E+                 
      5.78562576E-05    2     -1000011        11                       # Z3SS   -->  EL+    E-                 
      5.78562576E-05    2      1000013       -13                       # Z3SS   -->  MUL-   MU+                
      5.78562576E-05    2     -1000013        13                       # Z3SS   -->  MUL+   MU-                
      4.44439647E-04    2      2000011       -11                       # Z3SS   -->  ER-    E+                 
      4.44439647E-04    2     -2000011        11                       # Z3SS   -->  ER+    E-                 
      4.44439647E-04    2      2000013       -13                       # Z3SS   -->  MUR-   MU+                
      4.44439647E-04    2     -2000013        13                       # Z3SS   -->  MUR+   MU-                
      8.24605697E-04    2      1000012       -12                       # Z3SS   -->  NUEL   ANUE               
      8.24605697E-04    2     -1000012        12                       # Z3SS   -->  ANUEL  NUE                
      8.24605697E-04    2      1000014       -14                       # Z3SS   -->  NUML   ANUM               
      8.24605697E-04    2     -1000014        14                       # Z3SS   -->  ANUML  NUM                
#         PDG         Width
DECAY   1000035  2.34411278E+01   # Z4SS  decays
#          BR          NDA       ID1       ID2       ID3       ID4
      2.21655220E-02    2      1000024       -24                       # Z4SS   -->  W1SS+  W-                 
      2.21655220E-02    2     -1000024        24                       # Z4SS   -->  W1SS-  W+                 
      1.32945832E-02    2      1000022        23                       # Z4SS   -->  Z1SS   Z0                 
      2.22833958E-02    2      1000022        25                       # Z4SS   -->  Z1SS   HL0                
      8.17662221E-04    2      1000002        -2                       # Z4SS   -->  UPL    UB                 
      8.17662221E-04    2     -1000002         2                       # Z4SS   -->  UBL    UP                 
      7.94148888E-04    2      1000001        -1                       # Z4SS   -->  DNL    DB                 
      7.94148888E-04    2     -1000001         1                       # Z4SS   -->  DBL    DN                 
      7.94144813E-04    2      1000003        -3                       # Z4SS   -->  STL    SB                 
      7.94144813E-04    2     -1000003         3                       # Z4SS   -->  SBL    ST                 
      8.17473163E-04    2      1000004        -4                       # Z4SS   -->  CHL    CB                 
      8.17473163E-04    2     -1000004         4                       # Z4SS   -->  CBL    CH                 
      3.50308517E-04    2      1000005        -5                       # Z4SS   -->  BT1    BB                 
      3.50308517E-04    2     -1000005         5                       # Z4SS   -->  BB1    BT                 
      3.81250022E-04    2      2000005        -5                       # Z4SS   -->  BT2    BB                 
      3.81250022E-04    2     -2000005         5                       # Z4SS   -->  BB2    BT                 
      1.12013832E-01    2      1000011       -11                       # Z4SS   -->  EL-    E+                 
      1.12013832E-01    2     -1000011        11                       # Z4SS   -->  EL+    E-                 
      1.12013832E-01    2      1000013       -13                       # Z4SS   -->  MUL-   MU+                
      1.12013832E-01    2     -1000013        13                       # Z4SS   -->  MUL+   MU-                
      2.69530083E-05    2      2000011       -11                       # Z4SS   -->  ER-    E+                 
      2.69530083E-05    2     -2000011        11                       # Z4SS   -->  ER+    E-                 
      2.69530083E-05    2      2000013       -13                       # Z4SS   -->  MUR-   MU+                
      2.69530083E-05    2     -2000013        13                       # Z4SS   -->  MUR+   MU-                
      1.22997881E-04    2      1000015       -15                       # Z4SS   -->  TAU1-  TAU+               
      1.22997881E-04    2     -1000015        15                       # Z4SS   -->  TAU1+  TAU-               
      1.31096254E-04    2      2000015       -15                       # Z4SS   -->  TAU2-  TAU+               
      1.31096254E-04    2     -2000015        15                       # Z4SS   -->  TAU2+  TAU-               
      1.15737222E-01    2      1000012       -12                       # Z4SS   -->  NUEL   ANUE               
      1.15737222E-01    2     -1000012        12                       # Z4SS   -->  ANUEL  NUE                
      1.15737222E-01    2      1000014       -14                       # Z4SS   -->  NUML   ANUM               
      1.15737222E-01    2     -1000014        14                       # Z4SS   -->  ANUML  NUM                
      2.80383683E-04    2      1000016       -16                       # Z4SS   -->  NUTL   ANUT               
      2.80383683E-04    2     -1000016        16                       # Z4SS   -->  ANUTL  NUT                
#         PDG         Width
DECAY   1000024  2.10755863E+01   # W1SS+ decays
#          BR          NDA       ID1       ID2       ID3       ID4
      2.16506378E-05    3      1000022         2        -1             # W1SS+  -->  Z1SS   UP     DB          
      2.16506251E-05    3      1000022         4        -3             # W1SS+  -->  Z1SS   CH     SB          
      7.26795770E-05    3      1000022       -15        16             # W1SS+  -->  Z1SS   TAU+   NUT         
      3.71325761E-02    2      1000022        24                       # W1SS+  -->  Z1SS   W+                 
      2.45844513E-01    2      1000012       -11                       # W1SS+  -->  NUEL   E+                 
      2.45844513E-01    2      1000014       -13                       # W1SS+  -->  NUML   MU+                
      2.35531211E-01    2     -1000011        12                       # W1SS+  -->  EL+    NUE                
      2.35531211E-01    2     -1000013        14                       # W1SS+  -->  MUL+   NUM                
#         PDG         Width
DECAY   1000037  2.33180561E+01   # W2SS+ decays
#          BR          NDA       ID1       ID2       ID3       ID4
      3.56450789E-02    2      1000022        24                       # W2SS+  -->  Z1SS   W+                 
      2.22764444E-02    2      1000023        24                       # W2SS+  -->  Z2SS   W+                 
      1.28758320E-05    3      1000025         2        -1             # W2SS+  -->  Z3SS   UP     DB          
      1.28758320E-05    3      1000025         4        -3             # W2SS+  -->  Z3SS   CH     SB          
      1.61953806E-03    2      1000002        -1                       # W2SS+  -->  UPL    DB                 
      1.62166462E-03    2     -1000001         2                       # W2SS+  -->  DBL    UP                 
      1.61951652E-03    2      1000004        -3                       # W2SS+  -->  CHL    SB                 
      1.68648968E-03    2     -1000003         4                       # W2SS+  -->  SBL    CH                 
      9.19923186E-05    2      1000006        -5                       # W2SS+  -->  TP1    BB                 
      2.76086945E-03    2      2000006        -5                       # W2SS+  -->  TP2    BB                 
      2.24451810E-01    2      1000012       -11                       # W2SS+  -->  NUEL   E+                 
      2.24451810E-01    2      1000014       -13                       # W2SS+  -->  NUML   MU+                
      5.52092737E-04    2      1000016       -15                       # W2SS+  -->  NUTL   TAU+               
      2.33337075E-01    2     -1000011        12                       # W2SS+  -->  EL+    NUE                
      2.33337075E-01    2     -1000013        14                       # W2SS+  -->  MUL+   NUM                
      2.53399630E-04    2     -1000015        16                       # W2SS+  -->  TAU1+  NUT                
      2.69021082E-04    2     -2000015        16                       # W2SS+  -->  TAU2+  NUT                
      1.60003565E-02    2      1000024        23                       # W2SS+  -->  W1SS+  Z0                 
#         PDG         Width
DECAY        25  3.96293914E-03   # HL0   decays
#          BR          NDA       ID1       ID2       ID3       ID4
      2.06456083E-04    2           13       -13                       # HL0    -->  MU-    MU+                
      5.90452179E-02    2           15       -15                       # HL0    -->  TAU-   TAU+               
      2.48031411E-03    2            3        -3                       # HL0    -->  ST     SB                 
      8.14825475E-01    2            5        -5                       # HL0    -->  BT     BB                 
      3.68176810E-02    2            4        -4                       # HL0    -->  CH     CB                 
      1.73115090E-03    2           22        22                       # HL0    -->  GM     GM                 
      3.86421420E-02    2           21        21                       # HL0    -->  GL     GL                 
      2.40941416E-03    3           24        11       -12             # HL0    -->  W+     E-     ANUE        
      2.40941416E-03    3           24        13       -14             # HL0    -->  W+     MU-    ANUM        
      2.40941416E-03    3           24        15       -16             # HL0    -->  W+     TAU-   ANUT        
      7.22824270E-03    3           24        -2         1             # HL0    -->  W+     UB     DN          
      7.22824270E-03    3           24        -4         3             # HL0    -->  W+     CB     ST          
      2.40941416E-03    3          -24       -11        12             # HL0    -->  W-     E+     NUE         
      2.40941416E-03    3          -24       -13        14             # HL0    -->  W-     MU+    NUM         
      2.40941416E-03    3          -24       -15        16             # HL0    -->  W-     TAU+   NUT         
      7.22824270E-03    3          -24         2        -1             # HL0    -->  W-     UP     DB          
      7.22824270E-03    3          -24         4        -3             # HL0    -->  W-     CH     SB          
      1.97109955E-04    3           23        12       -12             # HL0    -->  Z0     NUE    ANUE        
      1.97109955E-04    3           23        14       -14             # HL0    -->  Z0     NUM    ANUM        
      1.97109955E-04    3           23        16       -16             # HL0    -->  Z0     NUT    ANUT        
      9.92034475E-05    3           23        11       -11             # HL0    -->  Z0     E-     E+          
      9.92034475E-05    3           23        13       -13             # HL0    -->  Z0     MU-    MU+         
      9.92034475E-05    3           23        15       -15             # HL0    -->  Z0     TAU-   TAU+        
      3.39862629E-04    3           23         2        -2             # HL0    -->  Z0     UP     UB          
      3.39862629E-04    3           23         4        -4             # HL0    -->  Z0     CH     CB          
      4.37826791E-04    3           23         1        -1             # HL0    -->  Z0     DN     DB          
      4.37826791E-04    3           23         3        -3             # HL0    -->  Z0     ST     SB          
      4.37826791E-04    3           23         5        -5             # HL0    -->  Z0     BT     BB          
#         PDG         Width
DECAY        35  6.31991625E+00   # HH0   decays
#          BR          NDA       ID1       ID2       ID3       ID4
      2.85690505E-04    2           13       -13                       # HH0    -->  MU-    MU+                
      8.18258971E-02    2           15       -15                       # HH0    -->  TAU-   TAU+               
      3.32589331E-03    2            3        -3                       # HH0    -->  ST     SB                 
      7.39708841E-01    2            5        -5                       # HH0    -->  BT     BB                 
      1.73886985E-01    2            6        -6                       # HH0    -->  TP     TB                 
      3.17886806E-05    2           21        21                       # HH0    -->  GL     GL                 
      8.67016788E-05    2           24       -24                       # HH0    -->  W+     W-                 
      4.44252146E-05    2           23        23                       # HH0    -->  Z0     Z0                 
      3.02323315E-04    2      1000022   1000022                       # HH0    -->  Z1SS   Z1SS               
      3.31717834E-04    2           25        25                       # HH0    -->  HL0    HL0                
      1.62051201E-05    2      1000011  -1000011                       # HH0    -->  EL-    EL+                
      1.21450603E-05    2      2000011  -2000011                       # HH0    -->  ER-    ER+                
      1.61971402E-05    2      1000013  -1000013                       # HH0    -->  MUL-   MUL+               
      1.21381518E-05    2      2000013  -2000013                       # HH0    -->  MUR-   MUR+               
      5.65197006E-05    2      1000012  -1000012                       # HH0    -->  NUEL   ANUEL              
      5.65197006E-05    2      1000014  -1000014                       # HH0    -->  NUML   ANUML              
#         PDG         Width
DECAY        36  6.28865623E+00   # HA0   decays
#          BR          NDA       ID1       ID2       ID3       ID4
      2.85245420E-04    2           13       -13                       # HA0    -->  MU-    MU+                
      8.16985741E-02    2           15       -15                       # HA0    -->  TAU-   TAU+               
      3.32086440E-03    2            3        -3                       # HA0    -->  ST     SB                 
      7.39119828E-01    2            5        -5                       # HA0    -->  BT     BB                 
      1.75106019E-01    2            6        -6                       # HA0    -->  TP     TB                 
      6.20584542E-05    2           21        21                       # HA0    -->  GL     GL                 
      3.21196479E-04    2      1000022   1000022                       # HA0    -->  Z1SS   Z1SS               
      8.62055895E-05    2           25        23                       # HA0    -->  HL0    Z0                 
#         PDG         Width
DECAY        37  5.84810305E+00   # H+    decays
#          BR          NDA       ID1       ID2       ID3       ID4
      3.08906107E-04    2           14       -13                       # H+     -->  NUM    MU+                
      8.84753615E-02    2           16       -15                       # H+     -->  NUT    TAU+               
      3.33205075E-03    2            4        -3                       # H+     -->  CH     SB                 
      9.07646775E-01    2            6        -5                       # H+     -->  TP     BB                 
      9.35464705E-05    2           25        24                       # H+     -->  HL0    W+                 
      7.17143193E-05    2     -1000011   1000012                       # H+     -->  EL+    NUEL               
      7.17019648E-05    2     -1000013   1000014                       # H+     -->  MUL+   NUML               
