#
#                              ======================
#                              | THE SUSYHIT OUTPUT |
#                              ======================
#
#
#              ------------------------------------------------------
#              |     This is the output of the SUSY-HIT package     |
#              |  created by A.Djouadi, M.Muehlleitner and M.Spira. |
#              |  In case of problems with SUSY-HIT email to        |
#              |           margarete.muehlleitner@cern.ch           |
#              |           michael.spira@psi.ch                     |
#              |           abdelhak.djouadi@cern.ch                 |
#              ------------------------------------------------------
#
#              ------------------------------------------------------
#              |  SUSY Les Houches Accord - MSSM Spectrum + Decays  |
#              |              based on the decay programs           |
#              |                                                    |
#              |                     SDECAY 1.3b                    |
#              |                                                    |
#              |  Authors: M.Muhlleitner, A.Djouadi and Y.Mambrini  |
#              |  Ref.:    Comput.Phys.Commun.168(2005)46           |
#              |           [hep-ph/0311167]                         |
#              |                                                    |
#              |                     HDECAY 3.4                     |
#              |                                                    |
#              |  By: A.Djouadi,J.Kalinowski,M.Muhlleitner,M.Spira  |
#              |  Ref.:    Comput.Phys.Commun.108(1998)56           |
#              |           [hep-ph/9704448]                         |
#              |                                                    |
#              |                                                    |
#              |  If not stated otherwise all DRbar couplings and   |
#              |  soft SUSY breaking masses are given at the scale  |
#              |  Q=  0.28584200E+04
#              |                                                    |
#              ------------------------------------------------------
#
#
BLOCK DCINFO  # Decay Program information
     1   SDECAY/HDECAY # decay calculator
     2   1.3b  /3.4    # version number
#
BLOCK SPINFO  # Spectrum calculator information
     1     SOFTSUSY    # spectrum calculator               
     2     3.4.0       # version number                    
#
BLOCK MODSEL  # Model selection
     1     0   #  nonUniversal                                     
#
BLOCK SMINPUTS  # Standard Model inputs
         1     1.27908970E+02   # alpha_em^-1(M_Z)^MSbar
         2     1.16637870E-05   # G_F [GeV^-2]
         3     1.18400000E-01   # alpha_S(M_Z)^MSbar
         4     9.11876000E+01   # M_Z pole mass
         5     4.18000000E+00   # mb(mb)^MSbar
         6     1.73200000E+02   # mt pole mass
         7     1.77700000E+00   # mtau pole mass
#
BLOCK MINPAR  # Input parameters - minimal models
         3     2.70600000E+01   # tanb                
#
BLOCK EXTPAR  # Input parameters - non-minimal models
         0    -1.00000000E+00   # Set                 
         1    -3.65628000E+03   # M_1(MX)             
         2    -3.35904000E+03   # M_2(MX)             
         3     3.70120000E+03   # M_3(MX)             
        11     3.24562000E+03   # At(MX)              
        12     6.60560000E+02   # Ab(MX)              
        13    -2.42690000E+02   # Atau(MX)            
        23     3.90510000E+02   # mu(MX)              
        26     3.33340000E+03   # mA(pole)            
        31     2.92642000E+03   # meL(MX)             
        32     2.92642000E+03   # mmuL(MX)            
        33     3.28011000E+03   # mtauL(MX)           
        34     5.82940000E+02   # meR(MX)             
        35     5.82940000E+02   # mmuR(MX)            
        36     1.97810000E+03   # mtauR(MX)           
        41     8.61540000E+02   # mqL1(MX)            
        42     8.61540000E+02   # mqL2(MX)            
        43     3.16300000E+03   # mqL3(MX)            
        44     1.97019000E+03   # muR(MX)             
        45     1.97019000E+03   # mcR(MX)             
        46     2.58130000E+03   # mtR(MX)             
        47     6.40410000E+02   # mdR(MX)             
        48     6.40410000E+02   # msR(MX)             
        49     2.01171000E+03   # mbR(MX)             
#
BLOCK MASS  # Mass Spectrum
# PDG code           mass       particle
        24     8.04003619E+01   # W+
        25     1.24416826E+02   # h
        35     3.33340900E+03   # H
        36     3.33339970E+03   # A
        37     3.33476015E+03   # H+
         5     4.81876030E+00   # b-quark pole mass calculated from mb(mb)_Msbar
   1000001     1.05914010E+03   # ~d_L
   2000001     8.34478203E+02   # ~d_R
   1000002     1.05618521E+03   # ~u_L
   2000002     2.08573577E+03   # ~u_R
   1000003     1.05914010E+03   # ~s_L
   2000003     8.34478203E+02   # ~s_R
   1000004     1.05618521E+03   # ~c_L
   2000004     2.08573577E+03   # ~c_R
   1000005     2.12334235E+03   # ~b_1
   2000005     3.25067944E+03   # ~b_2
   1000006     2.62645683E+03   # ~t_1
   2000006     3.26172370E+03   # ~t_2
   1000011     2.94938095E+03   # ~e_L
   2000011     6.35316402E+02   # ~e_R
   1000012     2.94799491E+03   # ~nu_eL
   1000013     2.94938095E+03   # ~mu_L
   2000013     6.35316402E+02   # ~mu_R
   1000014     2.94799491E+03   # ~nu_muL
   1000015     1.99353327E+03   # ~tau_1
   2000015     3.29937143E+03   # ~tau_2
   1000016     3.29809053E+03   # ~nu_tauL
   1000021     3.70420175E+03   # ~g
   1000022    -4.07761123E+02   # ~chi_10
   1000023     4.10315580E+02   # ~chi_20
   1000025    -3.33908596E+03   # ~chi_30
   1000035    -3.59912206E+03   # ~chi_40
   1000024     4.09330889E+02   # ~chi_1+
   1000037     3.33925577E+03   # ~chi_2+
#
BLOCK NMIX  # Neutralino Mixing Matrix
  1  1     9.55138312E-03   # N_11
  1  2    -1.81705010E-02   # N_12
  1  3     7.08175195E-01   # N_13
  1  4     7.05738263E-01   # N_14
  2  1     8.19687761E-03   # N_21
  2  2    -1.54252751E-02   # N_22
  2  3    -7.06033304E-01   # N_23
  2  4     7.07963167E-01   # N_24
  3  1     3.79931113E-03   # N_31
  3  2     9.99709785E-01   # N_32
  3  3     1.97426930E-03   # N_33
  3  4     2.37068207E-02   # N_34
  4  1     9.99913570E-01   # N_41
  4  2    -3.49851838E-03   # N_42
  4  3    -9.84369970E-04   # N_43
  4  4    -1.26350256E-02   # N_44
#
BLOCK UMIX  # Chargino Mixing Matrix U
  1  1    -2.80201380E-03   # U_11
  1  2     9.99996074E-01   # U_12
  2  1    -9.99996074E-01   # U_21
  2  2    -2.80201380E-03   # U_22
#
BLOCK VMIX  # Chargino Mixing Matrix V
  1  1     3.36136241E-02   # V_11
  1  2     9.99434902E-01   # V_12
  2  1     9.99434902E-01   # V_21
  2  2    -3.36136241E-02   # V_22
#
BLOCK STOPMIX  # Stop Mixing Matrix
  1  1    -1.22282876E-01   # cos(theta_t)
  1  2     9.92495289E-01   # sin(theta_t)
  2  1    -9.92495289E-01   # -sin(theta_t)
  2  2    -1.22282876E-01   # cos(theta_t)
#
BLOCK SBOTMIX  # Sbottom Mixing Matrix
  1  1     3.54081854E-03   # cos(theta_b)
  1  2     9.99993731E-01   # sin(theta_b)
  2  1    -9.99993731E-01   # -sin(theta_b)
  2  2     3.54081854E-03   # cos(theta_b)
#
BLOCK STAUMIX  # Stau Mixing Matrix
  1  1     2.68477484E-03   # cos(theta_tau)
  1  2     9.99996396E-01   # sin(theta_tau)
  2  1    -9.99996396E-01   # -sin(theta_tau)
  2  2     2.68477484E-03   # cos(theta_tau)
#
BLOCK ALPHA  # Higgs mixing
          -3.84971637E-02   # Mixing angle in the neutral Higgs boson sector
#
BLOCK HMIX Q=  2.85842000E+03  # DRbar Higgs Parameters
         1     3.97327355E+02   # mu(Q)MSSM           
         2     2.60194325E+01   # tan                 
         3     2.43207213E+02   # higgs               
         4     1.08357285E+07   # mA^2(Q)MSSM         
#
BLOCK GAUGE Q=  2.85842000E+03  # The gauge couplings
     1     3.65154504E-01   # gprime(Q) DRbar
     2     6.36648309E-01   # g(Q) DRbar
     3     1.01045267E+00   # g3(Q) DRbar
#
BLOCK AU Q=  2.85842000E+03  # The trilinear couplings
  1  1     0.00000000E+00   # A_u(Q) DRbar
  2  2     0.00000000E+00   # A_c(Q) DRbar
  3  3     3.24562002E+03   # A_t(Q) DRbar
#
BLOCK AD Q=  2.85842000E+03  # The trilinear couplings
  1  1     0.00000000E+00   # A_d(Q) DRbar
  2  2     0.00000000E+00   # A_s(Q) DRbar
  3  3     6.60560007E+02   # A_b(Q) DRbar
#
BLOCK AE Q=  2.85842000E+03  # The trilinear couplings
  1  1     0.00000000E+00   # A_e(Q) DRbar
  2  2     0.00000000E+00   # A_mu(Q) DRbar
  3  3    -2.42689998E+02   # A_tau(Q) DRbar
#
BLOCK Yu Q=  2.85842000E+03  # The Yukawa couplings
  1  1     0.00000000E+00   # y_u(Q) DRbar
  2  2     0.00000000E+00   # y_c(Q) DRbar
  3  3     8.30902966E-01   # y_t(Q) DRbar
#
BLOCK Yd Q=  2.85842000E+03  # The Yukawa couplings
  1  1     0.00000000E+00   # y_d(Q) DRbar
  2  2     0.00000000E+00   # y_s(Q) DRbar
  3  3     3.31685067E-01   # y_b(Q) DRbar
#
BLOCK Ye Q=  2.85842000E+03  # The Yukawa couplings
  1  1     0.00000000E+00   # y_e(Q) DRbar
  2  2     0.00000000E+00   # y_mu(Q) DRbar
  3  3     2.62498033E-01   # y_tau(Q) DRbar
#
BLOCK MSOFT Q=  2.85842000E+03  # The soft SUSY breaking masses at the scale Q
         1    -3.65628000E+03   # M_1(Q)              
         2    -3.35904000E+03   # M_2(Q)              
         3     3.70120000E+03   # M_3(Q)              
        21     1.08810202E+07   # mH1^2(Q)            
        22    -1.80975847E+04   # mH2^2(Q)            
        31     2.92642000E+03   # meL(Q)              
        32     2.92642000E+03   # mmuL(Q)             
        33     3.28011000E+03   # mtauL(Q)            
        34     5.82940000E+02   # meR(Q)              
        35     5.82940000E+02   # mmuR(Q)             
        36     1.97810000E+03   # mtauR(Q)            
        41     8.61539958E+02   # mqL1(Q)             
        42     8.61539958E+02   # mqL2(Q)             
        43     3.16299999E+03   # mqL3(Q)             
        44     1.97018998E+03   # muR(Q)              
        45     1.97018998E+03   # mcR(Q)              
        46     2.58129998E+03   # mtR(Q)              
        47     6.40409943E+02   # mdR(Q)              
        48     6.40409943E+02   # msR(Q)              
        49     2.01170998E+03   # mbR(Q)              
#
Block HiggsBoundsInputHiggsCouplingsFermions
# ScalarNormEffCoupSq PseudoSNormEffCoupSq NP   IP1 IP2 IP2
    1.00433724E+00    0.00000000E+00        3  25   5   5  # h0-b-b eff. coupling^2, normalised to SM
    6.77006530E+02    0.00000000E+00        3  35   5   5  # H0-b-b eff. coupling^2, normalised to SM
    0.00000000E+00    6.77010868E+02        3  36   5   5  # A0-b-b eff. coupling^2, normalised to SM
#
    9.99993594E-01    0.00000000E+00        3  25   6   6  # h0-t-t eff. coupling^2, normalised to SM
    1.48348762E-03    0.00000000E+00        3  35   6   6  # H0-t-t eff. coupling^2, normalised to SM
    0.00000000E+00    1.47708116E-03        3  36   6   6  # A0-t-t eff. coupling^2, normalised to SM
#
    1.00433724E+00    0.00000000E+00        3  25  15  15  # h0-tau-tau eff. coupling^2, normalised to SM
    6.77006530E+02    0.00000000E+00        3  35  15  15  # H0-tau-tau eff. coupling^2, normalised to SM
    0.00000000E+00    6.77010868E+02        3  36  15  15  # A0-tau-tau eff. coupling^2, normalised to SM
#
Block HiggsBoundsInputHiggsCouplingsBosons
    9.99999993E-01        3  25  24  24  # h0-W-W eff. coupling^2, normalised to SM
    6.93158043E-09        3  35  24  24  # H0-W-W eff. coupling^2, normalised to SM
    0.00000000E+00        3  36  24  24  # A0-W-W eff. coupling^2, normalised to SM
#
    9.99999993E-01        3  25  23  23  # h0-Z-Z eff. coupling^2, normalised to SM
    6.93158043E-09        3  35  23  23  # H0-Z-Z eff. coupling^2, normalised to SM
    0.00000000E+00        3  36  23  23  # A0-Z-Z eff. coupling^2, normalised to SM
#
    8.92805608E-01        3  25  21  21  # h0-g-g eff. coupling^2, normalised to SM
    2.19124289E-14        3  35  21  21  # H0-g-g eff. coupling^2, normalised to SM
    6.28993664E-13        3  36  21  21  # A0-g-g eff. coupling^2, normalised to SM
#
    0.00000000E+00        3  25  25  23  # h0-h0-Z eff. coupling^2, normalised to SM
    0.00000000E+00        3  35  25  23  # H0-h0-Z eff. coupling^2, normalised to SM
    6.93158043E-09        3  36  25  23  # A0-h0-Z eff. coupling^2, normalised to SM
    0.00000000E+00        3  35  35  23  # H0-H0-Z eff. coupling^2, normalised to SM
    9.99999993E-01        3  36  35  23  # A0-H0-Z eff. coupling^2, normalised to SM
    0.00000000E+00        3  36  36  23  # A0-A0-Z eff. coupling^2, normalised to SM
#
    0.00000000E+00        4  25  21  21  23  # h0-g-g-Z eff. coupling^2, normalised to SM
    0.00000000E+00        4  35  21  21  23  # H0-g-g-Z eff. coupling^2, normalised to SM
    0.00000000E+00        4  36  21  21  23  # A0-g-g-Z eff. coupling^2, normalised to SM
#
#
#
#                             =================
#                             |The decay table|
#                             =================
#
# - The QCD corrections to the decays gluino -> squark  + quark
#                                     squark -> gaugino + quark_prime
#                                     squark -> squark_prime + Higgs
#                                     squark -> gluino  + quark
#   are included.
#
# - The multi-body decays for the inos, stops and sbottoms are included.
#
# - The loop induced decays for the gluino, neutralinos and stops
#   are included.
#
# - The SUSY decays of the top quark are included.
#
#
#         PDG            Width
DECAY         6     1.42701727E+00   # top decays
#          BR         NDA      ID1       ID2
     1.00000000E+00    2           5        24   # BR(t ->  b    W+)
#
#         PDG            Width
DECAY   1000021     5.18151384E+02   # gluino decays
#          BR         NDA      ID1       ID2
     6.09539392E-02    2     1000001        -1   # BR(~g -> ~d_L  db)
     6.09539392E-02    2    -1000001         1   # BR(~g -> ~d_L* d )
     6.51397248E-02    2     2000001        -1   # BR(~g -> ~d_R  db)
     6.51397248E-02    2    -2000001         1   # BR(~g -> ~d_R* d )
     6.10144329E-02    2     1000002        -2   # BR(~g -> ~u_L  ub)
     6.10144329E-02    2    -1000002         2   # BR(~g -> ~u_L* u )
     3.37179826E-02    2     2000002        -2   # BR(~g -> ~u_R  ub)
     3.37179826E-02    2    -2000002         2   # BR(~g -> ~u_R* u )
     6.09539392E-02    2     1000003        -3   # BR(~g -> ~s_L  sb)
     6.09539392E-02    2    -1000003         3   # BR(~g -> ~s_L* s )
     6.51397248E-02    2     2000003        -3   # BR(~g -> ~s_R  sb)
     6.51397248E-02    2    -2000003         3   # BR(~g -> ~s_R* s )
     6.10144307E-02    2     1000004        -4   # BR(~g -> ~c_L  cb)
     6.10144307E-02    2    -1000004         4   # BR(~g -> ~c_L* c )
     3.37179741E-02    2     2000004        -4   # BR(~g -> ~c_R  cb)
     3.37179741E-02    2    -2000004         4   # BR(~g -> ~c_R* c )
     3.26963026E-02    2     1000005        -5   # BR(~g -> ~b_1  bb)
     3.26963026E-02    2    -1000005         5   # BR(~g -> ~b_1* b )
     3.91040778E-03    2     2000005        -5   # BR(~g -> ~b_2  bb)
     3.91040778E-03    2    -2000005         5   # BR(~g -> ~b_2* b )
     1.85722526E-02    2     1000006        -6   # BR(~g -> ~t_1  tb)
     1.85722526E-02    2    -1000006         6   # BR(~g -> ~t_1* t )
     3.16888876E-03    2     2000006        -6   # BR(~g -> ~t_2  tb)
     3.16888876E-03    2    -2000006         6   # BR(~g -> ~t_2* t )
#
#         PDG            Width
DECAY   1000006     6.82383530E+01   # stop1 decays
#          BR         NDA      ID1       ID2
     2.48252656E-01    2     1000022         6   # BR(~t_1 -> ~chi_10 t )
     2.52171951E-01    2     1000023         6   # BR(~t_1 -> ~chi_20 t )
     4.99574153E-01    2     1000024         5   # BR(~t_1 -> ~chi_1+ b )
     1.24099396E-06    2     1000005        24   # BR(~t_1 -> ~b_1    W+)
#
#         PDG            Width
DECAY   2000006     6.42761942E+01   # stop2 decays
#          BR         NDA      ID1       ID2
     3.33991148E-01    2     1000022         6   # BR(~t_2 -> ~chi_10 t )
     3.34168584E-01    2     1000023         6   # BR(~t_2 -> ~chi_20 t )
     0.00000000E+00    2     1000025         6   # BR(~t_2 -> ~chi_30 t )
     1.12272496E-01    2     1000024         5   # BR(~t_2 -> ~chi_1+ b )
     1.10883241E-01    2     1000006        25   # BR(~t_2 -> ~t_1    h )
     1.07895146E-01    2     1000006        23   # BR(~t_2 -> ~t_1    Z )
     7.89386092E-04    2     1000005        24   # BR(~t_2 -> ~b_1    W+)
#
#         PDG            Width
DECAY   1000005     8.55367984E+00   # sbottom1 decays
#          BR         NDA      ID1       ID2
     2.52846431E-01    2     1000022         5   # BR(~b_1 -> ~chi_10 b )
     2.50921265E-01    2     1000023         5   # BR(~b_1 -> ~chi_20 b )
     4.96232304E-01    2    -1000024         6   # BR(~b_1 -> ~chi_1- t )
#
#         PDG            Width
DECAY   2000005     6.29629208E+01   # sbottom2 decays
#          BR         NDA      ID1       ID2
     5.49647795E-02    2     1000022         5   # BR(~b_2 -> ~chi_10 b )
     5.46214551E-02    2     1000023         5   # BR(~b_2 -> ~chi_20 b )
     6.81996942E-01    2    -1000024         6   # BR(~b_2 -> ~chi_1- t )
     4.19855655E-04    2     1000005        25   # BR(~b_2 -> ~b_1    h )
     4.11057719E-04    2     1000005        23   # BR(~b_2 -> ~b_1    Z )
     2.07585910E-01    2     1000006       -24   # BR(~b_2 -> ~t_1    W-)
#
#         PDG            Width
DECAY   1000002     8.72104389E-03   # sup_L decays
#          BR         NDA      ID1       ID2
     9.85021944E-02    2     1000022         2   # BR(~u_L -> ~chi_10 u)
     7.05035109E-02    2     1000023         2   # BR(~u_L -> ~chi_20 u)
     8.30994295E-01    2     1000024         1   # BR(~u_L -> ~chi_1+ d)
#
#         PDG            Width
DECAY   2000002     3.87519959E-02   # sup_R decays
#           BR         NDA      ID1       ID2
     1.07976902E-02    2     1000022         2   # BR(~u_R -> ~chi_10 u)
     7.94450040E-03    2     1000023         2   # BR(~u_R -> ~chi_20 u)
#           BR         NDA      ID1       ID2       ID3
     9.53215418E-02    3        2       -1        1000001   # BR(~u_R -> u  db  ~d_L)
     1.75407739E-02    3        2       1        -1000001   # BR(~u_R -> u  d  ~d_L*)
     3.48111102E-02    3        2       -1        2000001   # BR(~u_R -> u  db  ~d_R)
     2.18786150E-01    3        2       1        -2000001   # BR(~u_R -> u  d  ~d_R*)
     9.66040564E-02    3        2       -2        1000002   # BR(~u_R -> u  ub  ~u_L)
     1.75756109E-02    3        2       2        -1000002   # BR(~u_R -> u  u  ~u_L*)
     9.60286022E-02    3        2       -3        1000003   # BR(~u_R -> u  sb  ~s_L)
     1.74876154E-02    3        2       3        -1000003   # BR(~u_R -> u  s  ~s_L*)
     3.48782035E-02    3        2       -3        2000003   # BR(~u_R -> u  sb  ~s_R)
     2.21299569E-01    3        2       3        -2000003   # BR(~u_R -> u  s  ~s_R*)
     9.67640482E-02    3        2       -4        1000004   # BR(~u_R -> u  cb  ~c_L)
     1.77895353E-02    3        2       4        -1000004   # BR(~u_R -> u  c  ~c_L*)
     6.68301061E-04    3        2       -11        2000011   # BR(~u_R -> u  e+  ~e_R-)
     4.51409007E-03    3        2       11        -2000011   # BR(~u_R -> u  e-  ~e_R+)
     6.66159236E-04    3        2       -13        2000013   # BR(~u_R -> u  mu+  ~mu_R-)
     4.58453805E-03    3        2       13        -2000013   # BR(~u_R -> u  mu-  ~mu_R+)
     3.93786169E-09    3        2       -15        1000015   # BR(~u_R -> u  tau+  ~tau_1-)
     1.22775612E-08    3        2       15        -1000015   # BR(~u_R -> u  tau-  ~tau_1+)
     5.92821078E-04    3        2       23        1000022   # BR(~u_R -> u  Z  ~chi_10)
     8.54820486E-04    3        2       25        1000022   # BR(~u_R -> u  h  ~chi_10)
     9.98374383E-04    3        2       23        1000023   # BR(~u_R -> u  Z  ~chi_20)
     4.72878869E-04    3        2       25        1000023   # BR(~u_R -> u  h  ~chi_20)
     2.78746933E-04    3        2       -24        1000024   # BR(~u_R -> u  W-  ~chi_1+)
     2.74024595E-03    3        2       24        -1000024   # BR(~u_R -> u  W+  ~chi_1-)
#
#         PDG            Width
DECAY   1000001     2.27111573E-03   # sdown_L decays
#          BR         NDA      ID1       ID2
     5.68788653E-01    2     1000022         1   # BR(~d_L -> ~chi_10 d)
     4.08934832E-01    2     1000023         1   # BR(~d_L -> ~chi_20 d)
     2.22765147E-02    2    -1000024         2   # BR(~d_L -> ~chi_1- u)
#
#         PDG            Width
DECAY   2000001     4.79809604E-05   # sdown_R decays
#           BR         NDA      ID1       ID2
     5.71714156E-01    2     1000022         1   # BR(~d_R -> ~chi_10 d)
     4.17760574E-01    2     1000023         1   # BR(~d_R -> ~chi_20 d)
#           BR         NDA      ID1       ID2       ID3
     1.35472486E-05    3        1       -11        2000011   # BR(~d_R -> d  e+  ~e_R-)
     3.32444366E-04    3        1       11        -2000011   # BR(~d_R -> d  e-  ~e_R+)
     1.35999779E-05    3        1       -13        2000013   # BR(~d_R -> d  mu+  ~mu_R-)
     3.31443970E-04    3        1       13        -2000013   # BR(~d_R -> d  mu-  ~mu_R+)
     8.42500851E-04    3        1       23        1000022   # BR(~d_R -> d  Z  ~chi_10)
     1.31523003E-03    3        1       25        1000022   # BR(~d_R -> d  h  ~chi_10)
     1.32075305E-03    3        1       23        1000023   # BR(~d_R -> d  Z  ~chi_20)
     8.20846428E-04    3        1       25        1000023   # BR(~d_R -> d  h  ~chi_20)
     1.04416418E-04    3        1       -24        1000024   # BR(~d_R -> d  W-  ~chi_1+)
     5.43048738E-03    3        1       24        -1000024   # BR(~d_R -> d  W+  ~chi_1-)
#
#         PDG            Width
DECAY   1000004     8.36248789E-03   # scharm_L decays
#          BR         NDA      ID1       ID2
     9.85026673E-02    2     1000022         4   # BR(~c_L -> ~chi_10 c)
     7.05026639E-02    2     1000023         4   # BR(~c_L -> ~chi_20 c)
     8.30994669E-01    2     1000024         3   # BR(~c_L -> ~chi_1+ s)
#
#         PDG            Width
DECAY   2000004     3.88041566E-02   # scharm_R decays
#           BR         NDA      ID1       ID2
     1.06953629E-02    2     1000022         4   # BR(~c_R -> ~chi_10 c)
     7.86911630E-03    2     1000023         4   # BR(~c_R -> ~chi_20 c)
#           BR         NDA      ID1       ID2       ID3
     9.44563759E-02    3        4       -1        1000001   # BR(~c_R -> c  db  ~d_L)
     1.75177110E-02    3        4       1        -1000001   # BR(~c_R -> c  d  ~d_L*)
     3.44473406E-02    3        4       -1        2000001   # BR(~c_R -> c  db  ~d_R)
     2.22298350E-01    3        4       1        -2000001   # BR(~c_R -> c  d  ~d_R*)
     9.64046208E-02    3        4       -2        1000002   # BR(~c_R -> c  ub  ~u_L)
     1.76609946E-02    3        4       2        -1000002   # BR(~c_R -> c  u  ~u_L*)
     9.56985108E-02    3        4       -3        1000003   # BR(~c_R -> c  sb  ~s_L)
     1.72545948E-02    3        4       3        -1000003   # BR(~c_R -> c  s  ~s_L*)
     3.49550182E-02    3        4       -3        2000003   # BR(~c_R -> c  sb  ~s_R)
     2.20365568E-01    3        4       3        -2000003   # BR(~c_R -> c  s  ~s_R*)
     9.63401947E-02    3        4       -4        1000004   # BR(~c_R -> c  cb  ~c_L)
     1.76560982E-02    3        4       4        -1000004   # BR(~c_R -> c  c  ~c_L*)
     6.65006078E-04    3        4       -11        2000011   # BR(~c_R -> c  e+  ~e_R-)
     4.54229689E-03    3        4       11        -2000011   # BR(~c_R -> c  e-  ~e_R+)
     6.66578075E-04    3        4       -13        2000013   # BR(~c_R -> c  mu+  ~mu_R-)
     4.58481811E-03    3        4       13        -2000013   # BR(~c_R -> c  mu-  ~mu_R+)
     3.94236117E-09    3        4       -15        1000015   # BR(~c_R -> c  tau+  ~tau_1-)
     1.23893944E-08    3        4       15        -1000015   # BR(~c_R -> c  tau-  ~tau_1+)
     5.91921124E-04    3        4       23        1000022   # BR(~c_R -> c  Z  ~chi_10)
     8.55604217E-04    3        4       25        1000022   # BR(~c_R -> c  h  ~chi_10)
     9.95589220E-04    3        4       23        1000023   # BR(~c_R -> c  Z  ~chi_20)
     4.71444340E-04    3        4       25        1000023   # BR(~c_R -> c  h  ~chi_20)
     2.75717885E-04    3        4       -24        1000024   # BR(~c_R -> c  W-  ~chi_1+)
     2.73115071E-03    3        4       24        -1000024   # BR(~c_R -> c  W+  ~chi_1-)
#
#         PDG            Width
DECAY   1000003     2.17804175E-03   # sstrange_L decays
#          BR         NDA      ID1       ID2
     5.68792711E-01    2     1000022         3   # BR(~s_L -> ~chi_10 s)
     4.08930924E-01    2     1000023         3   # BR(~s_L -> ~chi_20 s)
     2.22763650E-02    2    -1000024         4   # BR(~s_L -> ~chi_1- c)
#
#         PDG            Width
DECAY   2000003     4.55104929E-05   # sstrange_R decays
#           BR         NDA      ID1       ID2
     5.71396472E-01    2     1000022         3   # BR(~s_R -> ~chi_10 s)
     4.17513900E-01    2     1000023         3   # BR(~s_R -> ~chi_20 s)
#           BR         NDA      ID1       ID2       ID3
     1.42259501E-05    3        3       -11        2000011   # BR(~s_R -> s  e+  ~e_R-)
     3.53940355E-04    3        3       11        -2000011   # BR(~s_R -> s  e-  ~e_R+)
     1.41437712E-05    3        3       -13        2000013   # BR(~s_R -> s  mu+  ~mu_R-)
     3.44645795E-04    3        3       13        -2000013   # BR(~s_R -> s  mu-  ~mu_R+)
     8.87465668E-04    3        3       23        1000022   # BR(~s_R -> s  Z  ~chi_10)
     1.39769965E-03    3        3       25        1000022   # BR(~s_R -> s  h  ~chi_10)
     1.39328309E-03    3        3       23        1000023   # BR(~s_R -> s  Z  ~chi_20)
     8.64152363E-04    3        3       25        1000023   # BR(~s_R -> s  h  ~chi_20)
     1.10618446E-04    3        3       -24        1000024   # BR(~s_R -> s  W-  ~chi_1+)
     5.70945255E-03    3        3       24        -1000024   # BR(~s_R -> s  W+  ~chi_1-)
#
#         PDG            Width
DECAY   1000011     3.33777921E-03   # selectron_L decays
#          BR         NDA      ID1       ID2
     5.52186456E-01    2     1000022        11   # BR(~e_L -> ~chi_10 e-)
     3.94005192E-01    2     1000023        11   # BR(~e_L -> ~chi_20 e-)
     5.38083517E-02    2    -1000024        12   # BR(~e_L -> ~chi_1- nu_e)
#
#         PDG            Width
DECAY   2000011     1.83470083E-04   # selectron_R decays
#           BR         NDA      ID1       ID2
     5.79585534E-01    2     1000022        11   # BR(~e_R -> ~chi_10 e-)
     4.19373351E-01    2     1000023        11   # BR(~e_R -> ~chi_20 e-)
#           BR         NDA      ID1       ID2       ID3
     8.03400738E-05    3        11       23        1000022   # BR(~e_R- -> e-  Z  ~chi_10)
     1.00277929E-04    3        11       25        1000022   # BR(~e_R- -> e-  h  ~chi_10)
     1.07608825E-04    3        11       23        1000023   # BR(~e_R- -> e-  Z  ~chi_20)
     6.25333559E-05    3        11       25        1000023   # BR(~e_R- -> e-  h  ~chi_20)
     8.55398316E-06    3        11       -24        1000024   # BR(~e_R- -> e-  W-  ~chi_1+)
     6.81800531E-04    3        11       24        -1000024   # BR(~e_R- -> e-  W+  ~chi_1-)
#
#         PDG            Width
DECAY   1000013     3.33777920E-03   # smuon_L decays
#          BR         NDA      ID1       ID2
     5.52186456E-01    2     1000022        13   # BR(~mu_L -> ~chi_10 mu-)
     3.94005192E-01    2     1000023        13   # BR(~mu_L -> ~chi_20 mu-)
     5.38083519E-02    2    -1000024        14   # BR(~mu_L -> ~chi_1- nu_mu)
#
#         PDG            Width
DECAY   2000013     1.83470139E-04   # smuon_R decays
#           BR         NDA      ID1       ID2
     5.79585271E-01    2     1000022        13   # BR(~mu_R -> ~chi_10 mu-)
     4.19373157E-01    2     1000023        13   # BR(~mu_R -> ~chi_20 mu-)
#           BR         NDA      ID1       ID2       ID3
     8.05417171E-05    3        13       23        1000022   # BR(~mu_R- -> mu-  Z  ~chi_10)
     1.00277899E-04    3        13       25        1000022   # BR(~mu_R- -> mu-  h  ~chi_10)
     1.07832262E-04    3        13       23        1000023   # BR(~mu_R- -> mu-  Z  ~chi_20)
     6.34326659E-05    3        13       25        1000023   # BR(~mu_R- -> mu-  h  ~chi_20)
     8.61339078E-06    3        13       -24        1000024   # BR(~mu_R- -> mu-  W-  ~chi_1+)
     6.80873743E-04    3        13       24        -1000024   # BR(~mu_R- -> mu-  W+  ~chi_1-)
#
#         PDG            Width
DECAY   1000015     5.01642822E+00   # stau_1 decays
#          BR         NDA      ID1       ID2
     2.51083959E-01    2     1000022        15   # BR(~tau_1 -> ~chi_10  tau-)
     2.49104529E-01    2     1000023        15   # BR(~tau_1 -> ~chi_20  tau-)
     4.99811512E-01    2    -1000024        16   # BR(~tau_1 -> ~chi_1-  nu_tau)
#
#         PDG            Width
DECAY   2000015     4.43130420E+00   # stau_2 decays
#          BR         NDA      ID1       ID2
     4.96676859E-01    2     1000022        15   # BR(~tau_2 -> ~chi_10  tau-)
     4.93634468E-01    2     1000023        15   # BR(~tau_2 -> ~chi_20  tau-)
     1.67231020E-05    2    -1000024        16   # BR(~tau_2 -> ~chi_1-  nu_tau)
     4.89146132E-03    2     1000015        25   # BR(~tau_2 -> ~tau_1   h)
     4.78048890E-03    2     1000015        23   # BR(~tau_2 -> ~tau_1   Z)
#
#         PDG            Width
DECAY   1000012     3.68584578E-02   # snu_eL decays
#          BR         NDA      ID1       ID2
     1.73511085E-01    2     1000022        12   # BR(~nu_eL -> ~chi_10 nu_e)
     1.25614694E-01    2     1000023        12   # BR(~nu_eL -> ~chi_20 nu_e)
     7.00874221E-01    2     1000024        11   # BR(~nu_eL -> ~chi_1+ e-)
#
#         PDG            Width
DECAY   1000014     3.68584577E-02   # snu_muL decays
#          BR         NDA      ID1       ID2
     1.73511085E-01    2     1000022        14   # BR(~nu_muL -> ~chi_10 nu_mu)
     1.25614694E-01    2     1000023        14   # BR(~nu_muL -> ~chi_20 nu_mu)
     7.00874221E-01    2     1000024        13   # BR(~nu_muL -> ~chi_1+ mu-)
#
#         PDG            Width
DECAY   1000016     4.46549577E+00   # snu_tauL decays
#          BR         NDA      ID1       ID2
     1.61484105E-03    2     1000022        16   # BR(~nu_tauL -> ~chi_10 nu_tau)
     1.16919374E-03    2     1000023        16   # BR(~nu_tauL -> ~chi_20 nu_tau)
     9.88039646E-01    2     1000024        15   # BR(~nu_tauL -> ~chi_1+ tau-)
     9.17631876E-03    2    -1000015       -24   # BR(~nu_tauL -> ~tau_1+ W-)
#
#         PDG            Width
DECAY   1000024     6.26227869E-12   # chargino1+ decays
#           BR         NDA      ID1       ID2       ID3
     6.00000835E-01    3     1000022         2        -1   # BR(~chi_1+ -> ~chi_10 u    db)
     1.99999582E-01    3     1000022       -11        12   # BR(~chi_1+ -> ~chi_10 e+   nu_e)
     1.99999582E-01    3     1000022       -13        14   # BR(~chi_1+ -> ~chi_10 mu+  nu_mu)
#
#         PDG            Width
DECAY   1000037     1.56492471E+02   # chargino2+ decays
#          BR         NDA      ID1       ID2
     2.04566772E-01    2     1000002        -1   # BR(~chi_2+ -> ~u_L     db)
     2.04544004E-01    2    -1000001         2   # BR(~chi_2+ -> ~d_L*    u )
     2.04566771E-01    2     1000004        -3   # BR(~chi_2+ -> ~c_L     sb)
     2.04543992E-01    2    -1000003         4   # BR(~chi_2+ -> ~s_L*     c )
     2.32326909E-04    2     1000006        -5   # BR(~chi_2+ -> ~t_1     bb)
     5.39843341E-04    2     2000006        -5   # BR(~chi_2+ -> ~t_2     bb)
     3.86103026E-07    2    -1000005         6   # BR(~chi_2+ -> ~b_1*    t )
     4.18234845E-03    2     1000012       -11   # BR(~chi_2+ -> ~nu_eL   e+  )
     4.18234845E-03    2     1000014       -13   # BR(~chi_2+ -> ~nu_muL mu+ )
     5.15537527E-05    2     1000016       -15   # BR(~chi_2+ -> ~nu_tau1 tau+)
     4.15926705E-03    2    -1000011        12   # BR(~chi_2+ -> ~e_L+    nu_e)
     4.15926705E-03    2    -1000013        14   # BR(~chi_2+ -> ~mu_L+   nu_mu)
     8.33594332E-08    2    -1000015        16   # BR(~chi_2+ -> ~tau_1+  nu_tau)
     4.85081109E-05    2    -2000015        16   # BR(~chi_2+ -> ~tau_2+  nu_tau)
     4.16218209E-02    2     1000024        23   # BR(~chi_2+ -> ~chi_1+  Z )
     4.01529214E-02    2     1000022        24   # BR(~chi_2+ -> ~chi_10  W+)
     4.04101678E-02    2     1000023        24   # BR(~chi_2+ -> ~chi_20  W+)
     4.20376183E-02    2     1000024        25   # BR(~chi_2+ -> ~chi_1+  h )
#
#         PDG            Width
DECAY   1000022     0.00000000E+00   # neutralino1 decays
#
#         PDG            Width
DECAY   1000023     9.75528591E-11   # neutralino2 decays
#          BR         NDA      ID1       ID2
     2.07563162E-01    2     1000022        22   # BR(~chi_20 -> ~chi_10 gam)
#           BR         NDA      ID1       ID2       ID3
     1.30249809E-01    3     1000022        -2         2   # BR(~chi_20 -> ~chi_10 ub      u)
     1.69164562E-01    3     1000022        -1         1   # BR(~chi_20 -> ~chi_10 db      d)
     1.69164562E-01    3     1000022        -3         3   # BR(~chi_20 -> ~chi_10 sb      s)
     3.89234506E-02    3     1000022       -11        11   # BR(~chi_20 -> ~chi_10 e+      e-)
     3.89234506E-02    3     1000022       -13        13   # BR(~chi_20 -> ~chi_10 mu+     mu-)
     7.78398344E-02    3     1000022       -12        12   # BR(~chi_20 -> ~chi_10 nu_eb   nu_e)
     7.78398344E-02    3     1000022       -14        14   # BR(~chi_20 -> ~chi_10 nu_mub  nu_mu)
     7.78398232E-02    3     1000022       -16        16   # BR(~chi_20 -> ~chi_10 nu_taub nu_tau)
     3.74745678E-03    3     1000024        -2         1   # BR(~chi_20 -> ~chi_1+ ub      d)
     3.74745678E-03    3    -1000024        -1         2   # BR(~chi_20 -> ~chi_1- db      u)
     1.24914929E-03    3     1000024       -12        11   # BR(~chi_20 -> ~chi_1+ nu_eb   e-)
     1.24914929E-03    3    -1000024        12       -11   # BR(~chi_20 -> ~chi_1- nu_e    e+)
     1.24914929E-03    3     1000024       -14        13   # BR(~chi_20 -> ~chi_1+ nu_mub  mu-)
     1.24914929E-03    3    -1000024        14       -13   # BR(~chi_20 -> ~chi_1- nu_mu   mu+)
#
#         PDG            Width
DECAY   1000025     1.56502050E+02   # neutralino3 decays
#          BR         NDA      ID1       ID2
     1.72337230E-02    2     1000022        23   # BR(~chi_30 -> ~chi_10   Z )
     2.41808058E-02    2     1000023        23   # BR(~chi_30 -> ~chi_20   Z )
     4.05322021E-02    2     1000024       -24   # BR(~chi_30 -> ~chi_1+   W-)
     4.05322021E-02    2    -1000024        24   # BR(~chi_30 -> ~chi_1-   W+)
     2.42974361E-02    2     1000022        25   # BR(~chi_30 -> ~chi_10   h )
     1.74210279E-02    2     1000023        25   # BR(~chi_30 -> ~chi_20   h )
     1.02475143E-01    2     1000002        -2   # BR(~chi_30 -> ~u_L      ub)
     1.02475143E-01    2    -1000002         2   # BR(~chi_30 -> ~u_L*     u )
     3.99836084E-07    2     2000002        -2   # BR(~chi_30 -> ~u_R      ub)
     3.99836084E-07    2    -2000002         2   # BR(~chi_30 -> ~u_R*     u )
     1.02051726E-01    2     1000001        -1   # BR(~chi_30 -> ~d_L      db)
     1.02051726E-01    2    -1000001         1   # BR(~chi_30 -> ~d_L*     d )
     2.34306276E-07    2     2000001        -1   # BR(~chi_30 -> ~d_R      db)
     2.34306276E-07    2    -2000001         1   # BR(~chi_30 -> ~d_R*     d )
     1.02475137E-01    2     1000004        -4   # BR(~chi_30 -> ~c_L      cb)
     1.02475137E-01    2    -1000004         4   # BR(~chi_30 -> ~c_L*     c )
     3.99835889E-07    2     2000004        -4   # BR(~chi_30 -> ~c_R      cb)
     3.99835889E-07    2    -2000004         4   # BR(~chi_30 -> ~c_R*     c )
     1.02051726E-01    2     1000003        -3   # BR(~chi_30 -> ~s _L      sb)
     1.02051726E-01    2    -1000003         3   # BR(~chi_30 -> ~s _L*     s )
     2.34306276E-07    2     2000003        -3   # BR(~chi_30 -> ~s _R      sb)
     2.34306276E-07    2    -2000003         3   # BR(~chi_30 -> ~s _R*     s )
     1.08865066E-04    2     1000006        -6   # BR(~chi_30 -> ~t_1      tb)
     1.08865066E-04    2    -1000006         6   # BR(~chi_30 -> ~t_1*     t )
     2.97187094E-07    2     1000005        -5   # BR(~chi_30 -> ~b_1      bb)
     2.97187094E-07    2    -1000005         5   # BR(~chi_30 -> ~b_1*     b )
     3.51118290E-04    2     2000005        -5   # BR(~chi_30 -> ~b_2      bb)
     3.51118290E-04    2    -2000005         5   # BR(~chi_30 -> ~b_2*     b )
     2.08577366E-03    2     1000011       -11   # BR(~chi_30 -> ~e_L-     e+)
     2.08577366E-03    2    -1000011        11   # BR(~chi_30 -> ~e_L+     e-)
     7.58880460E-07    2     2000011       -11   # BR(~chi_30 -> ~e_R-     e+)
     7.58880460E-07    2    -2000011        11   # BR(~chi_30 -> ~e_R+     e-)
     2.08577366E-03    2     1000013       -13   # BR(~chi_30 -> ~mu_L-    mu+)
     2.08577366E-03    2    -1000013        13   # BR(~chi_30 -> ~mu_L+    mu-)
     7.58880460E-07    2     2000013       -13   # BR(~chi_30 -> ~mu_R-    mu+)
     7.58880460E-07    2    -2000013        13   # BR(~chi_30 -> ~mu_R+    mu-)
     3.81400982E-07    2     1000015       -15   # BR(~chi_30 -> ~tau_1-   tau+)
     3.81400982E-07    2    -1000015        15   # BR(~chi_30 -> ~tau_1+   tau-)
     2.41186738E-05    2     2000015       -15   # BR(~chi_30 -> ~tau_2-   tau+)
     2.41186738E-05    2    -2000015        15   # BR(~chi_30 -> ~tau_2+   tau-)
     2.08148295E-03    2     1000012       -12   # BR(~chi_30 -> ~nu_eL    nu_eb)
     2.08148295E-03    2    -1000012        12   # BR(~chi_30 -> ~nu_eL*   nu_e )
     2.08148295E-03    2     1000014       -14   # BR(~chi_30 -> ~nu_muL   nu_mub)
     2.08148295E-03    2    -1000014        14   # BR(~chi_30 -> ~nu_muL*  nu_mu )
     2.54892252E-05    2     1000016       -16   # BR(~chi_30 -> ~nu_tau1  nu_taub)
     2.54892252E-05    2    -1000016        16   # BR(~chi_30 -> ~nu_tau1* nu_tau )
#
#         PDG            Width
DECAY   1000035     1.02635932E+02   # neutralino4 decays
#          BR         NDA      ID1       ID2
     9.51698553E-03    2     1000022        23   # BR(~chi_40 -> ~chi_10   Z )
     1.30715699E-02    2     1000023        23   # BR(~chi_40 -> ~chi_20   Z )
     4.08510908E-08    2     1000025        23   # BR(~chi_40 -> ~chi_30   Z )
     2.12828419E-02    2     1000024       -24   # BR(~chi_40 -> ~chi_1+   W-)
     2.12828419E-02    2    -1000024        24   # BR(~chi_40 -> ~chi_1-   W+)
     1.75346016E-05    2     1000037       -24   # BR(~chi_40 -> ~chi_2+   W-)
     1.75346016E-05    2    -1000037        24   # BR(~chi_40 -> ~chi_2-   W+)
     1.31863654E-02    2     1000022        25   # BR(~chi_40 -> ~chi_10   h )
     9.80178062E-03    2     1000023        25   # BR(~chi_40 -> ~chi_20   h )
     2.20135878E-05    2     1000025        25   # BR(~chi_40 -> ~chi_30   h )
     6.05637310E-03    2     1000002        -2   # BR(~chi_40 -> ~u_L      ub)
     6.05637310E-03    2    -1000002         2   # BR(~chi_40 -> ~u_L*     u )
     5.34460320E-02    2     2000002        -2   # BR(~chi_40 -> ~u_R      ub)
     5.34460320E-02    2    -2000002         2   # BR(~chi_40 -> ~u_R*     u )
     6.50959704E-03    2     1000001        -1   # BR(~chi_40 -> ~d_L      db)
     6.50959704E-03    2    -1000001         1   # BR(~chi_40 -> ~d_L*     d )
     2.69247201E-02    2     2000001        -1   # BR(~chi_40 -> ~d_R      db)
     2.69247201E-02    2    -2000001         1   # BR(~chi_40 -> ~d_R*     d )
     6.05637284E-03    2     1000004        -4   # BR(~chi_40 -> ~c_L      cb)
     6.05637284E-03    2    -1000004         4   # BR(~chi_40 -> ~c_L*     c )
     5.34460155E-02    2     2000004        -4   # BR(~chi_40 -> ~c_R      cb)
     5.34460155E-02    2    -2000004         4   # BR(~chi_40 -> ~c_R*     c )
     6.50959704E-03    2     1000003        -3   # BR(~chi_40 -> ~s _L      sb)
     6.50959704E-03    2    -1000003         3   # BR(~chi_40 -> ~s _L*     s )
     2.69247201E-02    2     2000003        -3   # BR(~chi_40 -> ~s _R      sb)
     2.69247201E-02    2    -2000003         3   # BR(~chi_40 -> ~s _R*     s )
     2.56317525E-02    2     1000006        -6   # BR(~chi_40 -> ~t_1      tb)
     2.56317525E-02    2    -1000006         6   # BR(~chi_40 -> ~t_1*     t )
     4.11972709E-04    2     2000006        -6   # BR(~chi_40 -> ~t_2      tb)
     4.11972709E-04    2    -2000006         6   # BR(~chi_40 -> ~t_2*     t )
     1.31763474E-02    2     1000005        -5   # BR(~chi_40 -> ~b_1      bb)
     1.31763474E-02    2    -1000005         5   # BR(~chi_40 -> ~b_1*     b )
     2.72936381E-04    2     2000005        -5   # BR(~chi_40 -> ~b_2      bb)
     2.72936381E-04    2    -2000005         5   # BR(~chi_40 -> ~b_2*     b )
     2.47804506E-03    2     1000011       -11   # BR(~chi_40 -> ~e_L-     e+)
     2.47804506E-03    2    -1000011        11   # BR(~chi_40 -> ~e_L+     e-)
     8.72992137E-02    2     2000011       -11   # BR(~chi_40 -> ~e_R-     e+)
     8.72992137E-02    2    -2000011        11   # BR(~chi_40 -> ~e_R+     e-)
     2.47804506E-03    2     1000013       -13   # BR(~chi_40 -> ~mu_L-    mu+)
     2.47804506E-03    2    -1000013        13   # BR(~chi_40 -> ~mu_L+    mu-)
     8.72992137E-02    2     2000013       -13   # BR(~chi_40 -> ~mu_R-    mu+)
     8.72992137E-02    2    -2000013        13   # BR(~chi_40 -> ~mu_R+    mu-)
     4.46913320E-02    2     1000015       -15   # BR(~chi_40 -> ~tau_1-   tau+)
     4.46913320E-02    2    -1000015        15   # BR(~chi_40 -> ~tau_1+   tau-)
     5.85253624E-04    2     2000015       -15   # BR(~chi_40 -> ~tau_2-   tau+)
     5.85253624E-04    2    -2000015        15   # BR(~chi_40 -> ~tau_2+   tau-)
     2.54902169E-03    2     1000012       -12   # BR(~chi_40 -> ~nu_eL    nu_eb)
     2.54902169E-03    2    -1000012        12   # BR(~chi_40 -> ~nu_eL*   nu_e )
     2.54902169E-03    2     1000014       -14   # BR(~chi_40 -> ~nu_muL   nu_mub)
     2.54902169E-03    2    -1000014        14   # BR(~chi_40 -> ~nu_muL*  nu_mu )
     6.04662336E-04    2     1000016       -16   # BR(~chi_40 -> ~nu_tau1  nu_taub)
     6.04662336E-04    2    -1000016        16   # BR(~chi_40 -> ~nu_tau1* nu_tau )
#
#         PDG            Width
DECAY        25     4.04070617E-03   # h decays
#          BR         NDA      ID1       ID2
     6.13370619E-01    2           5        -5   # BR(h -> b       bb     )
     6.40142801E-02    2         -15        15   # BR(h -> tau+    tau-   )
     2.26591373E-04    2         -13        13   # BR(h -> mu+     mu-    )
     2.47462078E-04    2           3        -3   # BR(h -> s       sb     )
     2.13834256E-02    2           4        -4   # BR(h -> c       cb     )
     7.80525128E-02    2          21        21   # BR(h -> g       g      )
     2.28340494E-03    2          22        22   # BR(h -> gam     gam    )
     1.46722806E-03    2          22        23   # BR(h -> Z       gam    )
     1.94827920E-01    2          24       -24   # BR(h -> W+      W-     )
     2.41265566E-02    2          23        23   # BR(h -> Z       Z      )
#
#         PDG            Width
DECAY        35     2.83547489E+01   # H decays
#          BR         NDA      ID1       ID2
     8.22597050E-01    2           5        -5   # BR(H -> b       bb     )
     1.68063849E-01    2         -15        15   # BR(H -> tau+    tau-   )
     5.96359730E-04    2         -13        13   # BR(H -> mu+     mu-    )
     2.97859314E-04    2           3        -3   # BR(H -> s       sb     )
     7.05796698E-08    2           4        -4   # BR(H -> c       cb     )
     6.95069870E-03    2           6        -6   # BR(H -> t       tb     )
     7.06320474E-06    2          21        21   # BR(H -> g       g      )
     5.57000212E-10    2          22        22   # BR(H -> gam     gam    )
     4.77670415E-09    2          23        22   # BR(H -> Z       gam    )
     2.91190520E-06    2          24       -24   # BR(H -> W+      W-     )
     1.45308375E-06    2          23        23   # BR(H -> Z       Z      )
     1.14050681E-05    2          25        25   # BR(H -> h       h      )
     1.03172166E-03    2     1000024  -1000024   # BR(H -> ~chi_1+ ~chi_1-)
     2.66128890E-04    2     1000022   1000022   # BR(H -> ~chi_10 ~chi_10)
     1.63992569E-04    2     1000023   1000023   # BR(H -> ~chi_20 ~chi_20)
     7.35364752E-07    2     1000022   1000023   # BR(H -> ~chi_10 ~chi_20)
     1.62637045E-06    2     1000002  -1000002   # BR(H -> ~u_L    ~u_L*  )
     1.62637045E-06    2     1000004  -1000004   # BR(H -> ~c_L    ~c_L*  )
     2.38075780E-06    2     1000001  -1000001   # BR(H -> ~d_L    ~d_L*  )
     8.10511632E-08    2     2000001  -2000001   # BR(H -> ~d_R    ~d_R*  )
     2.38075780E-06    2     1000003  -1000003   # BR(H -> ~s_L    ~s_L*  )
     8.10511632E-08    2     2000003  -2000003   # BR(H -> ~s_R    ~s_R*  )
     2.59688531E-07    2     2000011  -2000011   # BR(H -> ~e_R-   ~e_R+  )
     2.59688531E-07    2     2000013  -2000013   # BR(H -> ~mu_R-  ~mu_R+ )
#
#         PDG            Width
DECAY        36     2.83588270E+01   # A decays
#          BR         NDA      ID1       ID2
     8.22520524E-01    2           5        -5   # BR(A -> b       bb     )
     1.68040470E-01    2         -15        15   # BR(A -> tau+    tau-   )
     5.96276087E-04    2         -13        13   # BR(A -> mu+     mu-    )
     2.97848735E-04    2           3        -3   # BR(A -> s       sb     )
     7.09163153E-08    2           4        -4   # BR(A -> c       cb     )
     6.96789891E-03    2           6        -6   # BR(A -> t       tb     )
     3.78366058E-05    2          21        21   # BR(A -> g       g      )
     1.39288107E-08    2          22        22   # BR(A -> gam     gam    )
     3.19230836E-08    2          23        22   # BR(A -> Z       gam    )
     2.95185578E-06    2          23        25   # BR(A -> Z       h      )
     1.08380545E-03    2     1000024  -1000024   # BR(A -> ~chi_1+ ~chi_1-)
     2.42772156E-04    2     1000022   1000022   # BR(A -> ~chi_10 ~chi_10)
     2.03690823E-04    2     1000023   1000023   # BR(A -> ~chi_20 ~chi_20)
     5.80879482E-06    2     1000022   1000023   # BR(A -> ~chi_10 ~chi_20)
#
#         PDG            Width
DECAY        37     2.71957720E+01   # H+ decays
#          BR         NDA      ID1       ID2
     1.37163563E-03    2           4        -5   # BR(H+ -> c       bb     )
     1.75298407E-01    2         -15        16   # BR(H+ -> tau+    nu_tau )
     6.22030208E-04    2         -13        14   # BR(H+ -> mu+     nu_mu  )
     1.37163421E-05    2           2        -5   # BR(H+ -> u       bb     )
     1.55415554E-05    2           2        -3   # BR(H+ -> u       sb     )
     3.05975935E-04    2           4        -3   # BR(H+ -> c       sb     )
     8.22215949E-01    2           6        -5   # BR(H+ -> t       bb     )
     3.08342818E-06    2          24        25   # BR(H+ -> W+      h      )
     2.25459292E-13    2          24        36   # BR(H+ -> W+      A      )
     5.19032212E-05    2     1000024   1000022   # BR(H+ -> ~chi_1+ ~chi_10)
     9.34945375E-05    2     1000024   1000023   # BR(H+ -> ~chi_1+ ~chi_20)
     4.13143093E-06    2     1000002  -1000001   # BR(H+ -> ~u_L    ~d_L*  )
     4.13143093E-06    2     1000004  -1000003   # BR(H+ -> ~c_L    ~s_L*  )
