#
#                              ======================
#                              | THE SUSYHIT OUTPUT |
#                              ======================
#
#
#              ------------------------------------------------------
#              |     This is the output of the SUSY-HIT package     |
#              |  created by A.Djouadi, M.Muehlleitner and M.Spira. |
#              |  In case of problems with SUSY-HIT email to        |
#              |           margarete.muehlleitner@cern.ch           |
#              |           michael.spira@psi.ch                     |
#              |           abdelhak.djouadi@cern.ch                 |
#              ------------------------------------------------------
#
#              ------------------------------------------------------
#              |  SUSY Les Houches Accord - MSSM Spectrum + Decays  |
#              |              based on the decay programs           |
#              |                                                    |
#              |                     SDECAY 1.3b                    |
#              |                                                    |
#              |  Authors: M.Muhlleitner, A.Djouadi and Y.Mambrini  |
#              |  Ref.:    Comput.Phys.Commun.168(2005)46           |
#              |           [hep-ph/0311167]                         |
#              |                                                    |
#              |                     HDECAY 3.4                     |
#              |                                                    |
#              |  By: A.Djouadi,J.Kalinowski,M.Muhlleitner,M.Spira  |
#              |  Ref.:    Comput.Phys.Commun.108(1998)56           |
#              |           [hep-ph/9704448]                         |
#              |                                                    |
#              |                                                    |
#              |  If not stated otherwise all DRbar couplings and   |
#              |  soft SUSY breaking masses are given at the scale  |
#              |  Q=  0.16790880E+04
#              |                                                    |
#              ------------------------------------------------------
#
#
BLOCK DCINFO  # Decay Program information
     1   SDECAY/HDECAY # decay calculator
     2   1.3b  /3.4    # version number
#
BLOCK SPINFO  # Spectrum calculator information
     1     SOFTSUSY    # spectrum calculator               
     2     3.4.0       # version number                    
#
BLOCK MODSEL  # Model selection
     1     0   #  nonUniversal                                     
#
BLOCK SMINPUTS  # Standard Model inputs
         1     1.27908970E+02   # alpha_em^-1(M_Z)^MSbar
         2     1.16637870E-05   # G_F [GeV^-2]
         3     1.18400000E-01   # alpha_S(M_Z)^MSbar
         4     9.11876000E+01   # M_Z pole mass
         5     4.18000000E+00   # mb(mb)^MSbar
         6     1.73200000E+02   # mt pole mass
         7     1.77700000E+00   # mtau pole mass
#
BLOCK MINPAR  # Input parameters - minimal models
         3     8.35000000E+00   # tanb                
#
BLOCK EXTPAR  # Input parameters - non-minimal models
         0    -1.00000000E+00   # Set                 
         1    -7.33190000E+02   # M_1(MX)             
         2     3.38325000E+03   # M_2(MX)             
         3     2.56843000E+03   # M_3(MX)             
        11     3.07994000E+03   # At(MX)              
        12     4.82800000E+02   # Ab(MX)              
        13     1.98857000E+03   # Atau(MX)            
        23     1.76750000E+02   # mu(MX)              
        26     2.04388000E+03   # mA(pole)            
        31     1.51560000E+03   # meL(MX)             
        32     1.51560000E+03   # mmuL(MX)            
        33     2.64076000E+03   # mtauL(MX)           
        34     3.09324000E+03   # meR(MX)             
        35     3.09324000E+03   # mmuR(MX)            
        36     2.82339000E+03   # mtauR(MX)           
        41     3.52390000E+03   # mqL1(MX)            
        42     3.52390000E+03   # mqL2(MX)            
        43     1.55381000E+03   # mqL3(MX)            
        44     2.08740000E+02   # muR(MX)             
        45     2.08740000E+02   # mcR(MX)             
        46     1.82466000E+03   # mtR(MX)             
        47     2.92986000E+03   # mdR(MX)             
        48     2.92986000E+03   # msR(MX)             
        49     3.39043000E+03   # mbR(MX)             
#
BLOCK MASS  # Mass Spectrum
# PDG code           mass       particle
        24     8.04157597E+01   # W+
        25     1.25902038E+02   # h
        35     2.04403879E+03   # H
        36     2.04387972E+03   # A
        37     2.04583609E+03   # H+
         5     4.81876030E+00   # b-quark pole mass calculated from mb(mb)_Msbar
   1000001     3.56360161E+03   # ~d_L
   2000001     2.97508021E+03   # ~d_R
   1000002     3.56288888E+03   # ~u_L
   2000002     2.56220777E+02   # ~u_R
   1000003     3.56360161E+03   # ~s_L
   2000003     2.97508021E+03   # ~s_R
   1000004     3.56288888E+03   # ~c_L
   2000004     2.56220777E+02   # ~c_R
   1000005     1.58341214E+03   # ~b_1
   2000005     3.42605418E+03   # ~b_2
   1000006     1.52149491E+03   # ~t_1
   2000006     1.86229885E+03   # ~t_2
   1000011     1.51123379E+03   # ~e_L
   2000011     3.10076940E+03   # ~e_R
   1000012     1.50890563E+03   # ~nu_eL
   1000013     1.51123379E+03   # ~mu_L
   2000013     3.10076940E+03   # ~mu_R
   1000014     1.50890563E+03   # ~nu_muL
   1000015     2.64537059E+03   # ~tau_1
   2000015     2.83109873E+03   # ~tau_2
   1000016     2.64389155E+03   # ~nu_tauL
   1000021     2.67257355E+03   # ~g
   1000022    -1.82845511E+02   # ~chi_10
   1000023     1.84356274E+02   # ~chi_20
   1000025    -7.29263256E+02   # ~chi_30
   1000035     3.37687101E+03   # ~chi_40
   1000024     1.83642455E+02   # ~chi_1+
   1000037     3.37703604E+03   # ~chi_2+
#
BLOCK NMIX  # Neutralino Mixing Matrix
  1  1     4.98307378E-02   # N_11
  1  2     1.33667272E-02   # N_12
  1  3     7.08526888E-01   # N_13
  1  4     7.03795337E-01   # N_14
  2  1     3.82692021E-02   # N_21
  2  2     1.91899574E-02   # N_22
  2  3    -7.05623100E-01   # N_23
  2  4     7.07292906E-01   # N_24
  3  1     9.98024190E-01   # N_31
  3  2    -1.11805295E-03   # N_32
  3  3    -8.31806301E-03   # N_33
  3  4    -6.22677693E-02   # N_34
  4  1    -2.84692393E-04   # N_41
  4  2     9.99725875E-01   # N_42
  4  3     4.06200507E-03   # N_43
  4  4    -2.30563000E-02   # N_44
#
BLOCK UMIX  # Chargino Mixing Matrix U
  1  1    -5.74202109E-03   # U_11
  1  2     9.99983514E-01   # U_12
  2  1    -9.99983514E-01   # U_21
  2  2    -5.74202109E-03   # U_22
#
BLOCK VMIX  # Chargino Mixing Matrix V
  1  1    -3.25952672E-02   # V_11
  1  2     9.99468633E-01   # V_12
  2  1    -9.99468633E-01   # V_21
  2  2    -3.25952672E-02   # V_22
#
BLOCK STOPMIX  # Stop Mixing Matrix
  1  1     9.07901714E-01   # cos(theta_t)
  1  2    -4.19183108E-01   # sin(theta_t)
  2  1     4.19183108E-01   # -sin(theta_t)
  2  2     9.07901714E-01   # cos(theta_t)
#
BLOCK SBOTMIX  # Sbottom Mixing Matrix
  1  1     9.99999974E-01   # cos(theta_b)
  1  2     2.28035084E-04   # sin(theta_b)
  2  1    -2.28035084E-04   # -sin(theta_b)
  2  2     9.99999974E-01   # cos(theta_b)
#
BLOCK STAUMIX  # Stau Mixing Matrix
  1  1     9.99999546E-01   # cos(theta_tau)
  1  2    -9.52890232E-04   # sin(theta_tau)
  2  1     9.52890232E-04   # -sin(theta_tau)
  2  2     9.99999546E-01   # cos(theta_tau)
#
BLOCK ALPHA  # Higgs mixing
          -1.25129597E-01   # Mixing angle in the neutral Higgs boson sector
#
BLOCK HMIX Q=  1.67908800E+03  # DRbar Higgs Parameters
         1     1.79153056E+02   # mu(Q)MSSM           
         2     7.99594778E+00   # tan                 
         3     2.43849740E+02   # higgs               
         4     4.10152670E+06   # mA^2(Q)MSSM         
#
BLOCK GAUGE Q=  1.67908800E+03  # The gauge couplings
     1     3.63508513E-01   # gprime(Q) DRbar
     2     6.36730142E-01   # g(Q) DRbar
     3     1.02594699E+00   # g3(Q) DRbar
#
BLOCK AU Q=  1.67908800E+03  # The trilinear couplings
  1  1     0.00000000E+00   # A_u(Q) DRbar
  2  2     0.00000000E+00   # A_c(Q) DRbar
  3  3     3.07994001E+03   # A_t(Q) DRbar
#
BLOCK AD Q=  1.67908800E+03  # The trilinear couplings
  1  1     0.00000000E+00   # A_d(Q) DRbar
  2  2     0.00000000E+00   # A_s(Q) DRbar
  3  3     4.82800002E+02   # A_b(Q) DRbar
#
BLOCK AE Q=  1.67908800E+03  # The trilinear couplings
  1  1     0.00000000E+00   # A_e(Q) DRbar
  2  2     0.00000000E+00   # A_mu(Q) DRbar
  3  3     1.98857000E+03   # A_tau(Q) DRbar
#
BLOCK Yu Q=  1.67908800E+03  # The Yukawa couplings
  1  1     0.00000000E+00   # y_u(Q) DRbar
  2  2     0.00000000E+00   # y_c(Q) DRbar
  3  3     8.60970596E-01   # y_t(Q) DRbar
#
BLOCK Yd Q=  1.67908800E+03  # The Yukawa couplings
  1  1     0.00000000E+00   # y_d(Q) DRbar
  2  2     0.00000000E+00   # y_s(Q) DRbar
  3  3     1.09423371E-01   # y_b(Q) DRbar
#
BLOCK Ye Q=  1.67908800E+03  # The Yukawa couplings
  1  1     0.00000000E+00   # y_e(Q) DRbar
  2  2     0.00000000E+00   # y_mu(Q) DRbar
  3  3     8.23867412E-02   # y_tau(Q) DRbar
#
BLOCK MSOFT Q=  1.67908800E+03  # The soft SUSY breaking masses at the scale Q
         1    -7.33190000E+02   # M_1(Q)              
         2     3.38325000E+03   # M_2(Q)              
         3     2.56843000E+03   # M_3(Q)              
        21     4.08677499E+06   # mH1^2(Q)            
        22     1.23182451E+05   # mH2^2(Q)            
        31     1.51560000E+03   # meL(Q)              
        32     1.51560000E+03   # mmuL(Q)             
        33     2.64076000E+03   # mtauL(Q)            
        34     3.09324000E+03   # meR(Q)              
        35     3.09324000E+03   # mmuR(Q)             
        36     2.82339000E+03   # mtauR(Q)            
        41     3.52390000E+03   # mqL1(Q)             
        42     3.52390000E+03   # mqL2(Q)             
        43     1.55380999E+03   # mqL3(Q)             
        44     2.08739967E+02   # muR(Q)              
        45     2.08739967E+02   # mcR(Q)              
        46     1.82465999E+03   # mtR(Q)              
        47     2.92986000E+03   # mdR(Q)              
        48     2.92986000E+03   # msR(Q)              
        49     3.39043000E+03   # mbR(Q)              
#
Block HiggsBoundsInputHiggsCouplingsFermions
# ScalarNormEffCoupSq PseudoSNormEffCoupSq NP   IP1 IP2 IP2
    1.01142182E+00    0.00000000E+00        3  25   5   5  # h0-b-b eff. coupling^2, normalised to SM
    6.39237591E+01    0.00000000E+00        3  35   5   5  # H0-b-b eff. coupling^2, normalised to SM
    0.00000000E+00    6.39351809E+01        3  36   5   5  # A0-b-b eff. coupling^2, normalised to SM
#
    9.99821353E-01    0.00000000E+00        3  25   6   6  # h0-t-t eff. coupling^2, normalised to SM
    1.58194879E-02    0.00000000E+00        3  35   6   6  # H0-t-t eff. coupling^2, normalised to SM
    0.00000000E+00    1.56408410E-02        3  36   6   6  # A0-t-t eff. coupling^2, normalised to SM
#
    1.01142182E+00    0.00000000E+00        3  25  15  15  # h0-tau-tau eff. coupling^2, normalised to SM
    6.39237591E+01    0.00000000E+00        3  35  15  15  # H0-tau-tau eff. coupling^2, normalised to SM
    0.00000000E+00    6.39351809E+01        3  36  15  15  # A0-tau-tau eff. coupling^2, normalised to SM
#
Block HiggsBoundsInputHiggsCouplingsBosons
    9.99999493E-01        3  25  24  24  # h0-W-W eff. coupling^2, normalised to SM
    5.07270774E-07        3  35  24  24  # H0-W-W eff. coupling^2, normalised to SM
    0.00000000E+00        3  36  24  24  # A0-W-W eff. coupling^2, normalised to SM
#
    9.99999493E-01        3  25  23  23  # h0-Z-Z eff. coupling^2, normalised to SM
    5.07270774E-07        3  35  23  23  # H0-Z-Z eff. coupling^2, normalised to SM
    0.00000000E+00        3  36  23  23  # A0-Z-Z eff. coupling^2, normalised to SM
#
    8.49126921E-01        3  25  21  21  # h0-g-g eff. coupling^2, normalised to SM
    4.58878491E-11        3  35  21  21  # H0-g-g eff. coupling^2, normalised to SM
    2.34217665E-10        3  36  21  21  # A0-g-g eff. coupling^2, normalised to SM
#
    0.00000000E+00        3  25  25  23  # h0-h0-Z eff. coupling^2, normalised to SM
    0.00000000E+00        3  35  25  23  # H0-h0-Z eff. coupling^2, normalised to SM
    5.07270774E-07        3  36  25  23  # A0-h0-Z eff. coupling^2, normalised to SM
    0.00000000E+00        3  35  35  23  # H0-H0-Z eff. coupling^2, normalised to SM
    9.99999493E-01        3  36  35  23  # A0-H0-Z eff. coupling^2, normalised to SM
    0.00000000E+00        3  36  36  23  # A0-A0-Z eff. coupling^2, normalised to SM
#
    0.00000000E+00        4  25  21  21  23  # h0-g-g-Z eff. coupling^2, normalised to SM
    0.00000000E+00        4  35  21  21  23  # H0-g-g-Z eff. coupling^2, normalised to SM
    0.00000000E+00        4  36  21  21  23  # A0-g-g-Z eff. coupling^2, normalised to SM
#
#
#
#                             =================
#                             |The decay table|
#                             =================
#
# - The QCD corrections to the decays gluino -> squark  + quark
#                                     squark -> gaugino + quark_prime
#                                     squark -> squark_prime + Higgs
#                                     squark -> gluino  + quark
#   are included.
#
# - The multi-body decays for the inos, stops and sbottoms are included.
#
# - The loop induced decays for the gluino, neutralinos and stops
#   are included.
#
# - The SUSY decays of the top quark are included.
#
#
#         PDG            Width
DECAY         6     1.42670191E+00   # top decays
#          BR         NDA      ID1       ID2
     1.00000000E+00    2           5        24   # BR(t ->  b    W+)
#
#         PDG            Width
DECAY   1000021     1.61553761E+02   # gluino decays
#          BR         NDA      ID1       ID2
     1.62041099E-01    2     2000002        -2   # BR(~g -> ~u_R  ub)
     1.62041099E-01    2    -2000002         2   # BR(~g -> ~u_R* u )
     1.62041098E-01    2     2000004        -4   # BR(~g -> ~c_R  cb)
     1.62041098E-01    2    -2000004         4   # BR(~g -> ~c_R* c )
     6.43391555E-02    2     1000005        -5   # BR(~g -> ~b_1  bb)
     6.43391555E-02    2    -1000005         5   # BR(~g -> ~b_1* b )
     7.85855122E-02    2     1000006        -6   # BR(~g -> ~t_1  tb)
     7.85855122E-02    2    -1000006         6   # BR(~g -> ~t_1* t )
     3.29931359E-02    2     2000006        -6   # BR(~g -> ~t_2  tb)
     3.29931359E-02    2    -2000006         6   # BR(~g -> ~t_2* t )
#
#         PDG            Width
DECAY   1000006     2.53316446E+01   # stop1 decays
#          BR         NDA      ID1       ID2
     4.09888512E-01    2     1000022         6   # BR(~t_1 -> ~chi_10 t )
     4.28324488E-01    2     1000023         6   # BR(~t_1 -> ~chi_20 t )
     1.46609284E-02    2     1000025         6   # BR(~t_1 -> ~chi_30 t )
     1.47126071E-01    2     1000024         5   # BR(~t_1 -> ~chi_1+ b )
#
#         PDG            Width
DECAY   2000006     7.96539572E+01   # stop2 decays
#          BR         NDA      ID1       ID2
     1.65480932E-01    2     1000022         6   # BR(~t_2 -> ~chi_10 t )
     1.63692466E-01    2     1000023         6   # BR(~t_2 -> ~chi_20 t )
     3.63872192E-02    2     1000025         6   # BR(~t_2 -> ~chi_30 t )
     2.85578832E-01    2     1000024         5   # BR(~t_2 -> ~chi_1+ b )
     5.89990334E-02    2     1000006        25   # BR(~t_2 -> ~t_1    h )
     1.24056362E-01    2     1000006        23   # BR(~t_2 -> ~t_1    Z )
     1.65805156E-01    2     1000005        24   # BR(~t_2 -> ~b_1    W+)
#
#         PDG            Width
DECAY   1000005     2.26559541E+01   # sbottom1 decays
#          BR         NDA      ID1       ID2
     8.14011508E-03    2     1000022         5   # BR(~b_1 -> ~chi_10 b )
     8.10376140E-03    2     1000023         5   # BR(~b_1 -> ~chi_20 b )
     6.38554008E-03    2     1000025         5   # BR(~b_1 -> ~chi_30 b )
     9.77370583E-01    2    -1000024         6   # BR(~b_1 -> ~chi_1- t )
#
#         PDG            Width
DECAY   2000005     3.27646758E+01   # sbottom2 decays
#          BR         NDA      ID1       ID2
     1.25836228E-02    2     1000022         5   # BR(~b_2 -> ~chi_10 b )
     1.24193715E-02    2     1000023         5   # BR(~b_2 -> ~chi_20 b )
     5.54564894E-02    2     1000025         5   # BR(~b_2 -> ~chi_30 b )
     5.16290452E-10    2     1000035         5   # BR(~b_2 -> ~chi_40 b )
     2.46372871E-02    2    -1000024         6   # BR(~b_2 -> ~chi_1- t )
     8.94862432E-01    2     1000021         5   # BR(~b_2 -> ~g      b )
     1.15008933E-05    2     1000005        25   # BR(~b_2 -> ~b_1    h )
     9.93864928E-06    2     1000005        23   # BR(~b_2 -> ~b_1    Z )
     1.69215591E-05    2     1000006       -24   # BR(~b_2 -> ~t_1    W-)
     2.43524697E-06    2     2000006       -24   # BR(~b_2 -> ~t_2    W-)
#
#         PDG            Width
DECAY   1000002     5.39043368E+01   # sup_L decays
#          BR         NDA      ID1       ID2
     1.31911723E-04    2     1000022         2   # BR(~u_L -> ~chi_10 u)
     1.77047079E-04    2     1000023         2   # BR(~u_L -> ~chi_20 u)
     8.33855362E-03    2     1000025         2   # BR(~u_L -> ~chi_30 u)
     2.84468131E-03    2     1000035         2   # BR(~u_L -> ~chi_40 u)
     5.36848181E-04    2     1000024         1   # BR(~u_L -> ~chi_1+ d)
     5.67744507E-03    2     1000037         1   # BR(~u_L -> ~chi_2+ d)
     9.82293513E-01    2     1000021         2   # BR(~u_L -> ~g      u)
#
#         PDG            Width
DECAY   2000002     6.20634687E-04   # sup_R decays
#          BR         NDA      ID1       ID2
     6.37008232E-01    2     1000022         2   # BR(~u_R -> ~chi_10 u)
     3.62991768E-01    2     1000023         2   # BR(~u_R -> ~chi_20 u)
#
#         PDG            Width
DECAY   1000001     5.39413401E+01   # sdown_L decays
#          BR         NDA      ID1       ID2
     3.80952811E-06    2     1000022         1   # BR(~d_L -> ~chi_10 d)
     3.58029289E-05    2     1000023         1   # BR(~d_L -> ~chi_20 d)
     8.53342918E-03    2     1000025         1   # BR(~d_L -> ~chi_30 d)
     2.86361243E-03    2     1000035         1   # BR(~d_L -> ~chi_40 d)
     1.66519198E-05    2    -1000024         2   # BR(~d_L -> ~chi_1- u)
     5.71991579E-03    2    -1000037         2   # BR(~d_L -> ~chi_2- u)
     9.82826778E-01    2     1000021         1   # BR(~d_L -> ~g      d)
#
#         PDG            Width
DECAY   2000001     1.00781444E+01   # sdown_R decays
#          BR         NDA      ID1       ID2
     4.03821239E-04    2     1000022         1   # BR(~d_R -> ~chi_10 d)
     2.38146318E-04    2     1000023         1   # BR(~d_R -> ~chi_20 d)
     1.44731888E-01    2     1000025         1   # BR(~d_R -> ~chi_30 d)
     8.54626144E-01    2     1000021         1   # BR(~d_R -> ~g      d)
#
#         PDG            Width
DECAY   1000004     3.90138777E+01   # scharm_L decays
#          BR         NDA      ID1       ID2
     1.91274316E-04    2     1000022         4   # BR(~c_L -> ~chi_10 c)
     2.56718733E-04    2     1000023         4   # BR(~c_L -> ~chi_20 c)
     1.20517356E-02    2     1000025         4   # BR(~c_L -> ~chi_30 c)
     3.80610789E-03    2     1000035         4   # BR(~c_L -> ~chi_40 c)
     7.78435363E-04    2     1000024         3   # BR(~c_L -> ~chi_1+ s)
     7.59626728E-03    2     1000037         3   # BR(~c_L -> ~chi_2+ s)
     9.75319461E-01    2     1000021         4   # BR(~c_L -> ~g      c)
#
#         PDG            Width
DECAY   2000004     5.61844775E-04   # scharm_R decays
#          BR         NDA      ID1       ID2
     6.37082176E-01    2     1000022         4   # BR(~c_R -> ~chi_10 c)
     3.62917824E-01    2     1000023         4   # BR(~c_R -> ~chi_20 c)
#
#         PDG            Width
DECAY   1000003     3.90309798E+01   # sstrange_L decays
#          BR         NDA      ID1       ID2
     5.52522198E-06    2     1000022         3   # BR(~s_L -> ~chi_10 s)
     5.19269286E-05    2     1000023         3   # BR(~s_L -> ~chi_20 s)
     1.23363915E-02    2     1000025         3   # BR(~s_L -> ~chi_30 s)
     3.83311708E-03    2     1000035         3   # BR(~s_L -> ~chi_40 s)
     2.41512945E-05    2    -1000024         4   # BR(~s_L -> ~chi_1- c)
     7.65588691E-03    2    -1000037         4   # BR(~s_L -> ~chi_2- c)
     9.76093001E-01    2     1000021         3   # BR(~s_L -> ~g      s)
#
#         PDG            Width
DECAY   2000003     7.72569361E+00   # sstrange_R decays
#          BR         NDA      ID1       ID2
     5.54390246E-04    2     1000022         3   # BR(~s_R -> ~chi_10 s)
     3.26937782E-04    2     1000023         3   # BR(~s_R -> ~chi_20 s)
     1.97955069E-01    2     1000025         3   # BR(~s_R -> ~chi_30 s)
     8.01163603E-01    2     1000021         3   # BR(~s_R -> ~g      s)
#
#         PDG            Width
DECAY   1000011     1.18048888E+00   # selectron_L decays
#          BR         NDA      ID1       ID2
     8.76469177E-03    2     1000022        11   # BR(~e_L -> ~chi_10 e-)
     8.43773079E-03    2     1000023        11   # BR(~e_L -> ~chi_20 e-)
     9.82467118E-01    2     1000025        11   # BR(~e_L -> ~chi_30 e-)
     3.30459671E-04    2    -1000024        12   # BR(~e_L -> ~chi_1- nu_e)
#
#         PDG            Width
DECAY   2000011     1.45555129E+01   # selectron_R decays
#          BR         NDA      ID1       ID2
     2.76185187E-03    2     1000022        11   # BR(~e_R -> ~chi_10 e-)
     1.62874940E-03    2     1000023        11   # BR(~e_R -> ~chi_20 e-)
     9.95609399E-01    2     1000025        11   # BR(~e_R -> ~chi_30 e-)
#
#         PDG            Width
DECAY   1000013     1.18048886E+00   # smuon_L decays
#          BR         NDA      ID1       ID2
     8.76469183E-03    2     1000022        13   # BR(~mu_L -> ~chi_10 mu-)
     8.43773085E-03    2     1000023        13   # BR(~mu_L -> ~chi_20 mu-)
     9.82467118E-01    2     1000025        13   # BR(~mu_L -> ~chi_30 mu-)
     3.30459677E-04    2    -1000024        14   # BR(~mu_L -> ~chi_1- nu_mu)
#
#         PDG            Width
DECAY   2000013     1.45555129E+01   # smuon_R decays
#          BR         NDA      ID1       ID2
     2.76185187E-03    2     1000022        13   # BR(~mu_R -> ~chi_10 mu-)
     1.62874941E-03    2     1000023        13   # BR(~mu_R -> ~chi_20 mu-)
     9.95609399E-01    2     1000025        13   # BR(~mu_R -> ~chi_30 mu-)
#
#         PDG            Width
DECAY   1000015     3.33604899E+00   # stau_1 decays
#          BR         NDA      ID1       ID2
     5.87648679E-02    2     1000022        15   # BR(~tau_1 -> ~chi_10  tau-)
     5.81300591E-02    2     1000023        15   # BR(~tau_1 -> ~chi_20  tau-)
     8.82905099E-01    2     1000025        15   # BR(~tau_1 -> ~chi_30  tau-)
     1.99974547E-04    2    -1000024        16   # BR(~tau_1 -> ~chi_1-  nu_tau)
#
#         PDG            Width
DECAY   2000015     1.37403527E+01   # stau_2 decays
#          BR         NDA      ID1       ID2
     1.65226762E-02    2     1000022        15   # BR(~tau_2 -> ~chi_10  tau-)
     1.53091837E-02    2     1000023        15   # BR(~tau_2 -> ~chi_20  tau-)
     9.40574621E-01    2     1000025        15   # BR(~tau_2 -> ~chi_30  tau-)
     2.75906254E-02    2    -1000024        16   # BR(~tau_2 -> ~chi_1-  nu_tau)
     1.43962874E-06    2     1000016       -24   # BR(~tau_2 -> ~nu_tauL W-)
     8.03150078E-07    2     1000015        25   # BR(~tau_2 -> ~tau_1   h)
     6.51209726E-07    2     1000015        23   # BR(~tau_2 -> ~tau_1   Z)
#
#         PDG            Width
DECAY   1000012     1.17887830E+00   # snu_eL decays
#          BR         NDA      ID1       ID2
     1.13985359E-03    2     1000022        12   # BR(~nu_eL -> ~chi_10 nu_e)
     3.53845100E-05    2     1000023        12   # BR(~nu_eL -> ~chi_20 nu_e)
     9.88178892E-01    2     1000025        12   # BR(~nu_eL -> ~chi_30 nu_e)
     1.06458694E-02    2     1000024        11   # BR(~nu_eL -> ~chi_1+ e-)
#
#         PDG            Width
DECAY   1000014     1.17887830E+00   # snu_muL decays
#          BR         NDA      ID1       ID2
     1.13985359E-03    2     1000022        14   # BR(~nu_muL -> ~chi_10 nu_mu)
     3.53845100E-05    2     1000023        14   # BR(~nu_muL -> ~chi_20 nu_mu)
     9.88178893E-01    2     1000025        14   # BR(~nu_muL -> ~chi_30 nu_mu)
     1.06458693E-02    2     1000024        13   # BR(~nu_muL -> ~chi_1+ mu-)
#
#         PDG            Width
DECAY   1000016     3.34483277E+00   # snu_tauL decays
#          BR         NDA      ID1       ID2
     7.18141261E-04    2     1000022        16   # BR(~nu_tauL -> ~chi_10 nu_tau)
     2.23007539E-05    2     1000023        16   # BR(~nu_tauL -> ~chi_20 nu_tau)
     8.86850421E-01    2     1000025        16   # BR(~nu_tauL -> ~chi_30 nu_tau)
     1.12409137E-01    2     1000024        15   # BR(~nu_tauL -> ~chi_1+ tau-)
#
#         PDG            Width
DECAY   1000024     1.19603320E-12   # chargino1+ decays
#           BR         NDA      ID1       ID2       ID3
     1.55777600E-01    3     1000022       -11        12   # BR(~chi_1+ -> ~chi_10 e+   nu_e)
     1.42976960E-01    3     1000022       -13        14   # BR(~chi_1+ -> ~chi_10 mu+  nu_mu)
     6.18389310E-01    2     1000022       211             # BR(~chi_1+ -> ~chi_10 pi+)
     8.23245370E-02    3     1000022       211        111   # BR(~chi_1+ -> ~chi_10 pi+ pi0)
     2.65794110E-04    4     1000022       211        111       111 # BR(~chi_1+ -> ~chi_10 pi+ pi0 pi0)
     2.65794110E-04    4     1000022       211        211      -211 # BR(~chi_1+ -> ~chi_10 pi+ pi+ pi-)
#
#         PDG            Width
DECAY   1000037     1.25719036E+02   # chargino2+ decays
#          BR         NDA      ID1       ID2
     1.76977023E-01    2     1000006        -5   # BR(~chi_2+ -> ~t_1     bb)
     2.25995076E-02    2     2000006        -5   # BR(~chi_2+ -> ~t_2     bb)
     1.95516616E-01    2    -1000005         6   # BR(~chi_2+ -> ~b_1*    t )
     6.93189717E-02    2     1000012       -11   # BR(~chi_2+ -> ~nu_eL   e+  )
     6.93189717E-02    2     1000014       -13   # BR(~chi_2+ -> ~nu_muL mu+ )
     1.62123001E-02    2     1000016       -15   # BR(~chi_2+ -> ~nu_tau1 tau+)
     6.92835424E-02    2    -1000011        12   # BR(~chi_2+ -> ~e_L+    nu_e)
     6.92835424E-02    2    -1000013        14   # BR(~chi_2+ -> ~mu_L+   nu_mu)
     1.61716370E-02    2    -1000015        16   # BR(~chi_2+ -> ~tau_1+  nu_tau)
     4.21587829E-10    2    -2000015        16   # BR(~chi_2+ -> ~tau_2+  nu_tau)
     5.34125350E-02    2     1000024        23   # BR(~chi_2+ -> ~chi_1+  Z )
     5.15114854E-02    2     1000022        24   # BR(~chi_2+ -> ~chi_10  W+)
     5.20232085E-02    2     1000023        24   # BR(~chi_2+ -> ~chi_20  W+)
     2.36233061E-04    2     1000025        24   # BR(~chi_2+ -> ~chi_30  W+)
     5.53978315E-02    2     1000024        25   # BR(~chi_2+ -> ~chi_1+  h )
     2.06907245E-02    2     1000024        35   # BR(~chi_2+ -> ~chi_1+  H )
     2.06984318E-02    2     1000024        36   # BR(~chi_2+ -> ~chi_1+  A )
     2.07531945E-02    2     1000022        37   # BR(~chi_2+ -> ~chi_10  H+)
     2.05916686E-02    2     1000023        37   # BR(~chi_2+ -> ~chi_20  H+)
     2.57502461E-06    2     1000025        37   # BR(~chi_2+ -> ~chi_30  H+)
#
#         PDG            Width
DECAY   1000022     0.00000000E+00   # neutralino1 decays
#
#         PDG            Width
DECAY   1000023     1.13609314E-11   # neutralino2 decays
#          BR         NDA      ID1       ID2
     4.98661143E-01    2     1000022        22   # BR(~chi_20 -> ~chi_10 gam)
#           BR         NDA      ID1       ID2       ID3
     8.02791053E-02    3     1000022        -2         2   # BR(~chi_20 -> ~chi_10 ub      u)
     1.04166417E-01    3     1000022        -1         1   # BR(~chi_20 -> ~chi_10 db      d)
     1.04166417E-01    3     1000022        -3         3   # BR(~chi_20 -> ~chi_10 sb      s)
     2.39209680E-02    3     1000022       -11        11   # BR(~chi_20 -> ~chi_10 e+      e-)
     2.39209680E-02    3     1000022       -13        13   # BR(~chi_20 -> ~chi_10 mu+     mu-)
     4.78291300E-02    3     1000022       -12        12   # BR(~chi_20 -> ~chi_10 nu_eb   nu_e)
     4.78291300E-02    3     1000022       -14        14   # BR(~chi_20 -> ~chi_10 nu_mub  nu_mu)
     4.78291227E-02    3     1000022       -16        16   # BR(~chi_20 -> ~chi_10 nu_taub nu_tau)
     6.41927994E-03    3     1000024        -2         1   # BR(~chi_20 -> ~chi_1+ ub      d)
     6.41927994E-03    3    -1000024        -1         2   # BR(~chi_20 -> ~chi_1- db      u)
     2.13975987E-03    3     1000024       -12        11   # BR(~chi_20 -> ~chi_1+ nu_eb   e-)
     2.13975987E-03    3    -1000024        12       -11   # BR(~chi_20 -> ~chi_1- nu_e    e+)
     2.13975987E-03    3     1000024       -14        13   # BR(~chi_20 -> ~chi_1+ nu_mub  mu-)
     2.13975987E-03    3    -1000024        14       -13   # BR(~chi_20 -> ~chi_1- nu_mu   mu+)
#
#         PDG            Width
DECAY   1000025     9.75313023E+00   # neutralino3 decays
#          BR         NDA      ID1       ID2
     1.55231233E-02    2     1000022        23   # BR(~chi_30 -> ~chi_10   Z )
     2.54083718E-02    2     1000023        23   # BR(~chi_30 -> ~chi_20   Z )
     3.99843468E-02    2     1000024       -24   # BR(~chi_30 -> ~chi_1+   W-)
     3.99843468E-02    2    -1000024        24   # BR(~chi_30 -> ~chi_1-   W+)
     2.51973507E-02    2     1000022        25   # BR(~chi_30 -> ~chi_10   h )
     1.46039114E-02    2     1000023        25   # BR(~chi_30 -> ~chi_20   h )
     2.09824792E-01    2     2000002        -2   # BR(~chi_30 -> ~u_R      ub)
     2.09824792E-01    2    -2000002         2   # BR(~chi_30 -> ~u_R*     u )
     2.09824482E-01    2     2000004        -4   # BR(~chi_30 -> ~c_R      cb)
     2.09824482E-01    2    -2000004         4   # BR(~chi_30 -> ~c_R*     c )
#
#         PDG            Width
DECAY   1000035     1.25687826E+02   # neutralino4 decays
#          BR         NDA      ID1       ID2
     3.56320857E-02    2     1000022        23   # BR(~chi_40 -> ~chi_10   Z )
     1.76431711E-02    2     1000023        23   # BR(~chi_40 -> ~chi_20   Z )
     1.84124311E-04    2     1000025        23   # BR(~chi_40 -> ~chi_30   Z )
     5.18182569E-02    2     1000024       -24   # BR(~chi_40 -> ~chi_1+   W-)
     5.18182569E-02    2    -1000024        24   # BR(~chi_40 -> ~chi_1-   W+)
     1.79376058E-02    2     1000022        25   # BR(~chi_40 -> ~chi_10   h )
     1.12234317E-02    2     1000022        35   # BR(~chi_40 -> ~chi_10   H )
     9.59156315E-03    2     1000022        36   # BR(~chi_40 -> ~chi_10   A )
     3.73730922E-02    2     1000023        25   # BR(~chi_40 -> ~chi_20   h )
     9.48322183E-03    2     1000023        35   # BR(~chi_40 -> ~chi_20   H )
     1.11252949E-02    2     1000023        36   # BR(~chi_40 -> ~chi_20   A )
     7.10193578E-05    2     1000025        25   # BR(~chi_40 -> ~chi_30   h )
     1.96716845E-06    2     1000025        35   # BR(~chi_40 -> ~chi_30   H )
     6.30234443E-07    2     1000025        36   # BR(~chi_40 -> ~chi_30   A )
     2.06585605E-02    2     1000024       -37   # BR(~chi_40 -> ~chi_1+   H-)
     2.06585605E-02    2    -1000024        37   # BR(~chi_40 -> ~chi_1-   H+)
     7.18234943E-09    2     2000002        -2   # BR(~chi_40 -> ~u_R      ub)
     7.18234943E-09    2    -2000002         2   # BR(~chi_40 -> ~u_R*     u )
     9.55380844E-11    2     2000001        -1   # BR(~chi_40 -> ~d_R      db)
     9.55380844E-11    2    -2000001         1   # BR(~chi_40 -> ~d_R*     d )
     7.18234941E-09    2     2000004        -4   # BR(~chi_40 -> ~c_R      cb)
     7.18234941E-09    2    -2000004         4   # BR(~chi_40 -> ~c_R*     c )
     9.55380844E-11    2     2000003        -3   # BR(~chi_40 -> ~s _R      sb)
     9.55380844E-11    2    -2000003         3   # BR(~chi_40 -> ~s _R*     s )
     8.75713471E-02    2     1000006        -6   # BR(~chi_40 -> ~t_1      tb)
     8.75713471E-02    2    -1000006         6   # BR(~chi_40 -> ~t_1*     t )
     1.11341074E-02    2     2000006        -6   # BR(~chi_40 -> ~t_2      tb)
     1.11341074E-02    2    -2000006         6   # BR(~chi_40 -> ~t_2*     t )
     9.88705019E-02    2     1000005        -5   # BR(~chi_40 -> ~b_1      bb)
     9.88705019E-02    2    -1000005         5   # BR(~chi_40 -> ~b_1*     b )
     3.46178743E-02    2     1000011       -11   # BR(~chi_40 -> ~e_L-     e+)
     3.46178743E-02    2    -1000011        11   # BR(~chi_40 -> ~e_L+     e-)
     1.40814041E-10    2     2000011       -11   # BR(~chi_40 -> ~e_R-     e+)
     1.40814041E-10    2    -2000011        11   # BR(~chi_40 -> ~e_R+     e-)
     3.46178743E-02    2     1000013       -13   # BR(~chi_40 -> ~mu_L-    mu+)
     3.46178743E-02    2    -1000013        13   # BR(~chi_40 -> ~mu_L+    mu-)
     1.40814041E-10    2     2000013       -13   # BR(~chi_40 -> ~mu_R-    mu+)
     1.40814041E-10    2    -2000013        13   # BR(~chi_40 -> ~mu_R+    mu-)
     8.07808103E-03    2     1000015       -15   # BR(~chi_40 -> ~tau_1-   tau+)
     8.07808103E-03    2    -1000015        15   # BR(~chi_40 -> ~tau_1+   tau-)
     7.14732440E-10    2     2000015       -15   # BR(~chi_40 -> ~tau_2-   tau+)
     7.14732440E-10    2    -2000015        15   # BR(~chi_40 -> ~tau_2+   tau-)
     3.46938319E-02    2     1000012       -12   # BR(~chi_40 -> ~nu_eL    nu_eb)
     3.46938319E-02    2    -1000012        12   # BR(~chi_40 -> ~nu_eL*   nu_e )
     3.46938319E-02    2     1000014       -14   # BR(~chi_40 -> ~nu_muL   nu_mub)
     3.46938319E-02    2    -1000014        14   # BR(~chi_40 -> ~nu_muL*  nu_mu )
     8.11211347E-03    2     1000016       -16   # BR(~chi_40 -> ~nu_tau1  nu_taub)
     8.11211347E-03    2    -1000016        16   # BR(~chi_40 -> ~nu_tau1* nu_tau )
#
#         PDG            Width
DECAY        25     4.17345910E-03   # h decays
#          BR         NDA      ID1       ID2
     5.85849728E-01    2           5        -5   # BR(h -> b       bb     )
     6.31584222E-02    2         -15        15   # BR(h -> tau+    tau-   )
     2.23551474E-04    2         -13        13   # BR(h -> mu+     mu-    )
     2.43651885E-04    2           3        -3   # BR(h -> s       sb     )
     2.08978380E-02    2           4        -4   # BR(h -> c       cb     )
     7.63381682E-02    2          21        21   # BR(h -> g       g      )
     2.34639729E-03    2          22        22   # BR(h -> gam     gam    )
     1.62255027E-03    2          22        23   # BR(h -> Z       gam    )
     2.21210566E-01    2          24       -24   # BR(h -> W+      W-     )
     2.81091272E-02    2          23        23   # BR(h -> Z       Z      )
#
#         PDG            Width
DECAY        35     4.98448756E+00   # H decays
#          BR         NDA      ID1       ID2
     3.04058692E-01    2           5        -5   # BR(H -> b       bb     )
     5.41525189E-02    2         -15        15   # BR(H -> tau+    tau-   )
     1.91113220E-04    2         -13        13   # BR(H -> mu+     mu-    )
     1.25939267E-04    2           3        -3   # BR(H -> s       sb     )
     2.80500001E-06    2           4        -4   # BR(H -> c       cb     )
     2.71927871E-01    2           6        -6   # BR(H -> t       tb     )
     1.72773327E-04    2          21        21   # BR(H -> g       g      )
     9.15149515E-07    2          22        22   # BR(H -> gam     gam    )
     2.53838250E-07    2          23        22   # BR(H -> Z       gam    )
     2.77825434E-04    2          24       -24   # BR(H -> W+      W-     )
     1.38398039E-04    2          23        23   # BR(H -> Z       Z      )
     1.09463238E-03    2          25        25   # BR(H -> h       h      )
     3.31389991E-03    2     1000024  -1000024   # BR(H -> ~chi_1+ ~chi_1-)
     3.65374433E-04    2     1000022   1000022   # BR(H -> ~chi_10 ~chi_10)
     2.00164172E-06    2     1000023   1000023   # BR(H -> ~chi_20 ~chi_20)
     8.78821704E-05    2     1000025   1000025   # BR(H -> ~chi_30 ~chi_30)
     8.67326650E-05    2     1000022   1000023   # BR(H -> ~chi_10 ~chi_20)
     2.14719843E-01    2     1000022   1000025   # BR(H -> ~chi_10 ~chi_30)
     1.49211216E-01    2     1000023   1000025   # BR(H -> ~chi_20 ~chi_30)
     3.46561508E-05    2     2000002  -2000002   # BR(H -> ~u_R    ~u_R*  )
     3.46561508E-05    2     2000004  -2000004   # BR(H -> ~c_R    ~c_R*  )
#
#         PDG            Width
DECAY        36     4.99392133E+00   # A decays
#          BR         NDA      ID1       ID2
     3.03653068E-01    2           5        -5   # BR(A -> b       bb     )
     5.40558516E-02    2         -15        15   # BR(A -> tau+    tau-   )
     1.90771520E-04    2         -13        13   # BR(A -> mu+     mu-    )
     1.25854421E-04    2           3        -3   # BR(A -> s       sb     )
     2.79338957E-06    2           4        -4   # BR(A -> c       cb     )
     2.73711579E-01    2           6        -6   # BR(A -> t       tb     )
     3.89422338E-04    2          21        21   # BR(A -> g       g      )
     1.23528618E-06    2          22        22   # BR(A -> gam     gam    )
     4.31256441E-07    2          23        22   # BR(A -> Z       gam    )
     2.79685466E-04    2          23        25   # BR(A -> Z       h      )
     3.73410238E-03    2     1000024  -1000024   # BR(A -> ~chi_1+ ~chi_1-)
     2.28352410E-04    2     1000022   1000022   # BR(A -> ~chi_10 ~chi_10)
     3.42466113E-06    2     1000023   1000023   # BR(A -> ~chi_20 ~chi_20)
     1.92922537E-07    2     1000025   1000025   # BR(A -> ~chi_30 ~chi_30)
     1.54875504E-04    2     1000022   1000023   # BR(A -> ~chi_10 ~chi_20)
     1.50746679E-01    2     1000022   1000025   # BR(A -> ~chi_10 ~chi_30)
     2.12721682E-01    2     1000023   1000025   # BR(A -> ~chi_20 ~chi_30)
#
#         PDG            Width
DECAY        37     4.92678141E+00   # H+ decays
#          BR         NDA      ID1       ID2
     5.07334677E-04    2           4        -5   # BR(H+ -> c       bb     )
     5.48449466E-02    2         -15        16   # BR(H+ -> tau+    nu_tau )
     1.93556359E-04    2         -13        14   # BR(H+ -> mu+     nu_mu  )
     5.07328879E-06    2           2        -5   # BR(H+ -> u       bb     )
     6.37331956E-06    2           2        -3   # BR(H+ -> u       sb     )
     1.28160631E-04    2           4        -3   # BR(H+ -> c       sb     )
     5.72704082E-01    2           6        -5   # BR(H+ -> t       bb     )
     2.84703248E-04    2          24        25   # BR(H+ -> W+      h      )
     7.64832272E-12    2          24        36   # BR(H+ -> W+      A      )
     3.51681005E-03    2     1000024   1000022   # BR(H+ -> ~chi_1+ ~chi_10)
     1.93511550E-03    2     1000024   1000023   # BR(H+ -> ~chi_1+ ~chi_20)
     3.65873844E-01    2     1000024   1000025   # BR(H+ -> ~chi_1+ ~chi_30)
