#
#                              ======================
#                              | THE SUSYHIT OUTPUT |
#                              ======================
#
#
#              ------------------------------------------------------
#              |     This is the output of the SUSY-HIT package     |
#              |  created by A.Djouadi, M.Muehlleitner and M.Spira. |
#              |  In case of problems with SUSY-HIT email to        |
#              |           margarete.muehlleitner@cern.ch           |
#              |           michael.spira@psi.ch                     |
#              |           abdelhak.djouadi@cern.ch                 |
#              ------------------------------------------------------
#
#              ------------------------------------------------------
#              |  SUSY Les Houches Accord - MSSM Spectrum + Decays  |
#              |              based on the decay programs           |
#              |                                                    |
#              |                     SDECAY 1.3b                    |
#              |                                                    |
#              |  Authors: M.Muhlleitner, A.Djouadi and Y.Mambrini  |
#              |  Ref.:    Comput.Phys.Commun.168(2005)46           |
#              |           [hep-ph/0311167]                         |
#              |                                                    |
#              |                     HDECAY 3.4                     |
#              |                                                    |
#              |  By: A.Djouadi,J.Kalinowski,M.Muhlleitner,M.Spira  |
#              |  Ref.:    Comput.Phys.Commun.108(1998)56           |
#              |           [hep-ph/9704448]                         |
#              |                                                    |
#              |                                                    |
#              |  If not stated otherwise all DRbar couplings and   |
#              |  soft SUSY breaking masses are given at the scale  |
#              |  Q=  0.28697530E+04
#              |                                                    |
#              ------------------------------------------------------
#
#
BLOCK DCINFO  # Decay Program information
     1   SDECAY/HDECAY # decay calculator
     2   1.3b  /3.4    # version number
#
BLOCK SPINFO  # Spectrum calculator information
     1     SOFTSUSY    # spectrum calculator               
     2     3.4.0       # version number                    
#
BLOCK MODSEL  # Model selection
     1     0   #  nonUniversal                                     
#
BLOCK SMINPUTS  # Standard Model inputs
         1     1.27908970E+02   # alpha_em^-1(M_Z)^MSbar
         2     1.16637870E-05   # G_F [GeV^-2]
         3     1.18400000E-01   # alpha_S(M_Z)^MSbar
         4     9.11876000E+01   # M_Z pole mass
         5     4.18000000E+00   # mb(mb)^MSbar
         6     1.73200000E+02   # mt pole mass
         7     1.77700000E+00   # mtau pole mass
#
BLOCK MINPAR  # Input parameters - minimal models
         3     1.05800000E+01   # tanb                
#
BLOCK EXTPAR  # Input parameters - non-minimal models
         0    -1.00000000E+00   # Set                 
         1    -1.61254000E+03   # M_1(MX)             
         2     2.36300000E+02   # M_2(MX)             
         3     2.87632000E+03   # M_3(MX)             
        11    -3.02989000E+03   # At(MX)              
        12     2.71463000E+03   # Ab(MX)              
        13    -2.98596000E+03   # Atau(MX)            
        23     3.33270000E+02   # mu(MX)              
        26     3.01397000E+03   # mA(pole)            
        31     3.56162000E+03   # meL(MX)             
        32     3.56162000E+03   # mmuL(MX)            
        33     2.18159000E+03   # mtauL(MX)           
        34     3.44070000E+02   # meR(MX)             
        35     3.44070000E+02   # mmuR(MX)            
        36     8.40210000E+02   # mtauR(MX)           
        41     9.47370000E+02   # mqL1(MX)            
        42     9.47370000E+02   # mqL2(MX)            
        43     2.26452000E+03   # mqL3(MX)            
        44     1.64307000E+03   # muR(MX)             
        45     1.64307000E+03   # mcR(MX)             
        46     3.63315000E+03   # mtR(MX)             
        47     2.45843000E+03   # mdR(MX)             
        48     2.45843000E+03   # msR(MX)             
        49     2.60784000E+03   # mbR(MX)             
#
BLOCK MASS  # Mass Spectrum
# PDG code           mass       particle
        24     8.03732234E+01   # W+
        25     1.25185172E+02   # h
        35     3.01403416E+03   # H
        36     3.01396991E+03   # A
        37     3.01538272E+03   # H+
         5     4.81876030E+00   # b-quark pole mass calculated from mb(mb)_Msbar
   1000001     1.12620365E+03   # ~d_L
   2000001     2.56993271E+03   # ~d_R
   1000002     1.12342344E+03   # ~u_L
   2000002     1.77403208E+03   # ~u_R
   1000003     1.12620365E+03   # ~s_L
   2000003     2.56993271E+03   # ~s_R
   1000004     1.12342344E+03   # ~c_L
   2000004     1.77403208E+03   # ~c_R
   1000005     2.35910719E+03   # ~b_1
   2000005     2.71409222E+03   # ~b_2
   1000006     2.35708075E+03   # ~t_1
   2000006     3.65583196E+03   # ~t_2
   1000011     3.56768657E+03   # ~e_L
   2000011     4.02298384E+02   # ~e_R
   1000012     3.56648914E+03   # ~nu_eL
   1000013     3.56768657E+03   # ~mu_L
   2000013     4.02298384E+02   # ~mu_R
   1000014     3.56648914E+03   # ~nu_muL
   1000015     8.65915162E+02   # ~tau_1
   2000015     2.18429140E+03   # ~tau_2
   1000016     2.18254768E+03   # ~nu_tauL
   1000021     2.93667237E+03   # ~g
   1000022     2.23516093E+02   # ~chi_10
   1000023    -3.49241722E+02   # ~chi_20
   1000025     3.76369358E+02   # ~chi_30
   1000035    -1.58497406E+03   # ~chi_40
   1000024     2.24281130E+02   # ~chi_1+
   1000037     3.79942838E+02   # ~chi_2+
#
BLOCK NMIX  # Neutralino Mixing Matrix
  1  1     6.94267871E-03   # N_11
  1  2     8.92966596E-01   # N_12
  1  3    -3.69202205E-01   # N_13
  1  4     2.57395008E-01   # N_14
  2  1     2.20451630E-02   # N_21
  2  2     8.48436104E-02   # N_22
  2  3     6.99840761E-01   # N_23
  2  4     7.08899487E-01   # N_24
  3  1    -1.55992450E-02   # N_31
  3  2     4.42052984E-01   # N_32
  3  3     6.11474913E-01   # N_33
  3  4    -6.56082505E-01   # N_34
  4  1     9.99611161E-01   # N_41
  4  2    -1.17473536E-03   # N_42
  4  3    -3.32759827E-03   # N_43
  4  4    -2.76599626E-02   # N_44
#
BLOCK UMIX  # Chargino Mixing Matrix U
  1  1     8.60686713E-01   # U_11
  1  2    -5.09134935E-01   # U_12
  2  1     5.09134935E-01   # U_21
  2  2     8.60686713E-01   # U_22
#
BLOCK VMIX  # Chargino Mixing Matrix V
  1  1     9.33902721E-01   # V_11
  1  2    -3.57527213E-01   # V_12
  2  1     3.57527213E-01   # V_21
  2  2     9.33902721E-01   # V_22
#
BLOCK STOPMIX  # Stop Mixing Matrix
  1  1     9.98422128E-01   # cos(theta_t)
  1  2     5.61538451E-02   # sin(theta_t)
  2  1    -5.61538451E-02   # -sin(theta_t)
  2  2     9.98422128E-01   # cos(theta_t)
#
BLOCK SBOTMIX  # Sbottom Mixing Matrix
  1  1     9.99999442E-01   # cos(theta_b)
  1  2     1.05640886E-03   # sin(theta_b)
  2  1    -1.05640886E-03   # -sin(theta_b)
  2  2     9.99999442E-01   # cos(theta_b)
#
BLOCK STAUMIX  # Stau Mixing Matrix
  1  1     2.83412401E-03   # cos(theta_tau)
  1  2     9.99995984E-01   # sin(theta_tau)
  2  1    -9.99995984E-01   # -sin(theta_tau)
  2  2     2.83412401E-03   # cos(theta_tau)
#
BLOCK ALPHA  # Higgs mixing
          -9.89976598E-02   # Mixing angle in the neutral Higgs boson sector
#
BLOCK HMIX Q=  2.86975300E+03  # DRbar Higgs Parameters
         1     3.37810658E+02   # mu(Q)MSSM           
         2     1.00938656E+01   # tan                 
         3     2.41228429E+02   # higgs               
         4     9.06668885E+06   # mA^2(Q)MSSM         
#
BLOCK GAUGE Q=  2.86975300E+03  # The gauge couplings
     1     3.65405910E-01   # gprime(Q) DRbar
     2     6.43501596E-01   # g(Q) DRbar
     3     1.01512968E+00   # g3(Q) DRbar
#
BLOCK AU Q=  2.86975300E+03  # The trilinear couplings
  1  1     0.00000000E+00   # A_u(Q) DRbar
  2  2     0.00000000E+00   # A_c(Q) DRbar
  3  3    -3.02988998E+03   # A_t(Q) DRbar
#
BLOCK AD Q=  2.86975300E+03  # The trilinear couplings
  1  1     0.00000000E+00   # A_d(Q) DRbar
  2  2     0.00000000E+00   # A_s(Q) DRbar
  3  3     2.71463000E+03   # A_b(Q) DRbar
#
BLOCK AE Q=  2.86975300E+03  # The trilinear couplings
  1  1     0.00000000E+00   # A_e(Q) DRbar
  2  2     0.00000000E+00   # A_mu(Q) DRbar
  3  3    -2.98596000E+03   # A_tau(Q) DRbar
#
BLOCK Yu Q=  2.86975300E+03  # The Yukawa couplings
  1  1     0.00000000E+00   # y_u(Q) DRbar
  2  2     0.00000000E+00   # y_c(Q) DRbar
  3  3     8.24126266E-01   # y_t(Q) DRbar
#
BLOCK Yd Q=  2.86975300E+03  # The Yukawa couplings
  1  1     0.00000000E+00   # y_d(Q) DRbar
  2  2     0.00000000E+00   # y_s(Q) DRbar
  3  3     1.36439208E-01   # y_b(Q) DRbar
#
BLOCK Ye Q=  2.86975300E+03  # The Yukawa couplings
  1  1     0.00000000E+00   # y_e(Q) DRbar
  2  2     0.00000000E+00   # y_mu(Q) DRbar
  3  3     1.04004615E-01   # y_tau(Q) DRbar
#
BLOCK MSOFT Q=  2.86975300E+03  # The soft SUSY breaking masses at the scale Q
         1    -1.61254000E+03   # M_1(Q)              
         2     2.36300000E+02   # M_2(Q)              
         3     2.87632000E+03   # M_3(Q)              
        21     8.87797296E+06   # mH1^2(Q)            
        22     1.31846489E+05   # mH2^2(Q)            
        31     3.56162000E+03   # meL(Q)              
        32     3.56162000E+03   # mmuL(Q)             
        33     2.18159000E+03   # mtauL(Q)            
        34     3.44070001E+02   # meR(Q)              
        35     3.44070001E+02   # mmuR(Q)             
        36     8.40210000E+02   # mtauR(Q)            
        41     9.47369974E+02   # mqL1(Q)             
        42     9.47369974E+02   # mqL2(Q)             
        43     2.26451998E+03   # mqL3(Q)             
        44     1.64306999E+03   # muR(Q)              
        45     1.64306999E+03   # mcR(Q)              
        46     3.63314998E+03   # mtR(Q)              
        47     2.45842999E+03   # mdR(Q)              
        48     2.45842999E+03   # msR(Q)              
        49     2.60783999E+03   # mbR(Q)              
#
Block HiggsBoundsInputHiggsCouplingsFermions
# ScalarNormEffCoupSq PseudoSNormEffCoupSq NP   IP1 IP2 IP2
    1.00504943E+00    0.00000000E+00        3  25   5   5  # h0-b-b eff. coupling^2, normalised to SM
    1.01881073E+02    0.00000000E+00        3  35   5   5  # H0-b-b eff. coupling^2, normalised to SM
    0.00000000E+00    1.01886123E+02        3  36   5   5  # A0-b-b eff. coupling^2, normalised to SM
#
    9.99950440E-01    0.00000000E+00        3  25   6   6  # h0-t-t eff. coupling^2, normalised to SM
    9.86443887E-03    0.00000000E+00        3  35   6   6  # H0-t-t eff. coupling^2, normalised to SM
    0.00000000E+00    9.81487933E-03        3  36   6   6  # A0-t-t eff. coupling^2, normalised to SM
#
    1.00504943E+00    0.00000000E+00        3  25  15  15  # h0-tau-tau eff. coupling^2, normalised to SM
    1.01881073E+02    0.00000000E+00        3  35  15  15  # H0-tau-tau eff. coupling^2, normalised to SM
    0.00000000E+00    1.01886123E+02        3  36  15  15  # A0-tau-tau eff. coupling^2, normalised to SM
#
Block HiggsBoundsInputHiggsCouplingsBosons
    9.99999938E-01        3  25  24  24  # h0-W-W eff. coupling^2, normalised to SM
    6.24059400E-08        3  35  24  24  # H0-W-W eff. coupling^2, normalised to SM
    0.00000000E+00        3  36  24  24  # A0-W-W eff. coupling^2, normalised to SM
#
    9.99999938E-01        3  25  23  23  # h0-Z-Z eff. coupling^2, normalised to SM
    6.24059400E-08        3  35  23  23  # H0-Z-Z eff. coupling^2, normalised to SM
    0.00000000E+00        3  36  23  23  # A0-Z-Z eff. coupling^2, normalised to SM
#
    8.91268117E-01        3  25  21  21  # h0-g-g eff. coupling^2, normalised to SM
    2.34543443E-13        3  35  21  21  # H0-g-g eff. coupling^2, normalised to SM
    2.41522278E-12        3  36  21  21  # A0-g-g eff. coupling^2, normalised to SM
#
    0.00000000E+00        3  25  25  23  # h0-h0-Z eff. coupling^2, normalised to SM
    0.00000000E+00        3  35  25  23  # H0-h0-Z eff. coupling^2, normalised to SM
    6.24059400E-08        3  36  25  23  # A0-h0-Z eff. coupling^2, normalised to SM
    0.00000000E+00        3  35  35  23  # H0-H0-Z eff. coupling^2, normalised to SM
    9.99999938E-01        3  36  35  23  # A0-H0-Z eff. coupling^2, normalised to SM
    0.00000000E+00        3  36  36  23  # A0-A0-Z eff. coupling^2, normalised to SM
#
    0.00000000E+00        4  25  21  21  23  # h0-g-g-Z eff. coupling^2, normalised to SM
    0.00000000E+00        4  35  21  21  23  # H0-g-g-Z eff. coupling^2, normalised to SM
    0.00000000E+00        4  36  21  21  23  # A0-g-g-Z eff. coupling^2, normalised to SM
#
#
#
#                             =================
#                             |The decay table|
#                             =================
#
# - The QCD corrections to the decays gluino -> squark  + quark
#                                     squark -> gaugino + quark_prime
#                                     squark -> squark_prime + Higgs
#                                     squark -> gluino  + quark
#   are included.
#
# - The multi-body decays for the inos, stops and sbottoms are included.
#
# - The loop induced decays for the gluino, neutralinos and stops
#   are included.
#
# - The SUSY decays of the top quark are included.
#
#
#         PDG            Width
DECAY         6     1.45913430E+00   # top decays
#          BR         NDA      ID1       ID2
     1.00000000E+00    2           5        24   # BR(t ->  b    W+)
#
#         PDG            Width
DECAY   1000021     2.42459843E+02   # gluino decays
#          BR         NDA      ID1       ID2
     8.87906921E-02    2     1000001        -1   # BR(~g -> ~d_L  db)
     8.87906921E-02    2    -1000001         1   # BR(~g -> ~d_L* d )
     6.69270786E-03    2     2000001        -1   # BR(~g -> ~d_R  db)
     6.69270786E-03    2    -2000001         1   # BR(~g -> ~d_R* d )
     8.89417508E-02    2     1000002        -2   # BR(~g -> ~u_L  ub)
     8.89417508E-02    2    -1000002         2   # BR(~g -> ~u_L* u )
     4.92244308E-02    2     2000002        -2   # BR(~g -> ~u_R  ub)
     4.92244308E-02    2    -2000002         2   # BR(~g -> ~u_R* u )
     8.87906921E-02    2     1000003        -3   # BR(~g -> ~s_L  sb)
     8.87906921E-02    2    -1000003         3   # BR(~g -> ~s_L* s )
     6.69270786E-03    2     2000003        -3   # BR(~g -> ~s_R  sb)
     6.69270786E-03    2    -2000003         3   # BR(~g -> ~s_R* s )
     8.89417400E-02    2     1000004        -4   # BR(~g -> ~c_L  cb)
     8.89417400E-02    2    -1000004         4   # BR(~g -> ~c_L* c )
     4.92244039E-02    2     2000004        -4   # BR(~g -> ~c_R  cb)
     4.92244039E-02    2    -2000004         4   # BR(~g -> ~c_R* c )
     1.55008475E-02    2     1000005        -5   # BR(~g -> ~b_1  bb)
     1.55008475E-02    2    -1000005         5   # BR(~g -> ~b_1* b )
     2.68913256E-03    2     2000005        -5   # BR(~g -> ~b_2  bb)
     2.68913256E-03    2    -2000005         5   # BR(~g -> ~b_2* b )
     1.45108947E-02    2     1000006        -6   # BR(~g -> ~t_1  tb)
     1.45108947E-02    2    -1000006         6   # BR(~g -> ~t_1* t )
#
#         PDG            Width
DECAY   1000006     5.95404475E+01   # stop1 decays
#          BR         NDA      ID1       ID2
     1.66139606E-01    2     1000022         6   # BR(~t_1 -> ~chi_10 t )
     2.58492435E-01    2     1000023         6   # BR(~t_1 -> ~chi_20 t )
     2.39672937E-01    2     1000025         6   # BR(~t_1 -> ~chi_30 t )
     1.72299213E-03    2     1000035         6   # BR(~t_1 -> ~chi_40 t )
     2.97693920E-01    2     1000024         5   # BR(~t_1 -> ~chi_1+ b )
     3.62781108E-02    2     1000037         5   # BR(~t_1 -> ~chi_2+ b )
#
#         PDG            Width
DECAY   2000006     1.65203740E+02   # stop2 decays
#          BR         NDA      ID1       ID2
     1.56311775E-02    2     1000022         6   # BR(~t_2 -> ~chi_10 t )
     1.45774010E-01    2     1000023         6   # BR(~t_2 -> ~chi_20 t )
     1.30985378E-01    2     1000025         6   # BR(~t_2 -> ~chi_30 t )
     3.43277726E-02    2     1000035         6   # BR(~t_2 -> ~chi_40 t )
     2.96429384E-02    2     1000024         5   # BR(~t_2 -> ~chi_1+ b )
     2.63024418E-01    2     1000037         5   # BR(~t_2 -> ~chi_2+ b )
     1.43214965E-01    2     1000021         6   # BR(~t_2 -> ~g      t )
     5.96413343E-02    2     1000006        25   # BR(~t_2 -> ~t_1    h )
     6.02763280E-02    2     1000006        23   # BR(~t_2 -> ~t_1    Z )
     1.17481618E-01    2     1000005        24   # BR(~t_2 -> ~b_1    W+)
     5.93404105E-08    2     2000005        24   # BR(~t_2 -> ~b_2    W+)
#
#         PDG            Width
DECAY   1000005     5.94947490E+01   # sbottom1 decays
#          BR         NDA      ID1       ID2
     1.29520094E-01    2     1000022         5   # BR(~b_1 -> ~chi_10 b )
     7.88913765E-03    2     1000023         5   # BR(~b_1 -> ~chi_20 b )
     3.59231861E-02    2     1000025         5   # BR(~b_1 -> ~chi_30 b )
     1.78164758E-03    2     1000035         5   # BR(~b_1 -> ~chi_40 b )
     2.98066189E-01    2    -1000024         6   # BR(~b_1 -> ~chi_1- t )
     5.26819747E-01    2    -1000037         6   # BR(~b_1 -> ~chi_2- t )
#
#         PDG            Width
DECAY   2000005     2.63418762E+00   # sbottom2 decays
#          BR         NDA      ID1       ID2
     5.04727065E-02    2     1000022         5   # BR(~b_2 -> ~chi_10 b )
     1.81174616E-01    2     1000023         5   # BR(~b_2 -> ~chi_20 b )
     1.38099208E-01    2     1000025         5   # BR(~b_2 -> ~chi_30 b )
     2.63893595E-01    2     1000035         5   # BR(~b_2 -> ~chi_40 b )
     9.51503399E-02    2    -1000024         6   # BR(~b_2 -> ~chi_1- t )
     2.71071587E-01    2    -1000037         6   # BR(~b_2 -> ~chi_2- t )
     2.74649727E-05    2     1000005        25   # BR(~b_2 -> ~b_1    h )
     3.65774269E-05    2     1000005        23   # BR(~b_2 -> ~b_1    Z )
     7.39050164E-05    2     1000006       -24   # BR(~b_2 -> ~t_1    W-)
#
#         PDG            Width
DECAY   1000002     1.28656286E+01   # sup_L decays
#          BR         NDA      ID1       ID2
     2.72703803E-01    2     1000022         2   # BR(~u_L -> ~chi_10 u)
     2.39237278E-03    2     1000023         2   # BR(~u_L -> ~chi_20 u)
     5.62297554E-02    2     1000025         2   # BR(~u_L -> ~chi_30 u)
     5.94474831E-01    2     1000024         1   # BR(~u_L -> ~chi_1+ d)
     7.41992381E-02    2     1000037         1   # BR(~u_L -> ~chi_2+ d)
#
#         PDG            Width
DECAY   2000002     1.81020350E-01   # sup_R decays
#           BR         NDA      ID1       ID2
     1.08426708E-03    2     1000022         2   # BR(~u_R -> ~chi_10 u)
     1.04381658E-02    2     1000023         2   # BR(~u_R -> ~chi_20 u)
     5.15944903E-03    2     1000025         2   # BR(~u_R -> ~chi_30 u)
     9.83318118E-01    2     1000035         2   # BR(~u_R -> ~chi_40 u)
#
#         PDG            Width
DECAY   1000001     1.27255355E+01   # sdown_L decays
#          BR         NDA      ID1       ID2
     2.74844275E-01    2     1000022         1   # BR(~d_L -> ~chi_10 d)
     1.99322794E-03    2     1000023         1   # BR(~d_L -> ~chi_20 d)
     5.85984629E-02    2     1000025         1   # BR(~d_L -> ~chi_30 d)
     5.11886438E-01    2    -1000024         2   # BR(~d_L -> ~chi_1- u)
     1.52677596E-01    2    -1000037         2   # BR(~d_L -> ~chi_2- u)
#
#         PDG            Width
DECAY   2000001     5.76754981E-01   # sdown_R decays
#          BR         NDA      ID1       ID2
     1.22250922E-04    2     1000022         1   # BR(~d_R -> ~chi_10 d)
     1.20661098E-03    2     1000023         1   # BR(~d_R -> ~chi_20 d)
     6.00585078E-04    2     1000025         1   # BR(~d_R -> ~chi_30 d)
     9.98070553E-01    2     1000035         1   # BR(~d_R -> ~chi_40 d)
#
#         PDG            Width
DECAY   1000004     1.25158061E+01   # scharm_L decays
#          BR         NDA      ID1       ID2
     2.72739313E-01    2     1000022         4   # BR(~c_L -> ~chi_10 c)
     2.39078809E-03    2     1000023         4   # BR(~c_L -> ~chi_20 c)
     5.61826343E-02    2     1000025         4   # BR(~c_L -> ~chi_30 c)
     5.94551616E-01    2     1000024         3   # BR(~c_L -> ~chi_1+ s)
     7.41356484E-02    2     1000037         3   # BR(~c_L -> ~chi_2+ s)
#
#         PDG            Width
DECAY   2000004     1.73419133E-01   # scharm_R decays
#           BR         NDA      ID1       ID2
     1.12758197E-03    2     1000022         4   # BR(~c_R -> ~chi_10 c)
     1.08464473E-02    2     1000023         4   # BR(~c_R -> ~chi_20 c)
     5.36040914E-03    2     1000025         4   # BR(~c_R -> ~chi_30 c)
     9.82665562E-01    2     1000035         4   # BR(~c_R -> ~chi_40 c)
#
#         PDG            Width
DECAY   1000003     1.23800511E+01   # sstrange_L decays
#          BR         NDA      ID1       ID2
     2.74903038E-01    2     1000022         3   # BR(~s_L -> ~chi_10 s)
     1.99207531E-03    2     1000023         3   # BR(~s_L -> ~chi_20 s)
     5.85543155E-02    2     1000025         3   # BR(~s_L -> ~chi_30 s)
     5.11992066E-01    2    -1000024         4   # BR(~s_L -> ~chi_1- c)
     1.52558505E-01    2    -1000037         4   # BR(~s_L -> ~chi_2- c)
#
#         PDG            Width
DECAY   2000003     5.83137492E-01   # sstrange_R decays
#          BR         NDA      ID1       ID2
     1.23503244E-04    2     1000022         3   # BR(~s_R -> ~chi_10 s)
     1.21802310E-03    2     1000023         3   # BR(~s_R -> ~chi_20 s)
     6.06170235E-04    2     1000025         3   # BR(~s_R -> ~chi_30 s)
     9.98052303E-01    2     1000035         3   # BR(~s_R -> ~chi_40 s)
#
#         PDG            Width
DECAY   1000011     4.66476828E+01   # selectron_L decays
#          BR         NDA      ID1       ID2
     2.51441385E-01    2     1000022        11   # BR(~e_L -> ~chi_10 e-)
     2.92933634E-03    2     1000023        11   # BR(~e_L -> ~chi_20 e-)
     5.78099267E-02    2     1000025        11   # BR(~e_L -> ~chi_30 e-)
     6.51188036E-02    2     1000035        11   # BR(~e_L -> ~chi_40 e-)
     4.63059492E-01    2    -1000024        12   # BR(~e_L -> ~chi_1- nu_e)
     1.59641056E-01    2    -1000037        12   # BR(~e_L -> ~chi_2- nu_e)
#
#         PDG            Width
DECAY   2000011     1.20376121E-04   # selectron_R decays
#           BR         NDA      ID1       ID2
     4.08997270E-01    2     1000022        11   # BR(~e_R -> ~chi_10 e-)
     5.23765471E-01    2     1000023        11   # BR(~e_R -> ~chi_20 e-)
     6.72372583E-02    2     1000025        11   # BR(~e_R -> ~chi_30 e-)
#
#         PDG            Width
DECAY   1000013     4.66476828E+01   # smuon_L decays
#          BR         NDA      ID1       ID2
     2.51441385E-01    2     1000022        13   # BR(~mu_L -> ~chi_10 mu-)
     2.92933633E-03    2     1000023        13   # BR(~mu_L -> ~chi_20 mu-)
     5.78099266E-02    2     1000025        13   # BR(~mu_L -> ~chi_30 mu-)
     6.51188034E-02    2     1000035        13   # BR(~mu_L -> ~chi_40 mu-)
     4.63059492E-01    2    -1000024        14   # BR(~mu_L -> ~chi_1- nu_mu)
     1.59641057E-01    2    -1000037        14   # BR(~mu_L -> ~chi_2- nu_mu)
#
#         PDG            Width
DECAY   2000013     1.20375892E-04   # smuon_R decays
#           BR         NDA      ID1       ID2
     4.08997931E-01    2     1000022        13   # BR(~mu_R -> ~chi_10 mu-)
     5.23765279E-01    2     1000023        13   # BR(~mu_R -> ~chi_20 mu-)
     6.72367906E-02    2     1000025        13   # BR(~mu_R -> ~chi_30 mu-)
#
#         PDG            Width
DECAY   1000015     2.67574156E-01   # stau_1 decays
#          BR         NDA      ID1       ID2
     8.84515525E-02    2     1000022        15   # BR(~tau_1 -> ~chi_10  tau-)
     2.44538075E-01    2     1000023        15   # BR(~tau_1 -> ~chi_20  tau-)
     1.71020831E-01    2     1000025        15   # BR(~tau_1 -> ~chi_30  tau-)
     1.66565650E-01    2    -1000024        16   # BR(~tau_1 -> ~chi_1-  nu_tau)
     3.29423891E-01    2    -1000037        16   # BR(~tau_1 -> ~chi_2-  nu_tau)
#
#         PDG            Width
DECAY   2000015     2.73206436E+01   # stau_2 decays
#          BR         NDA      ID1       ID2
     2.61550172E-01    2     1000022        15   # BR(~tau_2 -> ~chi_10  tau-)
     1.09833108E-02    2     1000023        15   # BR(~tau_2 -> ~chi_20  tau-)
     6.43622305E-02    2     1000025        15   # BR(~tau_2 -> ~chi_30  tau-)
     2.36889466E-02    2     1000035        15   # BR(~tau_2 -> ~chi_40  tau-)
     4.77412978E-01    2    -1000024        16   # BR(~tau_2 -> ~chi_1-  nu_tau)
     1.60804297E-01    2    -1000037        16   # BR(~tau_2 -> ~chi_2-  nu_tau)
     6.02285218E-04    2     1000015        25   # BR(~tau_2 -> ~tau_1   h)
     5.95779396E-04    2     1000015        23   # BR(~tau_2 -> ~tau_1   Z)
#
#         PDG            Width
DECAY   1000012     4.66711114E+01   # snu_eL decays
#          BR         NDA      ID1       ID2
     2.46831819E-01    2     1000022        12   # BR(~nu_eL -> ~chi_10 nu_e)
     1.61512396E-03    2     1000023        12   # BR(~nu_eL -> ~chi_20 nu_e)
     6.25815471E-02    2     1000025        12   # BR(~nu_eL -> ~chi_30 nu_e)
     6.55834627E-02    2     1000035        12   # BR(~nu_eL -> ~chi_40 nu_e)
     5.44733025E-01    2     1000024        11   # BR(~nu_eL -> ~chi_1+ e-)
     7.86550221E-02    2     1000037        11   # BR(~nu_eL -> ~chi_2+ e-)
#
#         PDG            Width
DECAY   1000014     4.66711113E+01   # snu_muL decays
#          BR         NDA      ID1       ID2
     2.46831820E-01    2     1000022        14   # BR(~nu_muL -> ~chi_10 nu_mu)
     1.61512396E-03    2     1000023        14   # BR(~nu_muL -> ~chi_20 nu_mu)
     6.25815472E-02    2     1000025        14   # BR(~nu_muL -> ~chi_30 nu_mu)
     6.55834628E-02    2     1000035        14   # BR(~nu_muL -> ~chi_40 nu_mu)
     5.44733024E-01    2     1000024        13   # BR(~nu_muL -> ~chi_1+ mu-)
     7.86550221E-02    2     1000037        13   # BR(~nu_muL -> ~chi_2+ mu-)
#
#         PDG            Width
DECAY   1000016     2.73637999E+01   # snu_tauL decays
#          BR         NDA      ID1       ID2
     2.54247186E-01    2     1000022        16   # BR(~nu_tauL -> ~chi_10 nu_tau)
     1.63169716E-03    2     1000023        16   # BR(~nu_tauL -> ~chi_20 nu_tau)
     6.28849658E-02    2     1000025        16   # BR(~nu_tauL -> ~chi_30 nu_tau)
     2.37430211E-02    2     1000035        16   # BR(~nu_tauL -> ~chi_40 nu_tau)
     5.65385084E-01    2     1000024        15   # BR(~nu_tauL -> ~chi_1+ tau-)
     9.09516725E-02    2     1000037        15   # BR(~nu_tauL -> ~chi_2+ tau-)
     1.15637335E-03    2    -1000015       -24   # BR(~nu_tauL -> ~tau_1+ W-)
#
#         PDG            Width
DECAY   1000024     1.01054850E-12   # chargino1+ decays
#           BR         NDA      ID1       ID2       ID3
     1.51269530E-01    3     1000022       -11        12   # BR(~chi_1+ -> ~chi_10 e+   nu_e)
     1.37843900E-01    3     1000022       -13        14   # BR(~chi_1+ -> ~chi_10 mu+  nu_mu)
     6.49132300E-01    2     1000022       211             # BR(~chi_1+ -> ~chi_10 pi+)
     6.14045190E-02    3     1000022       211        111   # BR(~chi_1+ -> ~chi_10 pi+ pi0)
     1.74875320E-04    4     1000022       211        111       111 # BR(~chi_1+ -> ~chi_10 pi+ pi0 pi0)
     1.74875320E-04    4     1000022       211        211      -211 # BR(~chi_1+ -> ~chi_10 pi+ pi+ pi-)
#
#         PDG            Width
DECAY   1000037     1.09439419E+00   # chargino2+ decays
#          BR         NDA      ID1       ID2
     3.88609065E-01    2     1000024        23   # BR(~chi_2+ -> ~chi_1+  Z )
     4.53456892E-01    2     1000022        24   # BR(~chi_2+ -> ~chi_10  W+)
     1.57934042E-01    2     1000024        25   # BR(~chi_2+ -> ~chi_1+  h )
#
#         PDG            Width
DECAY   1000022     0.00000000E+00   # neutralino1 decays
#
#         PDG            Width
DECAY   1000023     7.23187656E-01   # neutralino2 decays
#          BR         NDA      ID1       ID2
     2.61165959E-01    2     1000022        23   # BR(~chi_20 -> ~chi_10   Z )
     3.69406861E-01    2     1000024       -24   # BR(~chi_20 -> ~chi_1+   W-)
     3.69406861E-01    2    -1000024        24   # BR(~chi_20 -> ~chi_1-   W+)
     2.03190524E-05    2     1000022        25   # BR(~chi_20 -> ~chi_10   h )
#
#         PDG            Width
DECAY   1000025     1.23102958E+00   # neutralino3 decays
#          BR         NDA      ID1       ID2
     1.65156478E-02    2     1000022        23   # BR(~chi_30 -> ~chi_10   Z )
     4.21657919E-01    2     1000024       -24   # BR(~chi_30 -> ~chi_1+   W-)
     4.21657919E-01    2    -1000024        24   # BR(~chi_30 -> ~chi_1-   W+)
     1.40168515E-01    2     1000022        25   # BR(~chi_30 -> ~chi_10   h )
#
#         PDG            Width
DECAY   1000035     2.30991890E+01   # neutralino4 decays
#          BR         NDA      ID1       ID2
     3.69375408E-03    2     1000022        23   # BR(~chi_40 -> ~chi_10   Z )
     1.45889101E-02    2     1000023        23   # BR(~chi_40 -> ~chi_20   Z )
     1.92192499E-02    2     1000025        23   # BR(~chi_40 -> ~chi_30   Z )
     6.77245219E-03    2     1000024       -24   # BR(~chi_40 -> ~chi_1+   W-)
     6.77245219E-03    2    -1000024        24   # BR(~chi_40 -> ~chi_1-   W+)
     2.99065466E-02    2     1000037       -24   # BR(~chi_40 -> ~chi_2+   W-)
     2.99065466E-02    2    -1000037        24   # BR(~chi_40 -> ~chi_2-   W+)
     3.65765321E-03    2     1000022        25   # BR(~chi_40 -> ~chi_10   h )
     2.62093729E-02    2     1000023        25   # BR(~chi_40 -> ~chi_20   h )
     1.17870035E-02    2     1000025        25   # BR(~chi_40 -> ~chi_30   h )
     3.79250728E-03    2     1000002        -2   # BR(~chi_40 -> ~u_L      ub)
     3.79250728E-03    2    -1000002         2   # BR(~chi_40 -> ~u_L*     u )
     3.84951259E-03    2     1000001        -1   # BR(~chi_40 -> ~d_L      db)
     3.84951259E-03    2    -1000001         1   # BR(~chi_40 -> ~d_L*     d )
     3.79249193E-03    2     1000004        -4   # BR(~chi_40 -> ~c_L      cb)
     3.79249193E-03    2    -1000004         4   # BR(~chi_40 -> ~c_L*     c )
     3.84951259E-03    2     1000003        -3   # BR(~chi_40 -> ~s _L      sb)
     3.84951259E-03    2    -1000003         3   # BR(~chi_40 -> ~s _L*     s )
     1.59413983E-01    2     2000011       -11   # BR(~chi_40 -> ~e_R-     e+)
     1.59413983E-01    2    -2000011        11   # BR(~chi_40 -> ~e_R+     e-)
     1.59413983E-01    2     2000013       -13   # BR(~chi_40 -> ~mu_R-    mu+)
     1.59413983E-01    2    -2000013        13   # BR(~chi_40 -> ~mu_R+    mu-)
     8.96310386E-02    2     1000015       -15   # BR(~chi_40 -> ~tau_1-   tau+)
     8.96310386E-02    2    -1000015        15   # BR(~chi_40 -> ~tau_1+   tau-)
#
#         PDG            Width
DECAY        25     4.06836602E-03   # h decays
#          BR         NDA      ID1       ID2
     5.93704743E-01    2           5        -5   # BR(h -> b       bb     )
     6.40149032E-02    2         -15        15   # BR(h -> tau+    tau-   )
     2.26589277E-04    2         -13        13   # BR(h -> mu+     mu-    )
     2.47245395E-04    2           3        -3   # BR(h -> s       sb     )
     2.13423493E-02    2           4        -4   # BR(h -> c       cb     )
     7.88818580E-02    2          21        21   # BR(h -> g       g      )
     2.35383426E-03    2          22        22   # BR(h -> gam     gam    )
     1.56000222E-03    2          22        23   # BR(h -> Z       gam    )
     2.11280228E-01    2          24       -24   # BR(h -> W+      W-     )
     2.63882471E-02    2          23        23   # BR(h -> Z       Z      )
#
#         PDG            Width
DECAY        35     4.39099029E+01   # H decays
#          BR         NDA      ID1       ID2
     7.70422472E-02    2           5        -5   # BR(H -> b       bb     )
     1.44468149E-02    2         -15        15   # BR(H -> tau+    tau-   )
     5.11561474E-05    2         -13        13   # BR(H -> mu+     mu-    )
     3.09748460E-05    2           3        -3   # BR(H -> s       sb     )
     2.77698011E-07    2           4        -4   # BR(H -> c       cb     )
     2.72936254E-02    2           6        -6   # BR(H -> t       tb     )
     9.70827840E-06    2          21        21   # BR(H -> g       g      )
     2.18208291E-07    2          22        22   # BR(H -> gam     gam    )
     1.70311742E-08    2          23        22   # BR(H -> Z       gam    )
     1.25042926E-05    2          24       -24   # BR(H -> W+      W-     )
     6.23837955E-06    2          23        23   # BR(H -> Z       Z      )
     4.77048927E-05    2          25        25   # BR(H -> h       h      )
     1.10321779E-01    2     1000024  -1000024   # BR(H -> ~chi_1+ ~chi_1-)
     3.54405049E-02    2     1000037  -1000037   # BR(H -> ~chi_2+ ~chi_2-)
     2.07568385E-01    2     1000024  -1000037   # BR(H -> ~chi_1+ ~chi_2-)
     2.07568385E-01    2     1000037  -1000024   # BR(H -> ~chi_2+ ~chi_1-)
     5.20527248E-02    2     1000022   1000022   # BR(H -> ~chi_10 ~chi_10)
     1.67875211E-03    2     1000023   1000023   # BR(H -> ~chi_20 ~chi_20)
     3.16838131E-02    2     1000025   1000025   # BR(H -> ~chi_30 ~chi_30)
     1.22863949E-01    2     1000022   1000023   # BR(H -> ~chi_10 ~chi_20)
     2.96821482E-02    2     1000022   1000025   # BR(H -> ~chi_10 ~chi_30)
     5.25083036E-03    2     1000022   1000035   # BR(H -> ~chi_10 ~chi_40)
     4.18481901E-02    2     1000023   1000025   # BR(H -> ~chi_20 ~chi_30)
     2.03194868E-02    2     1000023   1000035   # BR(H -> ~chi_20 ~chi_40)
     1.47429572E-02    2     1000025   1000035   # BR(H -> ~chi_30 ~chi_40)
     6.52992414E-06    2     1000002  -1000002   # BR(H -> ~u_L    ~u_L*  )
     6.52992414E-06    2     1000004  -1000004   # BR(H -> ~c_L    ~c_L*  )
     9.55827345E-06    2     1000001  -1000001   # BR(H -> ~d_L    ~d_L*  )
     9.55827345E-06    2     1000003  -1000003   # BR(H -> ~s_L    ~s_L*  )
     1.26988644E-06    2     2000011  -2000011   # BR(H -> ~e_R-   ~e_R+  )
     1.26988644E-06    2     2000013  -2000013   # BR(H -> ~mu_R-  ~mu_R+ )
     1.89137664E-06    2     1000015  -1000015   # BR(H -> ~tau_1- ~tau_1+)
#
#         PDG            Width
DECAY        36     4.39131610E+01   # A decays
#          BR         NDA      ID1       ID2
     7.70607914E-02    2           5        -5   # BR(A -> b       bb     )
     1.44461722E-02    2         -15        15   # BR(A -> tau+    tau-   )
     5.11537989E-05    2         -13        13   # BR(A -> mu+     mu-    )
     3.09949032E-05    2           3        -3   # BR(A -> s       sb     )
     2.78835755E-07    2           4        -4   # BR(A -> c       cb     )
     2.73889013E-02    2           6        -6   # BR(A -> t       tb     )
     3.11484472E-05    2          21        21   # BR(A -> g       g      )
     1.99693719E-07    2          22        22   # BR(A -> gam     gam    )
     3.61691156E-08    2          23        22   # BR(A -> Z       gam    )
     1.26672900E-05    2          23        25   # BR(A -> Z       h      )
     1.45899106E-01    2     1000024  -1000024   # BR(A -> ~chi_1+ ~chi_1-)
     7.02161756E-02    2     1000037  -1000037   # BR(A -> ~chi_2+ ~chi_2-)
     1.72386595E-01    2     1000024  -1000037   # BR(A -> ~chi_1+ ~chi_2-)
     1.72386595E-01    2     1000037  -1000024   # BR(A -> ~chi_2+ ~chi_1-)
     7.02138469E-02    2     1000022   1000022   # BR(A -> ~chi_10 ~chi_10)
     1.18527499E-03    2     1000023   1000023   # BR(A -> ~chi_20 ~chi_20)
     5.18092334E-02    2     1000025   1000025   # BR(A -> ~chi_30 ~chi_30)
     7.68382006E-02    2     1000022   1000023   # BR(A -> ~chi_10 ~chi_20)
     5.05183531E-02    2     1000022   1000025   # BR(A -> ~chi_10 ~chi_30)
     5.88121934E-03    2     1000022   1000035   # BR(A -> ~chi_10 ~chi_40)
     2.92132708E-02    2     1000023   1000025   # BR(A -> ~chi_20 ~chi_30)
     1.91649318E-02    2     1000023   1000035   # BR(A -> ~chi_20 ~chi_40)
     1.52648542E-02    2     1000025   1000035   # BR(A -> ~chi_30 ~chi_40)
#
#         PDG            Width
DECAY        37     4.38137403E+01   # H+ decays
#          BR         NDA      ID1       ID2
     1.27915477E-04    2           4        -5   # BR(H+ -> c       bb     )
     1.44857401E-02    2         -15        16   # BR(H+ -> tau+    nu_tau )
     5.12939084E-05    2         -13        14   # BR(H+ -> mu+     nu_mu  )
     1.27914878E-06    2           2        -5   # BR(H+ -> u       bb     )
     1.55357337E-06    2           2        -3   # BR(H+ -> u       sb     )
     3.08470770E-05    2           4        -3   # BR(H+ -> c       sb     )
     1.02968762E-01    2           6        -5   # BR(H+ -> t       bb     )
     1.27218234E-05    2          24        25   # BR(H+ -> W+      h      )
     1.69016789E-13    2          24        36   # BR(H+ -> W+      A      )
     1.53755564E-05    2     1000024   1000022   # BR(H+ -> ~chi_1+ ~chi_10)
     2.28765920E-01    2     1000024   1000023   # BR(H+ -> ~chi_1+ ~chi_20)
     2.61703533E-01    2     1000024   1000025   # BR(H+ -> ~chi_1+ ~chi_30)
     1.05290997E-02    2     1000024   1000035   # BR(H+ -> ~chi_1+ ~chi_40)
     3.01476339E-01    2     1000037   1000022   # BR(H+ -> ~chi_2+ ~chi_10)
     4.90139543E-02    2     1000037   1000023   # BR(H+ -> ~chi_2+ ~chi_20)
     1.22200914E-03    2     1000037   1000025   # BR(H+ -> ~chi_2+ ~chi_30)
     2.95617693E-02    2     1000037   1000035   # BR(H+ -> ~chi_2+ ~chi_40)
     1.59438146E-05    2     1000002  -1000001   # BR(H+ -> ~u_L    ~d_L*  )
     1.59438146E-05    2     1000004  -1000003   # BR(H+ -> ~c_L    ~s_L*  )
