#
#                              ======================
#                              | THE SUSYHIT OUTPUT |
#                              ======================
#
#
#              ------------------------------------------------------
#              |     This is the output of the SUSY-HIT package     |
#              |  created by A.Djouadi, M.Muehlleitner and M.Spira. |
#              |  In case of problems with SUSY-HIT email to        |
#              |           margarete.muehlleitner@cern.ch           |
#              |           michael.spira@psi.ch                     |
#              |           abdelhak.djouadi@cern.ch                 |
#              ------------------------------------------------------
#
#              ------------------------------------------------------
#              |  SUSY Les Houches Accord - MSSM Spectrum + Decays  |
#              |              based on the decay programs           |
#              |                                                    |
#              |                     SDECAY 1.3b                    |
#              |                                                    |
#              |  Authors: M.Muhlleitner, A.Djouadi and Y.Mambrini  |
#              |  Ref.:    Comput.Phys.Commun.168(2005)46           |
#              |           [hep-ph/0311167]                         |
#              |                                                    |
#              |                     HDECAY 3.4                     |
#              |                                                    |
#              |  By: A.Djouadi,J.Kalinowski,M.Muhlleitner,M.Spira  |
#              |  Ref.:    Comput.Phys.Commun.108(1998)56           |
#              |           [hep-ph/9704448]                         |
#              |                                                    |
#              |                                                    |
#              |  If not stated otherwise all DRbar couplings and   |
#              |  soft SUSY breaking masses are given at the scale  |
#              |  Q=  0.16346900E+04
#              |                                                    |
#              ------------------------------------------------------
#
#
BLOCK DCINFO  # Decay Program information
     1   SDECAY/HDECAY # decay calculator
     2   1.3b  /3.4    # version number
#
BLOCK SPINFO  # Spectrum calculator information
     1     SOFTSUSY    # spectrum calculator               
     2     3.4.0       # version number                    
#
BLOCK MODSEL  # Model selection
     1     0   #  nonUniversal                                     
#
BLOCK SMINPUTS  # Standard Model inputs
         1     1.27908970E+02   # alpha_em^-1(M_Z)^MSbar
         2     1.16637870E-05   # G_F [GeV^-2]
         3     1.18400000E-01   # alpha_S(M_Z)^MSbar
         4     9.11876000E+01   # M_Z pole mass
         5     4.18000000E+00   # mb(mb)^MSbar
         6     1.73200000E+02   # mt pole mass
         7     1.77700000E+00   # mtau pole mass
#
BLOCK MINPAR  # Input parameters - minimal models
         3     6.80000000E+00   # tanb                
#
BLOCK EXTPAR  # Input parameters - non-minimal models
         0    -1.00000000E+00   # Set                 
         1     2.95059000E+03   # M_1(MX)             
         2     1.35021000E+03   # M_2(MX)             
         3     2.83083000E+03   # M_3(MX)             
        11     3.44428000E+03   # At(MX)              
        12     1.11359000E+03   # Ab(MX)              
        13     1.74967000E+03   # Atau(MX)            
        23     3.70430000E+02   # mu(MX)              
        26     1.92673000E+03   # mA(pole)            
        31     1.93927000E+03   # meL(MX)             
        32     1.93927000E+03   # mmuL(MX)            
        33     6.41270000E+02   # mtauL(MX)           
        34     2.78121000E+03   # meR(MX)             
        35     2.78121000E+03   # mmuR(MX)            
        36     2.09559000E+03   # mtauR(MX)           
        41     9.11840000E+02   # mqL1(MX)            
        42     9.11840000E+02   # mqL2(MX)            
        43     9.97790000E+02   # mqL3(MX)            
        44     2.64980000E+03   # muR(MX)             
        45     2.64980000E+03   # mcR(MX)             
        46     2.69470000E+03   # mtR(MX)             
        47     1.12245000E+03   # mdR(MX)             
        48     1.12245000E+03   # msR(MX)             
        49     2.48203000E+03   # mbR(MX)             
#
BLOCK MASS  # Mass Spectrum
# PDG code           mass       particle
        24     8.04007741E+01   # W+
        25     1.26632203E+02   # h
        35     1.92694653E+03   # H
        36     1.92672999E+03   # A
        37     1.92867769E+03   # H+
         5     4.81876030E+00   # b-quark pole mass calculated from mb(mb)_Msbar
   1000001     9.51009746E+02   # ~d_L
   2000001     1.15270616E+03   # ~d_R
   1000002     9.47873651E+02   # ~u_L
   2000002     2.69877518E+03   # ~u_R
   1000003     9.51009746E+02   # ~s_L
   2000003     1.15270616E+03   # ~s_R
   1000004     9.47873651E+02   # ~c_L
   2000004     2.69877518E+03   # ~c_R
   1000005     1.03361749E+03   # ~b_1
   2000005     2.52998203E+03   # ~b_2
   1000006     1.02141956E+03   # ~t_1
   2000006     2.70981688E+03   # ~t_2
   1000011     1.94825020E+03   # ~e_L
   2000011     2.78517780E+03   # ~e_R
   1000012     1.94641105E+03   # ~nu_eL
   1000013     1.94825020E+03   # ~mu_L
   2000013     2.78517780E+03   # ~mu_R
   1000014     1.94641105E+03   # ~nu_muL
   1000015     6.62322726E+02   # ~tau_1
   2000015     2.09913014E+03   # ~tau_2
   1000016     6.57518638E+02   # ~nu_tauL
   1000021     2.81612826E+03   # ~g
   1000022     3.77875919E+02   # ~chi_10
   1000023    -3.83308226E+02   # ~chi_20
   1000025     1.34312710E+03   # ~chi_30
   1000035     2.93520201E+03   # ~chi_40
   1000024     3.79652477E+02   # ~chi_1+
   1000037     1.34330989E+03   # ~chi_2+
#
BLOCK NMIX  # Neutralino Mixing Matrix
  1  1     1.34940427E-02   # N_11
  1  2    -6.50436600E-02   # N_12
  1  3     7.08382658E-01   # N_13
  1  4    -7.02695697E-01   # N_14
  2  1    -7.66270062E-03   # N_21
  2  2     2.73772052E-02   # N_22
  2  3     7.05305942E-01   # N_23
  2  4     7.08332761E-01   # N_24
  3  1     1.92085686E-03   # N_31
  3  2     9.97506453E-01   # N_32
  3  3     2.68299111E-02   # N_33
  3  4    -6.52483101E-02   # N_34
  4  1     9.99877745E-01   # N_41
  4  2    -8.28683175E-04   # N_42
  4  3    -4.20644822E-03   # N_43
  4  4     1.50371186E-02   # N_44
#
BLOCK UMIX  # Chargino Mixing Matrix U
  1  1    -3.79994945E-02   # U_11
  1  2     9.99277758E-01   # U_12
  2  1    -9.99277758E-01   # U_21
  2  2    -3.79994945E-02   # U_22
#
BLOCK VMIX  # Chargino Mixing Matrix V
  1  1    -9.24754981E-02   # V_11
  1  2     9.95714960E-01   # V_12
  2  1    -9.95714960E-01   # V_21
  2  2    -9.24754981E-02   # V_22
#
BLOCK STOPMIX  # Stop Mixing Matrix
  1  1     9.96722994E-01   # cos(theta_t)
  1  2    -8.08905015E-02   # sin(theta_t)
  2  1     8.08905015E-02   # -sin(theta_t)
  2  2     9.96722994E-01   # cos(theta_t)
#
BLOCK SBOTMIX  # Sbottom Mixing Matrix
  1  1     9.99999842E-01   # cos(theta_b)
  1  2     5.62138751E-04   # sin(theta_b)
  2  1    -5.62138751E-04   # -sin(theta_b)
  2  2     9.99999842E-01   # cos(theta_b)
#
BLOCK STAUMIX  # Stau Mixing Matrix
  1  1     9.99999946E-01   # cos(theta_tau)
  1  2     3.28633530E-04   # sin(theta_tau)
  2  1    -3.28633530E-04   # -sin(theta_tau)
  2  2     9.99999946E-01   # cos(theta_tau)
#
BLOCK ALPHA  # Higgs mixing
          -1.53360118E-01   # Mixing angle in the neutral Higgs boson sector
#
BLOCK HMIX Q=  1.63469000E+03  # DRbar Higgs Parameters
         1     3.75268727E+02   # mu(Q)MSSM           
         2     6.51137004E+00   # tan                 
         3     2.43301354E+02   # higgs               
         4     3.69047047E+06   # mA^2(Q)MSSM         
#
BLOCK GAUGE Q=  1.63469000E+03  # The gauge couplings
     1     3.63204966E-01   # gprime(Q) DRbar
     2     6.39674542E-01   # g(Q) DRbar
     3     1.02871635E+00   # g3(Q) DRbar
#
BLOCK AU Q=  1.63469000E+03  # The trilinear couplings
  1  1     0.00000000E+00   # A_u(Q) DRbar
  2  2     0.00000000E+00   # A_c(Q) DRbar
  3  3     3.44428001E+03   # A_t(Q) DRbar
#
BLOCK AD Q=  1.63469000E+03  # The trilinear couplings
  1  1     0.00000000E+00   # A_d(Q) DRbar
  2  2     0.00000000E+00   # A_s(Q) DRbar
  3  3     1.11359000E+03   # A_b(Q) DRbar
#
BLOCK AE Q=  1.63469000E+03  # The trilinear couplings
  1  1     0.00000000E+00   # A_e(Q) DRbar
  2  2     0.00000000E+00   # A_mu(Q) DRbar
  3  3     1.74967000E+03   # A_tau(Q) DRbar
#
BLOCK Yu Q=  1.63469000E+03  # The Yukawa couplings
  1  1     0.00000000E+00   # y_u(Q) DRbar
  2  2     0.00000000E+00   # y_c(Q) DRbar
  3  3     8.62277282E-01   # y_t(Q) DRbar
#
BLOCK Yd Q=  1.63469000E+03  # The Yukawa couplings
  1  1     0.00000000E+00   # y_d(Q) DRbar
  2  2     0.00000000E+00   # y_s(Q) DRbar
  3  3     8.93134375E-02   # y_b(Q) DRbar
#
BLOCK Ye Q=  1.63469000E+03  # The Yukawa couplings
  1  1     0.00000000E+00   # y_e(Q) DRbar
  2  2     0.00000000E+00   # y_mu(Q) DRbar
  3  3     6.77145137E-02   # y_tau(Q) DRbar
#
BLOCK MSOFT Q=  1.63469000E+03  # The soft SUSY breaking masses at the scale Q
         1     2.95059000E+03   # M_1(Q)              
         2     1.35021000E+03   # M_2(Q)              
         3     2.83083000E+03   # M_3(Q)              
        21     3.46351048E+06   # mH1^2(Q)            
        22    -1.04040255E+05   # mH2^2(Q)            
        31     1.93927000E+03   # meL(Q)              
        32     1.93927000E+03   # mmuL(Q)             
        33     6.41270000E+02   # mtauL(Q)            
        34     2.78121000E+03   # meR(Q)              
        35     2.78121000E+03   # mmuR(Q)             
        36     2.09559000E+03   # mtauR(Q)            
        41     9.11839991E+02   # mqL1(Q)             
        42     9.11839991E+02   # mqL2(Q)             
        43     9.97789989E+02   # mqL3(Q)             
        44     2.64980000E+03   # muR(Q)              
        45     2.64980000E+03   # mcR(Q)              
        46     2.69469999E+03   # mtR(Q)              
        47     1.12244999E+03   # mdR(Q)              
        48     1.12244999E+03   # msR(Q)              
        49     2.48203000E+03   # mbR(Q)              
#
Block HiggsBoundsInputHiggsCouplingsFermions
# ScalarNormEffCoupSq PseudoSNormEffCoupSq NP   IP1 IP2 IP2
    1.01271335E+00    0.00000000E+00        3  25   5   5  # h0-b-b eff. coupling^2, normalised to SM
    4.23852264E+01    0.00000000E+00        3  35   5   5  # H0-b-b eff. coupling^2, normalised to SM
    0.00000000E+00    4.23979398E+01        3  36   5   5  # A0-b-b eff. coupling^2, normalised to SM
#
    9.99700142E-01    0.00000000E+00        3  25   6   6  # h0-t-t eff. coupling^2, normalised to SM
    2.38859095E-02    0.00000000E+00        3  35   6   6  # H0-t-t eff. coupling^2, normalised to SM
    0.00000000E+00    2.35860517E-02        3  36   6   6  # A0-t-t eff. coupling^2, normalised to SM
#
    1.01271335E+00    0.00000000E+00        3  25  15  15  # h0-tau-tau eff. coupling^2, normalised to SM
    4.23852264E+01    0.00000000E+00        3  35  15  15  # H0-tau-tau eff. coupling^2, normalised to SM
    0.00000000E+00    4.23979398E+01        3  36  15  15  # A0-tau-tau eff. coupling^2, normalised to SM
#
Block HiggsBoundsInputHiggsCouplingsBosons
    9.99999053E-01        3  25  24  24  # h0-W-W eff. coupling^2, normalised to SM
    9.47180688E-07        3  35  24  24  # H0-W-W eff. coupling^2, normalised to SM
    0.00000000E+00        3  36  24  24  # A0-W-W eff. coupling^2, normalised to SM
#
    9.99999053E-01        3  25  23  23  # h0-Z-Z eff. coupling^2, normalised to SM
    9.47180688E-07        3  35  23  23  # H0-Z-Z eff. coupling^2, normalised to SM
    0.00000000E+00        3  36  23  23  # A0-Z-Z eff. coupling^2, normalised to SM
#
    8.81776751E-01        3  25  21  21  # h0-g-g eff. coupling^2, normalised to SM
    2.82313105E-10        3  35  21  21  # H0-g-g eff. coupling^2, normalised to SM
    8.73886622E-10        3  36  21  21  # A0-g-g eff. coupling^2, normalised to SM
#
    0.00000000E+00        3  25  25  23  # h0-h0-Z eff. coupling^2, normalised to SM
    0.00000000E+00        3  35  25  23  # H0-h0-Z eff. coupling^2, normalised to SM
    9.47180688E-07        3  36  25  23  # A0-h0-Z eff. coupling^2, normalised to SM
    0.00000000E+00        3  35  35  23  # H0-H0-Z eff. coupling^2, normalised to SM
    9.99999053E-01        3  36  35  23  # A0-H0-Z eff. coupling^2, normalised to SM
    0.00000000E+00        3  36  36  23  # A0-A0-Z eff. coupling^2, normalised to SM
#
    0.00000000E+00        4  25  21  21  23  # h0-g-g-Z eff. coupling^2, normalised to SM
    0.00000000E+00        4  35  21  21  23  # H0-g-g-Z eff. coupling^2, normalised to SM
    0.00000000E+00        4  36  21  21  23  # A0-g-g-Z eff. coupling^2, normalised to SM
#
#
#
#                             =================
#                             |The decay table|
#                             =================
#
# - The QCD corrections to the decays gluino -> squark  + quark
#                                     squark -> gaugino + quark_prime
#                                     squark -> squark_prime + Higgs
#                                     squark -> gluino  + quark
#   are included.
#
# - The multi-body decays for the inos, stops and sbottoms are included.
#
# - The loop induced decays for the gluino, neutralinos and stops
#   are included.
#
# - The SUSY decays of the top quark are included.
#
#
#         PDG            Width
DECAY         6     1.44059740E+00   # top decays
#          BR         NDA      ID1       ID2
     1.00000000E+00    2           5        24   # BR(t ->  b    W+)
#
#         PDG            Width
DECAY   1000021     3.44617118E+02   # gluino decays
#          BR         NDA      ID1       ID2
     6.43989200E-02    2     1000001        -1   # BR(~g -> ~d_L  db)
     6.43989200E-02    2    -1000001         1   # BR(~g -> ~d_L* d )
     5.68556400E-02    2     2000001        -1   # BR(~g -> ~d_R  db)
     5.68556400E-02    2    -2000001         1   # BR(~g -> ~d_R* d )
     6.45081299E-02    2     1000002        -2   # BR(~g -> ~u_L  ub)
     6.45081299E-02    2    -1000002         2   # BR(~g -> ~u_L* u )
     5.46395945E-04    2     2000002        -2   # BR(~g -> ~u_R  ub)
     5.46395945E-04    2    -2000002         2   # BR(~g -> ~u_R* u )
     6.43989200E-02    2     1000003        -3   # BR(~g -> ~s_L  sb)
     6.43989200E-02    2    -1000003         3   # BR(~g -> ~s_L* s )
     5.68556400E-02    2     2000003        -3   # BR(~g -> ~s_R  sb)
     5.68556400E-02    2    -2000003         3   # BR(~g -> ~s_R* s )
     6.45081237E-02    2     1000004        -4   # BR(~g -> ~c_L  cb)
     6.45081237E-02    2    -1000004         4   # BR(~g -> ~c_L* c )
     5.46344938E-04    2     2000004        -4   # BR(~g -> ~c_R  cb)
     5.46344938E-04    2    -2000004         4   # BR(~g -> ~c_R* c )
     6.12962138E-02    2     1000005        -5   # BR(~g -> ~b_1  bb)
     6.12962138E-02    2    -1000005         5   # BR(~g -> ~b_1* b )
     3.14001244E-03    2     2000005        -5   # BR(~g -> ~b_2  bb)
     3.14001244E-03    2    -2000005         5   # BR(~g -> ~b_2* b )
     6.29456593E-02    2     1000006        -6   # BR(~g -> ~t_1  tb)
     6.29456593E-02    2    -1000006         6   # BR(~g -> ~t_1* t )
#
#         PDG            Width
DECAY   1000006     1.03257998E+01   # stop1 decays
#          BR         NDA      ID1       ID2
     4.99129437E-01    2     1000022         6   # BR(~t_1 -> ~chi_10 t )
     4.89132184E-01    2     1000023         6   # BR(~t_1 -> ~chi_20 t )
     1.17383796E-02    2     1000024         5   # BR(~t_1 -> ~chi_1+ b )
#
#         PDG            Width
DECAY   2000006     1.79336248E+02   # stop2 decays
#          BR         NDA      ID1       ID2
     1.05802721E-01    2     1000022         6   # BR(~t_2 -> ~chi_10 t )
     1.07528730E-01    2     1000023         6   # BR(~t_2 -> ~chi_20 t )
     6.62229623E-05    2     1000025         6   # BR(~t_2 -> ~chi_30 t )
     2.13975094E-01    2     1000024         5   # BR(~t_2 -> ~chi_1+ b )
     1.33666989E-04    2     1000037         5   # BR(~t_2 -> ~chi_2+ b )
     1.41815569E-01    2     1000006        25   # BR(~t_2 -> ~t_1    h )
     1.46630197E-01    2     1000006        23   # BR(~t_2 -> ~t_1    Z )
     2.84047799E-01    2     1000005        24   # BR(~t_2 -> ~b_1    W+)
     2.18391366E-10    2     2000005        24   # BR(~t_2 -> ~b_2    W+)
#
#         PDG            Width
DECAY   1000005     1.05642489E+01   # sbottom1 decays
#          BR         NDA      ID1       ID2
     7.19449270E-03    2     1000022         5   # BR(~b_1 -> ~chi_10 b )
     5.98043680E-03    2     1000023         5   # BR(~b_1 -> ~chi_20 b )
     9.86825070E-01    2    -1000024         6   # BR(~b_1 -> ~chi_1- t )
#
#         PDG            Width
DECAY   2000005     7.67217495E-01   # sbottom2 decays
#          BR         NDA      ID1       ID2
     2.51192307E-01    2     1000022         5   # BR(~b_2 -> ~chi_10 b )
     2.48675452E-01    2     1000023         5   # BR(~b_2 -> ~chi_20 b )
     2.41037683E-04    2     1000025         5   # BR(~b_2 -> ~chi_30 b )
     4.94378595E-01    2    -1000024         6   # BR(~b_2 -> ~chi_1- t )
     4.69079091E-04    2    -1000037         6   # BR(~b_2 -> ~chi_2- t )
     1.36927858E-03    2     1000005        25   # BR(~b_2 -> ~b_1    h )
     1.24000039E-03    2     1000005        23   # BR(~b_2 -> ~b_1    Z )
     2.43425040E-03    2     1000006       -24   # BR(~b_2 -> ~t_1    W-)
#
#         PDG            Width
DECAY   1000002     6.11336936E-02   # sup_L decays
#          BR         NDA      ID1       ID2
     1.80678955E-01    2     1000022         2   # BR(~u_L -> ~chi_10 u)
     3.07644169E-02    2     1000023         2   # BR(~u_L -> ~chi_20 u)
     7.88556628E-01    2     1000024         1   # BR(~u_L -> ~chi_1+ d)
#
#         PDG            Width
DECAY   2000002     1.20167974E+00   # sup_R decays
#           BR         NDA      ID1       ID2
     8.89001988E-04    2     1000022         2   # BR(~u_R -> ~chi_10 u)
     2.86347684E-04    2     1000023         2   # BR(~u_R -> ~chi_20 u)
#           BR         NDA      ID1       ID2       ID3
     9.16550360E-02    3        2       -1        1000001   # BR(~u_R -> u  db  ~d_L)
     4.70200155E-02    3        2       1        -1000001   # BR(~u_R -> u  d  ~d_L*)
     3.43876979E-02    3        2       -1        2000001   # BR(~u_R -> u  db  ~d_R)
     6.33454966E-02    3        2       1        -2000001   # BR(~u_R -> u  d  ~d_R*)
     9.06730771E-02    3        2       -2        1000002   # BR(~u_R -> u  ub  ~u_L)
     4.77623098E-02    3        2       2        -1000002   # BR(~u_R -> u  u  ~u_L*)
     9.20378334E-02    3        2       -3        1000003   # BR(~u_R -> u  sb  ~s_L)
     4.67129453E-02    3        2       3        -1000003   # BR(~u_R -> u  s  ~s_L*)
     3.52464958E-02    3        2       -3        2000003   # BR(~u_R -> u  sb  ~s_R)
     6.17360829E-02    3        2       3        -2000003   # BR(~u_R -> u  s  ~s_R*)
     9.26286731E-02    3        2       -4        1000004   # BR(~u_R -> u  cb  ~c_L)
     4.71947709E-02    3        2       4        -1000004   # BR(~u_R -> u  c  ~c_L*)
     8.05081394E-02    3        2       -5        1000005   # BR(~u_R -> u  bb  ~b_1)
     4.13645985E-02    3        2       5        -1000005   # BR(~u_R -> u  b  ~b_1*)
     8.50642616E-06    3        2       -5        2000005   # BR(~u_R -> u  bb  ~b_2)
     9.91029438E-06    3        2       5        -2000005   # BR(~u_R -> u  b  ~b_2*)
     7.90227187E-02    3        2       -6        1000006   # BR(~u_R -> u  tb  ~t_1)
     4.49620628E-02    3        2       6        -1000006   # BR(~u_R -> u  t  ~t_1*)
     1.05776935E-05    3        2       -11        1000011   # BR(~u_R -> u  e+  ~e_L-)
     6.94369700E-06    3        2       11        -1000011   # BR(~u_R -> u  e-  ~e_L+)
     1.06334488E-05    3        2       -12        1000012   # BR(~u_R -> u  nu_eb  ~nu_eL)
     7.05212855E-06    3        2       12        -1000012   # BR(~u_R -> u  nu_e  ~nu_eL*)
     1.03887913E-05    3        2       -13        1000013   # BR(~u_R -> u  mu+  ~mu_L-)
     6.93945294E-06    3        2       13        -1000013   # BR(~u_R -> u  mu-  ~mu_L+)
     1.05202739E-05    3        2       -14        1000014   # BR(~u_R -> u  nu_mub  ~nu_muL)
     7.04505513E-06    3        2       14        -1000014   # BR(~u_R -> u  nu_mu  ~nu_muL*)
     3.18579059E-04    3        2       -15        1000015   # BR(~u_R -> u  tau+  ~tau_1-)
     1.28961149E-04    3        2       15        -1000015   # BR(~u_R -> u  tau-  ~tau_1+)
     1.21779535E-05    3        2       -15        2000015   # BR(~u_R -> u  tau+  ~tau_2-)
     1.72183980E-05    3        2       15        -2000015   # BR(~u_R -> u  tau-  ~tau_2+)
     3.27175358E-04    3        2       -16        1000016   # BR(~u_R -> u  nu_taub  ~nu_tau1)
     1.34361922E-04    3        2       16        -1000016   # BR(~u_R -> u  nu_tau  ~nu_tau1*)
     8.26493090E-05    3        2       23        1000022   # BR(~u_R -> u  Z  ~chi_10)
     2.97109112E-04    3        2       25        1000022   # BR(~u_R -> u  h  ~chi_10)
     2.78701545E-06    3        2       35        1000022   # BR(~u_R -> u  H  ~chi_10)
     8.08393424E-07    3        2       36        1000022   # BR(~u_R -> u  A  ~chi_10)
     3.07794154E-04    3        2       23        1000023   # BR(~u_R -> u  Z  ~chi_20)
     7.61692129E-05    3        2       25        1000023   # BR(~u_R -> u  h  ~chi_20)
     7.75239832E-07    3        2       35        1000023   # BR(~u_R -> u  H  ~chi_20)
     2.73234197E-06    3        2       36        1000023   # BR(~u_R -> u  A  ~chi_20)
     1.84483430E-07    3        2       23        1000025   # BR(~u_R -> u  Z  ~chi_30)
     3.95454782E-06    3        2       25        1000025   # BR(~u_R -> u  h  ~chi_30)
     2.15922754E-04    3        2       -24        1000024   # BR(~u_R -> u  W-  ~chi_1+)
     5.33211953E-04    3        2       24        -1000024   # BR(~u_R -> u  W+  ~chi_1-)
     4.15834589E-06    3        2       -37        1000024   # BR(~u_R -> u  H-  ~chi_1+)
     2.78476860E-06    3        2       37        -1000024   # BR(~u_R -> u  H+  ~chi_1-)
     4.06838847E-06    3        2       -24        1000037   # BR(~u_R -> u  W-  ~chi_2+)
     4.59540078E-06    3        2       24        -1000037   # BR(~u_R -> u  W+  ~chi_2-)
#
#         PDG            Width
DECAY   1000001     2.35223484E-02   # sdown_L decays
#          BR         NDA      ID1       ID2
     5.52580031E-01    2     1000022         1   # BR(~d_L -> ~chi_10 d)
     9.94121488E-02    2     1000023         1   # BR(~d_L -> ~chi_20 d)
     3.48007820E-01    2    -1000024         2   # BR(~d_L -> ~chi_1- u)
#
#         PDG            Width
DECAY   2000001     1.77873387E-04   # sdown_R decays
#           BR         NDA      ID1       ID2
     5.62574193E-01    2     1000022         1   # BR(~d_R -> ~chi_10 d)
     1.80153205E-01    2     1000023         1   # BR(~d_R -> ~chi_20 d)
#           BR         NDA      ID1       ID2       ID3
     4.44181119E-02    3        1       -1        1000001   # BR(~d_R -> d  db  ~d_L)
     6.19429371E-03    3        1       1        -1000001   # BR(~d_R -> d  d  ~d_L*)
     4.76456886E-02    3        1       -2        1000002   # BR(~d_R -> d  ub  ~u_L)
     6.76773531E-03    3        1       2        -1000002   # BR(~d_R -> d  u  ~u_L*)
     4.43973106E-02    3        1       -3        1000003   # BR(~d_R -> d  sb  ~s_L)
     6.18923393E-03    3        1       3        -1000003   # BR(~d_R -> d  s  ~s_L*)
     4.79863804E-02    3        1       -4        1000004   # BR(~d_R -> d  cb  ~c_L)
     6.72725708E-03    3        1       4        -1000004   # BR(~d_R -> d  c  ~c_L*)
     3.42755041E-03    3        1       -5        1000005   # BR(~d_R -> d  bb  ~b_1)
     5.07692588E-04    3        1       5        -1000005   # BR(~d_R -> d  b  ~b_1*)
     1.60676088E-03    3        1       -15        1000015   # BR(~d_R -> d  tau+  ~tau_1-)
     1.62536963E-04    3        1       15        -1000015   # BR(~d_R -> d  tau-  ~tau_1+)
     1.59759706E-03    3        1       -16        1000016   # BR(~d_R -> d  nu_taub  ~nu_tau1)
     1.38317488E-04    3        1       16        -1000016   # BR(~d_R -> d  nu_tau  ~nu_tau1*)
     1.77952422E-03    3        1       23        1000022   # BR(~d_R -> d  Z  ~chi_10)
     7.32768417E-03    3        1       25        1000022   # BR(~d_R -> d  h  ~chi_10)
     7.34173911E-03    3        1       23        1000023   # BR(~d_R -> d  Z  ~chi_20)
     1.87633466E-03    3        1       25        1000023   # BR(~d_R -> d  h  ~chi_20)
     2.57323486E-03    3        1       -24        1000024   # BR(~d_R -> d  W-  ~chi_1+)
     1.86076178E-02    3        1       24        -1000024   # BR(~d_R -> d  W+  ~chi_1-)
#
#         PDG            Width
DECAY   1000004     5.89845537E-02   # scharm_L decays
#          BR         NDA      ID1       ID2
     1.80680508E-01    2     1000022         4   # BR(~c_L -> ~chi_10 c)
     3.07631150E-02    2     1000023         4   # BR(~c_L -> ~chi_20 c)
     7.88556377E-01    2     1000024         3   # BR(~c_L -> ~chi_1+ s)
#
#         PDG            Width
DECAY   2000004     1.19998597E+00   # scharm_R decays
#           BR         NDA      ID1       ID2
     9.18243709E-04    2     1000022         4   # BR(~c_R -> ~chi_10 c)
     2.95756561E-04    2     1000023         4   # BR(~c_R -> ~chi_20 c)
#           BR         NDA      ID1       ID2       ID3
     9.20094089E-02    3        4       -1        1000001   # BR(~c_R -> c  db  ~d_L)
     4.65205438E-02    3        4       1        -1000001   # BR(~c_R -> c  d  ~d_L*)
     3.46212380E-02    3        4       -1        2000001   # BR(~c_R -> c  db  ~d_R)
     6.32432393E-02    3        4       1        -2000001   # BR(~c_R -> c  d  ~d_R*)
     9.12760670E-02    3        4       -2        1000002   # BR(~c_R -> c  ub  ~u_L)
     4.74947219E-02    3        4       2        -1000002   # BR(~c_R -> c  u  ~u_L*)
     9.07510608E-02    3        4       -3        1000003   # BR(~c_R -> c  sb  ~s_L)
     4.66063781E-02    3        4       3        -1000003   # BR(~c_R -> c  s  ~s_L*)
     3.46637386E-02    3        4       -3        2000003   # BR(~c_R -> c  sb  ~s_R)
     6.37349117E-02    3        4       3        -2000003   # BR(~c_R -> c  s  ~s_R*)
     9.26010825E-02    3        4       -4        1000004   # BR(~c_R -> c  cb  ~c_L)
     4.70997172E-02    3        4       4        -1000004   # BR(~c_R -> c  c  ~c_L*)
     8.09726133E-02    3        4       -5        1000005   # BR(~c_R -> c  bb  ~b_1)
     4.09871458E-02    3        4       5        -1000005   # BR(~c_R -> c  b  ~b_1*)
     8.63176757E-06    3        4       -5        2000005   # BR(~c_R -> c  bb  ~b_2)
     9.88011550E-06    3        4       5        -2000005   # BR(~c_R -> c  b  ~b_2*)
     7.92809269E-02    3        4       -6        1000006   # BR(~c_R -> c  tb  ~t_1)
     4.43471851E-02    3        4       6        -1000006   # BR(~c_R -> c  t  ~t_1*)
     1.05967905E-05    3        4       -11        1000011   # BR(~c_R -> c  e+  ~e_L-)
     6.95324796E-06    3        4       11        -1000011   # BR(~c_R -> c  e-  ~e_L+)
     1.07884595E-05    3        4       -12        1000012   # BR(~c_R -> c  nu_eb  ~nu_eL)
     7.02291544E-06    3        4       12        -1000012   # BR(~c_R -> c  nu_e  ~nu_eL*)
     1.05142896E-05    3        4       -13        1000013   # BR(~c_R -> c  mu+  ~mu_L-)
     6.97808157E-06    3        4       13        -1000013   # BR(~c_R -> c  mu-  ~mu_L+)
     1.06501245E-05    3        4       -14        1000014   # BR(~c_R -> c  nu_mub  ~nu_muL)
     7.07233267E-06    3        4       14        -1000014   # BR(~c_R -> c  nu_mu  ~nu_muL*)
     3.23320446E-04    3        4       -15        1000015   # BR(~c_R -> c  tau+  ~tau_1-)
     1.28468168E-04    3        4       15        -1000015   # BR(~c_R -> c  tau-  ~tau_1+)
     1.21659756E-05    3        4       -15        2000015   # BR(~c_R -> c  tau+  ~tau_2-)
     1.72010345E-05    3        4       15        -2000015   # BR(~c_R -> c  tau-  ~tau_2+)
     3.26412149E-04    3        4       -16        1000016   # BR(~c_R -> c  nu_taub  ~nu_tau1)
     1.34551573E-04    3        4       16        -1000016   # BR(~c_R -> c  nu_tau  ~nu_tau1*)
     8.29809701E-05    3        4       23        1000022   # BR(~c_R -> c  Z  ~chi_10)
     2.96678469E-04    3        4       25        1000022   # BR(~c_R -> c  h  ~chi_10)
     2.80153276E-06    3        4       35        1000022   # BR(~c_R -> c  H  ~chi_10)
     8.11067815E-07    3        4       36        1000022   # BR(~c_R -> c  A  ~chi_10)
     3.09028612E-04    3        4       23        1000023   # BR(~c_R -> c  Z  ~chi_20)
     7.61033896E-05    3        4       25        1000023   # BR(~c_R -> c  h  ~chi_20)
     7.70342339E-07    3        4       35        1000023   # BR(~c_R -> c  H  ~chi_20)
     2.72861524E-06    3        4       36        1000023   # BR(~c_R -> c  A  ~chi_20)
     1.83952150E-07    3        4       23        1000025   # BR(~c_R -> c  Z  ~chi_30)
     3.95612959E-06    3        4       25        1000025   # BR(~c_R -> c  h  ~chi_30)
     2.15935858E-04    3        4       -24        1000024   # BR(~c_R -> c  W-  ~chi_1+)
     5.37114612E-04    3        4       24        -1000024   # BR(~c_R -> c  W+  ~chi_1-)
     4.24213293E-06    3        4       -37        1000024   # BR(~c_R -> c  H-  ~chi_1+)
     2.77811581E-06    3        4       37        -1000024   # BR(~c_R -> c  H+  ~chi_1-)
     4.08271439E-06    3        4       -24        1000037   # BR(~c_R -> c  W-  ~chi_2+)
     4.61680398E-06    3        4       24        -1000037   # BR(~c_R -> c  W+  ~chi_2-)
#
#         PDG            Width
DECAY   1000003     2.26993242E-02   # sstrange_L decays
#          BR         NDA      ID1       ID2
     5.52586839E-01    2     1000022         3   # BR(~s_L -> ~chi_10 s)
     9.94083577E-02    2     1000023         3   # BR(~s_L -> ~chi_20 s)
     3.48004803E-01    2    -1000024         4   # BR(~s_L -> ~chi_1- c)
#
#         PDG            Width
DECAY   2000003     1.74525771E-04   # sstrange_R decays
#           BR         NDA      ID1       ID2
     5.58748425E-01    2     1000022         3   # BR(~s_R -> ~chi_10 s)
     1.78921320E-01    2     1000023         3   # BR(~s_R -> ~chi_20 s)
#           BR         NDA      ID1       ID2       ID3
     4.52918784E-02    3        3       -1        1000001   # BR(~s_R -> s  db  ~d_L)
     6.37785465E-03    3        3       1        -1000001   # BR(~s_R -> s  d  ~d_L*)
     4.86025643E-02    3        3       -2        1000002   # BR(~s_R -> s  ub  ~u_L)
     6.89754867E-03    3        3       2        -1000002   # BR(~s_R -> s  u  ~u_L*)
     4.52019204E-02    3        3       -3        1000003   # BR(~s_R -> s  sb  ~s_L)
     6.32915124E-03    3        3       3        -1000003   # BR(~s_R -> s  s  ~s_L*)
     4.89010875E-02    3        3       -4        1000004   # BR(~s_R -> s  cb  ~c_L)
     6.86374278E-03    3        3       4        -1000004   # BR(~s_R -> s  c  ~c_L*)
     3.49111765E-03    3        3       -5        1000005   # BR(~s_R -> s  bb  ~b_1)
     5.16955172E-04    3        3       5        -1000005   # BR(~s_R -> s  b  ~b_1*)
     1.65952569E-03    3        3       -15        1000015   # BR(~s_R -> s  tau+  ~tau_1-)
     1.65104556E-04    3        3       15        -1000015   # BR(~s_R -> s  tau-  ~tau_1+)
     1.62824091E-03    3        3       -16        1000016   # BR(~s_R -> s  nu_taub  ~nu_tau1)
     1.40970585E-04    3        3       16        -1000016   # BR(~s_R -> s  nu_tau  ~nu_tau1*)
     1.81371495E-03    3        3       23        1000022   # BR(~s_R -> s  Z  ~chi_10)
     7.46823803E-03    3        3       25        1000022   # BR(~s_R -> s  h  ~chi_10)
     7.48256256E-03    3        3       23        1000023   # BR(~s_R -> s  Z  ~chi_20)
     1.91232503E-03    3        3       25        1000023   # BR(~s_R -> s  h  ~chi_20)
     2.62121747E-03    3        3       -24        1000024   # BR(~s_R -> s  W-  ~chi_1+)
     1.89645345E-02    3        3       24        -1000024   # BR(~s_R -> s  W+  ~chi_1-)
#
#         PDG            Width
DECAY   1000011     6.58478879E+00   # selectron_L decays
#          BR         NDA      ID1       ID2
     3.67251255E-03    2     1000022        11   # BR(~e_L -> ~chi_10 e-)
     5.90040137E-04    2     1000023        11   # BR(~e_L -> ~chi_20 e-)
     3.30647815E-01    2     1000025        11   # BR(~e_L -> ~chi_30 e-)
     3.21870133E-03    2    -1000024        12   # BR(~e_L -> ~chi_1- nu_e)
     6.61870931E-01    2    -1000037        12   # BR(~e_L -> ~chi_2- nu_e)
#
#         PDG            Width
DECAY   2000011     1.70115323E-02   # selectron_R decays
#           BR         NDA      ID1       ID2
     1.50771720E-01    2     1000022        11   # BR(~e_R -> ~chi_10 e-)
     4.85654744E-02    2     1000023        11   # BR(~e_R -> ~chi_20 e-)
#           BR         NDA      ID1       ID2       ID3
     1.54730329E-02    3        11       -1        1000001   # BR(~e_R- -> e-  db  ~d_L)
     7.76825965E-03    3        11       1        -1000001   # BR(~e_R- -> e-  d  ~d_L*)
     2.27692598E-02    3        11       -1        2000001   # BR(~e_R- -> e-  db  ~d_R)
     4.15012584E-02    3        11       1        -2000001   # BR(~e_R- -> e-  d  ~d_R*)
     1.43902381E-02    3        11       -2        1000002   # BR(~e_R- -> e-  ub  ~u_L)
     7.23920678E-03    3        11       2        -1000002   # BR(~e_R- -> e-  u  ~u_L*)
     1.29177076E-06    3        11       -2        2000002   # BR(~e_R- -> e-  ub  ~u_R)
     1.48393451E-06    3        11       2        -2000002   # BR(~e_R- -> e-  u  ~u_R*)
     1.51373782E-02    3        11       -3        1000003   # BR(~e_R- -> e-  sb  ~s_L)
     7.77061100E-03    3        11       3        -1000003   # BR(~e_R- -> e-  s  ~s_L*)
     2.28215773E-02    3        11       -3        2000003   # BR(~e_R- -> e-  sb  ~s_R)
     4.17787173E-02    3        11       3        -2000003   # BR(~e_R- -> e-  s  ~s_R*)
     1.42973599E-02    3        11       -4        1000004   # BR(~e_R- -> e-  cb  ~c_L)
     7.26977428E-03    3        11       4        -1000004   # BR(~e_R- -> e-  c  ~c_L*)
     1.30564370E-06    3        11       -4        2000004   # BR(~e_R- -> e-  cb  ~c_R)
     1.48569802E-06    3        11       4        -2000004   # BR(~e_R- -> e-  c  ~c_R*)
     1.33644634E-02    3        11       -5        1000005   # BR(~e_R- -> e-  bb  ~b_1)
     6.93411963E-03    3        11       5        -1000005   # BR(~e_R- -> e-  b  ~b_1*)
     3.61243178E-05    3        11       -5        2000005   # BR(~e_R- -> e-  bb  ~b_2)
     4.33788083E-05    3        11       5        -2000005   # BR(~e_R- -> e-  b  ~b_2*)
     1.76027646E-02    3        11       -6        1000006   # BR(~e_R- -> e-  tb  ~t_1)
     1.10072389E-02    3        11       6        -1000006   # BR(~e_R- -> e-  t  ~t_1*)
     3.30734462E-03    3        11       -11        1000011   # BR(~e_R- -> e-  e+  ~e_L-)
     2.31919143E-03    3        11       11        -1000011   # BR(~e_R- -> e-  e-  ~e_L+)
     3.30064329E-03    3        11       -12        1000012   # BR(~e_R- -> e-  nu_eb  ~nu_eL)
     2.33247653E-03    3        11       12        -1000012   # BR(~e_R- -> e-  nu_e  ~nu_eL*)
     3.25532109E-03    3        11       -13        1000013   # BR(~e_R- -> e-  mu+  ~mu_L-)
     2.26846114E-03    3        11       13        -1000013   # BR(~e_R- -> e-  mu-  ~mu_L+)
     3.33838239E-03    3        11       -14        1000014   # BR(~e_R- -> e-  nu_mub  ~nu_muL)
     2.33235897E-03    3        11       14        -1000014   # BR(~e_R- -> e-  nu_mu  ~nu_muL*)
     6.56319478E-02    3        11       -15        1000015   # BR(~e_R- -> e-  tau+  ~tau_1-)
     2.96522377E-02    3        11       15        -1000015   # BR(~e_R- -> e-  tau-  ~tau_1+)
     4.68876045E-03    3        11       -15        2000015   # BR(~e_R- -> e-  tau+  ~tau_2-)
     6.36274253E-03    3        11       15        -2000015   # BR(~e_R- -> e-  tau-  ~tau_2+)
     6.70192420E-02    3        11       -16        1000016   # BR(~e_R- -> e-  nu_taub  ~nu_tau1)
     3.02635876E-02    3        11       16        -1000016   # BR(~e_R- -> e-  nu_tau  ~nu_tau1*)
     1.49404530E-02    3        11       23        1000022   # BR(~e_R- -> e-  Z  ~chi_10)
     5.94126374E-02    3        11       25        1000022   # BR(~e_R- -> e-  h  ~chi_10)
     1.08485230E-03    3        11       35        1000022   # BR(~e_R- -> e-  H  ~chi_10)
     3.83939546E-04    3        11       36        1000022   # BR(~e_R- -> e-  A  ~chi_10)
     5.98006095E-02    3        11       23        1000023   # BR(~e_R- -> e-  Z  ~chi_20)
     1.54794990E-02    3        11       25        1000023   # BR(~e_R- -> e-  h  ~chi_20)
     3.68879173E-04    3        11       35        1000023   # BR(~e_R- -> e-  H  ~chi_20)
     1.05904628E-03    3        11       36        1000023   # BR(~e_R- -> e-  A  ~chi_20)
     3.65299249E-05    3        11       23        1000025   # BR(~e_R- -> e-  Z  ~chi_30)
     8.56360247E-04    3        11       25        1000025   # BR(~e_R- -> e-  h  ~chi_30)
     4.57360327E-02    3        11       -24        1000024   # BR(~e_R- -> e-  W-  ~chi_1+)
     1.03453349E-01    3        11       24        -1000024   # BR(~e_R- -> e-  W+  ~chi_1-)
     1.68138880E-03    3        11       -37        1000024   # BR(~e_R- -> e-  H-  ~chi_1+)
     1.18613654E-03    3        11       37        -1000024   # BR(~e_R- -> e-  H+  ~chi_1-)
     8.97038534E-04    3        11       -24        1000037   # BR(~e_R- -> e-  W-  ~chi_2+)
     1.00302546E-03    3        11       24        -1000037   # BR(~e_R- -> e-  W+  ~chi_2-)
#
#         PDG            Width
DECAY   1000013     6.58478874E+00   # smuon_L decays
#          BR         NDA      ID1       ID2
     3.67251256E-03    2     1000022        13   # BR(~mu_L -> ~chi_10 mu-)
     5.90040138E-04    2     1000023        13   # BR(~mu_L -> ~chi_20 mu-)
     3.30647810E-01    2     1000025        13   # BR(~mu_L -> ~chi_30 mu-)
     3.21870135E-03    2    -1000024        14   # BR(~mu_L -> ~chi_1- nu_mu)
     6.61870936E-01    2    -1000037        14   # BR(~mu_L -> ~chi_2- nu_mu)
#
#         PDG            Width
DECAY   2000013     1.70120345E-02   # smuon_R decays
#           BR         NDA      ID1       ID2
     1.50767271E-01    2     1000022        13   # BR(~mu_R -> ~chi_10 mu-)
     4.85640409E-02    2     1000023        13   # BR(~mu_R -> ~chi_20 mu-)
#           BR         NDA      ID1       ID2       ID3
     1.54719884E-02    3        13       -1        1000001   # BR(~mu_R- -> mu-  db  ~d_L)
     7.76803034E-03    3        13       1        -1000001   # BR(~mu_R- -> mu-  d  ~d_L*)
     2.27691756E-02    3        13       -1        2000001   # BR(~mu_R- -> mu-  db  ~d_R)
     4.15012092E-02    3        13       1        -2000001   # BR(~mu_R- -> mu-  d  ~d_R*)
     1.43898133E-02    3        13       -2        1000002   # BR(~mu_R- -> mu-  ub  ~u_L)
     7.23899309E-03    3        13       2        -1000002   # BR(~mu_R- -> mu-  u  ~u_L*)
     1.29925671E-06    3        13       -2        2000002   # BR(~mu_R- -> mu-  ub  ~u_R)
     1.48665347E-06    3        13       2        -2000002   # BR(~mu_R- -> mu-  u  ~u_R*)
     1.51475122E-02    3        13       -3        1000003   # BR(~mu_R- -> mu-  sb  ~s_L)
     7.76979380E-03    3        13       3        -1000003   # BR(~mu_R- -> mu-  s  ~s_L*)
     2.28203159E-02    3        13       -3        2000003   # BR(~mu_R- -> mu-  sb  ~s_R)
     4.17774842E-02    3        13       3        -2000003   # BR(~mu_R- -> mu-  s  ~s_R*)
     1.42969379E-02    3        13       -4        1000004   # BR(~mu_R- -> mu-  cb  ~c_L)
     7.27014750E-03    3        13       4        -1000004   # BR(~mu_R- -> mu-  c  ~c_L*)
     1.30178434E-06    3        13       -4        2000004   # BR(~mu_R- -> mu-  cb  ~c_R)
     1.48941622E-06    3        13       4        -2000004   # BR(~mu_R- -> mu-  c  ~c_R*)
     1.33640689E-02    3        13       -5        1000005   # BR(~mu_R- -> mu-  bb  ~b_1)
     6.93391494E-03    3        13       5        -1000005   # BR(~mu_R- -> mu-  b  ~b_1*)
     3.61109073E-05    3        13       -5        2000005   # BR(~mu_R- -> mu-  bb  ~b_2)
     4.33933991E-05    3        13       5        -2000005   # BR(~mu_R- -> mu-  b  ~b_2*)
     1.76016573E-02    3        13       -6        1000006   # BR(~mu_R- -> mu-  tb  ~t_1)
     1.10069140E-02    3        13       6        -1000006   # BR(~mu_R- -> mu-  t  ~t_1*)
     3.30730579E-03    3        13       -11        1000011   # BR(~mu_R- -> mu-  e+  ~e_L-)
     2.28250185E-03    3        13       11        -1000011   # BR(~mu_R- -> mu-  e-  ~e_L+)
     3.30019318E-03    3        13       -12        1000012   # BR(~mu_R- -> mu-  nu_eb  ~nu_eL)
     2.33305429E-03    3        13       12        -1000012   # BR(~mu_R- -> mu-  nu_e  ~nu_eL*)
     3.25557770E-03    3        13       -13        1000013   # BR(~mu_R- -> mu-  mu+  ~mu_L-)
     2.31924055E-03    3        13       13        -1000013   # BR(~mu_R- -> mu-  mu-  ~mu_L+)
     3.33840143E-03    3        13       -14        1000014   # BR(~mu_R- -> mu-  nu_mub  ~nu_muL)
     2.33199623E-03    3        13       14        -1000014   # BR(~mu_R- -> mu-  nu_mu  ~nu_muL*)
     6.56300104E-02    3        13       -15        1000015   # BR(~mu_R- -> mu-  tau+  ~tau_1-)
     2.96513625E-02    3        13       15        -1000015   # BR(~mu_R- -> mu-  tau-  ~tau_1+)
     4.68873963E-03    3        13       -15        2000015   # BR(~mu_R- -> mu-  tau+  ~tau_2-)
     6.36196688E-03    3        13       15        -2000015   # BR(~mu_R- -> mu-  tau-  ~tau_2+)
     6.70172636E-02    3        13       -16        1000016   # BR(~mu_R- -> mu-  nu_taub  ~nu_tau1)
     3.02632822E-02    3        13       16        -1000016   # BR(~mu_R- -> mu-  nu_tau  ~nu_tau1*)
     1.49400120E-02    3        13       23        1000022   # BR(~mu_R- -> mu-  Z  ~chi_10)
     5.94108836E-02    3        13       25        1000022   # BR(~mu_R- -> mu-  h  ~chi_10)
     1.08482029E-03    3        13       35        1000022   # BR(~mu_R- -> mu-  H  ~chi_10)
     3.84169220E-04    3        13       36        1000022   # BR(~mu_R- -> mu-  A  ~chi_10)
     5.98047224E-02    3        13       23        1000023   # BR(~mu_R- -> mu-  Z  ~chi_20)
     1.54790423E-02    3        13       25        1000023   # BR(~mu_R- -> mu-  h  ~chi_20)
     3.68850653E-04    3        13       35        1000023   # BR(~mu_R- -> mu-  H  ~chi_20)
     1.05789817E-03    3        13       36        1000023   # BR(~mu_R- -> mu-  A  ~chi_20)
     3.64747675E-05    3        13       23        1000025   # BR(~mu_R- -> mu-  Z  ~chi_30)
     8.56334968E-04    3        13       25        1000025   # BR(~mu_R- -> mu-  h  ~chi_30)
     4.57335072E-02    3        13       -24        1000024   # BR(~mu_R- -> mu-  W-  ~chi_1+)
     1.03450296E-01    3        13       24        -1000024   # BR(~mu_R- -> mu-  W+  ~chi_1-)
     1.68169187E-03    3        13       -37        1000024   # BR(~mu_R- -> mu-  H-  ~chi_1+)
     1.18604274E-03    3        13       37        -1000024   # BR(~mu_R- -> mu-  H+  ~chi_1-)
     8.97012054E-04    3        13       -24        1000037   # BR(~mu_R- -> mu-  W-  ~chi_2+)
     1.00299585E-03    3        13       24        -1000037   # BR(~mu_R- -> mu-  W+  ~chi_2-)
#
#         PDG            Width
DECAY   1000015     3.51810555E-02   # stau_1 decays
#          BR         NDA      ID1       ID2
     5.05072618E-01    2     1000022        15   # BR(~tau_1 -> ~chi_10  tau-)
     3.94983721E-01    2     1000023        15   # BR(~tau_1 -> ~chi_20  tau-)
     9.99436617E-02    2    -1000024        16   # BR(~tau_1 -> ~chi_1-  nu_tau)
#
#         PDG            Width
DECAY   2000015     3.61362455E-01   # stau_2 decays
#          BR         NDA      ID1       ID2
     2.54013017E-01    2     1000022        15   # BR(~tau_2 -> ~chi_10  tau-)
     2.48022070E-01    2     1000023        15   # BR(~tau_2 -> ~chi_20  tau-)
     1.94580993E-04    2     1000025        15   # BR(~tau_2 -> ~chi_30  tau-)
     4.94962572E-01    2    -1000024        16   # BR(~tau_2 -> ~chi_1-  nu_tau)
     3.12120734E-04    2    -1000037        16   # BR(~tau_2 -> ~chi_2-  nu_tau)
     1.26930397E-03    2     1000016       -24   # BR(~tau_2 -> ~nu_tauL W-)
     5.78135212E-04    2     1000015        25   # BR(~tau_2 -> ~tau_1   h)
     6.48199098E-04    2     1000015        23   # BR(~tau_2 -> ~tau_1   Z)
#
#         PDG            Width
DECAY   1000012     6.63819250E+00   # snu_eL decays
#          BR         NDA      ID1       ID2
     5.84208192E-03    2     1000022        12   # BR(~nu_eL -> ~chi_10 nu_e)
     1.11002834E-03    2     1000023        12   # BR(~nu_eL -> ~chi_20 nu_e)
     3.25131735E-01    2     1000025        12   # BR(~nu_eL -> ~chi_30 nu_e)
     1.88884105E-02    2     1000024        11   # BR(~nu_eL -> ~chi_1+ e-)
     6.49027744E-01    2     1000037        11   # BR(~nu_eL -> ~chi_2+ e-)
#
#         PDG            Width
DECAY   1000014     6.63819241E+00   # snu_muL decays
#          BR         NDA      ID1       ID2
     5.84208201E-03    2     1000022        14   # BR(~nu_muL -> ~chi_10 nu_mu)
     1.11002836E-03    2     1000023        14   # BR(~nu_muL -> ~chi_20 nu_mu)
     3.25131740E-01    2     1000025        14   # BR(~nu_muL -> ~chi_30 nu_mu)
     1.88884106E-02    2     1000024        13   # BR(~nu_muL -> ~chi_1+ mu-)
     6.49027739E-01    2     1000037        13   # BR(~nu_muL -> ~chi_2+ mu-)
#
#         PDG            Width
DECAY   1000016     5.42541137E-02   # snu_tauL decays
#          BR         NDA      ID1       ID2
     1.16954001E-01    2     1000022        16   # BR(~nu_tauL -> ~chi_10 nu_tau)
     2.16407997E-02    2     1000023        16   # BR(~nu_tauL -> ~chi_20 nu_tau)
     8.61405199E-01    2     1000024        15   # BR(~nu_tauL -> ~chi_1+ tau-)
#
#         PDG            Width
DECAY   1000024     1.19210740E-11   # chargino1+ decays
#           BR         NDA      ID1       ID2       ID3
     6.00013240E-01    3     1000022         2        -1   # BR(~chi_1+ -> ~chi_10 u    db)
     1.99993380E-01    3     1000022       -11        12   # BR(~chi_1+ -> ~chi_10 e+   nu_e)
     1.99993380E-01    3     1000022       -13        14   # BR(~chi_1+ -> ~chi_10 mu+  nu_mu)
#
#         PDG            Width
DECAY   1000037     3.99628397E+01   # chargino2+ decays
#          BR         NDA      ID1       ID2
     1.05482044E-01    2     1000002        -1   # BR(~chi_2+ -> ~u_L     db)
     1.04862117E-01    2    -1000001         2   # BR(~chi_2+ -> ~d_L*    u )
     1.05482008E-01    2     1000004        -3   # BR(~chi_2+ -> ~c_L     sb)
     1.04861534E-01    2    -1000003         4   # BR(~chi_2+ -> ~s_L*     c )
     7.33889554E-02    2     1000006        -5   # BR(~chi_2+ -> ~t_1     bb)
     5.07087917E-02    2    -1000005         6   # BR(~chi_2+ -> ~b_1*    t )
     7.84334363E-02    2     1000016       -15   # BR(~chi_2+ -> ~nu_tau1 tau+)
     7.82681683E-02    2    -1000015        16   # BR(~chi_2+ -> ~tau_1+  nu_tau)
     7.53585490E-02    2     1000024        23   # BR(~chi_2+ -> ~chi_1+  Z )
     7.31932641E-02    2     1000022        24   # BR(~chi_2+ -> ~chi_10  W+)
     7.38506447E-02    2     1000023        24   # BR(~chi_2+ -> ~chi_20  W+)
     7.61104868E-02    2     1000024        25   # BR(~chi_2+ -> ~chi_1+  h )
#
#         PDG            Width
DECAY   1000022     0.00000000E+00   # neutralino1 decays
#
#         PDG            Width
DECAY   1000023     5.58097886E-09   # neutralino2 decays
#          BR         NDA      ID1       ID2
     3.99900053E-02    2     1000022        22   # BR(~chi_20 -> ~chi_10 gam)
#           BR         NDA      ID1       ID2       ID3
     9.90538800E-02    3     1000022        -2         2   # BR(~chi_20 -> ~chi_10 ub      u)
     1.28443655E-01    3     1000022        -1         1   # BR(~chi_20 -> ~chi_10 db      d)
     9.90538800E-02    3     1000022        -4         4   # BR(~chi_20 -> ~chi_10 cb      c)
     1.28443655E-01    3     1000022        -3         3   # BR(~chi_20 -> ~chi_10 sb      s)
     2.94338854E-02    3     1000022       -11        11   # BR(~chi_20 -> ~chi_10 e+      e-)
     2.94338854E-02    3     1000022       -13        13   # BR(~chi_20 -> ~chi_10 mu+     mu-)
     1.19000580E-02    3     1000022       -15        15   # BR(~chi_20 -> ~chi_10 tau+    tau-)
     5.88322860E-02    3     1000022       -12        12   # BR(~chi_20 -> ~chi_10 nu_eb   nu_e)
     5.88322860E-02    3     1000022       -14        14   # BR(~chi_20 -> ~chi_10 nu_mub  nu_mu)
     5.88377637E-02    3     1000022       -16        16   # BR(~chi_20 -> ~chi_10 nu_taub nu_tau)
     4.64993288E-02    3     1000024        -2         1   # BR(~chi_20 -> ~chi_1+ ub      d)
     4.64993288E-02    3    -1000024        -1         2   # BR(~chi_20 -> ~chi_1- db      u)
     4.64993288E-02    3     1000024        -4         3   # BR(~chi_20 -> ~chi_1+ cb      s)
     4.64993288E-02    3    -1000024        -3         4   # BR(~chi_20 -> ~chi_1- sb      c)
     1.54996542E-02    3     1000024       -12        11   # BR(~chi_20 -> ~chi_1+ nu_eb   e-)
     1.54996542E-02    3    -1000024        12       -11   # BR(~chi_20 -> ~chi_1- nu_e    e+)
     1.54996542E-02    3     1000024       -14        13   # BR(~chi_20 -> ~chi_1+ nu_mub  mu-)
     1.54996542E-02    3    -1000024        14       -13   # BR(~chi_20 -> ~chi_1- nu_mu   mu+)
     4.87441453E-03    3     1000024       -16        15   # BR(~chi_20 -> ~chi_1+ nu_taub tau-)
     4.87441453E-03    3    -1000024        16       -15   # BR(~chi_20 -> ~chi_1- nu_tau  tau+)
#
#         PDG            Width
DECAY   1000025     3.99269295E+01   # neutralino3 decays
#          BR         NDA      ID1       ID2
     1.11511917E-02    2     1000022        23   # BR(~chi_30 -> ~chi_10   Z )
     6.39864940E-02    2     1000023        23   # BR(~chi_30 -> ~chi_20   Z )
     7.41262185E-02    2     1000024       -24   # BR(~chi_30 -> ~chi_1+   W-)
     7.41262185E-02    2    -1000024        24   # BR(~chi_30 -> ~chi_1-   W+)
     6.42928910E-02    2     1000022        25   # BR(~chi_30 -> ~chi_10   h )
     1.07845285E-02    2     1000023        25   # BR(~chi_30 -> ~chi_20   h )
     5.29820415E-02    2     1000002        -2   # BR(~chi_30 -> ~u_L      ub)
     5.29820415E-02    2    -1000002         2   # BR(~chi_30 -> ~u_L*     u )
     5.22191979E-02    2     1000001        -1   # BR(~chi_30 -> ~d_L      db)
     5.22191979E-02    2    -1000001         1   # BR(~chi_30 -> ~d_L*     d )
     7.89155935E-09    2     2000001        -1   # BR(~chi_30 -> ~d_R      db)
     7.89155935E-09    2    -2000001         1   # BR(~chi_30 -> ~d_R*     d )
     5.29817524E-02    2     1000004        -4   # BR(~chi_30 -> ~c_L      cb)
     5.29817524E-02    2    -1000004         4   # BR(~chi_30 -> ~c_L*     c )
     5.22191979E-02    2     1000003        -3   # BR(~chi_30 -> ~s _L      sb)
     5.22191979E-02    2    -1000003         3   # BR(~chi_30 -> ~s _L*     s )
     7.89155935E-09    2     2000003        -3   # BR(~chi_30 -> ~s _R      sb)
     7.89155935E-09    2    -2000003         3   # BR(~chi_30 -> ~s _R*     s )
     2.80174894E-02    2     1000006        -6   # BR(~chi_30 -> ~t_1      tb)
     2.80174894E-02    2    -1000006         6   # BR(~chi_30 -> ~t_1*     t )
     3.39475856E-02    2     1000005        -5   # BR(~chi_30 -> ~b_1      bb)
     3.39475856E-02    2    -1000005         5   # BR(~chi_30 -> ~b_1*     b )
     3.91032537E-02    2     1000015       -15   # BR(~chi_30 -> ~tau_1-   tau+)
     3.91032537E-02    2    -1000015        15   # BR(~chi_30 -> ~tau_1+   tau-)
     3.92956948E-02    2     1000016       -16   # BR(~chi_30 -> ~nu_tau1  nu_taub)
     3.92956948E-02    2    -1000016        16   # BR(~chi_30 -> ~nu_tau1* nu_tau )
#
#         PDG            Width
DECAY   1000035     4.03135962E+01   # neutralino4 decays
#          BR         NDA      ID1       ID2
     1.11226633E-02    2     1000022        23   # BR(~chi_40 -> ~chi_10   Z )
     3.57290968E-02    2     1000023        23   # BR(~chi_40 -> ~chi_20   Z )
     7.59596378E-05    2     1000025        23   # BR(~chi_40 -> ~chi_30   Z )
     4.47130217E-02    2     1000024       -24   # BR(~chi_40 -> ~chi_1+   W-)
     4.47130217E-02    2    -1000024        24   # BR(~chi_40 -> ~chi_1-   W+)
     8.08828358E-04    2     1000037       -24   # BR(~chi_40 -> ~chi_2+   W-)
     8.08828358E-04    2    -1000037        24   # BR(~chi_40 -> ~chi_2-   W+)
     3.83425048E-02    2     1000022        25   # BR(~chi_40 -> ~chi_10   h )
     7.45556394E-03    2     1000022        35   # BR(~chi_40 -> ~chi_10   H )
     5.37261016E-03    2     1000022        36   # BR(~chi_40 -> ~chi_10   A )
     1.23924557E-02    2     1000023        25   # BR(~chi_40 -> ~chi_20   h )
     5.29517453E-03    2     1000023        35   # BR(~chi_40 -> ~chi_20   H )
     7.41310200E-03    2     1000023        36   # BR(~chi_40 -> ~chi_20   A )
     7.34332258E-04    2     1000025        25   # BR(~chi_40 -> ~chi_30   h )
     1.26554908E-02    2     1000024       -37   # BR(~chi_40 -> ~chi_1+   H-)
     1.26554908E-02    2    -1000024        37   # BR(~chi_40 -> ~chi_1-   H+)
     1.21210766E-02    2     1000002        -2   # BR(~chi_40 -> ~u_L      ub)
     1.21210766E-02    2    -1000002         2   # BR(~chi_40 -> ~u_L*     u )
     6.18702756E-03    2     2000002        -2   # BR(~chi_40 -> ~u_R      ub)
     6.18702756E-03    2    -2000002         2   # BR(~chi_40 -> ~u_R*     u )
     1.23164657E-02    2     1000001        -1   # BR(~chi_40 -> ~d_L      db)
     1.23164657E-02    2    -1000001         1   # BR(~chi_40 -> ~d_L*     d )
     4.36682462E-02    2     2000001        -1   # BR(~chi_40 -> ~d_R      db)
     4.36682462E-02    2    -2000001         1   # BR(~chi_40 -> ~d_R*     d )
     1.21210756E-02    2     1000004        -4   # BR(~chi_40 -> ~c_L      cb)
     1.21210756E-02    2    -1000004         4   # BR(~chi_40 -> ~c_L*     c )
     6.18689959E-03    2     2000004        -4   # BR(~chi_40 -> ~c_R      cb)
     6.18689959E-03    2    -2000004         4   # BR(~chi_40 -> ~c_R*     c )
     1.23164657E-02    2     1000003        -3   # BR(~chi_40 -> ~s _L      sb)
     1.23164657E-02    2    -1000003         3   # BR(~chi_40 -> ~s _L*     s )
     4.36682462E-02    2     2000003        -3   # BR(~chi_40 -> ~s _R      sb)
     4.36682462E-02    2    -2000003         3   # BR(~chi_40 -> ~s _R*     s )
     1.60942348E-02    2     1000006        -6   # BR(~chi_40 -> ~t_1      tb)
     1.60942348E-02    2    -1000006         6   # BR(~chi_40 -> ~t_1*     t )
     3.27632020E-03    2     2000006        -6   # BR(~chi_40 -> ~t_2      tb)
     3.27632020E-03    2    -2000006         6   # BR(~chi_40 -> ~t_2*     t )
     1.23231363E-02    2     1000005        -5   # BR(~chi_40 -> ~b_1      bb)
     1.23231363E-02    2    -1000005         5   # BR(~chi_40 -> ~b_1*     b )
     4.20708995E-03    2     2000005        -5   # BR(~chi_40 -> ~b_2      bb)
     4.20708995E-03    2    -2000005         5   # BR(~chi_40 -> ~b_2*     b )
     1.49031818E-02    2     1000011       -11   # BR(~chi_40 -> ~e_L-     e+)
     1.49031818E-02    2    -1000011        11   # BR(~chi_40 -> ~e_L+     e-)
     1.89554632E-03    2     2000011       -11   # BR(~chi_40 -> ~e_R-     e+)
     1.89554632E-03    2    -2000011        11   # BR(~chi_40 -> ~e_R+     e-)
     1.49031818E-02    2     1000013       -13   # BR(~chi_40 -> ~mu_L-    mu+)
     1.49031818E-02    2    -1000013        13   # BR(~chi_40 -> ~mu_L+    mu-)
     1.89554632E-03    2     2000013       -13   # BR(~chi_40 -> ~mu_R-    mu+)
     1.89554632E-03    2    -2000013        13   # BR(~chi_40 -> ~mu_R+    mu-)
     4.28937860E-02    2     1000015       -15   # BR(~chi_40 -> ~tau_1-   tau+)
     4.28937860E-02    2    -1000015        15   # BR(~chi_40 -> ~tau_1+   tau-)
     4.55965080E-02    2     2000015       -15   # BR(~chi_40 -> ~tau_2-   tau+)
     4.55965080E-02    2    -2000015        15   # BR(~chi_40 -> ~tau_2+   tau-)
     1.50350395E-02    2     1000012       -12   # BR(~chi_40 -> ~nu_eL    nu_eb)
     1.50350395E-02    2    -1000012        12   # BR(~chi_40 -> ~nu_eL*   nu_e )
     1.50350395E-02    2     1000014       -14   # BR(~chi_40 -> ~nu_muL   nu_mub)
     1.50350395E-02    2    -1000014        14   # BR(~chi_40 -> ~nu_muL*  nu_mu )
     4.32118139E-02    2     1000016       -16   # BR(~chi_40 -> ~nu_tau1  nu_taub)
     4.32118139E-02    2    -1000016        16   # BR(~chi_40 -> ~nu_tau1* nu_tau )
#
#         PDG            Width
DECAY        25     4.30013953E-03   # h decays
#          BR         NDA      ID1       ID2
     5.74116214E-01    2           5        -5   # BR(h -> b       bb     )
     6.17279803E-02    2         -15        15   # BR(h -> tau+    tau-   )
     2.18500091E-04    2         -13        13   # BR(h -> mu+     mu-    )
     2.37813690E-04    2           3        -3   # BR(h -> s       sb     )
     2.03741523E-02    2           4        -4   # BR(h -> c       cb     )
     7.68079044E-02    2          21        21   # BR(h -> g       g      )
     2.32378019E-03    2          22        22   # BR(h -> gam     gam    )
     1.67689512E-03    2          22        23   # BR(h -> Z       gam    )
     2.32694038E-01    2          24       -24   # BR(h -> W+      W-     )
     2.98227225E-02    2          23        23   # BR(h -> Z       Z      )
#
#         PDG            Width
DECAY        35     8.46370663E+00   # H decays
#          BR         NDA      ID1       ID2
     1.10323360E-01    2           5        -5   # BR(H -> b       bb     )
     1.96907143E-02    2         -15        15   # BR(H -> tau+    tau-   )
     7.02551065E-05    2         -13        13   # BR(H -> mu+     mu-    )
     4.49100513E-05    2           3        -3   # BR(H -> s       sb     )
     2.37086137E-06    2           4        -4   # BR(H -> c       cb     )
     2.29068426E-01    2           6        -6   # BR(H -> t       tb     )
     1.77537536E-04    2          21        21   # BR(H -> g       g      )
     1.21213430E-06    2          22        22   # BR(H -> gam     gam    )
     2.34600591E-07    2          23        22   # BR(H -> Z       gam    )
     2.55647619E-04    2          24       -24   # BR(H -> W+      W-     )
     1.27305871E-04    2          23        23   # BR(H -> Z       Z      )
     9.83547648E-04    2          25        25   # BR(H -> h       h      )
     1.09756681E-02    2     1000024  -1000024   # BR(H -> ~chi_1+ ~chi_1-)
     2.08068489E-01    2     1000024  -1000037   # BR(H -> ~chi_1+ ~chi_2-)
     2.08068489E-01    2     1000037  -1000024   # BR(H -> ~chi_2+ ~chi_1-)
     2.75880009E-03    2     1000022   1000022   # BR(H -> ~chi_10 ~chi_10)
     9.58453059E-04    2     1000023   1000023   # BR(H -> ~chi_20 ~chi_20)
     1.38675021E-03    2     1000022   1000023   # BR(H -> ~chi_10 ~chi_20)
     2.64347958E-02    2     1000022   1000025   # BR(H -> ~chi_10 ~chi_30)
     1.80329934E-01    2     1000023   1000025   # BR(H -> ~chi_20 ~chi_30)
     3.35139513E-05    2     1000002  -1000002   # BR(H -> ~u_L    ~u_L*  )
     3.35139513E-05    2     1000004  -1000004   # BR(H -> ~c_L    ~c_L*  )
     4.39694561E-05    2     1000001  -1000001   # BR(H -> ~d_L    ~d_L*  )
     4.39694561E-05    2     1000003  -1000003   # BR(H -> ~s_L    ~s_L*  )
     2.59974417E-05    2     1000015  -1000015   # BR(H -> ~tau_1- ~tau_1+)
     9.21353036E-05    2     1000016  -1000016   # BR(H -> ~nu_tauL ~nu_tauL*)
#
#         PDG            Width
DECAY        36     8.48886138E+00   # A decays
#          BR         NDA      ID1       ID2
     1.10093497E-01    2           5        -5   # BR(A -> b       bb     )
     1.96361599E-02    2         -15        15   # BR(A -> tau+    tau-   )
     7.00601263E-05    2         -13        13   # BR(A -> mu+     mu-    )
     4.48611222E-05    2           3        -3   # BR(A -> s       sb     )
     2.35541265E-06    2           4        -4   # BR(A -> c       cb     )
     2.30645290E-01    2           6        -6   # BR(A -> t       tb     )
     3.11216987E-04    2          21        21   # BR(A -> g       g      )
     1.73852397E-06    2          22        22   # BR(A -> gam     gam    )
     3.52433866E-07    2          23        22   # BR(A -> Z       gam    )
     2.56761956E-04    2          23        25   # BR(A -> Z       h      )
     1.66823702E-02    2     1000024  -1000024   # BR(A -> ~chi_1+ ~chi_1-)
     2.04922146E-01    2     1000024  -1000037   # BR(A -> ~chi_1+ ~chi_2-)
     2.04922146E-01    2     1000037  -1000024   # BR(A -> ~chi_2+ ~chi_1-)
     6.02256803E-03    2     1000022   1000022   # BR(A -> ~chi_10 ~chi_10)
     6.08611799E-04    2     1000023   1000023   # BR(A -> ~chi_20 ~chi_20)
     2.21125267E-04    2     1000022   1000023   # BR(A -> ~chi_10 ~chi_20)
     1.80238268E-01    2     1000022   1000025   # BR(A -> ~chi_10 ~chi_30)
     2.53204698E-02    2     1000023   1000025   # BR(A -> ~chi_20 ~chi_30)
#
#         PDG            Width
DECAY        37     8.35659199E+00   # H+ decays
#          BR         NDA      ID1       ID2
     1.83750962E-04    2           4        -5   # BR(H+ -> c       bb     )
     1.99671281E-02    2         -15        16   # BR(H+ -> tau+    nu_tau )
     7.12409921E-05    2         -13        14   # BR(H+ -> mu+     nu_mu  )
     1.83746606E-06    2           2        -5   # BR(H+ -> u       bb     )
     2.27561671E-06    2           2        -3   # BR(H+ -> u       sb     )
     4.70845620E-05    2           4        -3   # BR(H+ -> c       sb     )
     3.38442632E-01    2           6        -5   # BR(H+ -> t       bb     )
     2.62025083E-04    2          24        25   # BR(H+ -> W+      h      )
     4.40980804E-12    2          24        36   # BR(H+ -> W+      A      )
     3.23965691E-04    2     1000024   1000022   # BR(H+ -> ~chi_1+ ~chi_10)
     3.21138911E-03    2     1000024   1000023   # BR(H+ -> ~chi_1+ ~chi_20)
     2.12828066E-01    2     1000024   1000025   # BR(H+ -> ~chi_1+ ~chi_30)
     2.14648218E-01    2     1000037   1000022   # BR(H+ -> ~chi_2+ ~chi_10)
     2.09740823E-01    2     1000037   1000023   # BR(H+ -> ~chi_2+ ~chi_20)
     1.08592041E-04    2    -1000015   1000016   # BR(H+ -> ~tau_1+ ~nu_tauL)
     8.04862947E-05    2     1000002  -1000001   # BR(H+ -> ~u_L    ~d_L*  )
     8.04862947E-05    2     1000004  -1000003   # BR(H+ -> ~c_L    ~s_L*  )
