#
#                              ======================
#                              | THE SUSYHIT OUTPUT |
#                              ======================
#
#
#              ------------------------------------------------------
#              |     This is the output of the SUSY-HIT package     |
#              |  created by A.Djouadi, M.Muehlleitner and M.Spira. |
#              |  In case of problems with SUSY-HIT email to        |
#              |           margarete.muehlleitner@cern.ch           |
#              |           michael.spira@psi.ch                     |
#              |           abdelhak.djouadi@cern.ch                 |
#              ------------------------------------------------------
#
#              ------------------------------------------------------
#              |  SUSY Les Houches Accord - MSSM Spectrum + Decays  |
#              |              based on the decay programs           |
#              |                                                    |
#              |                     SDECAY 1.3b                    |
#              |                                                    |
#              |  Authors: M.Muhlleitner, A.Djouadi and Y.Mambrini  |
#              |  Ref.:    Comput.Phys.Commun.168(2005)46           |
#              |           [hep-ph/0311167]                         |
#              |                                                    |
#              |                     HDECAY 3.4                     |
#              |                                                    |
#              |  By: A.Djouadi,J.Kalinowski,M.Muhlleitner,M.Spira  |
#              |  Ref.:    Comput.Phys.Commun.108(1998)56           |
#              |           [hep-ph/9704448]                         |
#              |                                                    |
#              |                                                    |
#              |  If not stated otherwise all DRbar couplings and   |
#              |  soft SUSY breaking masses are given at the scale  |
#              |  Q=  0.16000660E+04
#              |                                                    |
#              ------------------------------------------------------
#
#
BLOCK DCINFO  # Decay Program information
     1   SDECAY/HDECAY # decay calculator
     2   1.3b  /3.4    # version number
#
BLOCK SPINFO  # Spectrum calculator information
     1     SOFTSUSY    # spectrum calculator               
     2     3.4.0       # version number                    
#
BLOCK MODSEL  # Model selection
     1     0   #  nonUniversal                                     
#
BLOCK SMINPUTS  # Standard Model inputs
         1     1.27908970E+02   # alpha_em^-1(M_Z)^MSbar
         2     1.16637870E-05   # G_F [GeV^-2]
         3     1.18400000E-01   # alpha_S(M_Z)^MSbar
         4     9.11876000E+01   # M_Z pole mass
         5     4.18000000E+00   # mb(mb)^MSbar
         6     1.73200000E+02   # mt pole mass
         7     1.77700000E+00   # mtau pole mass
#
BLOCK MINPAR  # Input parameters - minimal models
         3     1.68800000E+01   # tanb                
#
BLOCK EXTPAR  # Input parameters - non-minimal models
         0    -1.00000000E+00   # Set                 
         1     2.00484000E+03   # M_1(MX)             
         2    -1.05356000E+03   # M_2(MX)             
         3     3.75196000E+03   # M_3(MX)             
        11    -4.29647000E+03   # At(MX)              
        12    -1.09526000E+03   # Ab(MX)              
        13     1.24606000E+03   # Atau(MX)            
        23     1.60540000E+02   # mu(MX)              
        26     1.41926000E+03   # mA(pole)            
        31     9.68850000E+02   # meL(MX)             
        32     9.68850000E+02   # mmuL(MX)            
        33     3.79513000E+03   # mtauL(MX)           
        34     3.57063000E+03   # meR(MX)             
        35     3.57063000E+03   # mmuR(MX)            
        36     2.28477000E+03   # mtauR(MX)           
        41     3.01400000E+03   # mqL1(MX)            
        42     3.01400000E+03   # mqL2(MX)            
        43     2.09690000E+03   # mqL3(MX)            
        44     8.81980000E+02   # muR(MX)             
        45     8.81980000E+02   # mcR(MX)             
        46     1.24502000E+03   # mtR(MX)             
        47     2.58774000E+03   # mdR(MX)             
        48     2.58774000E+03   # msR(MX)             
        49     9.99980000E+02   # mbR(MX)             
#
BLOCK MASS  # Mass Spectrum
# PDG code           mass       particle
        24     8.03757243E+01   # W+
        25     1.25562036E+02   # h
        35     1.41930923E+03   # H
        36     1.41925999E+03   # A
        37     1.42186421E+03   # H+
         5     4.81876030E+00   # b-quark pole mass calculated from mb(mb)_Msbar
   1000001     3.03293795E+03   # ~d_L
   2000001     2.59166263E+03   # ~d_R
   1000002     3.03205159E+03   # ~u_L
   2000002     7.03150023E+02   # ~u_R
   1000003     3.03293795E+03   # ~s_L
   2000003     2.59166263E+03   # ~s_R
   1000004     3.03205159E+03   # ~c_L
   2000004     7.03150023E+02   # ~c_R
   1000005     8.62824157E+02   # ~b_1
   2000005     2.03518305E+03   # ~b_2
   1000006     1.03296613E+03   # ~t_1
   2000006     2.06883429E+03   # ~t_2
   1000011     9.78672331E+02   # ~e_L
   2000011     3.57588434E+03   # ~e_R
   1000012     9.75235505E+02   # ~nu_eL
   1000013     9.78672331E+02   # ~mu_L
   2000013     3.57588434E+03   # ~mu_R
   1000014     9.75235505E+02   # ~nu_muL
   1000015     2.29355679E+03   # ~tau_1
   2000015     3.80057382E+03   # ~tau_2
   1000016     3.79944217E+03   # ~nu_tauL
   1000021     3.67094500E+03   # ~g
   1000022    -1.65089750E+02   # ~chi_10
   1000023     1.68912747E+02   # ~chi_20
   1000025    -1.09345405E+03   # ~chi_30
   1000035     1.98953425E+03   # ~chi_40
   1000024     1.67323370E+02   # ~chi_1+
   1000037     1.09361894E+03   # ~chi_2+
#
BLOCK NMIX  # Neutralino Mixing Matrix
  1  1    -1.35905528E-02   # N_11
  1  2    -5.55920818E-02   # N_12
  1  3     7.11022460E-01   # N_13
  1  4     7.00836556E-01   # N_14
  2  1    -1.83700814E-02   # N_21
  2  2    -4.71448464E-02   # N_22
  2  3    -7.03132733E-01   # N_23
  2  4     7.09256134E-01   # N_24
  3  1    -1.06309447E-03   # N_31
  3  2     9.97339746E-01   # N_32
  3  3     6.39331856E-03   # N_33
  3  4     7.26045911E-02   # N_34
  4  1     9.99738319E-01   # N_41
  4  2    -5.61462349E-04   # N_42
  4  3    -3.24747032E-03   # N_43
  4  4     2.26369584E-02   # N_44
#
BLOCK UMIX  # Chargino Mixing Matrix U
  1  1    -9.09115477E-03   # U_11
  1  2     9.99958675E-01   # U_12
  2  1    -9.99958675E-01   # U_21
  2  2    -9.09115477E-03   # U_22
#
BLOCK VMIX  # Chargino Mixing Matrix V
  1  1     1.02804492E-01   # V_11
  1  2     9.94701582E-01   # V_12
  2  1     9.94701582E-01   # V_21
  2  2    -1.02804492E-01   # V_22
#
BLOCK STOPMIX  # Stop Mixing Matrix
  1  1     1.96269167E-01   # cos(theta_t)
  1  2     9.80550057E-01   # sin(theta_t)
  2  1    -9.80550057E-01   # -sin(theta_t)
  2  2     1.96269167E-01   # cos(theta_t)
#
BLOCK SBOTMIX  # Sbottom Mixing Matrix
  1  1     2.50722091E-03   # cos(theta_b)
  1  2     9.99996857E-01   # sin(theta_b)
  2  1    -9.99996857E-01   # -sin(theta_b)
  2  2     2.50722091E-03   # cos(theta_b)
#
BLOCK STAUMIX  # Stau Mixing Matrix
  1  1     2.72037594E-04   # cos(theta_tau)
  1  2     9.99999963E-01   # sin(theta_tau)
  2  1    -9.99999963E-01   # -sin(theta_tau)
  2  2     2.72037594E-04   # cos(theta_tau)
#
BLOCK ALPHA  # Higgs mixing
          -6.21068367E-02   # Mixing angle in the neutral Higgs boson sector
#
BLOCK HMIX Q=  1.60006600E+03  # DRbar Higgs Parameters
         1     1.62268984E+02   # mu(Q)MSSM           
         2     1.62745145E+01   # tan                 
         3     2.42601254E+02   # higgs               
         4     1.96020094E+06   # mA^2(Q)MSSM         
#
BLOCK GAUGE Q=  1.60006600E+03  # The gauge couplings
     1     3.63337611E-01   # gprime(Q) DRbar
     2     6.39274327E-01   # g(Q) DRbar
     3     1.02135127E+00   # g3(Q) DRbar
#
BLOCK AU Q=  1.60006600E+03  # The trilinear couplings
  1  1     0.00000000E+00   # A_u(Q) DRbar
  2  2     0.00000000E+00   # A_c(Q) DRbar
  3  3    -4.29646999E+03   # A_t(Q) DRbar
#
BLOCK AD Q=  1.60006600E+03  # The trilinear couplings
  1  1     0.00000000E+00   # A_d(Q) DRbar
  2  2     0.00000000E+00   # A_s(Q) DRbar
  3  3    -1.09526000E+03   # A_b(Q) DRbar
#
BLOCK AE Q=  1.60006600E+03  # The trilinear couplings
  1  1     0.00000000E+00   # A_e(Q) DRbar
  2  2     0.00000000E+00   # A_mu(Q) DRbar
  3  3     1.24606000E+03   # A_tau(Q) DRbar
#
BLOCK Yu Q=  1.60006600E+03  # The Yukawa couplings
  1  1     0.00000000E+00   # y_u(Q) DRbar
  2  2     0.00000000E+00   # y_c(Q) DRbar
  3  3     8.25242748E-01   # y_t(Q) DRbar
#
BLOCK Yd Q=  1.60006600E+03  # The Yukawa couplings
  1  1     0.00000000E+00   # y_d(Q) DRbar
  2  2     0.00000000E+00   # y_s(Q) DRbar
  3  3     2.21788097E-01   # y_b(Q) DRbar
#
BLOCK Ye Q=  1.60006600E+03  # The Yukawa couplings
  1  1     0.00000000E+00   # y_e(Q) DRbar
  2  2     0.00000000E+00   # y_mu(Q) DRbar
  3  3     1.66774085E-01   # y_tau(Q) DRbar
#
BLOCK MSOFT Q=  1.60006600E+03  # The soft SUSY breaking masses at the scale Q
         1     2.00484000E+03   # M_1(Q)              
         2    -1.05356000E+03   # M_2(Q)              
         3     3.75196000E+03   # M_3(Q)              
        21     1.97251911E+06   # mH1^2(Q)            
        22    -2.90810653E+04   # mH2^2(Q)            
        31     9.68850000E+02   # meL(Q)              
        32     9.68850000E+02   # mmuL(Q)             
        33     3.79513000E+03   # mtauL(Q)            
        34     3.57063000E+03   # meR(Q)              
        35     3.57063000E+03   # mmuR(Q)             
        36     2.28477000E+03   # mtauR(Q)            
        41     3.01400000E+03   # mqL1(Q)             
        42     3.01400000E+03   # mqL2(Q)             
        43     2.09689999E+03   # mqL3(Q)             
        44     8.81979985E+02   # muR(Q)              
        45     8.81979985E+02   # mcR(Q)              
        46     1.24501997E+03   # mtR(Q)              
        47     2.58773999E+03   # mdR(Q)              
        48     2.58773999E+03   # msR(Q)              
        49     9.99979986E+02   # mbR(Q)              
#
Block HiggsBoundsInputHiggsCouplingsFermions
# ScalarNormEffCoupSq PseudoSNormEffCoupSq NP   IP1 IP2 IP2
    1.02417239E+00    0.00000000E+00        3  25   5   5  # h0-b-b eff. coupling^2, normalised to SM
    2.64835650E+02    0.00000000E+00        3  35   5   5  # H0-b-b eff. coupling^2, normalised to SM
    0.00000000E+00    2.64859822E+02        3  36   5   5  # A0-b-b eff. coupling^2, normalised to SM
#
    9.99908735E-01    0.00000000E+00        3  25   6   6  # h0-t-t eff. coupling^2, normalised to SM
    3.86684692E-03    0.00000000E+00        3  35   6   6  # H0-t-t eff. coupling^2, normalised to SM
    0.00000000E+00    3.77558209E-03        3  36   6   6  # A0-t-t eff. coupling^2, normalised to SM
#
    1.02417239E+00    0.00000000E+00        3  25  15  15  # h0-tau-tau eff. coupling^2, normalised to SM
    2.64835650E+02    0.00000000E+00        3  35  15  15  # H0-tau-tau eff. coupling^2, normalised to SM
    0.00000000E+00    2.64859822E+02        3  36  15  15  # A0-tau-tau eff. coupling^2, normalised to SM
#
Block HiggsBoundsInputHiggsCouplingsBosons
    9.99999455E-01        3  25  24  24  # h0-W-W eff. coupling^2, normalised to SM
    5.44980132E-07        3  35  24  24  # H0-W-W eff. coupling^2, normalised to SM
    0.00000000E+00        3  36  24  24  # A0-W-W eff. coupling^2, normalised to SM
#
    9.99999455E-01        3  25  23  23  # h0-Z-Z eff. coupling^2, normalised to SM
    5.44980132E-07        3  35  23  23  # H0-Z-Z eff. coupling^2, normalised to SM
    0.00000000E+00        3  36  23  23  # A0-Z-Z eff. coupling^2, normalised to SM
#
    8.27549628E-01        3  25  21  21  # h0-g-g eff. coupling^2, normalised to SM
    6.37158643E-10        3  35  21  21  # H0-g-g eff. coupling^2, normalised to SM
    1.88022572E-08        3  36  21  21  # A0-g-g eff. coupling^2, normalised to SM
#
    0.00000000E+00        3  25  25  23  # h0-h0-Z eff. coupling^2, normalised to SM
    0.00000000E+00        3  35  25  23  # H0-h0-Z eff. coupling^2, normalised to SM
    5.44980132E-07        3  36  25  23  # A0-h0-Z eff. coupling^2, normalised to SM
    0.00000000E+00        3  35  35  23  # H0-H0-Z eff. coupling^2, normalised to SM
    9.99999455E-01        3  36  35  23  # A0-H0-Z eff. coupling^2, normalised to SM
    0.00000000E+00        3  36  36  23  # A0-A0-Z eff. coupling^2, normalised to SM
#
    0.00000000E+00        4  25  21  21  23  # h0-g-g-Z eff. coupling^2, normalised to SM
    0.00000000E+00        4  35  21  21  23  # H0-g-g-Z eff. coupling^2, normalised to SM
    0.00000000E+00        4  36  21  21  23  # A0-g-g-Z eff. coupling^2, normalised to SM
#
#
#
#                             =================
#                             |The decay table|
#                             =================
#
# - The QCD corrections to the decays gluino -> squark  + quark
#                                     squark -> gaugino + quark_prime
#                                     squark -> squark_prime + Higgs
#                                     squark -> gluino  + quark
#   are included.
#
# - The multi-body decays for the inos, stops and sbottoms are included.
#
# - The loop induced decays for the gluino, neutralinos and stops
#   are included.
#
# - The SUSY decays of the top quark are included.
#
#
#         PDG            Width
DECAY         6     1.43991486E+00   # top decays
#          BR         NDA      ID1       ID2
     1.00000000E+00    2           5        24   # BR(t ->  b    W+)
#
#         PDG            Width
DECAY   1000021     3.82021391E+02   # gluino decays
#          BR         NDA      ID1       ID2
     9.28191722E-03    2     1000001        -1   # BR(~g -> ~d_L  db)
     9.28191722E-03    2    -1000001         1   # BR(~g -> ~d_L* d )
     2.31800549E-02    2     2000001        -1   # BR(~g -> ~d_R  db)
     2.31800549E-02    2    -2000001         1   # BR(~g -> ~d_R* d )
     9.30526410E-03    2     1000002        -2   # BR(~g -> ~u_L  ub)
     9.30526410E-03    2    -1000002         2   # BR(~g -> ~u_L* u )
     8.55023610E-02    2     2000002        -2   # BR(~g -> ~u_R  ub)
     8.55023610E-02    2    -2000002         2   # BR(~g -> ~u_R* u )
     9.28191722E-03    2     1000003        -3   # BR(~g -> ~s_L  sb)
     9.28191722E-03    2    -1000003         3   # BR(~g -> ~s_L* s )
     2.31800549E-02    2     2000003        -3   # BR(~g -> ~s_R  sb)
     2.31800549E-02    2    -2000003         3   # BR(~g -> ~s_R* s )
     9.30523825E-03    2     1000004        -4   # BR(~g -> ~c_L  cb)
     9.30523825E-03    2    -1000004         4   # BR(~g -> ~c_L* c )
     8.55023596E-02    2     2000004        -4   # BR(~g -> ~c_R  cb)
     8.55023596E-02    2    -2000004         4   # BR(~g -> ~c_R* c )
     8.16313679E-02    2     1000005        -5   # BR(~g -> ~b_1  bb)
     8.16313679E-02    2    -1000005         5   # BR(~g -> ~b_1* b )
     4.41320537E-02    2     2000005        -5   # BR(~g -> ~b_2  bb)
     4.41320537E-02    2    -2000005         5   # BR(~g -> ~b_2* b )
     7.49891025E-02    2     1000006        -6   # BR(~g -> ~t_1  tb)
     7.49891025E-02    2    -1000006         6   # BR(~g -> ~t_1* t )
     4.47083086E-02    2     2000006        -6   # BR(~g -> ~t_2  tb)
     4.47083086E-02    2    -2000006         6   # BR(~g -> ~t_2* t )
#
#         PDG            Width
DECAY   1000006     2.45184503E+01   # stop1 decays
#          BR         NDA      ID1       ID2
     2.52738326E-01    2     1000022         6   # BR(~t_1 -> ~chi_10 t )
     2.47341273E-01    2     1000023         6   # BR(~t_1 -> ~chi_20 t )
     4.99920272E-01    2     1000024         5   # BR(~t_1 -> ~chi_1+ b )
     1.29207900E-07    2     1000005        24   # BR(~t_1 -> ~b_1    W+)
#
#         PDG            Width
DECAY   2000006     1.26171400E+02   # stop2 decays
#          BR         NDA      ID1       ID2
     1.07269893E-01    2     1000022         6   # BR(~t_2 -> ~chi_10 t )
     1.10746444E-01    2     1000023         6   # BR(~t_2 -> ~chi_20 t )
     3.21110071E-02    2     1000025         6   # BR(~t_2 -> ~chi_30 t )
     3.16164860E-02    2     1000024         5   # BR(~t_2 -> ~chi_1+ b )
     6.23757419E-02    2     1000037         5   # BR(~t_2 -> ~chi_2+ b )
     3.04677782E-01    2     1000006        25   # BR(~t_2 -> ~t_1    h )
     3.51053361E-01    2     1000006        23   # BR(~t_2 -> ~t_1    Z )
     1.49284517E-04    2     1000005        24   # BR(~t_2 -> ~b_1    W+)
#
#         PDG            Width
DECAY   1000005     1.49678695E+00   # sbottom1 decays
#          BR         NDA      ID1       ID2
     2.64899218E-01    2     1000022         5   # BR(~b_1 -> ~chi_10 b )
     2.57852535E-01    2     1000023         5   # BR(~b_1 -> ~chi_20 b )
     4.77248247E-01    2    -1000024         6   # BR(~b_1 -> ~chi_1- t )
#
#         PDG            Width
DECAY   2000005     1.23974904E+02   # sbottom2 decays
#          BR         NDA      ID1       ID2
     8.19552866E-03    2     1000022         5   # BR(~b_2 -> ~chi_10 b )
     7.96371651E-03    2     1000023         5   # BR(~b_2 -> ~chi_20 b )
     3.36003186E-02    2     1000025         5   # BR(~b_2 -> ~chi_30 b )
     4.72524064E-06    2     1000035         5   # BR(~b_2 -> ~chi_40 b )
     2.13891471E-01    2    -1000024         6   # BR(~b_2 -> ~chi_1- t )
     6.90007923E-02    2    -1000037         6   # BR(~b_2 -> ~chi_2- t )
     8.32825292E-05    2     1000005        25   # BR(~b_2 -> ~b_1    h )
     7.54855030E-05    2     1000005        23   # BR(~b_2 -> ~b_1    Z )
     6.67184679E-01    2     1000006       -24   # BR(~b_2 -> ~t_1    W-)
#
#         PDG            Width
DECAY   1000002     2.78439243E+01   # sup_L decays
#          BR         NDA      ID1       ID2
     1.46347603E-03    2     1000022         2   # BR(~u_L -> ~chi_10 u)
     1.10829484E-03    2     1000023         2   # BR(~u_L -> ~chi_20 u)
     3.28820356E-01    2     1000025         2   # BR(~u_L -> ~chi_30 u)
     5.09433278E-03    2     1000035         2   # BR(~u_L -> ~chi_40 u)
     9.14163752E-03    2     1000024         1   # BR(~u_L -> ~chi_1+ d)
     6.54371903E-01    2     1000037         1   # BR(~u_L -> ~chi_2+ d)
#
#         PDG            Width
DECAY   2000002     8.27074820E-04   # sup_R decays
#           BR         NDA      ID1       ID2
     3.47755973E-01    2     1000022         2   # BR(~u_R -> ~chi_10 u)
     6.31905734E-01    2     1000023         2   # BR(~u_R -> ~chi_20 u)
#           BR         NDA      ID1       ID2       ID3
     3.91742068E-03    3        2       23        1000022   # BR(~u_R -> u  Z  ~chi_10)
     1.09171502E-03    3        2       25        1000022   # BR(~u_R -> u  h  ~chi_10)
     2.31611452E-03    3        2       23        1000023   # BR(~u_R -> u  Z  ~chi_20)
     2.80083487E-03    3        2       25        1000023   # BR(~u_R -> u  h  ~chi_20)
     6.77520324E-04    3        2       -24        1000024   # BR(~u_R -> u  W-  ~chi_1+)
     9.53468756E-03    3        2       24        -1000024   # BR(~u_R -> u  W+  ~chi_1-)
#
#         PDG            Width
DECAY   1000001     2.77911862E+01   # sdown_L decays
#          BR         NDA      ID1       ID2
     1.21846080E-03    2     1000022         1   # BR(~d_L -> ~chi_10 d)
     8.26273029E-04    2     1000023         1   # BR(~d_L -> ~chi_20 d)
     3.29856859E-01    2     1000025         1   # BR(~d_L -> ~chi_30 d)
     5.17079793E-03    2     1000035         1   # BR(~d_L -> ~chi_40 d)
     7.16439819E-05    2    -1000024         2   # BR(~d_L -> ~chi_1- u)
     6.62855965E-01    2    -1000037         2   # BR(~d_L -> ~chi_2- u)
#
#         PDG            Width
DECAY   2000001     2.59155603E-01   # sdown_R decays
#          BR         NDA      ID1       ID2
     1.06267497E-03    2     1000022         1   # BR(~d_R -> ~chi_10 d)
     1.94085405E-03    2     1000023         1   # BR(~d_R -> ~chi_20 d)
     4.44940672E-06    2     1000025         1   # BR(~d_R -> ~chi_30 d)
     9.96992022E-01    2     1000035         1   # BR(~d_R -> ~chi_40 d)
#
#         PDG            Width
DECAY   1000004     2.82065642E+01   # scharm_L decays
#          BR         NDA      ID1       ID2
     1.46971506E-03    2     1000022         4   # BR(~c_L -> ~chi_10 c)
     1.11299456E-03    2     1000023         4   # BR(~c_L -> ~chi_20 c)
     3.28817500E-01    2     1000025         4   # BR(~c_L -> ~chi_30 c)
     5.05312508E-03    2     1000035         4   # BR(~c_L -> ~chi_40 c)
     9.18049349E-03    2     1000024         3   # BR(~c_L -> ~chi_1+ s)
     6.54366171E-01    2     1000037         3   # BR(~c_L -> ~chi_2+ s)
#
#         PDG            Width
DECAY   2000004     7.79429169E-04   # scharm_R decays
#           BR         NDA      ID1       ID2
     3.47288569E-01    2     1000022         4   # BR(~c_R -> ~chi_10 c)
     6.31046037E-01    2     1000023         4   # BR(~c_R -> ~chi_20 c)
#           BR         NDA      ID1       ID2       ID3
     4.22989045E-03    3        4       23        1000022   # BR(~c_R -> c  Z  ~chi_10)
     1.15492214E-03    3        4       25        1000022   # BR(~c_R -> c  h  ~chi_10)
     2.47116746E-03    3        4       23        1000023   # BR(~c_R -> c  Z  ~chi_20)
     2.97166194E-03    3        4       25        1000023   # BR(~c_R -> c  h  ~chi_20)
     7.21887276E-04    3        4       -24        1000024   # BR(~c_R -> c  W-  ~chi_1+)
     1.01158647E-02    3        4       24        -1000024   # BR(~c_R -> c  W+  ~chi_1-)
#
#         PDG            Width
DECAY   1000003     2.81526316E+01   # sstrange_L decays
#          BR         NDA      ID1       ID2
     1.22370637E-03    2     1000022         3   # BR(~s_L -> ~chi_10 s)
     8.29811469E-04    2     1000023         3   # BR(~s_L -> ~chi_20 s)
     3.29867910E-01    2     1000025         3   # BR(~s_L -> ~chi_30 s)
     5.12923142E-03    2     1000035         3   # BR(~s_L -> ~chi_40 s)
     7.19514450E-05    2    -1000024         4   # BR(~s_L -> ~chi_1- c)
     6.62877390E-01    2    -1000037         4   # BR(~s_L -> ~chi_2- c)
#
#         PDG            Width
DECAY   2000003     2.55767670E-01   # sstrange_R decays
#          BR         NDA      ID1       ID2
     1.08346213E-03    2     1000022         3   # BR(~s_R -> ~chi_10 s)
     1.97877238E-03    2     1000023         3   # BR(~s_R -> ~chi_20 s)
     4.51593894E-06    2     1000025         3   # BR(~s_R -> ~chi_30 s)
     9.96933250E-01    2     1000035         3   # BR(~s_R -> ~chi_40 s)
#
#         PDG            Width
DECAY   1000011     2.80929866E-02   # selectron_L decays
#          BR         NDA      ID1       ID2
     5.35885429E-01    2     1000022        11   # BR(~e_L -> ~chi_10 e-)
     4.42054126E-01    2     1000023        11   # BR(~e_L -> ~chi_20 e-)
     2.20604455E-02    2    -1000024        12   # BR(~e_L -> ~chi_1- nu_e)
#
#         PDG            Width
DECAY   2000011     8.95924327E+00   # selectron_R decays
#          BR         NDA      ID1       ID2
     3.85579477E-04    2     1000022        11   # BR(~e_R -> ~chi_10 e-)
     7.04327914E-04    2     1000023        11   # BR(~e_R -> ~chi_20 e-)
     1.94700772E-06    2     1000025        11   # BR(~e_R -> ~chi_30 e-)
     9.98908146E-01    2     1000035        11   # BR(~e_R -> ~chi_40 e-)
#
#         PDG            Width
DECAY   1000013     2.80929859E-02   # smuon_L decays
#          BR         NDA      ID1       ID2
     5.35885428E-01    2     1000022        13   # BR(~mu_L -> ~chi_10 mu-)
     4.42054126E-01    2     1000023        13   # BR(~mu_L -> ~chi_20 mu-)
     2.20604460E-02    2    -1000024        14   # BR(~mu_L -> ~chi_1- nu_mu)
#
#         PDG            Width
DECAY   2000013     8.95924324E+00   # smuon_R decays
#          BR         NDA      ID1       ID2
     3.85579477E-04    2     1000022        13   # BR(~mu_R -> ~chi_10 mu-)
     7.04327915E-04    2     1000023        13   # BR(~mu_R -> ~chi_20 mu-)
     1.94700772E-06    2     1000025        13   # BR(~mu_R -> ~chi_30 mu-)
     9.98908146E-01    2     1000035        13   # BR(~mu_R -> ~chi_40 mu-)
#
#         PDG            Width
DECAY   1000015     3.25528421E+00   # stau_1 decays
#          BR         NDA      ID1       ID2
     1.95750519E-01    2     1000022        15   # BR(~tau_1 -> ~chi_10  tau-)
     1.91876499E-01    2     1000023        15   # BR(~tau_1 -> ~chi_20  tau-)
     9.93929320E-06    2     1000025        15   # BR(~tau_1 -> ~chi_30  tau-)
     2.26652096E-01    2     1000035        15   # BR(~tau_1 -> ~chi_40  tau-)
     3.85695870E-01    2    -1000024        16   # BR(~tau_1 -> ~chi_1-  nu_tau)
     1.50759658E-05    2    -1000037        16   # BR(~tau_1 -> ~chi_2-  nu_tau)
#
#         PDG            Width
DECAY   2000015     4.37876448E+01   # stau_2 decays
#          BR         NDA      ID1       ID2
     2.55958518E-02    2     1000022        15   # BR(~tau_2 -> ~chi_10  tau-)
     2.48182669E-02    2     1000023        15   # BR(~tau_2 -> ~chi_20  tau-)
     2.94907214E-01    2     1000025        15   # BR(~tau_2 -> ~chi_30  tau-)
     5.99191400E-02    2     1000035        15   # BR(~tau_2 -> ~chi_40  tau-)
     5.71937077E-05    2    -1000024        16   # BR(~tau_2 -> ~chi_1-  nu_tau)
     5.93600661E-01    2    -1000037        16   # BR(~tau_2 -> ~chi_2-  nu_tau)
     7.54016050E-06    2     1000015        25   # BR(~tau_2 -> ~tau_1   h)
     5.43184944E-04    2     1000015        35   # BR(~tau_2 -> ~tau_1   H)
     5.43279819E-04    2     1000015        36   # BR(~tau_2 -> ~tau_1   A)
     7.66755165E-06    2     1000015        23   # BR(~tau_2 -> ~tau_1   Z)
#
#         PDG            Width
DECAY   1000012     9.25338711E-02   # snu_eL decays
#          BR         NDA      ID1       ID2
     9.26222861E-02    2     1000022        12   # BR(~nu_eL -> ~chi_10 nu_e)
     5.43069654E-02    2     1000023        12   # BR(~nu_eL -> ~chi_20 nu_e)
     8.53070748E-01    2     1000024        11   # BR(~nu_eL -> ~chi_1+ e-)
#
#         PDG            Width
DECAY   1000014     9.25338692E-02   # snu_muL decays
#          BR         NDA      ID1       ID2
     9.26222881E-02    2     1000022        14   # BR(~nu_muL -> ~chi_10 nu_mu)
     5.43069666E-02    2     1000023        14   # BR(~nu_muL -> ~chi_20 nu_mu)
     8.53070745E-01    2     1000024        13   # BR(~nu_muL -> ~chi_1+ mu-)
#
#         PDG            Width
DECAY   1000016     4.38034293E+01   # snu_tauL decays
#          BR         NDA      ID1       ID2
     8.04880153E-04    2     1000022        16   # BR(~nu_tauL -> ~chi_10 nu_tau)
     4.73146519E-04    2     1000023        16   # BR(~nu_tauL -> ~chi_20 nu_tau)
     2.95395001E-01    2     1000025        16   # BR(~nu_tauL -> ~chi_30 nu_tau)
     6.00897341E-02    2     1000035        16   # BR(~nu_tauL -> ~chi_40 nu_tau)
     5.52312063E-02    2     1000024        15   # BR(~nu_tauL -> ~chi_1+ tau-)
     5.86927445E-01    2     1000037        15   # BR(~nu_tauL -> ~chi_2+ tau-)
     1.06368264E-03    2    -1000015       -37   # BR(~nu_tauL -> ~tau_1+ H-)
     1.49043245E-05    2    -1000015       -24   # BR(~nu_tauL -> ~tau_1+ W-)
#
#         PDG            Width
DECAY   1000024     5.90058350E-11   # chargino1+ decays
#           BR         NDA      ID1       ID2       ID3
     3.74078005E-01    3     1000022         2        -1   # BR(~chi_1+ -> ~chi_10 u    db)
     3.74078005E-01    3     1000022         4        -3   # BR(~chi_1+ -> ~chi_10 c    sb)
     1.24696837E-01    3     1000022       -11        12   # BR(~chi_1+ -> ~chi_10 e+   nu_e)
     1.24696837E-01    3     1000022       -13        14   # BR(~chi_1+ -> ~chi_10 mu+  nu_mu)
     2.45031466E-03    3     1000022       -15        16   # BR(~chi_1+ -> ~chi_10 tau+ nu_tau)
#
#         PDG            Width
DECAY   1000037     8.93899281E+00   # chargino2+ decays
#          BR         NDA      ID1       ID2
     1.83206434E-03    2     1000006        -5   # BR(~chi_2+ -> ~t_1     bb)
     1.29586197E-07    2    -1000005         6   # BR(~chi_2+ -> ~b_1*    t )
     2.06355185E-02    2     1000012       -11   # BR(~chi_2+ -> ~nu_eL   e+  )
     2.06355185E-02    2     1000014       -13   # BR(~chi_2+ -> ~nu_muL mu+ )
     1.97263188E-02    2    -1000011        12   # BR(~chi_2+ -> ~e_L+    nu_e)
     1.97263188E-02    2    -1000013        14   # BR(~chi_2+ -> ~mu_L+   nu_mu)
     2.31959260E-01    2     1000024        23   # BR(~chi_2+ -> ~chi_1+  Z )
     2.25058830E-01    2     1000022        24   # BR(~chi_2+ -> ~chi_10  W+)
     2.30202788E-01    2     1000023        24   # BR(~chi_2+ -> ~chi_20  W+)
     2.30223254E-01    2     1000024        25   # BR(~chi_2+ -> ~chi_1+  h )
#
#         PDG            Width
DECAY   1000022     0.00000000E+00   # neutralino1 decays
#
#         PDG            Width
DECAY   1000023     7.56922683E-10   # neutralino2 decays
#          BR         NDA      ID1       ID2
     1.16851863E-01    2     1000022        22   # BR(~chi_20 -> ~chi_10 gam)
#           BR         NDA      ID1       ID2       ID3
     1.23989715E-01    3     1000022        -2         2   # BR(~chi_20 -> ~chi_10 ub      u)
     1.60812515E-01    3     1000022        -1         1   # BR(~chi_20 -> ~chi_10 db      d)
     1.23989715E-01    3     1000022        -4         4   # BR(~chi_20 -> ~chi_10 cb      c)
     1.60812515E-01    3     1000022        -3         3   # BR(~chi_20 -> ~chi_10 sb      s)
     3.68626010E-02    3     1000022       -11        11   # BR(~chi_20 -> ~chi_10 e+      e-)
     3.68626010E-02    3     1000022       -13        13   # BR(~chi_20 -> ~chi_10 mu+     mu-)
     9.64651167E-04    3     1000022       -15        15   # BR(~chi_20 -> ~chi_10 tau+    tau-)
     7.36905157E-02    3     1000022       -12        12   # BR(~chi_20 -> ~chi_10 nu_eb   nu_e)
     7.36905157E-02    3     1000022       -14        14   # BR(~chi_20 -> ~chi_10 nu_mub  nu_mu)
     7.36888617E-02    3     1000022       -16        16   # BR(~chi_20 -> ~chi_10 nu_taub nu_tau)
     5.33513641E-03    3     1000024        -2         1   # BR(~chi_20 -> ~chi_1+ ub      d)
     5.33513641E-03    3    -1000024        -1         2   # BR(~chi_20 -> ~chi_1- db      u)
     1.77841423E-03    3     1000024       -12        11   # BR(~chi_20 -> ~chi_1+ nu_eb   e-)
     1.77841423E-03    3    -1000024        12       -11   # BR(~chi_20 -> ~chi_1- nu_e    e+)
     1.77841423E-03    3     1000024       -14        13   # BR(~chi_20 -> ~chi_1+ nu_mub  mu-)
     1.77841423E-03    3    -1000024        14       -13   # BR(~chi_20 -> ~chi_1- nu_mu   mu+)
#
#         PDG            Width
DECAY   1000025     8.90992826E+00   # neutralino3 decays
#          BR         NDA      ID1       ID2
     9.56911609E-02    2     1000022        23   # BR(~chi_30 -> ~chi_10   Z )
     1.37416312E-01    2     1000023        23   # BR(~chi_30 -> ~chi_20   Z )
     2.29311463E-01    2     1000024       -24   # BR(~chi_30 -> ~chi_1+   W-)
     2.29311463E-01    2    -1000024        24   # BR(~chi_30 -> ~chi_1-   W+)
     1.33394401E-01    2     1000022        25   # BR(~chi_30 -> ~chi_10   h )
     9.40768420E-02    2     1000023        25   # BR(~chi_30 -> ~chi_20   h )
     1.74831177E-07    2     2000002        -2   # BR(~chi_30 -> ~u_R      ub)
     1.74831177E-07    2    -2000002         2   # BR(~chi_30 -> ~u_R*     u )
     1.74830317E-07    2     2000004        -4   # BR(~chi_30 -> ~c_R      cb)
     1.74830317E-07    2    -2000004         4   # BR(~chi_30 -> ~c_R*     c )
     6.09318804E-08    2     1000005        -5   # BR(~chi_30 -> ~b_1      bb)
     6.09318804E-08    2    -1000005         5   # BR(~chi_30 -> ~b_1*     b )
     9.80633366E-03    2     1000011       -11   # BR(~chi_30 -> ~e_L-     e+)
     9.80633366E-03    2    -1000011        11   # BR(~chi_30 -> ~e_L+     e-)
     9.80633366E-03    2     1000013       -13   # BR(~chi_30 -> ~mu_L-    mu+)
     9.80633366E-03    2    -1000013        13   # BR(~chi_30 -> ~mu_L+    mu-)
     1.03930505E-02    2     1000012       -12   # BR(~chi_30 -> ~nu_eL    nu_eb)
     1.03930505E-02    2    -1000012        12   # BR(~chi_30 -> ~nu_eL*   nu_e )
     1.03930505E-02    2     1000014       -14   # BR(~chi_30 -> ~nu_muL   nu_mub)
     1.03930505E-02    2    -1000014        14   # BR(~chi_30 -> ~nu_muL*  nu_mu )
#
#         PDG            Width
DECAY   1000035     4.28835353E+01   # neutralino4 decays
#          BR         NDA      ID1       ID2
     1.91925439E-02    2     1000022        23   # BR(~chi_40 -> ~chi_10   Z )
     1.10341847E-02    2     1000023        23   # BR(~chi_40 -> ~chi_20   Z )
     5.51329158E-05    2     1000025        23   # BR(~chi_40 -> ~chi_30   Z )
     2.94718331E-02    2     1000024       -24   # BR(~chi_40 -> ~chi_1+   W-)
     2.94718331E-02    2    -1000024        24   # BR(~chi_40 -> ~chi_1-   W+)
     5.91743618E-05    2     1000037       -24   # BR(~chi_40 -> ~chi_2+   W-)
     5.91743618E-05    2    -1000037        24   # BR(~chi_40 -> ~chi_2-   W+)
     1.09093716E-02    2     1000022        25   # BR(~chi_40 -> ~chi_10   h )
     2.69614627E-03    2     1000022        35   # BR(~chi_40 -> ~chi_10   H )
     4.22224166E-03    2     1000022        36   # BR(~chi_40 -> ~chi_10   A )
     2.00617083E-02    2     1000023        25   # BR(~chi_40 -> ~chi_20   h )
     4.13214549E-03    2     1000023        35   # BR(~chi_40 -> ~chi_20   H )
     2.61019460E-03    2     1000023        36   # BR(~chi_40 -> ~chi_20   A )
     4.30909305E-06    2     1000025        25   # BR(~chi_40 -> ~chi_30   h )
     6.74804632E-03    2     1000024       -37   # BR(~chi_40 -> ~chi_1+   H-)
     6.74804632E-03    2    -1000024        37   # BR(~chi_40 -> ~chi_1-   H+)
     1.25829021E-01    2     2000002        -2   # BR(~chi_40 -> ~u_R      ub)
     1.25829021E-01    2    -2000002         2   # BR(~chi_40 -> ~u_R*     u )
     1.25828994E-01    2     2000004        -4   # BR(~chi_40 -> ~c_R      cb)
     1.25828994E-01    2    -2000004         4   # BR(~chi_40 -> ~c_R*     c )
     7.77118260E-02    2     1000006        -6   # BR(~chi_40 -> ~t_1      tb)
     7.77118260E-02    2    -1000006         6   # BR(~chi_40 -> ~t_1*     t )
     2.67587085E-02    2     1000005        -5   # BR(~chi_40 -> ~b_1      bb)
     2.67587085E-02    2    -1000005         5   # BR(~chi_40 -> ~b_1*     b )
     1.74595049E-02    2     1000011       -11   # BR(~chi_40 -> ~e_L-     e+)
     1.74595049E-02    2    -1000011        11   # BR(~chi_40 -> ~e_L+     e-)
     1.74595049E-02    2     1000013       -13   # BR(~chi_40 -> ~mu_L-    mu+)
     1.74595049E-02    2    -1000013        13   # BR(~chi_40 -> ~mu_L+    mu-)
     1.76071989E-02    2     1000012       -12   # BR(~chi_40 -> ~nu_eL    nu_eb)
     1.76071989E-02    2    -1000012        12   # BR(~chi_40 -> ~nu_eL*   nu_e )
     1.76071989E-02    2     1000014       -14   # BR(~chi_40 -> ~nu_muL   nu_mub)
     1.76071989E-02    2    -1000014        14   # BR(~chi_40 -> ~nu_muL*  nu_mu )
#
#         PDG            Width
DECAY        25     4.21521790E-03   # h decays
#          BR         NDA      ID1       ID2
     5.98824299E-01    2           5        -5   # BR(h -> b       bb     )
     6.31530771E-02    2         -15        15   # BR(h -> tau+    tau-   )
     2.23565597E-04    2         -13        13   # BR(h -> mu+     mu-    )
     2.43667823E-04    2           3        -3   # BR(h -> s       sb     )
     2.06477303E-02    2           4        -4   # BR(h -> c       cb     )
     7.40189658E-02    2          21        21   # BR(h -> g       g      )
     2.29391018E-03    2          22        22   # BR(h -> gam     gam    )
     1.55695938E-03    2          22        23   # BR(h -> Z       gam    )
     2.12349365E-01    2          24       -24   # BR(h -> W+      W-     )
     2.66884601E-02    2          23        23   # BR(h -> Z       Z      )
#
#         PDG            Width
DECAY        35     8.28167945E+00   # H decays
#          BR         NDA      ID1       ID2
     5.81291708E-01    2           5        -5   # BR(H -> b       bb     )
     9.43496307E-02    2         -15        15   # BR(H -> tau+    tau-   )
     3.37259928E-04    2         -13        13   # BR(H -> mu+     mu-    )
     2.27584446E-04    2           3        -3   # BR(H -> s       sb     )
     3.01840844E-07    2           4        -4   # BR(H -> c       cb     )
     2.83846524E-02    2           6        -6   # BR(H -> t       tb     )
     2.62425732E-05    2          21        21   # BR(H -> g       g      )
     3.67306942E-09    2          22        22   # BR(H -> gam     gam    )
     2.91164790E-08    2          23        22   # BR(H -> Z       gam    )
     5.95232890E-05    2          24       -24   # BR(H -> W+      W-     )
     2.95631730E-05    2          23        23   # BR(H -> Z       Z      )
     2.16660113E-04    2          25        25   # BR(H -> h       h      )
     1.41952346E-02    2     1000024  -1000024   # BR(H -> ~chi_1+ ~chi_1-)
     9.25439915E-02    2     1000024  -1000037   # BR(H -> ~chi_1+ ~chi_2-)
     9.25439915E-02    2     1000037  -1000024   # BR(H -> ~chi_2+ ~chi_1-)
     1.76986357E-03    2     1000022   1000022   # BR(H -> ~chi_10 ~chi_10)
     8.01564110E-04    2     1000023   1000023   # BR(H -> ~chi_20 ~chi_20)
     9.57672045E-06    2     1000022   1000023   # BR(H -> ~chi_10 ~chi_20)
     3.06306993E-02    2     1000022   1000025   # BR(H -> ~chi_10 ~chi_30)
     6.25798202E-02    2     1000023   1000025   # BR(H -> ~chi_20 ~chi_30)
     1.04977452E-06    2     2000002  -2000002   # BR(H -> ~u_R    ~u_R*  )
     1.04977452E-06    2     2000004  -2000004   # BR(H -> ~c_R    ~c_R*  )
#
#         PDG            Width
DECAY        36     8.29139131E+00   # A decays
#          BR         NDA      ID1       ID2
     5.80712434E-01    2           5        -5   # BR(A -> b       bb     )
     9.42450269E-02    2         -15        15   # BR(A -> tau+    tau-   )
     3.36883742E-04    2         -13        13   # BR(A -> mu+     mu-    )
     2.27393113E-04    2           3        -3   # BR(A -> s       sb     )
     2.97061944E-07    2           4        -4   # BR(A -> c       cb     )
     2.89267147E-02    2           6        -6   # BR(A -> t       tb     )
     1.42340696E-04    2          21        21   # BR(A -> g       g      )
     2.05543528E-08    2          22        22   # BR(A -> gam     gam    )
     1.00442838E-07    2          23        22   # BR(A -> Z       gam    )
     5.94658659E-05    2          23        25   # BR(A -> Z       h      )
     1.46910167E-02    2     1000024  -1000024   # BR(A -> ~chi_1+ ~chi_1-)
     9.23483947E-02    2     1000024  -1000037   # BR(A -> ~chi_1+ ~chi_2-)
     9.23483947E-02    2     1000037  -1000024   # BR(A -> ~chi_2+ ~chi_1-)
     1.46446092E-03    2     1000022   1000022   # BR(A -> ~chi_10 ~chi_10)
     1.08964342E-03    2     1000023   1000023   # BR(A -> ~chi_20 ~chi_20)
     8.26407927E-05    2     1000022   1000023   # BR(A -> ~chi_10 ~chi_20)
     6.42422493E-02    2     1000022   1000025   # BR(A -> ~chi_10 ~chi_30)
     2.90825219E-02    2     1000023   1000025   # BR(A -> ~chi_20 ~chi_30)
#
#         PDG            Width
DECAY        37     8.00426130E+00   # H+ decays
#          BR         NDA      ID1       ID2
     9.69092047E-04    2           4        -5   # BR(H+ -> c       bb     )
     9.78049341E-02    2         -15        16   # BR(H+ -> tau+    nu_tau )
     3.49608811E-04    2         -13        14   # BR(H+ -> mu+     nu_mu  )
     9.69086822E-06    2           2        -5   # BR(H+ -> u       bb     )
     1.17682091E-05    2           2        -3   # BR(H+ -> u       sb     )
     2.31928818E-04    2           4        -3   # BR(H+ -> c       sb     )
     6.00749637E-01    2           6        -5   # BR(H+ -> t       bb     )
     6.21225388E-05    2          24        25   # BR(H+ -> W+      h      )
     1.96555255E-11    2          24        36   # BR(H+ -> W+      A      )
     2.05796576E-03    2     1000024   1000022   # BR(H+ -> ~chi_1+ ~chi_10)
     3.08755097E-03    2     1000024   1000023   # BR(H+ -> ~chi_1+ ~chi_20)
     9.77925724E-02    2     1000024   1000025   # BR(H+ -> ~chi_1+ ~chi_30)
     1.00250111E-01    2     1000037   1000022   # BR(H+ -> ~chi_2+ ~chi_10)
     9.66230176E-02    2     1000037   1000023   # BR(H+ -> ~chi_2+ ~chi_20)
