#
#                              ======================
#                              | THE SUSYHIT OUTPUT |
#                              ======================
#
#
#              ------------------------------------------------------
#              |     This is the output of the SUSY-HIT package     |
#              |  created by A.Djouadi, M.Muehlleitner and M.Spira. |
#              |  In case of problems with SUSY-HIT email to        |
#              |           margarete.muehlleitner@cern.ch           |
#              |           michael.spira@psi.ch                     |
#              |           abdelhak.djouadi@cern.ch                 |
#              ------------------------------------------------------
#
#              ------------------------------------------------------
#              |  SUSY Les Houches Accord - MSSM Spectrum + Decays  |
#              |              based on the decay programs           |
#              |                                                    |
#              |                     SDECAY 1.3b                    |
#              |                                                    |
#              |  Authors: M.Muhlleitner, A.Djouadi and Y.Mambrini  |
#              |  Ref.:    Comput.Phys.Commun.168(2005)46           |
#              |           [hep-ph/0311167]                         |
#              |                                                    |
#              |                     HDECAY 3.4                     |
#              |                                                    |
#              |  By: A.Djouadi,J.Kalinowski,M.Muhlleitner,M.Spira  |
#              |  Ref.:    Comput.Phys.Commun.108(1998)56           |
#              |           [hep-ph/9704448]                         |
#              |                                                    |
#              |                                                    |
#              |  If not stated otherwise all DRbar couplings and   |
#              |  soft SUSY breaking masses are given at the scale  |
#              |  Q=  0.14132660E+04
#              |                                                    |
#              ------------------------------------------------------
#
#
BLOCK DCINFO  # Decay Program information
     1   SDECAY/HDECAY # decay calculator
     2   1.3b  /3.4    # version number
#
BLOCK SPINFO  # Spectrum calculator information
     1     SOFTSUSY    # spectrum calculator               
     2     3.4.0       # version number                    
#
BLOCK MODSEL  # Model selection
     1     0   #  nonUniversal                                     
#
BLOCK SMINPUTS  # Standard Model inputs
         1     1.27908970E+02   # alpha_em^-1(M_Z)^MSbar
         2     1.16637870E-05   # G_F [GeV^-2]
         3     1.18400000E-01   # alpha_S(M_Z)^MSbar
         4     9.11876000E+01   # M_Z pole mass
         5     4.18000000E+00   # mb(mb)^MSbar
         6     1.73200000E+02   # mt pole mass
         7     1.77700000E+00   # mtau pole mass
#
BLOCK MINPAR  # Input parameters - minimal models
         3     1.15500000E+01   # tanb                
#
BLOCK EXTPAR  # Input parameters - non-minimal models
         0    -1.00000000E+00   # Set                 
         1     5.35540000E+02   # M_1(MX)             
         2     3.54246000E+03   # M_2(MX)             
         3     2.29118000E+03   # M_3(MX)             
        11    -3.35751000E+03   # At(MX)              
        12    -9.36720000E+02   # Ab(MX)              
        13    -1.72868000E+03   # Atau(MX)            
        23     2.88112000E+03   # mu(MX)              
        26     2.32345000E+03   # mA(pole)            
        31     9.15680000E+02   # meL(MX)             
        32     9.15680000E+02   # mmuL(MX)            
        33     1.70841000E+03   # mtauL(MX)           
        34     3.39658000E+03   # meR(MX)             
        35     3.39658000E+03   # mmuR(MX)            
        36     3.03529000E+03   # mtauR(MX)           
        41     7.93470000E+02   # mqL1(MX)            
        42     7.93470000E+02   # mqL2(MX)            
        43     8.78710000E+02   # mqL3(MX)            
        44     5.26160000E+02   # muR(MX)             
        45     5.26160000E+02   # mcR(MX)             
        46     2.31716000E+03   # mtR(MX)             
        47     1.86392000E+03   # mdR(MX)             
        48     1.86392000E+03   # msR(MX)             
        49     8.61560000E+02   # mbR(MX)             
#
BLOCK MASS  # Mass Spectrum
# PDG code           mass       particle
        24     8.03909330E+01   # W+
        25     1.25396639E+02   # h
        35     2.32307792E+03   # H
        36     2.32344997E+03   # A
        37     2.32451989E+03   # H+
         5     4.81876030E+00   # b-quark pole mass calculated from mb(mb)_Msbar
   1000001     7.91237567E+02   # ~d_L
   2000001     1.91186049E+03   # ~d_R
   1000002     7.87502238E+02   # ~u_L
   2000002     5.46109052E+02   # ~u_R
   1000003     7.91237567E+02   # ~s_L
   2000003     1.91186049E+03   # ~s_R
   1000004     7.87502238E+02   # ~c_L
   2000004     5.46109052E+02   # ~c_R
   1000005     8.43595482E+02   # ~b_1
   2000005     9.28438694E+02   # ~b_2
   1000006     8.49009664E+02   # ~t_1
   2000006     2.32533296E+03   # ~t_2
   1000011     8.75418687E+02   # ~e_L
   2000011     3.40225622E+03   # ~e_R
   1000012     8.71734274E+02   # ~nu_eL
   1000013     8.75418687E+02   # ~mu_L
   2000013     3.40225622E+03   # ~mu_R
   1000014     8.71734274E+02   # ~nu_muL
   1000015     1.69482269E+03   # ~tau_1
   2000015     3.04065042E+03   # ~tau_2
   1000016     1.69293832E+03   # ~nu_tauL
   1000021     2.27366481E+03   # ~g
   1000022     5.32154525E+02   # ~chi_10
   1000023     2.89364143E+03   # ~chi_20
   1000025    -2.89973516E+03   # ~chi_30
   1000035     3.50356013E+03   # ~chi_40
   1000024     2.89366608E+03   # ~chi_1+
   1000037     3.50372341E+03   # ~chi_2+
#
BLOCK NMIX  # Neutralino Mixing Matrix
  1  1     9.99862267E-01   # N_11
  1  2    -1.83972842E-04   # N_12
  1  3     1.59553844E-02   # N_13
  1  4    -4.56485968E-03   # N_14
  2  1    -1.44431231E-02   # N_21
  2  2    -1.15190000E-01   # N_22
  2  3     7.03032501E-01   # N_23
  2  4    -7.01618103E-01   # N_24
  3  1    -8.05057502E-03   # N_31
  3  2     7.99006341E-03   # N_32
  3  3     7.06921768E-01   # N_33
  3  4     7.07200792E-01   # N_34
  4  1    -1.42496235E-03   # N_41
  4  2     9.93311325E-01   # N_42
  4  3     7.58441966E-02   # N_43
  4  4    -8.70530780E-02   # N_44
#
BLOCK UMIX  # Chargino Mixing Matrix U
  1  1    -9.50365205E-02   # U_11
  1  2     9.95473787E-01   # U_12
  2  1    -9.95473787E-01   # U_21
  2  2    -9.50365205E-02   # U_22
#
BLOCK VMIX  # Chargino Mixing Matrix V
  1  1    -1.10580684E-01   # V_11
  1  2     9.93867150E-01   # V_12
  2  1    -9.93867150E-01   # V_21
  2  2    -1.10580684E-01   # V_22
#
BLOCK STOPMIX  # Stop Mixing Matrix
  1  1     9.93495910E-01   # cos(theta_t)
  1  2     1.13867804E-01   # sin(theta_t)
  2  1    -1.13867804E-01   # -sin(theta_t)
  2  2     9.93495910E-01   # cos(theta_t)
#
BLOCK SBOTMIX  # Sbottom Mixing Matrix
  1  1     8.25659071E-01   # cos(theta_b)
  1  2     5.64169388E-01   # sin(theta_b)
  2  1    -5.64169388E-01   # -sin(theta_b)
  2  2     8.25659071E-01   # cos(theta_b)
#
BLOCK STAUMIX  # Stau Mixing Matrix
  1  1     9.99954080E-01   # cos(theta_tau)
  1  2     9.58320882E-03   # sin(theta_tau)
  2  1    -9.58320882E-03   # -sin(theta_tau)
  2  2     9.99954080E-01   # cos(theta_tau)
#
BLOCK ALPHA  # Higgs mixing
          -9.00567033E-02   # Mixing angle in the neutral Higgs boson sector
#
BLOCK HMIX Q=  1.41326600E+03  # DRbar Higgs Parameters
         1     2.90918206E+03   # mu(Q)MSSM           
         2     1.11242229E+01   # tan                 
         3     2.44332298E+02   # higgs               
         4     4.26736961E+06   # mA^2(Q)MSSM         
#
BLOCK GAUGE Q=  1.41326600E+03  # The gauge couplings
     1     3.62493339E-01   # gprime(Q) DRbar
     2     6.35121038E-01   # g(Q) DRbar
     3     1.03813470E+00   # g3(Q) DRbar
#
BLOCK AU Q=  1.41326600E+03  # The trilinear couplings
  1  1     0.00000000E+00   # A_u(Q) DRbar
  2  2     0.00000000E+00   # A_c(Q) DRbar
  3  3    -3.35751000E+03   # A_t(Q) DRbar
#
BLOCK AD Q=  1.41326600E+03  # The trilinear couplings
  1  1     0.00000000E+00   # A_d(Q) DRbar
  2  2     0.00000000E+00   # A_s(Q) DRbar
  3  3    -9.36719999E+02   # A_b(Q) DRbar
#
BLOCK AE Q=  1.41326600E+03  # The trilinear couplings
  1  1     0.00000000E+00   # A_e(Q) DRbar
  2  2     0.00000000E+00   # A_mu(Q) DRbar
  3  3    -1.72868000E+03   # A_tau(Q) DRbar
#
BLOCK Yu Q=  1.41326600E+03  # The Yukawa couplings
  1  1     0.00000000E+00   # y_u(Q) DRbar
  2  2     0.00000000E+00   # y_c(Q) DRbar
  3  3     8.29239468E-01   # y_t(Q) DRbar
#
BLOCK Yd Q=  1.41326600E+03  # The Yukawa couplings
  1  1     0.00000000E+00   # y_d(Q) DRbar
  2  2     0.00000000E+00   # y_s(Q) DRbar
  3  3     1.31355265E-01   # y_b(Q) DRbar
#
BLOCK Ye Q=  1.41326600E+03  # The Yukawa couplings
  1  1     0.00000000E+00   # y_e(Q) DRbar
  2  2     0.00000000E+00   # y_mu(Q) DRbar
  3  3     1.17381357E-01   # y_tau(Q) DRbar
#
BLOCK MSOFT Q=  1.41326600E+03  # The soft SUSY breaking masses at the scale Q
         1     5.35540000E+02   # M_1(Q)              
         2     3.54246000E+03   # M_2(Q)              
         3     2.29118000E+03   # M_3(Q)              
        21    -2.98875057E+06   # mH1^2(Q)            
        22    -8.27294357E+06   # mH2^2(Q)            
        31     9.15680000E+02   # meL(Q)              
        32     9.15680000E+02   # mmuL(Q)             
        33     1.70841000E+03   # mtauL(Q)            
        34     3.39658000E+03   # meR(Q)              
        35     3.39658000E+03   # mmuR(Q)             
        36     3.03529000E+03   # mtauR(Q)            
        41     7.93469994E+02   # mqL1(Q)             
        42     7.93469994E+02   # mqL2(Q)             
        43     8.78709989E+02   # mqL3(Q)             
        44     5.26159991E+02   # muR(Q)              
        45     5.26159991E+02   # mcR(Q)              
        46     2.31715999E+03   # mtR(Q)              
        47     1.86392000E+03   # mdR(Q)              
        48     1.86392000E+03   # msR(Q)              
        49     8.61559995E+02   # mbR(Q)              
#
Block HiggsBoundsInputHiggsCouplingsFermions
# ScalarNormEffCoupSq PseudoSNormEffCoupSq NP   IP1 IP2 IP2
    1.00900300E+00    0.00000000E+00        3  25   5   5  # h0-b-b eff. coupling^2, normalised to SM
    1.23739332E+02    0.00000000E+00        3  35   5   5  # H0-b-b eff. coupling^2, normalised to SM
    0.00000000E+00    1.23748335E+02        3  36   5   5  # A0-b-b eff. coupling^2, normalised to SM
#
    9.99927248E-01    0.00000000E+00        3  25   6   6  # h0-t-t eff. coupling^2, normalised to SM
    8.15366928E-03    0.00000000E+00        3  35   6   6  # H0-t-t eff. coupling^2, normalised to SM
    0.00000000E+00    8.08091680E-03        3  36   6   6  # A0-t-t eff. coupling^2, normalised to SM
#
    1.00900300E+00    0.00000000E+00        3  25  15  15  # h0-tau-tau eff. coupling^2, normalised to SM
    1.23739332E+02    0.00000000E+00        3  35  15  15  # H0-tau-tau eff. coupling^2, normalised to SM
    0.00000000E+00    1.23748335E+02        3  36  15  15  # A0-tau-tau eff. coupling^2, normalised to SM
#
Block HiggsBoundsInputHiggsCouplingsBosons
    9.99999837E-01        3  25  24  24  # h0-W-W eff. coupling^2, normalised to SM
    1.63020569E-07        3  35  24  24  # H0-W-W eff. coupling^2, normalised to SM
    0.00000000E+00        3  36  24  24  # A0-W-W eff. coupling^2, normalised to SM
#
    9.99999837E-01        3  25  23  23  # h0-Z-Z eff. coupling^2, normalised to SM
    1.63020569E-07        3  35  23  23  # H0-Z-Z eff. coupling^2, normalised to SM
    0.00000000E+00        3  36  23  23  # A0-Z-Z eff. coupling^2, normalised to SM
#
    8.36849447E-01        3  25  21  21  # h0-g-g eff. coupling^2, normalised to SM
    1.65053575E-10        3  35  21  21  # H0-g-g eff. coupling^2, normalised to SM
    2.60392048E-11        3  36  21  21  # A0-g-g eff. coupling^2, normalised to SM
#
    0.00000000E+00        3  25  25  23  # h0-h0-Z eff. coupling^2, normalised to SM
    0.00000000E+00        3  35  25  23  # H0-h0-Z eff. coupling^2, normalised to SM
    1.63020569E-07        3  36  25  23  # A0-h0-Z eff. coupling^2, normalised to SM
    0.00000000E+00        3  35  35  23  # H0-H0-Z eff. coupling^2, normalised to SM
    9.99999837E-01        3  36  35  23  # A0-H0-Z eff. coupling^2, normalised to SM
    0.00000000E+00        3  36  36  23  # A0-A0-Z eff. coupling^2, normalised to SM
#
    0.00000000E+00        4  25  21  21  23  # h0-g-g-Z eff. coupling^2, normalised to SM
    0.00000000E+00        4  35  21  21  23  # H0-g-g-Z eff. coupling^2, normalised to SM
    0.00000000E+00        4  36  21  21  23  # A0-g-g-Z eff. coupling^2, normalised to SM
#
#
#
#                             =================
#                             |The decay table|
#                             =================
#
# - The QCD corrections to the decays gluino -> squark  + quark
#                                     squark -> gaugino + quark_prime
#                                     squark -> squark_prime + Higgs
#                                     squark -> gluino  + quark
#   are included.
#
# - The multi-body decays for the inos, stops and sbottoms are included.
#
# - The loop induced decays for the gluino, neutralinos and stops
#   are included.
#
# - The SUSY decays of the top quark are included.
#
#
#         PDG            Width
DECAY         6     1.42059471E+00   # top decays
#          BR         NDA      ID1       ID2
     1.00000000E+00    2           5        24   # BR(t ->  b    W+)
#
#         PDG            Width
DECAY   1000021     3.45032782E+02   # gluino decays
#          BR         NDA      ID1       ID2
     5.37211601E-02    2     1000001        -1   # BR(~g -> ~d_L  db)
     5.37211601E-02    2    -1000001         1   # BR(~g -> ~d_L* d )
     5.96777931E-03    2     2000001        -1   # BR(~g -> ~d_R  db)
     5.96777931E-03    2    -2000001         1   # BR(~g -> ~d_R* d )
     5.38607026E-02    2     1000002        -2   # BR(~g -> ~u_L  ub)
     5.38607026E-02    2    -1000002         2   # BR(~g -> ~u_L* u )
     6.17529947E-02    2     2000002        -2   # BR(~g -> ~u_R  ub)
     6.17529947E-02    2    -2000002         2   # BR(~g -> ~u_R* u )
     5.37211601E-02    2     1000003        -3   # BR(~g -> ~s_L  sb)
     5.37211601E-02    2    -1000003         3   # BR(~g -> ~s_L* s )
     5.96777931E-03    2     2000003        -3   # BR(~g -> ~s_R  sb)
     5.96777931E-03    2    -2000003         3   # BR(~g -> ~s_R* s )
     5.38606942E-02    2     1000004        -4   # BR(~g -> ~c_L  cb)
     5.38606942E-02    2    -1000004         4   # BR(~g -> ~c_L* c )
     6.17529906E-02    2     2000004        -4   # BR(~g -> ~c_R  cb)
     6.17529906E-02    2    -2000004         4   # BR(~g -> ~c_R* c )
     5.14982801E-02    2     1000005        -5   # BR(~g -> ~b_1  bb)
     5.14982801E-02    2    -1000005         5   # BR(~g -> ~b_1* b )
     4.84157799E-02    2     2000005        -5   # BR(~g -> ~b_2  bb)
     4.84157799E-02    2    -2000005         5   # BR(~g -> ~b_2* b )
     4.94806791E-02    2     1000006        -6   # BR(~g -> ~t_1  tb)
     4.94806791E-02    2    -1000006         6   # BR(~g -> ~t_1* t )
#
#         PDG            Width
DECAY   1000006     5.87437779E-02   # stop1 decays
#          BR         NDA      ID1       ID2
     1.00000000E+00    2     1000022         6   # BR(~t_1 -> ~chi_10 t )
#
#         PDG            Width
DECAY   2000006     1.33220843E+02   # stop2 decays
#          BR         NDA      ID1       ID2
     3.53611678E-02    2     1000022         6   # BR(~t_2 -> ~chi_10 t )
     2.34718430E-01    2     1000006        25   # BR(~t_2 -> ~t_1    h )
     2.49780334E-01    2     1000006        23   # BR(~t_2 -> ~t_1    Z )
     3.37354207E-01    2     1000005        24   # BR(~t_2 -> ~b_1    W+)
     1.42785862E-01    2     2000005        24   # BR(~t_2 -> ~b_2    W+)
#
#         PDG            Width
DECAY   1000005     8.88810159E-02   # sbottom1 decays
#          BR         NDA      ID1       ID2
     1.00000000E+00    2     1000022         5   # BR(~b_1 -> ~chi_10 b )
#
#         PDG            Width
DECAY   2000005     1.81922984E-01   # sbottom2 decays
#          BR         NDA      ID1       ID2
     1.00000000E+00    2     1000022         5   # BR(~b_2 -> ~chi_10 b )
#
#         PDG            Width
DECAY   1000002     3.51194579E-02   # sup_L decays
#          BR         NDA      ID1       ID2
     1.00000000E+00    2     1000022         2   # BR(~u_L -> ~chi_10 u)
#
#         PDG            Width
DECAY   2000002     3.71281637E-03   # sup_R decays
#          BR         NDA      ID1       ID2
     1.00000000E+00    2     1000022         2   # BR(~u_R -> ~chi_10 u)
#
#         PDG            Width
DECAY   1000001     3.59723507E-02   # sdown_L decays
#          BR         NDA      ID1       ID2
     1.00000000E+00    2     1000022         1   # BR(~d_L -> ~chi_10 d)
#
#         PDG            Width
DECAY   2000001     9.30038668E-01   # sdown_R decays
#          BR         NDA      ID1       ID2
     1.00000000E+00    2     1000022         1   # BR(~d_R -> ~chi_10 d)
#
#         PDG            Width
DECAY   1000004     3.36911618E-02   # scharm_L decays
#          BR         NDA      ID1       ID2
     1.00000000E+00    2     1000022         4   # BR(~c_L -> ~chi_10 c)
#
#         PDG            Width
DECAY   2000004     3.20793747E-03   # scharm_R decays
#          BR         NDA      ID1       ID2
     1.00000000E+00    2     1000022         4   # BR(~c_R -> ~chi_10 c)
#
#         PDG            Width
DECAY   1000003     3.45232802E-02   # sstrange_L decays
#          BR         NDA      ID1       ID2
     1.00000000E+00    2     1000022         3   # BR(~s_L -> ~chi_10 s)
#
#         PDG            Width
DECAY   2000003     9.44953154E-01   # sstrange_R decays
#          BR         NDA      ID1       ID2
     1.00000000E+00    2     1000022         3   # BR(~s_R -> ~chi_10 s)
#
#         PDG            Width
DECAY   1000011     4.54414291E-01   # selectron_L decays
#          BR         NDA      ID1       ID2
     1.00000000E+00    2     1000022        11   # BR(~e_L -> ~chi_10 e-)
#
#         PDG            Width
DECAY   2000011     1.69239984E+01   # selectron_R decays
#          BR         NDA      ID1       ID2
     9.99978122E-01    2     1000022        11   # BR(~e_R -> ~chi_10 e-)
     1.67792169E-05    2     1000023        11   # BR(~e_R -> ~chi_20 e-)
     5.09887214E-06    2     1000025        11   # BR(~e_R -> ~chi_30 e-)
#
#         PDG            Width
DECAY   1000013     4.54414258E-01   # smuon_L decays
#          BR         NDA      ID1       ID2
     1.00000000E+00    2     1000022        13   # BR(~mu_L -> ~chi_10 mu-)
#
#         PDG            Width
DECAY   2000013     1.69239984E+01   # smuon_R decays
#          BR         NDA      ID1       ID2
     9.99978122E-01    2     1000022        13   # BR(~mu_R -> ~chi_10 mu-)
     1.67792165E-05    2     1000023        13   # BR(~mu_R -> ~chi_20 mu-)
     5.09887202E-06    2     1000025        13   # BR(~mu_R -> ~chi_30 mu-)
#
#         PDG            Width
DECAY   1000015     1.79924467E+00   # stau_1 decays
#          BR         NDA      ID1       ID2
     1.00000000E+00    2     1000022        15   # BR(~tau_1 -> ~chi_10  tau-)
#
#         PDG            Width
DECAY   2000015     1.60274548E+01   # stau_2 decays
#          BR         NDA      ID1       ID2
     9.31709934E-01    2     1000022        15   # BR(~tau_2 -> ~chi_10  tau-)
     2.28658264E-04    2     1000023        15   # BR(~tau_2 -> ~chi_20  tau-)
     2.13511755E-04    2     1000025        15   # BR(~tau_2 -> ~chi_30  tau-)
     4.54105796E-04    2    -1000024        16   # BR(~tau_2 -> ~chi_1-  nu_tau)
     3.26670463E-02    2     1000016       -24   # BR(~tau_2 -> ~nu_tauL W-)
     1.79768823E-02    2     1000015        25   # BR(~tau_2 -> ~tau_1   h)
     1.67498618E-02    2     1000015        23   # BR(~tau_2 -> ~tau_1   Z)
#
#         PDG            Width
DECAY   1000012     4.48597821E-01   # snu_eL decays
#          BR         NDA      ID1       ID2
     1.00000000E+00    2     1000022        12   # BR(~nu_eL -> ~chi_10 nu_e)
#
#         PDG            Width
DECAY   1000014     4.48597821E-01   # snu_muL decays
#          BR         NDA      ID1       ID2
     1.00000000E+00    2     1000022        14   # BR(~nu_muL -> ~chi_10 nu_mu)
#
#         PDG            Width
DECAY   1000016     1.79777808E+00   # snu_tauL decays
#          BR         NDA      ID1       ID2
     1.00000000E+00    2     1000022        16   # BR(~nu_tauL -> ~chi_10 nu_tau)
#
#         PDG            Width
DECAY   1000024     6.50065740E+01   # chargino1+ decays
#          BR         NDA      ID1       ID2
     5.36431931E-03    2     1000002        -1   # BR(~chi_1+ -> ~u_L     db)
     3.95628295E-03    2    -1000001         2   # BR(~chi_1+ -> ~d_L*    u )
     5.36431929E-03    2     1000004        -3   # BR(~chi_1+ -> ~c_L     sb)
     3.95628273E-03    2    -1000003         4   # BR(~chi_1+ -> ~s_L*     c )
     4.85991070E-02    2     1000006        -5   # BR(~chi_1+ -> ~t_1     bb)
     1.09573840E-01    2     2000006        -5   # BR(~chi_1+ -> ~t_2     bb)
     5.55926713E-01    2    -1000005         6   # BR(~chi_1+ -> ~b_1*    t )
     2.26952659E-01    2    -2000005         6   # BR(~chi_1+ -> ~b_2*    t )
     1.80561227E-03    2     1000012       -11   # BR(~chi_1+ -> ~nu_eL   e+  )
     1.80561227E-03    2     1000014       -13   # BR(~chi_1+ -> ~nu_muL  mu+ )
     3.56600500E-03    2     1000016       -15   # BR(~chi_1+ -> ~nu_tau1 tau+)
     1.33141147E-03    2    -1000011        12   # BR(~chi_1+ -> ~e_L+    nu_e)
     1.33141147E-03    2    -1000013        14   # BR(~chi_1+ -> ~mu_L+   nu_mu)
     7.22242873E-04    2    -1000015        16   # BR(~chi_1+ -> ~tau_1+  nu_tau)
     2.85707322E-02    2     1000022        24   # BR(~chi_1+ -> ~chi_10  W+)
     1.17344981E-03    2     1000022        37   # BR(~chi_1+ -> ~chi_10  H+)
#
#         PDG            Width
DECAY   1000037     3.01847484E+02   # chargino2+ decays
#          BR         NDA      ID1       ID2
     1.19369829E-01    2     1000002        -1   # BR(~chi_2+ -> ~u_L     db)
     1.19637050E-01    2    -1000001         2   # BR(~chi_2+ -> ~d_L*    u )
     1.19369829E-01    2     1000004        -3   # BR(~chi_2+ -> ~c_L     sb)
     1.19637047E-01    2    -1000003         4   # BR(~chi_2+ -> ~s_L*     c )
     1.16747235E-01    2     1000006        -5   # BR(~chi_2+ -> ~t_1     bb)
     2.88051109E-03    2     2000006        -5   # BR(~chi_2+ -> ~t_2     bb)
     8.07471623E-02    2    -1000005         6   # BR(~chi_2+ -> ~b_1*    t )
     3.99123459E-02    2    -2000005         6   # BR(~chi_2+ -> ~b_2*    t )
     4.04862894E-02    2     1000012       -11   # BR(~chi_2+ -> ~nu_eL   e+  )
     4.04862894E-02    2     1000014       -13   # BR(~chi_2+ -> ~nu_muL mu+ )
     2.70390080E-02    2     1000016       -15   # BR(~chi_2+ -> ~nu_tau1 tau+)
     4.05718962E-02    2    -1000011        12   # BR(~chi_2+ -> ~e_L+    nu_e)
     4.05718962E-02    2    -1000013        14   # BR(~chi_2+ -> ~mu_L+   nu_mu)
     2.70708746E-02    2    -1000015        16   # BR(~chi_2+ -> ~tau_1+  nu_tau)
     2.08506419E-06    2    -2000015        16   # BR(~chi_2+ -> ~tau_2+  nu_tau)
     1.48963815E-02    2     1000024        23   # BR(~chi_2+ -> ~chi_1+  Z )
     6.76909074E-05    2     1000022        24   # BR(~chi_2+ -> ~chi_10  W+)
     2.24438936E-02    2     1000023        24   # BR(~chi_2+ -> ~chi_20  W+)
     1.43329983E-02    2     1000025        24   # BR(~chi_2+ -> ~chi_30  W+)
     1.37238884E-02    2     1000024        25   # BR(~chi_2+ -> ~chi_1+  h )
     5.79971148E-06    2     1000022        37   # BR(~chi_2+ -> ~chi_10  H+)
#
#         PDG            Width
DECAY   1000022     0.00000000E+00   # neutralino1 decays
#
#         PDG            Width
DECAY   1000023     6.62019489E+01   # neutralino2 decays
#          BR         NDA      ID1       ID2
     6.78978173E-03    2     1000022        23   # BR(~chi_20 -> ~chi_10   Z )
     2.24593841E-02    2     1000022        25   # BR(~chi_20 -> ~chi_10   h )
     1.13027815E-03    2     1000022        35   # BR(~chi_20 -> ~chi_10   H )
     4.53004921E-05    2     1000022        36   # BR(~chi_20 -> ~chi_10   A )
     2.99580532E-03    2     1000002        -2   # BR(~chi_20 -> ~u_L      ub)
     2.99580532E-03    2    -1000002         2   # BR(~chi_20 -> ~u_L*     u )
     2.81780547E-05    2     2000002        -2   # BR(~chi_20 -> ~u_R      ub)
     2.81780547E-05    2    -2000002         2   # BR(~chi_20 -> ~u_R*     u )
     2.71904614E-03    2     1000001        -1   # BR(~chi_20 -> ~d_L      db)
     2.71904614E-03    2    -1000001         1   # BR(~chi_20 -> ~d_L*     d )
     2.44075452E-06    2     2000001        -1   # BR(~chi_20 -> ~d_R      db)
     2.44075452E-06    2    -2000001         1   # BR(~chi_20 -> ~d_R*     d )
     2.99580515E-03    2     1000004        -4   # BR(~chi_20 -> ~c_L      cb)
     2.99580515E-03    2    -1000004         4   # BR(~chi_20 -> ~c_L*     c )
     2.81780540E-05    2     2000004        -4   # BR(~chi_20 -> ~c_R      cb)
     2.81780540E-05    2    -2000004         4   # BR(~chi_20 -> ~c_R*     c )
     2.71904614E-03    2     1000003        -3   # BR(~chi_20 -> ~s _L      sb)
     2.71904614E-03    2    -1000003         3   # BR(~chi_20 -> ~s _L*     s )
     2.44075452E-06    2     2000003        -3   # BR(~chi_20 -> ~s _R      sb)
     2.44075452E-06    2    -2000003         3   # BR(~chi_20 -> ~s _R*     s )
     3.97896701E-01    2     1000006        -6   # BR(~chi_20 -> ~t_1      tb)
     3.97896701E-01    2    -1000006         6   # BR(~chi_20 -> ~t_1*     t )
     4.79985320E-02    2     2000006        -6   # BR(~chi_20 -> ~t_2      tb)
     4.79985320E-02    2    -2000006         6   # BR(~chi_20 -> ~t_2*     t )
     1.57818452E-02    2     1000005        -5   # BR(~chi_20 -> ~b_1      bb)
     1.57818452E-02    2    -1000005         5   # BR(~chi_20 -> ~b_1*     b )
     5.45008107E-03    2     2000005        -5   # BR(~chi_20 -> ~b_2      bb)
     5.45008107E-03    2    -2000005         5   # BR(~chi_20 -> ~b_2*     b )
     1.10267546E-03    2     1000011       -11   # BR(~chi_20 -> ~e_L-     e+)
     1.10267546E-03    2    -1000011        11   # BR(~chi_20 -> ~e_L+     e-)
     1.10267546E-03    2     1000013       -13   # BR(~chi_20 -> ~mu_L-    mu+)
     1.10267546E-03    2    -1000013        13   # BR(~chi_20 -> ~mu_L+    mu-)
     1.87193532E-03    2     1000015       -15   # BR(~chi_20 -> ~tau_1-   tau+)
     1.87193532E-03    2    -1000015        15   # BR(~chi_20 -> ~tau_1+   tau-)
     8.29185151E-04    2     1000012       -12   # BR(~chi_20 -> ~nu_eL    nu_eb)
     8.29185151E-04    2    -1000012        12   # BR(~chi_20 -> ~nu_eL*   nu_e )
     8.29185151E-04    2     1000014       -14   # BR(~chi_20 -> ~nu_muL   nu_mub)
     8.29185151E-04    2    -1000014        14   # BR(~chi_20 -> ~nu_muL*  nu_mu )
     4.33872012E-04    2     1000016       -16   # BR(~chi_20 -> ~nu_tau1  nu_taub)
     4.33872012E-04    2    -1000016        16   # BR(~chi_20 -> ~nu_tau1* nu_tau )
#
#         PDG            Width
DECAY   1000025     6.08051165E+01   # neutralino3 decays
#          BR         NDA      ID1       ID2
     2.43304087E-02    2     1000022        23   # BR(~chi_30 -> ~chi_10   Z )
     8.20936749E-03    2     1000022        25   # BR(~chi_30 -> ~chi_10   h )
     6.25528255E-05    2     1000022        35   # BR(~chi_30 -> ~chi_10   H )
     1.32588109E-03    2     1000022        36   # BR(~chi_30 -> ~chi_10   A )
     9.80888560E-06    2     1000002        -2   # BR(~chi_30 -> ~u_L      ub)
     9.80888560E-06    2    -1000002         2   # BR(~chi_30 -> ~u_L*     u )
     9.55527187E-06    2     2000002        -2   # BR(~chi_30 -> ~u_R      ub)
     9.55527187E-06    2    -2000002         2   # BR(~chi_30 -> ~u_R*     u )
     2.12884046E-05    2     1000001        -1   # BR(~chi_30 -> ~d_L      db)
     2.12884046E-05    2    -1000001         1   # BR(~chi_30 -> ~d_L*     d )
     8.32718508E-07    2     2000001        -1   # BR(~chi_30 -> ~d_R      db)
     8.32718508E-07    2    -2000001         1   # BR(~chi_30 -> ~d_R*     d )
     9.80888506E-06    2     1000004        -4   # BR(~chi_30 -> ~c_L      cb)
     9.80888506E-06    2    -1000004         4   # BR(~chi_30 -> ~c_L*     c )
     9.55527163E-06    2     2000004        -4   # BR(~chi_30 -> ~c_R      cb)
     9.55527163E-06    2    -2000004         4   # BR(~chi_30 -> ~c_R*     c )
     2.12884046E-05    2     1000003        -3   # BR(~chi_30 -> ~s _L      sb)
     2.12884046E-05    2    -1000003         3   # BR(~chi_30 -> ~s _L*     s )
     8.32718508E-07    2     2000003        -3   # BR(~chi_30 -> ~s _R      sb)
     8.32718508E-07    2    -2000003         3   # BR(~chi_30 -> ~s _R*     s )
     3.97137454E-01    2     1000006        -6   # BR(~chi_30 -> ~t_1      tb)
     3.97137454E-01    2    -1000006         6   # BR(~chi_30 -> ~t_1*     t )
     6.41967667E-02    2     2000006        -6   # BR(~chi_30 -> ~t_2      tb)
     6.41967667E-02    2    -2000006         6   # BR(~chi_30 -> ~t_2*     t )
     9.68217204E-03    2     1000005        -5   # BR(~chi_30 -> ~b_1      bb)
     9.68217204E-03    2    -1000005         5   # BR(~chi_30 -> ~b_1*     b )
     1.04885013E-02    2     2000005        -5   # BR(~chi_30 -> ~b_2      bb)
     1.04885013E-02    2    -2000005         5   # BR(~chi_30 -> ~b_2*     b )
     9.11025966E-07    2     1000011       -11   # BR(~chi_30 -> ~e_L-     e+)
     9.11025966E-07    2    -1000011        11   # BR(~chi_30 -> ~e_L+     e-)
     9.11025966E-07    2     1000013       -13   # BR(~chi_30 -> ~mu_L-    mu+)
     9.11025966E-07    2    -1000013        13   # BR(~chi_30 -> ~mu_L+    mu-)
     1.41454899E-03    2     1000015       -15   # BR(~chi_30 -> ~tau_1-   tau+)
     1.41454899E-03    2    -1000015        15   # BR(~chi_30 -> ~tau_1+   tau-)
     1.25379141E-05    2     1000012       -12   # BR(~chi_30 -> ~nu_eL    nu_eb)
     1.25379141E-05    2    -1000012        12   # BR(~chi_30 -> ~nu_eL*   nu_e )
     1.25379141E-05    2     1000014       -14   # BR(~chi_30 -> ~nu_muL   nu_mub)
     1.25379141E-05    2    -1000014        14   # BR(~chi_30 -> ~nu_muL*  nu_mu )
     6.58365847E-06    2     1000016       -16   # BR(~chi_30 -> ~nu_tau1  nu_taub)
     6.58365847E-06    2    -1000016        16   # BR(~chi_30 -> ~nu_tau1* nu_tau )
#
#         PDG            Width
DECAY   1000035     2.97780423E+02   # neutralino4 decays
#          BR         NDA      ID1       ID2
     2.84693474E-05    2     1000022        23   # BR(~chi_40 -> ~chi_10   Z )
     9.21900403E-05    2     1000023        23   # BR(~chi_40 -> ~chi_20   Z )
     1.85075776E-02    2     1000025        23   # BR(~chi_40 -> ~chi_30   Z )
     1.13667624E-02    2     1000024       -24   # BR(~chi_40 -> ~chi_1+   W-)
     1.13667624E-02    2    -1000024        24   # BR(~chi_40 -> ~chi_1-   W+)
     6.87017164E-05    2     1000022        25   # BR(~chi_40 -> ~chi_10   h )
     5.64438425E-06    2     1000022        35   # BR(~chi_40 -> ~chi_10   H )
     3.23212833E-06    2     1000022        36   # BR(~chi_40 -> ~chi_10   A )
     1.36716546E-02    2     1000023        25   # BR(~chi_40 -> ~chi_20   h )
     8.35519193E-05    2     1000025        25   # BR(~chi_40 -> ~chi_30   h )
     6.03959721E-02    2     1000002        -2   # BR(~chi_40 -> ~u_L      ub)
     6.03959721E-02    2    -1000002         2   # BR(~chi_40 -> ~u_L*     u )
     7.59620093E-08    2     2000002        -2   # BR(~chi_40 -> ~u_R      ub)
     7.59620093E-08    2    -2000002         2   # BR(~chi_40 -> ~u_R*     u )
     6.04018427E-02    2     1000001        -1   # BR(~chi_40 -> ~d_L      db)
     6.04018427E-02    2    -1000001         1   # BR(~chi_40 -> ~d_L*     d )
     9.91526240E-09    2     2000001        -1   # BR(~chi_40 -> ~d_R      db)
     9.91526240E-09    2    -2000001         1   # BR(~chi_40 -> ~d_R*     d )
     6.03959706E-02    2     1000004        -4   # BR(~chi_40 -> ~c_L      cb)
     6.03959706E-02    2    -1000004         4   # BR(~chi_40 -> ~c_L*     c )
     7.59620085E-08    2     2000004        -4   # BR(~chi_40 -> ~c_R      cb)
     7.59620085E-08    2    -2000004         4   # BR(~chi_40 -> ~c_R*     c )
     6.04018427E-02    2     1000003        -3   # BR(~chi_40 -> ~s _L      sb)
     6.04018427E-02    2    -1000003         3   # BR(~chi_40 -> ~s _L*     s )
     9.91526240E-09    2     2000003        -3   # BR(~chi_40 -> ~s _R      sb)
     9.91526240E-09    2    -2000003         3   # BR(~chi_40 -> ~s _R*     s )
     5.83707667E-02    2     1000006        -6   # BR(~chi_40 -> ~t_1      tb)
     5.83707667E-02    2    -1000006         6   # BR(~chi_40 -> ~t_1*     t )
     1.60510933E-03    2     2000006        -6   # BR(~chi_40 -> ~t_2      tb)
     1.60510933E-03    2    -2000006         6   # BR(~chi_40 -> ~t_2*     t )
     4.10257985E-02    2     1000005        -5   # BR(~chi_40 -> ~b_1      bb)
     4.10257985E-02    2    -1000005         5   # BR(~chi_40 -> ~b_1*     b )
     2.05205257E-02    2     2000005        -5   # BR(~chi_40 -> ~b_2      bb)
     2.05205257E-02    2    -2000005         5   # BR(~chi_40 -> ~b_2*     b )
     2.04390520E-02    2     1000011       -11   # BR(~chi_40 -> ~e_L-     e+)
     2.04390520E-02    2    -1000011        11   # BR(~chi_40 -> ~e_L+     e-)
     2.02859141E-10    2     2000011       -11   # BR(~chi_40 -> ~e_R-     e+)
     2.02859141E-10    2    -2000011        11   # BR(~chi_40 -> ~e_R+     e-)
     2.04390520E-02    2     1000013       -13   # BR(~chi_40 -> ~mu_L-    mu+)
     2.04390520E-02    2    -1000013        13   # BR(~chi_40 -> ~mu_L+    mu-)
     2.02859141E-10    2     2000013       -13   # BR(~chi_40 -> ~mu_R-    mu+)
     2.02859141E-10    2    -2000013        13   # BR(~chi_40 -> ~mu_R+    mu-)
     1.36410868E-02    2     1000015       -15   # BR(~chi_40 -> ~tau_1-   tau+)
     1.36410868E-02    2    -1000015        15   # BR(~chi_40 -> ~tau_1+   tau-)
     1.24120584E-06    2     2000015       -15   # BR(~chi_40 -> ~tau_2-   tau+)
     1.24120584E-06    2    -2000015        15   # BR(~chi_40 -> ~tau_2+   tau-)
     2.05290475E-02    2     1000012       -12   # BR(~chi_40 -> ~nu_eL    nu_eb)
     2.05290475E-02    2    -1000012        12   # BR(~chi_40 -> ~nu_eL*   nu_e )
     2.05290475E-02    2     1000014       -14   # BR(~chi_40 -> ~nu_muL   nu_mub)
     2.05290475E-02    2    -1000014        14   # BR(~chi_40 -> ~nu_muL*  nu_mu )
     1.37061992E-02    2     1000016       -16   # BR(~chi_40 -> ~nu_tau1  nu_taub)
     1.37061992E-02    2    -1000016        16   # BR(~chi_40 -> ~nu_tau1* nu_tau )
#
#         PDG            Width
DECAY        25     5.10219173E-03   # h decays
#          BR         NDA      ID1       ID2
     6.73307994E-01    2           5        -5   # BR(h -> b       bb     )
     5.13203716E-02    2         -15        15   # BR(h -> tau+    tau-   )
     1.81645590E-04    2         -13        13   # BR(h -> mu+     mu-    )
     1.97862624E-04    2           3        -3   # BR(h -> s       sb     )
     1.70405632E-02    2           4        -4   # BR(h -> c       cb     )
     6.12539863E-02    2          21        21   # BR(h -> g       g      )
     1.88713182E-03    2          22        22   # BR(h -> gam     gam    )
     1.26830389E-03    2          22        23   # BR(h -> Z       gam    )
     1.71940329E-01    2          24       -24   # BR(h -> W+      W-     )
     2.16018116E-02    2          23        23   # BR(h -> Z       Z      )
#
#         PDG            Width
DECAY        35     6.61864639E+00   # H decays
#          BR         NDA      ID1       ID2
     4.24996178E-01    2           5        -5   # BR(H -> b       bb     )
     8.55310041E-02    2         -15        15   # BR(H -> tau+    tau-   )
     2.99246334E-04    2         -13        13   # BR(H -> mu+     mu-    )
     1.35724410E-04    2           3        -3   # BR(H -> s       sb     )
     1.21572465E-06    2           4        -4   # BR(H -> c       cb     )
     1.18556515E-01    2           6        -6   # BR(H -> t       tb     )
     4.96754298E-04    2          21        21   # BR(H -> g       g      )
     2.56680307E-06    2          22        22   # BR(H -> gam     gam    )
     8.53513895E-08    2          23        22   # BR(H -> Z       gam    )
     9.89229574E-05    2          24       -24   # BR(H -> W+      W-     )
     4.93091855E-05    2          23        23   # BR(H -> Z       Z      )
     3.78075957E-04    2          25        25   # BR(H -> h       h      )
     1.43697115E-04    2     1000022   1000022   # BR(H -> ~chi_10 ~chi_10)
     5.13771010E-05    2     1000002  -1000002   # BR(H -> ~u_L    ~u_L*  )
     1.10147080E-05    2     2000002  -2000002   # BR(H -> ~u_R    ~u_R*  )
     5.13771010E-05    2     1000004  -1000004   # BR(H -> ~c_L    ~c_L*  )
     1.10147080E-05    2     2000004  -2000004   # BR(H -> ~c_R    ~c_R*  )
     3.52520499E-01    2     1000006  -1000006   # BR(H -> ~t_1    ~t_1*  )
     7.50751159E-05    2     1000001  -1000001   # BR(H -> ~d_L    ~d_L*  )
     7.50751159E-05    2     1000003  -1000003   # BR(H -> ~s_L    ~s_L*  )
     8.60264166E-03    2     1000005  -1000005   # BR(H -> ~b_1    ~b_1*  )
     6.11435568E-03    2     2000005  -2000005   # BR(H -> ~b_2    ~b_2*  )
     8.58453597E-04    2     1000005  -2000005   # BR(H -> ~b_1    ~b_2*  )
     8.58453597E-04    2     2000005  -1000005   # BR(H -> ~b_2    ~b_1*  )
     9.52555269E-06    2     1000011  -1000011   # BR(H -> ~e_L-   ~e_L+  )
     9.52555269E-06    2     1000013  -1000013   # BR(H -> ~mu_L-  ~mu_L+ )
     3.11583310E-05    2     1000012  -1000012   # BR(H -> ~nu_eL  ~nu_eL*   )
     3.11583310E-05    2     1000014  -1000014   # BR(H -> ~nu_muL ~nu_muL*  )
#
#         PDG            Width
DECAY        36     4.28476612E+00   # A decays
#          BR         NDA      ID1       ID2
     6.56840655E-01    2           5        -5   # BR(A -> b       bb     )
     1.32150437E-01    2         -15        15   # BR(A -> tau+    tau-   )
     4.62352308E-04    2         -13        13   # BR(A -> mu+     mu-    )
     2.09819731E-04    2           3        -3   # BR(A -> s       sb     )
     1.87859425E-06    2           4        -4   # BR(A -> c       cb     )
     1.84279606E-01    2           6        -6   # BR(A -> t       tb     )
     3.05031958E-04    2          21        21   # BR(A -> g       g      )
     5.56381860E-07    2          22        22   # BR(A -> gam     gam    )
     3.16824973E-07    2          23        22   # BR(A -> Z       gam    )
     1.54515983E-04    2          23        25   # BR(A -> Z       h      )
     3.11543188E-04    2     1000022   1000022   # BR(A -> ~chi_10 ~chi_10)
     1.26416433E-02    2     1000005  -2000005   # BR(A -> ~b_1    ~b_2*  )
     1.26416433E-02    2    -1000005   2000005   # BR(A -> ~b_1*   ~b_2   )
#
#         PDG            Width
DECAY        37     5.30437758E+00   # H+ decays
#          BR         NDA      ID1       ID2
     5.55501467E-04    2           4        -5   # BR(H+ -> c       bb     )
     1.06797537E-01    2         -15        16   # BR(H+ -> tau+    nu_tau )
     3.73650581E-04    2         -13        14   # BR(H+ -> mu+     nu_mu  )
     5.55497962E-06    2           2        -5   # BR(H+ -> u       bb     )
     8.47007297E-06    2           2        -3   # BR(H+ -> u       sb     )
     1.68171296E-04    2           4        -3   # BR(H+ -> c       sb     )
     4.75610184E-01    2           6        -5   # BR(H+ -> t       bb     )
     1.25118789E-04    2          24        25   # BR(H+ -> W+      h      )
     3.47712214E-13    2          24        36   # BR(H+ -> W+      A      )
     4.66427035E-05    2    -1000011   1000012   # BR(H+ -> ~e_L+   ~nu_eL )
     4.66427035E-05    2    -1000013   1000014   # BR(H+ -> ~mu_L+  ~nu_muL)
     1.55708270E-04    2     1000002  -1000001   # BR(H+ -> ~u_L    ~d_L*  )
     1.55708270E-04    2     1000004  -1000003   # BR(H+ -> ~c_L    ~s_L*  )
     6.74710312E-02    2     1000006  -1000005   # BR(H+ -> ~t_1    ~b_1*  )
     3.48480078E-01    2     1000006  -2000005   # BR(H+ -> ~t_1    ~b_2*  )
