#
#                              ======================
#                              | THE SUSYHIT OUTPUT |
#                              ======================
#
#
#              ------------------------------------------------------
#              |     This is the output of the SUSY-HIT package     |
#              |  created by A.Djouadi, M.Muehlleitner and M.Spira. |
#              |  In case of problems with SUSY-HIT email to        |
#              |           margarete.muehlleitner@cern.ch           |
#              |           michael.spira@psi.ch                     |
#              |           abdelhak.djouadi@cern.ch                 |
#              ------------------------------------------------------
#
#              ------------------------------------------------------
#              |  SUSY Les Houches Accord - MSSM Spectrum + Decays  |
#              |              based on the decay programs           |
#              |                                                    |
#              |                     SDECAY 1.3b                    |
#              |                                                    |
#              |  Authors: M.Muhlleitner, A.Djouadi and Y.Mambrini  |
#              |  Ref.:    Comput.Phys.Commun.168(2005)46           |
#              |           [hep-ph/0311167]                         |
#              |                                                    |
#              |                     HDECAY 3.4                     |
#              |                                                    |
#              |  By: A.Djouadi,J.Kalinowski,M.Muhlleitner,M.Spira  |
#              |  Ref.:    Comput.Phys.Commun.108(1998)56           |
#              |           [hep-ph/9704448]                         |
#              |                                                    |
#              |                                                    |
#              |  If not stated otherwise all DRbar couplings and   |
#              |  soft SUSY breaking masses are given at the scale  |
#              |  Q=  0.15942790E+04
#              |                                                    |
#              ------------------------------------------------------
#
#
BLOCK DCINFO  # Decay Program information
     1   SDECAY/HDECAY # decay calculator
     2   1.3b  /3.4    # version number
#
BLOCK SPINFO  # Spectrum calculator information
     1     SOFTSUSY    # spectrum calculator               
     2     3.4.0       # version number                    
#
BLOCK MODSEL  # Model selection
     1     0   #  nonUniversal                                     
#
BLOCK SMINPUTS  # Standard Model inputs
         1     1.27908970E+02   # alpha_em^-1(M_Z)^MSbar
         2     1.16637870E-05   # G_F [GeV^-2]
         3     1.18400000E-01   # alpha_S(M_Z)^MSbar
         4     9.11876000E+01   # M_Z pole mass
         5     4.18000000E+00   # mb(mb)^MSbar
         6     1.73200000E+02   # mt pole mass
         7     1.77700000E+00   # mtau pole mass
#
BLOCK MINPAR  # Input parameters - minimal models
         3     5.67100000E+01   # tanb                
#
BLOCK EXTPAR  # Input parameters - non-minimal models
         0    -1.00000000E+00   # Set                 
         1    -3.12526000E+03   # M_1(MX)             
         2     1.43230000E+03   # M_2(MX)             
         3     1.61723000E+03   # M_3(MX)             
        11     2.86370000E+03   # At(MX)              
        12     1.44222000E+03   # Ab(MX)              
        13     1.90163000E+03   # Atau(MX)            
        23     5.42660000E+02   # mu(MX)              
        26     3.37363000E+03   # mA(pole)            
        31     1.10510000E+03   # meL(MX)             
        32     1.10510000E+03   # mmuL(MX)            
        33     1.12383000E+03   # mtauL(MX)           
        34     2.46714000E+03   # meR(MX)             
        35     2.46714000E+03   # mmuR(MX)            
        36     3.76289000E+03   # mtauR(MX)           
        41     3.84111000E+03   # mqL1(MX)            
        42     3.84111000E+03   # mqL2(MX)            
        43     1.24540000E+03   # mqL3(MX)            
        44     7.29670000E+02   # muR(MX)             
        45     7.29670000E+02   # mcR(MX)             
        46     2.05118000E+03   # mtR(MX)             
        47     2.97362000E+03   # mdR(MX)             
        48     2.97362000E+03   # msR(MX)             
        49     1.09123000E+03   # mbR(MX)             
#
BLOCK MASS  # Mass Spectrum
# PDG code           mass       particle
        24     8.04092816E+01   # W+
        25     1.27900963E+02   # h
        35     3.37373865E+03   # H
        36     3.37363015E+03   # A
        37     3.37471351E+03   # H+
         5     4.81876030E+00   # b-quark pole mass calculated from mb(mb)_Msbar
   1000001     3.87649592E+03   # ~d_L
   2000001     3.00501707E+03   # ~d_R
   1000002     3.87581391E+03   # ~u_L
   2000002     7.97611203E+02   # ~u_R
   1000003     3.87649592E+03   # ~s_L
   2000003     3.00501707E+03   # ~s_R
   1000004     3.87581391E+03   # ~c_L
   2000004     7.97611203E+02   # ~c_R
   1000005     1.16928161E+03   # ~b_1
   2000005     1.31452346E+03   # ~b_2
   1000006     1.29269853E+03   # ~t_1
   2000006     2.05107620E+03   # ~t_2
   1000011     1.11195501E+03   # ~e_L
   2000011     2.47762956E+03   # ~e_R
   1000012     1.10879964E+03   # ~nu_eL
   1000013     1.11195501E+03   # ~mu_L
   2000013     2.47762956E+03   # ~mu_R
   1000014     1.10879964E+03   # ~nu_muL
   1000015     1.15248648E+03   # ~tau_1
   2000015     3.76992829E+03   # ~tau_2
   1000016     1.14956850E+03   # ~nu_tauL
   1000021     1.74919661E+03   # ~g
   1000022     5.54037700E+02   # ~chi_10
   1000023    -5.57781536E+02   # ~chi_20
   1000025     1.46449128E+03   # ~chi_30
   1000035    -3.11050013E+03   # ~chi_40
   1000024     5.55257574E+02   # ~chi_1+
   1000037     1.46467060E+03   # ~chi_2+
#
BLOCK NMIX  # Neutralino Mixing Matrix
  1  1    -8.57516805E-03   # N_11
  1  2    -6.20771585E-02   # N_12
  1  3     7.07504275E-01   # N_13
  1  4    -7.03925134E-01   # N_14
  2  1     1.20343411E-02   # N_21
  2  2     2.73955381E-02   # N_22
  2  3     7.06275694E-01   # N_23
  2  4     7.07304250E-01   # N_24
  3  1    -6.21284022E-04   # N_31
  3  2     9.97695270E-01   # N_32
  3  3     2.46272259E-02   # N_33
  3  4    -6.32238999E-02   # N_34
  4  1     9.99890622E-01   # N_41
  4  2    -2.42183674E-04   # N_42
  4  3    -2.41755846E-03   # N_43
  4  4    -1.45890926E-02   # N_44
#
BLOCK UMIX  # Chargino Mixing Matrix U
  1  1    -3.48543050E-02   # U_11
  1  2     9.99392404E-01   # U_12
  2  1    -9.99392404E-01   # U_21
  2  2    -3.48543050E-02   # U_22
#
BLOCK VMIX  # Chargino Mixing Matrix V
  1  1    -8.94790004E-02   # V_11
  1  2     9.95988709E-01   # V_12
  2  1    -9.95988709E-01   # V_21
  2  2    -8.94790004E-02   # V_22
#
BLOCK STOPMIX  # Stop Mixing Matrix
  1  1     9.87274065E-01   # cos(theta_t)
  1  2    -1.59028050E-01   # sin(theta_t)
  2  1     1.59028050E-01   # -sin(theta_t)
  2  2     9.87274065E-01   # cos(theta_t)
#
BLOCK SBOTMIX  # Sbottom Mixing Matrix
  1  1     1.53563728E-01   # cos(theta_b)
  1  2     9.88138746E-01   # sin(theta_b)
  2  1    -9.88138746E-01   # -sin(theta_b)
  2  2     1.53563728E-01   # cos(theta_b)
#
BLOCK STAUMIX  # Stau Mixing Matrix
  1  1     9.99990554E-01   # cos(theta_tau)
  1  2     4.34648257E-03   # sin(theta_tau)
  2  1    -4.34648257E-03   # -sin(theta_tau)
  2  2     9.99990554E-01   # cos(theta_tau)
#
BLOCK ALPHA  # Higgs mixing
          -1.79298449E-02   # Mixing angle in the neutral Higgs boson sector
#
BLOCK HMIX Q=  1.59427900E+03  # DRbar Higgs Parameters
         1     5.49508953E+02   # mu(Q)MSSM           
         2     5.59283299E+01   # tan                 
         3     2.43110505E+02   # higgs               
         4     1.16234915E+07   # mA^2(Q)MSSM         
#
BLOCK GAUGE Q=  1.59427900E+03  # The gauge couplings
     1     3.63313288E-01   # gprime(Q) DRbar
     2     6.38023566E-01   # g(Q) DRbar
     3     1.03587321E+00   # g3(Q) DRbar
#
BLOCK AU Q=  1.59427900E+03  # The trilinear couplings
  1  1     0.00000000E+00   # A_u(Q) DRbar
  2  2     0.00000000E+00   # A_c(Q) DRbar
  3  3     2.86370000E+03   # A_t(Q) DRbar
#
BLOCK AD Q=  1.59427900E+03  # The trilinear couplings
  1  1     0.00000000E+00   # A_d(Q) DRbar
  2  2     0.00000000E+00   # A_s(Q) DRbar
  3  3     1.44222000E+03   # A_b(Q) DRbar
#
BLOCK AE Q=  1.59427900E+03  # The trilinear couplings
  1  1     0.00000000E+00   # A_e(Q) DRbar
  2  2     0.00000000E+00   # A_mu(Q) DRbar
  3  3     1.90163000E+03   # A_tau(Q) DRbar
#
BLOCK Yu Q=  1.59427900E+03  # The Yukawa couplings
  1  1     0.00000000E+00   # y_u(Q) DRbar
  2  2     0.00000000E+00   # y_c(Q) DRbar
  3  3     8.62276007E-01   # y_t(Q) DRbar
#
BLOCK Yd Q=  1.59427900E+03  # The Yukawa couplings
  1  1     0.00000000E+00   # y_d(Q) DRbar
  2  2     0.00000000E+00   # y_s(Q) DRbar
  3  3     6.11425414E-01   # y_b(Q) DRbar
#
BLOCK Ye Q=  1.59427900E+03  # The Yukawa couplings
  1  1     0.00000000E+00   # y_e(Q) DRbar
  2  2     0.00000000E+00   # y_mu(Q) DRbar
  3  3     6.27271144E-01   # y_tau(Q) DRbar
#
BLOCK MSOFT Q=  1.59427900E+03  # The soft SUSY breaking masses at the scale Q
         1    -3.12526000E+03   # M_1(Q)              
         2     1.43230000E+03   # M_2(Q)              
         3     1.61723000E+03   # M_3(Q)              
        21     1.12093714E+07   # mH1^2(Q)            
        22    -2.94220568E+05   # mH2^2(Q)            
        31     1.10510000E+03   # meL(Q)              
        32     1.10510000E+03   # mmuL(Q)             
        33     1.12383000E+03   # mtauL(Q)            
        34     2.46714000E+03   # meR(Q)              
        35     2.46714000E+03   # mmuR(Q)             
        36     3.76289000E+03   # mtauR(Q)            
        41     3.84111000E+03   # mqL1(Q)             
        42     3.84111000E+03   # mqL2(Q)             
        43     1.24540000E+03   # mqL3(Q)             
        44     7.29669996E+02   # muR(Q)              
        45     7.29669996E+02   # mcR(Q)              
        46     2.05118000E+03   # mtR(Q)              
        47     2.97362000E+03   # mdR(Q)              
        48     2.97362000E+03   # msR(Q)              
        49     1.09123000E+03   # mbR(Q)              
#
Block HiggsBoundsInputHiggsCouplingsFermions
# ScalarNormEffCoupSq PseudoSNormEffCoupSq NP   IP1 IP2 IP2
    1.00579402E+00    0.00000000E+00        3  25   5   5  # h0-b-b eff. coupling^2, normalised to SM
    3.12797229E+03    0.00000000E+00        3  35   5   5  # H0-b-b eff. coupling^2, normalised to SM
    0.00000000E+00    3.12797809E+03        3  36   5   5  # A0-b-b eff. coupling^2, normalised to SM
#
    9.99998148E-01    0.00000000E+00        3  25   6   6  # h0-t-t eff. coupling^2, normalised to SM
    3.21547654E-04    0.00000000E+00        3  35   6   6  # H0-t-t eff. coupling^2, normalised to SM
    0.00000000E+00    3.19695334E-04        3  36   6   6  # A0-t-t eff. coupling^2, normalised to SM
#
    1.00579402E+00    0.00000000E+00        3  25  15  15  # h0-tau-tau eff. coupling^2, normalised to SM
    3.12797229E+03    0.00000000E+00        3  35  15  15  # H0-tau-tau eff. coupling^2, normalised to SM
    0.00000000E+00    3.12797809E+03        3  36  15  15  # A0-tau-tau eff. coupling^2, normalised to SM
#
Block HiggsBoundsInputHiggsCouplingsBosons
    9.99999997E-01        3  25  24  24  # h0-W-W eff. coupling^2, normalised to SM
    2.67535065E-09        3  35  24  24  # H0-W-W eff. coupling^2, normalised to SM
    0.00000000E+00        3  36  24  24  # A0-W-W eff. coupling^2, normalised to SM
#
    9.99999997E-01        3  25  23  23  # h0-Z-Z eff. coupling^2, normalised to SM
    2.67535065E-09        3  35  23  23  # H0-Z-Z eff. coupling^2, normalised to SM
    0.00000000E+00        3  36  23  23  # A0-Z-Z eff. coupling^2, normalised to SM
#
    8.77573930E-01        3  25  21  21  # h0-g-g eff. coupling^2, normalised to SM
    5.41901947E-12        3  35  21  21  # H0-g-g eff. coupling^2, normalised to SM
    3.88912167E-12        3  36  21  21  # A0-g-g eff. coupling^2, normalised to SM
#
    0.00000000E+00        3  25  25  23  # h0-h0-Z eff. coupling^2, normalised to SM
    0.00000000E+00        3  35  25  23  # H0-h0-Z eff. coupling^2, normalised to SM
    2.67535065E-09        3  36  25  23  # A0-h0-Z eff. coupling^2, normalised to SM
    0.00000000E+00        3  35  35  23  # H0-H0-Z eff. coupling^2, normalised to SM
    9.99999997E-01        3  36  35  23  # A0-H0-Z eff. coupling^2, normalised to SM
    0.00000000E+00        3  36  36  23  # A0-A0-Z eff. coupling^2, normalised to SM
#
    0.00000000E+00        4  25  21  21  23  # h0-g-g-Z eff. coupling^2, normalised to SM
    0.00000000E+00        4  35  21  21  23  # H0-g-g-Z eff. coupling^2, normalised to SM
    0.00000000E+00        4  36  21  21  23  # A0-g-g-Z eff. coupling^2, normalised to SM
#
#
#
#                             =================
#                             |The decay table|
#                             =================
#
# - The QCD corrections to the decays gluino -> squark  + quark
#                                     squark -> gaugino + quark_prime
#                                     squark -> squark_prime + Higgs
#                                     squark -> gluino  + quark
#   are included.
#
# - The multi-body decays for the inos, stops and sbottoms are included.
#
# - The loop induced decays for the gluino, neutralinos and stops
#   are included.
#
# - The SUSY decays of the top quark are included.
#
#
#         PDG            Width
DECAY         6     1.43279222E+00   # top decays
#          BR         NDA      ID1       ID2
     1.00000000E+00    2           5        24   # BR(t ->  b    W+)
#
#         PDG            Width
DECAY   1000021     6.33155507E+01   # gluino decays
#          BR         NDA      ID1       ID2
     1.45029678E-01    2     2000002        -2   # BR(~g -> ~u_R  ub)
     1.45029678E-01    2    -2000002         2   # BR(~g -> ~u_R* u )
     1.45029576E-01    2     2000004        -4   # BR(~g -> ~c_R  cb)
     1.45029576E-01    2    -2000004         4   # BR(~g -> ~c_R* c )
     8.95002555E-02    2     1000005        -5   # BR(~g -> ~b_1  bb)
     8.95002555E-02    2    -1000005         5   # BR(~g -> ~b_1* b )
     5.58992530E-02    2     2000005        -5   # BR(~g -> ~b_2  bb)
     5.58992530E-02    2    -2000005         5   # BR(~g -> ~b_2* b )
     6.45412374E-02    2     1000006        -6   # BR(~g -> ~t_1  tb)
     6.45412374E-02    2    -1000006         6   # BR(~g -> ~t_1* t )
#
#         PDG            Width
DECAY   1000006     1.82553024E+01   # stop1 decays
#          BR         NDA      ID1       ID2
     3.34165142E-01    2     1000022         6   # BR(~t_1 -> ~chi_10 t )
     3.14027216E-01    2     1000023         6   # BR(~t_1 -> ~chi_20 t )
     3.47343891E-01    2     1000024         5   # BR(~t_1 -> ~chi_1+ b )
     4.46375099E-03    2     1000005        24   # BR(~t_1 -> ~b_1    W+)
#
#         PDG            Width
DECAY   2000006     1.18031785E+02   # stop2 decays
#          BR         NDA      ID1       ID2
     1.07455926E-01    2     1000022         6   # BR(~t_2 -> ~chi_10 t )
     1.10608998E-01    2     1000023         6   # BR(~t_2 -> ~chi_20 t )
     3.60551192E-05    2     1000025         6   # BR(~t_2 -> ~chi_30 t )
     2.20770603E-01    2     1000024         5   # BR(~t_2 -> ~chi_1+ b )
     5.24538003E-05    2     1000037         5   # BR(~t_2 -> ~chi_2+ b )
     6.85974161E-02    2     1000021         6   # BR(~t_2 -> ~g      t )
     1.32827171E-01    2     1000006        25   # BR(~t_2 -> ~t_1    h )
     1.24370869E-01    2     1000006        23   # BR(~t_2 -> ~t_1    Z )
     8.28534226E-03    2     1000005        24   # BR(~t_2 -> ~b_1    W+)
     2.26995166E-01    2     2000005        24   # BR(~t_2 -> ~b_2    W+)
#
#         PDG            Width
DECAY   1000005     9.84650029E+00   # sbottom1 decays
#          BR         NDA      ID1       ID2
     2.70289699E-01    2     1000022         5   # BR(~b_1 -> ~chi_10 b )
     2.61566803E-01    2     1000023         5   # BR(~b_1 -> ~chi_20 b )
     4.68143498E-01    2    -1000024         6   # BR(~b_1 -> ~chi_1- t )
#
#         PDG            Width
DECAY   2000005     1.91349885E+01   # sbottom2 decays
#          BR         NDA      ID1       ID2
     1.70608086E-01    2     1000022         5   # BR(~b_2 -> ~chi_10 b )
     1.72342805E-01    2     1000023         5   # BR(~b_2 -> ~chi_20 b )
     6.49752119E-01    2    -1000024         6   # BR(~b_2 -> ~chi_1- t )
     3.52304747E-03    2     1000005        25   # BR(~b_2 -> ~b_1    h )
     3.77394172E-03    2     1000005        23   # BR(~b_2 -> ~b_1    Z )
#
#         PDG            Width
DECAY   1000002     2.05850258E+02   # sup_L decays
#          BR         NDA      ID1       ID2
     2.86710584E-04    2     1000022         2   # BR(~u_L -> ~chi_10 u)
     6.21984218E-05    2     1000023         2   # BR(~u_L -> ~chi_20 u)
     5.39446850E-02    2     1000025         2   # BR(~u_L -> ~chi_30 u)
     3.41689892E-04    2     1000035         2   # BR(~u_L -> ~chi_40 u)
     1.13107854E-03    2     1000024         1   # BR(~u_L -> ~chi_1+ d)
     1.07537289E-01    2     1000037         1   # BR(~u_L -> ~chi_2+ d)
     8.36696348E-01    2     1000021         2   # BR(~u_L -> ~g      u)
#
#         PDG            Width
DECAY   2000002     1.10502219E-04   # sup_R decays
#           BR         NDA      ID1       ID2
     3.41776038E-01    2     1000022         2   # BR(~u_R -> ~chi_10 u)
     6.56407163E-01    2     1000023         2   # BR(~u_R -> ~chi_20 u)
#           BR         NDA      ID1       ID2       ID3
     3.65277732E-04    3        2       23        1000022   # BR(~u_R -> u  Z  ~chi_10)
     7.19976490E-05    3        2       25        1000022   # BR(~u_R -> u  h  ~chi_10)
     2.29452405E-04    3        2       23        1000023   # BR(~u_R -> u  Z  ~chi_20)
     1.74729522E-04    3        2       25        1000023   # BR(~u_R -> u  h  ~chi_20)
     4.70343495E-05    3        2       -24        1000024   # BR(~u_R -> u  W-  ~chi_1+)
     9.28307148E-04    3        2       24        -1000024   # BR(~u_R -> u  W+  ~chi_1-)
#
#         PDG            Width
DECAY   1000001     2.05871665E+02   # sdown_L decays
#          BR         NDA      ID1       ID2
     2.58180198E-04    2     1000022         1   # BR(~d_L -> ~chi_10 d)
     4.45280601E-05    2     1000023         1   # BR(~d_L -> ~chi_20 d)
     5.39804585E-02    2     1000025         1   # BR(~d_L -> ~chi_30 d)
     3.43894140E-04    2     1000035         1   # BR(~d_L -> ~chi_40 d)
     1.71633477E-04    2    -1000024         2   # BR(~d_L -> ~chi_1- u)
     1.08294134E-01    2    -1000037         2   # BR(~d_L -> ~chi_2- u)
     8.36907172E-01    2     1000021         1   # BR(~d_L -> ~g      d)
#
#         PDG            Width
DECAY   2000001     9.20568207E+01   # sdown_R decays
#          BR         NDA      ID1       ID2
     1.25695792E-06    2     1000022         1   # BR(~d_R -> ~chi_10 d)
     2.47328095E-06    2     1000023         1   # BR(~d_R -> ~chi_20 d)
     4.13055241E-09    2     1000025         1   # BR(~d_R -> ~chi_30 d)
     9.99996266E-01    2     1000021         1   # BR(~d_R -> ~g      d)
#
#         PDG            Width
DECAY   1000004     1.74652287E+02   # scharm_L decays
#          BR         NDA      ID1       ID2
     3.49924367E-04    2     1000022         4   # BR(~c_L -> ~chi_10 c)
     7.59111671E-05    2     1000023         4   # BR(~c_L -> ~chi_20 c)
     6.57122460E-02    2     1000025         4   # BR(~c_L -> ~chi_30 c)
     4.09003663E-04    2     1000035         4   # BR(~c_L -> ~chi_40 c)
     1.38045423E-03    2     1000024         3   # BR(~c_L -> ~chi_1+ s)
     1.30995610E-01    2     1000037         3   # BR(~c_L -> ~chi_2+ s)
     8.01076850E-01    2     1000021         4   # BR(~c_L -> ~g      c)
#
#         PDG            Width
DECAY   2000004     1.07258051E-04   # scharm_R decays
#           BR         NDA      ID1       ID2
     3.41822016E-01    2     1000022         4   # BR(~c_R -> ~chi_10 c)
     6.56307449E-01    2     1000023         4   # BR(~c_R -> ~chi_20 c)
#           BR         NDA      ID1       ID2       ID3
     3.77631326E-04    3        4       23        1000022   # BR(~c_R -> c  Z  ~chi_10)
     7.37175431E-05    3        4       25        1000022   # BR(~c_R -> c  h  ~chi_10)
     2.36523037E-04    3        4       23        1000023   # BR(~c_R -> c  Z  ~chi_20)
     1.80452654E-04    3        4       25        1000023   # BR(~c_R -> c  h  ~chi_20)
     4.84364572E-05    3        4       -24        1000024   # BR(~c_R -> c  W-  ~chi_1+)
     9.53774556E-04    3        4       24        -1000024   # BR(~c_R -> c  W+  ~chi_1-)
#
#         PDG            Width
DECAY   1000003     1.74660473E+02   # sstrange_L decays
#          BR         NDA      ID1       ID2
     3.15121021E-04    2     1000022         3   # BR(~s_L -> ~chi_10 s)
     5.43480623E-05    2     1000023         3   # BR(~s_L -> ~chi_20 s)
     6.57595453E-02    2     1000025         3   # BR(~s_L -> ~chi_30 s)
     4.11674521E-04    2     1000035         3   # BR(~s_L -> ~chi_40 s)
     2.09486004E-04    2    -1000024         4   # BR(~s_L -> ~chi_1- c)
     1.31924929E-01    2    -1000037         4   # BR(~s_L -> ~chi_2- c)
     8.01324896E-01    2     1000021         3   # BR(~s_L -> ~g      s)
#
#         PDG            Width
DECAY   2000003     7.47800634E+01   # sstrange_R decays
#          BR         NDA      ID1       ID2
     1.60911643E-06    2     1000022         3   # BR(~s_R -> ~chi_10 s)
     3.16615562E-06    2     1000023         3   # BR(~s_R -> ~chi_20 s)
     5.26249090E-09    2     1000025         3   # BR(~s_R -> ~chi_30 s)
     9.99995219E-01    2     1000021         3   # BR(~s_R -> ~g      s)
#
#         PDG            Width
DECAY   1000011     2.05305997E-02   # selectron_L decays
#          BR         NDA      ID1       ID2
     5.55685657E-01    2     1000022        11   # BR(~e_L -> ~chi_10 e-)
     1.44070881E-01    2     1000023        11   # BR(~e_L -> ~chi_20 e-)
     3.00243461E-01    2    -1000024        12   # BR(~e_L -> ~chi_1- nu_e)
#
#         PDG            Width
DECAY   2000011     9.66419390E-03   # selectron_R decays
#           BR         NDA      ID1       ID2
     8.93556787E-02    2     1000022        11   # BR(~e_R -> ~chi_10 e-)
     1.75736236E-01    2     1000023        11   # BR(~e_R -> ~chi_20 e-)
#           BR         NDA      ID1       ID2       ID3
     4.97196150E-02    3        11       -2        2000002   # BR(~e_R- -> e-  ub  ~u_R)
     1.63241758E-01    3        11       2        -2000002   # BR(~e_R- -> e-  u  ~u_R*)
     5.00828114E-02    3        11       -4        2000004   # BR(~e_R- -> e-  cb  ~c_R)
     1.62548477E-01    3        11       4        -2000004   # BR(~e_R- -> e-  c  ~c_R*)
     5.88243578E-03    3        11       -5        1000005   # BR(~e_R- -> e-  bb  ~b_1)
     1.59392497E-02    3        11       5        -1000005   # BR(~e_R- -> e-  b  ~b_1*)
     2.80261347E-03    3        11       -5        2000005   # BR(~e_R- -> e-  bb  ~b_2)
     1.35748518E-03    3        11       5        -2000005   # BR(~e_R- -> e-  b  ~b_2*)
     2.48132439E-03    3        11       -6        1000006   # BR(~e_R- -> e-  tb  ~t_1)
     1.20010009E-03    3        11       6        -1000006   # BR(~e_R- -> e-  t  ~t_1*)
     1.64379980E-04    3        11       -6        2000006   # BR(~e_R- -> e-  tb  ~t_2)
     2.86335315E-04    3        11       6        -2000006   # BR(~e_R- -> e-  t  ~t_2*)
     1.46509892E-02    3        11       -11        1000011   # BR(~e_R- -> e-  e+  ~e_L-)
     5.21709318E-03    3        11       11        -1000011   # BR(~e_R- -> e-  e-  ~e_L+)
     1.47120393E-02    3        11       -12        1000012   # BR(~e_R- -> e-  nu_eb  ~nu_eL)
     5.17156428E-03    3        11       12        -1000012   # BR(~e_R- -> e-  nu_e  ~nu_eL*)
     1.42112215E-02    3        11       -13        1000013   # BR(~e_R- -> e-  mu+  ~mu_L-)
     5.19101754E-03    3        11       13        -1000013   # BR(~e_R- -> e-  mu-  ~mu_L+)
     1.44471439E-02    3        11       -14        1000014   # BR(~e_R- -> e-  nu_mub  ~nu_muL)
     5.21129859E-03    3        11       14        -1000014   # BR(~e_R- -> e-  nu_mu  ~nu_muL*)
     1.28494938E-02    3        11       -15        1000015   # BR(~e_R- -> e-  tau+  ~tau_1-)
     4.69713258E-03    3        11       15        -1000015   # BR(~e_R- -> e-  tau-  ~tau_1+)
     1.32799488E-02    3        11       -16        1000016   # BR(~e_R- -> e-  nu_taub  ~nu_tau1)
     4.71482676E-03    3        11       16        -1000016   # BR(~e_R- -> e-  nu_tau  ~nu_tau1*)
     3.00501007E-02    3        11       23        1000022   # BR(~e_R- -> e-  Z  ~chi_10)
     1.04612967E-02    3        11       25        1000022   # BR(~e_R- -> e-  h  ~chi_10)
     1.04695747E-02    3        11       23        1000023   # BR(~e_R- -> e-  Z  ~chi_20)
     2.91188280E-02    3        11       25        1000023   # BR(~e_R- -> e-  h  ~chi_20)
     7.66095970E-06    3        11       23        1000025   # BR(~e_R- -> e-  Z  ~chi_30)
     1.38469904E-05    3        11       25        1000025   # BR(~e_R- -> e-  h  ~chi_30)
     1.67504917E-02    3        11       -24        1000024   # BR(~e_R- -> e-  W-  ~chi_1+)
     6.79301354E-02    3        11       24        -1000024   # BR(~e_R- -> e-  W+  ~chi_1-)
     3.86871377E-06    3        11       -24        1000037   # BR(~e_R- -> e-  W-  ~chi_2+)
     4.19269319E-05    3        11       24        -1000037   # BR(~e_R- -> e-  W+  ~chi_2-)
#
#         PDG            Width
DECAY   1000013     2.05305992E-02   # smuon_L decays
#          BR         NDA      ID1       ID2
     5.55685652E-01    2     1000022        13   # BR(~mu_L -> ~chi_10 mu-)
     1.44070880E-01    2     1000023        13   # BR(~mu_L -> ~chi_20 mu-)
     3.00243468E-01    2    -1000024        14   # BR(~mu_L -> ~chi_1- nu_mu)
#
#         PDG            Width
DECAY   2000013     9.66131987E-03   # smuon_R decays
#           BR         NDA      ID1       ID2
     8.93822593E-02    2     1000022        13   # BR(~mu_R -> ~chi_10 mu-)
     1.75788513E-01    2     1000023        13   # BR(~mu_R -> ~chi_20 mu-)
#           BR         NDA      ID1       ID2       ID3
     4.97344055E-02    3        13       -2        2000002   # BR(~mu_R- -> mu-  ub  ~u_R)
     1.63290319E-01    3        13       2        -2000002   # BR(~mu_R- -> mu-  u  ~u_R*)
     5.00977099E-02    3        13       -4        2000004   # BR(~mu_R- -> mu-  cb  ~c_R)
     1.62596832E-01    3        13       4        -2000004   # BR(~mu_R- -> mu-  c  ~c_R*)
     5.96429896E-03    3        13       -5        1000005   # BR(~mu_R- -> mu-  bb  ~b_1)
     1.59439913E-02    3        13       5        -1000005   # BR(~mu_R- -> mu-  b  ~b_1*)
     2.80344719E-03    3        13       -5        2000005   # BR(~mu_R- -> mu-  bb  ~b_2)
     1.36120118E-03    3        13       5        -2000005   # BR(~mu_R- -> mu-  b  ~b_2*)
     2.48206253E-03    3        13       -6        1000006   # BR(~mu_R- -> mu-  tb  ~t_1)
     1.20045710E-03    3        13       6        -1000006   # BR(~mu_R- -> mu-  t  ~t_1*)
     1.64428879E-04    3        13       -6        2000006   # BR(~mu_R- -> mu-  tb  ~t_2)
     2.86420493E-04    3        13       6        -2000006   # BR(~mu_R- -> mu-  t  ~t_2*)
     1.46553475E-02    3        13       -11        1000011   # BR(~mu_R- -> mu-  e+  ~e_L-)
     5.19256175E-03    3        13       11        -1000011   # BR(~mu_R- -> mu-  e-  ~e_L+)
     1.47164158E-02    3        13       -12        1000012   # BR(~mu_R- -> mu-  nu_eb  ~nu_eL)
     5.17310270E-03    3        13       12        -1000012   # BR(~mu_R- -> mu-  nu_e  ~nu_eL*)
     1.41647313E-02    3        13       -13        1000013   # BR(~mu_R- -> mu-  mu+  ~mu_L-)
     5.21761009E-03    3        13       13        -1000013   # BR(~mu_R- -> mu-  mu-  ~mu_L+)
     1.44514416E-02    3        13       -14        1000014   # BR(~mu_R- -> mu-  nu_mub  ~nu_muL)
     5.21284883E-03    3        13       14        -1000014   # BR(~mu_R- -> mu-  nu_mu  ~nu_muL*)
     1.26566558E-02    3        13       -15        1000015   # BR(~mu_R- -> mu-  tau+  ~tau_1-)
     4.69852987E-03    3        13       15        -1000015   # BR(~mu_R- -> mu-  tau-  ~tau_1+)
     1.31483070E-02    3        13       -16        1000016   # BR(~mu_R- -> mu-  nu_taub  ~nu_tau1)
     4.71622932E-03    3        13       16        -1000016   # BR(~mu_R- -> mu-  nu_tau  ~nu_tau1*)
     3.00611101E-02    3        13       23        1000022   # BR(~mu_R- -> mu-  Z  ~chi_10)
     1.04644087E-02    3        13       25        1000022   # BR(~mu_R- -> mu-  h  ~chi_10)
     1.04737242E-02    3        13       23        1000023   # BR(~mu_R- -> mu-  Z  ~chi_20)
     2.91274902E-02    3        13       25        1000023   # BR(~mu_R- -> mu-  h  ~chi_20)
     7.66334217E-06    3        13       23        1000025   # BR(~mu_R- -> mu-  Z  ~chi_30)
     1.38511096E-05    3        13       25        1000025   # BR(~mu_R- -> mu-  h  ~chi_30)
     1.67554746E-02    3        13       -24        1000024   # BR(~mu_R- -> mu-  W-  ~chi_1+)
     6.79503431E-02    3        13       24        -1000024   # BR(~mu_R- -> mu-  W+  ~chi_1-)
     3.86810503E-06    3        13       -24        1000037   # BR(~mu_R- -> mu-  W-  ~chi_2+)
     4.19394043E-05    3        13       24        -1000037   # BR(~mu_R- -> mu-  W+  ~chi_2-)
#
#         PDG            Width
DECAY   1000015     5.33235959E+00   # stau_1 decays
#          BR         NDA      ID1       ID2
     5.03098135E-01    2     1000022        15   # BR(~tau_1 -> ~chi_10  tau-)
     4.95322058E-01    2     1000023        15   # BR(~tau_1 -> ~chi_20  tau-)
     1.57980661E-03    2    -1000024        16   # BR(~tau_1 -> ~chi_1-  nu_tau)
#
#         PDG            Width
DECAY   2000015     5.94544747E+01   # stau_2 decays
#          BR         NDA      ID1       ID2
     2.37742603E-01    2     1000022        15   # BR(~tau_2 -> ~chi_10  tau-)
     2.36961088E-01    2     1000023        15   # BR(~tau_2 -> ~chi_20  tau-)
     2.75604019E-04    2     1000025        15   # BR(~tau_2 -> ~chi_30  tau-)
     3.39320018E-02    2     1000035        15   # BR(~tau_2 -> ~chi_40  tau-)
     4.74317815E-01    2    -1000024        16   # BR(~tau_2 -> ~chi_1-  nu_tau)
     5.51867612E-04    2    -1000037        16   # BR(~tau_2 -> ~chi_2-  nu_tau)
     7.94164258E-03    2     1000016       -24   # BR(~tau_2 -> ~nu_tauL W-)
     4.19720048E-03    2     1000015        25   # BR(~tau_2 -> ~tau_1   h)
     4.08017779E-03    2     1000015        23   # BR(~tau_2 -> ~tau_1   Z)
#
#         PDG            Width
DECAY   1000012     4.96831833E-02   # snu_eL decays
#          BR         NDA      ID1       ID2
     1.66425958E-01    2     1000022        12   # BR(~nu_eL -> ~chi_10 nu_e)
     2.12768372E-02    2     1000023        12   # BR(~nu_eL -> ~chi_20 nu_e)
     8.12297204E-01    2     1000024        11   # BR(~nu_eL -> ~chi_1+ e-)
#
#         PDG            Width
DECAY   1000014     4.96831820E-02   # snu_muL decays
#          BR         NDA      ID1       ID2
     1.66425963E-01    2     1000022        14   # BR(~nu_muL -> ~chi_10 nu_mu)
     2.12768378E-02    2     1000023        14   # BR(~nu_muL -> ~chi_20 nu_mu)
     8.12297199E-01    2     1000024        13   # BR(~nu_muL -> ~chi_1+ mu-)
#
#         PDG            Width
DECAY   1000016     5.33520681E+00   # snu_tauL decays
#          BR         NDA      ID1       ID2
     1.68216236E-03    2     1000022        16   # BR(~nu_tauL -> ~chi_10 nu_tau)
     2.15234128E-04    2     1000023        16   # BR(~nu_tauL -> ~chi_20 nu_tau)
     9.98102604E-01    2     1000024        15   # BR(~nu_tauL -> ~chi_1+ tau-)
#
#         PDG            Width
DECAY   1000024     1.80539796E-12   # chargino1+ decays
#           BR         NDA      ID1       ID2       ID3
     5.99988361E-01    3     1000022         2        -1   # BR(~chi_1+ -> ~chi_10 u    db)
     2.00005820E-01    3     1000022       -11        12   # BR(~chi_1+ -> ~chi_10 e+   nu_e)
     2.00005820E-01    3     1000022       -13        14   # BR(~chi_1+ -> ~chi_10 mu+  nu_mu)
#
#         PDG            Width
DECAY   1000037     1.83006819E+01   # chargino2+ decays
#          BR         NDA      ID1       ID2
     4.76859390E-02    2     1000006        -5   # BR(~chi_2+ -> ~t_1     bb)
     1.29334450E-03    2    -1000005         6   # BR(~chi_2+ -> ~b_1*    t )
     5.85893468E-02    2     1000012       -11   # BR(~chi_2+ -> ~nu_eL   e+  )
     5.85893468E-02    2     1000014       -13   # BR(~chi_2+ -> ~nu_muL mu+ )
     4.74360189E-02    2     1000016       -15   # BR(~chi_2+ -> ~nu_tau1 tau+)
     5.80912155E-02    2    -1000011        12   # BR(~chi_2+ -> ~e_L+    nu_e)
     5.80912155E-02    2    -1000013        14   # BR(~chi_2+ -> ~mu_L+   nu_mu)
     4.69355646E-02    2    -1000015        16   # BR(~chi_2+ -> ~tau_1+  nu_tau)
     1.57812007E-01    2     1000024        23   # BR(~chi_2+ -> ~chi_1+  Z )
     1.53849963E-01    2     1000022        24   # BR(~chi_2+ -> ~chi_10  W+)
     1.54293956E-01    2     1000023        24   # BR(~chi_2+ -> ~chi_20  W+)
     1.57332083E-01    2     1000024        25   # BR(~chi_2+ -> ~chi_1+  h )
#
#         PDG            Width
DECAY   1000022     0.00000000E+00   # neutralino1 decays
#
#         PDG            Width
DECAY   1000023     8.79608646E-10   # neutralino2 decays
#          BR         NDA      ID1       ID2
     6.92524778E-02    2     1000022        22   # BR(~chi_20 -> ~chi_10 gam)
#           BR         NDA      ID1       ID2       ID3
     9.78387006E-02    3     1000022        -2         2   # BR(~chi_20 -> ~chi_10 ub      u)
     1.26933072E-01    3     1000022        -1         1   # BR(~chi_20 -> ~chi_10 db      d)
     9.78387006E-02    3     1000022        -4         4   # BR(~chi_20 -> ~chi_10 cb      c)
     1.26933072E-01    3     1000022        -3         3   # BR(~chi_20 -> ~chi_10 sb      s)
     2.91185632E-02    3     1000022       -11        11   # BR(~chi_20 -> ~chi_10 e+      e-)
     2.91185632E-02    3     1000022       -13        13   # BR(~chi_20 -> ~chi_10 mu+     mu-)
     4.12855926E-04    3     1000022       -15        15   # BR(~chi_20 -> ~chi_10 tau+    tau-)
     5.82153134E-02    3     1000022       -12        12   # BR(~chi_20 -> ~chi_10 nu_eb   nu_e)
     5.82153134E-02    3     1000022       -14        14   # BR(~chi_20 -> ~chi_10 nu_mub  nu_mu)
     5.82152283E-02    3     1000022       -16        16   # BR(~chi_20 -> ~chi_10 nu_taub nu_tau)
     4.61161958E-02    3     1000024        -2         1   # BR(~chi_20 -> ~chi_1+ ub      d)
     4.61161958E-02    3    -1000024        -1         2   # BR(~chi_20 -> ~chi_1- db      u)
     4.61161958E-02    3     1000024        -4         3   # BR(~chi_20 -> ~chi_1+ cb      s)
     4.61161958E-02    3    -1000024        -3         4   # BR(~chi_20 -> ~chi_1- sb      c)
     1.53721261E-02    3     1000024       -12        11   # BR(~chi_20 -> ~chi_1+ nu_eb   e-)
     1.53721261E-02    3    -1000024        12       -11   # BR(~chi_20 -> ~chi_1- nu_e    e+)
     1.53721261E-02    3     1000024       -14        13   # BR(~chi_20 -> ~chi_1+ nu_mub  mu-)
     1.53721261E-02    3    -1000024        14       -13   # BR(~chi_20 -> ~chi_1- nu_mu   mu+)
     9.77425704E-04    3     1000024       -16        15   # BR(~chi_20 -> ~chi_1+ nu_taub tau-)
     9.77425704E-04    3    -1000024        16       -15   # BR(~chi_20 -> ~chi_1- nu_tau  tau+)
#
#         PDG            Width
DECAY   1000025     1.80791857E+01   # neutralino3 decays
#          BR         NDA      ID1       ID2
     2.61529265E-02    2     1000022        23   # BR(~chi_30 -> ~chi_10   Z )
     1.33407497E-01    2     1000023        23   # BR(~chi_30 -> ~chi_20   Z )
     1.56369888E-01    2     1000024       -24   # BR(~chi_30 -> ~chi_1+   W-)
     1.56369888E-01    2    -1000024        24   # BR(~chi_30 -> ~chi_1-   W+)
     1.32989375E-01    2     1000022        25   # BR(~chi_30 -> ~chi_10   h )
     2.49131371E-02    2     1000023        25   # BR(~chi_30 -> ~chi_20   h )
     5.35928288E-08    2     2000002        -2   # BR(~chi_30 -> ~u_R      ub)
     5.35928288E-08    2    -2000002         2   # BR(~chi_30 -> ~u_R*     u )
     5.35927513E-08    2     2000004        -4   # BR(~chi_30 -> ~c_R      cb)
     5.35927513E-08    2    -2000004         4   # BR(~chi_30 -> ~c_R*     c )
     9.35034882E-04    2     1000005        -5   # BR(~chi_30 -> ~b_1      bb)
     9.35034882E-04    2    -1000005         5   # BR(~chi_30 -> ~b_1*     b )
     1.82197460E-02    2     2000005        -5   # BR(~chi_30 -> ~b_2      bb)
     1.82197460E-02    2    -2000005         5   # BR(~chi_30 -> ~b_2*     b )
     2.92578174E-02    2     1000011       -11   # BR(~chi_30 -> ~e_L-     e+)
     2.92578174E-02    2    -1000011        11   # BR(~chi_30 -> ~e_L+     e-)
     2.92578174E-02    2     1000013       -13   # BR(~chi_30 -> ~mu_L-    mu+)
     2.92578174E-02    2    -1000013        13   # BR(~chi_30 -> ~mu_L+    mu-)
     2.36533794E-02    2     1000015       -15   # BR(~chi_30 -> ~tau_1-   tau+)
     2.36533794E-02    2    -1000015        15   # BR(~chi_30 -> ~tau_1+   tau-)
     2.97531684E-02    2     1000012       -12   # BR(~chi_30 -> ~nu_eL    nu_eb)
     2.97531684E-02    2    -1000012        12   # BR(~chi_30 -> ~nu_eL*   nu_e )
     2.97531684E-02    2     1000014       -14   # BR(~chi_30 -> ~nu_muL   nu_mub)
     2.97531684E-02    2    -1000014        14   # BR(~chi_30 -> ~nu_muL*  nu_mu )
     2.40684051E-02    2     1000016       -16   # BR(~chi_30 -> ~nu_tau1  nu_taub)
     2.40684051E-02    2    -1000016        16   # BR(~chi_30 -> ~nu_tau1* nu_tau )
#
#         PDG            Width
DECAY   1000035     8.00063288E+01   # neutralino4 decays
#          BR         NDA      ID1       ID2
     1.57869001E-02    2     1000022        23   # BR(~chi_40 -> ~chi_10   Z )
     8.16219761E-03    2     1000023        23   # BR(~chi_40 -> ~chi_20   Z )
     5.49164508E-05    2     1000025        23   # BR(~chi_40 -> ~chi_30   Z )
     2.32740802E-02    2     1000024       -24   # BR(~chi_40 -> ~chi_1+   W-)
     2.32740802E-02    2    -1000024        24   # BR(~chi_40 -> ~chi_1-   W+)
     6.15912309E-05    2     1000037       -24   # BR(~chi_40 -> ~chi_2+   W-)
     6.15912309E-05    2    -1000037        24   # BR(~chi_40 -> ~chi_2-   W+)
     8.57292673E-03    2     1000022        25   # BR(~chi_40 -> ~chi_10   h )
     1.65569293E-02    2     1000023        25   # BR(~chi_40 -> ~chi_20   h )
     8.03487492E-06    2     1000025        25   # BR(~chi_40 -> ~chi_30   h )
     1.14425774E-01    2     2000002        -2   # BR(~chi_40 -> ~u_R      ub)
     1.14425774E-01    2    -2000002         2   # BR(~chi_40 -> ~u_R*     u )
     1.58995950E-04    2     2000001        -1   # BR(~chi_40 -> ~d_R      db)
     1.58995950E-04    2    -2000001         1   # BR(~chi_40 -> ~d_R*     d )
     1.14425770E-01    2     2000004        -4   # BR(~chi_40 -> ~c_R      cb)
     1.14425770E-01    2    -2000004         4   # BR(~chi_40 -> ~c_R*     c )
     1.58995950E-04    2     2000003        -3   # BR(~chi_40 -> ~s _R      sb)
     1.58995950E-04    2    -2000003         3   # BR(~chi_40 -> ~s _R*     s )
     6.55054343E-03    2     1000006        -6   # BR(~chi_40 -> ~t_1      tb)
     6.55054343E-03    2    -1000006         6   # BR(~chi_40 -> ~t_1*     t )
     4.25665590E-02    2     2000006        -6   # BR(~chi_40 -> ~t_2      tb)
     4.25665590E-02    2    -2000006         6   # BR(~chi_40 -> ~t_2*     t )
     2.45349687E-02    2     1000005        -5   # BR(~chi_40 -> ~b_1      bb)
     2.45349687E-02    2    -1000005         5   # BR(~chi_40 -> ~b_1*     b )
     6.26515356E-03    2     2000005        -5   # BR(~chi_40 -> ~b_2      bb)
     6.26515356E-03    2    -2000005         5   # BR(~chi_40 -> ~b_2*     b )
     1.93959548E-02    2     1000011       -11   # BR(~chi_40 -> ~e_L-     e+)
     1.93959548E-02    2    -1000011        11   # BR(~chi_40 -> ~e_L+     e-)
     1.36378352E-02    2     2000011       -11   # BR(~chi_40 -> ~e_R-     e+)
     1.36378352E-02    2    -2000011        11   # BR(~chi_40 -> ~e_R+     e-)
     1.93959548E-02    2     1000013       -13   # BR(~chi_40 -> ~mu_L-    mu+)
     1.93959548E-02    2    -1000013        13   # BR(~chi_40 -> ~mu_L+    mu-)
     1.36378352E-02    2     2000013       -13   # BR(~chi_40 -> ~mu_R-    mu+)
     1.36378352E-02    2    -2000013        13   # BR(~chi_40 -> ~mu_R+    mu-)
     1.89772448E-02    2     1000015       -15   # BR(~chi_40 -> ~tau_1-   tau+)
     1.89772448E-02    2    -1000015        15   # BR(~chi_40 -> ~tau_1+   tau-)
     1.94612632E-02    2     1000012       -12   # BR(~chi_40 -> ~nu_eL    nu_eb)
     1.94612632E-02    2    -1000012        12   # BR(~chi_40 -> ~nu_eL*   nu_e )
     1.94612632E-02    2     1000014       -14   # BR(~chi_40 -> ~nu_muL   nu_mub)
     1.94612632E-02    2    -1000014        14   # BR(~chi_40 -> ~nu_muL*  nu_mu )
     1.90392644E-02    2     1000016       -16   # BR(~chi_40 -> ~nu_tau1  nu_taub)
     1.90392644E-02    2    -1000016        16   # BR(~chi_40 -> ~nu_tau1* nu_tau )
#
#         PDG            Width
DECAY        25     5.13859085E-03   # h decays
#          BR         NDA      ID1       ID2
     6.09418088E-01    2           5        -5   # BR(h -> b       bb     )
     5.18072349E-02    2         -15        15   # BR(h -> tau+    tau-   )
     1.83365630E-04    2         -13        13   # BR(h -> mu+     mu-    )
     1.99259616E-04    2           3        -3   # BR(h -> s       sb     )
     1.71920049E-02    2           4        -4   # BR(h -> c       cb     )
     6.60506492E-02    2          21        21   # BR(h -> g       g      )
     2.02272891E-03    2          22        22   # BR(h -> gam     gam    )
     1.56320620E-03    2          22        23   # BR(h -> Z       gam    )
     2.22513100E-01    2          24       -24   # BR(h -> W+      W-     )
     2.90503622E-02    2          23        23   # BR(h -> Z       Z      )
#
#         PDG            Width
DECAY        35     1.41357486E+02   # H decays
#          BR         NDA      ID1       ID2
     5.94015800E-01    2           5        -5   # BR(H -> b       bb     )
     1.38520138E-01    2         -15        15   # BR(H -> tau+    tau-   )
     4.86830513E-04    2         -13        13   # BR(H -> mu+     mu-    )
     3.03852775E-04    2           3        -3   # BR(H -> s       sb     )
     3.10088058E-09    2           4        -4   # BR(H -> c       cb     )
     3.05438652E-04    2           6        -6   # BR(H -> t       tb     )
     2.34209196E-05    2          21        21   # BR(H -> g       g      )
     4.56080873E-09    2          22        22   # BR(H -> gam     gam    )
     8.29164547E-09    2          23        22   # BR(H -> Z       gam    )
     2.33743314E-07    2          24       -24   # BR(H -> W+      W-     )
     1.16644160E-07    2          23        23   # BR(H -> Z       Z      )
     7.75807477E-07    2          25        25   # BR(H -> h       h      )
     1.34446372E-03    2     1000024  -1000024   # BR(H -> ~chi_1+ ~chi_1-)
     2.71022702E-05    2     1000037  -1000037   # BR(H -> ~chi_2+ ~chi_2-)
     6.11938522E-02    2     1000024  -1000037   # BR(H -> ~chi_1+ ~chi_2-)
     6.11938522E-02    2     1000037  -1000024   # BR(H -> ~chi_2+ ~chi_1-)
     2.72312871E-04    2     1000022   1000022   # BR(H -> ~chi_10 ~chi_10)
     3.86485732E-05    2     1000023   1000023   # BR(H -> ~chi_20 ~chi_20)
     1.36060367E-05    2     1000025   1000025   # BR(H -> ~chi_30 ~chi_30)
     6.85004502E-05    2     1000022   1000023   # BR(H -> ~chi_10 ~chi_20)
     2.40273855E-02    2     1000022   1000025   # BR(H -> ~chi_10 ~chi_30)
     3.73385646E-02    2     1000023   1000025   # BR(H -> ~chi_20 ~chi_30)
     1.41774446E-08    2     2000002  -2000002   # BR(H -> ~u_R    ~u_R*  )
     1.41774446E-08    2     2000004  -2000004   # BR(H -> ~c_R    ~c_R*  )
     1.06828038E-03    2     1000006  -1000006   # BR(H -> ~t_1    ~t_1*  )
     3.43735775E-03    2     1000006  -2000006   # BR(H -> ~t_1    ~t_2*  )
     3.43735775E-03    2     2000006  -1000006   # BR(H -> ~t_2    ~t_1*  )
     3.57865305E-03    2     1000005  -1000005   # BR(H -> ~b_1    ~b_1*  )
     3.15049285E-03    2     2000005  -2000005   # BR(H -> ~b_2    ~b_2*  )
     3.30755269E-02    2     1000005  -2000005   # BR(H -> ~b_1    ~b_2*  )
     3.30755269E-02    2     2000005  -1000005   # BR(H -> ~b_2    ~b_1*  )
     1.41316067E-08    2     1000011  -1000011   # BR(H -> ~e_L-   ~e_L+  )
     1.41316067E-08    2     1000013  -1000013   # BR(H -> ~mu_L-  ~mu_L+ )
     1.70006716E-06    2     1000015  -1000015   # BR(H -> ~tau_1- ~tau_1+)
     4.59539475E-08    2     1000012  -1000012   # BR(H -> ~nu_eL  ~nu_eL*   )
     4.59539475E-08    2     1000014  -1000014   # BR(H -> ~nu_muL ~nu_muL*  )
     4.46257206E-08    2     1000016  -1000016   # BR(H -> ~nu_tauL ~nu_tauL*)
#
#         PDG            Width
DECAY        36     1.41305815E+02   # A decays
#          BR         NDA      ID1       ID2
     5.94226326E-01    2           5        -5   # BR(A -> b       bb     )
     1.38566758E-01    2         -15        15   # BR(A -> tau+    tau-   )
     4.86993826E-04    2         -13        13   # BR(A -> mu+     mu-    )
     3.03962811E-04    2           3        -3   # BR(A -> s       sb     )
     3.11266950E-09    2           4        -4   # BR(A -> c       cb     )
     3.05845104E-04    2           6        -6   # BR(A -> t       tb     )
     1.98458780E-05    2          21        21   # BR(A -> g       g      )
     3.60524703E-08    2          22        22   # BR(A -> gam     gam    )
     1.41343651E-08    2          23        22   # BR(A -> Z       gam    )
     2.37010429E-07    2          23        25   # BR(A -> Z       h      )
     1.55086415E-03    2     1000024  -1000024   # BR(A -> ~chi_1+ ~chi_1-)
     1.32494451E-04    2     1000037  -1000037   # BR(A -> ~chi_2+ ~chi_2-)
     6.10448992E-02    2     1000024  -1000037   # BR(A -> ~chi_1+ ~chi_2-)
     6.10448992E-02    2     1000037  -1000024   # BR(A -> ~chi_2+ ~chi_1-)
     3.27897583E-04    2     1000022   1000022   # BR(A -> ~chi_10 ~chi_10)
     4.04026804E-05    2     1000023   1000023   # BR(A -> ~chi_20 ~chi_20)
     6.64239583E-05    2     1000025   1000025   # BR(A -> ~chi_30 ~chi_30)
     5.23599644E-05    2     1000022   1000023   # BR(A -> ~chi_10 ~chi_20)
     3.72649795E-02    2     1000022   1000025   # BR(A -> ~chi_10 ~chi_30)
     2.40115816E-02    2     1000023   1000025   # BR(A -> ~chi_20 ~chi_30)
     3.81753832E-03    2     1000006  -2000006   # BR(A -> ~t_1    ~t_2*  )
     3.81753832E-03    2    -1000006   2000006   # BR(A -> ~t_1*   ~t_2   )
     3.64590494E-02    2     1000005  -2000005   # BR(A -> ~b_1    ~b_2*  )
     3.64590494E-02    2    -1000005   2000005   # BR(A -> ~b_1*   ~b_2   )
#
#         PDG            Width
DECAY        37     1.63088309E+02   # H+ decays
#          BR         NDA      ID1       ID2
     6.16125361E-04    2           4        -5   # BR(H+ -> c       bb     )
     1.20097980E-01    2         -15        16   # BR(H+ -> tau+    nu_tau )
     4.22085177E-04    2         -13        14   # BR(H+ -> mu+     nu_mu  )
     6.16124782E-06    2           2        -5   # BR(H+ -> u       bb     )
     1.31786969E-05    2           2        -3   # BR(H+ -> u       sb     )
     2.59399359E-04    2           4        -3   # BR(H+ -> c       sb     )
     3.66396221E-01    2           6        -5   # BR(H+ -> t       bb     )
     2.05654135E-07    2          24        25   # BR(H+ -> W+      h      )
     1.20400023E-14    2          24        36   # BR(H+ -> W+      A      )
     7.89500560E-05    2     1000024   1000022   # BR(H+ -> ~chi_1+ ~chi_10)
     3.69731244E-04    2     1000024   1000023   # BR(H+ -> ~chi_1+ ~chi_20)
     5.32835445E-02    2     1000024   1000025   # BR(H+ -> ~chi_1+ ~chi_30)
     5.37545053E-02    2     1000037   1000022   # BR(H+ -> ~chi_2+ ~chi_10)
     5.31364499E-02    2     1000037   1000023   # BR(H+ -> ~chi_2+ ~chi_20)
     4.94004662E-11    2     1000037   1000025   # BR(H+ -> ~chi_2+ ~chi_30)
     4.79705430E-08    2    -1000011   1000012   # BR(H+ -> ~e_L+   ~nu_eL )
     4.79705430E-08    2    -1000013   1000014   # BR(H+ -> ~mu_L+  ~nu_muL)
     5.18590995E-07    2    -1000015   1000016   # BR(H+ -> ~tau_1+ ~nu_tauL)
     3.23025361E-01    2     1000006  -1000005   # BR(H+ -> ~t_1    ~b_1*  )
     1.88398133E-03    2     2000006  -2000005   # BR(H+ -> ~t_2    ~b_2*  )
     1.16846729E-02    2     1000006  -2000005   # BR(H+ -> ~t_1    ~b_2*  )
     1.49708329E-02    2     2000006  -1000005   # BR(H+ -> ~t_2    ~b_1*  )
