#
#                              ======================
#                              | THE SUSYHIT OUTPUT |
#                              ======================
#
#
#              ------------------------------------------------------
#              |     This is the output of the SUSY-HIT package     |
#              |  created by A.Djouadi, M.Muehlleitner and M.Spira. |
#              |  In case of problems with SUSY-HIT email to        |
#              |           margarete.muehlleitner@cern.ch           |
#              |           michael.spira@psi.ch                     |
#              |           abdelhak.djouadi@cern.ch                 |
#              ------------------------------------------------------
#
#              ------------------------------------------------------
#              |  SUSY Les Houches Accord - MSSM Spectrum + Decays  |
#              |              based on the decay programs           |
#              |                                                    |
#              |                     SDECAY 1.3b                    |
#              |                                                    |
#              |  Authors: M.Muhlleitner, A.Djouadi and Y.Mambrini  |
#              |  Ref.:    Comput.Phys.Commun.168(2005)46           |
#              |           [hep-ph/0311167]                         |
#              |                                                    |
#              |                     HDECAY 3.4                     |
#              |                                                    |
#              |  By: A.Djouadi,J.Kalinowski,M.Muhlleitner,M.Spira  |
#              |  Ref.:    Comput.Phys.Commun.108(1998)56           |
#              |           [hep-ph/9704448]                         |
#              |                                                    |
#              |                                                    |
#              |  If not stated otherwise all DRbar couplings and   |
#              |  soft SUSY breaking masses are given at the scale  |
#              |  Q=  0.28768530E+04
#              |                                                    |
#              ------------------------------------------------------
#
#
BLOCK DCINFO  # Decay Program information
     1   SDECAY/HDECAY # decay calculator
     2   1.3b  /3.4    # version number
#
BLOCK SPINFO  # Spectrum calculator information
     1     SOFTSUSY    # spectrum calculator               
     2     3.4.0       # version number                    
#
BLOCK MODSEL  # Model selection
     1     0   #  nonUniversal                                     
#
BLOCK SMINPUTS  # Standard Model inputs
         1     1.27908970E+02   # alpha_em^-1(M_Z)^MSbar
         2     1.16637870E-05   # G_F [GeV^-2]
         3     1.18400000E-01   # alpha_S(M_Z)^MSbar
         4     9.11876000E+01   # M_Z pole mass
         5     4.18000000E+00   # mb(mb)^MSbar
         6     1.73200000E+02   # mt pole mass
         7     1.77700000E+00   # mtau pole mass
#
BLOCK MINPAR  # Input parameters - minimal models
         3     3.22800000E+01   # tanb                
#
BLOCK EXTPAR  # Input parameters - non-minimal models
         0    -1.00000000E+00   # Set                 
         1     5.07400000E+01   # M_1(MX)             
         2    -1.94358000E+03   # M_2(MX)             
         3     2.01971000E+03   # M_3(MX)             
        11     4.56411000E+03   # At(MX)              
        12    -4.75900000E+01   # Ab(MX)              
        13     3.02438000E+03   # Atau(MX)            
        23    -1.74460000E+02   # mu(MX)              
        26     3.04000000E+03   # mA(pole)            
        31     7.20720000E+02   # meL(MX)             
        32     7.20720000E+02   # mmuL(MX)            
        33     2.56841000E+03   # mtauL(MX)           
        34     2.48620000E+02   # meR(MX)             
        35     2.48620000E+02   # mmuR(MX)            
        36     3.05446000E+03   # mtauR(MX)           
        41     4.44450000E+02   # mqL1(MX)            
        42     4.44450000E+02   # mqL2(MX)            
        43     3.85225000E+03   # mqL3(MX)            
        44     3.54243000E+03   # muR(MX)             
        45     3.54243000E+03   # mcR(MX)             
        46     2.14938000E+03   # mtR(MX)             
        47     2.43010000E+03   # mdR(MX)             
        48     2.43010000E+03   # msR(MX)             
        49     3.25837000E+03   # mbR(MX)             
#
BLOCK MASS  # Mass Spectrum
# PDG code           mass       particle
        24     8.03974414E+01   # W+
        25     1.27897024E+02   # h
        35     3.04000578E+03   # H
        36     3.04000002E+03   # A
        37     3.04121583E+03   # H+
         5     4.81876030E+00   # b-quark pole mass calculated from mb(mb)_Msbar
   1000001     7.23857729E+02   # ~d_L
   2000001     2.50749765E+03   # ~d_R
   1000002     7.19511842E+02   # ~u_L
   2000002     3.59250051E+03   # ~u_R
   1000003     7.23857729E+02   # ~s_L
   2000003     2.50749765E+03   # ~s_R
   1000004     7.19511842E+02   # ~c_L
   2000004     3.59250051E+03   # ~c_R
   1000005     3.30262170E+03   # ~b_1
   2000005     3.86419914E+03   # ~b_2
   1000006     2.17052304E+03   # ~t_1
   2000006     3.87144972E+03   # ~t_2
   1000011     7.56358924E+02   # ~e_L
   2000011     2.89063222E+02   # ~e_R
   1000012     7.52071107E+02   # ~nu_eL
   1000013     7.56358924E+02   # ~mu_L
   2000013     2.89063222E+02   # ~mu_R
   1000014     7.52071107E+02   # ~nu_muL
   1000015     2.57770351E+03   # ~tau_1
   2000015     3.05267654E+03   # ~tau_2
   1000016     2.57622383E+03   # ~nu_tauL
   1000021     2.19399156E+03   # ~g
   1000022     4.75902621E+01   # ~chi_10
   1000023    -1.86610874E+02   # ~chi_20
   1000025     1.92178359E+02   # ~chi_30
   1000035    -1.94440471E+03   # ~chi_40
   1000024     1.83848005E+02   # ~chi_1+
   1000037     1.94457256E+03   # ~chi_2+
#
BLOCK NMIX  # Neutralino Mixing Matrix
  1  1     9.67264729E-01   # N_11
  1  2     1.97561874E-03   # N_12
  1  3    -2.47354921E-01   # N_13
  1  4    -5.66620153E-02   # N_14
  2  1    -1.36544401E-01   # N_21
  2  2    -3.24237982E-02   # N_22
  2  3    -6.95606467E-01   # N_23
  2  4     7.04582122E-01   # N_24
  3  1     2.13901019E-01   # N_31
  3  2    -2.51395716E-02   # N_32
  3  3     6.74478343E-01   # N_33
  3  4     7.06182215E-01   # N_34
  4  1    -9.61666056E-04   # N_41
  4  2     9.99156042E-01   # N_42
  4  3    -5.11374389E-03   # N_43
  4  4     4.07446762E-02   # N_44
#
BLOCK UMIX  # Chargino Mixing Matrix U
  1  1     7.23701257E-03   # U_11
  1  2     9.99973812E-01   # U_12
  2  1    -9.99973812E-01   # U_21
  2  2     7.23701257E-03   # U_22
#
BLOCK VMIX  # Chargino Mixing Matrix V
  1  1    -5.76584870E-02   # V_11
  1  2    -9.98336366E-01   # V_12
  2  1     9.98336366E-01   # V_21
  2  2    -5.76584870E-02   # V_22
#
BLOCK STOPMIX  # Stop Mixing Matrix
  1  1    -6.07044247E-02   # cos(theta_t)
  1  2     9.98155786E-01   # sin(theta_t)
  2  1    -9.98155786E-01   # -sin(theta_t)
  2  2    -6.07044247E-02   # cos(theta_t)
#
BLOCK SBOTMIX  # Sbottom Mixing Matrix
  1  1    -3.12412854E-03   # cos(theta_b)
  1  2     9.99995120E-01   # sin(theta_b)
  2  1    -9.99995120E-01   # -sin(theta_b)
  2  2    -3.12412854E-03   # cos(theta_b)
#
BLOCK STAUMIX  # Stau Mixing Matrix
  1  1     9.99983557E-01   # cos(theta_tau)
  1  2    -5.73460806E-03   # sin(theta_tau)
  2  1     5.73460806E-03   # -sin(theta_tau)
  2  2     9.99983557E-01   # cos(theta_tau)
#
BLOCK ALPHA  # Higgs mixing
          -3.21267544E-02   # Mixing angle in the neutral Higgs boson sector
#
BLOCK HMIX Q=  2.87685300E+03  # DRbar Higgs Parameters
         1    -1.78275426E+02   # mu(Q)MSSM           
         2     3.11966690E+01   # tan                 
         3     2.41920199E+02   # higgs               
         4     9.47638603E+06   # mA^2(Q)MSSM         
#
BLOCK GAUGE Q=  2.87685300E+03  # The gauge couplings
     1     3.65580063E-01   # gprime(Q) DRbar
     2     6.40507263E-01   # g(Q) DRbar
     3     1.02013142E+00   # g3(Q) DRbar
#
BLOCK AU Q=  2.87685300E+03  # The trilinear couplings
  1  1     0.00000000E+00   # A_u(Q) DRbar
  2  2     0.00000000E+00   # A_c(Q) DRbar
  3  3     4.56411001E+03   # A_t(Q) DRbar
#
BLOCK AD Q=  2.87685300E+03  # The trilinear couplings
  1  1     0.00000000E+00   # A_d(Q) DRbar
  2  2     0.00000000E+00   # A_s(Q) DRbar
  3  3    -4.75899946E+01   # A_b(Q) DRbar
#
BLOCK AE Q=  2.87685300E+03  # The trilinear couplings
  1  1     0.00000000E+00   # A_e(Q) DRbar
  2  2     0.00000000E+00   # A_mu(Q) DRbar
  3  3     3.02438000E+03   # A_tau(Q) DRbar
#
BLOCK Yu Q=  2.87685300E+03  # The Yukawa couplings
  1  1     0.00000000E+00   # y_u(Q) DRbar
  2  2     0.00000000E+00   # y_c(Q) DRbar
  3  3     8.41012243E-01   # y_t(Q) DRbar
#
BLOCK Yd Q=  2.87685300E+03  # The Yukawa couplings
  1  1     0.00000000E+00   # y_d(Q) DRbar
  2  2     0.00000000E+00   # y_s(Q) DRbar
  3  3     4.29106999E-01   # y_b(Q) DRbar
#
BLOCK Ye Q=  2.87685300E+03  # The Yukawa couplings
  1  1     0.00000000E+00   # y_e(Q) DRbar
  2  2     0.00000000E+00   # y_mu(Q) DRbar
  3  3     3.22179345E-01   # y_tau(Q) DRbar
#
BLOCK MSOFT Q=  2.87685300E+03  # The soft SUSY breaking masses at the scale Q
         1     5.07400000E+01   # M_1(Q)              
         2    -1.94358000E+03   # M_2(Q)              
         3     2.01971000E+03   # M_3(Q)              
        21     9.28553309E+06   # mH1^2(Q)            
        22     4.39615688E+04   # mH2^2(Q)            
        31     7.20720000E+02   # meL(Q)              
        32     7.20720000E+02   # mmuL(Q)             
        33     2.56841000E+03   # mtauL(Q)            
        34     2.48620000E+02   # meR(Q)              
        35     2.48620000E+02   # mmuR(Q)             
        36     3.05446000E+03   # mtauR(Q)            
        41     4.44449972E+02   # mqL1(Q)             
        42     4.44449972E+02   # mqL2(Q)             
        43     3.85225000E+03   # mqL3(Q)             
        44     3.54243000E+03   # muR(Q)              
        45     3.54243000E+03   # mcR(Q)              
        46     2.14937999E+03   # mtR(Q)              
        47     2.43009999E+03   # mdR(Q)              
        48     2.43009999E+03   # msR(Q)              
        49     3.25837000E+03   # mbR(Q)              
#
Block HiggsBoundsInputHiggsCouplingsFermions
# ScalarNormEffCoupSq PseudoSNormEffCoupSq NP   IP1 IP2 IP2
    1.00518673E+00    0.00000000E+00        3  25   5   5  # h0-b-b eff. coupling^2, normalised to SM
    9.73226970E+02    0.00000000E+00        3  35   5   5  # H0-b-b eff. coupling^2, normalised to SM
    0.00000000E+00    9.73232157E+02        3  36   5   5  # A0-b-b eff. coupling^2, normalised to SM
#
    9.99994671E-01    0.00000000E+00        3  25   6   6  # h0-t-t eff. coupling^2, normalised to SM
    1.03283345E-03    0.00000000E+00        3  35   6   6  # H0-t-t eff. coupling^2, normalised to SM
    0.00000000E+00    1.02750407E-03        3  36   6   6  # A0-t-t eff. coupling^2, normalised to SM
#
    1.00518673E+00    0.00000000E+00        3  25  15  15  # h0-tau-tau eff. coupling^2, normalised to SM
    9.73226970E+02    0.00000000E+00        3  35  15  15  # H0-tau-tau eff. coupling^2, normalised to SM
    0.00000000E+00    9.73232157E+02        3  36  15  15  # A0-tau-tau eff. coupling^2, normalised to SM
#
Block HiggsBoundsInputHiggsCouplingsBosons
    9.99999993E-01        3  25  24  24  # h0-W-W eff. coupling^2, normalised to SM
    6.89267144E-09        3  35  24  24  # H0-W-W eff. coupling^2, normalised to SM
    0.00000000E+00        3  36  24  24  # A0-W-W eff. coupling^2, normalised to SM
#
    9.99999993E-01        3  25  23  23  # h0-Z-Z eff. coupling^2, normalised to SM
    6.89267144E-09        3  35  23  23  # H0-Z-Z eff. coupling^2, normalised to SM
    0.00000000E+00        3  36  23  23  # A0-Z-Z eff. coupling^2, normalised to SM
#
    8.88180750E-01        3  25  21  21  # h0-g-g eff. coupling^2, normalised to SM
    2.23871027E-13        3  35  21  21  # H0-g-g eff. coupling^2, normalised to SM
    2.07766409E-12        3  36  21  21  # A0-g-g eff. coupling^2, normalised to SM
#
    0.00000000E+00        3  25  25  23  # h0-h0-Z eff. coupling^2, normalised to SM
    0.00000000E+00        3  35  25  23  # H0-h0-Z eff. coupling^2, normalised to SM
    6.89267144E-09        3  36  25  23  # A0-h0-Z eff. coupling^2, normalised to SM
    0.00000000E+00        3  35  35  23  # H0-H0-Z eff. coupling^2, normalised to SM
    9.99999993E-01        3  36  35  23  # A0-H0-Z eff. coupling^2, normalised to SM
    0.00000000E+00        3  36  36  23  # A0-A0-Z eff. coupling^2, normalised to SM
#
    0.00000000E+00        4  25  21  21  23  # h0-g-g-Z eff. coupling^2, normalised to SM
    0.00000000E+00        4  35  21  21  23  # H0-g-g-Z eff. coupling^2, normalised to SM
    0.00000000E+00        4  36  21  21  23  # A0-g-g-Z eff. coupling^2, normalised to SM
#
#
#
#                             =================
#                             |The decay table|
#                             =================
#
# - The QCD corrections to the decays gluino -> squark  + quark
#                                     squark -> gaugino + quark_prime
#                                     squark -> squark_prime + Higgs
#                                     squark -> gluino  + quark
#   are included.
#
# - The multi-body decays for the inos, stops and sbottoms are included.
#
# - The loop induced decays for the gluino, neutralinos and stops
#   are included.
#
# - The SUSY decays of the top quark are included.
#
#
#         PDG            Width
DECAY         6     1.44450001E+00   # top decays
#          BR         NDA      ID1       ID2
     1.00000000E+00    2           5        24   # BR(t ->  b    W+)
#
#         PDG            Width
DECAY   1000021     1.41772015E+02   # gluino decays
#          BR         NDA      ID1       ID2
     1.24817351E-01    2     1000001        -1   # BR(~g -> ~d_L  db)
     1.24817351E-01    2    -1000001         1   # BR(~g -> ~d_L* d )
     1.25182658E-01    2     1000002        -2   # BR(~g -> ~u_L  ub)
     1.25182658E-01    2    -1000002         2   # BR(~g -> ~u_L* u )
     1.24817351E-01    2     1000003        -3   # BR(~g -> ~s_L  sb)
     1.24817351E-01    2    -1000003         3   # BR(~g -> ~s_L* s )
     1.25182640E-01    2     1000004        -4   # BR(~g -> ~c_L  cb)
     1.25182640E-01    2    -1000004         4   # BR(~g -> ~c_L* c )
#
#         PDG            Width
DECAY   1000006     6.49221931E+01   # stop1 decays
#          BR         NDA      ID1       ID2
     7.31317041E-02    2     1000022         6   # BR(~t_1 -> ~chi_10 t )
     2.27728928E-01    2     1000023         6   # BR(~t_1 -> ~chi_20 t )
     2.35769274E-01    2     1000025         6   # BR(~t_1 -> ~chi_30 t )
     4.97215981E-07    2     1000035         6   # BR(~t_1 -> ~chi_40 t )
     4.63367218E-01    2     1000024         5   # BR(~t_1 -> ~chi_1+ b )
     2.37869842E-06    2     1000037         5   # BR(~t_1 -> ~chi_2+ b )
#
#         PDG            Width
DECAY   2000006     2.41423448E+02   # stop2 decays
#          BR         NDA      ID1       ID2
     3.55832624E-03    2     1000022         6   # BR(~t_2 -> ~chi_10 t )
     1.11757995E-01    2     1000023         6   # BR(~t_2 -> ~chi_20 t )
     1.09957682E-01    2     1000025         6   # BR(~t_2 -> ~chi_30 t )
     3.69921176E-02    2     1000035         6   # BR(~t_2 -> ~chi_40 t )
     5.83231894E-02    2     1000024         5   # BR(~t_2 -> ~chi_1+ b )
     7.33330970E-02    2     1000037         5   # BR(~t_2 -> ~chi_2+ b )
     4.08109973E-01    2     1000021         6   # BR(~t_2 -> ~g      t )
     1.05825287E-01    2     1000006        25   # BR(~t_2 -> ~t_1    h )
     9.21134431E-02    2     1000006        23   # BR(~t_2 -> ~t_1    Z )
     2.88888857E-05    2     1000005        24   # BR(~t_2 -> ~b_1    W+)
#
#         PDG            Width
DECAY   1000005     8.28392126E+01   # sbottom1 decays
#          BR         NDA      ID1       ID2
     3.10938806E-02    2     1000022         5   # BR(~b_1 -> ~chi_10 b )
     7.06231873E-02    2     1000023         5   # BR(~b_1 -> ~chi_20 b )
     6.69618170E-02    2     1000025         5   # BR(~b_1 -> ~chi_30 b )
     2.14940525E-07    2     1000035         5   # BR(~b_1 -> ~chi_40 b )
     1.44334011E-01    2    -1000024         6   # BR(~b_1 -> ~chi_1- t )
     4.04692615E-07    2    -1000037         6   # BR(~b_1 -> ~chi_2- t )
     6.86984689E-01    2     1000021         5   # BR(~b_1 -> ~g      b )
     1.79588760E-06    2     1000006       -24   # BR(~b_1 -> ~t_1    W-)
#
#         PDG            Width
DECAY   2000005     2.35779608E+02   # sbottom2 decays
#          BR         NDA      ID1       ID2
     5.83449314E-03    2     1000022         5   # BR(~b_2 -> ~chi_10 b )
     2.89294795E-02    2     1000023         5   # BR(~b_2 -> ~chi_20 b )
     2.75036500E-02    2     1000025         5   # BR(~b_2 -> ~chi_30 b )
     3.72534039E-02    2     1000035         5   # BR(~b_2 -> ~chi_40 b )
     2.27880215E-01    2    -1000024         6   # BR(~b_2 -> ~chi_1- t )
     7.51568390E-02    2    -1000037         6   # BR(~b_2 -> ~chi_2- t )
     4.15485522E-01    2     1000021         5   # BR(~b_2 -> ~g      b )
     1.64196425E-05    2     1000005        25   # BR(~b_2 -> ~b_1    h )
     1.46144181E-05    2     1000005        23   # BR(~b_2 -> ~b_1    Z )
     1.81925363E-01    2     1000006       -24   # BR(~b_2 -> ~t_1    W-)
#
#         PDG            Width
DECAY   1000002     1.31507232E-01   # sup_L decays
#          BR         NDA      ID1       ID2
     7.92146175E-01    2     1000022         2   # BR(~u_L -> ~chi_10 u)
     6.86449545E-02    2     1000023         2   # BR(~u_L -> ~chi_20 u)
     4.82815126E-03    2     1000025         2   # BR(~u_L -> ~chi_30 u)
     1.34380719E-01    2     1000024         1   # BR(~u_L -> ~chi_1+ d)
#
#         PDG            Width
DECAY   2000002     1.18454209E+02   # sup_R decays
#          BR         NDA      ID1       ID2
     6.42674989E-02    2     1000022         2   # BR(~u_R -> ~chi_10 u)
     1.27529611E-03    2     1000023         2   # BR(~u_R -> ~chi_20 u)
     3.12867330E-03    2     1000025         2   # BR(~u_R -> ~chi_30 u)
     3.20762211E-08    2     1000035         2   # BR(~u_R -> ~chi_40 u)
     9.31328500E-01    2     1000021         2   # BR(~u_R -> ~g      u)
#
#         PDG            Width
DECAY   1000001     1.12227370E-01   # sdown_L decays
#          BR         NDA      ID1       ID2
     8.94413732E-01    2     1000022         1   # BR(~d_L -> ~chi_10 d)
     9.87073515E-04    2     1000023         1   # BR(~d_L -> ~chi_20 d)
     1.02100037E-01    2     1000025         1   # BR(~d_L -> ~chi_30 d)
     2.49915714E-03    2    -1000024         2   # BR(~d_L -> ~chi_1- u)
#
#         PDG            Width
DECAY   2000001     1.21678272E+01   # sdown_R decays
#          BR         NDA      ID1       ID2
     1.08102803E-01    2     1000022         1   # BR(~d_R -> ~chi_10 d)
     2.13486013E-03    2     1000023         1   # BR(~d_R -> ~chi_20 d)
     5.23572072E-03    2     1000025         1   # BR(~d_R -> ~chi_30 d)
     1.75013982E-08    2     1000035         1   # BR(~d_R -> ~chi_40 d)
     8.84526599E-01    2     1000021         1   # BR(~d_R -> ~g      d)
#
#         PDG            Width
DECAY   1000004     1.27078618E-01   # scharm_L decays
#          BR         NDA      ID1       ID2
     7.92394084E-01    2     1000022         4   # BR(~c_L -> ~chi_10 c)
     6.85616532E-02    2     1000023         4   # BR(~c_L -> ~chi_20 c)
     4.82206684E-03    2     1000025         4   # BR(~c_L -> ~chi_30 c)
     1.34222195E-01    2     1000024         3   # BR(~c_L -> ~chi_1+ s)
#
#         PDG            Width
DECAY   2000004     8.64644497E+01   # scharm_R decays
#          BR         NDA      ID1       ID2
     9.18417317E-02    2     1000022         4   # BR(~c_R -> ~chi_10 c)
     1.82096989E-03    2     1000023         4   # BR(~c_R -> ~chi_20 c)
     4.46723040E-03    2     1000025         4   # BR(~c_R -> ~chi_30 c)
     4.54006391E-08    2     1000035         4   # BR(~c_R -> ~chi_40 c)
     9.01870023E-01    2     1000021         4   # BR(~c_R -> ~g      c)
#
#         PDG            Width
DECAY   1000003     1.08497159E-01   # sstrange_L decays
#          BR         NDA      ID1       ID2
     8.94562144E-01    2     1000022         3   # BR(~s_L -> ~chi_10 s)
     9.85730183E-04    2     1000023         3   # BR(~s_L -> ~chi_20 s)
     1.01956327E-01    2     1000025         3   # BR(~s_L -> ~chi_30 s)
     2.49579918E-03    2    -1000024         4   # BR(~s_L -> ~chi_1- c)
#
#         PDG            Width
DECAY   2000003     9.08715703E+00   # sstrange_R decays
#          BR         NDA      ID1       ID2
     1.52430864E-01    2     1000022         3   # BR(~s_R -> ~chi_10 s)
     3.00620695E-03    2     1000023         3   # BR(~s_R -> ~chi_20 s)
     7.37231329E-03    2     1000025         3   # BR(~s_R -> ~chi_30 s)
     2.39680665E-08    2     1000035         3   # BR(~s_R -> ~chi_40 s)
     8.37190591E-01    2     1000021         3   # BR(~s_R -> ~g      s)
#
#         PDG            Width
DECAY   1000011     9.98854416E-01   # selectron_L decays
#          BR         NDA      ID1       ID2
     9.41106468E-01    2     1000022        11   # BR(~e_L -> ~chi_10 e-)
     3.31922866E-02    2     1000023        11   # BR(~e_L -> ~chi_20 e-)
     2.54146792E-02    2     1000025        11   # BR(~e_L -> ~chi_30 e-)
     2.86566460E-04    2    -1000024        12   # BR(~e_L -> ~chi_1- nu_e)
#
#         PDG            Width
DECAY   2000011     1.39290564E+00   # selectron_R decays
#          BR         NDA      ID1       ID2
     9.77279695E-01    2     1000022        11   # BR(~e_R -> ~chi_10 e-)
     6.99899305E-03    2     1000023        11   # BR(~e_R -> ~chi_20 e-)
     1.57213121E-02    2     1000025        11   # BR(~e_R -> ~chi_30 e-)
#
#         PDG            Width
DECAY   1000013     9.98854377E-01   # smuon_L decays
#          BR         NDA      ID1       ID2
     9.41106468E-01    2     1000022        13   # BR(~mu_L -> ~chi_10 mu-)
     3.31922865E-02    2     1000023        13   # BR(~mu_L -> ~chi_20 mu-)
     2.54146791E-02    2     1000025        13   # BR(~mu_L -> ~chi_30 mu-)
     2.86566471E-04    2    -1000024        14   # BR(~mu_L -> ~chi_1- nu_mu)
#
#         PDG            Width
DECAY   2000013     1.39290522E+00   # smuon_R decays
#          BR         NDA      ID1       ID2
     9.77279707E-01    2     1000022        13   # BR(~mu_R -> ~chi_10 mu-)
     6.99898962E-03    2     1000023        13   # BR(~mu_R -> ~chi_20 mu-)
     1.57213033E-02    2     1000025        13   # BR(~mu_R -> ~chi_30 mu-)
#
#         PDG            Width
DECAY   1000015     1.45778714E+01   # stau_1 decays
#          BR         NDA      ID1       ID2
     2.44505228E-01    2     1000022        15   # BR(~tau_1 -> ~chi_10  tau-)
     1.83338629E-01    2     1000023        15   # BR(~tau_1 -> ~chi_20  tau-)
     1.70407149E-01    2     1000025        15   # BR(~tau_1 -> ~chi_30  tau-)
     1.33666495E-01    2     1000035        15   # BR(~tau_1 -> ~chi_40  tau-)
     1.46340812E-04    2    -1000024        16   # BR(~tau_1 -> ~chi_1-  nu_tau)
     2.67936159E-01    2    -1000037        16   # BR(~tau_1 -> ~chi_2-  nu_tau)
#
#         PDG            Width
DECAY   2000015     2.87599496E+01   # stau_2 decays
#          BR         NDA      ID1       ID2
     5.40747584E-01    2     1000022        15   # BR(~tau_2 -> ~chi_10  tau-)
     1.15828041E-01    2     1000023        15   # BR(~tau_2 -> ~chi_20  tau-)
     1.24885516E-01    2     1000025        15   # BR(~tau_2 -> ~chi_30  tau-)
     1.36104035E-05    2     1000035        15   # BR(~tau_2 -> ~chi_40  tau-)
     2.17547121E-01    2    -1000024        16   # BR(~tau_2 -> ~chi_1-  nu_tau)
     2.68832706E-05    2    -1000037        16   # BR(~tau_2 -> ~chi_2-  nu_tau)
     4.68618885E-04    2     1000016       -24   # BR(~tau_2 -> ~nu_tauL W-)
     2.46325912E-04    2     1000015        25   # BR(~tau_2 -> ~tau_1   h)
     2.36299872E-04    2     1000015        23   # BR(~tau_2 -> ~tau_1   Z)
#
#         PDG            Width
DECAY   1000012     1.00309063E+00   # snu_eL decays
#          BR         NDA      ID1       ID2
     9.18492840E-01    2     1000022        12   # BR(~nu_eL -> ~chi_10 nu_e)
     5.58095353E-03    2     1000023        12   # BR(~nu_eL -> ~chi_20 nu_e)
     5.79415449E-02    2     1000025        12   # BR(~nu_eL -> ~chi_30 nu_e)
     1.79846614E-02    2     1000024        11   # BR(~nu_eL -> ~chi_1+ e-)
#
#         PDG            Width
DECAY   1000014     1.00309063E+00   # snu_muL decays
#          BR         NDA      ID1       ID2
     9.18492841E-01    2     1000022        14   # BR(~nu_muL -> ~chi_10 nu_mu)
     5.58095354E-03    2     1000023        14   # BR(~nu_muL -> ~chi_20 nu_mu)
     5.79415449E-02    2     1000025        14   # BR(~nu_muL -> ~chi_30 nu_mu)
     1.79846606E-02    2     1000024        13   # BR(~nu_muL -> ~chi_1+ mu-)
#
#         PDG            Width
DECAY   1000016     1.45863235E+01   # snu_tauL decays
#          BR         NDA      ID1       ID2
     2.17963288E-01    2     1000022        16   # BR(~nu_tauL -> ~chi_10 nu_tau)
     1.47724493E-03    2     1000023        16   # BR(~nu_tauL -> ~chi_20 nu_tau)
     1.54495059E-02    2     1000025        16   # BR(~nu_tauL -> ~chi_30 nu_tau)
     1.33406960E-01    2     1000035        16   # BR(~nu_tauL -> ~chi_40 nu_tau)
     3.65733846E-01    2     1000024        15   # BR(~nu_tauL -> ~chi_1+ tau-)
     2.65969156E-01    2     1000037        15   # BR(~nu_tauL -> ~chi_2+ tau-)
#
#         PDG            Width
DECAY   1000024     7.77932092E-02   # chargino1+ decays
#          BR         NDA      ID1       ID2
     1.00000000E+00    2     1000022        24   # BR(~chi_1+ -> ~chi_10  W+)
#
#         PDG            Width
DECAY   1000037     1.07754446E+02   # chargino2+ decays
#          BR         NDA      ID1       ID2
     1.61021671E-01    2     1000002        -1   # BR(~chi_2+ -> ~u_L     db)
     1.60935425E-01    2    -1000001         2   # BR(~chi_2+ -> ~d_L*    u )
     1.61021669E-01    2     1000004        -3   # BR(~chi_2+ -> ~c_L     sb)
     1.60935384E-01    2    -1000003         4   # BR(~chi_2+ -> ~s_L*     c )
     5.30834756E-02    2     1000012       -11   # BR(~chi_2+ -> ~nu_eL   e+  )
     5.30834756E-02    2     1000014       -13   # BR(~chi_2+ -> ~nu_muL mu+ )
     5.30437306E-02    2    -1000011        12   # BR(~chi_2+ -> ~e_L+    nu_e)
     5.30437306E-02    2    -1000013        14   # BR(~chi_2+ -> ~mu_L+   nu_mu)
     3.63557777E-02    2     1000024        23   # BR(~chi_2+ -> ~chi_1+  Z )
     4.56711902E-04    2     1000022        24   # BR(~chi_2+ -> ~chi_10  W+)
     3.54562385E-02    2     1000023        24   # BR(~chi_2+ -> ~chi_20  W+)
     3.47557525E-02    2     1000025        24   # BR(~chi_2+ -> ~chi_30  W+)
     3.68069580E-02    2     1000024        25   # BR(~chi_2+ -> ~chi_1+  h )
#
#         PDG            Width
DECAY   1000022     0.00000000E+00   # neutralino1 decays
#
#         PDG            Width
DECAY   1000023     4.16932364E-02   # neutralino2 decays
#          BR         NDA      ID1       ID2
     9.61389556E-01    2     1000022        23   # BR(~chi_20 -> ~chi_10   Z )
     3.86104443E-02    2     1000022        25   # BR(~chi_20 -> ~chi_10   h )
#
#         PDG            Width
DECAY   1000025     5.59013243E-02   # neutralino3 decays
#          BR         NDA      ID1       ID2
     6.05676406E-01    2     1000022        23   # BR(~chi_30 -> ~chi_10   Z )
     3.94323594E-01    2     1000022        25   # BR(~chi_30 -> ~chi_10   h )
#
#         PDG            Width
DECAY   1000035     1.07744900E+02   # neutralino4 decays
#          BR         NDA      ID1       ID2
     2.82852923E-04    2     1000022        23   # BR(~chi_40 -> ~chi_10   Z )
     1.36734981E-02    2     1000023        23   # BR(~chi_40 -> ~chi_20   Z )
     2.23469714E-02    2     1000025        23   # BR(~chi_40 -> ~chi_30   Z )
     3.54310021E-02    2     1000024       -24   # BR(~chi_40 -> ~chi_1+   W-)
     3.54310021E-02    2    -1000024        24   # BR(~chi_40 -> ~chi_1-   W+)
     1.75792864E-04    2     1000022        25   # BR(~chi_40 -> ~chi_10   h )
     2.30514243E-02    2     1000023        25   # BR(~chi_40 -> ~chi_20   h )
     1.34760790E-02    2     1000025        25   # BR(~chi_40 -> ~chi_30   h )
     8.06099972E-02    2     1000002        -2   # BR(~chi_40 -> ~u_L      ub)
     8.06099972E-02    2    -1000002         2   # BR(~chi_40 -> ~u_L*     u )
     8.03619618E-02    2     1000001        -1   # BR(~chi_40 -> ~d_L      db)
     8.03619618E-02    2    -1000001         1   # BR(~chi_40 -> ~d_L*     d )
     8.06099768E-02    2     1000004        -4   # BR(~chi_40 -> ~c_L      cb)
     8.06099768E-02    2    -1000004         4   # BR(~chi_40 -> ~c_L*     c )
     8.03619618E-02    2     1000003        -3   # BR(~chi_40 -> ~s _L      sb)
     8.03619618E-02    2    -1000003         3   # BR(~chi_40 -> ~s _L*     s )
     2.64478523E-02    2     1000011       -11   # BR(~chi_40 -> ~e_L-     e+)
     2.64478523E-02    2    -1000011        11   # BR(~chi_40 -> ~e_L+     e-)
     4.24347502E-08    2     2000011       -11   # BR(~chi_40 -> ~e_R-     e+)
     4.24347502E-08    2    -2000011        11   # BR(~chi_40 -> ~e_R+     e-)
     2.64478523E-02    2     1000013       -13   # BR(~chi_40 -> ~mu_L-    mu+)
     2.64478523E-02    2    -1000013        13   # BR(~chi_40 -> ~mu_L+    mu-)
     4.24347502E-08    2     2000013       -13   # BR(~chi_40 -> ~mu_R-    mu+)
     4.24347502E-08    2    -2000013        13   # BR(~chi_40 -> ~mu_R+    mu-)
     2.66130008E-02    2     1000012       -12   # BR(~chi_40 -> ~nu_eL    nu_eb)
     2.66130008E-02    2    -1000012        12   # BR(~chi_40 -> ~nu_eL*   nu_e )
     2.66130008E-02    2     1000014       -14   # BR(~chi_40 -> ~nu_muL   nu_mub)
     2.66130008E-02    2    -1000014        14   # BR(~chi_40 -> ~nu_muL*  nu_mu )
#
#         PDG            Width
DECAY        25     4.64149412E-03   # h decays
#          BR         NDA      ID1       ID2
     5.22959676E-01    2           5        -5   # BR(h -> b       bb     )
     5.73353228E-02    2         -15        15   # BR(h -> tau+    tau-   )
     2.02919982E-04    2         -13        13   # BR(h -> mu+     mu-    )
     2.20565978E-04    2           3        -3   # BR(h -> s       sb     )
     1.90327043E-02    2           4        -4   # BR(h -> c       cb     )
     7.35584155E-02    2          21        21   # BR(h -> g       g      )
     2.22982420E-03    2          22        22   # BR(h -> gam     gam    )
     1.72935280E-03    2          22        23   # BR(h -> Z       gam    )
     2.46659709E-01    2          24       -24   # BR(h -> W+      W-     )
     3.21466260E-02    2          23        23   # BR(h -> Z       Z      )
     4.39248831E-02    2     1000022   1000022   # BR(h -> ~chi_10 ~chi_10)
#
#         PDG            Width
DECAY        35     5.76071052E+01   # H decays
#          BR         NDA      ID1       ID2
     5.95893066E-01    2           5        -5   # BR(H -> b       bb     )
     1.05164765E-01    2         -15        15   # BR(H -> tau+    tau-   )
     3.61203672E-04    2         -13        13   # BR(H -> mu+     mu-    )
     2.51222633E-04    2           3        -3   # BR(H -> s       sb     )
     2.23279124E-08    2           4        -4   # BR(H -> c       cb     )
     2.19491561E-03    2           6        -6   # BR(H -> t       tb     )
     7.50582544E-06    2          21        21   # BR(H -> g       g      )
     9.72028470E-09    2          22        22   # BR(H -> gam     gam    )
     4.22483501E-09    2          23        22   # BR(H -> Z       gam    )
     1.08023896E-06    2          24       -24   # BR(H -> W+      W-     )
     5.38940678E-07    2          23        23   # BR(H -> Z       Z      )
     3.81175829E-06    2          25        25   # BR(H -> h       h      )
     1.44270408E-03    2     1000024  -1000024   # BR(H -> ~chi_1+ ~chi_1-)
     7.69117173E-02    2     1000024  -1000037   # BR(H -> ~chi_1+ ~chi_2-)
     7.69117173E-02    2     1000037  -1000024   # BR(H -> ~chi_2+ ~chi_1-)
     7.37470668E-03    2     1000022   1000022   # BR(H -> ~chi_10 ~chi_10)
     3.27245463E-04    2     1000023   1000023   # BR(H -> ~chi_20 ~chi_20)
     4.13663431E-03    2     1000025   1000025   # BR(H -> ~chi_30 ~chi_30)
     2.52311122E-02    2     1000022   1000023   # BR(H -> ~chi_10 ~chi_20)
     2.33383179E-02    2     1000022   1000025   # BR(H -> ~chi_10 ~chi_30)
     4.92393255E-03    2     1000022   1000035   # BR(H -> ~chi_10 ~chi_40)
     3.31899854E-03    2     1000023   1000025   # BR(H -> ~chi_20 ~chi_30)
     2.99675660E-02    2     1000023   1000035   # BR(H -> ~chi_20 ~chi_40)
     4.22323542E-02    2     1000025   1000035   # BR(H -> ~chi_30 ~chi_40)
     6.96062637E-07    2     1000002  -1000002   # BR(H -> ~u_L    ~u_L*  )
     6.96062637E-07    2     1000004  -1000004   # BR(H -> ~c_L    ~c_L*  )
     1.01919095E-06    2     1000001  -1000001   # BR(H -> ~d_L    ~d_L*  )
     1.01919095E-06    2     1000003  -1000003   # BR(H -> ~s_L    ~s_L*  )
     1.42189999E-07    2     1000011  -1000011   # BR(H -> ~e_L-   ~e_L+  )
     1.03725231E-07    2     2000011  -2000011   # BR(H -> ~e_R-   ~e_R+  )
     1.42189999E-07    2     1000013  -1000013   # BR(H -> ~mu_L-  ~mu_L+ )
     1.03725231E-07    2     2000013  -2000013   # BR(H -> ~mu_R-  ~mu_R+ )
     4.62998955E-07    2     1000012  -1000012   # BR(H -> ~nu_eL  ~nu_eL*   )
     4.62998955E-07    2     1000014  -1000014   # BR(H -> ~nu_muL ~nu_muL*  )
#
#         PDG            Width
DECAY        36     5.76083991E+01   # A decays
#          BR         NDA      ID1       ID2
     5.95900129E-01    2           5        -5   # BR(A -> b       bb     )
     1.05162911E-01    2         -15        15   # BR(A -> tau+    tau-   )
     3.61196841E-04    2         -13        13   # BR(A -> mu+     mu-    )
     2.51236010E-04    2           3        -3   # BR(A -> s       sb     )
     2.24178933E-08    2           4        -4   # BR(A -> c       cb     )
     2.20208283E-03    2           6        -6   # BR(A -> t       tb     )
     2.28651386E-05    2          21        21   # BR(A -> g       g      )
     4.27504844E-08    2          22        22   # BR(A -> gam     gam    )
     1.74747944E-08    2          23        22   # BR(A -> Z       gam    )
     1.09425880E-06    2          23        25   # BR(A -> Z       h      )
     1.48784049E-03    2     1000024  -1000024   # BR(A -> ~chi_1+ ~chi_1-)
     7.68827912E-02    2     1000024  -1000037   # BR(A -> ~chi_1+ ~chi_2-)
     7.68827912E-02    2     1000037  -1000024   # BR(A -> ~chi_2+ ~chi_1-)
     7.16786774E-03    2     1000022   1000022   # BR(A -> ~chi_10 ~chi_10)
     3.78407507E-04    2     1000023   1000023   # BR(A -> ~chi_20 ~chi_20)
     3.67485360E-03    2     1000025   1000025   # BR(A -> ~chi_30 ~chi_30)
     2.87574416E-02    2     1000022   1000023   # BR(A -> ~chi_10 ~chi_20)
     2.02468559E-02    2     1000022   1000025   # BR(A -> ~chi_10 ~chi_30)
     4.41715133E-03    2     1000022   1000035   # BR(A -> ~chi_10 ~chi_40)
     3.51072934E-03    2     1000023   1000025   # BR(A -> ~chi_20 ~chi_30)
     4.46809343E-02    2     1000023   1000035   # BR(A -> ~chi_20 ~chi_40)
     2.80107389E-02    2     1000025   1000035   # BR(A -> ~chi_30 ~chi_40)
#
#         PDG            Width
DECAY        37     5.74316969E+01   # H+ decays
#          BR         NDA      ID1       ID2
     9.99729226E-04    2           4        -5   # BR(H+ -> c       bb     )
     1.05528657E-01    2         -15        16   # BR(H+ -> tau+    nu_tau )
     3.62453050E-04    2         -13        14   # BR(H+ -> mu+     nu_mu  )
     9.99728051E-06    2           2        -5   # BR(H+ -> u       bb     )
     1.26072280E-05    2           2        -3   # BR(H+ -> u       sb     )
     2.48170084E-04    2           4        -3   # BR(H+ -> c       sb     )
     5.96079275E-01    2           6        -5   # BR(H+ -> t       bb     )
     1.09961429E-06    2          24        25   # BR(H+ -> W+      h      )
     6.08590213E-14    2          24        36   # BR(H+ -> W+      A      )
     6.07652802E-02    2     1000024   1000022   # BR(H+ -> ~chi_1+ ~chi_10)
     2.14083947E-03    2     1000024   1000023   # BR(H+ -> ~chi_1+ ~chi_20)
     1.50524804E-03    2     1000024   1000025   # BR(H+ -> ~chi_1+ ~chi_30)
     7.73257785E-02    2     1000024   1000035   # BR(H+ -> ~chi_1+ ~chi_40)
     9.38541286E-03    2     1000037   1000022   # BR(H+ -> ~chi_2+ ~chi_10)
     7.50980391E-02    2     1000037   1000023   # BR(H+ -> ~chi_2+ ~chi_20)
     7.05328941E-02    2     1000037   1000025   # BR(H+ -> ~chi_2+ ~chi_30)
     5.59136851E-07    2    -1000011   1000012   # BR(H+ -> ~e_L+   ~nu_eL )
     5.59136851E-07    2    -1000013   1000014   # BR(H+ -> ~mu_L+  ~nu_muL)
     1.70035058E-06    2     1000002  -1000001   # BR(H+ -> ~u_L    ~d_L*  )
     1.70035058E-06    2     1000004  -1000003   # BR(H+ -> ~c_L    ~s_L*  )
