#
#                              ======================
#                              | THE SUSYHIT OUTPUT |
#                              ======================
#
#
#              ------------------------------------------------------
#              |     This is the output of the SUSY-HIT package     |
#              |  created by A.Djouadi, M.Muehlleitner and M.Spira. |
#              |  In case of problems with SUSY-HIT email to        |
#              |           margarete.muehlleitner@cern.ch           |
#              |           michael.spira@psi.ch                     |
#              |           abdelhak.djouadi@cern.ch                 |
#              ------------------------------------------------------
#
#              ------------------------------------------------------
#              |  SUSY Les Houches Accord - MSSM Spectrum + Decays  |
#              |              based on the decay programs           |
#              |                                                    |
#              |                     SDECAY 1.3b                    |
#              |                                                    |
#              |  Authors: M.Muhlleitner, A.Djouadi and Y.Mambrini  |
#              |  Ref.:    Comput.Phys.Commun.168(2005)46           |
#              |           [hep-ph/0311167]                         |
#              |                                                    |
#              |                     HDECAY 3.4                     |
#              |                                                    |
#              |  By: A.Djouadi,J.Kalinowski,M.Muhlleitner,M.Spira  |
#              |  Ref.:    Comput.Phys.Commun.108(1998)56           |
#              |           [hep-ph/9704448]                         |
#              |                                                    |
#              |                                                    |
#              |  If not stated otherwise all DRbar couplings and   |
#              |  soft SUSY breaking masses are given at the scale  |
#              |  Q=  0.15596890E+04
#              |                                                    |
#              ------------------------------------------------------
#
#
BLOCK DCINFO  # Decay Program information
     1   SDECAY/HDECAY # decay calculator
     2   1.3b  /3.4    # version number
#
BLOCK SPINFO  # Spectrum calculator information
     1     SOFTSUSY    # spectrum calculator               
     2     3.4.0       # version number                    
#
BLOCK MODSEL  # Model selection
     1     0   #  nonUniversal                                     
#
BLOCK SMINPUTS  # Standard Model inputs
         1     1.27908970E+02   # alpha_em^-1(M_Z)^MSbar
         2     1.16637870E-05   # G_F [GeV^-2]
         3     1.18400000E-01   # alpha_S(M_Z)^MSbar
         4     9.11876000E+01   # M_Z pole mass
         5     4.18000000E+00   # mb(mb)^MSbar
         6     1.73200000E+02   # mt pole mass
         7     1.77700000E+00   # mtau pole mass
#
BLOCK MINPAR  # Input parameters - minimal models
         3     1.13700000E+01   # tanb                
#
BLOCK EXTPAR  # Input parameters - non-minimal models
         0    -1.00000000E+00   # Set                 
         1    -3.46875000E+03   # M_1(MX)             
         2     3.76451000E+03   # M_2(MX)             
         3     9.09240000E+02   # M_3(MX)             
        11    -3.13160000E+03   # At(MX)              
        12    -1.99321000E+03   # Ab(MX)              
        13     1.74877000E+03   # Atau(MX)            
        23    -1.43770000E+02   # mu(MX)              
        26     3.71128000E+03   # mA(pole)            
        31     4.26220000E+02   # meL(MX)             
        32     4.26220000E+02   # mmuL(MX)            
        33     1.19783000E+03   # mtauL(MX)           
        34     2.70902000E+03   # meR(MX)             
        35     2.70902000E+03   # mmuR(MX)            
        36     3.42287000E+03   # mtauR(MX)           
        41     1.50274000E+03   # mqL1(MX)            
        42     1.50274000E+03   # mqL2(MX)            
        43     1.16900000E+03   # mqL3(MX)            
        44     1.45216000E+03   # muR(MX)             
        45     1.45216000E+03   # mcR(MX)             
        46     2.09764000E+03   # mtR(MX)             
        47     1.28096000E+03   # mdR(MX)             
        48     1.28096000E+03   # msR(MX)             
        49     1.08950000E+03   # mbR(MX)             
#
BLOCK MASS  # Mass Spectrum
# PDG code           mass       particle
        24     8.03964303E+01   # W+
        25     1.25954058E+02   # h
        35     3.71135057E+03   # H
        36     3.71127973E+03   # A
        37     3.71249747E+03   # H+
         5     4.81876030E+00   # b-quark pole mass calculated from mb(mb)_Msbar
   1000001     1.51679264E+03   # ~d_L
   2000001     1.31507564E+03   # ~d_R
   1000002     1.51495137E+03   # ~u_L
   2000002     1.48009771E+03   # ~u_R
   1000003     1.51679264E+03   # ~s_L
   2000003     1.31507564E+03   # ~s_R
   1000004     1.51495137E+03   # ~c_L
   2000004     1.48009771E+03   # ~c_R
   1000005     1.13161745E+03   # ~b_1
   2000005     1.16382639E+03   # ~b_2
   1000006     1.14062660E+03   # ~t_1
   2000006     2.08475181E+03   # ~t_2
   1000011     3.12767541E+02   # ~e_L
   2000011     2.71124831E+03   # ~e_R
   1000012     3.02542169E+02   # ~nu_eL
   1000013     3.12767541E+02   # ~mu_L
   2000013     2.71124831E+03   # ~mu_R
   1000014     3.02542169E+02   # ~nu_muL
   1000015     1.17266264E+03   # ~tau_1
   2000015     3.42565597E+03   # ~tau_2
   1000016     1.16975470E+03   # ~nu_tauL
   1000021     1.03257896E+03   # ~g
   1000022     1.50701594E+02   # ~chi_10
   1000023    -1.52418743E+02   # ~chi_20
   1000025    -3.45266938E+03   # ~chi_30
   1000035     3.72259031E+03   # ~chi_40
   1000024     1.52019682E+02   # ~chi_1+
   1000037     3.72275580E+03   # ~chi_2+
#
BLOCK NMIX  # Neutralino Mixing Matrix
  1  1     7.59687086E-03   # N_11
  1  2     1.44934539E-02   # N_12
  1  3     7.09107481E-01   # N_13
  1  4     7.04910496E-01   # N_14
  2  1     1.00443152E-02   # N_21
  2  2     1.60739187E-02   # N_22
  2  3    -7.05097574E-01   # N_23
  2  4     7.08856933E-01   # N_24
  3  1     9.99920688E-01   # N_31
  3  2    -1.44700532E-04   # N_32
  3  3     1.69549293E-03   # N_33
  3  4    -1.24788294E-02   # N_34
  4  1    -1.26897076E-04   # N_41
  4  2     9.99765747E-01   # N_42
  4  3     1.05675739E-03   # N_43
  4  4    -2.16175662E-02   # N_44
#
BLOCK UMIX  # Chargino Mixing Matrix U
  1  1    -1.49165959E-03   # U_11
  1  2     9.99998887E-01   # U_12
  2  1    -9.99998887E-01   # U_21
  2  2    -1.49165959E-03   # U_22
#
BLOCK VMIX  # Chargino Mixing Matrix V
  1  1     3.05828017E-02   # V_11
  1  2    -9.99532237E-01   # V_12
  2  1    -9.99532237E-01   # V_21
  2  2    -3.05828017E-02   # V_22
#
BLOCK STOPMIX  # Stop Mixing Matrix
  1  1     9.88304581E-01   # cos(theta_t)
  1  2     1.52492804E-01   # sin(theta_t)
  2  1    -1.52492804E-01   # -sin(theta_t)
  2  2     9.88304581E-01   # cos(theta_t)
#
BLOCK SBOTMIX  # Sbottom Mixing Matrix
  1  1     2.19913524E-02   # cos(theta_b)
  1  2     9.99758161E-01   # sin(theta_b)
  2  1    -9.99758161E-01   # -sin(theta_b)
  2  2     2.19913524E-02   # cos(theta_b)
#
BLOCK STAUMIX  # Stau Mixing Matrix
  1  1     9.99999841E-01   # cos(theta_tau)
  1  2    -5.63914865E-04   # sin(theta_tau)
  2  1     5.63914865E-04   # -sin(theta_tau)
  2  2     9.99999841E-01   # cos(theta_tau)
#
BLOCK ALPHA  # Higgs mixing
          -9.14215093E-02   # Mixing angle in the neutral Higgs boson sector
#
BLOCK HMIX Q=  1.55968900E+03  # DRbar Higgs Parameters
         1    -1.45437613E+02   # mu(Q)MSSM           
         2     1.09266474E+01   # tan                 
         3     2.43807922E+02   # higgs               
         4     1.37317026E+07   # mA^2(Q)MSSM         
#
BLOCK GAUGE Q=  1.55968900E+03  # The gauge couplings
     1     3.63487290E-01   # gprime(Q) DRbar
     2     6.38546899E-01   # g(Q) DRbar
     3     1.05009594E+00   # g3(Q) DRbar
#
BLOCK AU Q=  1.55968900E+03  # The trilinear couplings
  1  1     0.00000000E+00   # A_u(Q) DRbar
  2  2     0.00000000E+00   # A_c(Q) DRbar
  3  3    -3.13160000E+03   # A_t(Q) DRbar
#
BLOCK AD Q=  1.55968900E+03  # The trilinear couplings
  1  1     0.00000000E+00   # A_d(Q) DRbar
  2  2     0.00000000E+00   # A_s(Q) DRbar
  3  3    -1.99321000E+03   # A_b(Q) DRbar
#
BLOCK AE Q=  1.55968900E+03  # The trilinear couplings
  1  1     0.00000000E+00   # A_e(Q) DRbar
  2  2     0.00000000E+00   # A_mu(Q) DRbar
  3  3     1.74877000E+03   # A_tau(Q) DRbar
#
BLOCK Yu Q=  1.55968900E+03  # The Yukawa couplings
  1  1     0.00000000E+00   # y_u(Q) DRbar
  2  2     0.00000000E+00   # y_c(Q) DRbar
  3  3     8.39553461E-01   # y_t(Q) DRbar
#
BLOCK Yd Q=  1.55968900E+03  # The Yukawa couplings
  1  1     0.00000000E+00   # y_d(Q) DRbar
  2  2     0.00000000E+00   # y_s(Q) DRbar
  3  3     1.48429839E-01   # y_b(Q) DRbar
#
BLOCK Ye Q=  1.55968900E+03  # The Yukawa couplings
  1  1     0.00000000E+00   # y_e(Q) DRbar
  2  2     0.00000000E+00   # y_mu(Q) DRbar
  3  3     1.11532957E-01   # y_tau(Q) DRbar
#
BLOCK MSOFT Q=  1.55968900E+03  # The soft SUSY breaking masses at the scale Q
         1    -3.46875000E+03   # M_1(Q)              
         2     3.76451000E+03   # M_2(Q)              
         3     9.09240000E+02   # M_3(Q)              
        21     1.36290294E+07   # mH1^2(Q)            
        22     2.06951967E+05   # mH2^2(Q)            
        31     4.26220000E+02   # meL(Q)              
        32     4.26220000E+02   # mmuL(Q)             
        33     1.19783000E+03   # mtauL(Q)            
        34     2.70902000E+03   # meR(Q)              
        35     2.70902000E+03   # mmuR(Q)             
        36     3.42287000E+03   # mtauR(Q)            
        41     1.50274000E+03   # mqL1(Q)             
        42     1.50274000E+03   # mqL2(Q)             
        43     1.16900000E+03   # mqL3(Q)             
        44     1.45216000E+03   # muR(Q)              
        45     1.45216000E+03   # mcR(Q)              
        46     2.09764000E+03   # mtR(Q)              
        47     1.28096000E+03   # mdR(Q)              
        48     1.28096000E+03   # msR(Q)              
        49     1.08950000E+03   # mbR(Q)              
#
Block HiggsBoundsInputHiggsCouplingsFermions
# ScalarNormEffCoupSq PseudoSNormEffCoupSq NP   IP1 IP2 IP2
    1.00342006E+00    0.00000000E+00        3  25   5   5  # h0-b-b eff. coupling^2, normalised to SM
    1.19388203E+02    0.00000000E+00        3  35   5   5  # H0-b-b eff. coupling^2, normalised to SM
    0.00000000E+00    1.19391623E+02        3  36   5   5  # A0-b-b eff. coupling^2, normalised to SM
#
    9.99971354E-01    0.00000000E+00        3  25   6   6  # h0-t-t eff. coupling^2, normalised to SM
    8.40444271E-03    0.00000000E+00        3  35   6   6  # H0-t-t eff. coupling^2, normalised to SM
    0.00000000E+00    8.37579699E-03        3  36   6   6  # A0-t-t eff. coupling^2, normalised to SM
#
    1.00342006E+00    0.00000000E+00        3  25  15  15  # h0-tau-tau eff. coupling^2, normalised to SM
    1.19388203E+02    0.00000000E+00        3  35  15  15  # H0-tau-tau eff. coupling^2, normalised to SM
    0.00000000E+00    1.19391623E+02        3  36  15  15  # A0-tau-tau eff. coupling^2, normalised to SM
#
Block HiggsBoundsInputHiggsCouplingsBosons
    9.99999976E-01        3  25  24  24  # h0-W-W eff. coupling^2, normalised to SM
    2.44510609E-08        3  35  24  24  # H0-W-W eff. coupling^2, normalised to SM
    0.00000000E+00        3  36  24  24  # A0-W-W eff. coupling^2, normalised to SM
#
    9.99999976E-01        3  25  23  23  # h0-Z-Z eff. coupling^2, normalised to SM
    2.44510609E-08        3  35  23  23  # H0-Z-Z eff. coupling^2, normalised to SM
    0.00000000E+00        3  36  23  23  # A0-Z-Z eff. coupling^2, normalised to SM
#
    8.75855770E-01        3  25  21  21  # h0-g-g eff. coupling^2, normalised to SM
    6.49290570E-15        3  35  21  21  # H0-g-g eff. coupling^2, normalised to SM
    3.26244140E-13        3  36  21  21  # A0-g-g eff. coupling^2, normalised to SM
#
    0.00000000E+00        3  25  25  23  # h0-h0-Z eff. coupling^2, normalised to SM
    0.00000000E+00        3  35  25  23  # H0-h0-Z eff. coupling^2, normalised to SM
    2.44510609E-08        3  36  25  23  # A0-h0-Z eff. coupling^2, normalised to SM
    0.00000000E+00        3  35  35  23  # H0-H0-Z eff. coupling^2, normalised to SM
    9.99999976E-01        3  36  35  23  # A0-H0-Z eff. coupling^2, normalised to SM
    0.00000000E+00        3  36  36  23  # A0-A0-Z eff. coupling^2, normalised to SM
#
    0.00000000E+00        4  25  21  21  23  # h0-g-g-Z eff. coupling^2, normalised to SM
    0.00000000E+00        4  35  21  21  23  # H0-g-g-Z eff. coupling^2, normalised to SM
    0.00000000E+00        4  36  21  21  23  # A0-g-g-Z eff. coupling^2, normalised to SM
#
#
#
#                             =================
#                             |The decay table|
#                             =================
#
# - The QCD corrections to the decays gluino -> squark  + quark
#                                     squark -> gaugino + quark_prime
#                                     squark -> squark_prime + Higgs
#                                     squark -> gluino  + quark
#   are included.
#
# - The multi-body decays for the inos, stops and sbottoms are included.
#
# - The loop induced decays for the gluino, neutralinos and stops
#   are included.
#
# - The SUSY decays of the top quark are included.
#
#
#         PDG            Width
DECAY         6     1.43571642E+00   # top decays
#          BR         NDA      ID1       ID2
     1.00000000E+00    2           5        24   # BR(t ->  b    W+)
#
#         PDG            Width
DECAY   1000021     2.16101520E-02   # gluino decays
#          BR         NDA      ID1       ID2
     7.49568608E-03    2     1000022        21   # BR(~g -> ~chi_10 g)
     6.29100314E-03    2     1000023        21   # BR(~g -> ~chi_20 g)
#           BR         NDA      ID1       ID2       ID3
     7.50877774E-06    3     1000022         1        -1   # BR(~g -> ~chi_10 d  db)
     6.13483082E-06    3     1000023         1        -1   # BR(~g -> ~chi_20 d  db)
     1.16886704E-05    3     1000022         2        -2   # BR(~g -> ~chi_10 u  ub)
     1.02964472E-05    3     1000023         2        -2   # BR(~g -> ~chi_20 u  ub)
     7.50877774E-06    3     1000022         3        -3   # BR(~g -> ~chi_10 s  sb)
     6.13483082E-06    3     1000023         3        -3   # BR(~g -> ~chi_20 s  sb)
     1.16886704E-05    3     1000022         4        -4   # BR(~g -> ~chi_10 c  cb)
     1.02964472E-05    3     1000023         4        -4   # BR(~g -> ~chi_20 c  cb)
     2.85271841E-02    3     1000022         5        -5   # BR(~g -> ~chi_10 b  bb)
     2.80770459E-02    3     1000023         5        -5   # BR(~g -> ~chi_20 b  bb)
     1.66904525E-01    3     1000022         6        -6   # BR(~g -> ~chi_10 t  tb)
     1.58116121E-01    3     1000023         6        -6   # BR(~g -> ~chi_20 t  tb)
     3.05821270E-05    3     1000024         1        -2   # BR(~g -> ~chi_1+ d  ub)
     3.05821270E-05    3    -1000024         2        -1   # BR(~g -> ~chi_1- u  db)
     3.05821270E-05    3     1000024         3        -4   # BR(~g -> ~chi_1+ s  cb)
     3.05821270E-05    3    -1000024         4        -3   # BR(~g -> ~chi_1- c  sb)
     3.02197424E-01    3     1000024         5        -6   # BR(~g -> ~chi_1+ b  tb)
     3.02197424E-01    3    -1000024         6        -5   # BR(~g -> ~chi_1- t  bb)
#
#         PDG            Width
DECAY   1000006     1.56834545E+01   # stop1 decays
#          BR         NDA      ID1       ID2
     4.60939804E-01    2     1000022         6   # BR(~t_1 -> ~chi_10 t )
     4.78680086E-01    2     1000023         6   # BR(~t_1 -> ~chi_20 t )
     6.03801094E-02    2     1000024         5   # BR(~t_1 -> ~chi_1+ b )
#
#         PDG            Width
DECAY   2000006     2.07533704E+02   # stop2 decays
#          BR         NDA      ID1       ID2
     6.84002406E-02    2     1000022         6   # BR(~t_2 -> ~chi_10 t )
     6.86255224E-02    2     1000023         6   # BR(~t_2 -> ~chi_20 t )
     0.00000000E+00    2     1000025         6   # BR(~t_2 -> ~chi_30 t )
     1.35121794E-01    2     1000024         5   # BR(~t_2 -> ~chi_1+ b )
     3.15766994E-01    2     1000021         6   # BR(~t_2 -> ~g      t )
     9.83813119E-02    2     1000006        25   # BR(~t_2 -> ~t_1    h )
     1.08471807E-01    2     1000006        23   # BR(~t_2 -> ~t_1    Z )
     1.06872149E-04    2     1000005        24   # BR(~t_2 -> ~b_1    W+)
     2.05125459E-01    2     2000005        24   # BR(~t_2 -> ~b_2    W+)
#
#         PDG            Width
DECAY   1000005     2.80152954E+00   # sbottom1 decays
#          BR         NDA      ID1       ID2
     8.57315749E-02    2     1000022         5   # BR(~b_1 -> ~chi_10 b )
     8.50418541E-02    2     1000023         5   # BR(~b_1 -> ~chi_20 b )
     1.66724683E-01    2    -1000024         6   # BR(~b_1 -> ~chi_1- t )
     6.62501888E-01    2     1000021         5   # BR(~b_1 -> ~g      b )
#
#         PDG            Width
DECAY   2000005     1.85997623E+01   # sbottom2 decays
#          BR         NDA      ID1       ID2
     1.34009864E-02    2     1000022         5   # BR(~b_2 -> ~chi_10 b )
     1.31951714E-02    2     1000023         5   # BR(~b_2 -> ~chi_20 b )
     8.07978248E-01    2    -1000024         6   # BR(~b_2 -> ~chi_1- t )
     1.65425594E-01    2     1000021         5   # BR(~b_2 -> ~g      b )
#
#         PDG            Width
DECAY   1000002     3.40071404E+01   # sup_L decays
#          BR         NDA      ID1       ID2
     4.29391777E-05    2     1000022         2   # BR(~u_L -> ~chi_10 u)
     5.46429636E-05    2     1000023         2   # BR(~u_L -> ~chi_20 u)
     3.16222755E-04    2     1000024         1   # BR(~u_L -> ~chi_1+ d)
     9.99586195E-01    2     1000021         2   # BR(~u_L -> ~g      u)
#
#         PDG            Width
DECAY   2000002     3.05221140E+01   # sup_R decays
#          BR         NDA      ID1       ID2
     6.10967138E-06    2     1000022         2   # BR(~u_R -> ~chi_10 u)
     1.06755810E-05    2     1000023         2   # BR(~u_R -> ~chi_20 u)
     9.99983215E-01    2     1000021         2   # BR(~u_R -> ~g      u)
#
#         PDG            Width
DECAY   1000001     3.41799972E+01   # sdown_L decays
#          BR         NDA      ID1       ID2
     2.86990651E-05    2     1000022         1   # BR(~d_L -> ~chi_10 d)
     3.38023768E-05    2     1000023         1   # BR(~d_L -> ~chi_20 d)
     7.49447256E-07    2    -1000024         2   # BR(~d_L -> ~chi_1- u)
     9.99936749E-01    2     1000021         1   # BR(~d_L -> ~g      d)
#
#         PDG            Width
DECAY   2000001     1.51366207E+01   # sdown_R decays
#          BR         NDA      ID1       ID2
     2.71186396E-06    2     1000022         1   # BR(~d_R -> ~chi_10 d)
     4.73791383E-06    2     1000023         1   # BR(~d_R -> ~chi_20 d)
     9.99992550E-01    2     1000021         1   # BR(~d_R -> ~g      d)
#
#         PDG            Width
DECAY   1000004     2.54221863E+01   # scharm_L decays
#          BR         NDA      ID1       ID2
     6.01635399E-05    2     1000022         4   # BR(~c_L -> ~chi_10 c)
     7.65602379E-05    2     1000023         4   # BR(~c_L -> ~chi_20 c)
     4.43063059E-04    2     1000024         3   # BR(~c_L -> ~chi_1+ s)
     9.99420213E-01    2     1000021         4   # BR(~c_L -> ~g      c)
#
#         PDG            Width
DECAY   2000004     2.28133320E+01   # scharm_R decays
#          BR         NDA      ID1       ID2
     8.56791225E-06    2     1000022         4   # BR(~c_R -> ~chi_10 c)
     1.49705455E-05    2     1000023         4   # BR(~c_R -> ~chi_20 c)
     9.99976462E-01    2     1000021         4   # BR(~c_R -> ~g      c)
#
#         PDG            Width
DECAY   1000003     2.55480106E+01   # sstrange_L decays
#          BR         NDA      ID1       ID2
     4.02151878E-05    2     1000022         3   # BR(~s_L -> ~chi_10 s)
     4.73651573E-05    2     1000023         3   # BR(~s_L -> ~chi_20 s)
     1.05015833E-06    2    -1000024         4   # BR(~s_L -> ~chi_1- c)
     9.99911369E-01    2     1000021         3   # BR(~s_L -> ~g      s)
#
#         PDG            Width
DECAY   2000003     1.13136904E+01   # sstrange_R decays
#          BR         NDA      ID1       ID2
     3.81619068E-06    2     1000022         3   # BR(~s_R -> ~chi_10 s)
     6.66708984E-06    2     1000023         3   # BR(~s_R -> ~chi_20 s)
     9.99989517E-01    2     1000021         3   # BR(~s_R -> ~g      s)
#
#         PDG            Width
DECAY   1000011     6.18389516E-04   # selectron_L decays
#          BR         NDA      ID1       ID2
     4.28278634E-01    2     1000022        11   # BR(~e_L -> ~chi_10 e-)
     5.66396278E-01    2     1000023        11   # BR(~e_L -> ~chi_20 e-)
     5.32508819E-03    2    -1000024        12   # BR(~e_L -> ~chi_1- nu_e)
#
#         PDG            Width
DECAY   2000011     1.01757452E-02   # selectron_R decays
#           BR         NDA      ID1       ID2
     8.03384484E-02    2     1000022        11   # BR(~e_R -> ~chi_10 e-)
     1.40421279E-01    2     1000023        11   # BR(~e_R -> ~chi_20 e-)
#           BR         NDA      ID1       ID2       ID3
     1.98432641E-03    3        11       -1        1000001   # BR(~e_R- -> e-  db  ~d_L)
     7.71481578E-04    3        11       1        -1000001   # BR(~e_R- -> e-  d  ~d_L*)
     5.28275804E-03    3        11       -1        2000001   # BR(~e_R- -> e-  db  ~d_R)
     1.43822390E-02    3        11       1        -2000001   # BR(~e_R- -> e-  d  ~d_R*)
     1.99552952E-03    3        11       -2        1000002   # BR(~e_R- -> e-  ub  ~u_L)
     7.77771044E-04    3        11       2        -1000002   # BR(~e_R- -> e-  u  ~u_L*)
     1.38682717E-02    3        11       -2        2000002   # BR(~e_R- -> e-  ub  ~u_R)
     3.60121044E-02    3        11       2        -2000002   # BR(~e_R- -> e-  u  ~u_R*)
     1.96820965E-03    3        11       -3        1000003   # BR(~e_R- -> e-  sb  ~s_L)
     7.75196294E-04    3        11       3        -1000003   # BR(~e_R- -> e-  s  ~s_L*)
     5.27941676E-03    3        11       -3        2000003   # BR(~e_R- -> e-  sb  ~s_R)
     1.45483202E-02    3        11       3        -2000003   # BR(~e_R- -> e-  s  ~s_R*)
     1.97793867E-03    3        11       -4        1000004   # BR(~e_R- -> e-  cb  ~c_L)
     7.76601596E-04    3        11       4        -1000004   # BR(~e_R- -> e-  c  ~c_L*)
     1.38545135E-02    3        11       -4        2000004   # BR(~e_R- -> e-  cb  ~c_R)
     3.62558212E-02    3        11       4        -2000004   # BR(~e_R- -> e-  c  ~c_R*)
     7.81141804E-03    3        11       -5        1000005   # BR(~e_R- -> e-  bb  ~b_1)
     2.34547932E-02    3        11       5        -1000005   # BR(~e_R- -> e-  b  ~b_1*)
     5.39164441E-03    3        11       -5        2000005   # BR(~e_R- -> e-  bb  ~b_2)
     1.82708977E-03    3        11       5        -2000005   # BR(~e_R- -> e-  b  ~b_2*)
     8.61204736E-03    3        11       -6        1000006   # BR(~e_R- -> e-  tb  ~t_1)
     5.71840181E-03    3        11       6        -1000006   # BR(~e_R- -> e-  t  ~t_1*)
     6.85060389E-04    3        11       -6        2000006   # BR(~e_R- -> e-  tb  ~t_2)
     1.37247933E-03    3        11       6        -2000006   # BR(~e_R- -> e-  t  ~t_2*)
     6.75478782E-02    3        11       -11        1000011   # BR(~e_R- -> e-  e+  ~e_L-)
     1.50003755E-02    3        11       11        -1000011   # BR(~e_R- -> e-  e-  ~e_L+)
     6.91055036E-02    3        11       -12        1000012   # BR(~e_R- -> e-  nu_eb  ~nu_eL)
     1.52617814E-02    3        11       12        -1000012   # BR(~e_R- -> e-  nu_e  ~nu_eL*)
     6.82849249E-02    3        11       -13        1000013   # BR(~e_R- -> e-  mu+  ~mu_L-)
     1.48677071E-02    3        11       13        -1000013   # BR(~e_R- -> e-  mu-  ~mu_L+)
     6.90278680E-02    3        11       -14        1000014   # BR(~e_R- -> e-  nu_mub  ~nu_muL)
     1.55271183E-02    3        11       14        -1000014   # BR(~e_R- -> e-  nu_mu  ~nu_muL*)
     1.58877798E-02    3        11       -15        1000015   # BR(~e_R- -> e-  tau+  ~tau_1-)
     5.32118274E-03    3        11       15        -1000015   # BR(~e_R- -> e-  tau-  ~tau_1+)
     1.59339681E-02    3        11       -16        1000016   # BR(~e_R- -> e-  nu_taub  ~nu_tau1)
     5.43095357E-03    3        11       16        -1000016   # BR(~e_R- -> e-  nu_tau  ~nu_tau1*)
     3.15190674E-02    3        11       23        1000022   # BR(~e_R- -> e-  Z  ~chi_10)
     1.62248559E-02    3        11       25        1000022   # BR(~e_R- -> e-  h  ~chi_10)
     1.64145226E-02    3        11       23        1000023   # BR(~e_R- -> e-  Z  ~chi_20)
     3.21942022E-02    3        11       25        1000023   # BR(~e_R- -> e-  h  ~chi_20)
     1.82689322E-02    3        11       -24        1000024   # BR(~e_R- -> e-  W-  ~chi_1+)
     8.20382173E-02    3        11       24        -1000024   # BR(~e_R- -> e-  W+  ~chi_1-)
#
#         PDG            Width
DECAY   1000013     6.18389276E-04   # smuon_L decays
#          BR         NDA      ID1       ID2
     4.28278634E-01    2     1000022        13   # BR(~mu_L -> ~chi_10 mu-)
     5.66396276E-01    2     1000023        13   # BR(~mu_L -> ~chi_20 mu-)
     5.32509026E-03    2    -1000024        14   # BR(~mu_L -> ~chi_1- nu_mu)
#
#         PDG            Width
DECAY   2000013     1.01753284E-02   # smuon_R decays
#           BR         NDA      ID1       ID2
     8.03417392E-02    2     1000022        13   # BR(~mu_R -> ~chi_10 mu-)
     1.40427031E-01    2     1000023        13   # BR(~mu_R -> ~chi_20 mu-)
#           BR         NDA      ID1       ID2       ID3
     1.98440769E-03    3        13       -1        1000001   # BR(~mu_R- -> mu-  db  ~d_L)
     7.71513179E-04    3        13       1        -1000001   # BR(~mu_R- -> mu-  d  ~d_L*)
     5.28297443E-03    3        13       -1        2000001   # BR(~mu_R- -> mu-  db  ~d_R)
     1.43828281E-02    3        13       1        -2000001   # BR(~mu_R- -> mu-  d  ~d_R*)
     2.01231834E-03    3        13       -2        1000002   # BR(~mu_R- -> mu-  ub  ~u_L)
     7.77802903E-04    3        13       2        -1000002   # BR(~mu_R- -> mu-  u  ~u_L*)
     1.37528730E-02    3        13       -2        2000002   # BR(~mu_R- -> mu-  ub  ~u_R)
     3.60135795E-02    3        13       2        -2000002   # BR(~mu_R- -> mu-  u  ~u_R*)
     1.96966615E-03    3        13       -3        1000003   # BR(~mu_R- -> mu-  sb  ~s_L)
     7.78304115E-04    3        13       3        -1000003   # BR(~mu_R- -> mu-  s  ~s_L*)
     5.27963302E-03    3        13       -3        2000003   # BR(~mu_R- -> mu-  sb  ~s_R)
     1.45489161E-02    3        13       3        -2000003   # BR(~mu_R- -> mu-  s  ~s_R*)
     1.97801969E-03    3        13       -4        1000004   # BR(~mu_R- -> mu-  cb  ~c_L)
     7.76633407E-04    3        13       4        -1000004   # BR(~mu_R- -> mu-  c  ~c_L*)
     1.38550810E-02    3        13       -4        2000004   # BR(~mu_R- -> mu-  cb  ~c_R)
     3.62573063E-02    3        13       4        -2000004   # BR(~mu_R- -> mu-  c  ~c_R*)
     7.77360657E-03    3        13       -5        1000005   # BR(~mu_R- -> mu-  bb  ~b_1)
     2.34557539E-02    3        13       5        -1000005   # BR(~mu_R- -> mu-  b  ~b_1*)
     5.39186527E-03    3        13       -5        2000005   # BR(~mu_R- -> mu-  bb  ~b_2)
     1.82716461E-03    3        13       5        -2000005   # BR(~mu_R- -> mu-  b  ~b_2*)
     8.66841798E-03    3        13       -6        1000006   # BR(~mu_R- -> mu-  tb  ~t_1)
     5.71863604E-03    3        13       6        -1000006   # BR(~mu_R- -> mu-  t  ~t_1*)
     6.77314746E-04    3        13       -6        2000006   # BR(~mu_R- -> mu-  tb  ~t_2)
     1.36319924E-03    3        13       6        -2000006   # BR(~mu_R- -> mu-  t  ~t_2*)
     6.75506451E-02    3        13       -11        1000011   # BR(~mu_R- -> mu-  e+  ~e_L-)
     1.48683161E-02    3        13       11        -1000011   # BR(~mu_R- -> mu-  e-  ~e_L+)
     6.91083343E-02    3        13       -12        1000012   # BR(~mu_R- -> mu-  nu_eb  ~nu_eL)
     1.52624066E-02    3        13       12        -1000012   # BR(~mu_R- -> mu-  nu_e  ~nu_eL*)
     6.82877220E-02    3        13       -13        1000013   # BR(~mu_R- -> mu-  mu+  ~mu_L-)
     1.50009900E-02    3        13       13        -1000013   # BR(~mu_R- -> mu-  mu-  ~mu_L+)
     6.90306956E-02    3        13       -14        1000014   # BR(~mu_R- -> mu-  nu_mub  ~nu_muL)
     1.55277543E-02    3        13       14        -1000014   # BR(~mu_R- -> mu-  nu_mu  ~nu_muL*)
     1.59415002E-02    3        13       -15        1000015   # BR(~mu_R- -> mu-  tau+  ~tau_1-)
     5.32140071E-03    3        13       15        -1000015   # BR(~mu_R- -> mu-  tau-  ~tau_1+)
     1.59346208E-02    3        13       -16        1000016   # BR(~mu_R- -> mu-  nu_taub  ~nu_tau1)
     5.43117604E-03    3        13       16        -1000016   # BR(~mu_R- -> mu-  nu_tau  ~nu_tau1*)
     3.15203585E-02    3        13       23        1000022   # BR(~mu_R- -> mu-  Z  ~chi_10)
     1.62255205E-02    3        13       25        1000022   # BR(~mu_R- -> mu-  h  ~chi_10)
     1.64151949E-02    3        13       23        1000023   # BR(~mu_R- -> mu-  Z  ~chi_20)
     3.21955209E-02    3        13       25        1000023   # BR(~mu_R- -> mu-  h  ~chi_20)
     1.82696805E-02    3        13       -24        1000024   # BR(~mu_R- -> mu-  W-  ~chi_1+)
     8.20415778E-02    3        13       24        -1000024   # BR(~mu_R- -> mu-  W+  ~chi_1-)
#
#         PDG            Width
DECAY   1000015     2.84447359E-01   # stau_1 decays
#          BR         NDA      ID1       ID2
     5.02011358E-01    2     1000022        15   # BR(~tau_1 -> ~chi_10  tau-)
     4.97925899E-01    2     1000023        15   # BR(~tau_1 -> ~chi_20  tau-)
     6.27435567E-05    2    -1000024        16   # BR(~tau_1 -> ~chi_1-  nu_tau)
#
#         PDG            Width
DECAY   2000015     1.70304011E+00   # stau_2 decays
#          BR         NDA      ID1       ID2
     2.49933198E-01    2     1000022        15   # BR(~tau_2 -> ~chi_10  tau-)
     2.47586473E-01    2     1000023        15   # BR(~tau_2 -> ~chi_20  tau-)
     4.95845441E-01    2    -1000024        16   # BR(~tau_2 -> ~chi_1-  nu_tau)
     3.23958297E-03    2     1000016       -24   # BR(~tau_2 -> ~nu_tauL W-)
     1.73262956E-03    2     1000015        25   # BR(~tau_2 -> ~tau_1   h)
     1.66267492E-03    2     1000015        23   # BR(~tau_2 -> ~tau_1   Z)
#
#         PDG            Width
DECAY   1000012     1.42764265E-03   # snu_eL decays
#          BR         NDA      ID1       ID2
     5.02463385E-02    2     1000022        12   # BR(~nu_eL -> ~chi_10 nu_e)
     5.13287990E-02    2     1000023        12   # BR(~nu_eL -> ~chi_20 nu_e)
     8.98424863E-01    2     1000024        11   # BR(~nu_eL -> ~chi_1+ e-)
#
#         PDG            Width
DECAY   1000014     1.42764209E-03   # snu_muL decays
#          BR         NDA      ID1       ID2
     5.02463582E-02    2     1000022        14   # BR(~nu_muL -> ~chi_10 nu_mu)
     5.13288191E-02    2     1000023        14   # BR(~nu_muL -> ~chi_20 nu_mu)
     8.98424823E-01    2     1000024        13   # BR(~nu_muL -> ~chi_1+ mu-)
#
#         PDG            Width
DECAY   1000016     2.89373845E-01   # snu_tauL decays
#          BR         NDA      ID1       ID2
     1.63960922E-03    2     1000022        16   # BR(~nu_tauL -> ~chi_10 nu_tau)
     1.69924201E-03    2     1000023        16   # BR(~nu_tauL -> ~chi_20 nu_tau)
     9.96661149E-01    2     1000024        15   # BR(~nu_tauL -> ~chi_1+ tau-)
#
#         PDG            Width
DECAY   1000024     2.62580677E-12   # chargino1+ decays
#           BR         NDA      ID1       ID2       ID3
     5.99993931E-01    3     1000022         2        -1   # BR(~chi_1+ -> ~chi_10 u    db)
     2.00003035E-01    3     1000022       -11        12   # BR(~chi_1+ -> ~chi_10 e+   nu_e)
     2.00003035E-01    3     1000022       -13        14   # BR(~chi_1+ -> ~chi_10 mu+  nu_mu)
#
#         PDG            Width
DECAY   1000037     3.09653445E+02   # chargino2+ decays
#          BR         NDA      ID1       ID2
     9.85738978E-02    2     1000002        -1   # BR(~chi_2+ -> ~u_L     db)
     9.85708182E-02    2    -1000001         2   # BR(~chi_2+ -> ~d_L*    u )
     9.85738973E-02    2     1000004        -3   # BR(~chi_2+ -> ~c_L     sb)
     9.85708092E-02    2    -1000003         4   # BR(~chi_2+ -> ~s_L*     c )
     1.15754044E-01    2     1000006        -5   # BR(~chi_2+ -> ~t_1     bb)
     2.54493081E-03    2     2000006        -5   # BR(~chi_2+ -> ~t_2     bb)
     5.60477805E-05    2    -1000005         6   # BR(~chi_2+ -> ~b_1*    t )
     1.18176173E-01    2    -2000005         6   # BR(~chi_2+ -> ~b_2*    t )
     4.80742296E-02    2     1000012       -11   # BR(~chi_2+ -> ~nu_eL   e+  )
     4.80742296E-02    2     1000014       -13   # BR(~chi_2+ -> ~nu_muL mu+ )
     3.95708246E-02    2     1000016       -15   # BR(~chi_2+ -> ~nu_tau1 tau+)
     4.80751574E-02    2    -1000011        12   # BR(~chi_2+ -> ~e_L+    nu_e)
     4.80751574E-02    2    -1000013        14   # BR(~chi_2+ -> ~mu_L+   nu_mu)
     3.95646147E-02    2    -1000015        16   # BR(~chi_2+ -> ~tau_1+  nu_tau)
     1.05387180E-10    2    -2000015        16   # BR(~chi_2+ -> ~tau_2+  nu_tau)
     2.50717141E-02    2     1000024        23   # BR(~chi_2+ -> ~chi_1+  Z )
     2.42279609E-02    2     1000022        24   # BR(~chi_2+ -> ~chi_10  W+)
     2.45045485E-02    2     1000023        24   # BR(~chi_2+ -> ~chi_20  W+)
     8.99399631E-09    2     1000025        24   # BR(~chi_2+ -> ~chi_30  W+)
     2.39409365E-02    2     1000024        25   # BR(~chi_2+ -> ~chi_1+  h )
#
#         PDG            Width
DECAY   1000022     0.00000000E+00   # neutralino1 decays
#
#         PDG            Width
DECAY   1000023     1.95904022E-11   # neutralino2 decays
#          BR         NDA      ID1       ID2
     4.66732822E-01    2     1000022        22   # BR(~chi_20 -> ~chi_10 gam)
#           BR         NDA      ID1       ID2       ID3
     8.91438807E-02    3     1000022        -2         2   # BR(~chi_20 -> ~chi_10 ub      u)
     1.15646763E-01    3     1000022        -1         1   # BR(~chi_20 -> ~chi_10 db      d)
     1.15646763E-01    3     1000022        -3         3   # BR(~chi_20 -> ~chi_10 sb      s)
     2.65248701E-02    3     1000022       -11        11   # BR(~chi_20 -> ~chi_10 e+      e-)
     2.65248701E-02    3     1000022       -13        13   # BR(~chi_20 -> ~chi_10 mu+     mu-)
     5.30309643E-02    3     1000022       -12        12   # BR(~chi_20 -> ~chi_10 nu_eb   nu_e)
     5.30309643E-02    3     1000022       -14        14   # BR(~chi_20 -> ~chi_10 nu_mub  nu_mu)
     5.30299931E-02    3     1000022       -16        16   # BR(~chi_20 -> ~chi_10 nu_taub nu_tau)
     2.06430333E-04    3     1000024        -2         1   # BR(~chi_20 -> ~chi_1+ ub      d)
     2.06430333E-04    3    -1000024        -1         2   # BR(~chi_20 -> ~chi_1- db      u)
     6.88122687E-05    3     1000024       -12        11   # BR(~chi_20 -> ~chi_1+ nu_eb   e-)
     6.88122687E-05    3    -1000024        12       -11   # BR(~chi_20 -> ~chi_1- nu_e    e+)
     6.88122687E-05    3     1000024       -14        13   # BR(~chi_20 -> ~chi_1+ nu_mub  mu-)
     6.88122687E-05    3    -1000024        14       -13   # BR(~chi_20 -> ~chi_1- nu_mu   mu+)
#
#         PDG            Width
DECAY   1000025     9.96086050E+01   # neutralino3 decays
#          BR         NDA      ID1       ID2
     1.32610582E-02    2     1000022        23   # BR(~chi_30 -> ~chi_10   Z )
     7.76493454E-03    2     1000023        23   # BR(~chi_30 -> ~chi_20   Z )
     2.04422445E-02    2     1000024       -24   # BR(~chi_30 -> ~chi_1+   W-)
     2.04422445E-02    2    -1000024        24   # BR(~chi_30 -> ~chi_1-   W+)
     8.42849220E-03    2     1000022        25   # BR(~chi_30 -> ~chi_10   h )
     1.46812439E-02    2     1000023        25   # BR(~chi_30 -> ~chi_20   h )
     4.78792186E-03    2     1000002        -2   # BR(~chi_30 -> ~u_L      ub)
     4.78792186E-03    2    -1000002         2   # BR(~chi_30 -> ~u_L*     u )
     7.83934594E-02    2     2000002        -2   # BR(~chi_30 -> ~u_R      ub)
     7.83934594E-02    2    -2000002         2   # BR(~chi_30 -> ~u_R*     u )
     4.79699344E-03    2     1000001        -1   # BR(~chi_30 -> ~d_L      db)
     4.79699344E-03    2    -1000001         1   # BR(~chi_30 -> ~d_L*     d )
     2.14976534E-02    2     2000001        -1   # BR(~chi_30 -> ~d_R      db)
     2.14976534E-02    2    -2000001         1   # BR(~chi_30 -> ~d_R*     d )
     4.78792124E-03    2     1000004        -4   # BR(~chi_30 -> ~c_L      cb)
     4.78792124E-03    2    -1000004         4   # BR(~chi_30 -> ~c_L*     c )
     7.83934498E-02    2     2000004        -4   # BR(~chi_30 -> ~c_R      cb)
     7.83934498E-02    2    -2000004         4   # BR(~chi_30 -> ~c_R*     c )
     4.79699344E-03    2     1000003        -3   # BR(~chi_30 -> ~s _L      sb)
     4.79699344E-03    2    -1000003         3   # BR(~chi_30 -> ~s _L*     s )
     2.14976534E-02    2     2000003        -3   # BR(~chi_30 -> ~s _R      sb)
     2.14976534E-02    2    -2000003         3   # BR(~chi_30 -> ~s _R*     s )
     9.82502794E-03    2     1000006        -6   # BR(~chi_30 -> ~t_1      tb)
     9.82502794E-03    2    -1000006         6   # BR(~chi_30 -> ~t_1*     t )
     4.64263859E-02    2     2000006        -6   # BR(~chi_30 -> ~t_2      tb)
     4.64263859E-02    2    -2000006         6   # BR(~chi_30 -> ~t_2*     t )
     2.41836223E-02    2     1000005        -5   # BR(~chi_30 -> ~b_1      bb)
     2.41836223E-02    2    -1000005         5   # BR(~chi_30 -> ~b_1*     b )
     5.98124650E-03    2     2000005        -5   # BR(~chi_30 -> ~b_2      bb)
     5.98124650E-03    2    -2000005         5   # BR(~chi_30 -> ~b_2*     b )
     2.23903013E-02    2     1000011       -11   # BR(~chi_30 -> ~e_L-     e+)
     2.23903013E-02    2    -1000011        11   # BR(~chi_30 -> ~e_L+     e-)
     1.33881751E-02    2     2000011       -11   # BR(~chi_30 -> ~e_R-     e+)
     1.33881751E-02    2    -2000011        11   # BR(~chi_30 -> ~e_R+     e-)
     2.23903013E-02    2     1000013       -13   # BR(~chi_30 -> ~mu_L-    mu+)
     2.23903013E-02    2    -1000013        13   # BR(~chi_30 -> ~mu_L+    mu-)
     1.33881751E-02    2     2000013       -13   # BR(~chi_30 -> ~mu_R-    mu+)
     1.33881751E-02    2    -2000013        13   # BR(~chi_30 -> ~mu_R+    mu-)
     1.78137351E-02    2     1000015       -15   # BR(~chi_30 -> ~tau_1-   tau+)
     1.78137351E-02    2    -1000015        15   # BR(~chi_30 -> ~tau_1+   tau-)
     2.20832456E-05    2     2000015       -15   # BR(~chi_30 -> ~tau_2-   tau+)
     2.20832456E-05    2    -2000015        15   # BR(~chi_30 -> ~tau_2+   tau-)
     2.24369421E-02    2     1000012       -12   # BR(~chi_30 -> ~nu_eL    nu_eb)
     2.24369421E-02    2    -1000012        12   # BR(~chi_30 -> ~nu_eL*   nu_e )
     2.24369421E-02    2     1000014       -14   # BR(~chi_30 -> ~nu_muL   nu_mub)
     2.24369421E-02    2    -1000014        14   # BR(~chi_30 -> ~nu_muL*  nu_mu )
     1.78549074E-02    2     1000016       -16   # BR(~chi_30 -> ~nu_tau1  nu_taub)
     1.78549074E-02    2    -1000016        16   # BR(~chi_30 -> ~nu_tau1* nu_tau )
#
#         PDG            Width
DECAY   1000035     3.09638474E+02   # neutralino4 decays
#          BR         NDA      ID1       ID2
     1.36857402E-02    2     1000022        23   # BR(~chi_40 -> ~chi_10   Z )
     1.13749182E-02    2     1000023        23   # BR(~chi_40 -> ~chi_20   Z )
     8.79527089E-09    2     1000025        23   # BR(~chi_40 -> ~chi_30   Z )
     2.43979829E-02    2     1000024       -24   # BR(~chi_40 -> ~chi_1+   W-)
     2.43979829E-02    2    -1000024        24   # BR(~chi_40 -> ~chi_1-   W+)
     1.06658451E-02    2     1000022        25   # BR(~chi_40 -> ~chi_10   h )
     1.32389839E-02    2     1000023        25   # BR(~chi_40 -> ~chi_20   h )
     8.91246443E-13    2     1000025        25   # BR(~chi_40 -> ~chi_30   h )
     4.93060564E-02    2     1000002        -2   # BR(~chi_40 -> ~u_L      ub)
     4.93060564E-02    2    -1000002         2   # BR(~chi_40 -> ~u_L*     u )
     4.65905587E-10    2     2000002        -2   # BR(~chi_40 -> ~u_R      ub)
     4.65905587E-10    2    -2000002         2   # BR(~chi_40 -> ~u_R*     u )
     4.92632513E-02    2     1000001        -1   # BR(~chi_40 -> ~d_L      db)
     4.92632513E-02    2    -1000001         1   # BR(~chi_40 -> ~d_L*     d )
     1.25864485E-10    2     2000001        -1   # BR(~chi_40 -> ~d_R      db)
     1.25864485E-10    2    -2000001         1   # BR(~chi_40 -> ~d_R*     d )
     4.93060519E-02    2     1000004        -4   # BR(~chi_40 -> ~c_L      cb)
     4.93060519E-02    2    -1000004         4   # BR(~chi_40 -> ~c_L*     c )
     4.65905548E-10    2     2000004        -4   # BR(~chi_40 -> ~c_R      cb)
     4.65905548E-10    2    -2000004         4   # BR(~chi_40 -> ~c_R*     c )
     4.92632513E-02    2     1000003        -3   # BR(~chi_40 -> ~s _L      sb)
     4.92632513E-02    2    -1000003         3   # BR(~chi_40 -> ~s _L*     s )
     1.25864485E-10    2     2000003        -3   # BR(~chi_40 -> ~s _R      sb)
     1.25864485E-10    2    -2000003         3   # BR(~chi_40 -> ~s _R*     s )
     5.74869315E-02    2     1000006        -6   # BR(~chi_40 -> ~t_1      tb)
     5.74869315E-02    2    -1000006         6   # BR(~chi_40 -> ~t_1*     t )
     1.25911986E-03    2     2000006        -6   # BR(~chi_40 -> ~t_2      tb)
     1.25911986E-03    2    -2000006         6   # BR(~chi_40 -> ~t_2*     t )
     2.82127987E-05    2     1000005        -5   # BR(~chi_40 -> ~b_1      bb)
     2.82127987E-05    2    -1000005         5   # BR(~chi_40 -> ~b_1*     b )
     5.94895642E-02    2     2000005        -5   # BR(~chi_40 -> ~b_2      bb)
     5.94895642E-02    2    -2000005         5   # BR(~chi_40 -> ~b_2*     b )
     2.40229631E-02    2     1000011       -11   # BR(~chi_40 -> ~e_L-     e+)
     2.40229631E-02    2    -1000011        11   # BR(~chi_40 -> ~e_L+     e-)
     1.12190892E-10    2     2000011       -11   # BR(~chi_40 -> ~e_R-     e+)
     1.12190892E-10    2    -2000011        11   # BR(~chi_40 -> ~e_R+     e-)
     2.40229631E-02    2     1000013       -13   # BR(~chi_40 -> ~mu_L-    mu+)
     2.40229631E-02    2    -1000013        13   # BR(~chi_40 -> ~mu_L+    mu-)
     1.12190892E-10    2     2000013       -13   # BR(~chi_40 -> ~mu_R-    mu+)
     1.12190892E-10    2    -2000013        13   # BR(~chi_40 -> ~mu_R+    mu-)
     1.97699062E-02    2     1000015       -15   # BR(~chi_40 -> ~tau_1-   tau+)
     1.97699062E-02    2    -1000015        15   # BR(~chi_40 -> ~tau_1+   tau-)
     6.46359046E-11    2     2000015       -15   # BR(~chi_40 -> ~tau_2-   tau+)
     6.46359046E-11    2    -2000015        15   # BR(~chi_40 -> ~tau_2+   tau-)
     2.40518876E-02    2     1000012       -12   # BR(~chi_40 -> ~nu_eL    nu_eb)
     2.40518876E-02    2    -1000012        12   # BR(~chi_40 -> ~nu_eL*   nu_e )
     2.40518876E-02    2     1000014       -14   # BR(~chi_40 -> ~nu_muL   nu_mub)
     2.40518876E-02    2    -1000014        14   # BR(~chi_40 -> ~nu_muL*  nu_mu )
     1.97972205E-02    2     1000016       -16   # BR(~chi_40 -> ~nu_tau1  nu_taub)
     1.97972205E-02    2    -1000016        16   # BR(~chi_40 -> ~nu_tau1* nu_tau )
#
#         PDG            Width
DECAY        25     4.16105849E-03   # h decays
#          BR         NDA      ID1       ID2
     5.81758075E-01    2           5        -5   # BR(h -> b       bb     )
     6.28733370E-02    2         -15        15   # BR(h -> tau+    tau-   )
     2.22546385E-04    2         -13        13   # BR(h -> mu+     mu-    )
     2.42569890E-04    2           3        -3   # BR(h -> s       sb     )
     2.09702175E-02    2           4        -4   # BR(h -> c       cb     )
     7.78568149E-02    2          21        21   # BR(h -> g       g      )
     2.32847283E-03    2          22        22   # BR(h -> gam     gam    )
     1.63368768E-03    2          22        23   # BR(h -> Z       gam    )
     2.23740707E-01    2          24       -24   # BR(h -> W+      W-     )
     2.83735716E-02    2          23        23   # BR(h -> Z       Z      )
#
#         PDG            Width
DECAY        35     9.16960441E+00   # H decays
#          BR         NDA      ID1       ID2
     5.25857457E-01    2           5        -5   # BR(H -> b       bb     )
     1.00780101E-01    2         -15        15   # BR(H -> tau+    tau-   )
     3.58157626E-04    2         -13        13   # BR(H -> mu+     mu-    )
     2.19575396E-04    2           3        -3   # BR(H -> s       sb     )
     1.35747587E-06    2           4        -4   # BR(H -> c       cb     )
     1.33907246E-01    2           6        -6   # BR(H -> t       tb     )
     1.83928296E-05    2          21        21   # BR(H -> g       g      )
     2.37680014E-08    2          22        22   # BR(H -> gam     gam    )
     6.71977056E-08    2          23        22   # BR(H -> Z       gam    )
     4.38685543E-05    2          24       -24   # BR(H -> W+      W-     )
     2.18955231E-05    2          23        23   # BR(H -> Z       Z      )
     1.65771563E-04    2          25        25   # BR(H -> h       h      )
     3.12493445E-03    2     1000024  -1000024   # BR(H -> ~chi_1+ ~chi_1-)
     2.19476878E-04    2     1000022   1000022   # BR(H -> ~chi_10 ~chi_10)
     1.58076771E-04    2     1000023   1000023   # BR(H -> ~chi_20 ~chi_20)
     4.35861626E-06    2     1000022   1000023   # BR(H -> ~chi_10 ~chi_20)
     6.65675678E-03    2     1000022   1000025   # BR(H -> ~chi_10 ~chi_30)
     1.22651451E-03    2     1000023   1000025   # BR(H -> ~chi_20 ~chi_30)
     1.88464777E-05    2     1000002  -1000002   # BR(H -> ~u_L    ~u_L*  )
     3.51005992E-06    2     2000002  -2000002   # BR(H -> ~u_R    ~u_R*  )
     1.88464777E-05    2     1000004  -1000004   # BR(H -> ~c_L    ~c_L*  )
     3.51005992E-06    2     2000004  -2000004   # BR(H -> ~c_R    ~c_R*  )
     5.55073183E-03    2     1000006  -1000006   # BR(H -> ~t_1    ~t_1*  )
     5.13405098E-02    2     1000006  -2000006   # BR(H -> ~t_1    ~t_2*  )
     5.13405098E-02    2     2000006  -1000006   # BR(H -> ~t_2    ~t_1*  )
     2.75777873E-05    2     1000001  -1000001   # BR(H -> ~d_L    ~d_L*  )
     1.02642072E-06    2     2000001  -2000001   # BR(H -> ~d_R    ~d_R*  )
     2.75777873E-05    2     1000003  -1000003   # BR(H -> ~s_L    ~s_L*  )
     1.02642072E-06    2     2000003  -2000003   # BR(H -> ~s_R    ~s_R*  )
     1.27080219E-04    2     1000005  -1000005   # BR(H -> ~b_1    ~b_1*  )
     2.51541493E-05    2     2000005  -2000005   # BR(H -> ~b_2    ~b_2*  )
     5.93356737E-02    2     1000005  -2000005   # BR(H -> ~b_1    ~b_2*  )
     5.93356737E-02    2     2000005  -1000005   # BR(H -> ~b_2    ~b_1*  )
     6.67264961E-06    2     1000011  -1000011   # BR(H -> ~e_L-   ~e_L+  )
     6.67264961E-06    2     1000013  -1000013   # BR(H -> ~mu_L-  ~mu_L+ )
     4.86504289E-06    2     1000015  -1000015   # BR(H -> ~tau_1- ~tau_1+)
     2.17106107E-05    2     1000012  -1000012   # BR(H -> ~nu_eL  ~nu_eL*   )
     2.17106107E-05    2     1000014  -1000014   # BR(H -> ~nu_muL ~nu_muL*  )
     1.70824663E-05    2     1000016  -1000016   # BR(H -> ~nu_tauL ~nu_tauL*)
#
#         PDG            Width
DECAY        36     9.21734534E+00   # A decays
#          BR         NDA      ID1       ID2
     5.23266909E-01    2           5        -5   # BR(A -> b       bb     )
     1.00259155E-01    2         -15        15   # BR(A -> tau+    tau-   )
     3.56305909E-04    2         -13        13   # BR(A -> mu+     mu-    )
     2.18568996E-04    2           3        -3   # BR(A -> s       sb     )
     1.35832391E-06    2           4        -4   # BR(A -> c       cb     )
     1.33492690E-01    2           6        -6   # BR(A -> t       tb     )
     1.29691706E-04    2          21        21   # BR(A -> g       g      )
     1.85631438E-07    2          22        22   # BR(A -> gam     gam    )
     1.57595164E-07    2          23        22   # BR(A -> Z       gam    )
     4.42646051E-05    2          23        25   # BR(A -> Z       h      )
     3.18619057E-03    2     1000024  -1000024   # BR(A -> ~chi_1+ ~chi_1-)
     1.52547085E-04    2     1000022   1000022   # BR(A -> ~chi_10 ~chi_10)
     2.29084038E-04    2     1000023   1000023   # BR(A -> ~chi_20 ~chi_20)
     2.15261207E-06    2     1000022   1000023   # BR(A -> ~chi_10 ~chi_20)
     1.26295425E-03    2     1000022   1000025   # BR(A -> ~chi_10 ~chi_30)
     6.54276223E-03    2     1000023   1000025   # BR(A -> ~chi_20 ~chi_30)
     5.63385511E-02    2     1000006  -2000006   # BR(A -> ~t_1    ~t_2*  )
     5.63385511E-02    2    -1000006   2000006   # BR(A -> ~t_1*   ~t_2   )
     5.90889605E-02    2     1000005  -2000005   # BR(A -> ~b_1    ~b_2*  )
     5.90889605E-02    2    -1000005   2000005   # BR(A -> ~b_1*   ~b_2   )
#
#         PDG            Width
DECAY        37     1.28665648E+01   # H+ decays
#          BR         NDA      ID1       ID2
     6.29969810E-04    2           4        -5   # BR(H+ -> c       bb     )
     7.18471861E-02    2         -15        16   # BR(H+ -> tau+    nu_tau )
     2.55334058E-04    2         -13        14   # BR(H+ -> mu+     nu_mu  )
     6.29967751E-06    2           2        -5   # BR(H+ -> u       bb     )
     7.83457517E-06    2           2        -3   # BR(H+ -> u       sb     )
     1.55141770E-04    2           4        -3   # BR(H+ -> c       sb     )
     4.68535502E-01    2           6        -5   # BR(H+ -> t       bb     )
     3.17544437E-05    2          24        25   # BR(H+ -> W+      h      )
     2.73847125E-13    2          24        36   # BR(H+ -> W+      A      )
     4.86607532E-04    2     1000024   1000022   # BR(H+ -> ~chi_1+ ~chi_10)
     4.81193822E-04    2     1000024   1000023   # BR(H+ -> ~chi_1+ ~chi_20)
     5.65018658E-03    2     1000024   1000025   # BR(H+ -> ~chi_1+ ~chi_30)
     1.86519488E-05    2    -1000011   1000012   # BR(H+ -> ~e_L+   ~nu_eL )
     1.86519488E-05    2    -1000013   1000014   # BR(H+ -> ~mu_L+  ~nu_muL)
     1.42879589E-05    2    -1000015   1000016   # BR(H+ -> ~tau_1+ ~nu_tauL)
     3.27484561E-05    2     1000002  -1000001   # BR(H+ -> ~u_L    ~d_L*  )
     3.27484561E-05    2     1000004  -1000003   # BR(H+ -> ~c_L    ~s_L*  )
     3.31327480E-01    2     1000006  -1000005   # BR(H+ -> ~t_1    ~b_1*  )
     1.08189366E-01    2     2000006  -2000005   # BR(H+ -> ~t_2    ~b_2*  )
     1.77536029E-03    2     1000006  -2000005   # BR(H+ -> ~t_1    ~b_2*  )
     1.05036938E-02    2     2000006  -1000005   # BR(H+ -> ~t_2    ~b_1*  )
