#
#                              ======================
#                              | THE SUSYHIT OUTPUT |
#                              ======================
#
#
#              ------------------------------------------------------
#              |     This is the output of the SUSY-HIT package     |
#              |  created by A.Djouadi, M.Muehlleitner and M.Spira. |
#              |  In case of problems with SUSY-HIT email to        |
#              |           margarete.muehlleitner@cern.ch           |
#              |           michael.spira@psi.ch                     |
#              |           abdelhak.djouadi@cern.ch                 |
#              ------------------------------------------------------
#
#              ------------------------------------------------------
#              |  SUSY Les Houches Accord - MSSM Spectrum + Decays  |
#              |              based on the decay programs           |
#              |                                                    |
#              |                     SDECAY 1.3b                    |
#              |                                                    |
#              |  Authors: M.Muhlleitner, A.Djouadi and Y.Mambrini  |
#              |  Ref.:    Comput.Phys.Commun.168(2005)46           |
#              |           [hep-ph/0311167]                         |
#              |                                                    |
#              |                     HDECAY 3.4                     |
#              |                                                    |
#              |  By: A.Djouadi,J.Kalinowski,M.Muhlleitner,M.Spira  |
#              |  Ref.:    Comput.Phys.Commun.108(1998)56           |
#              |           [hep-ph/9704448]                         |
#              |                                                    |
#              |                                                    |
#              |  If not stated otherwise all DRbar couplings and   |
#              |  soft SUSY breaking masses are given at the scale  |
#              |  Q=  0.31511600E+04
#              |                                                    |
#              ------------------------------------------------------
#
#
BLOCK DCINFO  # Decay Program information
     1   SDECAY/HDECAY # decay calculator
     2   1.3b  /3.4    # version number
#
BLOCK SPINFO  # Spectrum calculator information
     1     SOFTSUSY    # spectrum calculator               
     2     3.4.0       # version number                    
#
BLOCK MODSEL  # Model selection
     1     0   #  nonUniversal                                     
#
BLOCK SMINPUTS  # Standard Model inputs
         1     1.27908970E+02   # alpha_em^-1(M_Z)^MSbar
         2     1.16637870E-05   # G_F [GeV^-2]
         3     1.18400000E-01   # alpha_S(M_Z)^MSbar
         4     9.11876000E+01   # M_Z pole mass
         5     4.18000000E+00   # mb(mb)^MSbar
         6     1.73200000E+02   # mt pole mass
         7     1.77700000E+00   # mtau pole mass
#
BLOCK MINPAR  # Input parameters - minimal models
         3     5.11100000E+01   # tanb                
#
BLOCK EXTPAR  # Input parameters - non-minimal models
         0    -1.00000000E+00   # Set                 
         1     2.93210000E+02   # M_1(MX)             
         2     1.76408000E+03   # M_2(MX)             
         3     1.84616000E+03   # M_3(MX)             
        11    -3.59484000E+03   # At(MX)              
        12     1.01153000E+03   # Ab(MX)              
        13     2.71456000E+03   # Atau(MX)            
        23     1.99850000E+02   # mu(MX)              
        26     8.18720000E+02   # mA(pole)            
        31     1.82110000E+02   # meL(MX)             
        32     1.82110000E+02   # mmuL(MX)            
        33     3.42511000E+03   # mtauL(MX)           
        34     3.78525000E+03   # meR(MX)             
        35     3.78525000E+03   # mmuR(MX)            
        36     1.46039000E+03   # mtauR(MX)           
        41     2.16251000E+03   # mqL1(MX)            
        42     2.16251000E+03   # mqL2(MX)            
        43     3.91918000E+03   # mqL3(MX)            
        44     1.05829000E+03   # muR(MX)             
        45     1.05829000E+03   # mcR(MX)             
        46     2.53190000E+03   # mtR(MX)             
        47     1.17870000E+03   # mdR(MX)             
        48     1.17870000E+03   # msR(MX)             
        49     6.88040000E+02   # mbR(MX)             
#
BLOCK MASS  # Mass Spectrum
# PDG code           mass       particle
        24     8.03764269E+01   # W+
        25     1.25777159E+02   # h
        35     8.18732701E+02   # H
        36     8.18720128E+02   # A
        37     8.23033360E+02   # H+
         5     4.81876030E+00   # b-quark pole mass calculated from mb(mb)_Msbar
   1000001     2.25977578E+03   # ~d_L
   2000001     1.30940936E+03   # ~d_R
   1000002     2.25855958E+03   # ~u_L
   2000002     1.20168510E+03   # ~u_R
   1000003     2.25977578E+03   # ~s_L
   2000003     1.30940936E+03   # ~s_R
   1000004     2.25855958E+03   # ~c_L
   2000004     1.20168510E+03   # ~c_R
   1000005     8.18747808E+02   # ~b_1
   2000005     3.93131958E+03   # ~b_2
   1000006     2.54262531E+03   # ~t_1
   2000006     3.93715404E+03   # ~t_2
   1000011     3.06044714E+02   # ~e_L
   2000011     3.78723316E+03   # ~e_R
   1000012     2.95615291E+02   # ~nu_eL
   1000013     3.06044714E+02   # ~mu_L
   2000013     3.78723316E+03   # ~mu_R
   1000014     2.95615291E+02   # ~nu_muL
   1000015     1.42776815E+03   # ~tau_1
   2000015     3.42412713E+03   # ~tau_2
   1000016     3.42287982E+03   # ~nu_tauL
   1000021     1.99320374E+03   # ~g
   1000022     1.97510803E+02   # ~chi_10
   1000023    -2.14035419E+02   # ~chi_20
   1000025     2.99589773E+02   # ~chi_30
   1000035     1.78919001E+03   # ~chi_40
   1000024     2.10390012E+02   # ~chi_1+
   1000037     1.78935781E+03   # ~chi_2+
#
BLOCK NMIX  # Neutralino Mixing Matrix
  1  1     3.27476022E-01   # N_11
  1  2    -3.27730500E-02   # N_12
  1  3     6.87840674E-01   # N_13
  1  4    -6.46962587E-01   # N_14
  2  1    -6.15355464E-02   # N_21
  2  2     2.75258074E-02   # N_22
  2  3     6.99641937E-01   # N_23
  2  4     7.11306450E-01   # N_24
  3  1     9.42852804E-01   # N_31
  3  2     1.44429606E-02   # N_32
  3  3    -1.93234008E-01   # N_33
  3  4     2.71073071E-01   # N_34
  4  1    -1.19259949E-03   # N_41
  4  2     9.98979308E-01   # N_42
  4  3     6.08150613E-03   # N_43
  4  4    -4.47429880E-02   # N_44
#
BLOCK UMIX  # Chargino Mixing Matrix U
  1  1    -8.61417971E-03   # U_11
  1  2     9.99962897E-01   # U_12
  2  1    -9.99962897E-01   # U_21
  2  2    -8.61417971E-03   # U_22
#
BLOCK VMIX  # Chargino Mixing Matrix V
  1  1    -6.33417349E-02   # V_11
  1  2     9.97991896E-01   # V_12
  2  1    -9.97991896E-01   # V_21
  2  2    -6.33417349E-02   # V_22
#
BLOCK STOPMIX  # Stop Mixing Matrix
  1  1     5.90327246E-02   # cos(theta_t)
  1  2     9.98256048E-01   # sin(theta_t)
  2  1    -9.98256048E-01   # -sin(theta_t)
  2  2     5.90327246E-02   # cos(theta_t)
#
BLOCK SBOTMIX  # Sbottom Mixing Matrix
  1  1     1.45201491E-03   # cos(theta_b)
  1  2     9.99998946E-01   # sin(theta_b)
  2  1    -9.99998946E-01   # -sin(theta_b)
  2  2     1.45201491E-03   # cos(theta_b)
#
BLOCK STAUMIX  # Stau Mixing Matrix
  1  1     1.45703612E-03   # cos(theta_tau)
  1  2     9.99998939E-01   # sin(theta_tau)
  2  1    -9.99998939E-01   # -sin(theta_tau)
  2  2     1.45703612E-03   # cos(theta_tau)
#
BLOCK ALPHA  # Higgs mixing
          -2.04289688E-02   # Mixing angle in the neutral Higgs boson sector
#
BLOCK HMIX Q=  3.15116000E+03  # DRbar Higgs Parameters
         1     2.05774690E+02   # mu(Q)MSSM           
         2     5.06952039E+01   # tan                 
         3     2.42166893E+02   # higgs               
         4     1.09542674E+06   # mA^2(Q)MSSM         
#
BLOCK GAUGE Q=  3.15116000E+03  # The gauge couplings
     1     3.65887422E-01   # gprime(Q) DRbar
     2     6.39946039E-01   # g(Q) DRbar
     3     1.02108514E+00   # g3(Q) DRbar
#
BLOCK AU Q=  3.15116000E+03  # The trilinear couplings
  1  1     0.00000000E+00   # A_u(Q) DRbar
  2  2     0.00000000E+00   # A_c(Q) DRbar
  3  3    -3.59483999E+03   # A_t(Q) DRbar
#
BLOCK AD Q=  3.15116000E+03  # The trilinear couplings
  1  1     0.00000000E+00   # A_d(Q) DRbar
  2  2     0.00000000E+00   # A_s(Q) DRbar
  3  3     1.01153001E+03   # A_b(Q) DRbar
#
BLOCK AE Q=  3.15116000E+03  # The trilinear couplings
  1  1     0.00000000E+00   # A_e(Q) DRbar
  2  2     0.00000000E+00   # A_mu(Q) DRbar
  3  3     2.71456000E+03   # A_tau(Q) DRbar
#
BLOCK Yu Q=  3.15116000E+03  # The Yukawa couplings
  1  1     0.00000000E+00   # y_u(Q) DRbar
  2  2     0.00000000E+00   # y_c(Q) DRbar
  3  3     8.17415461E-01   # y_t(Q) DRbar
#
BLOCK Yd Q=  3.15116000E+03  # The Yukawa couplings
  1  1     0.00000000E+00   # y_d(Q) DRbar
  2  2     0.00000000E+00   # y_s(Q) DRbar
  3  3     6.82103869E-01   # y_b(Q) DRbar
#
BLOCK Ye Q=  3.15116000E+03  # The Yukawa couplings
  1  1     0.00000000E+00   # y_e(Q) DRbar
  2  2     0.00000000E+00   # y_mu(Q) DRbar
  3  3     5.26807510E-01   # y_tau(Q) DRbar
#
BLOCK MSOFT Q=  3.15116000E+03  # The soft SUSY breaking masses at the scale Q
         1     2.93210000E+02   # M_1(Q)              
         2     1.76408000E+03   # M_2(Q)              
         3     1.84616000E+03   # M_3(Q)              
        21     7.38302431E+05   # mH1^2(Q)            
        22     1.28821755E+05   # mH2^2(Q)            
        31     1.82110000E+02   # meL(Q)              
        32     1.82110000E+02   # mmuL(Q)             
        33     3.42511000E+03   # mtauL(Q)            
        34     3.78525000E+03   # meR(Q)              
        35     3.78525000E+03   # mmuR(Q)             
        36     1.46039000E+03   # mtauR(Q)            
        41     2.16250999E+03   # mqL1(Q)             
        42     2.16250999E+03   # mqL2(Q)             
        43     3.91917999E+03   # mqL3(Q)             
        44     1.05828999E+03   # muR(Q)              
        45     1.05828999E+03   # mcR(Q)              
        46     2.53189998E+03   # mtR(Q)              
        47     1.17869999E+03   # mdR(Q)              
        48     1.17869999E+03   # msR(Q)              
        49     6.88039967E+02   # mbR(Q)              
#
Block HiggsBoundsInputHiggsCouplingsFermions
# ScalarNormEffCoupSq PseudoSNormEffCoupSq NP   IP1 IP2 IP2
    1.07284054E+00    0.00000000E+00        3  25   5   5  # h0-b-b eff. coupling^2, normalised to SM
    2.56993086E+03    0.00000000E+00        3  35   5   5  # H0-b-b eff. coupling^2, normalised to SM
    0.00000000E+00    2.57000370E+03        3  36   5   5  # A0-b-b eff. coupling^2, normalised to SM
#
    9.99971657E-01    0.00000000E+00        3  25   6   6  # h0-t-t eff. coupling^2, normalised to SM
    4.17447078E-04    0.00000000E+00        3  35   6   6  # H0-t-t eff. coupling^2, normalised to SM
    0.00000000E+00    3.89104498E-04        3  36   6   6  # A0-t-t eff. coupling^2, normalised to SM
#
    1.07284054E+00    0.00000000E+00        3  25  15  15  # h0-tau-tau eff. coupling^2, normalised to SM
    2.56993086E+03    0.00000000E+00        3  35  15  15  # H0-tau-tau eff. coupling^2, normalised to SM
    0.00000000E+00    2.57000370E+03        3  36  15  15  # A0-tau-tau eff. coupling^2, normalised to SM
#
Block HiggsBoundsInputHiggsCouplingsBosons
    9.99999502E-01        3  25  24  24  # h0-W-W eff. coupling^2, normalised to SM
    4.98146181E-07        3  35  24  24  # H0-W-W eff. coupling^2, normalised to SM
    0.00000000E+00        3  36  24  24  # A0-W-W eff. coupling^2, normalised to SM
#
    9.99999502E-01        3  25  23  23  # h0-Z-Z eff. coupling^2, normalised to SM
    4.98146181E-07        3  35  23  23  # H0-Z-Z eff. coupling^2, normalised to SM
    0.00000000E+00        3  36  23  23  # A0-Z-Z eff. coupling^2, normalised to SM
#
    8.83071897E-01        3  25  21  21  # h0-g-g eff. coupling^2, normalised to SM
    4.21511508E-03        3  35  21  21  # H0-g-g eff. coupling^2, normalised to SM
    6.27901354E-03        3  36  21  21  # A0-g-g eff. coupling^2, normalised to SM
#
    0.00000000E+00        3  25  25  23  # h0-h0-Z eff. coupling^2, normalised to SM
    0.00000000E+00        3  35  25  23  # H0-h0-Z eff. coupling^2, normalised to SM
    4.98146181E-07        3  36  25  23  # A0-h0-Z eff. coupling^2, normalised to SM
    0.00000000E+00        3  35  35  23  # H0-H0-Z eff. coupling^2, normalised to SM
    9.99999502E-01        3  36  35  23  # A0-H0-Z eff. coupling^2, normalised to SM
    0.00000000E+00        3  36  36  23  # A0-A0-Z eff. coupling^2, normalised to SM
#
    0.00000000E+00        4  25  21  21  23  # h0-g-g-Z eff. coupling^2, normalised to SM
    0.00000000E+00        4  35  21  21  23  # H0-g-g-Z eff. coupling^2, normalised to SM
    0.00000000E+00        4  36  21  21  23  # A0-g-g-Z eff. coupling^2, normalised to SM
#
#
#
#                             =================
#                             |The decay table|
#                             =================
#
# - The QCD corrections to the decays gluino -> squark  + quark
#                                     squark -> gaugino + quark_prime
#                                     squark -> squark_prime + Higgs
#                                     squark -> gluino  + quark
#   are included.
#
# - The multi-body decays for the inos, stops and sbottoms are included.
#
# - The loop induced decays for the gluino, neutralinos and stops
#   are included.
#
# - The SUSY decays of the top quark are included.
#
#
#         PDG            Width
DECAY         6     1.44291092E+00   # top decays
#          BR         NDA      ID1       ID2
     1.00000000E+00    2           5        24   # BR(t ->  b    W+)
#
#         PDG            Width
DECAY   1000021     8.90280961E+01   # gluino decays
#          BR         NDA      ID1       ID2
     7.58032504E-02    2     2000001        -1   # BR(~g -> ~d_R  db)
     7.58032504E-02    2    -2000001         1   # BR(~g -> ~d_R* d )
     9.50506681E-02    2     2000002        -2   # BR(~g -> ~u_R  ub)
     9.50506681E-02    2    -2000002         2   # BR(~g -> ~u_R* u )
     7.58032504E-02    2     2000003        -3   # BR(~g -> ~s_R  sb)
     7.58032504E-02    2    -2000003         3   # BR(~g -> ~s_R* s )
     9.50505593E-02    2     2000004        -4   # BR(~g -> ~c_R  cb)
     9.50505593E-02    2    -2000004         4   # BR(~g -> ~c_R* c )
     1.58292272E-01    2     1000005        -5   # BR(~g -> ~b_1  bb)
     1.58292272E-01    2    -1000005         5   # BR(~g -> ~b_1* b )
#
#         PDG            Width
DECAY   1000006     9.26011434E+01   # stop1 decays
#          BR         NDA      ID1       ID2
     1.58766627E-01    2     1000022         6   # BR(~t_1 -> ~chi_10 t )
     1.82028142E-01    2     1000023         6   # BR(~t_1 -> ~chi_20 t )
     7.92622666E-02    2     1000025         6   # BR(~t_1 -> ~chi_30 t )
     1.24885944E-05    2     1000035         6   # BR(~t_1 -> ~chi_40 t )
     3.60278573E-01    2     1000024         5   # BR(~t_1 -> ~chi_1+ b )
     2.72246622E-05    2     1000037         5   # BR(~t_1 -> ~chi_2+ b )
     2.18424494E-01    2     1000021         6   # BR(~t_1 -> ~g      t )
     1.19959383E-03    2     1000005        37   # BR(~t_1 -> ~b_1    H+)
     5.89756711E-07    2     1000005        24   # BR(~t_1 -> ~b_1    W+)
#
#         PDG            Width
DECAY   2000006     2.65854395E+02   # stop2 decays
#          BR         NDA      ID1       ID2
     7.99780492E-02    2     1000022         6   # BR(~t_2 -> ~chi_10 t )
     9.80328277E-02    2     1000023         6   # BR(~t_2 -> ~chi_20 t )
     1.83083429E-02    2     1000025         6   # BR(~t_2 -> ~chi_30 t )
     3.84402018E-02    2     1000035         6   # BR(~t_2 -> ~chi_40 t )
     1.35829154E-01    2     1000024         5   # BR(~t_2 -> ~chi_1+ b )
     7.61254553E-02    2     1000037         5   # BR(~t_2 -> ~chi_2+ b )
     4.46716310E-01    2     1000021         6   # BR(~t_2 -> ~g      t )
     4.70895441E-02    2     1000006        25   # BR(~t_2 -> ~t_1    h )
     5.12668969E-05    2     1000006        35   # BR(~t_2 -> ~t_1    H )
     5.40426591E-05    2     1000006        36   # BR(~t_2 -> ~t_1    A )
     8.12376657E-03    2     1000005        37   # BR(~t_2 -> ~b_1    H+)
     5.09850631E-02    2     1000006        23   # BR(~t_2 -> ~t_1    Z )
     2.65975820E-04    2     1000005        24   # BR(~t_2 -> ~b_1    W+)
#
#         PDG            Width
DECAY   1000005     1.29275726E+01   # sbottom1 decays
#          BR         NDA      ID1       ID2
     2.49532426E-01    2     1000022         5   # BR(~b_1 -> ~chi_10 b )
     2.49101879E-01    2     1000023         5   # BR(~b_1 -> ~chi_20 b )
     4.15278720E-02    2     1000025         5   # BR(~b_1 -> ~chi_30 b )
     4.59837823E-01    2    -1000024         6   # BR(~b_1 -> ~chi_1- t )
#
#         PDG            Width
DECAY   2000005     2.67161148E+02   # sbottom2 decays
#          BR         NDA      ID1       ID2
     6.46167561E-02    2     1000022         5   # BR(~b_2 -> ~chi_10 b )
     6.63803868E-02    2     1000023         5   # BR(~b_2 -> ~chi_20 b )
     6.67226693E-03    2     1000025         5   # BR(~b_2 -> ~chi_30 b )
     3.76293185E-02    2     1000035         5   # BR(~b_2 -> ~chi_40 b )
     1.92946121E-01    2    -1000024         6   # BR(~b_2 -> ~chi_1- t )
     7.59971081E-02    2    -1000037         6   # BR(~b_2 -> ~chi_2- t )
     4.49258450E-01    2     1000021         5   # BR(~b_2 -> ~g      b )
     1.44103660E-04    2     1000005        25   # BR(~b_2 -> ~b_1    h )
     4.13129818E-03    2     1000005        35   # BR(~b_2 -> ~b_1    H )
     4.13029662E-03    2     1000005        36   # BR(~b_2 -> ~b_1    A )
     1.06459655E-04    2     1000006       -37   # BR(~b_2 -> ~t_1    H-)
     1.36186069E-04    2     1000005        23   # BR(~b_2 -> ~b_1    Z )
     9.78512488E-02    2     1000006       -24   # BR(~b_2 -> ~t_1    W-)
#
#         PDG            Width
DECAY   1000002     1.29641805E+01   # sup_L decays
#          BR         NDA      ID1       ID2
     5.83892619E-04    2     1000022         2   # BR(~u_L -> ~chi_10 u)
     1.65481825E-04    2     1000023         2   # BR(~u_L -> ~chi_20 u)
     2.45757120E-02    2     1000025         2   # BR(~u_L -> ~chi_30 u)
     9.62355516E-02    2     1000035         2   # BR(~u_L -> ~chi_40 u)
     5.32346710E-03    2     1000024         1   # BR(~u_L -> ~chi_1+ d)
     1.92058923E-01    2     1000037         1   # BR(~u_L -> ~chi_2+ d)
     6.81056971E-01    2     1000021         2   # BR(~u_L -> ~g      u)
#
#         PDG            Width
DECAY   2000002     2.53628485E+00   # sup_R decays
#          BR         NDA      ID1       ID2
     1.14371988E-01    2     1000022         2   # BR(~u_R -> ~chi_10 u)
     4.00004602E-03    2     1000023         2   # BR(~u_R -> ~chi_20 u)
     8.81627966E-01    2     1000025         2   # BR(~u_R -> ~chi_30 u)
#
#         PDG            Width
DECAY   1000001     1.29886865E+01   # sdown_L decays
#          BR         NDA      ID1       ID2
     6.01424509E-03    2     1000022         1   # BR(~d_L -> ~chi_10 d)
     1.02025774E-03    2     1000023         1   # BR(~d_L -> ~chi_20 d)
     1.77830001E-02    2     1000025         1   # BR(~d_L -> ~chi_30 d)
     9.65363991E-02    2     1000035         1   # BR(~d_L -> ~chi_40 d)
     9.83248234E-05    2    -1000024         2   # BR(~d_L -> ~chi_1- u)
     1.93245469E-01    2    -1000037         2   # BR(~d_L -> ~chi_2- u)
     6.85302304E-01    2     1000021         1   # BR(~d_L -> ~g      d)
#
#         PDG            Width
DECAY   2000001     7.00926545E-01   # sdown_R decays
#          BR         NDA      ID1       ID2
     1.13161063E-01    2     1000022         1   # BR(~d_R -> ~chi_10 d)
     3.96391074E-03    2     1000023         1   # BR(~d_R -> ~chi_20 d)
     8.82875026E-01    2     1000025         1   # BR(~d_R -> ~chi_30 d)
#
#         PDG            Width
DECAY   1000004     1.03422883E+01   # scharm_L decays
#          BR         NDA      ID1       ID2
     7.69546382E-04    2     1000022         4   # BR(~c_L -> ~chi_10 c)
     2.18062771E-04    2     1000023         4   # BR(~c_L -> ~chi_20 c)
     3.23583402E-02    2     1000025         4   # BR(~c_L -> ~chi_30 c)
     1.23096271E-01    2     1000035         4   # BR(~c_L -> ~chi_40 c)
     7.01522662E-03    2     1000024         3   # BR(~c_L -> ~chi_1+ s)
     2.45664248E-01    2     1000037         3   # BR(~c_L -> ~chi_2+ s)
     5.90878305E-01    2     1000021         4   # BR(~c_L -> ~g      c)
#
#         PDG            Width
DECAY   2000004     2.52332339E+00   # scharm_R decays
#          BR         NDA      ID1       ID2
     1.14461931E-01    2     1000022         4   # BR(~c_R -> ~chi_10 c)
     4.00257818E-03    2     1000023         4   # BR(~c_R -> ~chi_20 c)
     8.81535491E-01    2     1000025         4   # BR(~c_R -> ~chi_30 c)
#
#         PDG            Width
DECAY   1000003     1.03418853E+01   # sstrange_L decays
#          BR         NDA      ID1       ID2
     7.94184902E-03    2     1000022         3   # BR(~s_L -> ~chi_10 s)
     1.34703792E-03    2     1000023         3   # BR(~s_L -> ~chi_20 s)
     2.34597779E-02    2     1000025         3   # BR(~s_L -> ~chi_30 s)
     1.23727853E-01    2     1000035         3   # BR(~s_L -> ~chi_40 s)
     1.29822020E-04    2    -1000024         4   # BR(~s_L -> ~chi_1- c)
     2.47672812E-01    2    -1000037         4   # BR(~s_L -> ~chi_2- c)
     5.95720848E-01    2     1000021         3   # BR(~s_L -> ~g      s)
#
#         PDG            Width
DECAY   2000003     7.00840005E-01   # sstrange_R decays
#          BR         NDA      ID1       ID2
     1.13249741E-01    2     1000022         3   # BR(~s_R -> ~chi_10 s)
     3.96641132E-03    2     1000023         3   # BR(~s_R -> ~chi_20 s)
     8.82783848E-01    2     1000025         3   # BR(~s_R -> ~chi_30 s)
#
#         PDG            Width
DECAY   1000011     1.08632465E-02   # selectron_L decays
#          BR         NDA      ID1       ID2
     9.32251252E-01    2     1000022        11   # BR(~e_L -> ~chi_10 e-)
     1.75626888E-03    2     1000023        11   # BR(~e_L -> ~chi_20 e-)
     6.12547092E-02    2     1000025        11   # BR(~e_L -> ~chi_30 e-)
     4.73776975E-03    2    -1000024        12   # BR(~e_L -> ~chi_1- nu_e)
#
#         PDG            Width
DECAY   2000011     1.99373184E+01   # selectron_R decays
#          BR         NDA      ID1       ID2
     1.07920463E-01    2     1000022        11   # BR(~e_R -> ~chi_10 e-)
     3.80700859E-03    2     1000023        11   # BR(~e_R -> ~chi_20 e-)
     8.88271660E-01    2     1000025        11   # BR(~e_R -> ~chi_30 e-)
     8.68425638E-07    2     1000035        11   # BR(~e_R -> ~chi_40 e-)
#
#         PDG            Width
DECAY   1000013     1.08631483E-02   # smuon_L decays
#          BR         NDA      ID1       ID2
     9.32259024E-01    2     1000022        13   # BR(~mu_L -> ~chi_10 mu-)
     1.75628315E-03    2     1000023        13   # BR(~mu_L -> ~chi_20 mu-)
     6.12468805E-02    2     1000025        13   # BR(~mu_L -> ~chi_30 mu-)
     4.73781256E-03    2    -1000024        14   # BR(~mu_L -> ~chi_1- nu_mu)
#
#         PDG            Width
DECAY   2000013     1.99373184E+01   # smuon_R decays
#          BR         NDA      ID1       ID2
     1.07920463E-01    2     1000022        13   # BR(~mu_R -> ~chi_10 mu-)
     3.80700859E-03    2     1000023        13   # BR(~mu_R -> ~chi_20 mu-)
     8.88271660E-01    2     1000025        13   # BR(~mu_R -> ~chi_30 mu-)
     8.68425637E-07    2     1000035        13   # BR(~mu_R -> ~chi_40 mu-)
#
#         PDG            Width
DECAY   1000015     2.20794781E+01   # stau_1 decays
#          BR         NDA      ID1       ID2
     1.98130298E-01    2     1000022        15   # BR(~tau_1 -> ~chi_10  tau-)
     1.68195913E-01    2     1000023        15   # BR(~tau_1 -> ~chi_20  tau-)
     2.91997426E-01    2     1000025        15   # BR(~tau_1 -> ~chi_30  tau-)
     3.41676364E-01    2    -1000024        16   # BR(~tau_1 -> ~chi_1-  nu_tau)
#
#         PDG            Width
DECAY   2000015     5.42688987E+01   # stau_2 decays
#          BR         NDA      ID1       ID2
     1.69688791E-01    2     1000022        15   # BR(~tau_2 -> ~chi_10  tau-)
     1.69246684E-01    2     1000023        15   # BR(~tau_2 -> ~chi_20  tau-)
     9.04392238E-02    2     1000025        15   # BR(~tau_2 -> ~chi_30  tau-)
     1.35385012E-01    2     1000035        15   # BR(~tau_2 -> ~chi_40  tau-)
     2.80495682E-05    2    -1000024        16   # BR(~tau_2 -> ~chi_1-  nu_tau)
     2.71619680E-01    2    -1000037        16   # BR(~tau_2 -> ~chi_2-  nu_tau)
     2.76523088E-04    2     1000015        25   # BR(~tau_2 -> ~tau_1   h)
     8.15173459E-02    2     1000015        35   # BR(~tau_2 -> ~tau_1   H)
     8.15119301E-02    2     1000015        36   # BR(~tau_2 -> ~tau_1   A)
     2.86761177E-04    2     1000015        23   # BR(~tau_2 -> ~tau_1   Z)
#
#         PDG            Width
DECAY   1000012     2.12888586E-02   # snu_eL decays
#          BR         NDA      ID1       ID2
     8.39109944E-01    2     1000022        12   # BR(~nu_eL -> ~chi_10 nu_e)
     5.03522844E-02    2     1000023        12   # BR(~nu_eL -> ~chi_20 nu_e)
     1.10537771E-01    2     1000024        11   # BR(~nu_eL -> ~chi_1+ e-)
#
#         PDG            Width
DECAY   1000014     2.12888561E-02   # snu_muL decays
#          BR         NDA      ID1       ID2
     8.39110042E-01    2     1000022        14   # BR(~nu_muL -> ~chi_10 nu_mu)
     5.03522902E-02    2     1000023        14   # BR(~nu_muL -> ~chi_20 nu_mu)
     1.10537668E-01    2     1000024        13   # BR(~nu_muL -> ~chi_1+ mu-)
#
#         PDG            Width
DECAY   1000016     5.42662186E+01   # snu_tauL decays
#          BR         NDA      ID1       ID2
     1.23544489E-02    2     1000022        16   # BR(~nu_tauL -> ~chi_10 nu_tau)
     1.00253627E-03    2     1000023        16   # BR(~nu_tauL -> ~chi_20 nu_tau)
     6.96428466E-02    2     1000025        16   # BR(~nu_tauL -> ~chi_30 nu_tau)
     1.35627466E-01    2     1000035        16   # BR(~nu_tauL -> ~chi_40 nu_tau)
     3.47644628E-01    2     1000024        15   # BR(~nu_tauL -> ~chi_1+ tau-)
     2.70327893E-01    2     1000037        15   # BR(~nu_tauL -> ~chi_2+ tau-)
     1.62844239E-01    2    -1000015       -37   # BR(~nu_tauL -> ~tau_1+ H-)
     5.55941939E-04    2    -1000015       -24   # BR(~nu_tauL -> ~tau_1+ W-)
#
#         PDG            Width
DECAY   1000024     3.53453991E-07   # chargino1+ decays
#           BR         NDA      ID1       ID2       ID3
     3.36477891E-01    3     1000022         2        -1   # BR(~chi_1+ -> ~chi_10 u    db)
     3.36477891E-01    3     1000022         4        -3   # BR(~chi_1+ -> ~chi_10 c    sb)
     1.12349424E-01    3     1000022       -11        12   # BR(~chi_1+ -> ~chi_10 e+   nu_e)
     1.12349424E-01    3     1000022       -13        14   # BR(~chi_1+ -> ~chi_10 mu+  nu_mu)
     1.02345370E-01    3     1000022       -15        16   # BR(~chi_1+ -> ~chi_10 tau+ nu_tau)
#
#         PDG            Width
DECAY   1000037     5.06618238E+01   # chargino2+ decays
#          BR         NDA      ID1       ID2
     1.61365706E-05    2    -1000005         6   # BR(~chi_2+ -> ~b_1*    t )
     1.35587886E-01    2     1000012       -11   # BR(~chi_2+ -> ~nu_eL   e+  )
     1.35587886E-01    2     1000014       -13   # BR(~chi_2+ -> ~nu_muL mu+ )
     1.35576001E-01    2    -1000011        12   # BR(~chi_2+ -> ~e_L+    nu_e)
     1.35576001E-01    2    -1000013        14   # BR(~chi_2+ -> ~mu_L+   nu_mu)
     6.02914540E-07    2    -1000015        16   # BR(~chi_2+ -> ~tau_1+  nu_tau)
     7.17069451E-02    2     1000024        23   # BR(~chi_2+ -> ~chi_1+  Z )
     5.70865119E-02    2     1000022        24   # BR(~chi_2+ -> ~chi_10  W+)
     7.02855775E-02    2     1000023        24   # BR(~chi_2+ -> ~chi_20  W+)
     1.18518492E-02    2     1000025        24   # BR(~chi_2+ -> ~chi_30  W+)
     7.15704583E-02    2     1000024        25   # BR(~chi_2+ -> ~chi_1+  h )
     4.38003785E-02    2     1000024        35   # BR(~chi_2+ -> ~chi_1+  H )
     4.38438531E-02    2     1000024        36   # BR(~chi_2+ -> ~chi_1+  A )
     4.14002304E-02    2     1000022        37   # BR(~chi_2+ -> ~chi_10  H+)
     4.28091334E-02    2     1000023        37   # BR(~chi_2+ -> ~chi_20  H+)
     3.30054962E-03    2     1000025        37   # BR(~chi_2+ -> ~chi_30  H+)
#
#         PDG            Width
DECAY   1000022     0.00000000E+00   # neutralino1 decays
#
#         PDG            Width
DECAY   1000023     9.41089433E-07   # neutralino2 decays
#          BR         NDA      ID1       ID2
     7.10020775E-03    2     1000022        22   # BR(~chi_20 -> ~chi_10 gam)
#           BR         NDA      ID1       ID2       ID3
     1.26489655E-01    3     1000022        -2         2   # BR(~chi_20 -> ~chi_10 ub      u)
     1.64192614E-01    3     1000022        -1         1   # BR(~chi_20 -> ~chi_10 db      d)
     1.26489655E-01    3     1000022        -4         4   # BR(~chi_20 -> ~chi_10 cb      c)
     1.64192614E-01    3     1000022        -3         3   # BR(~chi_20 -> ~chi_10 sb      s)
     7.22915608E-02    3     1000022        -5         5   # BR(~chi_20 -> ~chi_10 bb      b)
     3.77170964E-02    3     1000022       -11        11   # BR(~chi_20 -> ~chi_10 e+      e-)
     3.77170964E-02    3     1000022       -13        13   # BR(~chi_20 -> ~chi_10 mu+     mu-)
     3.53734906E-02    3     1000022       -15        15   # BR(~chi_20 -> ~chi_10 tau+    tau-)
     7.57490317E-02    3     1000022       -12        12   # BR(~chi_20 -> ~chi_10 nu_eb   nu_e)
     7.57490317E-02    3     1000022       -14        14   # BR(~chi_20 -> ~chi_10 nu_mub  nu_mu)
     7.54444913E-02    3     1000022       -16        16   # BR(~chi_20 -> ~chi_10 nu_taub nu_tau)
     2.69439041E-04    3     1000024        -2         1   # BR(~chi_20 -> ~chi_1+ ub      d)
     2.69439041E-04    3    -1000024        -1         2   # BR(~chi_20 -> ~chi_1- db      u)
     2.69439041E-04    3     1000024        -4         3   # BR(~chi_20 -> ~chi_1+ cb      s)
     2.69439041E-04    3    -1000024        -3         4   # BR(~chi_20 -> ~chi_1- sb      c)
     8.98697199E-05    3     1000024       -12        11   # BR(~chi_20 -> ~chi_1+ nu_eb   e-)
     8.98697199E-05    3    -1000024        12       -11   # BR(~chi_20 -> ~chi_1- nu_e    e+)
     8.98697199E-05    3     1000024       -14        13   # BR(~chi_20 -> ~chi_1+ nu_mub  mu-)
     8.98697199E-05    3    -1000024        14       -13   # BR(~chi_20 -> ~chi_1- nu_mu   mu+)
     2.81101984E-05    3     1000024       -16        15   # BR(~chi_20 -> ~chi_1+ nu_taub tau-)
     2.81101984E-05    3    -1000024        16       -15   # BR(~chi_20 -> ~chi_1- nu_tau  tau+)
#
#         PDG            Width
DECAY   1000025     3.12526868E-02   # neutralino3 decays
#          BR         NDA      ID1       ID2
     1.00981321E-01    2     1000022        23   # BR(~chi_30 -> ~chi_10   Z )
     4.42042788E-01    2     1000024       -24   # BR(~chi_30 -> ~chi_1+   W-)
     4.42042788E-01    2    -1000024        24   # BR(~chi_30 -> ~chi_1-   W+)
     3.73327578E-03    2     1000012       -12   # BR(~chi_30 -> ~nu_eL    nu_eb)
     3.73327578E-03    2    -1000012        12   # BR(~chi_30 -> ~nu_eL*   nu_e )
     3.73327578E-03    2     1000014       -14   # BR(~chi_30 -> ~nu_muL   nu_mub)
     3.73327578E-03    2    -1000014        14   # BR(~chi_30 -> ~nu_muL*  nu_mu )
#
#         PDG            Width
DECAY   1000035     5.06717001E+01   # neutralino4 decays
#          BR         NDA      ID1       ID2
     2.17542450E-02    2     1000022        23   # BR(~chi_40 -> ~chi_10   Z )
     4.57149606E-02    2     1000023        23   # BR(~chi_40 -> ~chi_20   Z )
     4.05846727E-03    2     1000025        23   # BR(~chi_40 -> ~chi_30   Z )
     6.99426543E-02    2     1000024       -24   # BR(~chi_40 -> ~chi_1+   W-)
     6.99426543E-02    2    -1000024        24   # BR(~chi_40 -> ~chi_1-   W+)
     3.67598920E-02    2     1000022        25   # BR(~chi_40 -> ~chi_10   h )
     2.57435724E-02    2     1000022        35   # BR(~chi_40 -> ~chi_10   H )
     1.57719320E-02    2     1000022        36   # BR(~chi_40 -> ~chi_10   A )
     2.61448698E-02    2     1000023        25   # BR(~chi_40 -> ~chi_20   h )
     1.59438513E-02    2     1000023        35   # BR(~chi_40 -> ~chi_20   H )
     2.71351487E-02    2     1000023        36   # BR(~chi_40 -> ~chi_20   A )
     8.40737116E-03    2     1000025        25   # BR(~chi_40 -> ~chi_30   h )
     2.24436520E-03    2     1000025        35   # BR(~chi_40 -> ~chi_30   H )
     1.06183924E-03    2     1000025        36   # BR(~chi_40 -> ~chi_30   A )
     4.35932195E-02    2     1000024       -37   # BR(~chi_40 -> ~chi_1+   H-)
     4.35932195E-02    2    -1000024        37   # BR(~chi_40 -> ~chi_1-   H+)
     5.31748644E-08    2     2000002        -2   # BR(~chi_40 -> ~u_R      ub)
     5.31748644E-08    2    -2000002         2   # BR(~chi_40 -> ~u_R*     u )
     9.55785731E-09    2     2000001        -1   # BR(~chi_40 -> ~d_R      db)
     9.55785731E-09    2    -2000001         1   # BR(~chi_40 -> ~d_R*     d )
     5.31747357E-08    2     2000004        -4   # BR(~chi_40 -> ~c_R      cb)
     5.31747357E-08    2    -2000004         4   # BR(~chi_40 -> ~c_R*     c )
     9.55785731E-09    2     2000003        -3   # BR(~chi_40 -> ~s _R      sb)
     9.55785731E-09    2    -2000003         3   # BR(~chi_40 -> ~s _R*     s )
     8.04949569E-06    2     1000005        -5   # BR(~chi_40 -> ~b_1      bb)
     8.04949569E-06    2    -1000005         5   # BR(~chi_40 -> ~b_1*     b )
     6.75421179E-02    2     1000011       -11   # BR(~chi_40 -> ~e_L-     e+)
     6.75421179E-02    2    -1000011        11   # BR(~chi_40 -> ~e_L+     e-)
     6.75421179E-02    2     1000013       -13   # BR(~chi_40 -> ~mu_L-    mu+)
     6.75421179E-02    2    -1000013        13   # BR(~chi_40 -> ~mu_L+    mu-)
     3.16817688E-07    2     1000015       -15   # BR(~chi_40 -> ~tau_1-   tau+)
     3.16817688E-07    2    -1000015        15   # BR(~chi_40 -> ~tau_1+   tau-)
     6.80005706E-02    2     1000012       -12   # BR(~chi_40 -> ~nu_eL    nu_eb)
     6.80005706E-02    2    -1000012        12   # BR(~chi_40 -> ~nu_eL*   nu_e )
     6.80005706E-02    2     1000014       -14   # BR(~chi_40 -> ~nu_muL   nu_mub)
     6.80005706E-02    2    -1000014        14   # BR(~chi_40 -> ~nu_muL*  nu_mu )
#
#         PDG            Width
DECAY        25     4.40256969E-03   # h decays
#          BR         NDA      ID1       ID2
     6.04725814E-01    2           5        -5   # BR(h -> b       bb     )
     6.34087476E-02    2         -15        15   # BR(h -> tau+    tau-   )
     2.23833880E-04    2         -13        13   # BR(h -> mu+     mu-    )
     2.43765105E-04    2           3        -3   # BR(h -> s       sb     )
     1.97975043E-02    2           4        -4   # BR(h -> c       cb     )
     7.35807355E-02    2          21        21   # BR(h -> g       g      )
     2.18722237E-03    2          22        22   # BR(h -> gam     gam    )
     1.51925037E-03    2          22        23   # BR(h -> Z       gam    )
     2.08072967E-01    2          24       -24   # BR(h -> W+      W-     )
     2.62401599E-02    2          23        23   # BR(h -> Z       Z      )
#
#         PDG            Width
DECAY        35     3.30277479E+01   # H decays
#          BR         NDA      ID1       ID2
     8.48694321E-01    2           5        -5   # BR(H -> b       bb     )
     1.29829279E-01    2         -15        15   # BR(H -> tau+    tau-   )
     4.23503159E-04    2         -13        13   # BR(H -> mu+     mu-    )
     3.18681678E-04    2           3        -3   # BR(H -> s       sb     )
     5.12278508E-09    2           4        -4   # BR(H -> c       cb     )
     4.17838291E-04    2           6        -6   # BR(H -> t       tb     )
     1.24865863E-04    2          21        21   # BR(H -> g       g      )
     4.28758664E-08    2          22        22   # BR(H -> gam     gam    )
     3.97453698E-08    2          23        22   # BR(H -> Z       gam    )
     2.51667917E-06    2          24       -24   # BR(H -> W+      W-     )
     1.23582233E-06    2          23        23   # BR(H -> Z       Z      )
     8.88653934E-06    2          25        25   # BR(H -> h       h      )
     5.29196353E-04    2     1000024  -1000024   # BR(H -> ~chi_1+ ~chi_1-)
     2.78686777E-03    2     1000022   1000022   # BR(H -> ~chi_10 ~chi_10)
     2.42966690E-04    2     1000023   1000023   # BR(H -> ~chi_20 ~chi_20)
     5.64267172E-04    2     1000025   1000025   # BR(H -> ~chi_30 ~chi_30)
     1.05694566E-03    2     1000022   1000023   # BR(H -> ~chi_10 ~chi_20)
     4.45865121E-03    2     1000022   1000025   # BR(H -> ~chi_10 ~chi_30)
     1.05374685E-02    2     1000023   1000025   # BR(H -> ~chi_20 ~chi_30)
     2.75469927E-07    2     1000011  -1000011   # BR(H -> ~e_L-   ~e_L+  )
     2.75469927E-07    2     1000013  -1000013   # BR(H -> ~mu_L-  ~mu_L+ )
     9.35287882E-07    2     1000012  -1000012   # BR(H -> ~nu_eL  ~nu_eL*   )
     9.35287882E-07    2     1000014  -1000014   # BR(H -> ~nu_muL ~nu_muL*  )
#
#         PDG            Width
DECAY        36     3.30404290E+01   # A decays
#          BR         NDA      ID1       ID2
     8.48423585E-01    2           5        -5   # BR(A -> b       bb     )
     1.29783611E-01    2         -15        15   # BR(A -> tau+    tau-   )
     4.23346730E-04    2         -13        13   # BR(A -> mu+     mu-    )
     3.18573721E-04    2           3        -3   # BR(A -> s       sb     )
     4.81665204E-09    2           4        -4   # BR(A -> c       cb     )
     4.54104109E-04    2           6        -6   # BR(A -> t       tb     )
     1.52340062E-04    2          21        21   # BR(A -> g       g      )
     7.75834628E-08    2          22        22   # BR(A -> gam     gam    )
     4.95199954E-08    2          23        22   # BR(A -> Z       gam    )
     2.42774718E-06    2          23        25   # BR(A -> Z       h      )
     7.26757774E-04    2     1000024  -1000024   # BR(A -> ~chi_1+ ~chi_1-)
     3.91614885E-03    2     1000022   1000022   # BR(A -> ~chi_10 ~chi_10)
     3.08045065E-04    2     1000023   1000023   # BR(A -> ~chi_20 ~chi_20)
     1.35950085E-03    2     1000025   1000025   # BR(A -> ~chi_30 ~chi_30)
     6.83644476E-04    2     1000022   1000023   # BR(A -> ~chi_10 ~chi_20)
     7.45754900E-03    2     1000022   1000025   # BR(A -> ~chi_10 ~chi_30)
     5.99023364E-03    2     1000023   1000025   # BR(A -> ~chi_20 ~chi_30)
#
#         PDG            Width
DECAY        37     3.08979607E+01   # H+ decays
#          BR         NDA      ID1       ID2
     1.45230165E-03    2           4        -5   # BR(H+ -> c       bb     )
     1.39513980E-01    2         -15        16   # BR(H+ -> tau+    nu_tau )
     4.55086594E-04    2         -13        14   # BR(H+ -> mu+     nu_mu  )
     1.45228165E-05    2           2        -5   # BR(H+ -> u       bb     )
     1.70349627E-05    2           2        -3   # BR(H+ -> u       sb     )
     3.35303740E-04    2           4        -3   # BR(H+ -> c       sb     )
     8.37148165E-01    2           6        -5   # BR(H+ -> t       bb     )
     2.66421091E-06    2          24        25   # BR(H+ -> W+      h      )
     6.32019917E-11    2          24        36   # BR(H+ -> W+      A      )
     1.97825304E-03    2     1000024   1000022   # BR(H+ -> ~chi_1+ ~chi_10)
     1.05812579E-06    2     1000024   1000023   # BR(H+ -> ~chi_1+ ~chi_20)
     1.90793442E-02    2     1000024   1000025   # BR(H+ -> ~chi_1+ ~chi_30)
     1.14298794E-06    2    -1000011   1000012   # BR(H+ -> ~e_L+   ~nu_eL )
     1.14298794E-06    2    -1000013   1000014   # BR(H+ -> ~mu_L+  ~nu_muL)
