#
#                              ======================
#                              | THE SUSYHIT OUTPUT |
#                              ======================
#
#
#              ------------------------------------------------------
#              |     This is the output of the SUSY-HIT package     |
#              |  created by A.Djouadi, M.Muehlleitner and M.Spira. |
#              |  In case of problems with SUSY-HIT email to        |
#              |           margarete.muehlleitner@cern.ch           |
#              |           michael.spira@psi.ch                     |
#              |           abdelhak.djouadi@cern.ch                 |
#              ------------------------------------------------------
#
#              ------------------------------------------------------
#              |  SUSY Les Houches Accord - MSSM Spectrum + Decays  |
#              |              based on the decay programs           |
#              |                                                    |
#              |                     SDECAY 1.3b                    |
#              |                                                    |
#              |  Authors: M.Muhlleitner, A.Djouadi and Y.Mambrini  |
#              |  Ref.:    Comput.Phys.Commun.168(2005)46           |
#              |           [hep-ph/0311167]                         |
#              |                                                    |
#              |                     HDECAY 3.4                     |
#              |                                                    |
#              |  By: A.Djouadi,J.Kalinowski,M.Muhlleitner,M.Spira  |
#              |  Ref.:    Comput.Phys.Commun.108(1998)56           |
#              |           [hep-ph/9704448]                         |
#              |                                                    |
#              |                                                    |
#              |  If not stated otherwise all DRbar couplings and   |
#              |  soft SUSY breaking masses are given at the scale  |
#              |  Q=  0.25824240E+04
#              |                                                    |
#              ------------------------------------------------------
#
#
BLOCK DCINFO  # Decay Program information
     1   SDECAY/HDECAY # decay calculator
     2   1.3b  /3.4    # version number
#
BLOCK SPINFO  # Spectrum calculator information
     1     SOFTSUSY    # spectrum calculator               
     2     3.4.0       # version number                    
#
BLOCK MODSEL  # Model selection
     1     0   #  nonUniversal                                     
#
BLOCK SMINPUTS  # Standard Model inputs
         1     1.27908970E+02   # alpha_em^-1(M_Z)^MSbar
         2     1.16637870E-05   # G_F [GeV^-2]
         3     1.18400000E-01   # alpha_S(M_Z)^MSbar
         4     9.11876000E+01   # M_Z pole mass
         5     4.18000000E+00   # mb(mb)^MSbar
         6     1.73200000E+02   # mt pole mass
         7     1.77700000E+00   # mtau pole mass
#
BLOCK MINPAR  # Input parameters - minimal models
         3     1.57100000E+01   # tanb                
#
BLOCK EXTPAR  # Input parameters - non-minimal models
         0    -1.00000000E+00   # Set                 
         1    -4.90500000E+01   # M_1(MX)             
         2    -2.35949000E+03   # M_2(MX)             
         3     1.72420000E+03   # M_3(MX)             
        11     4.30035000E+03   # At(MX)              
        12     5.22700000E+02   # Ab(MX)              
        13     1.99640000E+03   # Atau(MX)            
        23    -1.76760000E+02   # mu(MX)              
        26     3.76724000E+03   # mA(pole)            
        31     2.30274000E+03   # meL(MX)             
        32     2.30274000E+03   # mmuL(MX)            
        33     9.57160000E+02   # mtauL(MX)           
        34     3.69885000E+03   # meR(MX)             
        35     3.69885000E+03   # mmuR(MX)            
        36     2.23350000E+02   # mtauR(MX)           
        41     1.59658000E+03   # mqL1(MX)            
        42     1.59658000E+03   # mqL2(MX)            
        43     3.49272000E+03   # mqL3(MX)            
        44     3.68207000E+03   # muR(MX)             
        45     3.68207000E+03   # mcR(MX)             
        46     1.91115000E+03   # mtR(MX)             
        47     1.00976000E+03   # mdR(MX)             
        48     1.00976000E+03   # msR(MX)             
        49     1.58319000E+03   # mbR(MX)             
#
BLOCK MASS  # Mass Spectrum
# PDG code           mass       particle
        24     8.04086524E+01   # W+
        25     1.27831593E+02   # h
        35     3.76726347E+03   # H
        36     3.76723996E+03   # A
        37     3.76834387E+03   # H+
         5     4.81876030E+00   # b-quark pole mass calculated from mb(mb)_Msbar
   1000001     1.71059596E+03   # ~d_L
   2000001     1.13011494E+03   # ~d_R
   1000002     1.70892780E+03   # ~u_L
   2000002     3.72345743E+03   # ~u_R
   1000003     1.71059596E+03   # ~s_L
   2000003     1.13011494E+03   # ~s_R
   1000004     1.70892780E+03   # ~c_L
   2000004     3.72345743E+03   # ~c_R
   1000005     1.67201856E+03   # ~b_1
   2000005     3.50660537E+03   # ~b_2
   1000006     1.92297436E+03   # ~t_1
   2000006     3.51509369E+03   # ~t_2
   1000011     2.32204980E+03   # ~e_L
   2000011     3.70358247E+03   # ~e_R
   1000012     2.32040925E+03   # ~nu_eL
   1000013     2.32204980E+03   # ~mu_L
   2000013     3.70358247E+03   # ~mu_R
   1000014     2.32040925E+03   # ~nu_muL
   1000015     2.46373869E+02   # ~tau_1
   2000015     9.88120224E+02   # ~tau_2
   1000016     9.84686318E+02   # ~nu_tauL
   1000021     1.87396162E+03   # ~g
   1000022    -4.41607394E+01   # ~chi_10
   1000023     1.89757846E+02   # ~chi_20
   1000025    -1.91184326E+02   # ~chi_30
   1000035    -2.35911270E+03   # ~chi_40
   1000024     1.84623950E+02   # ~chi_1+
   1000037     2.35927918E+03   # ~chi_2+
#
BLOCK NMIX  # Neutralino Mixing Matrix
  1  1     9.64717441E-01   # N_11
  1  2    -3.05949710E-03   # N_12
  1  3    -2.52149885E-01   # N_13
  1  4     7.57055771E-02   # N_14
  2  1     1.24695925E-01   # N_21
  2  2    -2.03269450E-02   # N_22
  2  3     6.91014531E-01   # N_23
  2  4     7.11713889E-01   # N_24
  3  1     2.31885170E-01   # N_31
  3  2     2.65627181E-02   # N_32
  3  3     6.77419410E-01   # N_33
  3  4    -6.97586291E-01   # N_34
  4  1    -6.73643072E-04   # N_41
  4  2     9.99435779E-01   # N_42
  4  3    -4.72200258E-03   # N_43
  4  4     3.32471368E-02   # N_44
#
BLOCK UMIX  # Chargino Mixing Matrix U
  1  1     6.68000526E-03   # U_11
  1  2     9.99977689E-01   # U_12
  2  1    -9.99977689E-01   # U_21
  2  2     6.68000526E-03   # U_22
#
BLOCK VMIX  # Chargino Mixing Matrix V
  1  1    -4.70466011E-02   # V_11
  1  2    -9.98892696E-01   # V_12
  2  1     9.98892696E-01   # V_21
  2  2    -4.70466011E-02   # V_22
#
BLOCK STOPMIX  # Stop Mixing Matrix
  1  1    -6.86906031E-02   # cos(theta_t)
  1  2     9.97638011E-01   # sin(theta_t)
  2  1    -9.97638011E-01   # -sin(theta_t)
  2  2    -6.86906031E-02   # cos(theta_t)
#
BLOCK SBOTMIX  # Sbottom Mixing Matrix
  1  1    -7.44116624E-04   # cos(theta_b)
  1  2     9.99999723E-01   # sin(theta_b)
  2  1    -9.99999723E-01   # -sin(theta_b)
  2  2    -7.44116624E-04   # cos(theta_b)
#
BLOCK STAUMIX  # Stau Mixing Matrix
  1  1    -9.25336947E-03   # cos(theta_tau)
  1  2     9.99957187E-01   # sin(theta_tau)
  2  1    -9.99957187E-01   # -sin(theta_tau)
  2  2    -9.25336947E-03   # cos(theta_tau)
#
BLOCK ALPHA  # Higgs mixing
          -6.66679353E-02   # Mixing angle in the neutral Higgs boson sector
#
BLOCK HMIX Q=  2.58242400E+03  # DRbar Higgs Parameters
         1    -1.79748726E+02   # mu(Q)MSSM           
         2     1.50027483E+01   # tan                 
         3     2.42144611E+02   # higgs               
         4     1.42520742E+07   # mA^2(Q)MSSM         
#
BLOCK GAUGE Q=  2.58242400E+03  # The gauge couplings
     1     3.64971537E-01   # gprime(Q) DRbar
     2     6.38884441E-01   # g(Q) DRbar
     3     1.02512405E+00   # g3(Q) DRbar
#
BLOCK AU Q=  2.58242400E+03  # The trilinear couplings
  1  1     0.00000000E+00   # A_u(Q) DRbar
  2  2     0.00000000E+00   # A_c(Q) DRbar
  3  3     4.30035001E+03   # A_t(Q) DRbar
#
BLOCK AD Q=  2.58242400E+03  # The trilinear couplings
  1  1     0.00000000E+00   # A_d(Q) DRbar
  2  2     0.00000000E+00   # A_s(Q) DRbar
  3  3     5.22700003E+02   # A_b(Q) DRbar
#
BLOCK AE Q=  2.58242400E+03  # The trilinear couplings
  1  1     0.00000000E+00   # A_e(Q) DRbar
  2  2     0.00000000E+00   # A_mu(Q) DRbar
  3  3     1.99640000E+03   # A_tau(Q) DRbar
#
BLOCK Yu Q=  2.58242400E+03  # The Yukawa couplings
  1  1     0.00000000E+00   # y_u(Q) DRbar
  2  2     0.00000000E+00   # y_c(Q) DRbar
  3  3     8.48508220E-01   # y_t(Q) DRbar
#
BLOCK Yd Q=  2.58242400E+03  # The Yukawa couplings
  1  1     0.00000000E+00   # y_d(Q) DRbar
  2  2     0.00000000E+00   # y_s(Q) DRbar
  3  3     2.06333043E-01   # y_b(Q) DRbar
#
BLOCK Ye Q=  2.58242400E+03  # The Yukawa couplings
  1  1     0.00000000E+00   # y_e(Q) DRbar
  2  2     0.00000000E+00   # y_mu(Q) DRbar
  3  3     1.55093503E-01   # y_tau(Q) DRbar
#
BLOCK MSOFT Q=  2.58242400E+03  # The soft SUSY breaking masses at the scale Q
         1    -4.90500000E+01   # M_1(Q)              
         2    -2.35949000E+03   # M_2(Q)              
         3     1.72420000E+03   # M_3(Q)              
        21     1.40535044E+07   # mH1^2(Q)            
        22     6.82599940E+04   # mH2^2(Q)            
        31     2.30274000E+03   # meL(Q)              
        32     2.30274000E+03   # mmuL(Q)             
        33     9.57160000E+02   # mtauL(Q)            
        34     3.69885000E+03   # meR(Q)              
        35     3.69885000E+03   # mmuR(Q)             
        36     2.23350000E+02   # mtauR(Q)            
        41     1.59658000E+03   # mqL1(Q)             
        42     1.59658000E+03   # mqL2(Q)             
        43     3.49272000E+03   # mqL3(Q)             
        44     3.68207000E+03   # muR(Q)              
        45     3.68207000E+03   # mcR(Q)              
        46     1.91115000E+03   # mtR(Q)              
        47     1.00975999E+03   # mdR(Q)              
        48     1.00975999E+03   # msR(Q)              
        49     1.58319000E+03   # mbR(Q)              
#
Block HiggsBoundsInputHiggsCouplingsFermions
# ScalarNormEffCoupSq PseudoSNormEffCoupSq NP   IP1 IP2 IP2
    1.00336132E+00    0.00000000E+00        3  25   5   5  # h0-b-b eff. coupling^2, normalised to SM
    2.25079095E+02    0.00000000E+00        3  35   5   5  # H0-b-b eff. coupling^2, normalised to SM
    0.00000000E+00    2.25082457E+02        3  36   5   5  # A0-b-b eff. coupling^2, normalised to SM
#
    9.99985066E-01    0.00000000E+00        3  25   6   6  # h0-t-t eff. coupling^2, normalised to SM
    4.45775000E-03    0.00000000E+00        3  35   6   6  # H0-t-t eff. coupling^2, normalised to SM
    0.00000000E+00    4.44281627E-03        3  36   6   6  # A0-t-t eff. coupling^2, normalised to SM
#
    1.00336132E+00    0.00000000E+00        3  25  15  15  # h0-tau-tau eff. coupling^2, normalised to SM
    2.25079095E+02    0.00000000E+00        3  35  15  15  # H0-tau-tau eff. coupling^2, normalised to SM
    0.00000000E+00    2.25082457E+02        3  36  15  15  # A0-tau-tau eff. coupling^2, normalised to SM
#
Block HiggsBoundsInputHiggsCouplingsBosons
    9.99999987E-01        3  25  24  24  # h0-W-W eff. coupling^2, normalised to SM
    1.25283082E-08        3  35  24  24  # H0-W-W eff. coupling^2, normalised to SM
    0.00000000E+00        3  36  24  24  # A0-W-W eff. coupling^2, normalised to SM
#
    9.99999987E-01        3  25  23  23  # h0-Z-Z eff. coupling^2, normalised to SM
    1.25283082E-08        3  35  23  23  # H0-Z-Z eff. coupling^2, normalised to SM
    0.00000000E+00        3  36  23  23  # A0-Z-Z eff. coupling^2, normalised to SM
#
    8.87154670E-01        3  25  21  21  # h0-g-g eff. coupling^2, normalised to SM
    1.99706581E-15        3  35  21  21  # H0-g-g eff. coupling^2, normalised to SM
    1.80154319E-13        3  36  21  21  # A0-g-g eff. coupling^2, normalised to SM
#
    0.00000000E+00        3  25  25  23  # h0-h0-Z eff. coupling^2, normalised to SM
    0.00000000E+00        3  35  25  23  # H0-h0-Z eff. coupling^2, normalised to SM
    1.25283082E-08        3  36  25  23  # A0-h0-Z eff. coupling^2, normalised to SM
    0.00000000E+00        3  35  35  23  # H0-H0-Z eff. coupling^2, normalised to SM
    9.99999987E-01        3  36  35  23  # A0-H0-Z eff. coupling^2, normalised to SM
    0.00000000E+00        3  36  36  23  # A0-A0-Z eff. coupling^2, normalised to SM
#
    0.00000000E+00        4  25  21  21  23  # h0-g-g-Z eff. coupling^2, normalised to SM
    0.00000000E+00        4  35  21  21  23  # H0-g-g-Z eff. coupling^2, normalised to SM
    0.00000000E+00        4  36  21  21  23  # A0-g-g-Z eff. coupling^2, normalised to SM
#
#
#
#                             =================
#                             |The decay table|
#                             =================
#
# - The QCD corrections to the decays gluino -> squark  + quark
#                                     squark -> gaugino + quark_prime
#                                     squark -> squark_prime + Higgs
#                                     squark -> gluino  + quark
#   are included.
#
# - The multi-body decays for the inos, stops and sbottoms are included.
#
# - The loop induced decays for the gluino, neutralinos and stops
#   are included.
#
# - The SUSY decays of the top quark are included.
#
#
#         PDG            Width
DECAY         6     1.43668938E+00   # top decays
#          BR         NDA      ID1       ID2
     1.00000000E+00    2           5        24   # BR(t ->  b    W+)
#
#         PDG            Width
DECAY   1000021     3.66081902E+01   # gluino decays
#          BR         NDA      ID1       ID2
     1.43901996E-02    2     1000001        -1   # BR(~g -> ~d_L  db)
     1.43901996E-02    2    -1000001         1   # BR(~g -> ~d_L* d )
     2.09538101E-01    2     2000001        -1   # BR(~g -> ~d_R  db)
     2.09538101E-01    2    -2000001         1   # BR(~g -> ~d_R* d )
     1.46719172E-02    2     1000002        -2   # BR(~g -> ~u_L  ub)
     1.46719172E-02    2    -1000002         2   # BR(~g -> ~u_L* u )
     1.43901996E-02    2     1000003        -3   # BR(~g -> ~s_L  sb)
     1.43901996E-02    2    -1000003         3   # BR(~g -> ~s_L* s )
     2.09538101E-01    2     2000003        -3   # BR(~g -> ~s_R  sb)
     2.09538101E-01    2    -2000003         3   # BR(~g -> ~s_R* s )
     1.46712683E-02    2     1000004        -4   # BR(~g -> ~c_L  cb)
     1.46712683E-02    2    -1000004         4   # BR(~g -> ~c_L* c )
     2.28002131E-02    2     1000005        -5   # BR(~g -> ~b_1  bb)
     2.28002131E-02    2    -1000005         5   # BR(~g -> ~b_1* b )
#
#         PDG            Width
DECAY   1000006     5.81078090E+01   # stop1 decays
#          BR         NDA      ID1       ID2
     7.49747214E-02    2     1000022         6   # BR(~t_1 -> ~chi_10 t )
     2.36071341E-01    2     1000023         6   # BR(~t_1 -> ~chi_20 t )
     2.24493919E-01    2     1000025         6   # BR(~t_1 -> ~chi_30 t )
     4.64460017E-01    2     1000024         5   # BR(~t_1 -> ~chi_1+ b )
     2.47659276E-09    2     1000005        24   # BR(~t_1 -> ~b_1    W+)
#
#         PDG            Width
DECAY   2000006     2.15083759E+02   # stop2 decays
#          BR         NDA      ID1       ID2
     2.93673083E-03    2     1000022         6   # BR(~t_2 -> ~chi_10 t )
     1.16120506E-01    2     1000023         6   # BR(~t_2 -> ~chi_20 t )
     1.14288961E-01    2     1000025         6   # BR(~t_2 -> ~chi_30 t )
     2.01419124E-02    2     1000035         6   # BR(~t_2 -> ~chi_40 t )
     1.39583493E-02    2     1000024         5   # BR(~t_2 -> ~chi_1+ b )
     4.01397962E-02    2     1000037         5   # BR(~t_2 -> ~chi_2+ b )
     4.67062847E-01    2     1000021         6   # BR(~t_2 -> ~g      t )
     1.20229398E-01    2     1000006        25   # BR(~t_2 -> ~t_1    h )
     1.05089232E-01    2     1000006        23   # BR(~t_2 -> ~t_1    Z )
     3.22669006E-05    2     1000005        24   # BR(~t_2 -> ~b_1    W+)
#
#         PDG            Width
DECAY   1000005     3.71481112E+00   # sbottom1 decays
#          BR         NDA      ID1       ID2
     2.70688502E-01    2     1000022         5   # BR(~b_1 -> ~chi_10 b )
     1.81273549E-01    2     1000023         5   # BR(~b_1 -> ~chi_20 b )
     1.84251651E-01    2     1000025         5   # BR(~b_1 -> ~chi_30 b )
     3.63786298E-01    2    -1000024         6   # BR(~b_1 -> ~chi_1- t )
#
#         PDG            Width
DECAY   2000005     2.09173568E+02   # sbottom2 decays
#          BR         NDA      ID1       ID2
     3.26925481E-03    2     1000022         5   # BR(~b_2 -> ~chi_10 b )
     6.87426502E-03    2     1000023         5   # BR(~b_2 -> ~chi_20 b )
     6.50138027E-03    2     1000025         5   # BR(~b_2 -> ~chi_30 b )
     2.03772132E-02    2     1000035         5   # BR(~b_2 -> ~chi_40 b )
     2.37084623E-01    2    -1000024         6   # BR(~b_2 -> ~chi_1- t )
     4.08819545E-02    2    -1000037         6   # BR(~b_2 -> ~chi_2- t )
     4.77003205E-01    2     1000021         5   # BR(~b_2 -> ~g      b )
     2.03846010E-05    2     1000005        25   # BR(~b_2 -> ~b_1    h )
     1.69768692E-05    2     1000005        23   # BR(~b_2 -> ~b_1    Z )
     2.07970743E-01    2     1000006       -24   # BR(~b_2 -> ~t_1    W-)
#
#         PDG            Width
DECAY   1000002     2.82459074E-01   # sup_L decays
#          BR         NDA      ID1       ID2
     7.79346924E-01    2     1000022         2   # BR(~u_L -> ~chi_10 u)
     2.72945608E-04    2     1000023         2   # BR(~u_L -> ~chi_20 u)
     1.16812636E-01    2     1000025         2   # BR(~u_L -> ~chi_30 u)
     1.03567495E-01    2     1000024         1   # BR(~u_L -> ~chi_1+ d)
#
#         PDG            Width
DECAY   2000002     1.71058032E+02   # sup_R decays
#          BR         NDA      ID1       ID2
     4.59352988E-02    2     1000022         2   # BR(~u_R -> ~chi_10 u)
     7.64194479E-04    2     1000023         2   # BR(~u_R -> ~chi_20 u)
     2.64249306E-03    2     1000025         2   # BR(~u_R -> ~chi_30 u)
     8.10828733E-09    2     1000035         2   # BR(~u_R -> ~chi_40 u)
     9.50658006E-01    2     1000021         2   # BR(~u_R -> ~g      u)
#
#         PDG            Width
DECAY   1000001     2.50970240E-01   # sdown_L decays
#          BR         NDA      ID1       ID2
     9.38378914E-01    2     1000022         1   # BR(~d_L -> ~chi_10 d)
     5.11249113E-02    2     1000023         1   # BR(~d_L -> ~chi_20 d)
     8.14409436E-03    2     1000025         1   # BR(~d_L -> ~chi_30 d)
     2.35208002E-03    2    -1000024         2   # BR(~d_L -> ~chi_1- u)
#
#         PDG            Width
DECAY   2000001     6.62860124E-01   # sdown_R decays
#          BR         NDA      ID1       ID2
     9.34026239E-01    2     1000022         1   # BR(~d_R -> ~chi_10 d)
     1.48084174E-02    2     1000023         1   # BR(~d_R -> ~chi_20 d)
     5.11653437E-02    2     1000025         1   # BR(~d_R -> ~chi_30 d)
#
#         PDG            Width
DECAY   1000004     2.90034577E-01   # scharm_L decays
#          BR         NDA      ID1       ID2
     7.79616518E-01    2     1000022         4   # BR(~c_L -> ~chi_10 c)
     2.72607463E-04    2     1000023         4   # BR(~c_L -> ~chi_20 c)
     1.16666291E-01    2     1000025         4   # BR(~c_L -> ~chi_30 c)
     1.03444584E-01    2     1000024         3   # BR(~c_L -> ~chi_1+ s)
#
#         PDG            Width
DECAY   2000004     1.24508358E+02   # scharm_R decays
#          BR         NDA      ID1       ID2
     6.55422724E-02    2     1000022         4   # BR(~c_R -> ~chi_10 c)
     1.08965522E-03    2     1000023         4   # BR(~c_R -> ~chi_20 c)
     3.76787421E-03    2     1000025         4   # BR(~c_R -> ~chi_30 c)
     1.14535416E-08    2     1000035         4   # BR(~c_R -> ~chi_40 c)
     9.29600187E-01    2     1000021         4   # BR(~c_R -> ~g      c)
#
#         PDG            Width
DECAY   1000003     2.57792627E-01   # sstrange_L decays
#          BR         NDA      ID1       ID2
     9.38470517E-01    2     1000022         3   # BR(~s_L -> ~chi_10 s)
     5.10489089E-02    2     1000023         3   # BR(~s_L -> ~chi_20 s)
     8.13187376E-03    2     1000025         3   # BR(~s_L -> ~chi_30 s)
     2.34869985E-03    2    -1000024         4   # BR(~s_L -> ~chi_1- c)
#
#         PDG            Width
DECAY   2000003     6.61030929E-01   # sstrange_R decays
#          BR         NDA      ID1       ID2
     9.34134489E-01    2     1000022         3   # BR(~s_R -> ~chi_10 s)
     1.47842833E-02    2     1000023         3   # BR(~s_R -> ~chi_20 s)
     5.10812282E-02    2     1000025         3   # BR(~s_R -> ~chi_30 s)
#
#         PDG            Width
DECAY   1000011     3.08985442E+00   # selectron_L decays
#          BR         NDA      ID1       ID2
     9.15803427E-01    2     1000022        11   # BR(~e_L -> ~chi_10 e-)
     7.80222953E-03    2     1000023        11   # BR(~e_L -> ~chi_20 e-)
     7.61254668E-02    2     1000025        11   # BR(~e_L -> ~chi_30 e-)
     2.68876912E-04    2    -1000024        12   # BR(~e_L -> ~chi_1- nu_e)
#
#         PDG            Width
DECAY   2000011     1.96166713E+01   # selectron_R decays
#          BR         NDA      ID1       ID2
     9.31004107E-01    2     1000022        11   # BR(~e_R -> ~chi_10 e-)
     1.54773349E-02    2     1000023        11   # BR(~e_R -> ~chi_20 e-)
     5.35183979E-02    2     1000025        11   # BR(~e_R -> ~chi_30 e-)
     1.60354076E-07    2     1000035        11   # BR(~e_R -> ~chi_40 e-)
#
#         PDG            Width
DECAY   1000013     3.08985441E+00   # smuon_L decays
#          BR         NDA      ID1       ID2
     9.15803427E-01    2     1000022        13   # BR(~mu_L -> ~chi_10 mu-)
     7.80222953E-03    2     1000023        13   # BR(~mu_L -> ~chi_20 mu-)
     7.61254668E-02    2     1000025        13   # BR(~mu_L -> ~chi_30 mu-)
     2.68876913E-04    2    -1000024        14   # BR(~mu_L -> ~chi_1- nu_mu)
#
#         PDG            Width
DECAY   2000013     1.96166713E+01   # smuon_R decays
#          BR         NDA      ID1       ID2
     9.31004107E-01    2     1000022        13   # BR(~mu_R -> ~chi_10 mu-)
     1.54773349E-02    2     1000023        13   # BR(~mu_R -> ~chi_20 mu-)
     5.35183979E-02    2     1000025        13   # BR(~mu_R -> ~chi_30 mu-)
     1.60354075E-07    2     1000035        13   # BR(~mu_R -> ~chi_40 mu-)
#
#         PDG            Width
DECAY   1000015     1.20075124E+00   # stau_1 decays
#          BR         NDA      ID1       ID2
     9.54102754E-01    2     1000022        15   # BR(~tau_1 -> ~chi_10  tau-)
     1.02432531E-02    2     1000023        15   # BR(~tau_1 -> ~chi_20  tau-)
     1.67711272E-02    2     1000025        15   # BR(~tau_1 -> ~chi_30  tau-)
     1.88828652E-02    2    -1000024        16   # BR(~tau_1 -> ~chi_1-  nu_tau)
#
#         PDG            Width
DECAY   2000015     1.78740623E+00   # stau_2 decays
#          BR         NDA      ID1       ID2
     6.86448483E-01    2     1000022        15   # BR(~tau_2 -> ~chi_10  tau-)
     1.23446022E-01    2     1000023        15   # BR(~tau_2 -> ~chi_20  tau-)
     1.65920520E-01    2     1000025        15   # BR(~tau_2 -> ~chi_30  tau-)
     8.21826955E-05    2    -1000024        16   # BR(~tau_2 -> ~chi_1-  nu_tau)
     1.21365618E-02    2     1000015        25   # BR(~tau_2 -> ~tau_1   h)
     1.19662300E-02    2     1000015        23   # BR(~tau_2 -> ~tau_1   Z)
#
#         PDG            Width
DECAY   1000012     3.11453941E+00   # snu_eL decays
#          BR         NDA      ID1       ID2
     9.28288931E-01    2     1000022        12   # BR(~nu_eL -> ~chi_10 nu_e)
     2.50213241E-02    2     1000023        12   # BR(~nu_eL -> ~chi_20 nu_e)
     3.34680899E-02    2     1000025        12   # BR(~nu_eL -> ~chi_30 nu_e)
     1.32216555E-02    2     1000024        11   # BR(~nu_eL -> ~chi_1+ e-)
#
#         PDG            Width
DECAY   1000014     3.11453941E+00   # snu_muL decays
#          BR         NDA      ID1       ID2
     9.28288931E-01    2     1000022        14   # BR(~nu_muL -> ~chi_10 nu_mu)
     2.50213241E-02    2     1000023        14   # BR(~nu_muL -> ~chi_20 nu_mu)
     3.34680899E-02    2     1000025        14   # BR(~nu_muL -> ~chi_30 nu_mu)
     1.32216555E-02    2     1000024        13   # BR(~nu_muL -> ~chi_1+ mu-)
#
#         PDG            Width
DECAY   1000016     1.79172392E+00   # snu_tauL decays
#          BR         NDA      ID1       ID2
     6.82503890E-01    2     1000022        16   # BR(~nu_tauL -> ~chi_10 nu_tau)
     1.73429858E-02    2     1000023        16   # BR(~nu_tauL -> ~chi_20 nu_tau)
     2.31753899E-02    2     1000025        16   # BR(~nu_tauL -> ~chi_30 nu_tau)
     2.53943464E-01    2     1000024        15   # BR(~nu_tauL -> ~chi_1+ tau-)
     2.30342709E-02    2    -1000015       -24   # BR(~nu_tauL -> ~tau_1+ W-)
#
#         PDG            Width
DECAY   1000024     8.59981796E-02   # chargino1+ decays
#          BR         NDA      ID1       ID2
     1.00000000E+00    2     1000022        24   # BR(~chi_1+ -> ~chi_10  W+)
#
#         PDG            Width
DECAY   1000037     5.69362323E+01   # chargino2+ decays
#          BR         NDA      ID1       ID2
     1.10724308E-01    2     1000002        -1   # BR(~chi_2+ -> ~u_L     db)
     1.10494429E-01    2    -1000001         2   # BR(~chi_2+ -> ~d_L*    u )
     1.10724293E-01    2     1000004        -3   # BR(~chi_2+ -> ~c_L     sb)
     1.10494185E-01    2    -1000003         4   # BR(~chi_2+ -> ~s_L*     c )
     2.24197667E-06    2     1000006        -5   # BR(~chi_2+ -> ~t_1     bb)
     2.49037976E-07    2    -1000005         6   # BR(~chi_2+ -> ~b_1*    t )
     1.79273919E-04    2     1000012       -11   # BR(~chi_2+ -> ~nu_eL   e+  )
     1.79273919E-04    2     1000014       -13   # BR(~chi_2+ -> ~nu_muL mu+ )
     1.14479021E-01    2     1000016       -15   # BR(~chi_2+ -> ~nu_tau1 tau+)
     1.64933394E-04    2    -1000011        12   # BR(~chi_2+ -> ~e_L+    nu_e)
     1.64933394E-04    2    -1000013        14   # BR(~chi_2+ -> ~mu_L+   nu_mu)
     9.58615230E-06    2    -1000015        16   # BR(~chi_2+ -> ~tau_1+  nu_tau)
     1.14383976E-01    2    -2000015        16   # BR(~chi_2+ -> ~tau_2+  nu_tau)
     8.25862068E-02    2     1000024        23   # BR(~chi_2+ -> ~chi_1+  Z )
     5.46874702E-04    2     1000022        24   # BR(~chi_2+ -> ~chi_10  W+)
     8.06529130E-02    2     1000023        24   # BR(~chi_2+ -> ~chi_20  W+)
     7.90650672E-02    2     1000025        24   # BR(~chi_2+ -> ~chi_30  W+)
     8.51482344E-02    2     1000024        25   # BR(~chi_2+ -> ~chi_1+  h )
#
#         PDG            Width
DECAY   1000022     0.00000000E+00   # neutralino1 decays
#
#         PDG            Width
DECAY   1000023     5.82202464E-02   # neutralino2 decays
#          BR         NDA      ID1       ID2
     9.52028339E-01    2     1000022        23   # BR(~chi_20 -> ~chi_10   Z )
     4.79716613E-02    2     1000022        25   # BR(~chi_20 -> ~chi_10   h )
#
#         PDG            Width
DECAY   1000025     5.52368335E-02   # neutralino3 decays
#          BR         NDA      ID1       ID2
     5.26199914E-01    2     1000022        23   # BR(~chi_30 -> ~chi_10   Z )
     4.73800086E-01    2     1000022        25   # BR(~chi_30 -> ~chi_10   h )
#
#         PDG            Width
DECAY   1000035     5.69310119E+01   # neutralino4 decays
#          BR         NDA      ID1       ID2
     1.31256204E-04    2     1000022        23   # BR(~chi_40 -> ~chi_10   Z )
     5.30571774E-02    2     1000023        23   # BR(~chi_40 -> ~chi_20   Z )
     2.92903897E-02    2     1000025        23   # BR(~chi_40 -> ~chi_30   Z )
     8.03348574E-02    2     1000024       -24   # BR(~chi_40 -> ~chi_1+   W-)
     8.03348574E-02    2    -1000024        24   # BR(~chi_40 -> ~chi_1-   W+)
     4.72078149E-04    2     1000022        25   # BR(~chi_40 -> ~chi_10   h )
     3.06715216E-02    2     1000023        25   # BR(~chi_40 -> ~chi_20   h )
     5.38472336E-02    2     1000025        25   # BR(~chi_40 -> ~chi_30   h )
     5.53922525E-02    2     1000002        -2   # BR(~chi_40 -> ~u_L      ub)
     5.53922525E-02    2    -1000002         2   # BR(~chi_40 -> ~u_L*     u )
     5.51856171E-02    2     1000001        -1   # BR(~chi_40 -> ~d_L      db)
     5.51856171E-02    2    -1000001         1   # BR(~chi_40 -> ~d_L*     d )
     9.47055427E-09    2     2000001        -1   # BR(~chi_40 -> ~d_R      db)
     9.47055427E-09    2    -2000001         1   # BR(~chi_40 -> ~d_R*     d )
     5.53921309E-02    2     1000004        -4   # BR(~chi_40 -> ~c_L      cb)
     5.53921309E-02    2    -1000004         4   # BR(~chi_40 -> ~c_L*     c )
     5.51856171E-02    2     1000003        -3   # BR(~chi_40 -> ~s _L      sb)
     5.51856171E-02    2    -1000003         3   # BR(~chi_40 -> ~s _L*     s )
     9.47055427E-09    2     2000003        -3   # BR(~chi_40 -> ~s _R      sb)
     9.47055427E-09    2    -2000003         3   # BR(~chi_40 -> ~s _R*     s )
     8.97165855E-07    2     1000006        -6   # BR(~chi_40 -> ~t_1      tb)
     8.97165855E-07    2    -1000006         6   # BR(~chi_40 -> ~t_1*     t )
     1.28471991E-07    2     1000005        -5   # BR(~chi_40 -> ~b_1      bb)
     1.28471991E-07    2    -1000005         5   # BR(~chi_40 -> ~b_1*     b )
     8.15983381E-05    2     1000011       -11   # BR(~chi_40 -> ~e_L-     e+)
     8.15983381E-05    2    -1000011        11   # BR(~chi_40 -> ~e_L+     e-)
     8.15983381E-05    2     1000013       -13   # BR(~chi_40 -> ~mu_L-    mu+)
     8.15983381E-05    2    -1000013        13   # BR(~chi_40 -> ~mu_L+    mu-)
     4.83133889E-06    2     1000015       -15   # BR(~chi_40 -> ~tau_1-   tau+)
     4.83133889E-06    2    -1000015        15   # BR(~chi_40 -> ~tau_1+   tau-)
     5.70836047E-02    2     2000015       -15   # BR(~chi_40 -> ~tau_2-   tau+)
     5.70836047E-02    2    -2000015        15   # BR(~chi_40 -> ~tau_2+   tau-)
     8.90566412E-05    2     1000012       -12   # BR(~chi_40 -> ~nu_eL    nu_eb)
     8.90566412E-05    2    -1000012        12   # BR(~chi_40 -> ~nu_eL*   nu_e )
     8.90566412E-05    2     1000014       -14   # BR(~chi_40 -> ~nu_muL   nu_mub)
     8.90566412E-05    2    -1000014        14   # BR(~chi_40 -> ~nu_muL*  nu_mu )
     5.73439061E-02    2     1000016       -16   # BR(~chi_40 -> ~nu_tau1  nu_taub)
     5.73439061E-02    2    -1000016        16   # BR(~chi_40 -> ~nu_tau1* nu_tau )
#
#         PDG            Width
DECAY        25     5.36287884E-03   # h decays
#          BR         NDA      ID1       ID2
     4.51871185E-01    2           5        -5   # BR(h -> b       bb     )
     4.95075803E-02    2         -15        15   # BR(h -> tau+    tau-   )
     1.75232114E-04    2         -13        13   # BR(h -> mu+     mu-    )
     1.90455876E-04    2           3        -3   # BR(h -> s       sb     )
     1.64655989E-02    2           4        -4   # BR(h -> c       cb     )
     6.35301966E-02    2          21        21   # BR(h -> g       g      )
     1.92860195E-03    2          22        22   # BR(h -> gam     gam    )
     1.48912159E-03    2          22        23   # BR(h -> Z       gam    )
     2.11672697E-01    2          24       -24   # BR(h -> W+      W-     )
     2.76077616E-02    2          23        23   # BR(h -> Z       Z      )
     1.75561569E-01    2     1000022   1000022   # BR(h -> ~chi_10 ~chi_10)
#
#         PDG            Width
DECAY        35     3.45964179E+01   # H decays
#          BR         NDA      ID1       ID2
     2.72394445E-01    2           5        -5   # BR(H -> b       bb     )
     4.99811456E-02    2         -15        15   # BR(H -> tau+    tau-   )
     1.78401613E-04    2         -13        13   # BR(H -> mu+     mu-    )
     1.13278869E-04    2           3        -3   # BR(H -> s       sb     )
     1.93334933E-07    2           4        -4   # BR(H -> c       cb     )
     1.90752190E-02    2           6        -6   # BR(H -> t       tb     )
     2.86835687E-06    2          21        21   # BR(H -> g       g      )
     4.74021318E-08    2          22        22   # BR(H -> gam     gam    )
     6.84982480E-09    2          23        22   # BR(H -> Z       gam    )
     6.23143202E-06    2          24       -24   # BR(H -> W+      W-     )
     3.11028371E-06    2          23        23   # BR(H -> Z       Z      )
     2.25678936E-05    2          25        25   # BR(H -> h       h      )
     1.96923459E-03    2     1000024  -1000024   # BR(H -> ~chi_1+ ~chi_1-)
     1.70392753E-01    2     1000024  -1000037   # BR(H -> ~chi_1+ ~chi_2-)
     1.70392753E-01    2     1000037  -1000024   # BR(H -> ~chi_2+ ~chi_1-)
     1.51216075E-02    2     1000022   1000022   # BR(H -> ~chi_10 ~chi_10)
     3.74251625E-03    2     1000023   1000023   # BR(H -> ~chi_20 ~chi_20)
     3.42446002E-03    2     1000025   1000025   # BR(H -> ~chi_30 ~chi_30)
     5.99767233E-02    2     1000022   1000023   # BR(H -> ~chi_10 ~chi_20)
     4.20540297E-02    2     1000022   1000025   # BR(H -> ~chi_10 ~chi_30)
     1.00095557E-02    2     1000022   1000035   # BR(H -> ~chi_10 ~chi_40)
     7.36743897E-03    2     1000023   1000025   # BR(H -> ~chi_20 ~chi_30)
     1.00984501E-01    2     1000023   1000035   # BR(H -> ~chi_20 ~chi_40)
     5.97187696E-02    2     1000025   1000035   # BR(H -> ~chi_30 ~chi_40)
     1.91762826E-06    2     1000002  -1000002   # BR(H -> ~u_L    ~u_L*  )
     1.91762826E-06    2     1000004  -1000004   # BR(H -> ~c_L    ~c_L*  )
     2.79859844E-06    2     1000001  -1000001   # BR(H -> ~d_L    ~d_L*  )
     1.62118339E-07    2     2000001  -2000001   # BR(H -> ~d_R    ~d_R*  )
     2.79859844E-06    2     1000003  -1000003   # BR(H -> ~s_L    ~s_L*  )
     1.62118339E-07    2     2000003  -2000003   # BR(H -> ~s_R    ~s_R*  )
     3.12390201E-09    2     1000005  -1000005   # BR(H -> ~b_1    ~b_1*  )
     4.72384264E-06    2     1000015  -1000015   # BR(H -> ~tau_1- ~tau_1+)
     4.54842880E-07    2     2000015  -2000015   # BR(H -> ~tau_2- ~tau_2+)
     6.52529221E-03    2     1000015  -2000015   # BR(H -> ~tau_1- ~tau_2+)
     6.52529221E-03    2     2000015  -1000015   # BR(H -> ~tau_2- ~tau_1+)
     2.61847665E-06    2     1000016  -1000016   # BR(H -> ~nu_tauL ~nu_tauL*)
#
#         PDG            Width
DECAY        36     3.45971614E+01   # A decays
#          BR         NDA      ID1       ID2
     2.72425809E-01    2           5        -5   # BR(A -> b       bb     )
     4.99805564E-02    2         -15        15   # BR(A -> tau+    tau-   )
     1.78399339E-04    2         -13        13   # BR(A -> mu+     mu-    )
     1.13312764E-04    2           3        -3   # BR(A -> s       sb     )
     1.94472740E-07    2           4        -4   # BR(A -> c       cb     )
     1.91127817E-02    2           6        -6   # BR(A -> t       tb     )
     2.72420203E-05    2          21        21   # BR(A -> g       g      )
     9.32985278E-08    2          22        22   # BR(A -> gam     gam    )
     2.99477748E-08    2          23        22   # BR(A -> Z       gam    )
     6.32032325E-06    2          23        25   # BR(A -> Z       h      )
     2.06500768E-03    2     1000024  -1000024   # BR(A -> ~chi_1+ ~chi_1-)
     1.70331935E-01    2     1000024  -1000037   # BR(A -> ~chi_1+ ~chi_2-)
     1.70331935E-01    2     1000037  -1000024   # BR(A -> ~chi_2+ ~chi_1-)
     1.63919554E-02    2     1000022   1000022   # BR(A -> ~chi_10 ~chi_10)
     2.87109104E-03    2     1000023   1000023   # BR(A -> ~chi_20 ~chi_20)
     4.55635174E-03    2     1000025   1000025   # BR(A -> ~chi_30 ~chi_30)
     4.43927069E-02    2     1000022   1000023   # BR(A -> ~chi_10 ~chi_20)
     5.63322894E-02    2     1000022   1000025   # BR(A -> ~chi_10 ~chi_30)
     1.11819521E-02    2     1000022   1000035   # BR(A -> ~chi_10 ~chi_40)
     7.15979390E-03    2     1000023   1000025   # BR(A -> ~chi_20 ~chi_30)
     6.22882274E-02    2     1000023   1000035   # BR(A -> ~chi_20 ~chi_40)
     9.71972671E-02    2     1000025   1000035   # BR(A -> ~chi_30 ~chi_40)
     6.52737427E-03    2     1000015  -2000015   # BR(A -> ~tau_1- ~tau_2+)
     6.52737427E-03    2    -1000015   2000015   # BR(A -> ~tau_1+ ~tau_2-)
#
#         PDG            Width
DECAY        37     3.45600791E+01   # H+ decays
#          BR         NDA      ID1       ID2
     4.56439454E-04    2           4        -5   # BR(H+ -> c       bb     )
     5.00488461E-02    2         -15        16   # BR(H+ -> tau+    nu_tau )
     1.78643090E-04    2         -13        14   # BR(H+ -> mu+     nu_mu  )
     4.56438795E-06    2           2        -5   # BR(H+ -> u       bb     )
     5.67681477E-06    2           2        -3   # BR(H+ -> u       sb     )
     1.11923727E-04    2           4        -3   # BR(H+ -> c       sb     )
     2.90133167E-01    2           6        -5   # BR(H+ -> t       bb     )
     6.33517281E-06    2          24        25   # BR(H+ -> W+      h      )
     6.24173611E-14    2          24        36   # BR(H+ -> W+      A      )
     1.22261442E-01    2     1000024   1000022   # BR(H+ -> ~chi_1+ ~chi_10)
     7.40555956E-04    2     1000024   1000023   # BR(H+ -> ~chi_1+ ~chi_20)
     9.50800114E-03    2     1000024   1000025   # BR(H+ -> ~chi_1+ ~chi_30)
     1.70832195E-01    2     1000024   1000035   # BR(H+ -> ~chi_1+ ~chi_40)
     2.12455137E-02    2     1000037   1000022   # BR(H+ -> ~chi_2+ ~chi_10)
     1.63538570E-01    2     1000037   1000023   # BR(H+ -> ~chi_2+ ~chi_20)
     1.57412040E-01    2     1000037   1000025   # BR(H+ -> ~chi_2+ ~chi_30)
     1.30749259E-02    2    -1000015   1000016   # BR(H+ -> ~tau_1+ ~nu_tauL)
     4.42864767E-07    2    -2000015   1000016   # BR(H+ -> ~tau_2+ ~nu_tauL)
     4.67778210E-06    2     1000002  -1000001   # BR(H+ -> ~u_L    ~d_L*  )
     4.67778210E-06    2     1000004  -1000003   # BR(H+ -> ~c_L    ~s_L*  )
     4.31362339E-04    2     1000006  -1000005   # BR(H+ -> ~t_1    ~b_1*  )
