#
#                              ======================
#                              | THE SUSYHIT OUTPUT |
#                              ======================
#
#
#              ------------------------------------------------------
#              |     This is the output of the SUSY-HIT package     |
#              |  created by A.Djouadi, M.Muehlleitner and M.Spira. |
#              |  In case of problems with SUSY-HIT email to        |
#              |           margarete.muehlleitner@cern.ch           |
#              |           michael.spira@psi.ch                     |
#              |           abdelhak.djouadi@cern.ch                 |
#              ------------------------------------------------------
#
#              ------------------------------------------------------
#              |  SUSY Les Houches Accord - MSSM Spectrum + Decays  |
#              |              based on the decay programs           |
#              |                                                    |
#              |                     SDECAY 1.3b                    |
#              |                                                    |
#              |  Authors: M.Muhlleitner, A.Djouadi and Y.Mambrini  |
#              |  Ref.:    Comput.Phys.Commun.168(2005)46           |
#              |           [hep-ph/0311167]                         |
#              |                                                    |
#              |                     HDECAY 3.4                     |
#              |                                                    |
#              |  By: A.Djouadi,J.Kalinowski,M.Muhlleitner,M.Spira  |
#              |  Ref.:    Comput.Phys.Commun.108(1998)56           |
#              |           [hep-ph/9704448]                         |
#              |                                                    |
#              |                                                    |
#              |  If not stated otherwise all DRbar couplings and   |
#              |  soft SUSY breaking masses are given at the scale  |
#              |  Q=  0.27371750E+04
#              |                                                    |
#              ------------------------------------------------------
#
#
BLOCK DCINFO  # Decay Program information
     1   SDECAY/HDECAY # decay calculator
     2   1.3b  /3.4    # version number
#
BLOCK SPINFO  # Spectrum calculator information
     1     SOFTSUSY    # spectrum calculator               
     2     3.4.0       # version number                    
#
BLOCK MODSEL  # Model selection
     1     0   #  nonUniversal                                     
#
BLOCK SMINPUTS  # Standard Model inputs
         1     1.27908970E+02   # alpha_em^-1(M_Z)^MSbar
         2     1.16637870E-05   # G_F [GeV^-2]
         3     1.18400000E-01   # alpha_S(M_Z)^MSbar
         4     9.11876000E+01   # M_Z pole mass
         5     4.18000000E+00   # mb(mb)^MSbar
         6     1.73200000E+02   # mt pole mass
         7     1.77700000E+00   # mtau pole mass
#
BLOCK MINPAR  # Input parameters - minimal models
         3     2.92800000E+01   # tanb                
#
BLOCK EXTPAR  # Input parameters - non-minimal models
         0    -1.00000000E+00   # Set                 
         1     2.50500000E+02   # M_1(MX)             
         2     2.39800000E+02   # M_2(MX)             
         3     3.46419000E+03   # M_3(MX)             
        11    -3.53412000E+03   # At(MX)              
        12    -4.70850000E+02   # Ab(MX)              
        13     2.82356000E+03   # Atau(MX)            
        23     3.51037000E+03   # mu(MX)              
        26     2.84591000E+03   # mA(pole)            
        31     1.70951000E+03   # meL(MX)             
        32     1.70951000E+03   # mmuL(MX)            
        33     2.67289000E+03   # mtauL(MX)           
        34     3.65399000E+03   # meR(MX)             
        35     3.65399000E+03   # mmuR(MX)            
        36     5.12940000E+02   # mtauR(MX)           
        41     3.18522000E+03   # mqL1(MX)            
        42     3.18522000E+03   # mqL2(MX)            
        43     2.50775000E+03   # mqL3(MX)            
        44     2.84546000E+03   # muR(MX)             
        45     2.84546000E+03   # mcR(MX)             
        46     2.98749000E+03   # mtR(MX)             
        47     4.65620000E+02   # mdR(MX)             
        48     4.65620000E+02   # msR(MX)             
        49     3.14206000E+03   # mbR(MX)             
#
BLOCK MASS  # Mass Spectrum
# PDG code           mass       particle
        24     8.03723678E+01   # W+
        25     1.26215671E+02   # h
        35     2.84584785E+03   # H
        36     2.84591000E+03   # A
        37     2.84717253E+03   # H+
         5     4.81876030E+00   # b-quark pole mass calculated from mb(mb)_Msbar
   1000001     3.28722225E+03   # ~d_L
   2000001     6.84440177E+02   # ~d_R
   1000002     3.28637747E+03   # ~u_L
   2000002     2.94433516E+03   # ~u_R
   1000003     3.28722225E+03   # ~s_L
   2000003     6.84440177E+02   # ~s_R
   1000004     3.28637747E+03   # ~c_L
   2000004     2.94433516E+03   # ~c_R
   1000005     2.60302665E+03   # ~b_1
   2000005     3.23470738E+03   # ~b_2
   1000006     2.58707235E+03   # ~t_1
   2000006     3.05997122E+03   # ~t_2
   1000011     1.70992707E+03   # ~e_L
   2000011     3.66041070E+03   # ~e_R
   1000012     1.70775847E+03   # ~nu_eL
   1000013     1.70992707E+03   # ~mu_L
   2000013     3.66041070E+03   # ~mu_R
   1000014     1.70775847E+03   # ~nu_muL
   1000015     5.18680112E+02   # ~tau_1
   2000015     2.67350207E+03   # ~tau_2
   1000016     2.67114379E+03   # ~nu_tauL
   1000021     3.53718241E+03   # ~g
   1000022     2.48060947E+02   # ~chi_10
   1000023     2.59093758E+02   # ~chi_20
   1000025    -3.53455923E+03   # ~chi_30
   1000035     3.53490631E+03   # ~chi_40
   1000024     2.59031463E+02   # ~chi_1+
   1000037     3.53566264E+03   # ~chi_2+
#
BLOCK NMIX  # Neutralino Mixing Matrix
  1  1     9.99802355E-01   # N_11
  1  2    -1.50142532E-02   # N_12
  1  3     1.29511417E-02   # N_13
  1  4    -1.44628300E-03   # N_14
  2  1     1.52995808E-02   # N_21
  2  2     9.99639162E-01   # N_22
  2  3    -2.19441246E-02   # N_23
  2  4     2.43380526E-03   # N_24
  3  1    -7.92505995E-03   # N_31
  3  2     1.39175629E-02   # N_32
  3  3     7.06900456E-01   # N_33
  3  4     7.07131699E-01   # N_34
  4  1    -9.91805708E-03   # N_41
  4  2     1.73901935E-02   # N_42
  4  3     7.06853923E-01   # N_43
  4  4    -7.07076194E-01   # N_44
#
BLOCK UMIX  # Chargino Mixing Matrix U
  1  1     9.99509853E-01   # U_11
  1  2    -3.13058161E-02   # U_12
  2  1     3.13058161E-02   # U_21
  2  2     9.99509853E-01   # U_22
#
BLOCK VMIX  # Chargino Mixing Matrix V
  1  1     9.99993967E-01   # V_11
  1  2    -3.47359469E-03   # V_12
  2  1     3.47359469E-03   # V_21
  2  2     9.99993967E-01   # V_22
#
BLOCK STOPMIX  # Stop Mixing Matrix
  1  1     9.80013798E-01   # cos(theta_t)
  1  2     1.98929525E-01   # sin(theta_t)
  2  1    -1.98929525E-01   # -sin(theta_t)
  2  2     9.80013798E-01   # cos(theta_t)
#
BLOCK SBOTMIX  # Sbottom Mixing Matrix
  1  1     9.98622536E-01   # cos(theta_b)
  1  2     5.24693300E-02   # sin(theta_b)
  2  1    -5.24693300E-02   # -sin(theta_b)
  2  2     9.98622536E-01   # cos(theta_b)
#
BLOCK STAUMIX  # Stau Mixing Matrix
  1  1     2.52419265E-02   # cos(theta_tau)
  1  2     9.99681372E-01   # sin(theta_tau)
  2  1    -9.99681372E-01   # -sin(theta_tau)
  2  2     2.52419265E-02   # cos(theta_tau)
#
BLOCK ALPHA  # Higgs mixing
          -3.54854179E-02   # Mixing angle in the neutral Higgs boson sector
#
BLOCK HMIX Q=  2.73717500E+03  # DRbar Higgs Parameters
         1     3.55716350E+03   # mu(Q)MSSM           
         2     2.81986722E+01   # tan                 
         3     2.43247289E+02   # higgs               
         4     8.37532362E+06   # mA^2(Q)MSSM         
#
BLOCK GAUGE Q=  2.73717500E+03  # The gauge couplings
     1     3.64400146E-01   # gprime(Q) DRbar
     2     6.39596291E-01   # g(Q) DRbar
     3     1.01012105E+00   # g3(Q) DRbar
#
BLOCK AU Q=  2.73717500E+03  # The trilinear couplings
  1  1     0.00000000E+00   # A_u(Q) DRbar
  2  2     0.00000000E+00   # A_c(Q) DRbar
  3  3    -3.53411998E+03   # A_t(Q) DRbar
#
BLOCK AD Q=  2.73717500E+03  # The trilinear couplings
  1  1     0.00000000E+00   # A_d(Q) DRbar
  2  2     0.00000000E+00   # A_s(Q) DRbar
  3  3    -4.70849994E+02   # A_b(Q) DRbar
#
BLOCK AE Q=  2.73717500E+03  # The trilinear couplings
  1  1     0.00000000E+00   # A_e(Q) DRbar
  2  2     0.00000000E+00   # A_mu(Q) DRbar
  3  3     2.82356000E+03   # A_tau(Q) DRbar
#
BLOCK Yu Q=  2.73717500E+03  # The Yukawa couplings
  1  1     0.00000000E+00   # y_u(Q) DRbar
  2  2     0.00000000E+00   # y_c(Q) DRbar
  3  3     8.14707903E-01   # y_t(Q) DRbar
#
BLOCK Yd Q=  2.73717500E+03  # The Yukawa couplings
  1  1     0.00000000E+00   # y_d(Q) DRbar
  2  2     0.00000000E+00   # y_s(Q) DRbar
  3  3     3.11977164E-01   # y_b(Q) DRbar
#
BLOCK Ye Q=  2.73717500E+03  # The Yukawa couplings
  1  1     0.00000000E+00   # y_e(Q) DRbar
  2  2     0.00000000E+00   # y_mu(Q) DRbar
  3  3     2.89970964E-01   # y_tau(Q) DRbar
#
BLOCK MSOFT Q=  2.73717500E+03  # The soft SUSY breaking masses at the scale Q
         1     2.50500000E+02   # M_1(Q)              
         2     2.39800000E+02   # M_2(Q)              
         3     3.46419000E+03   # M_3(Q)              
        21    -4.56169864E+06   # mH1^2(Q)            
        22    -1.25203756E+07   # mH2^2(Q)            
        31     1.70951000E+03   # meL(Q)              
        32     1.70951000E+03   # mmuL(Q)             
        33     2.67289000E+03   # mtauL(Q)            
        34     3.65399000E+03   # meR(Q)              
        35     3.65399000E+03   # mmuR(Q)             
        36     5.12940002E+02   # mtauR(Q)            
        41     3.18521999E+03   # mqL1(Q)             
        42     3.18521999E+03   # mqL2(Q)             
        43     2.50774998E+03   # mqL3(Q)             
        44     2.84545999E+03   # muR(Q)              
        45     2.84545999E+03   # mcR(Q)              
        46     2.98748997E+03   # mtR(Q)              
        47     4.65619936E+02   # mdR(Q)              
        48     4.65619936E+02   # msR(Q)              
        49     3.14205999E+03   # mbR(Q)              
#
Block HiggsBoundsInputHiggsCouplingsFermions
# ScalarNormEffCoupSq PseudoSNormEffCoupSq NP   IP1 IP2 IP2
    1.00212223E+00    0.00000000E+00        3  25   5   5  # h0-b-b eff. coupling^2, normalised to SM
    7.95162992E+02    0.00000000E+00        3  35   5   5  # H0-b-b eff. coupling^2, normalised to SM
    0.00000000E+00    7.95165114E+02        3  36   5   5  # A0-b-b eff. coupling^2, normalised to SM
#
    9.99997331E-01    0.00000000E+00        3  25   6   6  # h0-t-t eff. coupling^2, normalised to SM
    1.26026936E-03    0.00000000E+00        3  35   6   6  # H0-t-t eff. coupling^2, normalised to SM
    0.00000000E+00    1.25760044E-03        3  36   6   6  # A0-t-t eff. coupling^2, normalised to SM
#
    1.00212223E+00    0.00000000E+00        3  25  15  15  # h0-tau-tau eff. coupling^2, normalised to SM
    7.95162992E+02    0.00000000E+00        3  35  15  15  # H0-tau-tau eff. coupling^2, normalised to SM
    0.00000000E+00    7.95165114E+02        3  36  15  15  # A0-tau-tau eff. coupling^2, normalised to SM
#
Block HiggsBoundsInputHiggsCouplingsBosons
    9.99999999E-01        3  25  24  24  # h0-W-W eff. coupling^2, normalised to SM
    1.41451023E-09        3  35  24  24  # H0-W-W eff. coupling^2, normalised to SM
    0.00000000E+00        3  36  24  24  # A0-W-W eff. coupling^2, normalised to SM
#
    9.99999999E-01        3  25  23  23  # h0-Z-Z eff. coupling^2, normalised to SM
    1.41451023E-09        3  35  23  23  # H0-Z-Z eff. coupling^2, normalised to SM
    0.00000000E+00        3  36  23  23  # A0-Z-Z eff. coupling^2, normalised to SM
#
    8.89785450E-01        3  25  21  21  # h0-g-g eff. coupling^2, normalised to SM
    3.66209865E-13        3  35  21  21  # H0-g-g eff. coupling^2, normalised to SM
    3.25904139E-12        3  36  21  21  # A0-g-g eff. coupling^2, normalised to SM
#
    0.00000000E+00        3  25  25  23  # h0-h0-Z eff. coupling^2, normalised to SM
    0.00000000E+00        3  35  25  23  # H0-h0-Z eff. coupling^2, normalised to SM
    1.41451023E-09        3  36  25  23  # A0-h0-Z eff. coupling^2, normalised to SM
    0.00000000E+00        3  35  35  23  # H0-H0-Z eff. coupling^2, normalised to SM
    9.99999999E-01        3  36  35  23  # A0-H0-Z eff. coupling^2, normalised to SM
    0.00000000E+00        3  36  36  23  # A0-A0-Z eff. coupling^2, normalised to SM
#
    0.00000000E+00        4  25  21  21  23  # h0-g-g-Z eff. coupling^2, normalised to SM
    0.00000000E+00        4  35  21  21  23  # H0-g-g-Z eff. coupling^2, normalised to SM
    0.00000000E+00        4  36  21  21  23  # A0-g-g-Z eff. coupling^2, normalised to SM
#
#
#
#                             =================
#                             |The decay table|
#                             =================
#
# - The QCD corrections to the decays gluino -> squark  + quark
#                                     squark -> gaugino + quark_prime
#                                     squark -> squark_prime + Higgs
#                                     squark -> gluino  + quark
#   are included.
#
# - The multi-body decays for the inos, stops and sbottoms are included.
#
# - The loop induced decays for the gluino, neutralinos and stops
#   are included.
#
# - The SUSY decays of the top quark are included.
#
#
#         PDG            Width
DECAY         6     1.44151585E+00   # top decays
#          BR         NDA      ID1       ID2
     1.00000000E+00    2           5        24   # BR(t ->  b    W+)
#
#         PDG            Width
DECAY   1000021     1.74319117E+02   # gluino decays
#          BR         NDA      ID1       ID2
     3.54560191E-03    2     1000001        -1   # BR(~g -> ~d_L  db)
     3.54560191E-03    2    -1000001         1   # BR(~g -> ~d_L* d )
     1.76726923E-01    2     2000001        -1   # BR(~g -> ~d_R  db)
     1.76726923E-01    2    -2000001         1   # BR(~g -> ~d_R* d )
     3.56872456E-03    2     1000002        -2   # BR(~g -> ~u_L  ub)
     3.56872456E-03    2    -1000002         2   # BR(~g -> ~u_L* u )
     1.79911062E-02    2     2000002        -2   # BR(~g -> ~u_R  ub)
     1.79911062E-02    2    -2000002         2   # BR(~g -> ~u_R* u )
     3.54560191E-03    2     1000003        -3   # BR(~g -> ~s_L  sb)
     3.54560191E-03    2    -1000003         3   # BR(~g -> ~s_L* s )
     1.76726923E-01    2     2000003        -3   # BR(~g -> ~s_R  sb)
     1.76726923E-01    2    -2000003         3   # BR(~g -> ~s_R* s )
     3.56865181E-03    2     1000004        -4   # BR(~g -> ~c_L  cb)
     3.56865181E-03    2    -1000004         4   # BR(~g -> ~c_L* c )
     1.79910478E-02    2     2000004        -4   # BR(~g -> ~c_R  cb)
     1.79910478E-02    2    -2000004         4   # BR(~g -> ~c_R* c )
     4.01018967E-02    2     1000005        -5   # BR(~g -> ~b_1  bb)
     4.01018967E-02    2    -1000005         5   # BR(~g -> ~b_1* b )
     5.26784957E-03    2     2000005        -5   # BR(~g -> ~b_2  bb)
     5.26784957E-03    2    -2000005         5   # BR(~g -> ~b_2* b )
     3.76856985E-02    2     1000006        -6   # BR(~g -> ~t_1  tb)
     3.76856985E-02    2    -1000006         6   # BR(~g -> ~t_1* t )
     1.32799749E-02    2     2000006        -6   # BR(~g -> ~t_2  tb)
     1.32799749E-02    2    -2000006         6   # BR(~g -> ~t_2* t )
#
#         PDG            Width
DECAY   1000006     3.02910355E+01   # stop1 decays
#          BR         NDA      ID1       ID2
     1.80790691E-02    2     1000022         6   # BR(~t_1 -> ~chi_10 t )
     3.26354404E-01    2     1000023         6   # BR(~t_1 -> ~chi_20 t )
     6.55566527E-01    2     1000024         5   # BR(~t_1 -> ~chi_1+ b )
#
#         PDG            Width
DECAY   2000006     3.69430135E+01   # stop2 decays
#          BR         NDA      ID1       ID2
     1.83124232E-01    2     1000022         6   # BR(~t_2 -> ~chi_10 t )
     1.26035494E-02    2     1000023         6   # BR(~t_2 -> ~chi_20 t )
     0.00000000E+00    2     1000025         6   # BR(~t_2 -> ~chi_30 t )
     2.51669750E-02    2     1000024         5   # BR(~t_2 -> ~chi_1+ b )
     1.81698366E-01    2     1000006        25   # BR(~t_2 -> ~t_1    h )
     2.09308781E-01    2     1000006        23   # BR(~t_2 -> ~t_1    Z )
     3.88098097E-01    2     1000005        24   # BR(~t_2 -> ~b_1    W+)
#
#         PDG            Width
DECAY   1000005     3.12859639E+01   # sbottom1 decays
#          BR         NDA      ID1       ID2
     1.42562400E-02    2     1000022         5   # BR(~b_1 -> ~chi_10 b )
     3.29408407E-01    2     1000023         5   # BR(~b_1 -> ~chi_20 b )
     6.56335353E-01    2    -1000024         6   # BR(~b_1 -> ~chi_1- t )
#
#         PDG            Width
DECAY   2000005     7.08303305E+00   # sbottom2 decays
#          BR         NDA      ID1       ID2
     2.63471174E-01    2     1000022         5   # BR(~b_2 -> ~chi_10 b )
     2.61585801E-03    2     1000023         5   # BR(~b_2 -> ~chi_20 b )
     5.04628993E-03    2    -1000024         6   # BR(~b_2 -> ~chi_1- t )
     1.84601871E-01    2     1000005        25   # BR(~b_2 -> ~b_1    h )
     1.80273505E-01    2     1000005        23   # BR(~b_2 -> ~b_1    Z )
     3.63724682E-01    2     1000006       -24   # BR(~b_2 -> ~t_1    W-)
     2.66620641E-04    2     2000006       -24   # BR(~b_2 -> ~t_2    W-)
#
#         PDG            Width
DECAY   1000002     3.90240574E+01   # sup_L decays
#          BR         NDA      ID1       ID2
     1.00820544E-02    2     1000022         2   # BR(~u_L -> ~chi_10 u)
     3.31093168E-01    2     1000023         2   # BR(~u_L -> ~chi_20 u)
     6.58824778E-01    2     1000024         1   # BR(~u_L -> ~chi_1+ d)
#
#         PDG            Width
DECAY   2000002     6.70071228E+00   # sup_R decays
#          BR         NDA      ID1       ID2
     9.99766175E-01    2     1000022         2   # BR(~u_R -> ~chi_10 u)
     2.33824891E-04    2     1000023         2   # BR(~u_R -> ~chi_20 u)
#
#         PDG            Width
DECAY   1000001     3.90056860E+01   # sdown_L decays
#          BR         NDA      ID1       ID2
     1.38519029E-02    2     1000022         1   # BR(~d_L -> ~chi_10 d)
     3.27496832E-01    2     1000023         1   # BR(~d_L -> ~chi_20 d)
     6.58651265E-01    2    -1000024         2   # BR(~d_L -> ~chi_1- u)
#
#         PDG            Width
DECAY   2000001     3.21647250E-01   # sdown_R decays
#          BR         NDA      ID1       ID2
     9.99772263E-01    2     1000022         1   # BR(~d_R -> ~chi_10 d)
     2.27737142E-04    2     1000023         1   # BR(~d_R -> ~chi_20 d)
#
#         PDG            Width
DECAY   1000004     4.00932668E+01   # scharm_L decays
#          BR         NDA      ID1       ID2
     1.00826481E-02    2     1000022         4   # BR(~c_L -> ~chi_10 c)
     3.31092796E-01    2     1000023         4   # BR(~c_L -> ~chi_20 c)
     6.58824556E-01    2     1000024         3   # BR(~c_L -> ~chi_1+ s)
#
#         PDG            Width
DECAY   2000004     6.81497657E+00   # scharm_R decays
#          BR         NDA      ID1       ID2
     9.99766189E-01    2     1000022         4   # BR(~c_R -> ~chi_10 c)
     2.33810704E-04    2     1000023         4   # BR(~c_R -> ~chi_20 c)
#
#         PDG            Width
DECAY   1000003     4.00755748E+01   # sstrange_L decays
#          BR         NDA      ID1       ID2
     1.38527217E-02    2     1000022         3   # BR(~s_L -> ~chi_10 s)
     3.27496540E-01    2     1000023         3   # BR(~s_L -> ~chi_20 s)
     6.58650739E-01    2    -1000024         4   # BR(~s_L -> ~chi_1- c)
#
#         PDG            Width
DECAY   2000003     3.03125395E-01   # sstrange_R decays
#          BR         NDA      ID1       ID2
     9.99772278E-01    2     1000022         3   # BR(~s_R -> ~chi_10 s)
     2.27722311E-04    2     1000023         3   # BR(~s_R -> ~chi_20 s)
#
#         PDG            Width
DECAY   1000011     2.20765817E+01   # selectron_L decays
#          BR         NDA      ID1       ID2
     9.29083123E-02    2     1000022        11   # BR(~e_L -> ~chi_10 e-)
     3.05922024E-01    2     1000023        11   # BR(~e_L -> ~chi_20 e-)
     6.01169664E-01    2    -1000024        12   # BR(~e_L -> ~chi_1- nu_e)
#
#         PDG            Width
DECAY   2000011     1.91592727E+01   # selectron_R decays
#          BR         NDA      ID1       ID2
     9.99765341E-01    2     1000022        11   # BR(~e_R -> ~chi_10 e-)
     2.33918382E-04    2     1000023        11   # BR(~e_R -> ~chi_20 e-)
     2.89553235E-07    2     1000025        11   # BR(~e_R -> ~chi_30 e-)
     4.51044784E-07    2     1000035        11   # BR(~e_R -> ~chi_40 e-)
#
#         PDG            Width
DECAY   1000013     2.20765816E+01   # smuon_L decays
#          BR         NDA      ID1       ID2
     9.29083118E-02    2     1000022        13   # BR(~mu_L -> ~chi_10 mu-)
     3.05922022E-01    2     1000023        13   # BR(~mu_L -> ~chi_20 mu-)
     6.01169666E-01    2    -1000024        14   # BR(~mu_L -> ~chi_1- nu_mu)
#
#         PDG            Width
DECAY   2000013     1.91592726E+01   # smuon_R decays
#          BR         NDA      ID1       ID2
     9.99765341E-01    2     1000022        13   # BR(~mu_R -> ~chi_10 mu-)
     2.33918382E-04    2     1000023        13   # BR(~mu_R -> ~chi_20 mu-)
     2.89553130E-07    2     1000025        13   # BR(~mu_R -> ~chi_30 mu-)
     4.51044619E-07    2     1000035        13   # BR(~mu_R -> ~chi_40 mu-)
#
#         PDG            Width
DECAY   1000015     1.63503827E+00   # stau_1 decays
#          BR         NDA      ID1       ID2
     9.96388249E-01    2     1000022        15   # BR(~tau_1 -> ~chi_10  tau-)
     1.35172176E-03    2     1000023        15   # BR(~tau_1 -> ~chi_20  tau-)
     2.26002900E-03    2    -1000024        16   # BR(~tau_1 -> ~chi_1-  nu_tau)
#
#         PDG            Width
DECAY   2000015     4.25143391E+01   # stau_2 decays
#          BR         NDA      ID1       ID2
     7.74740651E-02    2     1000022        15   # BR(~tau_2 -> ~chi_10  tau-)
     2.55031381E-01    2     1000023        15   # BR(~tau_2 -> ~chi_20  tau-)
     5.01049580E-01    2    -1000024        16   # BR(~tau_2 -> ~chi_1-  nu_tau)
     8.40912360E-02    2     1000015        25   # BR(~tau_2 -> ~tau_1   h)
     8.23537380E-02    2     1000015        23   # BR(~tau_2 -> ~tau_1   Z)
#
#         PDG            Width
DECAY   1000012     2.20554308E+01   # snu_eL decays
#          BR         NDA      ID1       ID2
     1.03198142E-01    2     1000022        12   # BR(~nu_eL -> ~chi_10 nu_e)
     2.95308335E-01    2     1000023        12   # BR(~nu_eL -> ~chi_20 nu_e)
     6.01493522E-01    2     1000024        11   # BR(~nu_eL -> ~chi_1+ e-)
#
#         PDG            Width
DECAY   1000014     2.20554307E+01   # snu_muL decays
#          BR         NDA      ID1       ID2
     1.03198143E-01    2     1000022        14   # BR(~nu_muL -> ~chi_10 nu_mu)
     2.95308337E-01    2     1000023        14   # BR(~nu_muL -> ~chi_20 nu_mu)
     6.01493520E-01    2     1000024        13   # BR(~nu_muL -> ~chi_1+ mu-)
#
#         PDG            Width
DECAY   1000016     4.22562697E+01   # snu_tauL decays
#          BR         NDA      ID1       ID2
     8.64104363E-02    2     1000022        16   # BR(~nu_tauL -> ~chi_10 nu_tau)
     2.47848727E-01    2     1000023        16   # BR(~nu_tauL -> ~chi_20 nu_tau)
     5.04918808E-01    2     1000024        15   # BR(~nu_tauL -> ~chi_1+ tau-)
     1.60822029E-01    2    -1000015       -24   # BR(~nu_tauL -> ~tau_1+ W-)
#
#         PDG            Width
DECAY   1000024     1.65752634E-10   # chargino1+ decays
#           BR         NDA      ID1       ID2       ID3
     3.37917693E-01    3     1000022         2        -1   # BR(~chi_1+ -> ~chi_10 u    db)
     3.37917693E-01    3     1000022         4        -3   # BR(~chi_1+ -> ~chi_10 c    sb)
     1.13152971E-01    3     1000022       -11        12   # BR(~chi_1+ -> ~chi_10 e+   nu_e)
     1.13152971E-01    3     1000022       -13        14   # BR(~chi_1+ -> ~chi_10 mu+  nu_mu)
     9.78586707E-02    3     1000022       -15        16   # BR(~chi_1+ -> ~chi_10 tau+ nu_tau)
#
#         PDG            Width
DECAY   1000037     5.09309765E+01   # chargino2+ decays
#          BR         NDA      ID1       ID2
     1.94081475E-07    2     1000002        -1   # BR(~chi_2+ -> ~u_L     db)
     1.56636882E-05    2    -1000001         2   # BR(~chi_2+ -> ~d_L*    u )
     1.94081249E-07    2     1000004        -3   # BR(~chi_2+ -> ~c_L     sb)
     1.56633942E-05    2    -1000003         4   # BR(~chi_2+ -> ~s_L*     c )
     5.34478319E-02    2     1000006        -5   # BR(~chi_2+ -> ~t_1     bb)
     8.36367411E-02    2     2000006        -5   # BR(~chi_2+ -> ~t_2     bb)
     2.83440307E-01    2    -1000005         6   # BR(~chi_2+ -> ~b_1*    t )
     3.81812767E-03    2    -2000005         6   # BR(~chi_2+ -> ~b_2*    t )
     2.00360529E-06    2     1000012       -11   # BR(~chi_2+ -> ~nu_eL   e+  )
     2.00360529E-06    2     1000014       -13   # BR(~chi_2+ -> ~nu_muL mu+ )
     1.06876804E-02    2     1000016       -15   # BR(~chi_2+ -> ~nu_tau1 tau+)
     1.62492010E-04    2    -1000011        12   # BR(~chi_2+ -> ~e_L+    nu_e)
     1.62492010E-04    2    -1000013        14   # BR(~chi_2+ -> ~mu_L+   nu_mu)
     5.53072517E-02    2    -1000015        16   # BR(~chi_2+ -> ~tau_1+  nu_tau)
     9.46037637E-05    2    -2000015        16   # BR(~chi_2+ -> ~tau_2+  nu_tau)
     1.37150592E-01    2     1000024        23   # BR(~chi_2+ -> ~chi_1+  Z )
     4.11188979E-02    2     1000022        24   # BR(~chi_2+ -> ~chi_10  W+)
     1.35678152E-01    2     1000023        24   # BR(~chi_2+ -> ~chi_20  W+)
     1.42188440E-01    2     1000024        25   # BR(~chi_2+ -> ~chi_1+  h )
     1.59710301E-02    2     1000024        35   # BR(~chi_2+ -> ~chi_1+  H )
     1.59711412E-02    2     1000024        36   # BR(~chi_2+ -> ~chi_1+  A )
     4.91784641E-03    2     1000022        37   # BR(~chi_2+ -> ~chi_10  H+)
     1.62106507E-02    2     1000023        37   # BR(~chi_2+ -> ~chi_20  H+)
#
#         PDG            Width
DECAY   1000022     0.00000000E+00   # neutralino1 decays
#
#         PDG            Width
DECAY   1000023     2.57432919E-13   # neutralino2 decays
#          BR         NDA      ID1       ID2
     1.15163070E-01    2     1000022        22   # BR(~chi_20 -> ~chi_10 gam)
#           BR         NDA      ID1       ID2       ID3
     3.64842260E-02    3     1000022        -2         2   # BR(~chi_20 -> ~chi_10 ub      u)
     4.84270433E-02    3     1000022        -1         1   # BR(~chi_20 -> ~chi_10 db      d)
     3.64842260E-02    3     1000022        -4         4   # BR(~chi_20 -> ~chi_10 cb      c)
     4.84270433E-02    3     1000022        -3         3   # BR(~chi_20 -> ~chi_10 sb      s)
     2.45893634E-03    3     1000022        -5         5   # BR(~chi_20 -> ~chi_10 bb      b)
     1.51650777E-01    3     1000022       -11        11   # BR(~chi_20 -> ~chi_10 e+      e-)
     1.51650777E-01    3     1000022       -13        13   # BR(~chi_20 -> ~chi_10 mu+     mu-)
     1.51548493E-01    3     1000022       -15        15   # BR(~chi_20 -> ~chi_10 tau+    tau-)
     1.25432728E-01    3     1000022       -12        12   # BR(~chi_20 -> ~chi_10 nu_eb   nu_e)
     1.25432728E-01    3     1000022       -14        14   # BR(~chi_20 -> ~chi_10 nu_mub  nu_mu)
     6.83601891E-03    3     1000022       -16        16   # BR(~chi_20 -> ~chi_10 nu_taub nu_tau)
     1.96629373E-06    3     1000024       -12        11   # BR(~chi_20 -> ~chi_1+ nu_eb   e-)
     1.96629373E-06    3    -1000024        12       -11   # BR(~chi_20 -> ~chi_1- nu_e    e+)
#
#         PDG            Width
DECAY   1000025     4.99034446E+01   # neutralino3 decays
#          BR         NDA      ID1       ID2
     2.92636007E-02    2     1000022        23   # BR(~chi_30 -> ~chi_10   Z )
     8.37836877E-02    2     1000023        23   # BR(~chi_30 -> ~chi_20   Z )
     1.36057553E-01    2     1000024       -24   # BR(~chi_30 -> ~chi_1+   W-)
     1.36057553E-01    2    -1000024        24   # BR(~chi_30 -> ~chi_1-   W+)
     1.96359332E-02    2     1000022        25   # BR(~chi_30 -> ~chi_10   h )
     1.86732164E-03    2     1000022        35   # BR(~chi_30 -> ~chi_10   H )
     3.72185001E-03    2     1000022        36   # BR(~chi_30 -> ~chi_10   A )
     5.60063925E-02    2     1000023        25   # BR(~chi_30 -> ~chi_20   h )
     5.18488959E-03    2     1000023        35   # BR(~chi_30 -> ~chi_20   H )
     1.07616889E-02    2     1000023        36   # BR(~chi_30 -> ~chi_20   A )
     1.61933517E-02    2     1000024       -37   # BR(~chi_30 -> ~chi_1+   H-)
     1.61933517E-02    2    -1000024        37   # BR(~chi_30 -> ~chi_1-   H+)
     1.25457485E-06    2     1000002        -2   # BR(~chi_30 -> ~u_L      ub)
     1.25457485E-06    2    -1000002         2   # BR(~chi_30 -> ~u_L*     u )
     1.45911245E-06    2     2000002        -2   # BR(~chi_30 -> ~u_R      ub)
     1.45911245E-06    2    -2000002         2   # BR(~chi_30 -> ~u_R*     u )
     1.92441934E-06    2     1000001        -1   # BR(~chi_30 -> ~d_L      db)
     1.92441934E-06    2    -1000001         1   # BR(~chi_30 -> ~d_L*     d )
     3.49717370E-06    2     2000001        -1   # BR(~chi_30 -> ~d_R      db)
     3.49717370E-06    2    -2000001         1   # BR(~chi_30 -> ~d_R*     d )
     1.25455125E-06    2     1000004        -4   # BR(~chi_30 -> ~c_L      cb)
     1.25455125E-06    2    -1000004         4   # BR(~chi_30 -> ~c_L*     c )
     1.45910799E-06    2     2000004        -4   # BR(~chi_30 -> ~c_R      cb)
     1.45910799E-06    2    -2000004         4   # BR(~chi_30 -> ~c_R*     c )
     1.92441934E-06    2     1000003        -3   # BR(~chi_30 -> ~s _L      sb)
     1.92441934E-06    2    -1000003         3   # BR(~chi_30 -> ~s _L*     s )
     3.49717370E-06    2     2000003        -3   # BR(~chi_30 -> ~s _R      sb)
     3.49717370E-06    2    -2000003         3   # BR(~chi_30 -> ~s _R*     s )
     1.37394103E-01    2     1000006        -6   # BR(~chi_30 -> ~t_1      tb)
     1.37394103E-01    2    -1000006         6   # BR(~chi_30 -> ~t_1*     t )
     4.72263166E-02    2     2000006        -6   # BR(~chi_30 -> ~t_2      tb)
     4.72263166E-02    2    -2000006         6   # BR(~chi_30 -> ~t_2*     t )
     2.14603635E-02    2     1000005        -5   # BR(~chi_30 -> ~b_1      bb)
     2.14603635E-02    2    -1000005         5   # BR(~chi_30 -> ~b_1*     b )
     2.72946788E-03    2     2000005        -5   # BR(~chi_30 -> ~b_2      bb)
     2.72946788E-03    2    -2000005         5   # BR(~chi_30 -> ~b_2*     b )
     7.47442950E-06    2     1000011       -11   # BR(~chi_30 -> ~e_L-     e+)
     7.47442950E-06    2    -1000011        11   # BR(~chi_30 -> ~e_L+     e-)
     7.47442950E-06    2     1000013       -13   # BR(~chi_30 -> ~mu_L-    mu+)
     7.47442950E-06    2    -1000013        13   # BR(~chi_30 -> ~mu_L+    mu-)
     2.82941996E-02    2     1000015       -15   # BR(~chi_30 -> ~tau_1-   tau+)
     2.82941996E-02    2    -1000015        15   # BR(~chi_30 -> ~tau_1+   tau-)
     5.43419512E-03    2     2000015       -15   # BR(~chi_30 -> ~tau_2-   tau+)
     5.43419512E-03    2    -2000015        15   # BR(~chi_30 -> ~tau_2+   tau-)
     2.87709850E-05    2     1000012       -12   # BR(~chi_30 -> ~nu_eL    nu_eb)
     2.87709850E-05    2    -1000012        12   # BR(~chi_30 -> ~nu_eL*   nu_e )
     2.87709850E-05    2     1000014       -14   # BR(~chi_30 -> ~nu_muL   nu_mub)
     2.87709850E-05    2    -1000014        14   # BR(~chi_30 -> ~nu_muL*  nu_mu )
     9.00631819E-06    2     1000016       -16   # BR(~chi_30 -> ~nu_tau1  nu_taub)
     9.00631819E-06    2    -1000016        16   # BR(~chi_30 -> ~nu_tau1* nu_tau )
#
#         PDG            Width
DECAY   1000035     5.09762166E+01   # neutralino4 decays
#          BR         NDA      ID1       ID2
     1.83036806E-02    2     1000022        23   # BR(~chi_40 -> ~chi_10   Z )
     5.25683096E-02    2     1000023        23   # BR(~chi_40 -> ~chi_20   Z )
     1.33211590E-01    2     1000024       -24   # BR(~chi_40 -> ~chi_1+   W-)
     1.33211590E-01    2    -1000024        24   # BR(~chi_40 -> ~chi_1-   W+)
     2.93474692E-02    2     1000022        25   # BR(~chi_40 -> ~chi_10   h )
     3.64502638E-03    2     1000022        35   # BR(~chi_40 -> ~chi_10   H )
     1.82887721E-03    2     1000022        36   # BR(~chi_40 -> ~chi_10   A )
     8.47647087E-02    2     1000023        25   # BR(~chi_40 -> ~chi_20   h )
     1.05395990E-02    2     1000023        35   # BR(~chi_40 -> ~chi_20   H )
     5.07826196E-03    2     1000023        36   # BR(~chi_40 -> ~chi_20   A )
     1.58672826E-02    2     1000024       -37   # BR(~chi_40 -> ~chi_1+   H-)
     1.58672826E-02    2    -1000024        37   # BR(~chi_40 -> ~chi_1-   H+)
     1.92163016E-06    2     1000002        -2   # BR(~chi_40 -> ~u_L      ub)
     1.92163016E-06    2    -1000002         2   # BR(~chi_40 -> ~u_L*     u )
     2.23927252E-06    2     2000002        -2   # BR(~chi_40 -> ~u_R      ub)
     2.23927252E-06    2    -2000002         2   # BR(~chi_40 -> ~u_R*     u )
     2.94968807E-06    2     1000001        -1   # BR(~chi_40 -> ~d_L      db)
     2.94968807E-06    2    -1000001         1   # BR(~chi_40 -> ~d_L*     d )
     5.36241276E-06    2     2000001        -1   # BR(~chi_40 -> ~d_R      db)
     5.36241276E-06    2    -2000001         1   # BR(~chi_40 -> ~d_R*     d )
     1.92159412E-06    2     1000004        -4   # BR(~chi_40 -> ~c_L      cb)
     1.92159412E-06    2    -1000004         4   # BR(~chi_40 -> ~c_L*     c )
     2.23926569E-06    2     2000004        -4   # BR(~chi_40 -> ~c_R      cb)
     2.23926569E-06    2    -2000004         4   # BR(~chi_40 -> ~c_R*     c )
     2.94968807E-06    2     1000003        -3   # BR(~chi_40 -> ~s _L      sb)
     2.94968807E-06    2    -1000003         3   # BR(~chi_40 -> ~s _L*     s )
     5.36241276E-06    2     2000003        -3   # BR(~chi_40 -> ~s _R      sb)
     5.36241276E-06    2    -2000003         3   # BR(~chi_40 -> ~s _R*     s )
     1.56515400E-01    2     1000006        -6   # BR(~chi_40 -> ~t_1      tb)
     1.56515400E-01    2    -1000006         6   # BR(~chi_40 -> ~t_1*     t )
     3.45170724E-02    2     2000006        -6   # BR(~chi_40 -> ~t_2      tb)
     3.45170724E-02    2    -2000006         6   # BR(~chi_40 -> ~t_2*     t )
     2.10172464E-02    2     1000005        -5   # BR(~chi_40 -> ~b_1      bb)
     2.10172464E-02    2    -1000005         5   # BR(~chi_40 -> ~b_1*     b )
     2.66943541E-03    2     2000005        -5   # BR(~chi_40 -> ~b_2      bb)
     2.66943541E-03    2    -2000005         5   # BR(~chi_40 -> ~b_2*     b )
     1.14093683E-05    2     1000011       -11   # BR(~chi_40 -> ~e_L-     e+)
     1.14093683E-05    2    -1000011        11   # BR(~chi_40 -> ~e_L+     e-)
     1.14093683E-05    2     1000013       -13   # BR(~chi_40 -> ~mu_L-    mu+)
     1.14093683E-05    2    -1000013        13   # BR(~chi_40 -> ~mu_L+    mu-)
     2.76903921E-02    2     1000015       -15   # BR(~chi_40 -> ~tau_1-   tau+)
     2.76903921E-02    2    -1000015        15   # BR(~chi_40 -> ~tau_1+   tau-)
     5.32402948E-03    2     2000015       -15   # BR(~chi_40 -> ~tau_2-   tau+)
     5.32402948E-03    2    -2000015        15   # BR(~chi_40 -> ~tau_2+   tau-)
     4.40179084E-05    2     1000012       -12   # BR(~chi_40 -> ~nu_eL    nu_eb)
     4.40179084E-05    2    -1000012        12   # BR(~chi_40 -> ~nu_eL*   nu_e )
     4.40179084E-05    2     1000014       -14   # BR(~chi_40 -> ~nu_muL   nu_mub)
     4.40179084E-05    2    -1000014        14   # BR(~chi_40 -> ~nu_muL*  nu_mu )
     1.37846934E-05    2     1000016       -16   # BR(~chi_40 -> ~nu_tau1  nu_taub)
     1.37846934E-05    2    -1000016        16   # BR(~chi_40 -> ~nu_tau1* nu_tau )
#
#         PDG            Width
DECAY        25     5.06035935E-03   # h decays
#          BR         NDA      ID1       ID2
     6.48388850E-01    2           5        -5   # BR(h -> b       bb     )
     5.17387242E-02    2         -15        15   # BR(h -> tau+    tau-   )
     1.83131762E-04    2         -13        13   # BR(h -> mu+     mu-    )
     1.99399995E-04    2           3        -3   # BR(h -> s       sb     )
     1.72727080E-02    2           4        -4   # BR(h -> c       cb     )
     6.49263222E-02    2          21        21   # BR(h -> g       g      )
     1.94163758E-03    2          22        22   # BR(h -> gam     gam    )
     1.37317285E-03    2          22        23   # BR(h -> Z       gam    )
     1.89885555E-01    2          24       -24   # BR(h -> W+      W-     )
     2.40904986E-02    2          23        23   # BR(h -> Z       Z      )
#
#         PDG            Width
DECAY        35     2.80079196E+01   # H decays
#          BR         NDA      ID1       ID2
     8.28433030E-01    2           5        -5   # BR(H -> b       bb     )
     1.63915242E-01    2         -15        15   # BR(H -> tau+    tau-   )
     5.79436068E-04    2         -13        13   # BR(H -> mu+     mu-    )
     1.74786793E-04    2           3        -3   # BR(H -> s       sb     )
     5.29219662E-08    2           4        -4   # BR(H -> c       cb     )
     5.19442892E-03    2           6        -6   # BR(H -> t       tb     )
     1.47305731E-05    2          21        21   # BR(H -> g       g      )
     1.35110484E-08    2          22        22   # BR(H -> gam     gam    )
     6.98356690E-09    2          23        22   # BR(H -> Z       gam    )
     3.73831954E-07    2          24       -24   # BR(H -> W+      W-     )
     1.86475184E-07    2          23        23   # BR(H -> Z       Z      )
     5.18270528E-06    2          25        25   # BR(H -> h       h      )
     7.95438082E-04    2     1000024  -1000024   # BR(H -> ~chi_1+ ~chi_1-)
     4.14832063E-05    2     1000022   1000022   # BR(H -> ~chi_10 ~chi_10)
     3.84166546E-04    2     1000023   1000023   # BR(H -> ~chi_20 ~chi_20)
     2.52713710E-04    2     1000022   1000023   # BR(H -> ~chi_10 ~chi_20)
     8.32269596E-08    2     2000001  -2000001   # BR(H -> ~d_R    ~d_R*  )
     8.32269596E-08    2     2000003  -2000003   # BR(H -> ~s_R    ~s_R*  )
     2.08560784E-04    2     1000015  -1000015   # BR(H -> ~tau_1- ~tau_1+)
#
#         PDG            Width
DECAY        36     2.80076840E+01   # A decays
#          BR         NDA      ID1       ID2
     8.28497981E-01    2           5        -5   # BR(A -> b       bb     )
     1.63920898E-01    2         -15        15   # BR(A -> tau+    tau-   )
     5.79455161E-04    2         -13        13   # BR(A -> mu+     mu-    )
     1.74807692E-04    2           3        -3   # BR(A -> s       sb     )
     5.32999786E-08    2           4        -4   # BR(A -> c       cb     )
     5.23431030E-03    2           6        -6   # BR(A -> t       tb     )
     4.39487069E-05    2          21        21   # BR(A -> g       g      )
     6.14930495E-08    2          22        22   # BR(A -> gam     gam    )
     3.35899163E-08    2          23        22   # BR(A -> Z       gam    )
     3.78586986E-07    2          23        25   # BR(A -> Z       h      )
     8.35781772E-04    2     1000024  -1000024   # BR(A -> ~chi_1+ ~chi_1-)
     4.34684148E-05    2     1000022   1000022   # BR(A -> ~chi_10 ~chi_10)
     4.03658027E-04    2     1000023   1000023   # BR(A -> ~chi_20 ~chi_20)
     2.65163395E-04    2     1000022   1000023   # BR(A -> ~chi_10 ~chi_20)
#
#         PDG            Width
DECAY        37     2.05137097E+01   # H+ decays
#          BR         NDA      ID1       ID2
     1.28981550E-03    2           4        -5   # BR(H+ -> c       bb     )
     2.23903016E-01    2         -15        16   # BR(H+ -> tau+    nu_tau )
     7.91490037E-04    2         -13        14   # BR(H+ -> mu+     nu_mu  )
     1.28981372E-05    2           2        -5   # BR(H+ -> u       bb     )
     1.19378552E-05    2           2        -3   # BR(H+ -> u       sb     )
     2.35043007E-04    2           4        -3   # BR(H+ -> c       sb     )
     7.73073244E-01    2           6        -5   # BR(H+ -> t       bb     )
     5.17940985E-07    2          24        25   # BR(H+ -> W+      h      )
     2.05725862E-13    2          24        36   # BR(H+ -> W+      A      )
     6.81876103E-04    2     1000024   1000022   # BR(H+ -> ~chi_1+ ~chi_10)
     1.61324480E-07    2     1000024   1000023   # BR(H+ -> ~chi_1+ ~chi_20)
