#
#                              ======================
#                              | THE SUSYHIT OUTPUT |
#                              ======================
#
#
#              ------------------------------------------------------
#              |     This is the output of the SUSY-HIT package     |
#              |  created by A.Djouadi, M.Muehlleitner and M.Spira. |
#              |  In case of problems with SUSY-HIT email to        |
#              |           margarete.muehlleitner@cern.ch           |
#              |           michael.spira@psi.ch                     |
#              |           abdelhak.djouadi@cern.ch                 |
#              ------------------------------------------------------
#
#              ------------------------------------------------------
#              |  SUSY Les Houches Accord - MSSM Spectrum + Decays  |
#              |              based on the decay programs           |
#              |                                                    |
#              |                     SDECAY 1.3b                    |
#              |                                                    |
#              |  Authors: M.Muhlleitner, A.Djouadi and Y.Mambrini  |
#              |  Ref.:    Comput.Phys.Commun.168(2005)46           |
#              |           [hep-ph/0311167]                         |
#              |                                                    |
#              |                     HDECAY 3.4                     |
#              |                                                    |
#              |  By: A.Djouadi,J.Kalinowski,M.Muhlleitner,M.Spira  |
#              |  Ref.:    Comput.Phys.Commun.108(1998)56           |
#              |           [hep-ph/9704448]                         |
#              |                                                    |
#              |                                                    |
#              |  If not stated otherwise all DRbar couplings and   |
#              |  soft SUSY breaking masses are given at the scale  |
#              |  Q=  0.27296660E+04
#              |                                                    |
#              ------------------------------------------------------
#
#
BLOCK DCINFO  # Decay Program information
     1   SDECAY/HDECAY # decay calculator
     2   1.3b  /3.4    # version number
#
BLOCK SPINFO  # Spectrum calculator information
     1     SOFTSUSY    # spectrum calculator               
     2     3.4.0       # version number                    
#
BLOCK MODSEL  # Model selection
     1     0   #  nonUniversal                                     
#
BLOCK SMINPUTS  # Standard Model inputs
         1     1.27908970E+02   # alpha_em^-1(M_Z)^MSbar
         2     1.16637870E-05   # G_F [GeV^-2]
         3     1.18400000E-01   # alpha_S(M_Z)^MSbar
         4     9.11876000E+01   # M_Z pole mass
         5     4.18000000E+00   # mb(mb)^MSbar
         6     1.73200000E+02   # mt pole mass
         7     1.77700000E+00   # mtau pole mass
#
BLOCK MINPAR  # Input parameters - minimal models
         3     3.38500000E+01   # tanb                
#
BLOCK EXTPAR  # Input parameters - non-minimal models
         0    -1.00000000E+00   # Set                 
         1    -1.77456000E+03   # M_1(MX)             
         2    -6.24520000E+02   # M_2(MX)             
         3     1.09003000E+03   # M_3(MX)             
        11     2.48420000E+03   # At(MX)              
        12     1.71069000E+03   # Ab(MX)              
        13     1.59862000E+03   # Atau(MX)            
        23    -2.31280000E+02   # mu(MX)              
        26     1.72177000E+03   # mA(pole)            
        31     3.40183000E+03   # meL(MX)             
        32     3.40183000E+03   # mmuL(MX)            
        33     2.62210000E+03   # mtauL(MX)           
        34     1.54951000E+03   # meR(MX)             
        35     1.54951000E+03   # mmuR(MX)            
        36     2.85939000E+03   # mtauR(MX)           
        41     3.65442000E+03   # mqL1(MX)            
        42     3.65442000E+03   # mqL2(MX)            
        43     2.76704000E+03   # mqL3(MX)            
        44     3.27442000E+03   # muR(MX)             
        45     3.27442000E+03   # mcR(MX)             
        46     2.68917000E+03   # mtR(MX)             
        47     3.48665000E+03   # mdR(MX)             
        48     3.48665000E+03   # msR(MX)             
        49     9.22870000E+02   # mbR(MX)             
#
BLOCK MASS  # Mass Spectrum
# PDG code           mass       particle
        24     8.03919075E+01   # W+
        25     1.25000840E+02   # h
        35     1.72178096E+03   # H
        36     1.72177000E+03   # A
        37     1.72387516E+03   # H+
         5     4.81876030E+00   # b-quark pole mass calculated from mb(mb)_Msbar
   1000001     3.69734921E+03   # ~d_L
   2000001     3.52292399E+03   # ~d_R
   1000002     3.69661856E+03   # ~u_L
   2000002     3.30902405E+03   # ~u_R
   1000003     3.69734921E+03   # ~s_L
   2000003     3.52292399E+03   # ~s_R
   1000004     3.69661856E+03   # ~c_L
   2000004     3.30902405E+03   # ~c_R
   1000005     9.83655757E+02   # ~b_1
   2000005     2.76996499E+03   # ~b_2
   1000006     2.64259117E+03   # ~t_1
   2000006     2.80208805E+03   # ~t_2
   1000011     3.40832196E+03   # ~e_L
   2000011     1.56414780E+03   # ~e_R
   1000012     3.40706234E+03   # ~nu_eL
   1000013     3.40832196E+03   # ~mu_L
   2000013     1.56414780E+03   # ~mu_R
   1000014     3.40706234E+03   # ~nu_muL
   1000015     2.62347639E+03   # ~tau_1
   2000015     2.85921907E+03   # ~tau_2
   1000016     2.62198456E+03   # ~nu_tauL
   1000021     1.29955420E+03   # ~g
   1000022    -2.34085687E+02   # ~chi_10
   1000023     2.46355815E+02   # ~chi_20
   1000025    -6.70726032E+02   # ~chi_30
   1000035    -1.75896438E+03   # ~chi_40
   1000024     2.38311106E+02   # ~chi_1+
   1000037     6.71023635E+02   # ~chi_2+
#
BLOCK NMIX  # Neutralino Mixing Matrix
  1  1    -2.06203497E-02   # N_11
  1  2     1.32810507E-01   # N_12
  1  3     7.12269248E-01   # N_13
  1  4    -6.88918492E-01   # N_14
  2  1     1.52021990E-02   # N_21
  2  2    -6.09825443E-02   # N_22
  2  3     6.99929071E-01   # N_23
  2  4     7.11441718E-01   # N_24
  3  1     5.63160310E-03   # N_31
  3  2     9.89261778E-01   # N_32
  3  3    -5.24685233E-02   # N_33
  3  4     1.36295539E-01   # N_34
  4  1     9.99655930E-01   # N_41
  4  2    -1.90611766E-03   # N_42
  4  3     4.34375636E-03   # N_43
  4  4    -2.57976574E-02   # N_44
#
BLOCK UMIX  # Chargino Mixing Matrix U
  1  1     7.50035039E-02   # U_11
  1  2     9.97183270E-01   # U_12
  2  1    -9.97183270E-01   # U_21
  2  2     7.50035039E-02   # U_22
#
BLOCK VMIX  # Chargino Mixing Matrix V
  1  1    -1.94934034E-01   # V_11
  1  2    -9.80816355E-01   # V_12
  2  1     9.80816355E-01   # V_21
  2  2    -1.94934034E-01   # V_22
#
BLOCK STOPMIX  # Stop Mixing Matrix
  1  1    -4.27678134E-01   # cos(theta_t)
  1  2     9.03931089E-01   # sin(theta_t)
  2  1    -9.03931089E-01   # -sin(theta_t)
  2  2    -4.27678134E-01   # cos(theta_t)
#
BLOCK SBOTMIX  # Sbottom Mixing Matrix
  1  1    -3.43039474E-03   # cos(theta_b)
  1  2     9.99994116E-01   # sin(theta_b)
  2  1    -9.99994116E-01   # -sin(theta_b)
  2  2    -3.43039474E-03   # cos(theta_b)
#
BLOCK STAUMIX  # Stau Mixing Matrix
  1  1     9.99917516E-01   # cos(theta_tau)
  1  2    -1.28437221E-02   # sin(theta_tau)
  2  1     1.28437221E-02   # -sin(theta_tau)
  2  2     9.99917516E-01   # cos(theta_tau)
#
BLOCK ALPHA  # Higgs mixing
          -3.06847732E-02   # Mixing angle in the neutral Higgs boson sector
#
BLOCK HMIX Q=  2.72966600E+03  # DRbar Higgs Parameters
         1    -2.36709764E+02   # mu(Q)MSSM           
         2     3.28447751E+01   # tan                 
         3     2.41572849E+02   # higgs               
         4     3.13048186E+06   # mA^2(Q)MSSM         
#
BLOCK GAUGE Q=  2.72966600E+03  # The gauge couplings
     1     3.64965994E-01   # gprime(Q) DRbar
     2     6.40372462E-01   # g(Q) DRbar
     3     1.02626613E+00   # g3(Q) DRbar
#
BLOCK AU Q=  2.72966600E+03  # The trilinear couplings
  1  1     0.00000000E+00   # A_u(Q) DRbar
  2  2     0.00000000E+00   # A_c(Q) DRbar
  3  3     2.48420001E+03   # A_t(Q) DRbar
#
BLOCK AD Q=  2.72966600E+03  # The trilinear couplings
  1  1     0.00000000E+00   # A_d(Q) DRbar
  2  2     0.00000000E+00   # A_s(Q) DRbar
  3  3     1.71069000E+03   # A_b(Q) DRbar
#
BLOCK AE Q=  2.72966600E+03  # The trilinear couplings
  1  1     0.00000000E+00   # A_e(Q) DRbar
  2  2     0.00000000E+00   # A_mu(Q) DRbar
  3  3     1.59862000E+03   # A_tau(Q) DRbar
#
BLOCK Yu Q=  2.72966600E+03  # The Yukawa couplings
  1  1     0.00000000E+00   # y_u(Q) DRbar
  2  2     0.00000000E+00   # y_c(Q) DRbar
  3  3     8.39290265E-01   # y_t(Q) DRbar
#
BLOCK Yd Q=  2.72966600E+03  # The Yukawa couplings
  1  1     0.00000000E+00   # y_d(Q) DRbar
  2  2     0.00000000E+00   # y_s(Q) DRbar
  3  3     4.75871190E-01   # y_b(Q) DRbar
#
BLOCK Ye Q=  2.72966600E+03  # The Yukawa couplings
  1  1     0.00000000E+00   # y_e(Q) DRbar
  2  2     0.00000000E+00   # y_mu(Q) DRbar
  3  3     3.39029264E-01   # y_tau(Q) DRbar
#
BLOCK MSOFT Q=  2.72966600E+03  # The soft SUSY breaking masses at the scale Q
         1    -1.77456000E+03   # M_1(Q)              
         2    -6.24520000E+02   # M_2(Q)              
         3     1.09003000E+03   # M_3(Q)              
        21     3.00758824E+06   # mH1^2(Q)            
        22     1.11679989E+05   # mH2^2(Q)            
        31     3.40183000E+03   # meL(Q)              
        32     3.40183000E+03   # mmuL(Q)             
        33     2.62210000E+03   # mtauL(Q)            
        34     1.54951000E+03   # meR(Q)              
        35     1.54951000E+03   # mmuR(Q)             
        36     2.85939000E+03   # mtauR(Q)            
        41     3.65442000E+03   # mqL1(Q)             
        42     3.65442000E+03   # mqL2(Q)             
        43     2.76704000E+03   # mqL3(Q)             
        44     3.27442000E+03   # muR(Q)              
        45     3.27442000E+03   # mcR(Q)              
        46     2.68917000E+03   # mtR(Q)              
        47     3.48665000E+03   # mdR(Q)              
        48     3.48665000E+03   # msR(Q)              
        49     9.22869997E+02   # mbR(Q)              
#
Block HiggsBoundsInputHiggsCouplingsFermions
# ScalarNormEffCoupSq PseudoSNormEffCoupSq NP   IP1 IP2 IP2
    1.01635284E+00    0.00000000E+00        3  25   5   5  # h0-b-b eff. coupling^2, normalised to SM
    1.07876290E+03    0.00000000E+00        3  35   5   5  # H0-b-b eff. coupling^2, normalised to SM
    0.00000000E+00    1.07877925E+03        3  36   5   5  # A0-b-b eff. coupling^2, normalised to SM
#
    9.99984841E-01    0.00000000E+00        3  25   6   6  # h0-t-t eff. coupling^2, normalised to SM
    9.42132358E-04    0.00000000E+00        3  35   6   6  # H0-t-t eff. coupling^2, normalised to SM
    0.00000000E+00    9.26973705E-04        3  36   6   6  # A0-t-t eff. coupling^2, normalised to SM
#
    1.01635284E+00    0.00000000E+00        3  25  15  15  # h0-tau-tau eff. coupling^2, normalised to SM
    1.07876290E+03    0.00000000E+00        3  35  15  15  # H0-tau-tau eff. coupling^2, normalised to SM
    0.00000000E+00    1.07877925E+03        3  36  15  15  # A0-tau-tau eff. coupling^2, normalised to SM
#
Block HiggsBoundsInputHiggsCouplingsBosons
    9.99999939E-01        3  25  24  24  # h0-W-W eff. coupling^2, normalised to SM
    6.14706296E-08        3  35  24  24  # H0-W-W eff. coupling^2, normalised to SM
    0.00000000E+00        3  36  24  24  # A0-W-W eff. coupling^2, normalised to SM
#
    9.99999939E-01        3  25  23  23  # h0-Z-Z eff. coupling^2, normalised to SM
    6.14706296E-08        3  35  23  23  # H0-Z-Z eff. coupling^2, normalised to SM
    0.00000000E+00        3  36  23  23  # A0-Z-Z eff. coupling^2, normalised to SM
#
    8.91126089E-01        3  25  21  21  # h0-g-g eff. coupling^2, normalised to SM
    4.01945763E-10        3  35  21  21  # H0-g-g eff. coupling^2, normalised to SM
    1.81996084E-09        3  36  21  21  # A0-g-g eff. coupling^2, normalised to SM
#
    0.00000000E+00        3  25  25  23  # h0-h0-Z eff. coupling^2, normalised to SM
    0.00000000E+00        3  35  25  23  # H0-h0-Z eff. coupling^2, normalised to SM
    6.14706296E-08        3  36  25  23  # A0-h0-Z eff. coupling^2, normalised to SM
    0.00000000E+00        3  35  35  23  # H0-H0-Z eff. coupling^2, normalised to SM
    9.99999939E-01        3  36  35  23  # A0-H0-Z eff. coupling^2, normalised to SM
    0.00000000E+00        3  36  36  23  # A0-A0-Z eff. coupling^2, normalised to SM
#
    0.00000000E+00        4  25  21  21  23  # h0-g-g-Z eff. coupling^2, normalised to SM
    0.00000000E+00        4  35  21  21  23  # H0-g-g-Z eff. coupling^2, normalised to SM
    0.00000000E+00        4  36  21  21  23  # A0-g-g-Z eff. coupling^2, normalised to SM
#
#
#
#                             =================
#                             |The decay table|
#                             =================
#
# - The QCD corrections to the decays gluino -> squark  + quark
#                                     squark -> gaugino + quark_prime
#                                     squark -> squark_prime + Higgs
#                                     squark -> gluino  + quark
#   are included.
#
# - The multi-body decays for the inos, stops and sbottoms are included.
#
# - The loop induced decays for the gluino, neutralinos and stops
#   are included.
#
# - The SUSY decays of the top quark are included.
#
#
#         PDG            Width
DECAY         6     1.44414017E+00   # top decays
#          BR         NDA      ID1       ID2
     1.00000000E+00    2           5        24   # BR(t ->  b    W+)
#
#         PDG            Width
DECAY   1000021     5.59193107E+00   # gluino decays
#          BR         NDA      ID1       ID2
     5.00000000E-01    2     1000005        -5   # BR(~g -> ~b_1  bb)
     5.00000000E-01    2    -1000005         5   # BR(~g -> ~b_1* b )
#
#         PDG            Width
DECAY   1000006     1.53572424E+02   # stop1 decays
#          BR         NDA      ID1       ID2
     1.20583891E-01    2     1000022         6   # BR(~t_1 -> ~chi_10 t )
     1.24983065E-01    2     1000023         6   # BR(~t_1 -> ~chi_20 t )
     3.17465586E-03    2     1000025         6   # BR(~t_1 -> ~chi_30 t )
     1.02698864E-02    2     1000035         6   # BR(~t_1 -> ~chi_40 t )
     2.28028388E-01    2     1000024         5   # BR(~t_1 -> ~chi_1+ b )
     4.43793377E-03    2     1000037         5   # BR(~t_1 -> ~chi_2+ b )
     5.08418267E-01    2     1000021         6   # BR(~t_1 -> ~g      t )
     1.03912686E-04    2     1000005        24   # BR(~t_1 -> ~b_1    W+)
#
#         PDG            Width
DECAY   2000006     1.83269175E+02   # stop2 decays
#          BR         NDA      ID1       ID2
     9.22506018E-02    2     1000022         6   # BR(~t_2 -> ~chi_10 t )
     1.00981120E-01    2     1000023         6   # BR(~t_2 -> ~chi_20 t )
     5.89124451E-02    2     1000025         6   # BR(~t_2 -> ~chi_30 t )
     3.22146228E-03    2     1000035         6   # BR(~t_2 -> ~chi_40 t )
     7.23328572E-02    2     1000024         5   # BR(~t_2 -> ~chi_1+ b )
     1.10212322E-01    2     1000037         5   # BR(~t_2 -> ~chi_2+ b )
     5.49301084E-01    2     1000021         6   # BR(~t_2 -> ~g      t )
     2.35913988E-03    2     1000006        25   # BR(~t_2 -> ~t_1    h )
     5.58524047E-03    2     1000005        37   # BR(~t_2 -> ~b_1    H+)
     4.35446505E-03    2     1000006        23   # BR(~t_2 -> ~t_1    Z )
     4.89262155E-04    2     1000005        24   # BR(~t_2 -> ~b_1    W+)
#
#         PDG            Width
DECAY   1000005     7.55123237E+00   # sbottom1 decays
#          BR         NDA      ID1       ID2
     2.65310390E-01    2     1000022         5   # BR(~b_1 -> ~chi_10 b )
     2.52398876E-01    2     1000023         5   # BR(~b_1 -> ~chi_20 b )
     4.07687216E-04    2     1000025         5   # BR(~b_1 -> ~chi_30 b )
     4.81244810E-01    2    -1000024         6   # BR(~b_1 -> ~chi_1- t )
     6.38236116E-04    2    -1000037         6   # BR(~b_1 -> ~chi_2- t )
#
#         PDG            Width
DECAY   2000005     1.76459478E+02   # sbottom2 decays
#          BR         NDA      ID1       ID2
     3.64963927E-02    2     1000022         5   # BR(~b_2 -> ~chi_10 b )
     3.43766499E-02    2     1000023         5   # BR(~b_2 -> ~chi_20 b )
     5.56091081E-02    2     1000025         5   # BR(~b_2 -> ~chi_30 b )
     8.40092261E-04    2     1000035         5   # BR(~b_2 -> ~chi_40 b )
     2.07249550E-01    2    -1000024         6   # BR(~b_2 -> ~chi_1- t )
     1.21076854E-01    2    -1000037         6   # BR(~b_2 -> ~chi_2- t )
     5.33478004E-01    2     1000021         5   # BR(~b_2 -> ~g      b )
     3.35010309E-04    2     1000005        25   # BR(~b_2 -> ~b_1    h )
     2.76310606E-03    2     1000005        35   # BR(~b_2 -> ~b_1    H )
     2.76365900E-03    2     1000005        36   # BR(~b_2 -> ~b_1    A )
     3.05894686E-04    2     1000005        23   # BR(~b_2 -> ~b_1    Z )
     4.70567955E-03    2     1000006       -24   # BR(~b_2 -> ~t_1    W-)
#
#         PDG            Width
DECAY   1000002     2.35681224E+02   # sup_L decays
#          BR         NDA      ID1       ID2
     1.02103320E-03    2     1000022         2   # BR(~u_L -> ~chi_10 u)
     2.07245957E-04    2     1000023         2   # BR(~u_L -> ~chi_20 u)
     5.68674558E-02    2     1000025         2   # BR(~u_L -> ~chi_30 u)
     1.31298418E-03    2     1000035         2   # BR(~u_L -> ~chi_40 u)
     4.66941449E-03    2     1000024         1   # BR(~u_L -> ~chi_1+ d)
     1.11553133E-01    2     1000037         1   # BR(~u_L -> ~chi_2+ d)
     8.24368734E-01    2     1000021         2   # BR(~u_L -> ~g      u)
#
#         PDG            Width
DECAY   2000002     1.65862401E+02   # sup_R decays
#          BR         NDA      ID1       ID2
     1.91358411E-05    2     1000022         2   # BR(~u_R -> ~chi_10 u)
     1.03899681E-05    2     1000023         2   # BR(~u_R -> ~chi_20 u)
     1.32696780E-06    2     1000025         2   # BR(~u_R -> ~chi_30 u)
     2.34622103E-02    2     1000035         2   # BR(~u_R -> ~chi_40 u)
     9.76506937E-01    2     1000021         2   # BR(~u_R -> ~g      u)
#
#         PDG            Width
DECAY   1000001     2.35693019E+02   # sdown_L decays
#          BR         NDA      ID1       ID2
     1.14910731E-03    2     1000022         1   # BR(~d_L -> ~chi_10 d)
     2.50544221E-04    2     1000023         1   # BR(~d_L -> ~chi_20 d)
     5.66319322E-02    2     1000025         1   # BR(~d_L -> ~chi_30 d)
     1.36728911E-03    2     1000035         1   # BR(~d_L -> ~chi_40 d)
     6.91379374E-04    2    -1000024         2   # BR(~d_L -> ~chi_1- u)
     1.15327442E-01    2    -1000037         2   # BR(~d_L -> ~chi_2- u)
     8.24582306E-01    2     1000021         1   # BR(~d_L -> ~g      d)
#
#         PDG            Width
DECAY   2000001     1.81055397E+02   # sdown_R decays
#          BR         NDA      ID1       ID2
     4.67420338E-06    2     1000022         1   # BR(~d_R -> ~chi_10 d)
     2.53821020E-06    2     1000023         1   # BR(~d_R -> ~chi_20 d)
     3.26970135E-07    2     1000025         1   # BR(~d_R -> ~chi_30 d)
     6.26158560E-03    2     1000035         1   # BR(~d_R -> ~chi_40 d)
     9.93730875E-01    2     1000021         1   # BR(~d_R -> ~g      d)
#
#         PDG            Width
DECAY   1000004     2.01366437E+02   # scharm_L decays
#          BR         NDA      ID1       ID2
     1.23410585E-03    2     1000022         4   # BR(~c_L -> ~chi_10 c)
     2.50487727E-04    2     1000023         4   # BR(~c_L -> ~chi_20 c)
     6.86858849E-02    2     1000025         4   # BR(~c_L -> ~chi_30 c)
     1.58392682E-03    2     1000035         4   # BR(~c_L -> ~chi_40 c)
     5.64379089E-03    2     1000024         3   # BR(~c_L -> ~chi_1+ s)
     1.34736572E-01    2     1000037         3   # BR(~c_L -> ~chi_2+ s)
     7.87865232E-01    2     1000021         4   # BR(~c_L -> ~g      c)
#
#         PDG            Width
DECAY   2000004     1.36270576E+02   # scharm_R decays
#          BR         NDA      ID1       ID2
     2.40776749E-05    2     1000022         4   # BR(~c_R -> ~chi_10 c)
     1.30726974E-05    2     1000023         4   # BR(~c_R -> ~chi_20 c)
     1.66802988E-06    2     1000025         4   # BR(~c_R -> ~chi_30 c)
     2.94204603E-02    2     1000035         4   # BR(~c_R -> ~chi_40 c)
     9.70540721E-01    2     1000021         4   # BR(~c_R -> ~g      c)
#
#         PDG            Width
DECAY   1000003     2.01365034E+02   # sstrange_L decays
#          BR         NDA      ID1       ID2
     1.38898438E-03    2     1000022         3   # BR(~s_L -> ~chi_10 s)
     3.02837051E-04    2     1000023         3   # BR(~s_L -> ~chi_20 s)
     6.84052584E-02    2     1000025         3   # BR(~s_L -> ~chi_30 s)
     1.64953378E-03    2     1000035         3   # BR(~s_L -> ~chi_40 s)
     8.35697106E-04    2    -1000024         4   # BR(~s_L -> ~chi_1- c)
     1.39303022E-01    2    -1000037         4   # BR(~s_L -> ~chi_2- c)
     7.88114667E-01    2     1000021         3   # BR(~s_L -> ~g      s)
#
#         PDG            Width
DECAY   2000003     1.48087070E+02   # sstrange_R decays
#          BR         NDA      ID1       ID2
     5.90414747E-06    2     1000022         3   # BR(~s_R -> ~chi_10 s)
     3.20599966E-06    2     1000023         3   # BR(~s_R -> ~chi_20 s)
     4.12670333E-07    2     1000025         3   # BR(~s_R -> ~chi_30 s)
     7.88955079E-03    2     1000035         3   # BR(~s_R -> ~chi_40 s)
     9.92100926E-01    2     1000021         3   # BR(~s_R -> ~g      s)
#
#         PDG            Width
DECAY   1000011     4.10089848E+01   # selectron_L decays
#          BR         NDA      ID1       ID2
     4.92164219E-03    2     1000022        11   # BR(~e_L -> ~chi_10 e-)
     9.18302885E-04    2     1000023        11   # BR(~e_L -> ~chi_20 e-)
     3.08572272E-01    2     1000025        11   # BR(~e_L -> ~chi_30 e-)
     5.88367974E-02    2     1000035        11   # BR(~e_L -> ~chi_40 e-)
     3.77714205E-03    2    -1000024        12   # BR(~e_L -> ~chi_1- nu_e)
     6.22973844E-01    2    -1000037        12   # BR(~e_L -> ~chi_2- nu_e)
#
#         PDG            Width
DECAY   2000011     7.20818711E-03   # selectron_R decays
#           BR         NDA      ID1       ID2
     4.67340679E-01    2     1000022        11   # BR(~e_R -> ~chi_10 e-)
     2.52761467E-01    2     1000023        11   # BR(~e_R -> ~chi_20 e-)
#           BR         NDA      ID1       ID2       ID3
     3.84132648E-03    3        11       -5        1000005   # BR(~e_R- -> e-  bb  ~b_1)
     6.87523773E-03    3        11       5        -1000005   # BR(~e_R- -> e-  b  ~b_1*)
     1.75827844E-02    3        11       23        1000022   # BR(~e_R- -> e-  Z  ~chi_10)
     4.39472499E-02    3        11       25        1000022   # BR(~e_R- -> e-  h  ~chi_10)
     4.95325655E-02    3        11       23        1000023   # BR(~e_R- -> e-  Z  ~chi_20)
     1.76230164E-02    3        11       25        1000023   # BR(~e_R- -> e-  h  ~chi_20)
     1.98260669E-04    3        11       23        1000025   # BR(~e_R- -> e-  Z  ~chi_30)
     2.85605794E-03    3        11       25        1000025   # BR(~e_R- -> e-  h  ~chi_30)
     3.42957246E-02    3        11       -24        1000024   # BR(~e_R- -> e-  W-  ~chi_1+)
     9.67746800E-02    3        11       24        -1000024   # BR(~e_R- -> e-  W+  ~chi_1-)
     2.81041539E-03    3        11       -24        1000037   # BR(~e_R- -> e-  W-  ~chi_2+)
     3.56053465E-03    3        11       24        -1000037   # BR(~e_R- -> e-  W+  ~chi_2-)
#
#         PDG            Width
DECAY   1000013     4.10089848E+01   # smuon_L decays
#          BR         NDA      ID1       ID2
     4.92164219E-03    2     1000022        13   # BR(~mu_L -> ~chi_10 mu-)
     9.18302884E-04    2     1000023        13   # BR(~mu_L -> ~chi_20 mu-)
     3.08572271E-01    2     1000025        13   # BR(~mu_L -> ~chi_30 mu-)
     5.88367972E-02    2     1000035        13   # BR(~mu_L -> ~chi_40 mu-)
     3.77714205E-03    2    -1000024        14   # BR(~mu_L -> ~chi_1- nu_mu)
     6.22973844E-01    2    -1000037        14   # BR(~mu_L -> ~chi_2- nu_mu)
#
#         PDG            Width
DECAY   2000013     7.20593515E-03   # smuon_R decays
#           BR         NDA      ID1       ID2
     4.67486724E-01    2     1000022        13   # BR(~mu_R -> ~chi_10 mu-)
     2.52840456E-01    2     1000023        13   # BR(~mu_R -> ~chi_20 mu-)
#           BR         NDA      ID1       ID2       ID3
     3.85404523E-03    3        13       -5        1000005   # BR(~mu_R- -> mu-  bb  ~b_1)
     6.87738634E-03    3        13       5        -1000005   # BR(~mu_R- -> mu-  b  ~b_1*)
     1.75882793E-02    3        13       23        1000022   # BR(~mu_R- -> mu-  Z  ~chi_10)
     4.39609840E-02    3        13       25        1000022   # BR(~mu_R- -> mu-  h  ~chi_10)
     4.95480451E-02    3        13       23        1000023   # BR(~mu_R- -> mu-  Z  ~chi_20)
     1.77034621E-02    3        13       25        1000023   # BR(~mu_R- -> mu-  h  ~chi_20)
     1.98197731E-04    3        13       23        1000025   # BR(~mu_R- -> mu-  Z  ~chi_30)
     2.85695050E-03    3        13       25        1000025   # BR(~mu_R- -> mu-  h  ~chi_30)
     3.40816278E-02    3        13       -24        1000024   # BR(~mu_R- -> mu-  W-  ~chi_1+)
     9.66425572E-02    3        13       24        -1000024   # BR(~mu_R- -> mu-  W+  ~chi_1-)
     2.81115491E-03    3        13       -24        1000037   # BR(~mu_R- -> mu-  W-  ~chi_2+)
     3.55012909E-03    3        13       24        -1000037   # BR(~mu_R- -> mu-  W+  ~chi_2-)
#
#         PDG            Width
DECAY   1000015     3.50418479E+01   # stau_1 decays
#          BR         NDA      ID1       ID2
     9.04691135E-02    2     1000022        15   # BR(~tau_1 -> ~chi_10  tau-)
     8.29345824E-02    2     1000023        15   # BR(~tau_1 -> ~chi_20  tau-)
     2.62881087E-01    2     1000025        15   # BR(~tau_1 -> ~chi_30  tau-)
     2.98500475E-02    2     1000035        15   # BR(~tau_1 -> ~chi_40  tau-)
     4.01754875E-03    2    -1000024        16   # BR(~tau_1 -> ~chi_1-  nu_tau)
     5.29847621E-01    2    -1000037        16   # BR(~tau_1 -> ~chi_2-  nu_tau)
#
#         PDG            Width
DECAY   2000015     1.87647547E+01   # stau_2 decays
#          BR         NDA      ID1       ID2
     1.73528418E-01    2     1000022        15   # BR(~tau_2 -> ~chi_10  tau-)
     1.68924921E-01    2     1000023        15   # BR(~tau_2 -> ~chi_20  tau-)
     1.52169107E-03    2     1000025        15   # BR(~tau_2 -> ~chi_30  tau-)
     3.11724306E-01    2     1000035        15   # BR(~tau_2 -> ~chi_40  tau-)
     3.40365699E-01    2    -1000024        16   # BR(~tau_2 -> ~chi_1-  nu_tau)
     3.06073261E-03    2    -1000037        16   # BR(~tau_2 -> ~chi_2-  nu_tau)
     4.34506255E-04    2     1000016       -24   # BR(~tau_2 -> ~nu_tauL W-)
     2.32912063E-04    2     1000015        25   # BR(~tau_2 -> ~tau_1   h)
     2.06813945E-04    2     1000015        23   # BR(~tau_2 -> ~tau_1   Z)
#
#         PDG            Width
DECAY   1000012     4.10343262E+01   # snu_eL decays
#          BR         NDA      ID1       ID2
     7.01132846E-03    2     1000022        12   # BR(~nu_eL -> ~chi_10 nu_e)
     1.62572122E-03    2     1000023        12   # BR(~nu_eL -> ~chi_20 nu_e)
     3.04274809E-01    2     1000025        12   # BR(~nu_eL -> ~chi_30 nu_e)
     5.95386487E-02    2     1000035        12   # BR(~nu_eL -> ~chi_40 nu_e)
     2.54884589E-02    2     1000024        11   # BR(~nu_eL -> ~chi_1+ e-)
     6.02061034E-01    2     1000037        11   # BR(~nu_eL -> ~chi_2+ e-)
#
#         PDG            Width
DECAY   1000014     4.10343261E+01   # snu_muL decays
#          BR         NDA      ID1       ID2
     7.01132847E-03    2     1000022        14   # BR(~nu_muL -> ~chi_10 nu_mu)
     1.62572123E-03    2     1000023        14   # BR(~nu_muL -> ~chi_20 nu_mu)
     3.04274809E-01    2     1000025        14   # BR(~nu_muL -> ~chi_30 nu_mu)
     5.95386488E-02    2     1000035        14   # BR(~nu_muL -> ~chi_40 nu_mu)
     2.54884589E-02    2     1000024        13   # BR(~nu_muL -> ~chi_1+ mu-)
     6.02061034E-01    2     1000037        13   # BR(~nu_muL -> ~chi_2+ mu-)
#
#         PDG            Width
DECAY   1000016     3.50739335E+01   # snu_tauL decays
#          BR         NDA      ID1       ID2
     6.27151122E-03    2     1000022        16   # BR(~nu_tauL -> ~chi_10 nu_tau)
     1.45314905E-03    2     1000023        16   # BR(~nu_tauL -> ~chi_20 nu_tau)
     2.58956680E-01    2     1000025        16   # BR(~nu_tauL -> ~chi_30 nu_tau)
     3.01377344E-02    2     1000035        16   # BR(~nu_tauL -> ~chi_40 nu_tau)
     1.89962110E-01    2     1000024        15   # BR(~nu_tauL -> ~chi_1+ tau-)
     5.13218815E-01    2     1000037        15   # BR(~nu_tauL -> ~chi_2+ tau-)
#
#         PDG            Width
DECAY   1000024     1.54536648E-09   # chargino1+ decays
#           BR         NDA      ID1       ID2       ID3
     3.56023286E-01    3     1000022         2        -1   # BR(~chi_1+ -> ~chi_10 u    db)
     3.56023286E-01    3     1000022         4        -3   # BR(~chi_1+ -> ~chi_10 c    sb)
     1.18674890E-01    3     1000022       -11        12   # BR(~chi_1+ -> ~chi_10 e+   nu_e)
     1.18674890E-01    3     1000022       -13        14   # BR(~chi_1+ -> ~chi_10 mu+  nu_mu)
     5.06036478E-02    3     1000022       -15        16   # BR(~chi_1+ -> ~chi_10 tau+ nu_tau)
#
#         PDG            Width
DECAY   1000037     5.14790017E+00   # chargino2+ decays
#          BR         NDA      ID1       ID2
     2.58633464E-01    2     1000024        23   # BR(~chi_2+ -> ~chi_1+  Z )
     2.49522304E-01    2     1000022        24   # BR(~chi_2+ -> ~chi_10  W+)
     2.57497582E-01    2     1000023        24   # BR(~chi_2+ -> ~chi_20  W+)
     2.34346650E-01    2     1000024        25   # BR(~chi_2+ -> ~chi_1+  h )
#
#         PDG            Width
DECAY   1000022     0.00000000E+00   # neutralino1 decays
#
#         PDG            Width
DECAY   1000023     3.05992374E-07   # neutralino2 decays
#          BR         NDA      ID1       ID2
     6.73396757E-03    2     1000022        22   # BR(~chi_20 -> ~chi_10 gam)
#           BR         NDA      ID1       ID2       ID3
     1.00282211E-01    3     1000022        -2         2   # BR(~chi_20 -> ~chi_10 ub      u)
     1.30118769E-01    3     1000022        -1         1   # BR(~chi_20 -> ~chi_10 db      d)
     1.00282211E-01    3     1000022        -4         4   # BR(~chi_20 -> ~chi_10 cb      c)
     1.30118769E-01    3     1000022        -3         3   # BR(~chi_20 -> ~chi_10 sb      s)
     1.91967297E-02    3     1000022        -5         5   # BR(~chi_20 -> ~chi_10 bb      b)
     2.98605500E-02    3     1000022       -11        11   # BR(~chi_20 -> ~chi_10 e+      e-)
     2.98605500E-02    3     1000022       -13        13   # BR(~chi_20 -> ~chi_10 mu+     mu-)
     2.64084496E-02    3     1000022       -15        15   # BR(~chi_20 -> ~chi_10 tau+    tau-)
     5.97001047E-02    3     1000022       -12        12   # BR(~chi_20 -> ~chi_10 nu_eb   nu_e)
     5.97001047E-02    3     1000022       -14        14   # BR(~chi_20 -> ~chi_10 nu_mub  nu_mu)
     5.97005611E-02    3     1000022       -16        16   # BR(~chi_20 -> ~chi_10 nu_taub nu_tau)
     4.23227785E-02    3     1000024        -2         1   # BR(~chi_20 -> ~chi_1+ ub      d)
     4.23227785E-02    3    -1000024        -1         2   # BR(~chi_20 -> ~chi_1- db      u)
     4.23227785E-02    3     1000024        -4         3   # BR(~chi_20 -> ~chi_1+ cb      s)
     4.23227785E-02    3    -1000024        -3         4   # BR(~chi_20 -> ~chi_1- sb      c)
     1.41076268E-02    3     1000024       -12        11   # BR(~chi_20 -> ~chi_1+ nu_eb   e-)
     1.41076268E-02    3    -1000024        12       -11   # BR(~chi_20 -> ~chi_1- nu_e    e+)
     1.41076268E-02    3     1000024       -14        13   # BR(~chi_20 -> ~chi_1+ nu_mub  mu-)
     1.41076268E-02    3    -1000024        14       -13   # BR(~chi_20 -> ~chi_1- nu_mu   mu+)
     1.11577009E-02    3     1000024       -16        15   # BR(~chi_20 -> ~chi_1+ nu_taub tau-)
     1.11577009E-02    3    -1000024        16       -15   # BR(~chi_20 -> ~chi_1- nu_tau  tau+)
#
#         PDG            Width
DECAY   1000025     5.15305329E+00   # neutralino3 decays
#          BR         NDA      ID1       ID2
     4.31152501E-02    2     1000022        23   # BR(~chi_30 -> ~chi_10   Z )
     2.08128461E-01    2     1000023        23   # BR(~chi_30 -> ~chi_20   Z )
     2.65045614E-01    2     1000024       -24   # BR(~chi_30 -> ~chi_1+   W-)
     2.65045614E-01    2    -1000024        24   # BR(~chi_30 -> ~chi_1-   W+)
     1.82940490E-01    2     1000022        25   # BR(~chi_30 -> ~chi_10   h )
     3.57245721E-02    2     1000023        25   # BR(~chi_30 -> ~chi_20   h )
#
#         PDG            Width
DECAY   1000035     6.79544418E+00   # neutralino4 decays
#          BR         NDA      ID1       ID2
     5.32611285E-02    2     1000022        23   # BR(~chi_40 -> ~chi_10   Z )
     1.11972349E-01    2     1000023        23   # BR(~chi_40 -> ~chi_20   Z )
     1.77083881E-03    2     1000025        23   # BR(~chi_40 -> ~chi_30   Z )
     1.50757206E-01    2     1000024       -24   # BR(~chi_40 -> ~chi_1+   W-)
     1.50757206E-01    2    -1000024        24   # BR(~chi_40 -> ~chi_1-   W+)
     1.06666219E-02    2     1000037       -24   # BR(~chi_40 -> ~chi_2+   W-)
     1.06666219E-02    2    -1000037        24   # BR(~chi_40 -> ~chi_2-   W+)
     1.06796846E-01    2     1000022        25   # BR(~chi_40 -> ~chi_10   h )
     5.82226175E-02    2     1000023        25   # BR(~chi_40 -> ~chi_20   h )
     9.27508552E-03    2     1000025        25   # BR(~chi_40 -> ~chi_30   h )
     1.07903575E-01    2     1000005        -5   # BR(~chi_40 -> ~b_1      bb)
     1.07903575E-01    2    -1000005         5   # BR(~chi_40 -> ~b_1*     b )
     3.00115821E-02    2     2000011       -11   # BR(~chi_40 -> ~e_R-     e+)
     3.00115821E-02    2    -2000011        11   # BR(~chi_40 -> ~e_R+     e-)
     3.00115821E-02    2     2000013       -13   # BR(~chi_40 -> ~mu_R-    mu+)
     3.00115821E-02    2    -2000013        13   # BR(~chi_40 -> ~mu_R+    mu-)
#
#         PDG            Width
DECAY        25     3.97753992E-03   # h decays
#          BR         NDA      ID1       ID2
     5.89712880E-01    2           5        -5   # BR(h -> b       bb     )
     6.61100337E-02    2         -15        15   # BR(h -> tau+    tau-   )
     2.34010997E-04    2         -13        13   # BR(h -> mu+     mu-    )
     2.55457723E-04    2           3        -3   # BR(h -> s       sb     )
     2.18046357E-02    2           4        -4   # BR(h -> c       cb     )
     8.03248520E-02    2          21        21   # BR(h -> g       g      )
     2.37165657E-03    2          22        22   # BR(h -> gam     gam    )
     1.57062409E-03    2          22        23   # BR(h -> Z       gam    )
     2.11238798E-01    2          24       -24   # BR(h -> W+      W-     )
     2.63770513E-02    2          23        23   # BR(h -> Z       Z      )
#
#         PDG            Width
DECAY        35     4.28782824E+01   # H decays
#          BR         NDA      ID1       ID2
     5.54749127E-01    2           5        -5   # BR(H -> b       bb     )
     8.87979629E-02    2         -15        15   # BR(H -> tau+    tau-   )
     3.14908545E-04    2         -13        13   # BR(H -> mu+     mu-    )
     2.19270445E-04    2           3        -3   # BR(H -> s       sb     )
     1.67579224E-08    2           4        -4   # BR(H -> c       cb     )
     1.60648799E-03    2           6        -6   # BR(H -> t       tb     )
     1.99538954E-05    2          21        21   # BR(H -> g       g      )
     7.86096143E-08    2          22        22   # BR(H -> gam     gam    )
     9.31907658E-09    2          23        22   # BR(H -> Z       gam    )
     2.32988665E-06    2          24       -24   # BR(H -> W+      W-     )
     1.15930803E-06    2          23        23   # BR(H -> Z       Z      )
     7.89146303E-06    2          25        25   # BR(H -> h       h      )
     1.11465848E-02    2     1000024  -1000024   # BR(H -> ~chi_1+ ~chi_1-)
     3.82341931E-04    2     1000037  -1000037   # BR(H -> ~chi_2+ ~chi_2-)
     1.12555719E-01    2     1000024  -1000037   # BR(H -> ~chi_1+ ~chi_2-)
     1.12555719E-01    2     1000037  -1000024   # BR(H -> ~chi_2+ ~chi_1-)
     2.99772873E-03    2     1000022   1000022   # BR(H -> ~chi_10 ~chi_10)
     7.45175890E-04    2     1000023   1000023   # BR(H -> ~chi_20 ~chi_20)
     1.90139440E-04    2     1000025   1000025   # BR(H -> ~chi_30 ~chi_30)
     5.13404547E-04    2     1000022   1000023   # BR(H -> ~chi_10 ~chi_20)
     4.61409237E-02    2     1000022   1000025   # BR(H -> ~chi_10 ~chi_30)
     6.70530664E-02    2     1000023   1000025   # BR(H -> ~chi_20 ~chi_30)
#
#         PDG            Width
DECAY        36     4.28755016E+01   # A decays
#          BR         NDA      ID1       ID2
     5.54807722E-01    2           5        -5   # BR(A -> b       bb     )
     8.88048887E-02    2         -15        15   # BR(A -> tau+    tau-   )
     3.14931761E-04    2         -13        13   # BR(A -> mu+     mu-    )
     2.19301161E-04    2           3        -3   # BR(A -> s       sb     )
     1.66407954E-08    2           4        -4   # BR(A -> c       cb     )
     1.62694232E-03    2           6        -6   # BR(A -> t       tb     )
     4.24603584E-05    2          21        21   # BR(A -> g       g      )
     1.71316252E-07    2          22        22   # BR(A -> gam     gam    )
     2.42772533E-08    2          23        22   # BR(A -> Z       gam    )
     2.34350020E-06    2          23        25   # BR(A -> Z       h      )
     1.26443663E-02    2     1000024  -1000024   # BR(A -> ~chi_1+ ~chi_1-)
     1.34700904E-03    2     1000037  -1000037   # BR(A -> ~chi_2+ ~chi_2-)
     1.11285134E-01    2     1000024  -1000037   # BR(A -> ~chi_1+ ~chi_2-)
     1.11285134E-01    2     1000037  -1000024   # BR(A -> ~chi_2+ ~chi_1-)
     3.64392276E-03    2     1000022   1000022   # BR(A -> ~chi_10 ~chi_10)
     7.16812473E-04    2     1000023   1000023   # BR(A -> ~chi_20 ~chi_20)
     6.65279204E-04    2     1000025   1000025   # BR(A -> ~chi_30 ~chi_30)
     3.31262738E-04    2     1000022   1000023   # BR(A -> ~chi_10 ~chi_20)
     6.69961522E-02    2     1000022   1000025   # BR(A -> ~chi_10 ~chi_30)
     4.52661254E-02    2     1000023   1000025   # BR(A -> ~chi_20 ~chi_30)
#
#         PDG            Width
DECAY        37     4.32206110E+01   # H+ decays
#          BR         NDA      ID1       ID2
     9.44774533E-04    2           4        -5   # BR(H+ -> c       bb     )
     8.82035093E-02    2         -15        16   # BR(H+ -> tau+    nu_tau )
     3.12799068E-04    2         -13        14   # BR(H+ -> mu+     nu_mu  )
     9.44771313E-06    2           2        -5   # BR(H+ -> u       bb     )
     1.08718541E-05    2           2        -3   # BR(H+ -> u       sb     )
     2.14006811E-04    2           4        -3   # BR(H+ -> c       sb     )
     5.60562737E-01    2           6        -5   # BR(H+ -> t       bb     )
     2.33791422E-06    2          24        25   # BR(H+ -> W+      h      )
     1.25736072E-12    2          24        36   # BR(H+ -> W+      A      )
     3.28802351E-04    2     1000024   1000022   # BR(H+ -> ~chi_1+ ~chi_10)
     2.52046044E-03    2     1000024   1000023   # BR(H+ -> ~chi_1+ ~chi_20)
     1.15206464E-01    2     1000024   1000025   # BR(H+ -> ~chi_1+ ~chi_30)
     1.19659561E-01    2     1000037   1000022   # BR(H+ -> ~chi_2+ ~chi_10)
     1.12024209E-01    2     1000037   1000023   # BR(H+ -> ~chi_2+ ~chi_20)
     1.87849436E-08    2     1000037   1000025   # BR(H+ -> ~chi_2+ ~chi_30)
