#
#                              ======================
#                              | THE SUSYHIT OUTPUT |
#                              ======================
#
#
#              ------------------------------------------------------
#              |     This is the output of the SUSY-HIT package     |
#              |  created by A.Djouadi, M.Muehlleitner and M.Spira. |
#              |  In case of problems with SUSY-HIT email to        |
#              |           margarete.muehlleitner@cern.ch           |
#              |           michael.spira@psi.ch                     |
#              |           abdelhak.djouadi@cern.ch                 |
#              ------------------------------------------------------
#
#              ------------------------------------------------------
#              |  SUSY Les Houches Accord - MSSM Spectrum + Decays  |
#              |              based on the decay programs           |
#              |                                                    |
#              |                     SDECAY 1.3b                    |
#              |                                                    |
#              |  Authors: M.Muhlleitner, A.Djouadi and Y.Mambrini  |
#              |  Ref.:    Comput.Phys.Commun.168(2005)46           |
#              |           [hep-ph/0311167]                         |
#              |                                                    |
#              |                     HDECAY 3.4                     |
#              |                                                    |
#              |  By: A.Djouadi,J.Kalinowski,M.Muhlleitner,M.Spira  |
#              |  Ref.:    Comput.Phys.Commun.108(1998)56           |
#              |           [hep-ph/9704448]                         |
#              |                                                    |
#              |                                                    |
#              |  If not stated otherwise all DRbar couplings and   |
#              |  soft SUSY breaking masses are given at the scale  |
#              |  Q=  0.32478690E+04
#              |                                                    |
#              ------------------------------------------------------
#
#
BLOCK DCINFO  # Decay Program information
     1   SDECAY/HDECAY # decay calculator
     2   1.3b  /3.4    # version number
#
BLOCK SPINFO  # Spectrum calculator information
     1     SOFTSUSY    # spectrum calculator               
     2     3.4.0       # version number                    
#
BLOCK MODSEL  # Model selection
     1     0   #  nonUniversal                                     
#
BLOCK SMINPUTS  # Standard Model inputs
         1     1.27908970E+02   # alpha_em^-1(M_Z)^MSbar
         2     1.16637870E-05   # G_F [GeV^-2]
         3     1.18400000E-01   # alpha_S(M_Z)^MSbar
         4     9.11876000E+01   # M_Z pole mass
         5     4.18000000E+00   # mb(mb)^MSbar
         6     1.73200000E+02   # mt pole mass
         7     1.77700000E+00   # mtau pole mass
#
BLOCK MINPAR  # Input parameters - minimal models
         3     1.42700000E+01   # tanb                
#
BLOCK EXTPAR  # Input parameters - non-minimal models
         0    -1.00000000E+00   # Set                 
         1     1.70961000E+03   # M_1(MX)             
         2    -1.85940000E+02   # M_2(MX)             
         3     2.79374000E+03   # M_3(MX)             
        11    -2.92286000E+03   # At(MX)              
        12    -1.79330000E+03   # Ab(MX)              
        13     1.83895000E+03   # Atau(MX)            
        23     2.26020000E+03   # mu(MX)              
        26     3.84176000E+03   # mA(pole)            
        31     2.55764000E+03   # meL(MX)             
        32     2.55764000E+03   # mmuL(MX)            
        33     1.15894000E+03   # mtauL(MX)           
        34     8.25740000E+02   # meR(MX)             
        35     8.25740000E+02   # mmuR(MX)            
        36     3.92792000E+03   # mtauR(MX)           
        41     2.53374000E+03   # mqL1(MX)            
        42     2.53374000E+03   # mqL2(MX)            
        43     3.41312000E+03   # mqL3(MX)            
        44     5.69790000E+02   # muR(MX)             
        45     5.69790000E+02   # mcR(MX)             
        46     3.08803000E+03   # mtR(MX)             
        47     1.32569000E+03   # mdR(MX)             
        48     1.32569000E+03   # msR(MX)             
        49     1.18533000E+03   # mbR(MX)             
#
BLOCK MASS  # Mass Spectrum
# PDG code           mass       particle
        24     8.03746925E+01   # W+
        25     1.24643577E+02   # h
        35     3.84176902E+03   # H
        36     3.84176001E+03   # A
        37     3.84297762E+03   # H+
         5     4.81876030E+00   # b-quark pole mass calculated from mb(mb)_Msbar
   1000001     2.65620737E+03   # ~d_L
   2000001     1.49413289E+03   # ~d_R
   1000002     2.65513764E+03   # ~u_L
   2000002     8.46705624E+02   # ~u_R
   1000003     2.65620737E+03   # ~s_L
   2000003     1.49413289E+03   # ~s_R
   1000004     2.65513764E+03   # ~c_L
   2000004     8.46705624E+02   # ~c_R
   1000005     1.36313258E+03   # ~b_1
   2000005     3.47930437E+03   # ~b_2
   1000006     3.13961133E+03   # ~t_1
   2000006     3.49438690E+03   # ~t_2
   1000011     2.56373079E+03   # ~e_L
   2000011     8.43714615E+02   # ~e_R
   1000012     2.56216870E+03   # ~nu_eL
   1000013     2.56373079E+03   # ~mu_L
   2000013     8.43714615E+02   # ~mu_R
   1000014     2.56216870E+03   # ~nu_muL
   1000015     1.16428938E+03   # ~tau_1
   2000015     3.93145997E+03   # ~tau_2
   1000016     1.16135525E+03   # ~nu_tauL
   1000021     2.90850719E+03   # ~g
   1000022    -2.03450463E+02   # ~chi_10
   1000023     1.66887112E+03   # ~chi_20
   1000025    -2.30796794E+03   # ~chi_30
   1000035     2.30960282E+03   # ~chi_40
   1000024     2.03611781E+02   # ~chi_1+
   1000037     2.30944033E+03   # ~chi_2+
#
BLOCK NMIX  # Neutralino Mixing Matrix
  1  1    -5.69759953E-05   # N_11
  1  2     9.99430737E-01   # N_12
  1  3    -3.37355278E-02   # N_13
  1  4    -3.34765264E-04   # N_14
  2  1     9.98517807E-01   # N_21
  2  2     1.50534869E-03   # N_22
  2  3     4.32379355E-02   # N_23
  2  4    -3.30212513E-02   # N_24
  3  1    -7.24868405E-03   # N_31
  3  2     2.40881092E-02   # N_32
  3  3     7.06616501E-01   # N_33
  3  4     7.07149446E-01   # N_34
  4  1     5.39410930E-02   # N_41
  4  2    -2.35732491E-02   # N_42
  4  3    -7.05468295E-01   # N_43
  4  4     7.06292535E-01   # N_44
#
BLOCK UMIX  # Chargino Mixing Matrix U
  1  1     9.98862393E-01   # U_11
  1  2    -4.76856406E-02   # U_12
  2  1     4.76856406E-02   # U_21
  2  2     9.98862393E-01   # U_22
#
BLOCK VMIX  # Chargino Mixing Matrix V
  1  1    -9.99999891E-01   # V_11
  1  2    -4.67197242E-04   # V_12
  2  1    -4.67197242E-04   # V_21
  2  2     9.99999891E-01   # V_22
#
BLOCK STOPMIX  # Stop Mixing Matrix
  1  1     1.97380806E-01   # cos(theta_t)
  1  2     9.80326893E-01   # sin(theta_t)
  2  1    -9.80326893E-01   # -sin(theta_t)
  2  2     1.97380806E-01   # cos(theta_t)
#
BLOCK SBOTMIX  # Sbottom Mixing Matrix
  1  1     6.83477712E-03   # cos(theta_b)
  1  2     9.99976643E-01   # sin(theta_b)
  2  1    -9.99976643E-01   # -sin(theta_b)
  2  2     6.83477712E-03   # cos(theta_b)
#
BLOCK STAUMIX  # Stau Mixing Matrix
  1  1     9.99993376E-01   # cos(theta_tau)
  1  2     3.63977419E-03   # sin(theta_tau)
  2  1    -3.63977419E-03   # -sin(theta_tau)
  2  2     9.99993376E-01   # cos(theta_tau)
#
BLOCK ALPHA  # Higgs mixing
          -7.34089065E-02   # Mixing angle in the neutral Higgs boson sector
#
BLOCK HMIX Q=  3.24786900E+03  # DRbar Higgs Parameters
         1     2.29163649E+03   # mu(Q)MSSM           
         2     1.36158753E+01   # tan                 
         3     2.42685411E+02   # higgs               
         4     1.46982578E+07   # mA^2(Q)MSSM         
#
BLOCK GAUGE Q=  3.24786900E+03  # The gauge couplings
     1     3.65396510E-01   # gprime(Q) DRbar
     2     6.41143018E-01   # g(Q) DRbar
     3     1.01235887E+00   # g3(Q) DRbar
#
BLOCK AU Q=  3.24786900E+03  # The trilinear couplings
  1  1     0.00000000E+00   # A_u(Q) DRbar
  2  2     0.00000000E+00   # A_c(Q) DRbar
  3  3    -2.92285998E+03   # A_t(Q) DRbar
#
BLOCK AD Q=  3.24786900E+03  # The trilinear couplings
  1  1     0.00000000E+00   # A_d(Q) DRbar
  2  2     0.00000000E+00   # A_s(Q) DRbar
  3  3    -1.79329999E+03   # A_b(Q) DRbar
#
BLOCK AE Q=  3.24786900E+03  # The trilinear couplings
  1  1     0.00000000E+00   # A_e(Q) DRbar
  2  2     0.00000000E+00   # A_mu(Q) DRbar
  3  3     1.83895000E+03   # A_tau(Q) DRbar
#
BLOCK Yu Q=  3.24786900E+03  # The Yukawa couplings
  1  1     0.00000000E+00   # y_u(Q) DRbar
  2  2     0.00000000E+00   # y_c(Q) DRbar
  3  3     8.15645894E-01   # y_t(Q) DRbar
#
BLOCK Yd Q=  3.24786900E+03  # The Yukawa couplings
  1  1     0.00000000E+00   # y_d(Q) DRbar
  2  2     0.00000000E+00   # y_s(Q) DRbar
  3  3     1.66204648E-01   # y_b(Q) DRbar
#
BLOCK Ye Q=  3.24786900E+03  # The Yukawa couplings
  1  1     0.00000000E+00   # y_e(Q) DRbar
  2  2     0.00000000E+00   # y_mu(Q) DRbar
  3  3     1.37499030E-01   # y_tau(Q) DRbar
#
BLOCK MSOFT Q=  3.24786900E+03  # The soft SUSY breaking masses at the scale Q
         1     1.70961000E+03   # M_1(Q)              
         2    -1.85940000E+02   # M_2(Q)              
         3     2.79374000E+03   # M_3(Q)              
        21     9.36260048E+06   # mH1^2(Q)            
        22    -4.97480912E+06   # mH2^2(Q)            
        31     2.55764000E+03   # meL(Q)              
        32     2.55764000E+03   # mmuL(Q)             
        33     1.15894000E+03   # mtauL(Q)            
        34     8.25740000E+02   # meR(Q)              
        35     8.25740000E+02   # mmuR(Q)             
        36     3.92792000E+03   # mtauR(Q)            
        41     2.53373999E+03   # mqL1(Q)             
        42     2.53373999E+03   # mqL2(Q)             
        43     3.41311998E+03   # mqL3(Q)             
        44     5.69789951E+02   # muR(Q)              
        45     5.69789951E+02   # mcR(Q)              
        46     3.08802997E+03   # mtR(Q)              
        47     1.32568998E+03   # mdR(Q)              
        48     1.32568998E+03   # msR(Q)              
        49     1.18532998E+03   # mbR(Q)              
#
Block HiggsBoundsInputHiggsCouplingsFermions
# ScalarNormEffCoupSq PseudoSNormEffCoupSq NP   IP1 IP2 IP2
    1.00263915E+00    0.00000000E+00        3  25   5   5  # h0-b-b eff. coupling^2, normalised to SM
    1.85389421E+02    0.00000000E+00        3  35   5   5  # H0-b-b eff. coupling^2, normalised to SM
    0.00000000E+00    1.85392060E+02        3  36   5   5  # A0-b-b eff. coupling^2, normalised to SM
#
    9.99985764E-01    0.00000000E+00        3  25   6   6  # h0-t-t eff. coupling^2, normalised to SM
    5.40820978E-03    0.00000000E+00        3  35   6   6  # H0-t-t eff. coupling^2, normalised to SM
    0.00000000E+00    5.39397426E-03        3  36   6   6  # A0-t-t eff. coupling^2, normalised to SM
#
    1.00263915E+00    0.00000000E+00        3  25  15  15  # h0-tau-tau eff. coupling^2, normalised to SM
    1.85389421E+02    0.00000000E+00        3  35  15  15  # H0-tau-tau eff. coupling^2, normalised to SM
    0.00000000E+00    1.85392060E+02        3  36  15  15  # A0-tau-tau eff. coupling^2, normalised to SM
#
Block HiggsBoundsInputHiggsCouplingsBosons
    9.99999991E-01        3  25  24  24  # h0-W-W eff. coupling^2, normalised to SM
    9.38012226E-09        3  35  24  24  # H0-W-W eff. coupling^2, normalised to SM
    0.00000000E+00        3  36  24  24  # A0-W-W eff. coupling^2, normalised to SM
#
    9.99999991E-01        3  25  23  23  # h0-Z-Z eff. coupling^2, normalised to SM
    9.38012226E-09        3  35  23  23  # H0-Z-Z eff. coupling^2, normalised to SM
    0.00000000E+00        3  36  23  23  # A0-Z-Z eff. coupling^2, normalised to SM
#
    8.88260370E-01        3  25  21  21  # h0-g-g eff. coupling^2, normalised to SM
    3.66780203E-15        3  35  21  21  # H0-g-g eff. coupling^2, normalised to SM
    1.69260097E-13        3  36  21  21  # A0-g-g eff. coupling^2, normalised to SM
#
    0.00000000E+00        3  25  25  23  # h0-h0-Z eff. coupling^2, normalised to SM
    0.00000000E+00        3  35  25  23  # H0-h0-Z eff. coupling^2, normalised to SM
    9.38012226E-09        3  36  25  23  # A0-h0-Z eff. coupling^2, normalised to SM
    0.00000000E+00        3  35  35  23  # H0-H0-Z eff. coupling^2, normalised to SM
    9.99999991E-01        3  36  35  23  # A0-H0-Z eff. coupling^2, normalised to SM
    0.00000000E+00        3  36  36  23  # A0-A0-Z eff. coupling^2, normalised to SM
#
    0.00000000E+00        4  25  21  21  23  # h0-g-g-Z eff. coupling^2, normalised to SM
    0.00000000E+00        4  35  21  21  23  # H0-g-g-Z eff. coupling^2, normalised to SM
    0.00000000E+00        4  36  21  21  23  # A0-g-g-Z eff. coupling^2, normalised to SM
#
#
#
#                             =================
#                             |The decay table|
#                             =================
#
# - The QCD corrections to the decays gluino -> squark  + quark
#                                     squark -> gaugino + quark_prime
#                                     squark -> squark_prime + Higgs
#                                     squark -> gluino  + quark
#   are included.
#
# - The multi-body decays for the inos, stops and sbottoms are included.
#
# - The loop induced decays for the gluino, neutralinos and stops
#   are included.
#
# - The SUSY decays of the top quark are included.
#
#
#         PDG            Width
DECAY         6     1.44839172E+00   # top decays
#          BR         NDA      ID1       ID2
     1.00000000E+00    2           5        24   # BR(t ->  b    W+)
#
#         PDG            Width
DECAY   1000021     2.05411419E+02   # gluino decays
#          BR         NDA      ID1       ID2
     3.96133192E-03    2     1000001        -1   # BR(~g -> ~d_L  db)
     3.96133192E-03    2    -1000001         1   # BR(~g -> ~d_L* d )
     7.79249705E-02    2     2000001        -1   # BR(~g -> ~d_R  db)
     7.79249705E-02    2    -2000001         1   # BR(~g -> ~d_R* d )
     3.99345876E-03    2     1000002        -2   # BR(~g -> ~u_L  ub)
     3.99345876E-03    2    -1000002         2   # BR(~g -> ~u_L* u )
     1.20471525E-01    2     2000002        -2   # BR(~g -> ~u_R  ub)
     1.20471525E-01    2    -2000002         2   # BR(~g -> ~u_R* u )
     3.96133192E-03    2     1000003        -3   # BR(~g -> ~s_L  sb)
     3.96133192E-03    2    -1000003         3   # BR(~g -> ~s_L* s )
     7.79249705E-02    2     2000003        -3   # BR(~g -> ~s_R  sb)
     7.79249705E-02    2    -2000003         3   # BR(~g -> ~s_R* s )
     3.99338595E-03    2     1000004        -4   # BR(~g -> ~c_L  cb)
     3.99338595E-03    2    -1000004         4   # BR(~g -> ~c_L* c )
     1.20471517E-01    2     2000004        -4   # BR(~g -> ~c_R  cb)
     1.20471517E-01    2    -2000004         4   # BR(~g -> ~c_R* c )
     8.72975087E-02    2     1000005        -5   # BR(~g -> ~b_1  bb)
     8.72975087E-02    2    -1000005         5   # BR(~g -> ~b_1* b )
#
#         PDG            Width
DECAY   1000006     2.50141150E+01   # stop1 decays
#          BR         NDA      ID1       ID2
     1.95648100E-02    2     1000022         6   # BR(~t_1 -> ~chi_10 t )
     1.48471335E-01    2     1000023         6   # BR(~t_1 -> ~chi_20 t )
     1.83886386E-01    2     1000025         6   # BR(~t_1 -> ~chi_30 t )
     1.56996848E-01    2     1000035         6   # BR(~t_1 -> ~chi_40 t )
     3.94256263E-02    2     1000024         5   # BR(~t_1 -> ~chi_1+ b )
     3.36703509E-01    2     1000037         5   # BR(~t_1 -> ~chi_2+ b )
     1.14192582E-01    2     1000021         6   # BR(~t_1 -> ~g      t )
     7.58903232E-04    2     1000005        24   # BR(~t_1 -> ~b_1    W+)
#
#         PDG            Width
DECAY   2000006     7.90143515E+01   # stop2 decays
#          BR         NDA      ID1       ID2
     1.71599035E-01    2     1000022         6   # BR(~t_2 -> ~chi_10 t )
     4.89402964E-03    2     1000023         6   # BR(~t_2 -> ~chi_20 t )
     8.70684558E-02    2     1000025         6   # BR(~t_2 -> ~chi_30 t )
     9.70529046E-02    2     1000035         6   # BR(~t_2 -> ~chi_40 t )
     3.45352842E-01    2     1000024         5   # BR(~t_2 -> ~chi_1+ b )
     1.46465029E-02    2     1000037         5   # BR(~t_2 -> ~chi_2+ b )
     1.92462813E-01    2     1000021         6   # BR(~t_2 -> ~g      t )
     3.50422735E-02    2     1000006        25   # BR(~t_2 -> ~t_1    h )
     4.25531788E-02    2     1000006        23   # BR(~t_2 -> ~t_1    Z )
     9.32796449E-03    2     1000005        24   # BR(~t_2 -> ~b_1    W+)
#
#         PDG            Width
DECAY   1000005     5.75569972E-03   # sbottom1 decays
#          BR         NDA      ID1       ID2
     3.41209058E-01    2     1000022         5   # BR(~b_1 -> ~chi_10 b )
     6.58790942E-01    2    -1000024         6   # BR(~b_1 -> ~chi_1- t )
#
#         PDG            Width
DECAY   2000005     8.14389555E+01   # sbottom2 decays
#          BR         NDA      ID1       ID2
     1.73293718E-01    2     1000022         5   # BR(~b_2 -> ~chi_10 b )
     3.68013924E-03    2     1000023         5   # BR(~b_2 -> ~chi_20 b )
     3.71449915E-03    2     1000025         5   # BR(~b_2 -> ~chi_30 b )
     3.73226719E-03    2     1000035         5   # BR(~b_2 -> ~chi_40 b )
     3.44401619E-01    2    -1000024         6   # BR(~b_2 -> ~chi_1- t )
     1.76013529E-01    2    -1000037         6   # BR(~b_2 -> ~chi_2- t )
     2.10698877E-01    2     1000021         5   # BR(~b_2 -> ~g      b )
     4.77971662E-03    2     1000005        25   # BR(~b_2 -> ~b_1    h )
     4.75752770E-03    2     1000005        23   # BR(~b_2 -> ~b_1    Z )
     7.49281060E-02    2     1000006       -24   # BR(~b_2 -> ~t_1    W-)
#
#         PDG            Width
DECAY   1000002     3.15160183E+01   # sup_L decays
#          BR         NDA      ID1       ID2
     3.31561188E-01    2     1000022         2   # BR(~u_L -> ~chi_10 u)
     4.54386135E-03    2     1000023         2   # BR(~u_L -> ~chi_20 u)
     1.07562157E-05    2     1000025         2   # BR(~u_L -> ~chi_30 u)
     3.67145204E-06    2     1000035         2   # BR(~u_L -> ~chi_40 u)
     6.63880513E-01    2     1000024         1   # BR(~u_L -> ~chi_1+ d)
     9.03322636E-09    2     1000037         1   # BR(~u_L -> ~chi_2+ d)
#
#         PDG            Width
DECAY   2000002     1.08587851E-08   # sup_R decays
#           BR         NDA      ID1       ID2
     5.52474705E-01    2     1000022         2   # BR(~u_R -> ~chi_10 u)
#           BR         NDA      ID1       ID2       ID3
     9.75983948E-09    3        2       -11        2000011   # BR(~u_R -> u  e+  ~e_R-)
     3.75539247E-08    3        2       11        -2000011   # BR(~u_R -> u  e-  ~e_R+)
     9.60973061E-09    3        2       -13        2000013   # BR(~u_R -> u  mu+  ~mu_R-)
     3.74701216E-08    3        2       13        -2000013   # BR(~u_R -> u  mu-  ~mu_R+)
     5.69658568E-02    3        2       23        1000022   # BR(~u_R -> u  Z  ~chi_10)
     7.64661966E-02    3        2       25        1000022   # BR(~u_R -> u  h  ~chi_10)
     2.27309038E-01    3        2       -24        1000024   # BR(~u_R -> u  W-  ~chi_1+)
     8.67841096E-02    3        2       24        -1000024   # BR(~u_R -> u  W+  ~chi_1-)
#
#         PDG            Width
DECAY   1000001     3.14799166E+01   # sdown_L decays
#          BR         NDA      ID1       ID2
     3.32078660E-01    2     1000022         1   # BR(~d_L -> ~chi_10 d)
     4.41312832E-03    2     1000023         1   # BR(~d_L -> ~chi_20 d)
     1.36099318E-05    2     1000025         1   # BR(~d_L -> ~chi_30 d)
     2.38007667E-05    2     1000035         1   # BR(~d_L -> ~chi_40 d)
     6.63376089E-01    2    -1000024         2   # BR(~d_L -> ~chi_1- u)
     9.47125722E-05    2    -1000037         2   # BR(~d_L -> ~chi_2- u)
#
#         PDG            Width
DECAY   2000001     3.20076946E-03   # sdown_R decays
#           BR         NDA      ID1       ID2
     8.72268737E-07    2     1000022         1   # BR(~d_R -> ~chi_10 d)
#           BR         NDA      ID1       ID2       ID3
     7.13172264E-02    3        1       -2        2000002   # BR(~d_R -> d  ub  ~u_R)
     4.13994203E-01    3        1       2        -2000002   # BR(~d_R -> d  u  ~u_R*)
     7.19327034E-02    3        1       -4        2000004   # BR(~d_R -> d  cb  ~c_R)
     4.13244383E-01    3        1       4        -2000004   # BR(~d_R -> d  c  ~c_R*)
     5.25654854E-05    3        1       -5        1000005   # BR(~d_R -> d  bb  ~b_1)
     2.08084340E-04    3        1       5        -1000005   # BR(~d_R -> d  b  ~b_1*)
     5.12001887E-03    3        1       -11        2000011   # BR(~d_R -> d  e+  ~e_R-)
     9.30651220E-03    3        1       11        -2000011   # BR(~d_R -> d  e-  ~e_R+)
     4.92975212E-03    3        1       -13        2000013   # BR(~d_R -> d  mu+  ~mu_R-)
     9.29089096E-03    3        1       13        -2000013   # BR(~d_R -> d  mu-  ~mu_R+)
     1.66069443E-04    3        1       -15        1000015   # BR(~d_R -> d  tau+  ~tau_1-)
     1.09579901E-04    3        1       15        -1000015   # BR(~d_R -> d  tau-  ~tau_1+)
     1.73464540E-04    3        1       -16        1000016   # BR(~d_R -> d  nu_taub  ~nu_tau1)
     1.12572931E-04    3        1       16        -1000016   # BR(~d_R -> d  nu_tau  ~nu_tau1*)
     5.79298205E-06    3        1       23        1000022   # BR(~d_R -> d  Z  ~chi_10)
     7.72314293E-06    3        1       25        1000022   # BR(~d_R -> d  h  ~chi_10)
     1.73233345E-05    3        1       -24        1000024   # BR(~d_R -> d  W-  ~chi_1+)
     1.02612826E-05    3        1       24        -1000024   # BR(~d_R -> d  W+  ~chi_1-)
#
#         PDG            Width
DECAY   1000004     3.23215180E+01   # scharm_L decays
#          BR         NDA      ID1       ID2
     3.31578275E-01    2     1000022         4   # BR(~c_L -> ~chi_10 c)
     4.49336625E-03    2     1000023         4   # BR(~c_L -> ~chi_20 c)
     1.03494567E-05    2     1000025         4   # BR(~c_L -> ~chi_30 c)
     3.53205217E-06    2     1000035         4   # BR(~c_L -> ~chi_40 c)
     6.63914468E-01    2     1000024         3   # BR(~c_L -> ~chi_1+ s)
     8.69048454E-09    2     1000037         3   # BR(~c_L -> ~chi_2+ s)
#
#         PDG            Width
DECAY   2000004     1.06285953E-08   # scharm_R decays
#           BR         NDA      ID1       ID2
     5.42112556E-01    2     1000022         4   # BR(~c_R -> ~chi_10 c)
#           BR         NDA      ID1       ID2       ID3
     3.40411868E-09    3        4       -11        2000011   # BR(~c_R -> c  e+  ~e_R-)
     1.32830346E-08    3        4       11        -2000011   # BR(~c_R -> c  e-  ~e_R+)
     3.38803001E-09    3        4       -13        2000013   # BR(~c_R -> c  mu+  ~mu_R-)
     1.31052124E-08    3        4       13        -2000013   # BR(~c_R -> c  mu-  ~mu_R+)
     5.84169385E-02    3        4       23        1000022   # BR(~c_R -> c  Z  ~chi_10)
     7.78117873E-02    3        4       25        1000022   # BR(~c_R -> c  h  ~chi_10)
     2.33304583E-01    3        4       -24        1000024   # BR(~c_R -> c  W-  ~chi_1+)
     8.83541023E-02    3        4       24        -1000024   # BR(~c_R -> c  W+  ~chi_1-)
#
#         PDG            Width
DECAY   1000003     3.22857649E+01   # sstrange_L decays
#          BR         NDA      ID1       ID2
     3.32096991E-01    2     1000022         3   # BR(~s_L -> ~chi_10 s)
     4.36414042E-03    2     1000023         3   # BR(~s_L -> ~chi_20 s)
     1.30965112E-05    2     1000025         3   # BR(~s_L -> ~chi_30 s)
     2.28992960E-05    2     1000035         3   # BR(~s_L -> ~chi_40 s)
     6.63411748E-01    2    -1000024         4   # BR(~s_L -> ~chi_1- c)
     9.11257248E-05    2    -1000037         4   # BR(~s_L -> ~chi_2- c)
#
#         PDG            Width
DECAY   2000003     3.19711532E-03   # sstrange_R decays
#           BR         NDA      ID1       ID2
     8.62591736E-07    2     1000022         3   # BR(~s_R -> ~chi_10 s)
#           BR         NDA      ID1       ID2       ID3
     7.14112496E-02    3        3       -2        2000002   # BR(~s_R -> s  ub  ~u_R)
     4.14467377E-01    3        3       2        -2000002   # BR(~s_R -> s  u  ~u_R*)
     7.20305579E-02    3        3       -4        2000004   # BR(~s_R -> s  cb  ~c_R)
     4.12559407E-01    3        3       4        -2000004   # BR(~s_R -> s  c  ~c_R*)
     5.26380763E-05    3        3       -5        1000005   # BR(~s_R -> s  bb  ~b_1)
     2.08319042E-04    3        3       5        -1000005   # BR(~s_R -> s  b  ~b_1*)
     5.12587079E-03    3        3       -11        2000011   # BR(~s_R -> s  e+  ~e_R-)
     9.31714907E-03    3        3       11        -2000011   # BR(~s_R -> s  e-  ~e_R+)
     4.93538657E-03    3        3       -13        2000013   # BR(~s_R -> s  mu+  ~mu_R-)
     9.28524531E-03    3        3       13        -2000013   # BR(~s_R -> s  mu-  ~mu_R+)
     1.69327643E-04    3        3       -15        1000015   # BR(~s_R -> s  tau+  ~tau_1-)
     1.09379852E-04    3        3       15        -1000015   # BR(~s_R -> s  tau-  ~tau_1+)
     1.73662801E-04    3        3       -16        1000016   # BR(~s_R -> s  nu_taub  ~nu_tau1)
     1.12460754E-04    3        3       16        -1000016   # BR(~s_R -> s  nu_tau  ~nu_tau1*)
     5.79647531E-06    3        3       23        1000022   # BR(~s_R -> s  Z  ~chi_10)
     7.69474904E-06    3        3       25        1000022   # BR(~s_R -> s  h  ~chi_10)
     1.73371913E-05    3        3       -24        1000024   # BR(~s_R -> s  W-  ~chi_1+)
     1.02770769E-05    3        3       24        -1000024   # BR(~s_R -> s  W+  ~chi_1-)
#
#         PDG            Width
DECAY   1000011     3.21291284E+01   # selectron_L decays
#          BR         NDA      ID1       ID2
     3.21790598E-01    2     1000022        11   # BR(~e_L -> ~chi_10 e-)
     3.52731067E-02    2     1000023        11   # BR(~e_L -> ~chi_20 e-)
     4.67002550E-06    2     1000025        11   # BR(~e_L -> ~chi_30 e-)
     5.95268805E-07    2     1000035        11   # BR(~e_L -> ~chi_40 e-)
     6.42878284E-01    2    -1000024        12   # BR(~e_L -> ~chi_1- nu_e)
     5.27451435E-05    2    -1000037        12   # BR(~e_L -> ~chi_2- nu_e)
#
#         PDG            Width
DECAY   2000011     2.35116799E-08   # selectron_R decays
#           BR         NDA      ID1       ID2
     5.48973104E-01    2     1000022        11   # BR(~e_R -> ~chi_10 e-)
#           BR         NDA      ID1       ID2       ID3
     5.56616969E-02    3        11       23        1000022   # BR(~e_R- -> e-  Z  ~chi_10)
     7.64003256E-02    3        11       25        1000022   # BR(~e_R- -> e-  h  ~chi_10)
     2.31978320E-01    3        11       -24        1000024   # BR(~e_R- -> e-  W-  ~chi_1+)
     8.69865534E-02    3        11       24        -1000024   # BR(~e_R- -> e-  W+  ~chi_1-)
#
#         PDG            Width
DECAY   1000013     3.21291283E+01   # smuon_L decays
#          BR         NDA      ID1       ID2
     3.21790598E-01    2     1000022        13   # BR(~mu_L -> ~chi_10 mu-)
     3.52731064E-02    2     1000023        13   # BR(~mu_L -> ~chi_20 mu-)
     4.67002506E-06    2     1000025        13   # BR(~mu_L -> ~chi_30 mu-)
     5.95268749E-07    2     1000035        13   # BR(~mu_L -> ~chi_40 mu-)
     6.42878285E-01    2    -1000024        14   # BR(~mu_L -> ~chi_1- nu_mu)
     5.27451436E-05    2    -1000037        14   # BR(~mu_L -> ~chi_2- nu_mu)
#
#         PDG            Width
DECAY   2000013     2.34679795E-08   # smuon_R decays
#           BR         NDA      ID1       ID2
     5.49995346E-01    2     1000022        13   # BR(~mu_R -> ~chi_10 mu-)
#           BR         NDA      ID1       ID2       ID3
     5.57610850E-02    3        13       23        1000022   # BR(~mu_R- -> mu-  Z  ~chi_10)
     7.66874711E-02    3        13       25        1000022   # BR(~mu_R- -> mu-  h  ~chi_10)
     2.30381998E-01    3        13       -24        1000024   # BR(~mu_R- -> mu-  W-  ~chi_1+)
     8.71741004E-02    3        13       24        -1000024   # BR(~mu_R- -> mu-  W+  ~chi_1-)
#
#         PDG            Width
DECAY   1000015     1.33979098E+01   # stau_1 decays
#          BR         NDA      ID1       ID2
     3.33618667E-01    2     1000022        15   # BR(~tau_1 -> ~chi_10  tau-)
     6.66381333E-01    2    -1000024        16   # BR(~tau_1 -> ~chi_1-  nu_tau)
#
#         PDG            Width
DECAY   2000015     1.60793890E+01   # stau_2 decays
#          BR         NDA      ID1       ID2
     4.32389576E-05    2     1000022        15   # BR(~tau_2 -> ~chi_10  tau-)
     8.70437564E-01    2     1000023        15   # BR(~tau_2 -> ~chi_20  tau-)
     1.97690686E-02    2     1000025        15   # BR(~tau_2 -> ~chi_30  tau-)
     2.12952156E-02    2     1000035        15   # BR(~tau_2 -> ~chi_40  tau-)
     8.63940810E-05    2    -1000024        16   # BR(~tau_2 -> ~chi_1-  nu_tau)
     3.94197672E-02    2    -1000037        16   # BR(~tau_2 -> ~chi_2-  nu_tau)
     2.40569453E-02    2     1000016       -24   # BR(~tau_2 -> ~nu_tauL W-)
     1.25355469E-02    2     1000015        25   # BR(~tau_2 -> ~tau_1   h)
     1.23562588E-02    2     1000015        23   # BR(~tau_2 -> ~tau_1   Z)
#
#         PDG            Width
DECAY   1000012     3.21430462E+01   # snu_eL decays
#          BR         NDA      ID1       ID2
     3.21492089E-01    2     1000022        12   # BR(~nu_eL -> ~chi_10 nu_e)
     3.48029618E-02    2     1000023        12   # BR(~nu_eL -> ~chi_20 nu_e)
     9.23052297E-06    2     1000025        12   # BR(~nu_eL -> ~chi_30 nu_e)
     3.37802797E-05    2     1000035        12   # BR(~nu_eL -> ~chi_40 nu_e)
     6.43661933E-01    2     1000024        11   # BR(~nu_eL -> ~chi_1+ e-)
     5.00475900E-09    2     1000037        11   # BR(~nu_eL -> ~chi_2+ e-)
#
#         PDG            Width
DECAY   1000014     3.21430461E+01   # snu_muL decays
#          BR         NDA      ID1       ID2
     3.21492090E-01    2     1000022        14   # BR(~nu_muL -> ~chi_10 nu_mu)
     3.48029618E-02    2     1000023        14   # BR(~nu_muL -> ~chi_20 nu_mu)
     9.23052299E-06    2     1000025        14   # BR(~nu_muL -> ~chi_30 nu_mu)
     3.37802798E-05    2     1000035        14   # BR(~nu_muL -> ~chi_40 nu_mu)
     6.43661932E-01    2     1000024        13   # BR(~nu_muL -> ~chi_1+ mu-)
     5.00475852E-09    2     1000037        13   # BR(~nu_muL -> ~chi_2+ mu-)
#
#         PDG            Width
DECAY   1000016     1.33804244E+01   # snu_tauL decays
#          BR         NDA      ID1       ID2
     3.33092464E-01    2     1000022        16   # BR(~nu_tauL -> ~chi_10 nu_tau)
     6.66907536E-01    2     1000024        15   # BR(~nu_tauL -> ~chi_1+ tau-)
#
#         PDG            Width
DECAY   1000024     3.22034780E-15   # chargino1+ decays
#           BR         NDA      ID1       ID2       ID3
     1.98217440E-02    3     1000022       -11        12   # BR(~chi_1+ -> ~chi_10 e+   nu_e)
     2.01332830E-03    3     1000022       -13        14   # BR(~chi_1+ -> ~chi_10 mu+  nu_mu)
     9.78164930E-01    2     1000022       211             # BR(~chi_1+ -> ~chi_10 pi+)
#
#         PDG            Width
DECAY   1000037     1.56307523E+01   # chargino2+ decays
#          BR         NDA      ID1       ID2
     5.18153189E-02    2    -1000005         6   # BR(~chi_2+ -> ~b_1*    t )
     1.54747120E-02    2     1000016       -15   # BR(~chi_2+ -> ~nu_tau1 tau+)
     7.39396390E-04    2    -1000015        16   # BR(~chi_2+ -> ~tau_1+  nu_tau)
     2.84459741E-01    2     1000024        23   # BR(~chi_2+ -> ~chi_1+  Z )
     2.76744475E-01    2     1000022        24   # BR(~chi_2+ -> ~chi_10  W+)
     7.88603978E-02    2     1000023        24   # BR(~chi_2+ -> ~chi_20  W+)
     2.91905959E-01    2     1000024        25   # BR(~chi_2+ -> ~chi_1+  h )
#
#         PDG            Width
DECAY   1000022     0.00000000E+00   # neutralino1 decays
#
#         PDG            Width
DECAY   1000023     2.46989744E+01   # neutralino2 decays
#          BR         NDA      ID1       ID2
     1.26303518E-04    2     1000022        23   # BR(~chi_20 -> ~chi_10   Z )
     2.62059290E-04    2     1000024       -24   # BR(~chi_20 -> ~chi_1+   W-)
     2.62059290E-04    2    -1000024        24   # BR(~chi_20 -> ~chi_1-   W+)
     1.44078358E-04    2     1000022        25   # BR(~chi_20 -> ~chi_10   h )
     1.33018825E-01    2     2000002        -2   # BR(~chi_20 -> ~u_R      ub)
     1.33018825E-01    2    -2000002         2   # BR(~chi_20 -> ~u_R*     u )
     2.46000584E-03    2     2000001        -1   # BR(~chi_20 -> ~d_R      db)
     2.46000584E-03    2    -2000001         1   # BR(~chi_20 -> ~d_R*     d )
     1.33018713E-01    2     2000004        -4   # BR(~chi_20 -> ~c_R      cb)
     1.33018713E-01    2    -2000004         4   # BR(~chi_20 -> ~c_R*     c )
     2.46000584E-03    2     2000003        -3   # BR(~chi_20 -> ~s _R      sb)
     2.46000584E-03    2    -2000003         3   # BR(~chi_20 -> ~s _R*     s )
     6.63451802E-03    2     1000005        -5   # BR(~chi_20 -> ~b_1      bb)
     6.63451802E-03    2    -1000005         5   # BR(~chi_20 -> ~b_1*     b )
     9.91602654E-02    2     2000011       -11   # BR(~chi_20 -> ~e_R-     e+)
     9.91602654E-02    2    -2000011        11   # BR(~chi_20 -> ~e_R+     e-)
     9.91602654E-02    2     2000013       -13   # BR(~chi_20 -> ~mu_R-    mu+)
     9.91602654E-02    2    -2000013        13   # BR(~chi_20 -> ~mu_R+    mu-)
     1.18541734E-02    2     1000015       -15   # BR(~chi_20 -> ~tau_1-   tau+)
     1.18541734E-02    2    -1000015        15   # BR(~chi_20 -> ~tau_1+   tau-)
     1.18359780E-02    2     1000016       -16   # BR(~chi_20 -> ~nu_tau1  nu_taub)
     1.18359780E-02    2    -1000016        16   # BR(~chi_20 -> ~nu_tau1* nu_tau )
#
#         PDG            Width
DECAY   1000025     1.54871058E+01   # neutralino3 decays
#          BR         NDA      ID1       ID2
     1.40814915E-01    2     1000022        23   # BR(~chi_30 -> ~chi_10   Z )
     7.91940658E-02    2     1000023        23   # BR(~chi_30 -> ~chi_20   Z )
     2.79309180E-01    2     1000024       -24   # BR(~chi_30 -> ~chi_1+   W-)
     2.79309180E-01    2    -1000024        24   # BR(~chi_30 -> ~chi_1-   W+)
     1.51865357E-01    2     1000022        25   # BR(~chi_30 -> ~chi_10   h )
     1.45371597E-03    2     1000023        25   # BR(~chi_30 -> ~chi_20   h )
     2.05671881E-05    2     2000002        -2   # BR(~chi_30 -> ~u_R      ub)
     2.05671881E-05    2    -2000002         2   # BR(~chi_30 -> ~u_R*     u )
     2.33361050E-06    2     2000001        -1   # BR(~chi_30 -> ~d_R      db)
     2.33361050E-06    2    -2000001         1   # BR(~chi_30 -> ~d_R*     d )
     2.05671845E-05    2     2000004        -4   # BR(~chi_30 -> ~c_R      cb)
     2.05671845E-05    2    -2000004         4   # BR(~chi_30 -> ~c_R*     c )
     2.33361050E-06    2     2000003        -3   # BR(~chi_30 -> ~s _R      sb)
     2.33361050E-06    2    -2000003         3   # BR(~chi_30 -> ~s _R*     s )
     2.59741156E-02    2     1000005        -5   # BR(~chi_30 -> ~b_1      bb)
     2.59741156E-02    2    -1000005         5   # BR(~chi_30 -> ~b_1*     b )
     1.56111562E-05    2     2000011       -11   # BR(~chi_30 -> ~e_R-     e+)
     1.56111562E-05    2    -2000011        11   # BR(~chi_30 -> ~e_R+     e-)
     1.56111562E-05    2     2000013       -13   # BR(~chi_30 -> ~mu_R-    mu+)
     1.56111562E-05    2    -2000013        13   # BR(~chi_30 -> ~mu_R+    mu-)
     7.84034284E-03    2     1000015       -15   # BR(~chi_30 -> ~tau_1-   tau+)
     7.84034284E-03    2    -1000015        15   # BR(~chi_30 -> ~tau_1+   tau-)
     1.35311264E-04    2     1000016       -16   # BR(~chi_30 -> ~nu_tau1  nu_taub)
     1.35311264E-04    2    -1000016        16   # BR(~chi_30 -> ~nu_tau1* nu_tau )
#
#         PDG            Width
DECAY   1000035     1.55233836E+01   # neutralino4 decays
#          BR         NDA      ID1       ID2
     1.45776007E-01    2     1000022        23   # BR(~chi_40 -> ~chi_10   Z )
     1.49688410E-03    2     1000023        23   # BR(~chi_40 -> ~chi_20   Z )
     2.78139116E-01    2     1000024       -24   # BR(~chi_40 -> ~chi_1+   W-)
     2.78139116E-01    2    -1000024        24   # BR(~chi_40 -> ~chi_1-   W+)
     1.42372778E-01    2     1000022        25   # BR(~chi_40 -> ~chi_10   h )
     7.70969473E-02    2     1000023        25   # BR(~chi_40 -> ~chi_20   h )
     1.13751218E-03    2     2000002        -2   # BR(~chi_40 -> ~u_R      ub)
     1.13751218E-03    2    -2000002         2   # BR(~chi_40 -> ~u_R*     u )
     1.29269977E-04    2     2000001        -1   # BR(~chi_40 -> ~d_R      db)
     1.29269977E-04    2    -2000001         1   # BR(~chi_40 -> ~d_R*     d )
     1.13751198E-03    2     2000004        -4   # BR(~chi_40 -> ~c_R      cb)
     1.13751198E-03    2    -2000004         4   # BR(~chi_40 -> ~c_R*     c )
     1.29269977E-04    2     2000003        -3   # BR(~chi_40 -> ~s _R      sb)
     1.29269977E-04    2    -2000003         3   # BR(~chi_40 -> ~s _R*     s )
     2.59855230E-02    2     1000005        -5   # BR(~chi_40 -> ~b_1      bb)
     2.59855230E-02    2    -1000005         5   # BR(~chi_40 -> ~b_1*     b )
     8.63450035E-04    2     2000011       -11   # BR(~chi_40 -> ~e_R-     e+)
     8.63450035E-04    2    -2000011        11   # BR(~chi_40 -> ~e_R+     e-)
     8.63450035E-04    2     2000013       -13   # BR(~chi_40 -> ~mu_R-    mu+)
     8.63450035E-04    2    -2000013        13   # BR(~chi_40 -> ~mu_R+    mu-)
     7.74264097E-03    2     1000015       -15   # BR(~chi_40 -> ~tau_1-   tau+)
     7.74264097E-03    2    -1000015        15   # BR(~chi_40 -> ~tau_1+   tau-)
     5.00946989E-04    2     1000016       -16   # BR(~chi_40 -> ~nu_tau1  nu_taub)
     5.00946989E-04    2    -1000016        16   # BR(~chi_40 -> ~nu_tau1* nu_tau )
#
#         PDG            Width
DECAY        25     4.30087872E-03   # h decays
#          BR         NDA      ID1       ID2
     6.30503817E-01    2           5        -5   # BR(h -> b       bb     )
     6.01483292E-02    2         -15        15   # BR(h -> tau+    tau-   )
     2.12903168E-04    2         -13        13   # BR(h -> mu+     mu-    )
     2.32461445E-04    2           3        -3   # BR(h -> s       sb     )
     2.01191074E-02    2           4        -4   # BR(h -> c       cb     )
     7.35398092E-02    2          21        21   # BR(h -> g       g      )
     2.16026863E-03    2          22        22   # BR(h -> gam     gam    )
     1.40576590E-03    2          22        23   # BR(h -> Z       gam    )
     1.88352648E-01    2          24       -24   # BR(h -> W+      W-     )
     2.33248902E-02    2          23        23   # BR(h -> Z       Z      )
#
#         PDG            Width
DECAY        35     2.90169709E+01   # H decays
#          BR         NDA      ID1       ID2
     2.50159044E-01    2           5        -5   # BR(H -> b       bb     )
     5.14460520E-02    2         -15        15   # BR(H -> tau+    tau-   )
     1.81081840E-04    2         -13        13   # BR(H -> mu+     mu-    )
     8.42171211E-05    2           3        -3   # BR(H -> s       sb     )
     2.84466948E-07    2           4        -4   # BR(H -> c       cb     )
     2.80737748E-02    2           6        -6   # BR(H -> t       tb     )
     5.00523949E-06    2          21        21   # BR(H -> g       g      )
     5.56350311E-09    2          22        22   # BR(H -> gam     gam    )
     1.09818873E-08    2          23        22   # BR(H -> Z       gam    )
     5.89989446E-06    2          24       -24   # BR(H -> W+      W-     )
     2.94491120E-06    2          23        23   # BR(H -> Z       Z      )
     2.72474933E-05    2          25        25   # BR(H -> h       h      )
     2.50011066E-03    2     1000024  -1000024   # BR(H -> ~chi_1+ ~chi_1-)
     2.21976878E-01    2     1000024  -1000037   # BR(H -> ~chi_1+ ~chi_2-)
     2.21976878E-01    2     1000037  -1000024   # BR(H -> ~chi_2+ ~chi_1-)
     1.25000430E-03    2     1000022   1000022   # BR(H -> ~chi_10 ~chi_10)
     6.42779836E-05    2     1000023   1000023   # BR(H -> ~chi_20 ~chi_20)
     1.33150758E-03    2     1000022   1000023   # BR(H -> ~chi_10 ~chi_20)
     1.16079412E-01    2     1000022   1000025   # BR(H -> ~chi_10 ~chi_30)
     1.04824046E-01    2     1000022   1000035   # BR(H -> ~chi_10 ~chi_40)
     1.03653138E-06    2     2000002  -2000002   # BR(H -> ~u_R    ~u_R*  )
     1.03653138E-06    2     2000004  -2000004   # BR(H -> ~c_R    ~c_R*  )
     1.81433434E-07    2     2000001  -2000001   # BR(H -> ~d_R    ~d_R*  )
     1.81433434E-07    2     2000003  -2000003   # BR(H -> ~s_R    ~s_R*  )
     3.73258050E-06    2     1000005  -1000005   # BR(H -> ~b_1    ~b_1*  )
     7.78059327E-07    2     2000011  -2000011   # BR(H -> ~e_R-   ~e_R+  )
     7.78059327E-07    2     2000013  -2000013   # BR(H -> ~mu_R-  ~mu_R+ )
     1.27753423E-07    2     1000015  -1000015   # BR(H -> ~tau_1- ~tau_1+)
     3.46508972E-06    2     1000016  -1000016   # BR(H -> ~nu_tauL ~nu_tauL*)
#
#         PDG            Width
DECAY        36     2.90289824E+01   # A decays
#          BR         NDA      ID1       ID2
     2.50102491E-01    2           5        -5   # BR(A -> b       bb     )
     5.14254161E-02    2         -15        15   # BR(A -> tau+    tau-   )
     1.81009057E-04    2         -13        13   # BR(A -> mu+     mu-    )
     8.42152934E-05    2           3        -3   # BR(A -> s       sb     )
     2.86236660E-07    2           4        -4   # BR(A -> c       cb     )
     2.81322175E-02    2           6        -6   # BR(A -> t       tb     )
     3.39872080E-05    2          21        21   # BR(A -> g       g      )
     2.52592323E-08    2          22        22   # BR(A -> gam     gam    )
     3.86975843E-08    2          23        22   # BR(A -> Z       gam    )
     5.98333542E-06    2          23        25   # BR(A -> Z       h      )
     2.52024345E-03    2     1000024  -1000024   # BR(A -> ~chi_1+ ~chi_1-)
     2.21888523E-01    2     1000024  -1000037   # BR(A -> ~chi_1+ ~chi_2-)
     2.21888523E-01    2     1000037  -1000024   # BR(A -> ~chi_2+ ~chi_1-)
     1.25999688E-03    2     1000022   1000022   # BR(A -> ~chi_10 ~chi_10)
     3.28100669E-04    2     1000023   1000023   # BR(A -> ~chi_20 ~chi_20)
     1.39053222E-03    2     1000022   1000023   # BR(A -> ~chi_10 ~chi_20)
     1.05576844E-01    2     1000022   1000025   # BR(A -> ~chi_10 ~chi_30)
     1.15181566E-01    2     1000022   1000035   # BR(A -> ~chi_10 ~chi_40)
#
#         PDG            Width
DECAY        37     2.79533186E+01   # H+ decays
#          BR         NDA      ID1       ID2
     3.73954966E-04    2           4        -5   # BR(H+ -> c       bb     )
     5.34212292E-02    2         -15        16   # BR(H+ -> tau+    nu_tau )
     1.88033992E-04    2         -13        14   # BR(H+ -> mu+     nu_mu  )
     3.73954215E-06    2           2        -5   # BR(H+ -> u       bb     )
     4.37687535E-06    2           2        -3   # BR(H+ -> u       sb     )
     8.64353889E-05    2           4        -3   # BR(H+ -> c       sb     )
     2.51036180E-01    2           6        -5   # BR(H+ -> t       bb     )
     6.22186028E-06    2          24        25   # BR(H+ -> W+      h      )
     1.25981984E-13    2          24        36   # BR(H+ -> W+      A      )
     2.59968397E-12    2     1000024   1000022   # BR(H+ -> ~chi_1+ ~chi_10)
     2.83426088E-03    2     1000024   1000023   # BR(H+ -> ~chi_1+ ~chi_20)
     2.31138945E-01    2     1000024   1000025   # BR(H+ -> ~chi_1+ ~chi_30)
     2.29447839E-01    2     1000024   1000035   # BR(H+ -> ~chi_1+ ~chi_40)
     2.31456234E-01    2     1000037   1000022   # BR(H+ -> ~chi_2+ ~chi_10)
     2.54955579E-06    2    -1000015   1000016   # BR(H+ -> ~tau_1+ ~nu_tauL)
