#
#                              ======================
#                              | THE SUSYHIT OUTPUT |
#                              ======================
#
#
#              ------------------------------------------------------
#              |     This is the output of the SUSY-HIT package     |
#              |  created by A.Djouadi, M.Muehlleitner and M.Spira. |
#              |  In case of problems with SUSY-HIT email to        |
#              |           margarete.muehlleitner@cern.ch           |
#              |           michael.spira@psi.ch                     |
#              |           abdelhak.djouadi@cern.ch                 |
#              ------------------------------------------------------
#
#              ------------------------------------------------------
#              |  SUSY Les Houches Accord - MSSM Spectrum + Decays  |
#              |              based on the decay programs           |
#              |                                                    |
#              |                     SDECAY 1.3b                    |
#              |                                                    |
#              |  Authors: M.Muhlleitner, A.Djouadi and Y.Mambrini  |
#              |  Ref.:    Comput.Phys.Commun.168(2005)46           |
#              |           [hep-ph/0311167]                         |
#              |                                                    |
#              |                     HDECAY 3.4                     |
#              |                                                    |
#              |  By: A.Djouadi,J.Kalinowski,M.Muhlleitner,M.Spira  |
#              |  Ref.:    Comput.Phys.Commun.108(1998)56           |
#              |           [hep-ph/9704448]                         |
#              |                                                    |
#              |                                                    |
#              |  If not stated otherwise all DRbar couplings and   |
#              |  soft SUSY breaking masses are given at the scale  |
#              |  Q=  0.20760640E+04
#              |                                                    |
#              ------------------------------------------------------
#
#
BLOCK DCINFO  # Decay Program information
     1   SDECAY/HDECAY # decay calculator
     2   1.3b  /3.4    # version number
#
BLOCK SPINFO  # Spectrum calculator information
     1     SOFTSUSY    # spectrum calculator               
     2     3.4.0       # version number                    
#
BLOCK MODSEL  # Model selection
     1     0   #  nonUniversal                                     
#
BLOCK SMINPUTS  # Standard Model inputs
         1     1.27908970E+02   # alpha_em^-1(M_Z)^MSbar
         2     1.16637870E-05   # G_F [GeV^-2]
         3     1.18400000E-01   # alpha_S(M_Z)^MSbar
         4     9.11876000E+01   # M_Z pole mass
         5     4.18000000E+00   # mb(mb)^MSbar
         6     1.73200000E+02   # mt pole mass
         7     1.77700000E+00   # mtau pole mass
#
BLOCK MINPAR  # Input parameters - minimal models
         3     5.87900000E+01   # tanb                
#
BLOCK EXTPAR  # Input parameters - non-minimal models
         0    -1.00000000E+00   # Set                 
         1     3.33676000E+03   # M_1(MX)             
         2    -4.02440000E+02   # M_2(MX)             
         3     1.11611000E+03   # M_3(MX)             
        11    -2.72725000E+03   # At(MX)              
        12     1.82173000E+03   # Ab(MX)              
        13     6.40410000E+02   # Atau(MX)            
        23     1.91241000E+03   # mu(MX)              
        26     3.54428000E+03   # mA(pole)            
        31     3.41005000E+03   # meL(MX)             
        32     3.41005000E+03   # mmuL(MX)            
        33     2.50622000E+03   # mtauL(MX)           
        34     1.03431000E+03   # meR(MX)             
        35     1.03431000E+03   # mmuR(MX)            
        36     3.37414000E+03   # mtauR(MX)           
        41     3.77363000E+03   # mqL1(MX)            
        42     3.77363000E+03   # mqL2(MX)            
        43     2.15524000E+03   # mqL3(MX)            
        44     1.88711000E+03   # muR(MX)             
        45     1.88711000E+03   # mcR(MX)             
        46     1.99956000E+03   # mtR(MX)             
        47     3.36428000E+03   # mdR(MX)             
        48     3.36428000E+03   # msR(MX)             
        49     5.78320000E+02   # mbR(MX)             
#
BLOCK MASS  # Mass Spectrum
# PDG code           mass       particle
        24     8.03859995E+01   # W+
        25     1.25286421E+02   # h
        35     3.54415289E+03   # H
        36     3.54428007E+03   # A
        37     3.54533634E+03   # H+
         5     4.81876030E+00   # b-quark pole mass calculated from mb(mb)_Msbar
   1000001     3.81467595E+03   # ~d_L
   2000001     3.39773751E+03   # ~d_R
   1000002     3.81396325E+03   # ~u_L
   2000002     1.92208729E+03   # ~u_R
   1000003     3.81467595E+03   # ~s_L
   2000003     3.39773751E+03   # ~s_R
   1000004     3.81396325E+03   # ~c_L
   2000004     1.92208729E+03   # ~c_R
   1000005     6.86577154E+02   # ~b_1
   2000005     2.17437873E+03   # ~b_2
   1000006     1.97014852E+03   # ~t_1
   2000006     2.21782612E+03   # ~t_2
   1000011     3.41628529E+03   # ~e_L
   2000011     1.04913346E+03   # ~e_R
   1000012     3.41502064E+03   # ~nu_eL
   1000013     3.41628529E+03   # ~mu_L
   2000013     1.04913346E+03   # ~mu_R
   1000014     3.41502064E+03   # ~nu_muL
   1000015     2.50858398E+03   # ~tau_1
   2000015     3.37362162E+03   # ~tau_2
   1000016     2.50835257E+03   # ~nu_tauL
   1000021     1.30059572E+03   # ~g
   1000022    -4.32050608E+02   # ~chi_10
   1000023     1.91665947E+03   # ~chi_20
   1000025    -1.91886269E+03   # ~chi_30
   1000035     3.30764855E+03   # ~chi_40
   1000024     4.32214989E+02   # ~chi_1+
   1000037     1.91997550E+03   # ~chi_2+
#
BLOCK NMIX  # Neutralino Mixing Matrix
  1  1     8.18926099E-05   # N_11
  1  2     9.99043899E-01   # N_12
  1  3    -4.28631565E-02   # N_13
  1  4    -8.60409863E-03   # N_14
  2  1    -2.29323309E-02   # N_21
  2  2    -2.42284313E-02   # N_22
  2  3    -7.06631905E-01   # N_23
  2  4     7.06794484E-01   # N_24
  3  1    -5.88292476E-03   # N_31
  3  2     3.63880638E-02   # N_32
  3  3     7.06179080E-01   # N_33
  3  4     7.07073127E-01   # N_34
  4  1     9.99719707E-01   # N_41
  4  2    -4.23479173E-04   # N_42
  4  3    -1.20501857E-02   # N_43
  4  4     2.03745184E-02   # N_44
#
BLOCK UMIX  # Chargino Mixing Matrix U
  1  1     9.98164196E-01   # U_11
  1  2    -6.05659870E-02   # U_12
  2  1     6.05659870E-02   # U_21
  2  2     9.98164196E-01   # U_22
#
BLOCK VMIX  # Chargino Mixing Matrix V
  1  1    -9.99926188E-01   # V_11
  1  2    -1.21498324E-02   # V_12
  2  1    -1.21498324E-02   # V_21
  2  2     9.99926188E-01   # V_22
#
BLOCK STOPMIX  # Stop Mixing Matrix
  1  1     4.20244835E-01   # cos(theta_t)
  1  2     9.07410755E-01   # sin(theta_t)
  2  1    -9.07410755E-01   # -sin(theta_t)
  2  2     4.20244835E-01   # cos(theta_t)
#
BLOCK SBOTMIX  # Sbottom Mixing Matrix
  1  1     3.68583998E-02   # cos(theta_b)
  1  2     9.99320498E-01   # sin(theta_b)
  2  1    -9.99320498E-01   # -sin(theta_b)
  2  2     3.68583998E-02   # cos(theta_b)
#
BLOCK STAUMIX  # Stau Mixing Matrix
  1  1     9.99344361E-01   # cos(theta_tau)
  1  2     3.62056368E-02   # sin(theta_tau)
  2  1    -3.62056368E-02   # -sin(theta_tau)
  2  2     9.99344361E-01   # cos(theta_tau)
#
BLOCK ALPHA  # Higgs mixing
          -1.73893023E-02   # Mixing angle in the neutral Higgs boson sector
#
BLOCK HMIX Q=  2.07606400E+03  # DRbar Higgs Parameters
         1     1.91642078E+03   # mu(Q)MSSM           
         2     5.74926611E+01   # tan                 
         3     2.42863157E+02   # higgs               
         4     1.28319565E+07   # mA^2(Q)MSSM         
#
BLOCK GAUGE Q=  2.07606400E+03  # The gauge couplings
     1     3.63814464E-01   # gprime(Q) DRbar
     2     6.38377344E-01   # g(Q) DRbar
     3     1.03426689E+00   # g3(Q) DRbar
#
BLOCK AU Q=  2.07606400E+03  # The trilinear couplings
  1  1     0.00000000E+00   # A_u(Q) DRbar
  2  2     0.00000000E+00   # A_c(Q) DRbar
  3  3    -2.72725000E+03   # A_t(Q) DRbar
#
BLOCK AD Q=  2.07606400E+03  # The trilinear couplings
  1  1     0.00000000E+00   # A_d(Q) DRbar
  2  2     0.00000000E+00   # A_s(Q) DRbar
  3  3     1.82173000E+03   # A_b(Q) DRbar
#
BLOCK AE Q=  2.07606400E+03  # The trilinear couplings
  1  1     0.00000000E+00   # A_e(Q) DRbar
  2  2     0.00000000E+00   # A_mu(Q) DRbar
  3  3     6.40410001E+02   # A_tau(Q) DRbar
#
BLOCK Yu Q=  2.07606400E+03  # The Yukawa couplings
  1  1     0.00000000E+00   # y_u(Q) DRbar
  2  2     0.00000000E+00   # y_c(Q) DRbar
  3  3     8.30629599E-01   # y_t(Q) DRbar
#
BLOCK Yd Q=  2.07606400E+03  # The Yukawa couplings
  1  1     0.00000000E+00   # y_d(Q) DRbar
  2  2     0.00000000E+00   # y_s(Q) DRbar
  3  3     4.86845354E-01   # y_b(Q) DRbar
#
BLOCK Ye Q=  2.07606400E+03  # The Yukawa couplings
  1  1     0.00000000E+00   # y_e(Q) DRbar
  2  2     0.00000000E+00   # y_mu(Q) DRbar
  3  3     5.62148369E-01   # y_tau(Q) DRbar
#
BLOCK MSOFT Q=  2.07606400E+03  # The soft SUSY breaking masses at the scale Q
         1     3.33676000E+03   # M_1(Q)              
         2    -4.02440000E+02   # M_2(Q)              
         3     1.11611000E+03   # M_3(Q)              
        21     9.40599656E+06   # mH1^2(Q)            
        22    -3.59590994E+06   # mH2^2(Q)            
        31     3.41005000E+03   # meL(Q)              
        32     3.41005000E+03   # mmuL(Q)             
        33     2.50622000E+03   # mtauL(Q)            
        34     1.03431000E+03   # meR(Q)              
        35     1.03431000E+03   # mmuR(Q)             
        36     3.37414000E+03   # mtauR(Q)            
        41     3.77363000E+03   # mqL1(Q)             
        42     3.77363000E+03   # mqL2(Q)             
        43     2.15524000E+03   # mqL3(Q)             
        44     1.88711000E+03   # muR(Q)              
        45     1.88711000E+03   # mcR(Q)              
        46     1.99955999E+03   # mtR(Q)              
        47     3.36428000E+03   # mdR(Q)              
        48     3.36428000E+03   # msR(Q)              
        49     5.78319996E+02   # mbR(Q)              
#
Block HiggsBoundsInputHiggsCouplingsFermions
# ScalarNormEffCoupSq PseudoSNormEffCoupSq NP   IP1 IP2 IP2
    9.99716201E-01    0.00000000E+00        3  25   5   5  # h0-b-b eff. coupling^2, normalised to SM
    3.30540636E+03    0.00000000E+00        3  35   5   5  # H0-b-b eff. coupling^2, normalised to SM
    0.00000000E+00    3.30540608E+03        3  36   5   5  # A0-b-b eff. coupling^2, normalised to SM
#
    1.00000009E+00    0.00000000E+00        3  25   6   6  # h0-t-t eff. coupling^2, normalised to SM
    3.02448830E-04    0.00000000E+00        3  35   6   6  # H0-t-t eff. coupling^2, normalised to SM
    0.00000000E+00    3.02534689E-04        3  36   6   6  # A0-t-t eff. coupling^2, normalised to SM
#
    9.99716201E-01    0.00000000E+00        3  25  15  15  # h0-tau-tau eff. coupling^2, normalised to SM
    3.30540636E+03    0.00000000E+00        3  35  15  15  # H0-tau-tau eff. coupling^2, normalised to SM
    0.00000000E+00    3.30540608E+03        3  36  15  15  # A0-tau-tau eff. coupling^2, normalised to SM
#
Block HiggsBoundsInputHiggsCouplingsBosons
    1.00000000E+00        3  25  24  24  # h0-W-W eff. coupling^2, normalised to SM
    6.09253670E-12        3  35  24  24  # H0-W-W eff. coupling^2, normalised to SM
    0.00000000E+00        3  36  24  24  # A0-W-W eff. coupling^2, normalised to SM
#
    1.00000000E+00        3  25  23  23  # h0-Z-Z eff. coupling^2, normalised to SM
    6.09253670E-12        3  35  23  23  # H0-Z-Z eff. coupling^2, normalised to SM
    0.00000000E+00        3  36  23  23  # A0-Z-Z eff. coupling^2, normalised to SM
#
    8.61712902E-01        3  25  21  21  # h0-g-g eff. coupling^2, normalised to SM
    6.01152667E-12        3  35  21  21  # H0-g-g eff. coupling^2, normalised to SM
    2.68186098E-12        3  36  21  21  # A0-g-g eff. coupling^2, normalised to SM
#
    0.00000000E+00        3  25  25  23  # h0-h0-Z eff. coupling^2, normalised to SM
    0.00000000E+00        3  35  25  23  # H0-h0-Z eff. coupling^2, normalised to SM
    6.09253670E-12        3  36  25  23  # A0-h0-Z eff. coupling^2, normalised to SM
    0.00000000E+00        3  35  35  23  # H0-H0-Z eff. coupling^2, normalised to SM
    1.00000000E+00        3  36  35  23  # A0-H0-Z eff. coupling^2, normalised to SM
    0.00000000E+00        3  36  36  23  # A0-A0-Z eff. coupling^2, normalised to SM
#
    0.00000000E+00        4  25  21  21  23  # h0-g-g-Z eff. coupling^2, normalised to SM
    0.00000000E+00        4  35  21  21  23  # H0-g-g-Z eff. coupling^2, normalised to SM
    0.00000000E+00        4  36  21  21  23  # A0-g-g-Z eff. coupling^2, normalised to SM
#
#
#
#                             =================
#                             |The decay table|
#                             =================
#
# - The QCD corrections to the decays gluino -> squark  + quark
#                                     squark -> gaugino + quark_prime
#                                     squark -> squark_prime + Higgs
#                                     squark -> gluino  + quark
#   are included.
#
# - The multi-body decays for the inos, stops and sbottoms are included.
#
# - The loop induced decays for the gluino, neutralinos and stops
#   are included.
#
# - The SUSY decays of the top quark are included.
#
#
#         PDG            Width
DECAY         6     1.43541888E+00   # top decays
#          BR         NDA      ID1       ID2
     1.00000000E+00    2           5        24   # BR(t ->  b    W+)
#
#         PDG            Width
DECAY   1000021     1.56853264E+01   # gluino decays
#          BR         NDA      ID1       ID2
     5.00000000E-01    2     1000005        -5   # BR(~g -> ~b_1  bb)
     5.00000000E-01    2    -1000005         5   # BR(~g -> ~b_1* b )
#
#         PDG            Width
DECAY   1000006     4.36374335E+01   # stop1 decays
#          BR         NDA      ID1       ID2
     2.67743281E-02    2     1000022         6   # BR(~t_1 -> ~chi_10 t )
     5.47628288E-02    2     1000024         5   # BR(~t_1 -> ~chi_1+ b )
     1.32305391E-03    2     1000037         5   # BR(~t_1 -> ~chi_2+ b )
     8.99383209E-01    2     1000021         6   # BR(~t_1 -> ~g      t )
     1.77565804E-02    2     1000005        24   # BR(~t_1 -> ~b_1    W+)
#
#         PDG            Width
DECAY   2000006     8.14985617E+01   # stop2 decays
#          BR         NDA      ID1       ID2
     8.39650923E-02    2     1000022         6   # BR(~t_2 -> ~chi_10 t )
     1.37425363E-02    2     1000023         6   # BR(~t_2 -> ~chi_20 t )
     5.46372292E-03    2     1000025         6   # BR(~t_2 -> ~chi_30 t )
     1.70944403E-01    2     1000024         5   # BR(~t_2 -> ~chi_1+ b )
     1.07367282E-02    2     1000037         5   # BR(~t_2 -> ~chi_2+ b )
     5.76554763E-01    2     1000021         6   # BR(~t_2 -> ~g      t )
     2.21855278E-02    2     1000006        25   # BR(~t_2 -> ~t_1    h )
     4.73429015E-02    2     1000006        23   # BR(~t_2 -> ~t_1    Z )
     6.90643249E-02    2     1000005        24   # BR(~t_2 -> ~b_1    W+)
#
#         PDG            Width
DECAY   1000005     1.59639461E-02   # sbottom1 decays
#          BR         NDA      ID1       ID2
     4.38696545E-01    2     1000022         5   # BR(~b_1 -> ~chi_10 b )
     5.61303455E-01    2    -1000024         6   # BR(~b_1 -> ~chi_1- t )
#
#         PDG            Width
DECAY   2000005     8.82511396E+01   # sbottom2 decays
#          BR         NDA      ID1       ID2
     9.17332662E-02    2     1000022         5   # BR(~b_2 -> ~chi_10 b )
     2.89577097E-03    2     1000023         5   # BR(~b_2 -> ~chi_20 b )
     2.84379031E-03    2     1000025         5   # BR(~b_2 -> ~chi_30 b )
     1.80081572E-01    2    -1000024         6   # BR(~b_2 -> ~chi_1- t )
     1.27465342E-02    2    -1000037         6   # BR(~b_2 -> ~chi_2- t )
     5.76509161E-01    2     1000021         5   # BR(~b_2 -> ~g      b )
     3.87942233E-02    2     1000005        25   # BR(~b_2 -> ~b_1    h )
     3.69753618E-02    2     1000005        23   # BR(~b_2 -> ~b_1    Z )
     5.74203197E-02    2     1000006       -24   # BR(~b_2 -> ~t_1    W-)
#
#         PDG            Width
DECAY   1000002     2.49781914E+02   # sup_L decays
#          BR         NDA      ID1       ID2
     5.83045542E-02    2     1000022         2   # BR(~u_L -> ~chi_10 u)
     2.74100444E-05    2     1000023         2   # BR(~u_L -> ~chi_20 u)
     4.16666475E-05    2     1000025         2   # BR(~u_L -> ~chi_30 u)
     1.35842399E-04    2     1000035         2   # BR(~u_L -> ~chi_40 u)
     1.16809242E-01    2     1000024         1   # BR(~u_L -> ~chi_1+ d)
     9.88088588E-06    2     1000037         1   # BR(~u_L -> ~chi_2+ d)
     8.24671403E-01    2     1000021         2   # BR(~u_L -> ~g      u)
#
#         PDG            Width
DECAY   2000002     3.90687394E+01   # sup_R decays
#          BR         NDA      ID1       ID2
     6.67343392E-10    2     1000022         2   # BR(~u_R -> ~chi_10 u)
     2.26815751E-09    2     1000023         2   # BR(~u_R -> ~chi_20 u)
     5.39839935E-11    2     1000025         2   # BR(~u_R -> ~chi_30 u)
     9.99999997E-01    2     1000021         2   # BR(~u_R -> ~g      u)
#
#         PDG            Width
DECAY   1000001     2.49802762E+02   # sdown_L decays
#          BR         NDA      ID1       ID2
     5.83075910E-02    2     1000022         1   # BR(~d_L -> ~chi_10 d)
     1.32518321E-05    2     1000023         1   # BR(~d_L -> ~chi_20 d)
     4.71316878E-05    2     1000025         1   # BR(~d_L -> ~chi_30 d)
     1.37379292E-04    2     1000035         1   # BR(~d_L -> ~chi_40 d)
     1.16411255E-01    2    -1000024         2   # BR(~d_L -> ~chi_1- u)
     2.45622188E-04    2    -1000037         2   # BR(~d_L -> ~chi_2- u)
     8.24837769E-01    2     1000021         1   # BR(~d_L -> ~g      d)
#
#         PDG            Width
DECAY   2000001     1.71171993E+02   # sdown_R decays
#          BR         NDA      ID1       ID2
     7.29530901E-11    2     1000022         1   # BR(~d_R -> ~chi_10 d)
     2.75668625E-06    2     1000023         1   # BR(~d_R -> ~chi_20 d)
     1.81029963E-07    2     1000025         1   # BR(~d_R -> ~chi_30 d)
     3.36834799E-05    2     1000035         1   # BR(~d_R -> ~chi_40 d)
     9.99963379E-01    2     1000021         1   # BR(~d_R -> ~g      d)
#
#         PDG            Width
DECAY   1000004     2.14250256E+02   # scharm_L decays
#          BR         NDA      ID1       ID2
     7.01898501E-02    2     1000022         4   # BR(~c_L -> ~chi_10 c)
     3.29422383E-05    2     1000023         4   # BR(~c_L -> ~chi_20 c)
     5.00759351E-05    2     1000025         4   # BR(~c_L -> ~chi_30 c)
     1.59213325E-04    2     1000035         4   # BR(~c_L -> ~chi_40 c)
     1.40620643E-01    2     1000024         3   # BR(~c_L -> ~chi_1+ s)
     1.18750433E-05    2     1000037         3   # BR(~c_L -> ~chi_2+ s)
     7.88935400E-01    2     1000021         4   # BR(~c_L -> ~g      c)
#
#         PDG            Width
DECAY   2000004     3.20589262E+01   # scharm_R decays
#          BR         NDA      ID1       ID2
     8.48430053E-10    2     1000022         4   # BR(~c_R -> ~chi_10 c)
     2.24313827E-09    2     1000023         4   # BR(~c_R -> ~chi_20 c)
     4.73928510E-11    2     1000025         4   # BR(~c_R -> ~chi_30 c)
     9.99999997E-01    2     1000021         4   # BR(~c_R -> ~g      c)
#
#         PDG            Width
DECAY   1000003     2.14259239E+02   # sstrange_L decays
#          BR         NDA      ID1       ID2
     7.01963577E-02    2     1000022         3   # BR(~s_L -> ~chi_10 s)
     1.59271460E-05    2     1000023         3   # BR(~s_L -> ~chi_20 s)
     5.66463816E-05    2     1000025         3   # BR(~s_L -> ~chi_30 s)
     1.61028438E-04    2     1000035         3   # BR(~s_L -> ~chi_40 s)
     1.40147147E-01    2    -1000024         4   # BR(~s_L -> ~chi_1- c)
     2.95205986E-04    2    -1000037         4   # BR(~s_L -> ~chi_2- c)
     7.89127687E-01    2     1000021         3   # BR(~s_L -> ~g      s)
#
#         PDG            Width
DECAY   2000003     1.40461173E+02   # sstrange_R decays
#          BR         NDA      ID1       ID2
     9.18842987E-11    2     1000022         3   # BR(~s_R -> ~chi_10 s)
     3.46028649E-06    2     1000023         3   # BR(~s_R -> ~chi_20 s)
     2.27231853E-07    2     1000025         3   # BR(~s_R -> ~chi_30 s)
     3.87345946E-05    2     1000035         3   # BR(~s_R -> ~chi_40 s)
     9.99957578E-01    2     1000021         3   # BR(~s_R -> ~g      s)
#
#         PDG            Width
DECAY   1000011     4.01856085E+01   # selectron_L decays
#          BR         NDA      ID1       ID2
     3.33076313E-01    2     1000022        11   # BR(~e_L -> ~chi_10 e-)
     2.25105349E-04    2     1000023        11   # BR(~e_L -> ~chi_20 e-)
     1.76222683E-04    2     1000025        11   # BR(~e_L -> ~chi_30 e-)
     4.37560495E-04    2     1000035        11   # BR(~e_L -> ~chi_40 e-)
     6.64901411E-01    2    -1000024        12   # BR(~e_L -> ~chi_1- nu_e)
     1.18338718E-03    2    -1000037        12   # BR(~e_L -> ~chi_2- nu_e)
#
#         PDG            Width
DECAY   2000011     8.00510027E-07   # selectron_R decays
#           BR         NDA      ID1       ID2
     3.19194587E-02    2     1000022        11   # BR(~e_R -> ~chi_10 e-)
#           BR         NDA      ID1       ID2       ID3
     7.20790472E-02    3        11       -5        1000005   # BR(~e_R- -> e-  bb  ~b_1)
     8.85960171E-01    3        11       5        -1000005   # BR(~e_R- -> e-  b  ~b_1*)
     1.14970452E-03    3        11       23        1000022   # BR(~e_R- -> e-  Z  ~chi_10)
     2.36824017E-03    3        11       25        1000022   # BR(~e_R- -> e-  h  ~chi_10)
     6.17069098E-03    3        11       -24        1000024   # BR(~e_R- -> e-  W-  ~chi_1+)
     3.52687650E-04    3        11       24        -1000024   # BR(~e_R- -> e-  W+  ~chi_1-)
#
#         PDG            Width
DECAY   1000013     4.01856085E+01   # smuon_L decays
#          BR         NDA      ID1       ID2
     3.33076313E-01    2     1000022        13   # BR(~mu_L -> ~chi_10 mu-)
     2.25105349E-04    2     1000023        13   # BR(~mu_L -> ~chi_20 mu-)
     1.76222683E-04    2     1000025        13   # BR(~mu_L -> ~chi_30 mu-)
     4.37560282E-04    2     1000035        13   # BR(~mu_L -> ~chi_40 mu-)
     6.64901412E-01    2    -1000024        14   # BR(~mu_L -> ~chi_1- nu_mu)
     1.18338718E-03    2    -1000037        14   # BR(~mu_L -> ~chi_2- nu_mu)
#
#         PDG            Width
DECAY   2000013     7.95949966E-07   # smuon_R decays
#           BR         NDA      ID1       ID2
     3.21023268E-02    2     1000022        13   # BR(~mu_R -> ~chi_10 mu-)
#           BR         NDA      ID1       ID2       ID3
     7.24643539E-02    3        13       -5        1000005   # BR(~mu_R- -> mu-  bb  ~b_1)
     8.85332031E-01    3        13       5        -1000005   # BR(~mu_R- -> mu-  b  ~b_1*)
     1.15885425E-03    3        13       23        1000022   # BR(~mu_R- -> mu-  Z  ~chi_10)
     2.37904401E-03    3        13       25        1000022   # BR(~mu_R- -> mu-  h  ~chi_10)
     6.20868172E-03    3        13       -24        1000024   # BR(~mu_R- -> mu-  W-  ~chi_1+)
     3.54708226E-04    3        13       24        -1000024   # BR(~mu_R- -> mu-  W+  ~chi_1-)
#
#         PDG            Width
DECAY   1000015     3.14564292E+01   # stau_1 decays
#          BR         NDA      ID1       ID2
     3.05480548E-01    2     1000022        15   # BR(~tau_1 -> ~chi_10  tau-)
     4.34132685E-02    2     1000023        15   # BR(~tau_1 -> ~chi_20  tau-)
     4.29588118E-02    2     1000025        15   # BR(~tau_1 -> ~chi_30  tau-)
     6.08055980E-01    2    -1000024        16   # BR(~tau_1 -> ~chi_1-  nu_tau)
     9.13918152E-05    2    -1000037        16   # BR(~tau_1 -> ~chi_2-  nu_tau)
#
#         PDG            Width
DECAY   2000015     2.51554941E+01   # stau_2 decays
#          BR         NDA      ID1       ID2
     1.57240181E-04    2     1000022        15   # BR(~tau_2 -> ~chi_10  tau-)
     1.93435682E-01    2     1000023        15   # BR(~tau_2 -> ~chi_20  tau-)
     1.93041476E-01    2     1000025        15   # BR(~tau_2 -> ~chi_30  tau-)
     1.05775807E-03    2     1000035        15   # BR(~tau_2 -> ~chi_40  tau-)
     3.09734433E-04    2    -1000024        16   # BR(~tau_2 -> ~chi_1-  nu_tau)
     3.85415519E-01    2    -1000037        16   # BR(~tau_2 -> ~chi_2-  nu_tau)
     1.10758960E-01    2     1000016       -24   # BR(~tau_2 -> ~nu_tauL W-)
     5.91408136E-02    2     1000015        25   # BR(~tau_2 -> ~tau_1   h)
     5.66828165E-02    2     1000015        23   # BR(~tau_2 -> ~tau_1   Z)
#
#         PDG            Width
DECAY   1000012     4.02106070E+01   # snu_eL decays
#          BR         NDA      ID1       ID2
     3.32675837E-01    2     1000022        12   # BR(~nu_eL -> ~chi_10 nu_e)
     2.01168621E-05    2     1000023        12   # BR(~nu_eL -> ~chi_20 nu_e)
     2.54594472E-04    2     1000025        12   # BR(~nu_eL -> ~chi_30 nu_e)
     4.28753431E-04    2     1000035        12   # BR(~nu_eL -> ~chi_40 nu_e)
     6.66573156E-01    2     1000024        11   # BR(~nu_eL -> ~chi_1+ e-)
     4.75424822E-05    2     1000037        11   # BR(~nu_eL -> ~chi_2+ e-)
#
#         PDG            Width
DECAY   1000014     4.02106070E+01   # snu_muL decays
#          BR         NDA      ID1       ID2
     3.32675837E-01    2     1000022        14   # BR(~nu_muL -> ~chi_10 nu_mu)
     2.01168621E-05    2     1000023        14   # BR(~nu_muL -> ~chi_20 nu_mu)
     2.54594472E-04    2     1000025        14   # BR(~nu_muL -> ~chi_30 nu_mu)
     4.28753432E-04    2     1000035        14   # BR(~nu_muL -> ~chi_40 nu_mu)
     6.66573155E-01    2     1000024        13   # BR(~nu_muL -> ~chi_1+ mu-)
     4.75424820E-05    2     1000037        13   # BR(~nu_muL -> ~chi_2+ mu-)
#
#         PDG            Width
DECAY   1000016     3.14511148E+01   # snu_tauL decays
#          BR         NDA      ID1       ID2
     3.03792227E-01    2     1000022        16   # BR(~nu_tauL -> ~chi_10 nu_tau)
     6.97171805E-06    2     1000023        16   # BR(~nu_tauL -> ~chi_20 nu_tau)
     8.78496194E-05    2     1000025        16   # BR(~nu_tauL -> ~chi_30 nu_tau)
     6.10433971E-01    2     1000024        15   # BR(~nu_tauL -> ~chi_1+ tau-)
     8.56789807E-02    2     1000037        15   # BR(~nu_tauL -> ~chi_2+ tau-)
#
#         PDG            Width
DECAY   1000024     3.59152240E-15   # chargino1+ decays
#           BR         NDA      ID1       ID2       ID3
     1.95379810E-02    3     1000022       -11        12   # BR(~chi_1+ -> ~chi_10 e+   nu_e)
     2.20208340E-03    3     1000022       -13        14   # BR(~chi_1+ -> ~chi_10 mu+  nu_mu)
     9.78259940E-01    2     1000022       211             # BR(~chi_1+ -> ~chi_10 pi+)
#
#         PDG            Width
DECAY   1000037     2.15902814E+01   # chargino2+ decays
#          BR         NDA      ID1       ID2
     4.85968299E-01    2    -1000005         6   # BR(~chi_2+ -> ~b_1*    t )
     1.71958448E-01    2     1000024        23   # BR(~chi_2+ -> ~chi_1+  Z )
     1.67347800E-01    2     1000022        24   # BR(~chi_2+ -> ~chi_10  W+)
     1.74725453E-01    2     1000024        25   # BR(~chi_2+ -> ~chi_1+  h )
#
#         PDG            Width
DECAY   1000022     0.00000000E+00   # neutralino1 decays
#
#         PDG            Width
DECAY   1000023     2.11852180E+01   # neutralino2 decays
#          BR         NDA      ID1       ID2
     1.20992100E-01    2     1000022        23   # BR(~chi_20 -> ~chi_10   Z )
     1.70075498E-01    2     1000024       -24   # BR(~chi_20 -> ~chi_1+   W-)
     1.70075498E-01    2    -1000024        24   # BR(~chi_20 -> ~chi_1-   W+)
     5.32365708E-02    2     1000022        25   # BR(~chi_20 -> ~chi_10   h )
     2.42687254E-01    2     1000005        -5   # BR(~chi_20 -> ~b_1      bb)
     2.42687254E-01    2    -1000005         5   # BR(~chi_20 -> ~b_1*     b )
     6.14561445E-05    2     2000011       -11   # BR(~chi_20 -> ~e_R-     e+)
     6.14561445E-05    2    -2000011        11   # BR(~chi_20 -> ~e_R+     e-)
     6.14561445E-05    2     2000013       -13   # BR(~chi_20 -> ~mu_R-    mu+)
     6.14561445E-05    2    -2000013        13   # BR(~chi_20 -> ~mu_R+    mu-)
#
#         PDG            Width
DECAY   1000025     2.12798409E+01   # neutralino3 decays
#          BR         NDA      ID1       ID2
     5.38318391E-02    2     1000022        23   # BR(~chi_30 -> ~chi_10   Z )
     1.70093799E-01    2     1000024       -24   # BR(~chi_30 -> ~chi_1+   W-)
     1.70093799E-01    2    -1000024        24   # BR(~chi_30 -> ~chi_1-   W+)
     1.24338781E-01    2     1000022        25   # BR(~chi_30 -> ~chi_10   h )
     2.40812813E-01    2     1000005        -5   # BR(~chi_30 -> ~b_1      bb)
     2.40812813E-01    2    -1000005         5   # BR(~chi_30 -> ~b_1*     b )
     4.03897701E-06    2     2000011       -11   # BR(~chi_30 -> ~e_R-     e+)
     4.03897701E-06    2    -2000011        11   # BR(~chi_30 -> ~e_R+     e-)
     4.03897701E-06    2     2000013       -13   # BR(~chi_30 -> ~mu_R-    mu+)
     4.03897701E-06    2    -2000013        13   # BR(~chi_30 -> ~mu_R+    mu-)
#
#         PDG            Width
DECAY   1000035     7.23109930E+01   # neutralino4 decays
#          BR         NDA      ID1       ID2
     7.34078807E-05    2     1000022        23   # BR(~chi_40 -> ~chi_10   Z )
     1.65026509E-03    2     1000023        23   # BR(~chi_40 -> ~chi_20   Z )
     2.46340791E-02    2     1000025        23   # BR(~chi_40 -> ~chi_30   Z )
     1.09370994E-04    2     1000024       -24   # BR(~chi_40 -> ~chi_1+   W-)
     1.09370994E-04    2    -1000024        24   # BR(~chi_40 -> ~chi_1-   W+)
     2.55341091E-02    2     1000037       -24   # BR(~chi_40 -> ~chi_2+   W-)
     2.55341091E-02    2    -1000037        24   # BR(~chi_40 -> ~chi_2-   W+)
     4.30413076E-05    2     1000022        25   # BR(~chi_40 -> ~chi_10   h )
     2.57187521E-02    2     1000023        25   # BR(~chi_40 -> ~chi_20   h )
     1.67309986E-03    2     1000025        25   # BR(~chi_40 -> ~chi_30   h )
     6.83811178E-02    2     2000002        -2   # BR(~chi_40 -> ~u_R      ub)
     6.83811178E-02    2    -2000002         2   # BR(~chi_40 -> ~u_R*     u )
     6.83810925E-02    2     2000004        -4   # BR(~chi_40 -> ~c_R      cb)
     6.83810925E-02    2    -2000004         4   # BR(~chi_40 -> ~c_R*     c )
     5.09216641E-02    2     1000006        -6   # BR(~chi_40 -> ~t_1      tb)
     5.09216641E-02    2    -1000006         6   # BR(~chi_40 -> ~t_1*     t )
     1.42130395E-02    2     2000006        -6   # BR(~chi_40 -> ~t_2      tb)
     1.42130395E-02    2    -2000006         6   # BR(~chi_40 -> ~t_2*     t )
     3.66070367E-02    2     1000005        -5   # BR(~chi_40 -> ~b_1      bb)
     3.66070367E-02    2    -1000005         5   # BR(~chi_40 -> ~b_1*     b )
     3.32179251E-03    2     2000005        -5   # BR(~chi_40 -> ~b_2      bb)
     3.32179251E-03    2    -2000005         5   # BR(~chi_40 -> ~b_2*     b )
     9.73782193E-02    2     2000011       -11   # BR(~chi_40 -> ~e_R-     e+)
     9.73782193E-02    2    -2000011        11   # BR(~chi_40 -> ~e_R+     e-)
     9.73782193E-02    2     2000013       -13   # BR(~chi_40 -> ~mu_R-    mu+)
     9.73782193E-02    2    -2000013        13   # BR(~chi_40 -> ~mu_R+    mu-)
     5.43632611E-03    2     1000015       -15   # BR(~chi_40 -> ~tau_1-   tau+)
     5.43632611E-03    2    -1000015        15   # BR(~chi_40 -> ~tau_1+   tau-)
     5.44168961E-03    2     1000016       -16   # BR(~chi_40 -> ~nu_tau1  nu_taub)
     5.44168961E-03    2    -1000016        16   # BR(~chi_40 -> ~nu_tau1* nu_tau )
#
#         PDG            Width
DECAY        25     6.24389078E-03   # h decays
#          BR         NDA      ID1       ID2
     7.34702230E-01    2           5        -5   # BR(h -> b       bb     )
     4.15228833E-02    2         -15        15   # BR(h -> tau+    tau-   )
     1.46975110E-04    2         -13        13   # BR(h -> mu+     mu-    )
     1.60380464E-04    2           3        -3   # BR(h -> s       sb     )
     1.39158717E-02    2           4        -4   # BR(h -> c       cb     )
     5.06594531E-02    2          21        21   # BR(h -> g       g      )
     1.52412497E-03    2          22        22   # BR(h -> gam     gam    )
     1.02611762E-03    2          22        23   # BR(h -> Z       gam    )
     1.38930021E-01    2          24       -24   # BR(h -> W+      W-     )
     1.74119430E-02    2          23        23   # BR(h -> Z       Z      )
#
#         PDG            Width
DECAY        35     1.76149748E+02   # H decays
#          BR         NDA      ID1       ID2
     6.91087787E-01    2           5        -5   # BR(H -> b       bb     )
     1.44824995E-01    2         -15        15   # BR(H -> tau+    tau-   )
     5.07044502E-04    2         -13        13   # BR(H -> mu+     mu-    )
     2.27172695E-04    2           3        -3   # BR(H -> s       sb     )
     2.44303209E-09    2           4        -4   # BR(H -> c       cb     )
     2.40831045E-04    2           6        -6   # BR(H -> t       tb     )
     2.42194391E-05    2          21        21   # BR(H -> g       g      )
     2.60791623E-08    2          22        22   # BR(H -> gam     gam    )
     7.06125750E-09    2          23        22   # BR(H -> Z       gam    )
     4.95381763E-10    2          24       -24   # BR(H -> W+      W-     )
     2.47233301E-10    2          23        23   # BR(H -> Z       Z      )
     3.87992453E-08    2          25        25   # BR(H -> h       h      )
     5.74729909E-04    2     1000024  -1000024   # BR(H -> ~chi_1+ ~chi_1-)
     3.96606474E-02    2     1000024  -1000037   # BR(H -> ~chi_1+ ~chi_2-)
     3.96606474E-02    2     1000037  -1000024   # BR(H -> ~chi_2+ ~chi_1-)
     2.87348035E-04    2     1000022   1000022   # BR(H -> ~chi_10 ~chi_10)
     2.29790614E-02    2     1000022   1000023   # BR(H -> ~chi_10 ~chi_20)
     1.66388371E-02    2     1000022   1000025   # BR(H -> ~chi_10 ~chi_30)
     1.82898727E-04    2     1000005  -1000005   # BR(H -> ~b_1    ~b_1*  )
     2.15518457E-02    2     1000005  -2000005   # BR(H -> ~b_1    ~b_2*  )
     2.15518457E-02    2     2000005  -1000005   # BR(H -> ~b_2    ~b_1*  )
     7.03761449E-09    2     2000011  -2000011   # BR(H -> ~e_R-   ~e_R+  )
     7.03761449E-09    2     2000013  -2000013   # BR(H -> ~mu_R-  ~mu_R+ )
#
#         PDG            Width
DECAY        36     1.76157156E+02   # A decays
#          BR         NDA      ID1       ID2
     6.91049247E-01    2           5        -5   # BR(A -> b       bb     )
     1.44824235E-01    2         -15        15   # BR(A -> tau+    tau-   )
     5.07041334E-04    2         -13        13   # BR(A -> mu+     mu-    )
     2.27175021E-04    2           3        -3   # BR(A -> s       sb     )
     2.46638711E-09    2           4        -4   # BR(A -> c       cb     )
     2.42369258E-04    2           6        -6   # BR(A -> t       tb     )
     1.61783653E-05    2          21        21   # BR(A -> g       g      )
     2.57035130E-09    2          22        22   # BR(A -> gam     gam    )
     1.16952678E-08    2          23        22   # BR(A -> Z       gam    )
     5.02425533E-10    2          23        25   # BR(A -> Z       h      )
     6.02625834E-04    2     1000024  -1000024   # BR(A -> ~chi_1+ ~chi_1-)
     3.96446917E-02    2     1000024  -1000037   # BR(A -> ~chi_1+ ~chi_2-)
     3.96446917E-02    2     1000037  -1000024   # BR(A -> ~chi_2+ ~chi_1-)
     3.01270564E-04    2     1000022   1000022   # BR(A -> ~chi_10 ~chi_10)
     1.67587767E-02    2     1000022   1000023   # BR(A -> ~chi_10 ~chi_20)
     2.28333990E-02    2     1000022   1000025   # BR(A -> ~chi_10 ~chi_30)
     2.16741407E-02    2     1000005  -2000005   # BR(A -> ~b_1    ~b_2*  )
     2.16741407E-02    2    -1000005   2000005   # BR(A -> ~b_1*   ~b_2   )
#
#         PDG            Width
DECAY        37     1.72917265E+02   # H+ decays
#          BR         NDA      ID1       ID2
     4.75491290E-04    2           4        -5   # BR(H+ -> c       bb     )
     1.47581726E-01    2         -15        16   # BR(H+ -> tau+    nu_tau )
     5.16695533E-04    2         -13        14   # BR(H+ -> mu+     nu_mu  )
     4.75490882E-06    2           2        -5   # BR(H+ -> u       bb     )
     1.15821257E-05    2           2        -3   # BR(H+ -> u       sb     )
     2.27973818E-04    2           4        -3   # BR(H+ -> c       sb     )
     2.82840221E-01    2           6        -5   # BR(H+ -> t       bb     )
     5.12526458E-10    2          24        25   # BR(H+ -> W+      h      )
     1.00055780E-14    2          24        36   # BR(H+ -> W+      A      )
     1.58637737E-12    2     1000024   1000022   # BR(H+ -> ~chi_1+ ~chi_10)
     4.06875098E-02    2     1000024   1000023   # BR(H+ -> ~chi_1+ ~chi_20)
     4.05362691E-02    2     1000024   1000025   # BR(H+ -> ~chi_1+ ~chi_30)
     4.06643549E-02    2     1000037   1000022   # BR(H+ -> ~chi_2+ ~chi_10)
     1.38423678E-01    2     1000006  -1000005   # BR(H+ -> ~t_1    ~b_1*  )
     3.08029743E-01    2     2000006  -1000005   # BR(H+ -> ~t_2    ~b_1*  )
