#
#                              ======================
#                              | THE SUSYHIT OUTPUT |
#                              ======================
#
#
#              ------------------------------------------------------
#              |     This is the output of the SUSY-HIT package     |
#              |  created by A.Djouadi, M.Muehlleitner and M.Spira. |
#              |  In case of problems with SUSY-HIT email to        |
#              |           margarete.muehlleitner@cern.ch           |
#              |           michael.spira@psi.ch                     |
#              |           abdelhak.djouadi@cern.ch                 |
#              ------------------------------------------------------
#
#              ------------------------------------------------------
#              |  SUSY Les Houches Accord - MSSM Spectrum + Decays  |
#              |              based on the decay programs           |
#              |                                                    |
#              |                     SDECAY 1.3b                    |
#              |                                                    |
#              |  Authors: M.Muhlleitner, A.Djouadi and Y.Mambrini  |
#              |  Ref.:    Comput.Phys.Commun.168(2005)46           |
#              |           [hep-ph/0311167]                         |
#              |                                                    |
#              |                     HDECAY 3.4                     |
#              |                                                    |
#              |  By: A.Djouadi,J.Kalinowski,M.Muhlleitner,M.Spira  |
#              |  Ref.:    Comput.Phys.Commun.108(1998)56           |
#              |           [hep-ph/9704448]                         |
#              |                                                    |
#              |                                                    |
#              |  If not stated otherwise all DRbar couplings and   |
#              |  soft SUSY breaking masses are given at the scale  |
#              |  Q=  0.17972650E+04
#              |                                                    |
#              ------------------------------------------------------
#
#
BLOCK DCINFO  # Decay Program information
     1   SDECAY/HDECAY # decay calculator
     2   1.3b  /3.4    # version number
#
BLOCK SPINFO  # Spectrum calculator information
     1     SOFTSUSY    # spectrum calculator               
     2     3.4.0       # version number                    
#
BLOCK MODSEL  # Model selection
     1     0   #  nonUniversal                                     
#
BLOCK SMINPUTS  # Standard Model inputs
         1     1.27908970E+02   # alpha_em^-1(M_Z)^MSbar
         2     1.16637870E-05   # G_F [GeV^-2]
         3     1.18400000E-01   # alpha_S(M_Z)^MSbar
         4     9.11876000E+01   # M_Z pole mass
         5     4.18000000E+00   # mb(mb)^MSbar
         6     1.73200000E+02   # mt pole mass
         7     1.77700000E+00   # mtau pole mass
#
BLOCK MINPAR  # Input parameters - minimal models
         3     3.46400000E+01   # tanb                
#
BLOCK EXTPAR  # Input parameters - non-minimal models
         0    -1.00000000E+00   # Set                 
         1    -3.93061000E+03   # M_1(MX)             
         2     7.41160000E+02   # M_2(MX)             
         3     8.01800000E+02   # M_3(MX)             
        11    -2.46078000E+03   # At(MX)              
        12    -3.08838000E+03   # Ab(MX)              
        13    -3.12872000E+03   # Atau(MX)            
        23     1.35853000E+03   # mu(MX)              
        26     1.34268000E+03   # mA(pole)            
        31     2.09447000E+03   # meL(MX)             
        32     2.09447000E+03   # mmuL(MX)            
        33     2.48572000E+03   # mtauL(MX)           
        34     2.34650000E+03   # meR(MX)             
        35     2.34650000E+03   # mmuR(MX)            
        36     1.42615000E+03   # mtauR(MX)           
        41     2.41755000E+03   # mqL1(MX)            
        42     2.41755000E+03   # mqL2(MX)            
        43     1.30989000E+03   # mqL3(MX)            
        44     1.14302000E+03   # muR(MX)             
        45     1.14302000E+03   # mcR(MX)             
        46     2.46441000E+03   # mtR(MX)             
        47     1.05256000E+03   # mdR(MX)             
        48     1.05256000E+03   # msR(MX)             
        49     2.21222000E+03   # mbR(MX)             
#
BLOCK MASS  # Mass Spectrum
# PDG code           mass       particle
        24     8.03886951E+01   # W+
        25     1.24582572E+02   # h
        35     1.34266741E+03   # H
        36     1.34267999E+03   # A
        37     1.34525707E+03   # H+
         5     4.81876030E+00   # b-quark pole mass calculated from mb(mb)_Msbar
   1000001     2.44780533E+03   # ~d_L
   2000001     1.09058149E+03   # ~d_R
   1000002     2.44663262E+03   # ~u_L
   2000002     1.17337476E+03   # ~u_R
   1000003     2.44780533E+03   # ~s_L
   2000003     1.09058149E+03   # ~s_R
   1000004     2.44663262E+03   # ~c_L
   2000004     1.17337476E+03   # ~c_R
   1000005     1.34075315E+03   # ~b_1
   2000005     2.22609971E+03   # ~b_2
   1000006     1.33615545E+03   # ~t_1
   2000006     2.45995859E+03   # ~t_2
   1000011     2.09882100E+03   # ~e_L
   2000011     2.34771578E+03   # ~e_R
   1000012     2.09697731E+03   # ~nu_eL
   1000013     2.09882100E+03   # ~mu_L
   2000013     2.34771578E+03   # ~mu_R
   1000014     2.09697731E+03   # ~nu_muL
   1000015     1.42066527E+03   # ~tau_1
   2000015     2.48697758E+03   # ~tau_2
   1000016     2.48497699E+03   # ~nu_tauL
   1000021     9.41029450E+02   # ~g
   1000022     7.67897405E+02   # ~chi_10
   1000023    -1.38235516E+03   # ~chi_20
   1000025     1.38645338E+03   # ~chi_30
   1000035    -3.89977284E+03   # ~chi_40
   1000024     7.68071152E+02   # ~chi_1+
   1000037     1.38824939E+03   # ~chi_2+
#
BLOCK NMIX  # Neutralino Mixing Matrix
  1  1     4.68094586E-04   # N_11
  1  2     9.95361954E-01   # N_12
  1  3    -8.34842820E-02   # N_13
  1  4     4.77989168E-02   # N_14
  2  1     1.16506758E-02   # N_21
  2  2     2.52934155E-02   # N_22
  2  3     7.06512420E-01   # N_23
  2  4     7.07152533E-01   # N_24
  3  1    -5.91756589E-03   # N_31
  3  2     9.28158357E-02   # N_32
  3  3     7.02747680E-01   # N_33
  3  4    -7.05333894E-01   # N_34
  4  1     9.99914509E-01   # N_41
  4  2    -2.11383173E-04   # N_42
  4  3    -4.03405777E-03   # N_43
  4  4    -1.24361023E-02   # N_44
#
BLOCK UMIX  # Chargino Mixing Matrix U
  1  1     9.93037087E-01   # U_11
  1  2    -1.17802136E-01   # U_12
  2  1     1.17802136E-01   # U_21
  2  2     9.93037087E-01   # U_22
#
BLOCK VMIX  # Chargino Mixing Matrix V
  1  1     9.97722553E-01   # V_11
  1  2    -6.74515110E-02   # V_12
  2  1     6.74515110E-02   # V_21
  2  2     9.97722553E-01   # V_22
#
BLOCK STOPMIX  # Stop Mixing Matrix
  1  1     9.96253339E-01   # cos(theta_t)
  1  2     8.64828569E-02   # sin(theta_t)
  2  1    -8.64828569E-02   # -sin(theta_t)
  2  2     9.96253339E-01   # cos(theta_t)
#
BLOCK SBOTMIX  # Sbottom Mixing Matrix
  1  1     9.99435505E-01   # cos(theta_b)
  1  2     3.35957043E-02   # sin(theta_b)
  2  1    -3.35957043E-02   # -sin(theta_b)
  2  2     9.99435505E-01   # cos(theta_b)
#
BLOCK STAUMIX  # Stau Mixing Matrix
  1  1     2.18759670E-02   # cos(theta_tau)
  1  2     9.99760692E-01   # sin(theta_tau)
  2  1    -9.99760692E-01   # -sin(theta_tau)
  2  2     2.18759670E-02   # cos(theta_tau)
#
BLOCK ALPHA  # Higgs mixing
          -2.99255865E-02   # Mixing angle in the neutral Higgs boson sector
#
BLOCK HMIX Q=  1.79726500E+03  # DRbar Higgs Parameters
         1     1.37852513E+03   # mu(Q)MSSM           
         2     3.36558831E+01   # tan                 
         3     2.43173037E+02   # higgs               
         4     2.53232576E+06   # mA^2(Q)MSSM         
#
BLOCK GAUGE Q=  1.79726500E+03  # The gauge couplings
     1     3.63538204E-01   # gprime(Q) DRbar
     2     6.38694227E-01   # g(Q) DRbar
     3     1.04719338E+00   # g3(Q) DRbar
#
BLOCK AU Q=  1.79726500E+03  # The trilinear couplings
  1  1     0.00000000E+00   # A_u(Q) DRbar
  2  2     0.00000000E+00   # A_c(Q) DRbar
  3  3    -2.46078000E+03   # A_t(Q) DRbar
#
BLOCK AD Q=  1.79726500E+03  # The trilinear couplings
  1  1     0.00000000E+00   # A_d(Q) DRbar
  2  2     0.00000000E+00   # A_s(Q) DRbar
  3  3    -3.08838000E+03   # A_b(Q) DRbar
#
BLOCK AE Q=  1.79726500E+03  # The trilinear couplings
  1  1     0.00000000E+00   # A_e(Q) DRbar
  2  2     0.00000000E+00   # A_mu(Q) DRbar
  3  3    -3.12872000E+03   # A_tau(Q) DRbar
#
BLOCK Yu Q=  1.79726500E+03  # The Yukawa couplings
  1  1     0.00000000E+00   # y_u(Q) DRbar
  2  2     0.00000000E+00   # y_c(Q) DRbar
  3  3     8.34433210E-01   # y_t(Q) DRbar
#
BLOCK Yd Q=  1.79726500E+03  # The Yukawa couplings
  1  1     0.00000000E+00   # y_d(Q) DRbar
  2  2     0.00000000E+00   # y_s(Q) DRbar
  3  3     4.23860714E-01   # y_b(Q) DRbar
#
BLOCK Ye Q=  1.79726500E+03  # The Yukawa couplings
  1  1     0.00000000E+00   # y_e(Q) DRbar
  2  2     0.00000000E+00   # y_mu(Q) DRbar
  3  3     3.54222940E-01   # y_tau(Q) DRbar
#
BLOCK MSOFT Q=  1.79726500E+03  # The soft SUSY breaking masses at the scale Q
         1    -3.93061000E+03   # M_1(Q)              
         2     7.41160000E+02   # M_2(Q)              
         3     8.01800000E+02   # M_3(Q)              
        21    -7.33953928E+04   # mH1^2(Q)            
        22    -1.86884084E+06   # mH2^2(Q)            
        31     2.09447000E+03   # meL(Q)              
        32     2.09447000E+03   # mmuL(Q)             
        33     2.48572000E+03   # mtauL(Q)            
        34     2.34650000E+03   # meR(Q)              
        35     2.34650000E+03   # mmuR(Q)             
        36     1.42615000E+03   # mtauR(Q)            
        41     2.41755000E+03   # mqL1(Q)             
        42     2.41755000E+03   # mqL2(Q)             
        43     1.30989000E+03   # mqL3(Q)             
        44     1.14302000E+03   # muR(Q)              
        45     1.14302000E+03   # mcR(Q)              
        46     2.46441000E+03   # mtR(Q)              
        47     1.05256000E+03   # mdR(Q)              
        48     1.05256000E+03   # msR(Q)              
        49     2.21222000E+03   # mbR(Q)              
#
Block HiggsBoundsInputHiggsCouplingsFermions
# ScalarNormEffCoupSq PseudoSNormEffCoupSq NP   IP1 IP2 IP2
    1.01498802E+00    0.00000000E+00        3  25   5   5  # h0-b-b eff. coupling^2, normalised to SM
    1.13270348E+03    0.00000000E+00        3  35   5   5  # H0-b-b eff. coupling^2, normalised to SM
    0.00000000E+00    1.13271847E+03        3  36   5   5  # A0-b-b eff. coupling^2, normalised to SM
#
    9.99986768E-01    0.00000000E+00        3  25   6   6  # h0-t-t eff. coupling^2, normalised to SM
    8.96063804E-04    0.00000000E+00        3  35   6   6  # H0-t-t eff. coupling^2, normalised to SM
    0.00000000E+00    8.82831903E-04        3  36   6   6  # A0-t-t eff. coupling^2, normalised to SM
#
    1.01498802E+00    0.00000000E+00        3  25  15  15  # h0-tau-tau eff. coupling^2, normalised to SM
    1.13270348E+03    0.00000000E+00        3  35  15  15  # H0-tau-tau eff. coupling^2, normalised to SM
    0.00000000E+00    1.13271847E+03        3  36  15  15  # A0-tau-tau eff. coupling^2, normalised to SM
#
Block HiggsBoundsInputHiggsCouplingsBosons
    9.99999951E-01        3  25  24  24  # h0-W-W eff. coupling^2, normalised to SM
    4.92122117E-08        3  35  24  24  # H0-W-W eff. coupling^2, normalised to SM
    0.00000000E+00        3  36  24  24  # A0-W-W eff. coupling^2, normalised to SM
#
    9.99999951E-01        3  25  23  23  # h0-Z-Z eff. coupling^2, normalised to SM
    4.92122117E-08        3  35  23  23  # H0-Z-Z eff. coupling^2, normalised to SM
    0.00000000E+00        3  36  23  23  # A0-Z-Z eff. coupling^2, normalised to SM
#
    8.89946771E-01        3  25  21  21  # h0-g-g eff. coupling^2, normalised to SM
    6.81295227E-08        3  35  21  21  # H0-g-g eff. coupling^2, normalised to SM
    1.91585655E-07        3  36  21  21  # A0-g-g eff. coupling^2, normalised to SM
#
    0.00000000E+00        3  25  25  23  # h0-h0-Z eff. coupling^2, normalised to SM
    0.00000000E+00        3  35  25  23  # H0-h0-Z eff. coupling^2, normalised to SM
    4.92122117E-08        3  36  25  23  # A0-h0-Z eff. coupling^2, normalised to SM
    0.00000000E+00        3  35  35  23  # H0-H0-Z eff. coupling^2, normalised to SM
    9.99999951E-01        3  36  35  23  # A0-H0-Z eff. coupling^2, normalised to SM
    0.00000000E+00        3  36  36  23  # A0-A0-Z eff. coupling^2, normalised to SM
#
    0.00000000E+00        4  25  21  21  23  # h0-g-g-Z eff. coupling^2, normalised to SM
    0.00000000E+00        4  35  21  21  23  # H0-g-g-Z eff. coupling^2, normalised to SM
    0.00000000E+00        4  36  21  21  23  # A0-g-g-Z eff. coupling^2, normalised to SM
#
#
#
#                             =================
#                             |The decay table|
#                             =================
#
# - The QCD corrections to the decays gluino -> squark  + quark
#                                     squark -> gaugino + quark_prime
#                                     squark -> squark_prime + Higgs
#                                     squark -> gluino  + quark
#   are included.
#
# - The multi-body decays for the inos, stops and sbottoms are included.
#
# - The loop induced decays for the gluino, neutralinos and stops
#   are included.
#
# - The SUSY decays of the top quark are included.
#
#
#         PDG            Width
DECAY         6     1.43672403E+00   # top decays
#          BR         NDA      ID1       ID2
     1.00000000E+00    2           5        24   # BR(t ->  b    W+)
#
#         PDG            Width
DECAY   1000021     6.79220077E-06   # gluino decays
#          BR         NDA      ID1       ID2
     4.98256667E-03    2     1000022        21   # BR(~g -> ~chi_10 g)
#           BR         NDA      ID1       ID2       ID3
     2.74823367E-02    3     1000022         1        -1   # BR(~g -> ~chi_10 d  db)
     2.75523792E-02    3     1000022         2        -2   # BR(~g -> ~chi_10 u  ub)
     2.74823367E-02    3     1000022         3        -3   # BR(~g -> ~chi_10 s  sb)
     2.75523792E-02    3     1000022         4        -4   # BR(~g -> ~chi_10 c  cb)
     6.65821658E-01    3     1000022         5        -5   # BR(~g -> ~chi_10 b  bb)
     5.47815858E-02    3     1000024         1        -2   # BR(~g -> ~chi_1+ d  ub)
     5.47815858E-02    3    -1000024         2        -1   # BR(~g -> ~chi_1- u  db)
     5.47815858E-02    3     1000024         3        -4   # BR(~g -> ~chi_1+ s  cb)
     5.47815858E-02    3    -1000024         4        -3   # BR(~g -> ~chi_1- c  sb)
#
#         PDG            Width
DECAY   1000006     2.52859738E+01   # stop1 decays
#          BR         NDA      ID1       ID2
     8.59974244E-02    2     1000022         6   # BR(~t_1 -> ~chi_10 t )
     1.93841380E-01    2     1000024         5   # BR(~t_1 -> ~chi_1+ b )
     7.20161195E-01    2     1000021         6   # BR(~t_1 -> ~g      t )
#
#         PDG            Width
DECAY   2000006     1.81548423E+02   # stop2 decays
#          BR         NDA      ID1       ID2
     3.05007708E-06    2     1000022         6   # BR(~t_2 -> ~chi_10 t )
     4.19786806E-02    2     1000023         6   # BR(~t_2 -> ~chi_20 t )
     4.39931104E-02    2     1000025         6   # BR(~t_2 -> ~chi_30 t )
     4.30023683E-06    2     1000024         5   # BR(~t_2 -> ~chi_1+ b )
     8.70972697E-02    2     1000037         5   # BR(~t_2 -> ~chi_2+ b )
     5.60468025E-01    2     1000021         6   # BR(~t_2 -> ~g      t )
     6.58175395E-02    2     1000006        25   # BR(~t_2 -> ~t_1    h )
     6.81550345E-02    2     1000006        23   # BR(~t_2 -> ~t_1    Z )
     1.32480854E-01    2     1000005        24   # BR(~t_2 -> ~b_1    W+)
     2.13659942E-06    2     2000005        24   # BR(~t_2 -> ~b_2    W+)
#
#         PDG            Width
DECAY   1000005     2.69081413E+01   # sbottom1 decays
#          BR         NDA      ID1       ID2
     9.12796096E-02    2     1000022         5   # BR(~b_1 -> ~chi_10 b )
     1.62035919E-01    2    -1000024         6   # BR(~b_1 -> ~chi_1- t )
     7.46684471E-01    2     1000021         5   # BR(~b_1 -> ~g      b )
#
#         PDG            Width
DECAY   2000005     9.74346421E+01   # sbottom2 decays
#          BR         NDA      ID1       ID2
     1.45476122E-04    2     1000022         5   # BR(~b_2 -> ~chi_10 b )
     1.54120433E-02    2     1000023         5   # BR(~b_2 -> ~chi_20 b )
     1.52625301E-02    2     1000025         5   # BR(~b_2 -> ~chi_30 b )
     2.87505525E-04    2    -1000024         6   # BR(~b_2 -> ~chi_1- t )
     3.01664835E-02    2    -1000037         6   # BR(~b_2 -> ~chi_2- t )
     8.96436825E-01    2     1000021         5   # BR(~b_2 -> ~g      b )
     1.12178995E-02    2     1000005        25   # BR(~b_2 -> ~b_1    h )
     1.04909978E-02    2     1000005        23   # BR(~b_2 -> ~b_1    Z )
     2.05802392E-02    2     1000006       -24   # BR(~b_2 -> ~t_1    W-)
#
#         PDG            Width
DECAY   1000002     1.57787501E+02   # sup_L decays
#          BR         NDA      ID1       ID2
     4.90299650E-02    2     1000022         2   # BR(~u_L -> ~chi_10 u)
     2.13994335E-05    2     1000023         2   # BR(~u_L -> ~chi_20 u)
     2.36527244E-04    2     1000025         2   # BR(~u_L -> ~chi_30 u)
     9.84983077E-02    2     1000024         1   # BR(~u_L -> ~chi_1+ d)
     2.55365692E-04    2     1000037         1   # BR(~u_L -> ~chi_2+ d)
     8.51958435E-01    2     1000021         2   # BR(~u_L -> ~g      u)
#
#         PDG            Width
DECAY   2000002     1.13060192E+01   # sup_R decays
#          BR         NDA      ID1       ID2
     1.67841421E-08    2     1000022         2   # BR(~u_R -> ~chi_10 u)
     9.99999983E-01    2     1000021         2   # BR(~u_R -> ~g      u)
#
#         PDG            Width
DECAY   1000001     1.57847962E+02   # sdown_L decays
#          BR         NDA      ID1       ID2
     4.90275637E-02    2     1000022         1   # BR(~d_L -> ~chi_10 d)
     1.50877816E-05    2     1000023         1   # BR(~d_L -> ~chi_20 d)
     2.48501358E-04    2     1000025         1   # BR(~d_L -> ~chi_30 d)
     9.76054126E-02    2    -1000024         2   # BR(~d_L -> ~chi_1- u)
     7.79686357E-04    2    -1000037         2   # BR(~d_L -> ~chi_2- u)
     8.52323748E-01    2     1000021         1   # BR(~d_L -> ~g      d)
#
#         PDG            Width
DECAY   2000001     5.38601417E+00   # sdown_R decays
#          BR         NDA      ID1       ID2
     6.38495926E-09    2     1000022         1   # BR(~d_R -> ~chi_10 d)
     9.99999994E-01    2     1000021         1   # BR(~d_R -> ~g      d)
#
#         PDG            Width
DECAY   1000004     1.27479636E+02   # scharm_L decays
#          BR         NDA      ID1       ID2
     6.27158798E-02    2     1000022         4   # BR(~c_L -> ~chi_10 c)
     2.73026243E-05    2     1000023         4   # BR(~c_L -> ~chi_20 c)
     3.01763857E-04    2     1000025         4   # BR(~c_L -> ~chi_30 c)
     1.25992588E-01    2     1000024         3   # BR(~c_L -> ~chi_1+ s)
     3.25793380E-04    2     1000037         3   # BR(~c_L -> ~chi_2+ s)
     8.10636673E-01    2     1000021         4   # BR(~c_L -> ~g      c)
#
#         PDG            Width
DECAY   2000004     8.69112238E+00   # scharm_R decays
#          BR         NDA      ID1       ID2
     2.25975532E-08    2     1000022         4   # BR(~c_R -> ~chi_10 c)
     9.99999977E-01    2     1000021         4   # BR(~c_R -> ~g      c)
#
#         PDG            Width
DECAY   1000003     1.27513057E+02   # sstrange_L decays
#          BR         NDA      ID1       ID2
     6.27203051E-02    2     1000022         3   # BR(~s_L -> ~chi_10 s)
     1.92523206E-05    2     1000023         3   # BR(~s_L -> ~chi_20 s)
     3.17081169E-04    2     1000025         3   # BR(~s_L -> ~chi_30 s)
     1.24865185E-01    2    -1000024         4   # BR(~s_L -> ~chi_1- c)
     9.94841758E-04    2    -1000037         4   # BR(~s_L -> ~chi_2- c)
     8.11083335E-01    2     1000021         3   # BR(~s_L -> ~g      s)
#
#         PDG            Width
DECAY   2000003     4.14041677E+00   # sstrange_R decays
#          BR         NDA      ID1       ID2
     8.57308078E-09    2     1000022         3   # BR(~s_R -> ~chi_10 s)
     9.99999991E-01    2     1000021         3   # BR(~s_R -> ~g      s)
#
#         PDG            Width
DECAY   1000011     1.90315377E+01   # selectron_L decays
#          BR         NDA      ID1       ID2
     3.32779764E-01    2     1000022        11   # BR(~e_L -> ~chi_10 e-)
     1.46213357E-04    2     1000023        11   # BR(~e_L -> ~chi_20 e-)
     1.13738081E-03    2     1000025        11   # BR(~e_L -> ~chi_30 e-)
     6.62006941E-01    2    -1000024        12   # BR(~e_L -> ~chi_1- nu_e)
     3.92970099E-03    2    -1000037        12   # BR(~e_L -> ~chi_2- nu_e)
#
#         PDG            Width
DECAY   2000011     1.66698234E-03   # selectron_R decays
#           BR         NDA      ID1       ID2
     1.29408059E-03    2     1000022        11   # BR(~e_R -> ~chi_10 e-)
#           BR         NDA      ID1       ID2       ID3
     6.94488461E-03    3        11       -1        2000001   # BR(~e_R- -> e-  db  ~d_R)
     3.46578356E-02    3        11       1        -2000001   # BR(~e_R- -> e-  d  ~d_R*)
     2.15545175E-02    3        11       -2        2000002   # BR(~e_R- -> e-  ub  ~u_R)
     1.02778533E-01    3        11       2        -2000002   # BR(~e_R- -> e-  u  ~u_R*)
     6.88129665E-03    3        11       -3        2000003   # BR(~e_R- -> e-  sb  ~s_R)
     3.49223855E-02    3        11       3        -2000003   # BR(~e_R- -> e-  s  ~s_R*)
     2.13241612E-02    3        11       -4        2000004   # BR(~e_R- -> e-  cb  ~c_R)
     1.04794151E-01    3        11       4        -2000004   # BR(~e_R- -> e-  c  ~c_R*)
     4.43328033E-03    3        11       -5        1000005   # BR(~e_R- -> e-  bb  ~b_1)
     1.91627705E-03    3        11       5        -1000005   # BR(~e_R- -> e-  b  ~b_1*)
     2.15929103E-07    3        11       -5        2000005   # BR(~e_R- -> e-  bb  ~b_2)
     6.16143300E-07    3        11       5        -2000005   # BR(~e_R- -> e-  b  ~b_2*)
     6.50816732E-03    3        11       -6        1000006   # BR(~e_R- -> e-  tb  ~t_1)
     2.29090609E-03    3        11       6        -1000006   # BR(~e_R- -> e-  t  ~t_1*)
     1.51681271E-05    3        11       -11        1000011   # BR(~e_R- -> e-  e+  ~e_L-)
     4.90683062E-06    3        11       11        -1000011   # BR(~e_R- -> e-  e-  ~e_L+)
     1.58873909E-05    3        11       -12        1000012   # BR(~e_R- -> e-  nu_eb  ~nu_eL)
     5.18487797E-06    3        11       12        -1000012   # BR(~e_R- -> e-  nu_e  ~nu_eL*)
     1.52059199E-05    3        11       -13        1000013   # BR(~e_R- -> e-  mu+  ~mu_L-)
     4.93076610E-06    3        11       13        -1000013   # BR(~e_R- -> e-  mu-  ~mu_L+)
     1.58915901E-05    3        11       -14        1000014   # BR(~e_R- -> e-  nu_mub  ~nu_muL)
     5.09507498E-06    3        11       14        -1000014   # BR(~e_R- -> e-  nu_mu  ~nu_muL*)
     6.72712585E-03    3        11       -15        1000015   # BR(~e_R- -> e-  tau+  ~tau_1-)
     2.81904607E-02    3        11       15        -1000015   # BR(~e_R- -> e-  tau-  ~tau_1+)
     1.37505956E-01    3        11       23        1000022   # BR(~e_R- -> e-  Z  ~chi_10)
     4.51864415E-02    3        11       25        1000022   # BR(~e_R- -> e-  h  ~chi_10)
     1.03138465E-07    3        11       35        1000022   # BR(~e_R- -> e-  H  ~chi_10)
     1.21524983E-06    3        11       36        1000022   # BR(~e_R- -> e-  A  ~chi_10)
     2.43949795E-03    3        11       23        1000023   # BR(~e_R- -> e-  Z  ~chi_20)
     1.46828190E-02    3        11       25        1000023   # BR(~e_R- -> e-  h  ~chi_20)
     1.28195719E-02    3        11       23        1000025   # BR(~e_R- -> e-  Z  ~chi_30)
     2.56739374E-03    3        11       25        1000025   # BR(~e_R- -> e-  h  ~chi_30)
     1.82209490E-01    3        11       -24        1000024   # BR(~e_R- -> e-  W-  ~chi_1+)
     1.84555044E-01    3        11       24        -1000024   # BR(~e_R- -> e-  W+  ~chi_1-)
     1.83655216E-06    3        11       -37        1000024   # BR(~e_R- -> e-  H-  ~chi_1+)
     6.83570528E-07    3        11       37        -1000024   # BR(~e_R- -> e-  H+  ~chi_1-)
     5.28037988E-03    3        11       -24        1000037   # BR(~e_R- -> e-  W-  ~chi_2+)
     2.74484012E-02    3        11       24        -1000037   # BR(~e_R- -> e-  W+  ~chi_2-)
#
#         PDG            Width
DECAY   1000013     1.90315376E+01   # smuon_L decays
#          BR         NDA      ID1       ID2
     3.32779762E-01    2     1000022        13   # BR(~mu_L -> ~chi_10 mu-)
     1.46213355E-04    2     1000023        13   # BR(~mu_L -> ~chi_20 mu-)
     1.13738079E-03    2     1000025        13   # BR(~mu_L -> ~chi_30 mu-)
     6.62006942E-01    2    -1000024        14   # BR(~mu_L -> ~chi_1- nu_mu)
     3.92970100E-03    2    -1000037        14   # BR(~mu_L -> ~chi_2- nu_mu)
#
#         PDG            Width
DECAY   2000013     1.66689006E-03   # smuon_R decays
#           BR         NDA      ID1       ID2
     1.29415222E-03    2     1000022        13   # BR(~mu_R -> ~chi_10 mu-)
#           BR         NDA      ID1       ID2       ID3
     6.94526908E-03    3        13       -1        2000001   # BR(~mu_R- -> mu-  db  ~d_R)
     3.46597543E-02    3        13       1        -2000001   # BR(~mu_R- -> mu-  d  ~d_R*)
     2.15557108E-02    3        13       -2        2000002   # BR(~mu_R- -> mu-  ub  ~u_R)
     1.02784223E-01    3        13       2        -2000002   # BR(~mu_R- -> mu-  u  ~u_R*)
     6.88167761E-03    3        13       -3        2000003   # BR(~mu_R- -> mu-  sb  ~s_R)
     3.49243189E-02    3        13       3        -2000003   # BR(~mu_R- -> mu-  s  ~s_R*)
     2.13253416E-02    3        13       -4        2000004   # BR(~mu_R- -> mu-  cb  ~c_R)
     1.04745960E-01    3        13       4        -2000004   # BR(~mu_R- -> mu-  c  ~c_R*)
     4.43352575E-03    3        13       -5        1000005   # BR(~mu_R- -> mu-  bb  ~b_1)
     1.92046259E-03    3        13       5        -1000005   # BR(~mu_R- -> mu-  b  ~b_1*)
     2.13805342E-07    3        13       -5        2000005   # BR(~mu_R- -> mu-  bb  ~b_2)
     6.16177410E-07    3        13       5        -2000005   # BR(~mu_R- -> mu-  b  ~b_2*)
     6.53192449E-03    3        13       -6        1000006   # BR(~mu_R- -> mu-  tb  ~t_1)
     2.29091293E-03    3        13       6        -1000006   # BR(~mu_R- -> mu-  t  ~t_1*)
     1.51011759E-05    3        13       -11        1000011   # BR(~mu_R- -> mu-  e+  ~e_L-)
     4.98413195E-06    3        13       11        -1000011   # BR(~mu_R- -> mu-  e-  ~e_L+)
     1.58882705E-05    3        13       -12        1000012   # BR(~mu_R- -> mu-  nu_eb  ~nu_eL)
     5.18516500E-06    3        13       12        -1000012   # BR(~mu_R- -> mu-  nu_e  ~nu_eL*)
     1.52067617E-05    3        13       -13        1000013   # BR(~mu_R- -> mu-  mu+  ~mu_L-)
     4.93721824E-06    3        13       13        -1000013   # BR(~mu_R- -> mu-  mu-  ~mu_L+)
     1.59650600E-05    3        13       -14        1000014   # BR(~mu_R- -> mu-  nu_mub  ~nu_muL)
     5.14347059E-06    3        13       14        -1000014   # BR(~mu_R- -> mu-  nu_mu  ~nu_muL*)
     6.72749827E-03    3        13       -15        1000015   # BR(~mu_R- -> mu-  tau+  ~tau_1-)
     2.81830225E-02    3        13       15        -1000015   # BR(~mu_R- -> mu-  tau-  ~tau_1+)
     1.37513568E-01    3        13       23        1000022   # BR(~mu_R- -> mu-  Z  ~chi_10)
     4.51889431E-02    3        13       25        1000022   # BR(~mu_R- -> mu-  h  ~chi_10)
     1.03366145E-07    3        13       35        1000022   # BR(~mu_R- -> mu-  H  ~chi_10)
     1.21603701E-06    3        13       36        1000022   # BR(~mu_R- -> mu-  A  ~chi_10)
     2.43957300E-03    3        13       23        1000023   # BR(~mu_R- -> mu-  Z  ~chi_20)
     1.46836319E-02    3        13       25        1000023   # BR(~mu_R- -> mu-  h  ~chi_20)
     1.28004843E-02    3        13       23        1000025   # BR(~mu_R- -> mu-  Z  ~chi_30)
     2.56753585E-03    3        13       25        1000025   # BR(~mu_R- -> mu-  h  ~chi_30)
     1.82219575E-01    3        13       -24        1000024   # BR(~mu_R- -> mu-  W-  ~chi_1+)
     1.84565262E-01    3        13       24        -1000024   # BR(~mu_R- -> mu-  W+  ~chi_1-)
     1.83677381E-06    3        13       -37        1000024   # BR(~mu_R- -> mu-  H-  ~chi_1+)
     6.81328677E-07    3        13       37        -1000024   # BR(~mu_R- -> mu-  H+  ~chi_1-)
     5.28067219E-03    3        13       -24        1000037   # BR(~mu_R- -> mu-  W-  ~chi_2+)
     2.74499207E-02    3        13       24        -1000037   # BR(~mu_R- -> mu-  W+  ~chi_2-)
#
#         PDG            Width
DECAY   1000015     8.17308842E-02   # stau_1 decays
#          BR         NDA      ID1       ID2
     2.69002527E-01    2     1000022        15   # BR(~tau_1 -> ~chi_10  tau-)
     6.14448050E-02    2     1000023        15   # BR(~tau_1 -> ~chi_20  tau-)
     4.80403850E-02    2     1000025        15   # BR(~tau_1 -> ~chi_30  tau-)
     5.35281371E-01    2    -1000024        16   # BR(~tau_1 -> ~chi_1-  nu_tau)
     8.62309125E-02    2    -1000037        16   # BR(~tau_1 -> ~chi_2-  nu_tau)
#
#         PDG            Width
DECAY   2000015     2.90248543E+01   # stau_2 decays
#          BR         NDA      ID1       ID2
     2.82324970E-01    2     1000022        15   # BR(~tau_2 -> ~chi_10  tau-)
     5.12192439E-02    2     1000023        15   # BR(~tau_2 -> ~chi_20  tau-)
     5.19000062E-02    2     1000025        15   # BR(~tau_2 -> ~chi_30  tau-)
     5.59270170E-01    2    -1000024        16   # BR(~tau_2 -> ~chi_1-  nu_tau)
     5.55394768E-03    2    -1000037        16   # BR(~tau_2 -> ~chi_2-  nu_tau)
     2.49878047E-02    2     1000015        25   # BR(~tau_2 -> ~tau_1   h)
     2.47438576E-02    2     1000015        23   # BR(~tau_2 -> ~tau_1   Z)
#
#         PDG            Width
DECAY   1000012     1.90679549E+01   # snu_eL decays
#          BR         NDA      ID1       ID2
     3.31317072E-01    2     1000022        12   # BR(~nu_eL -> ~chi_10 nu_e)
     4.96890411E-05    2     1000023        12   # BR(~nu_eL -> ~chi_20 nu_e)
     1.30791264E-03    2     1000025        12   # BR(~nu_eL -> ~chi_30 nu_e)
     6.66044072E-01    2     1000024        11   # BR(~nu_eL -> ~chi_1+ e-)
     1.28125428E-03    2     1000037        11   # BR(~nu_eL -> ~chi_2+ e-)
#
#         PDG            Width
DECAY   1000014     1.90679548E+01   # snu_muL decays
#          BR         NDA      ID1       ID2
     3.31317073E-01    2     1000022        14   # BR(~nu_muL -> ~chi_10 nu_mu)
     4.96890413E-05    2     1000023        14   # BR(~nu_muL -> ~chi_20 nu_mu)
     1.30791265E-03    2     1000025        14   # BR(~nu_muL -> ~chi_30 nu_mu)
     6.66044071E-01    2     1000024        13   # BR(~nu_muL -> ~chi_1+ mu-)
     1.28125427E-03    2     1000037        13   # BR(~nu_muL -> ~chi_2+ mu-)
#
#         PDG            Width
DECAY   1000016     2.90392707E+01   # snu_tauL decays
#          BR         NDA      ID1       ID2
     2.81305542E-01    2     1000022        16   # BR(~nu_tauL -> ~chi_10 nu_tau)
     5.76666096E-05    2     1000023        16   # BR(~nu_tauL -> ~chi_20 nu_tau)
     1.52370593E-03    2     1000025        16   # BR(~nu_tauL -> ~chi_30 nu_tau)
     5.67919613E-01    2     1000024        15   # BR(~nu_tauL -> ~chi_1+ tau-)
     1.01202598E-01    2     1000037        15   # BR(~nu_tauL -> ~chi_2+ tau-)
     4.79908741E-02    2    -1000015       -24   # BR(~nu_tauL -> ~tau_1+ W-)
#
#         PDG            Width
DECAY   1000024     4.78472060E-15   # chargino1+ decays
#           BR         NDA      ID1       ID2       ID3
     1.93524830E-02    3     1000022       -11        12   # BR(~chi_1+ -> ~chi_10 e+   nu_e)
     2.86532540E-03    3     1000022       -13        14   # BR(~chi_1+ -> ~chi_10 mu+  nu_mu)
     9.77782190E-01    2     1000022       211             # BR(~chi_1+ -> ~chi_10 pi+)
#
#         PDG            Width
DECAY   1000037     7.63375388E+00   # chargino2+ decays
#          BR         NDA      ID1       ID2
     5.24586635E-03    2     1000006        -5   # BR(~chi_2+ -> ~t_1     bb)
     3.35650287E-01    2     1000024        23   # BR(~chi_2+ -> ~chi_1+  Z )
     3.28437740E-01    2     1000022        24   # BR(~chi_2+ -> ~chi_10  W+)
     3.30666107E-01    2     1000024        25   # BR(~chi_2+ -> ~chi_1+  h )
#
#         PDG            Width
DECAY   1000022     0.00000000E+00   # neutralino1 decays
#
#         PDG            Width
DECAY   1000023     7.50289455E+00   # neutralino2 decays
#          BR         NDA      ID1       ID2
     3.13853613E-01    2     1000022        23   # BR(~chi_20 -> ~chi_10   Z )
     3.30158399E-01    2     1000024       -24   # BR(~chi_20 -> ~chi_1+   W-)
     3.30158399E-01    2    -1000024        24   # BR(~chi_20 -> ~chi_1-   W+)
     2.23483107E-02    2     1000022        25   # BR(~chi_20 -> ~chi_10   h )
     6.79352720E-06    2     2000002        -2   # BR(~chi_20 -> ~u_R      ub)
     6.79352720E-06    2    -2000002         2   # BR(~chi_20 -> ~u_R*     u )
     3.06716587E-06    2     2000001        -1   # BR(~chi_20 -> ~d_R      db)
     3.06716587E-06    2    -2000001         1   # BR(~chi_20 -> ~d_R*     d )
     6.79335795E-06    2     2000004        -4   # BR(~chi_20 -> ~c_R      cb)
     6.79335795E-06    2    -2000004         4   # BR(~chi_20 -> ~c_R*     c )
     3.06716587E-06    2     2000003        -3   # BR(~chi_20 -> ~s _R      sb)
     3.06716587E-06    2    -2000003         3   # BR(~chi_20 -> ~s _R*     s )
     1.72091847E-03    2     1000005        -5   # BR(~chi_20 -> ~b_1      bb)
     1.72091847E-03    2    -1000005         5   # BR(~chi_20 -> ~b_1*     b )
#
#         PDG            Width
DECAY   1000025     7.60964769E+00   # neutralino3 decays
#          BR         NDA      ID1       ID2
     2.41599758E-02    2     1000022        23   # BR(~chi_30 -> ~chi_10   Z )
     3.30640971E-01    2     1000024       -24   # BR(~chi_30 -> ~chi_1+   W-)
     3.30640971E-01    2    -1000024        24   # BR(~chi_30 -> ~chi_1-   W+)
     3.10565451E-01    2     1000022        25   # BR(~chi_30 -> ~chi_10   h )
     1.78531080E-06    2     2000002        -2   # BR(~chi_30 -> ~u_R      ub)
     1.78531080E-06    2    -2000002         2   # BR(~chi_30 -> ~u_R*     u )
     7.97545450E-07    2     2000001        -1   # BR(~chi_30 -> ~d_R      db)
     7.97545450E-07    2    -2000001         1   # BR(~chi_30 -> ~d_R*     d )
     1.78526813E-06    2     2000004        -4   # BR(~chi_30 -> ~c_R      cb)
     1.78526813E-06    2    -2000004         4   # BR(~chi_30 -> ~c_R*     c )
     7.97545450E-07    2     2000003        -3   # BR(~chi_30 -> ~s _R      sb)
     7.97545450E-07    2    -2000003         3   # BR(~chi_30 -> ~s _R*     s )
     1.99115011E-03    2     1000005        -5   # BR(~chi_30 -> ~b_1      bb)
     1.99115011E-03    2    -1000005         5   # BR(~chi_30 -> ~b_1*     b )
#
#         PDG            Width
DECAY   1000035     1.35894116E+02   # neutralino4 decays
#          BR         NDA      ID1       ID2
     1.08506078E-04    2     1000022        23   # BR(~chi_40 -> ~chi_10   Z )
     3.33481290E-03    2     1000023        23   # BR(~chi_40 -> ~chi_20   Z )
     1.26434944E-02    2     1000025        23   # BR(~chi_40 -> ~chi_30   Z )
     1.61181088E-04    2     1000024       -24   # BR(~chi_40 -> ~chi_1+   W-)
     1.61181088E-04    2    -1000024        24   # BR(~chi_40 -> ~chi_1-   W+)
     1.54821501E-02    2     1000037       -24   # BR(~chi_40 -> ~chi_2+   W-)
     1.54821501E-02    2    -1000037        24   # BR(~chi_40 -> ~chi_2-   W+)
     6.01391420E-05    2     1000022        25   # BR(~chi_40 -> ~chi_10   h )
     4.56413485E-05    2     1000022        35   # BR(~chi_40 -> ~chi_10   H )
     1.26996597E-04    2     1000022        36   # BR(~chi_40 -> ~chi_10   A )
     1.42220298E-02    2     1000023        25   # BR(~chi_40 -> ~chi_20   h )
     1.22616841E-02    2     1000023        35   # BR(~chi_40 -> ~chi_20   H )
     1.89059464E-03    2     1000023        36   # BR(~chi_40 -> ~chi_20   A )
     3.57520785E-03    2     1000025        25   # BR(~chi_40 -> ~chi_30   h )
     1.86153437E-03    2     1000025        35   # BR(~chi_40 -> ~chi_30   H )
     1.21466279E-02    2     1000025        36   # BR(~chi_40 -> ~chi_30   A )
     1.71426916E-04    2     1000024       -37   # BR(~chi_40 -> ~chi_1+   H-)
     1.71426916E-04    2    -1000024        37   # BR(~chi_40 -> ~chi_1-   H+)
     1.39504294E-02    2     1000037       -37   # BR(~chi_40 -> ~chi_2+   H-)
     1.39504294E-02    2    -1000037        37   # BR(~chi_40 -> ~chi_2-   H+)
     2.24025049E-03    2     1000002        -2   # BR(~chi_40 -> ~u_L      ub)
     2.24025049E-03    2    -1000002         2   # BR(~chi_40 -> ~u_L*     u )
     8.06327393E-02    2     2000002        -2   # BR(~chi_40 -> ~u_R      ub)
     8.06327393E-02    2    -2000002         2   # BR(~chi_40 -> ~u_R*     u )
     2.24747573E-03    2     1000001        -1   # BR(~chi_40 -> ~d_L      db)
     2.24747573E-03    2    -1000001         1   # BR(~chi_40 -> ~d_L*     d )
     2.07092035E-02    2     2000001        -1   # BR(~chi_40 -> ~d_R      db)
     2.07092035E-02    2    -2000001         1   # BR(~chi_40 -> ~d_R*     d )
     2.24024966E-03    2     1000004        -4   # BR(~chi_40 -> ~c_L      cb)
     2.24024966E-03    2    -1000004         4   # BR(~chi_40 -> ~c_L*     c )
     8.06327363E-02    2     2000004        -4   # BR(~chi_40 -> ~c_R      cb)
     8.06327363E-02    2    -2000004         4   # BR(~chi_40 -> ~c_R*     c )
     2.24747573E-03    2     1000003        -3   # BR(~chi_40 -> ~s _L      sb)
     2.24747573E-03    2    -1000003         3   # BR(~chi_40 -> ~s _L*     s )
     2.07092035E-02    2     2000003        -3   # BR(~chi_40 -> ~s _R      sb)
     2.07092035E-02    2    -2000003         3   # BR(~chi_40 -> ~s _R*     s )
     6.26247631E-03    2     1000006        -6   # BR(~chi_40 -> ~t_1      tb)
     6.26247631E-03    2    -1000006         6   # BR(~chi_40 -> ~t_1*     t )
     3.53919573E-02    2     2000006        -6   # BR(~chi_40 -> ~t_2      tb)
     3.53919573E-02    2    -2000006         6   # BR(~chi_40 -> ~t_2*     t )
     4.89667588E-03    2     1000005        -5   # BR(~chi_40 -> ~b_1      bb)
     4.89667588E-03    2    -1000005         5   # BR(~chi_40 -> ~b_1*     b )
     1.14337899E-02    2     2000005        -5   # BR(~chi_40 -> ~b_2      bb)
     1.14337899E-02    2    -2000005         5   # BR(~chi_40 -> ~b_2*     b )
     9.50950424E-03    2     1000011       -11   # BR(~chi_40 -> ~e_L-     e+)
     9.50950424E-03    2    -1000011        11   # BR(~chi_40 -> ~e_L+     e-)
     3.06664659E-02    2     2000011       -11   # BR(~chi_40 -> ~e_R-     e+)
     3.06664659E-02    2    -2000011        11   # BR(~chi_40 -> ~e_R+     e-)
     9.50950424E-03    2     1000013       -13   # BR(~chi_40 -> ~mu_L-    mu+)
     9.50950424E-03    2    -1000013        13   # BR(~chi_40 -> ~mu_L+    mu-)
     3.06664659E-02    2     2000013       -13   # BR(~chi_40 -> ~mu_R-    mu+)
     3.06664659E-02    2    -2000013        13   # BR(~chi_40 -> ~mu_R+    mu-)
     5.67226388E-02    2     1000015       -15   # BR(~chi_40 -> ~tau_1-   tau+)
     5.67226388E-02    2    -1000015        15   # BR(~chi_40 -> ~tau_1+   tau-)
     6.64430973E-03    2     2000015       -15   # BR(~chi_40 -> ~tau_2-   tau+)
     6.64430973E-03    2    -2000015        15   # BR(~chi_40 -> ~tau_2+   tau-)
     9.53728627E-03    2     1000012       -12   # BR(~chi_40 -> ~nu_eL    nu_eb)
     9.53728627E-03    2    -1000012        12   # BR(~chi_40 -> ~nu_eL*   nu_e )
     9.53728627E-03    2     1000014       -14   # BR(~chi_40 -> ~nu_muL   nu_mub)
     9.53728627E-03    2    -1000014        14   # BR(~chi_40 -> ~nu_muL*  nu_mu )
     6.65848291E-03    2     1000016       -16   # BR(~chi_40 -> ~nu_tau1  nu_taub)
     6.65848291E-03    2    -1000016        16   # BR(~chi_40 -> ~nu_tau1* nu_tau )
#
#         PDG            Width
DECAY        25     4.49042365E-03   # h decays
#          BR         NDA      ID1       ID2
     6.47223025E-01    2           5        -5   # BR(h -> b       bb     )
     5.82700466E-02    2         -15        15   # BR(h -> tau+    tau-   )
     2.06247436E-04    2         -13        13   # BR(h -> mu+     mu-    )
     2.24841345E-04    2           3        -3   # BR(h -> s       sb     )
     1.92623096E-02    2           4        -4   # BR(h -> c       cb     )
     7.04002226E-02    2          21        21   # BR(h -> g       g      )
     2.06831894E-03    2          22        22   # BR(h -> gam     gam    )
     1.33967148E-03    2          22        23   # BR(h -> Z       gam    )
     1.78836002E-01    2          24       -24   # BR(h -> W+      W-     )
     2.21693154E-02    2          23        23   # BR(h -> Z       Z      )
#
#         PDG            Width
DECAY        35     2.21731985E+01   # H decays
#          BR         NDA      ID1       ID2
     8.61043798E-01    2           5        -5   # BR(H -> b       bb     )
     1.35828020E-01    2         -15        15   # BR(H -> tau+    tau-   )
     4.77400335E-04    2         -13        13   # BR(H -> mu+     mu-    )
     2.55946510E-04    2           3        -3   # BR(H -> s       sb     )
     2.49156874E-08    2           4        -4   # BR(H -> c       cb     )
     2.32592966E-03    2           6        -6   # BR(H -> t       tb     )
     5.62009655E-05    2          21        21   # BR(H -> g       g      )
     3.74533904E-08    2          22        22   # BR(H -> gam     gam    )
     2.19258537E-08    2          23        22   # BR(H -> Z       gam    )
     1.69560707E-06    2          24       -24   # BR(H -> W+      W-     )
     8.41587765E-07    2          23        23   # BR(H -> Z       Z      )
     1.00823896E-05    2          25        25   # BR(H -> h       h      )
#
#         PDG            Width
DECAY        36     2.21766968E+01   # A decays
#          BR         NDA      ID1       ID2
     8.60951941E-01    2           5        -5   # BR(A -> b       bb     )
     1.35810656E-01    2         -15        15   # BR(A -> tau+    tau-   )
     4.77335989E-04    2         -13        13   # BR(A -> mu+     mu-    )
     2.55928203E-04    2           3        -3   # BR(A -> s       sb     )
     2.47690061E-08    2           4        -4   # BR(A -> c       cb     )
     2.40811345E-03    2           6        -6   # BR(A -> t       tb     )
     9.42400389E-05    2          21        21   # BR(A -> g       g      )
     2.18983645E-08    2          22        22   # BR(A -> gam     gam    )
     4.63254388E-08    2          23        22   # BR(A -> Z       gam    )
     1.69328770E-06    2          23        25   # BR(A -> Z       h      )
#
#         PDG            Width
DECAY        37     1.83170964E+01   # H+ decays
#          BR         NDA      ID1       ID2
     1.40921911E-03    2           4        -5   # BR(H+ -> c       bb     )
     1.64742953E-01    2         -15        16   # BR(H+ -> tau+    nu_tau )
     5.79024812E-04    2         -13        14   # BR(H+ -> mu+     nu_mu  )
     1.40921142E-05    2           2        -5   # BR(H+ -> u       bb     )
     1.54804374E-05    2           2        -3   # BR(H+ -> u       sb     )
     3.04730455E-04    2           4        -3   # BR(H+ -> c       sb     )
     8.32932431E-01    2           6        -5   # BR(H+ -> t       bb     )
     2.06876721E-06    2          24        25   # BR(H+ -> W+      h      )
     8.14967127E-12    2          24        36   # BR(H+ -> W+      A      )
