#
#                              ======================
#                              | THE SUSYHIT OUTPUT |
#                              ======================
#
#
#              ------------------------------------------------------
#              |     This is the output of the SUSY-HIT package     |
#              |  created by A.Djouadi, M.Muehlleitner and M.Spira. |
#              |  In case of problems with SUSY-HIT email to        |
#              |           margarete.muehlleitner@cern.ch           |
#              |           michael.spira@psi.ch                     |
#              |           abdelhak.djouadi@cern.ch                 |
#              ------------------------------------------------------
#
#              ------------------------------------------------------
#              |  SUSY Les Houches Accord - MSSM Spectrum + Decays  |
#              |              based on the decay programs           |
#              |                                                    |
#              |                     SDECAY 1.3b                    |
#              |                                                    |
#              |  Authors: M.Muhlleitner, A.Djouadi and Y.Mambrini  |
#              |  Ref.:    Comput.Phys.Commun.168(2005)46           |
#              |           [hep-ph/0311167]                         |
#              |                                                    |
#              |                     HDECAY 3.4                     |
#              |                                                    |
#              |  By: A.Djouadi,J.Kalinowski,M.Muhlleitner,M.Spira  |
#              |  Ref.:    Comput.Phys.Commun.108(1998)56           |
#              |           [hep-ph/9704448]                         |
#              |                                                    |
#              |                                                    |
#              |  If not stated otherwise all DRbar couplings and   |
#              |  soft SUSY breaking masses are given at the scale  |
#              |  Q=  0.11533540E+04
#              |                                                    |
#              ------------------------------------------------------
#
#
BLOCK DCINFO  # Decay Program information
     1   SDECAY/HDECAY # decay calculator
     2   1.3b  /3.4    # version number
#
BLOCK SPINFO  # Spectrum calculator information
     1     SOFTSUSY    # spectrum calculator               
     2     3.4.0       # version number                    
#
BLOCK MODSEL  # Model selection
     1     0   #  nonUniversal                                     
#
BLOCK SMINPUTS  # Standard Model inputs
         1     1.27908970E+02   # alpha_em^-1(M_Z)^MSbar
         2     1.16637870E-05   # G_F [GeV^-2]
         3     1.18400000E-01   # alpha_S(M_Z)^MSbar
         4     9.11876000E+01   # M_Z pole mass
         5     4.18000000E+00   # mb(mb)^MSbar
         6     1.73200000E+02   # mt pole mass
         7     1.77700000E+00   # mtau pole mass
#
BLOCK MINPAR  # Input parameters - minimal models
         3     2.05400000E+01   # tanb                
#
BLOCK EXTPAR  # Input parameters - non-minimal models
         0    -1.00000000E+00   # Set                 
         1    -4.52170000E+02   # M_1(MX)             
         2    -2.99120000E+02   # M_2(MX)             
         3     1.20079000E+03   # M_3(MX)             
        11    -2.81005000E+03   # At(MX)              
        12     1.46014000E+03   # Ab(MX)              
        13     2.44481000E+03   # Atau(MX)            
        23     1.32048000E+03   # mu(MX)              
        26     1.06000000E+03   # mA(pole)            
        31     4.42170000E+02   # meL(MX)             
        32     4.42170000E+02   # mmuL(MX)            
        33     3.95552000E+03   # mtauL(MX)           
        34     5.06400000E+02   # meR(MX)             
        35     5.06400000E+02   # mmuR(MX)            
        36     3.69500000E+03   # mtauR(MX)           
        41     3.50268000E+03   # mqL1(MX)            
        42     3.50268000E+03   # mqL2(MX)            
        43     6.68550000E+02   # mqL3(MX)            
        44     3.95731000E+03   # muR(MX)             
        45     3.95731000E+03   # mcR(MX)             
        46     2.03889000E+03   # mtR(MX)             
        47     1.89523000E+03   # mdR(MX)             
        48     1.89523000E+03   # msR(MX)             
        49     3.46844000E+03   # mbR(MX)             
#
BLOCK MASS  # Mass Spectrum
# PDG code           mass       particle
        24     8.03847959E+01   # W+
        25     1.27939026E+02   # h
        35     1.05972473E+03   # H
        36     1.05999997E+03   # A
        37     1.06298003E+03   # H+
         5     4.81876030E+00   # b-quark pole mass calculated from mb(mb)_Msbar
   1000001     3.53248507E+03   # ~d_L
   2000001     1.91555752E+03   # ~d_R
   1000002     3.53173269E+03   # ~u_L
   2000002     3.98998729E+03   # ~u_R
   1000003     3.53248507E+03   # ~s_L
   2000003     1.91555752E+03   # ~s_R
   1000004     3.53173269E+03   # ~c_L
   2000004     3.98998729E+03   # ~c_R
   1000005     7.44664218E+02   # ~b_1
   2000005     3.49061541E+03   # ~b_2
   1000006     7.21846748E+02   # ~t_1
   2000006     2.05069763E+03   # ~t_2
   1000011     4.71964437E+02   # ~e_L
   2000011     4.65379559E+02   # ~e_R
   1000012     4.65175463E+02   # ~nu_eL
   1000013     4.71964437E+02   # ~mu_L
   2000013     4.65379559E+02   # ~mu_R
   1000014     4.65175463E+02   # ~nu_muL
   1000015     3.69421168E+03   # ~tau_1
   2000015     3.96714070E+03   # ~tau_2
   1000016     3.96591896E+03   # ~nu_tauL
   1000021     1.35606574E+03   # ~g
   1000022    -3.17220121E+02   # ~chi_10
   1000023    -4.52426837E+02   # ~chi_20
   1000025     1.33506840E+03   # ~chi_30
   1000035    -1.33687904E+03   # ~chi_40
   1000024     3.17384244E+02   # ~chi_1+
   1000037     1.33790943E+03   # ~chi_2+
#
BLOCK NMIX  # Neutralino Mixing Matrix
  1  1    -1.93268831E-03   # N_11
  1  2     9.98004262E-01   # N_12
  1  3    -6.21385933E-02   # N_13
  1  4    -1.10703906E-02   # N_14
  2  1     9.99304092E-01   # N_21
  2  2     4.26595193E-03   # N_22
  2  3     3.56044851E-02   # N_23
  2  4     1.02690371E-02   # N_24
  3  1     1.80428835E-02   # N_31
  3  2    -3.60803116E-02   # N_32
  3  3    -7.06010679E-01   # N_33
  3  4     7.07051332E-01   # N_34
  4  1    -3.25891071E-02   # N_41
  4  2     5.16479078E-02   # N_42
  4  3     7.04570817E-01   # N_43
  4  4     7.07000995E-01   # N_44
#
BLOCK UMIX  # Chargino Mixing Matrix U
  1  1     9.96156744E-01   # U_11
  1  2    -8.75884723E-02   # U_12
  2  1     8.75884723E-02   # U_21
  2  2     9.96156744E-01   # U_22
#
BLOCK VMIX  # Chargino Mixing Matrix V
  1  1    -9.99878905E-01   # V_11
  1  2    -1.55619626E-02   # V_12
  2  1    -1.55619626E-02   # V_21
  2  2     9.99878905E-01   # V_22
#
BLOCK STOPMIX  # Stop Mixing Matrix
  1  1     9.93341374E-01   # cos(theta_t)
  1  2     1.15208136E-01   # sin(theta_t)
  2  1    -1.15208136E-01   # -sin(theta_t)
  2  2     9.93341374E-01   # cos(theta_t)
#
BLOCK SBOTMIX  # Sbottom Mixing Matrix
  1  1     9.99988258E-01   # cos(theta_b)
  1  2     4.84601508E-03   # sin(theta_b)
  2  1    -4.84601508E-03   # -sin(theta_b)
  2  2     9.99988258E-01   # cos(theta_b)
#
BLOCK STAUMIX  # Stau Mixing Matrix
  1  1     2.03559733E-02   # cos(theta_tau)
  1  2     9.99792796E-01   # sin(theta_tau)
  2  1    -9.99792796E-01   # -sin(theta_tau)
  2  2     2.03559733E-02   # cos(theta_tau)
#
BLOCK ALPHA  # Higgs mixing
          -5.11480218E-02   # Mixing angle in the neutral Higgs boson sector
#
BLOCK HMIX Q=  1.15335400E+03  # DRbar Higgs Parameters
         1     1.33383966E+03   # mu(Q)MSSM           
         2     1.98862092E+01   # tan                 
         3     2.43213707E+02   # higgs               
         4     1.43964348E+06   # mA^2(Q)MSSM         
#
BLOCK GAUGE Q=  1.15335400E+03  # The gauge couplings
     1     3.62055026E-01   # gprime(Q) DRbar
     2     6.40667687E-01   # g(Q) DRbar
     3     1.04617451E+00   # g3(Q) DRbar
#
BLOCK AU Q=  1.15335400E+03  # The trilinear couplings
  1  1     0.00000000E+00   # A_u(Q) DRbar
  2  2     0.00000000E+00   # A_c(Q) DRbar
  3  3    -2.81005000E+03   # A_t(Q) DRbar
#
BLOCK AD Q=  1.15335400E+03  # The trilinear couplings
  1  1     0.00000000E+00   # A_d(Q) DRbar
  2  2     0.00000000E+00   # A_s(Q) DRbar
  3  3     1.46014000E+03   # A_b(Q) DRbar
#
BLOCK AE Q=  1.15335400E+03  # The trilinear couplings
  1  1     0.00000000E+00   # A_e(Q) DRbar
  2  2     0.00000000E+00   # A_mu(Q) DRbar
  3  3     2.44481000E+03   # A_tau(Q) DRbar
#
BLOCK Yu Q=  1.15335400E+03  # The Yukawa couplings
  1  1     0.00000000E+00   # y_u(Q) DRbar
  2  2     0.00000000E+00   # y_c(Q) DRbar
  3  3     8.43487611E-01   # y_t(Q) DRbar
#
BLOCK Yd Q=  1.15335400E+03  # The Yukawa couplings
  1  1     0.00000000E+00   # y_d(Q) DRbar
  2  2     0.00000000E+00   # y_s(Q) DRbar
  3  3     2.68465720E-01   # y_b(Q) DRbar
#
BLOCK Ye Q=  1.15335400E+03  # The Yukawa couplings
  1  1     0.00000000E+00   # y_e(Q) DRbar
  2  2     0.00000000E+00   # y_mu(Q) DRbar
  3  3     2.02890191E-01   # y_tau(Q) DRbar
#
BLOCK MSOFT Q=  1.15335400E+03  # The soft SUSY breaking masses at the scale Q
         1    -4.52170000E+02   # M_1(Q)              
         2    -2.99120000E+02   # M_2(Q)              
         3     1.20079000E+03   # M_3(Q)              
        21    -7.38032361E+05   # mH1^2(Q)            
        22    -1.82142922E+06   # mH2^2(Q)            
        31     4.42170000E+02   # meL(Q)              
        32     4.42170000E+02   # mmuL(Q)             
        33     3.95552000E+03   # mtauL(Q)            
        34     5.06400000E+02   # meR(Q)              
        35     5.06400000E+02   # mmuR(Q)             
        36     3.69500000E+03   # mtauR(Q)            
        41     3.50268000E+03   # mqL1(Q)             
        42     3.50268000E+03   # mqL2(Q)             
        43     6.68549997E+02   # mqL3(Q)             
        44     3.95731000E+03   # muR(Q)              
        45     3.95731000E+03   # mcR(Q)              
        46     2.03889000E+03   # mtR(Q)              
        47     1.89523000E+03   # mdR(Q)              
        48     1.89523000E+03   # msR(Q)              
        49     3.46844000E+03   # mbR(Q)              
#
Block HiggsBoundsInputHiggsCouplingsFermions
# ScalarNormEffCoupSq PseudoSNormEffCoupSq NP   IP1 IP2 IP2
    1.03628628E+00    0.00000000E+00        3  25   5   5  # h0-b-b eff. coupling^2, normalised to SM
    3.95425030E+02    0.00000000E+00        3  35   5   5  # H0-b-b eff. coupling^2, normalised to SM
    0.00000000E+00    3.95461316E+02        3  36   5   5  # A0-b-b eff. coupling^2, normalised to SM
#
    9.99908243E-01    0.00000000E+00        3  25   6   6  # h0-t-t eff. coupling^2, normalised to SM
    2.62044916E-03    0.00000000E+00        3  35   6   6  # H0-t-t eff. coupling^2, normalised to SM
    0.00000000E+00    2.52869234E-03        3  36   6   6  # A0-t-t eff. coupling^2, normalised to SM
#
    1.03628628E+00    0.00000000E+00        3  25  15  15  # h0-tau-tau eff. coupling^2, normalised to SM
    3.95425030E+02    0.00000000E+00        3  35  15  15  # H0-tau-tau eff. coupling^2, normalised to SM
    0.00000000E+00    3.95461316E+02        3  36  15  15  # A0-tau-tau eff. coupling^2, normalised to SM
#
Block HiggsBoundsInputHiggsCouplingsBosons
    9.99999182E-01        3  25  24  24  # h0-W-W eff. coupling^2, normalised to SM
    8.17647642E-07        3  35  24  24  # H0-W-W eff. coupling^2, normalised to SM
    0.00000000E+00        3  36  24  24  # A0-W-W eff. coupling^2, normalised to SM
#
    9.99999182E-01        3  25  23  23  # h0-Z-Z eff. coupling^2, normalised to SM
    8.17647642E-07        3  35  23  23  # H0-Z-Z eff. coupling^2, normalised to SM
    0.00000000E+00        3  36  23  23  # A0-Z-Z eff. coupling^2, normalised to SM
#
    8.56454339E-01        3  25  21  21  # h0-g-g eff. coupling^2, normalised to SM
    4.40107453E-05        3  35  21  21  # H0-g-g eff. coupling^2, normalised to SM
    1.67508869E-04        3  36  21  21  # A0-g-g eff. coupling^2, normalised to SM
#
    0.00000000E+00        3  25  25  23  # h0-h0-Z eff. coupling^2, normalised to SM
    0.00000000E+00        3  35  25  23  # H0-h0-Z eff. coupling^2, normalised to SM
    8.17647642E-07        3  36  25  23  # A0-h0-Z eff. coupling^2, normalised to SM
    0.00000000E+00        3  35  35  23  # H0-H0-Z eff. coupling^2, normalised to SM
    9.99999182E-01        3  36  35  23  # A0-H0-Z eff. coupling^2, normalised to SM
    0.00000000E+00        3  36  36  23  # A0-A0-Z eff. coupling^2, normalised to SM
#
    0.00000000E+00        4  25  21  21  23  # h0-g-g-Z eff. coupling^2, normalised to SM
    0.00000000E+00        4  35  21  21  23  # H0-g-g-Z eff. coupling^2, normalised to SM
    0.00000000E+00        4  36  21  21  23  # A0-g-g-Z eff. coupling^2, normalised to SM
#
#
#
#                             =================
#                             |The decay table|
#                             =================
#
# - The QCD corrections to the decays gluino -> squark  + quark
#                                     squark -> gaugino + quark_prime
#                                     squark -> squark_prime + Higgs
#                                     squark -> gluino  + quark
#   are included.
#
# - The multi-body decays for the inos, stops and sbottoms are included.
#
# - The loop induced decays for the gluino, neutralinos and stops
#   are included.
#
# - The SUSY decays of the top quark are included.
#
#
#         PDG            Width
DECAY         6     1.44579126E+00   # top decays
#          BR         NDA      ID1       ID2
     1.00000000E+00    2           5        24   # BR(t ->  b    W+)
#
#         PDG            Width
DECAY   1000021     2.88318176E+01   # gluino decays
#          BR         NDA      ID1       ID2
     2.55884370E-01    2     1000005        -5   # BR(~g -> ~b_1  bb)
     2.55884370E-01    2    -1000005         5   # BR(~g -> ~b_1* b )
     2.44115630E-01    2     1000006        -6   # BR(~g -> ~t_1  tb)
     2.44115630E-01    2    -1000006         6   # BR(~g -> ~t_1* t )
#
#         PDG            Width
DECAY   1000006     5.32772959E+00   # stop1 decays
#          BR         NDA      ID1       ID2
     2.88047580E-01    2     1000022         6   # BR(~t_1 -> ~chi_10 t )
     3.86842968E-03    2     1000023         6   # BR(~t_1 -> ~chi_20 t )
     7.08083990E-01    2     1000024         5   # BR(~t_1 -> ~chi_1+ b )
#
#         PDG            Width
DECAY   2000006     1.61688450E+02   # stop2 decays
#          BR         NDA      ID1       ID2
     8.90463870E-04    2     1000022         6   # BR(~t_2 -> ~chi_10 t )
     2.59676451E-02    2     1000023         6   # BR(~t_2 -> ~chi_20 t )
     3.01207781E-02    2     1000025         6   # BR(~t_2 -> ~chi_30 t )
     2.69991050E-02    2     1000035         6   # BR(~t_2 -> ~chi_40 t )
     1.81456361E-03    2     1000024         5   # BR(~t_2 -> ~chi_1+ b )
     5.83595367E-02    2     1000037         5   # BR(~t_2 -> ~chi_2+ b )
     2.12430482E-01    2     1000021         6   # BR(~t_2 -> ~g      t )
     1.45354262E-01    2     1000006        25   # BR(~t_2 -> ~t_1    h )
     1.39589572E-02    2     1000006        35   # BR(~t_2 -> ~t_1    H )
     1.47819799E-02    2     1000006        36   # BR(~t_2 -> ~t_1    A )
     2.78504876E-02    2     1000005        37   # BR(~t_2 -> ~b_1    H+)
     1.50831524E-01    2     1000006        23   # BR(~t_2 -> ~t_1    Z )
     2.90640215E-01    2     1000005        24   # BR(~t_2 -> ~b_1    W+)
#
#         PDG            Width
DECAY   1000005     5.44627633E+00   # sbottom1 decays
#          BR         NDA      ID1       ID2
     3.73573322E-01    2     1000022         5   # BR(~b_1 -> ~chi_10 b )
     7.66702488E-03    2     1000023         5   # BR(~b_1 -> ~chi_20 b )
     6.18759653E-01    2    -1000024         6   # BR(~b_1 -> ~chi_1- t )
#
#         PDG            Width
DECAY   2000005     1.58128273E+02   # sbottom2 decays
#          BR         NDA      ID1       ID2
     9.07180866E-05    2     1000022         5   # BR(~b_2 -> ~chi_10 b )
     1.23782172E-02    2     1000023         5   # BR(~b_2 -> ~chi_20 b )
     1.15145726E-02    2     1000025         5   # BR(~b_2 -> ~chi_30 b )
     1.14686381E-02    2     1000035         5   # BR(~b_2 -> ~chi_40 b )
     1.79241181E-04    2    -1000024         6   # BR(~b_2 -> ~chi_1- t )
     2.27859554E-02    2    -1000037         6   # BR(~b_2 -> ~chi_2- t )
     9.24028633E-01    2     1000021         5   # BR(~b_2 -> ~g      b )
     1.95882262E-03    2     1000005        25   # BR(~b_2 -> ~b_1    h )
     2.58001050E-03    2     1000005        35   # BR(~b_2 -> ~b_1    H )
     2.57605183E-03    2     1000005        36   # BR(~b_2 -> ~b_1    A )
     5.19878792E-03    2     1000006       -37   # BR(~b_2 -> ~t_1    H-)
     2.77471303E-06    2     2000006       -37   # BR(~b_2 -> ~t_2    H-)
     1.77490830E-03    2     1000005        23   # BR(~b_2 -> ~b_1    Z )
     3.44786663E-03    2     1000006       -24   # BR(~b_2 -> ~t_1    W-)
     1.48019482E-05    2     2000006       -24   # BR(~b_2 -> ~t_2    W-)
#
#         PDG            Width
DECAY   1000002     2.15379878E+02   # sup_L decays
#          BR         NDA      ID1       ID2
     6.33657581E-02    2     1000022         2   # BR(~u_L -> ~chi_10 u)
     2.32064134E-03    2     1000023         2   # BR(~u_L -> ~chi_20 u)
     5.08514176E-05    2     1000025         2   # BR(~u_L -> ~chi_30 u)
     9.85147337E-05    2     1000035         2   # BR(~u_L -> ~chi_40 u)
     1.27298837E-01    2     1000024         1   # BR(~u_L -> ~chi_1+ d)
     2.30272734E-05    2     1000037         1   # BR(~u_L -> ~chi_2+ d)
     8.06842370E-01    2     1000021         2   # BR(~u_L -> ~g      u)
#
#         PDG            Width
DECAY   2000002     2.20021527E+02   # sup_R decays
#          BR         NDA      ID1       ID2
     1.50003385E-07    2     1000022         2   # BR(~u_R -> ~chi_10 u)
     3.95857829E-02    2     1000023         2   # BR(~u_R -> ~chi_20 u)
     1.04512233E-05    2     1000025         2   # BR(~u_R -> ~chi_30 u)
     3.40724511E-05    2     1000035         2   # BR(~u_R -> ~chi_40 u)
     9.60369543E-01    2     1000021         2   # BR(~u_R -> ~g      u)
#
#         PDG            Width
DECAY   1000001     2.15394794E+02   # sdown_L decays
#          BR         NDA      ID1       ID2
     6.34679842E-02    2     1000022         1   # BR(~d_L -> ~chi_10 d)
     2.11983881E-03    2     1000023         1   # BR(~d_L -> ~chi_20 d)
     7.42263759E-05    2     1000025         1   # BR(~d_L -> ~chi_30 d)
     1.58887459E-04    2     1000035         1   # BR(~d_L -> ~chi_40 d)
     1.26372141E-01    2    -1000024         2   # BR(~d_L -> ~chi_1- u)
     7.29679913E-04    2    -1000037         2   # BR(~d_L -> ~chi_2- u)
     8.07077243E-01    2     1000021         1   # BR(~d_L -> ~g      d)
#
#         PDG            Width
DECAY   2000001     3.32138905E+01   # sdown_R decays
#          BR         NDA      ID1       ID2
     1.12799578E-07    2     1000022         1   # BR(~d_R -> ~chi_10 d)
     2.84617482E-02    2     1000023         1   # BR(~d_R -> ~chi_20 d)
     2.79571742E-06    2     1000025         1   # BR(~d_R -> ~chi_30 d)
     9.07463357E-06    2     1000035         1   # BR(~d_R -> ~chi_40 d)
     9.71526269E-01    2     1000021         1   # BR(~d_R -> ~g      d)
#
#         PDG            Width
DECAY   1000004     1.92102612E+02   # scharm_L decays
#          BR         NDA      ID1       ID2
     7.35075872E-02    2     1000022         4   # BR(~c_L -> ~chi_10 c)
     2.69121573E-03    2     1000023         4   # BR(~c_L -> ~chi_20 c)
     5.88962264E-05    2     1000025         4   # BR(~c_L -> ~chi_30 c)
     1.14099647E-04    2     1000035         4   # BR(~c_L -> ~chi_40 c)
     1.47673292E-01    2     1000024         3   # BR(~c_L -> ~chi_1+ s)
     2.66701293E-05    2     1000037         3   # BR(~c_L -> ~chi_2+ s)
     7.75928239E-01    2     1000021         4   # BR(~c_L -> ~g      c)
#
#         PDG            Width
DECAY   2000004     1.90254819E+02   # scharm_R decays
#          BR         NDA      ID1       ID2
     1.79299267E-07    2     1000022         4   # BR(~c_R -> ~chi_10 c)
     4.73061563E-02    2     1000023         4   # BR(~c_R -> ~chi_20 c)
     1.24807072E-05    2     1000025         4   # BR(~c_R -> ~chi_30 c)
     4.06888057E-05    2     1000035         4   # BR(~c_R -> ~chi_40 c)
     9.52640495E-01    2     1000021         4   # BR(~c_R -> ~g      c)
#
#         PDG            Width
DECAY   1000003     1.92106694E+02   # sstrange_L decays
#          BR         NDA      ID1       ID2
     7.36295856E-02    2     1000022         3   # BR(~s_L -> ~chi_10 s)
     2.45846215E-03    2     1000023         3   # BR(~s_L -> ~chi_20 s)
     8.59732740E-05    2     1000025         3   # BR(~s_L -> ~chi_30 s)
     1.84032081E-04    2     1000035         3   # BR(~s_L -> ~chi_40 s)
     1.46604979E-01    2    -1000024         4   # BR(~s_L -> ~chi_1- c)
     8.45153192E-04    2    -1000037         4   # BR(~s_L -> ~chi_2- c)
     7.76191815E-01    2     1000021         3   # BR(~s_L -> ~g      s)
#
#         PDG            Width
DECAY   2000003     2.86667899E+01   # sstrange_R decays
#          BR         NDA      ID1       ID2
     1.36821280E-07    2     1000022         3   # BR(~s_R -> ~chi_10 s)
     3.44763565E-02    2     1000023         3   # BR(~s_R -> ~chi_20 s)
     3.33377422E-06    2     1000025         3   # BR(~s_R -> ~chi_30 s)
     1.08203023E-05    2     1000035         3   # BR(~s_R -> ~chi_40 s)
     9.65509353E-01    2     1000021         3   # BR(~s_R -> ~g      s)
#
#         PDG            Width
DECAY   1000011     1.72726680E+00   # selectron_L decays
#          BR         NDA      ID1       ID2
     3.33256635E-01    2     1000022        11   # BR(~e_L -> ~chi_10 e-)
     2.37436864E-03    2     1000023        11   # BR(~e_L -> ~chi_20 e-)
     6.64368997E-01    2    -1000024        12   # BR(~e_L -> ~chi_1- nu_e)
#
#         PDG            Width
DECAY   2000011     7.30569400E-03   # selectron_R decays
#           BR         NDA      ID1       ID2
     3.55703000E-04    2     1000022        11   # BR(~e_R -> ~chi_10 e-)
     9.99644297E-01    2     1000023        11   # BR(~e_R -> ~chi_20 e-)
#
#         PDG            Width
DECAY   1000013     1.72726655E+00   # smuon_L decays
#          BR         NDA      ID1       ID2
     3.33256573E-01    2     1000022        13   # BR(~mu_L -> ~chi_10 mu-)
     2.37433279E-03    2     1000023        13   # BR(~mu_L -> ~chi_20 mu-)
     6.64369094E-01    2    -1000024        14   # BR(~mu_L -> ~chi_1- nu_mu)
#
#         PDG            Width
DECAY   2000013     7.30544411E-03   # smuon_R decays
#           BR         NDA      ID1       ID2
     3.55715040E-04    2     1000022        13   # BR(~mu_R -> ~chi_10 mu-)
     9.99644285E-01    2     1000023        13   # BR(~mu_R -> ~chi_20 mu-)
#
#         PDG            Width
DECAY   1000015     2.32913124E+01   # stau_1 decays
#          BR         NDA      ID1       ID2
     1.48210648E-03    2     1000022        15   # BR(~tau_1 -> ~chi_10  tau-)
     8.01645540E-01    2     1000023        15   # BR(~tau_1 -> ~chi_20  tau-)
     4.88505991E-02    2     1000025        15   # BR(~tau_1 -> ~chi_30  tau-)
     4.89172609E-02    2     1000035        15   # BR(~tau_1 -> ~chi_40  tau-)
     2.94138528E-03    2    -1000024        16   # BR(~tau_1 -> ~chi_1-  nu_tau)
     9.61631078E-02    2    -1000037        16   # BR(~tau_1 -> ~chi_2-  nu_tau)
#
#         PDG            Width
DECAY   2000015     5.55209085E+01   # stau_2 decays
#          BR         NDA      ID1       ID2
     2.86018672E-01    2     1000022        15   # BR(~tau_2 -> ~chi_10  tau-)
     9.20904128E-02    2     1000023        15   # BR(~tau_2 -> ~chi_20  tau-)
     2.32266645E-02    2     1000025        15   # BR(~tau_2 -> ~chi_30  tau-)
     2.32829972E-02    2     1000035        15   # BR(~tau_2 -> ~chi_40  tau-)
     5.70718997E-01    2    -1000024        16   # BR(~tau_2 -> ~chi_1-  nu_tau)
     4.04878455E-03    2    -1000037        16   # BR(~tau_2 -> ~chi_2-  nu_tau)
     3.17255692E-04    2     1000015        25   # BR(~tau_2 -> ~tau_1   h)
     2.96215847E-04    2     1000015        23   # BR(~tau_2 -> ~tau_1   Z)
#
#         PDG            Width
DECAY   1000012     1.62915611E+00   # snu_eL decays
#          BR         NDA      ID1       ID2
     3.33028667E-01    2     1000022        12   # BR(~nu_eL -> ~chi_10 nu_e)
     1.07023973E-03    2     1000023        12   # BR(~nu_eL -> ~chi_20 nu_e)
     6.65901093E-01    2     1000024        11   # BR(~nu_eL -> ~chi_1+ e-)
#
#         PDG            Width
DECAY   1000014     1.62915572E+00   # snu_muL decays
#          BR         NDA      ID1       ID2
     3.33028747E-01    2     1000022        14   # BR(~nu_muL -> ~chi_10 nu_mu)
     1.07023999E-03    2     1000023        14   # BR(~nu_muL -> ~chi_20 nu_mu)
     6.65901013E-01    2     1000024        13   # BR(~nu_muL -> ~chi_1+ mu-)
#
#         PDG            Width
DECAY   1000016     5.55597451E+01   # snu_tauL decays
#          BR         NDA      ID1       ID2
     2.87203200E-01    2     1000022        16   # BR(~nu_tauL -> ~chi_10 nu_tau)
     8.91792966E-02    2     1000023        16   # BR(~nu_tauL -> ~chi_20 nu_tau)
     4.90687830E-04    2     1000025        16   # BR(~nu_tauL -> ~chi_30 nu_tau)
     1.12402824E-03    2     1000035        16   # BR(~nu_tauL -> ~chi_40 nu_tau)
     5.75743583E-01    2     1000024        15   # BR(~nu_tauL -> ~chi_1+ tau-)
     4.56656230E-02    2     1000037        15   # BR(~nu_tauL -> ~chi_2+ tau-)
     5.93581199E-04    2    -1000015       -24   # BR(~nu_tauL -> ~tau_1+ W-)
#
#         PDG            Width
DECAY   1000024     3.55933810E-15   # chargino1+ decays
#           BR         NDA      ID1       ID2       ID3
     1.95564370E-02    3     1000022       -11        12   # BR(~chi_1+ -> ~chi_10 e+   nu_e)
     2.18562460E-03    3     1000022       -13        14   # BR(~chi_1+ -> ~chi_10 mu+  nu_mu)
     9.78257940E-01    2     1000022       211             # BR(~chi_1+ -> ~chi_10 pi+)
#
#         PDG            Width
DECAY   1000037     2.26630609E+01   # chargino2+ decays
#          BR         NDA      ID1       ID2
     7.31387734E-02    2     1000006        -5   # BR(~chi_2+ -> ~t_1     bb)
     5.57490933E-01    2    -1000005         6   # BR(~chi_2+ -> ~b_1*    t )
     4.51119834E-05    2     1000012       -11   # BR(~chi_2+ -> ~nu_eL   e+  )
     4.51119834E-05    2     1000014       -13   # BR(~chi_2+ -> ~nu_muL mu+ )
     1.41754943E-03    2    -1000011        12   # BR(~chi_2+ -> ~e_L+    nu_e)
     1.41754943E-03    2    -1000013        14   # BR(~chi_2+ -> ~mu_L+   nu_mu)
     1.12692962E-01    2     1000024        23   # BR(~chi_2+ -> ~chi_1+  Z )
     1.10025363E-01    2     1000022        24   # BR(~chi_2+ -> ~chi_10  W+)
     3.23770750E-02    2     1000023        24   # BR(~chi_2+ -> ~chi_20  W+)
     1.11349572E-01    2     1000024        25   # BR(~chi_2+ -> ~chi_1+  h )
#
#         PDG            Width
DECAY   1000022     0.00000000E+00   # neutralino1 decays
#
#         PDG            Width
DECAY   1000023     2.94683095E-04   # neutralino2 decays
#          BR         NDA      ID1       ID2
     8.13251567E-02    2     1000022        23   # BR(~chi_20 -> ~chi_10   Z )
     3.41388409E-01    2     1000024       -24   # BR(~chi_20 -> ~chi_1+   W-)
     3.41388409E-01    2    -1000024        24   # BR(~chi_20 -> ~chi_1-   W+)
     2.35898026E-01    2     1000022        25   # BR(~chi_20 -> ~chi_10   h )
#
#         PDG            Width
DECAY   1000025     2.43231579E+01   # neutralino3 decays
#          BR         NDA      ID1       ID2
     7.06114136E-02    2     1000022        23   # BR(~chi_30 -> ~chi_10   Z )
     2.27885711E-02    2     1000023        23   # BR(~chi_30 -> ~chi_20   Z )
     1.02792946E-01    2     1000024       -24   # BR(~chi_30 -> ~chi_1+   W-)
     1.02792946E-01    2    -1000024        24   # BR(~chi_30 -> ~chi_1-   W+)
     3.29283029E-02    2     1000022        25   # BR(~chi_30 -> ~chi_10   h )
     7.26156079E-03    2     1000023        25   # BR(~chi_30 -> ~chi_20   h )
     3.01763175E-01    2     1000006        -6   # BR(~chi_30 -> ~t_1      tb)
     3.01763175E-01    2    -1000006         6   # BR(~chi_30 -> ~t_1*     t )
     2.80915969E-02    2     1000005        -5   # BR(~chi_30 -> ~b_1      bb)
     2.80915969E-02    2    -1000005         5   # BR(~chi_30 -> ~b_1*     b )
     5.74807928E-05    2     1000011       -11   # BR(~chi_30 -> ~e_L-     e+)
     5.74807928E-05    2    -1000011        11   # BR(~chi_30 -> ~e_L+     e-)
     3.59624796E-05    2     2000011       -11   # BR(~chi_30 -> ~e_R-     e+)
     3.59624796E-05    2    -2000011        11   # BR(~chi_30 -> ~e_R+     e-)
     5.74807928E-05    2     1000013       -13   # BR(~chi_30 -> ~mu_L-    mu+)
     5.74807928E-05    2    -1000013        13   # BR(~chi_30 -> ~mu_L+    mu-)
     3.59624796E-05    2     2000013       -13   # BR(~chi_30 -> ~mu_R-    mu+)
     3.59624796E-05    2    -2000013        13   # BR(~chi_30 -> ~mu_R+    mu-)
     1.85235800E-04    2     1000012       -12   # BR(~chi_30 -> ~nu_eL    nu_eb)
     1.85235800E-04    2    -1000012        12   # BR(~chi_30 -> ~nu_eL*   nu_e )
     1.85235800E-04    2     1000014       -14   # BR(~chi_30 -> ~nu_muL   nu_mub)
     1.85235800E-04    2    -1000014        14   # BR(~chi_30 -> ~nu_muL*  nu_mu )
#
#         PDG            Width
DECAY   1000035     2.24681931E+01   # neutralino4 decays
#          BR         NDA      ID1       ID2
     3.76963362E-02    2     1000022        23   # BR(~chi_40 -> ~chi_10   Z )
     7.68906227E-03    2     1000023        23   # BR(~chi_40 -> ~chi_20   Z )
     1.11839011E-01    2     1000024       -24   # BR(~chi_40 -> ~chi_1+   W-)
     1.11839011E-01    2    -1000024        24   # BR(~chi_40 -> ~chi_1-   W+)
     7.71960170E-02    2     1000022        25   # BR(~chi_40 -> ~chi_10   h )
     2.65970547E-02    2     1000023        25   # BR(~chi_40 -> ~chi_20   h )
     2.81354078E-01    2     1000006        -6   # BR(~chi_40 -> ~t_1      tb)
     2.81354078E-01    2    -1000006         6   # BR(~chi_40 -> ~t_1*     t )
     3.08362697E-02    2     1000005        -5   # BR(~chi_40 -> ~b_1      bb)
     3.08362697E-02    2    -1000005         5   # BR(~chi_40 -> ~b_1*     b )
     1.02784901E-04    2     1000011       -11   # BR(~chi_40 -> ~e_L-     e+)
     1.02784901E-04    2    -1000011        11   # BR(~chi_40 -> ~e_L+     e-)
     1.27276498E-04    2     2000011       -11   # BR(~chi_40 -> ~e_R-     e+)
     1.27276498E-04    2    -2000011        11   # BR(~chi_40 -> ~e_R+     e-)
     1.02784901E-04    2     1000013       -13   # BR(~chi_40 -> ~mu_L-    mu+)
     1.02784901E-04    2    -1000013        13   # BR(~chi_40 -> ~mu_L+    mu-)
     1.27276498E-04    2     2000013       -13   # BR(~chi_40 -> ~mu_R-    mu+)
     1.27276498E-04    2    -2000013        13   # BR(~chi_40 -> ~mu_R+    mu-)
     4.60641923E-04    2     1000012       -12   # BR(~chi_40 -> ~nu_eL    nu_eb)
     4.60641923E-04    2    -1000012        12   # BR(~chi_40 -> ~nu_eL*   nu_e )
     4.60641923E-04    2     1000014       -14   # BR(~chi_40 -> ~nu_muL   nu_mub)
     4.60641923E-04    2    -1000014        14   # BR(~chi_40 -> ~nu_muL*  nu_mu )
#
#         PDG            Width
DECAY        25     4.77749695E-03   # h decays
#          BR         NDA      ID1       ID2
     5.76995754E-01    2           5        -5   # BR(h -> b       bb     )
     5.74540991E-02    2         -15        15   # BR(h -> tau+    tau-   )
     2.03582934E-04    2         -13        13   # BR(h -> mu+     mu-    )
     2.20399771E-04    2           3        -3   # BR(h -> s       sb     )
     1.84941750E-02    2           4        -4   # BR(h -> c       cb     )
     7.02449843E-02    2          21        21   # BR(h -> g       g      )
     2.17774967E-03    2          22        22   # BR(h -> gam     gam    )
     1.68527760E-03    2          22        23   # BR(h -> Z       gam    )
     2.41136983E-01    2          24       -24   # BR(h -> W+      W-     )
     3.13869952E-02    2          23        23   # BR(h -> Z       Z      )
#
#         PDG            Width
DECAY        35     6.79905653E+00   # H decays
#          BR         NDA      ID1       ID2
     8.43826911E-01    2           5        -5   # BR(H -> b       bb     )
     1.28596134E-01    2         -15        15   # BR(H -> tau+    tau-   )
     4.83817759E-04    2         -13        13   # BR(H -> mu+     mu-    )
     2.92083140E-04    2           3        -3   # BR(H -> s       sb     )
     1.94294876E-07    2           4        -4   # BR(H -> c       cb     )
     1.73437341E-02    2           6        -6   # BR(H -> t       tb     )
     9.80593968E-05    2          21        21   # BR(H -> g       g      )
     6.59615352E-09    2          22        22   # BR(H -> gam     gam    )
     3.80558128E-08    2          23        22   # BR(H -> Z       gam    )
     4.45687905E-05    2          24       -24   # BR(H -> W+      W-     )
     2.20360043E-05    2          23        23   # BR(H -> Z       Z      )
     2.09003843E-04    2          25        25   # BR(H -> h       h      )
     5.28714528E-03    2     1000024  -1000024   # BR(H -> ~chi_1+ ~chi_1-)
     2.65918080E-03    2     1000022   1000022   # BR(H -> ~chi_10 ~chi_10)
     6.84228634E-05    2     1000023   1000023   # BR(H -> ~chi_20 ~chi_20)
     1.02262985E-03    2     1000022   1000023   # BR(H -> ~chi_10 ~chi_20)
     4.50398831E-06    2     1000011  -1000011   # BR(H -> ~e_L-   ~e_L+  )
     3.06556845E-06    2     2000011  -2000011   # BR(H -> ~e_R-   ~e_R+  )
     4.50398831E-06    2     1000013  -1000013   # BR(H -> ~mu_L-  ~mu_L+ )
     3.06556845E-06    2     2000013  -2000013   # BR(H -> ~mu_R-  ~mu_R+ )
     1.54478489E-05    2     1000012  -1000012   # BR(H -> ~nu_eL  ~nu_eL*   )
     1.54478489E-05    2     1000014  -1000014   # BR(H -> ~nu_muL ~nu_muL*  )
#
#         PDG            Width
DECAY        36     6.84168048E+00   # A decays
#          BR         NDA      ID1       ID2
     8.38909379E-01    2           5        -5   # BR(A -> b       bb     )
     1.27841296E-01    2         -15        15   # BR(A -> tau+    tau-   )
     4.80971101E-04    2         -13        13   # BR(A -> mu+     mu-    )
     2.90408163E-04    2           3        -3   # BR(A -> s       sb     )
     1.88068636E-07    2           4        -4   # BR(A -> c       cb     )
     1.81041029E-02    2           6        -6   # BR(A -> t       tb     )
     1.90839224E-04    2          21        21   # BR(A -> g       g      )
     1.13138814E-07    2          22        22   # BR(A -> gam     gam    )
     1.00959755E-07    2          23        22   # BR(A -> Z       gam    )
     4.36687472E-05    2          23        25   # BR(A -> Z       h      )
     7.90903505E-03    2     1000024  -1000024   # BR(A -> ~chi_1+ ~chi_1-)
     3.97463984E-03    2     1000022   1000022   # BR(A -> ~chi_10 ~chi_10)
     2.36956538E-04    2     1000023   1000023   # BR(A -> ~chi_20 ~chi_20)
     2.01830133E-03    2     1000022   1000023   # BR(A -> ~chi_10 ~chi_20)
#
#         PDG            Width
DECAY        37     6.11063310E+00   # H+ decays
#          BR         NDA      ID1       ID2
     1.42135585E-03    2           4        -5   # BR(H+ -> c       bb     )
     1.43538039E-01    2         -15        16   # BR(H+ -> tau+    nu_tau )
     5.40026181E-04    2         -13        14   # BR(H+ -> mu+     nu_mu  )
     1.42134345E-05    2           2        -5   # BR(H+ -> u       bb     )
     1.62412826E-05    2           2        -3   # BR(H+ -> u       sb     )
     3.19879016E-04    2           4        -3   # BR(H+ -> c       sb     )
     8.50603744E-01    2           6        -5   # BR(H+ -> t       bb     )
     4.95816345E-05    2          24        25   # BR(H+ -> W+      h      )
     5.04548492E-11    2          24        36   # BR(H+ -> W+      A      )
     2.24447081E-08    2     1000024   1000022   # BR(H+ -> ~chi_1+ ~chi_10)
     3.45681965E-03    2     1000024   1000023   # BR(H+ -> ~chi_1+ ~chi_20)
     2.00384929E-05    2    -1000011   1000012   # BR(H+ -> ~e_L+   ~nu_eL )
     2.00384929E-05    2    -1000013   1000014   # BR(H+ -> ~mu_L+  ~nu_muL)
