#
#                              ======================
#                              | THE SUSYHIT OUTPUT |
#                              ======================
#
#
#              ------------------------------------------------------
#              |     This is the output of the SUSY-HIT package     |
#              |  created by A.Djouadi, M.Muehlleitner and M.Spira. |
#              |  In case of problems with SUSY-HIT email to        |
#              |           margarete.muehlleitner@cern.ch           |
#              |           michael.spira@psi.ch                     |
#              |           abdelhak.djouadi@cern.ch                 |
#              ------------------------------------------------------
#
#              ------------------------------------------------------
#              |  SUSY Les Houches Accord - MSSM Spectrum + Decays  |
#              |              based on the decay programs           |
#              |                                                    |
#              |                     SDECAY 1.3b                    |
#              |                                                    |
#              |  Authors: M.Muhlleitner, A.Djouadi and Y.Mambrini  |
#              |  Ref.:    Comput.Phys.Commun.168(2005)46           |
#              |           [hep-ph/0311167]                         |
#              |                                                    |
#              |                     HDECAY 3.4                     |
#              |                                                    |
#              |  By: A.Djouadi,J.Kalinowski,M.Muhlleitner,M.Spira  |
#              |  Ref.:    Comput.Phys.Commun.108(1998)56           |
#              |           [hep-ph/9704448]                         |
#              |                                                    |
#              |                                                    |
#              |  If not stated otherwise all DRbar couplings and   |
#              |  soft SUSY breaking masses are given at the scale  |
#              |  Q=  0.12496702E+04
#              |                                                    |
#              ------------------------------------------------------
#
#
BLOCK DCINFO  # Decay Program information
     1   SDECAY/HDECAY # decay calculator
     2   1.3b  /3.4    # version number
#
BLOCK SPINFO  # Spectrum calculator information
     1   SuSpect     # RGE +Spectrum calculator            
     2   2.41        # version number                      
#
BLOCK MODSEL  # Model selection
     1    -1   # #bottom-up MSSM                                   
#
BLOCK SMINPUTS  # Standard Model inputs
         1     1.27934000E+02   # alpha_em^-1(M_Z)^MSbar
         2     1.16639000E-05   # G_F [GeV^-2]
         3     1.17200000E-01   # alpha_S(M_Z)^MSbar
         4     9.11870000E+01   # M_Z pole mass
         5     4.25000000E+00   # mb(mb)^MSbar
         6     1.72500000E+02   # mt pole mass
         7     1.77710000E+00   # mtau pole mass
#
BLOCK MINPAR  # Input parameters - minimal models
#
BLOCK EXTPAR  # Input parameters - non-minimal models
         0     1.24967024E+03   # EWSB                
         1     6.10000000E+01   # M_1                 
         2     1.24000000E+02   # M_2                 
         3     1.00000000E+03   # M_3                 
        11     0.00000000E+00   # A_t                 
        12     0.00000000E+00   # A_b                 
        13     0.00000000E+00   # A_tau               
        14     0.00000000E+00   # A_u                 
        15     0.00000000E+00   # A_d                 
        16     0.00000000E+00   # A_e                 
        23     1.00000000E+03   # mu(EWSB)            
        25     5.00000000E+00   # tanbeta(in)         
        26     1.00000000E+03   # MA_pole             
        31     5.00000000E+03   # M_eL                
        32     5.00000000E+03   # M_muL               
        33     5.00000000E+03   # M_tauL              
        34     5.00000000E+03   # M_eR                
        35     5.00000000E+03   # M_muR               
        36     5.00000000E+03   # M_tauR              
        41     5.00000000E+03   # M_q1L               
        42     5.00000000E+03   # M_q2L               
        43     2.80000000E+02   # M_q3L               
        44     5.00000000E+03   # M_uR                
        45     5.00000000E+03   # M_cR                
        46     5.00000000E+03   # M_tR                
        47     5.00000000E+03   # M_dR                
        48     5.00000000E+03   # M_sR                
        49     5.00000000E+03   # M_bR                
#
BLOCK MASS  # Mass Spectrum
# PDG code           mass       particle
        24     8.07254255E+01   # W+
        25     1.17956671E+02   # h
        35     1.00081538E+03   # H
        36     1.00000000E+03   # A
        37     1.00381042E+03   # H+
         5     4.87877839E+00   # b-quark pole mass calculated from mb(mb)_Msbar
   1000001     5.03982943E+03   # ~d_L
   2000001     5.03957462E+03   # ~d_R
   1000002     5.03926030E+03   # ~u_L
   2000002     5.03939618E+03   # ~u_R
   1000003     5.03982943E+03   # ~s_L
   2000003     5.03957462E+03   # ~s_R
   1000004     5.03926030E+03   # ~c_L
   2000004     5.03939618E+03   # ~c_R
   1000005     8.50000000E+02   # ~b_1
   2000005     5.03957577E+03   # ~b_2
   1000006     5.00095296E+03   # ~t_1
   2000006     5.06095296E+03   # ~t_2
   1000011     5.00019364E+03   # ~e_L
   2000011     5.00017688E+03   # ~e_R
   1000012     4.99962946E+03   # ~nu_eL
   1000013     5.00019364E+03   # ~mu_L
   2000013     5.00017688E+03   # ~mu_R
   1000014     4.99962946E+03   # ~nu_muL
   1000015     4.99934703E+03   # ~tau_1
   2000015     5.00102396E+03   # ~tau_2
   1000016     4.99962946E+03   # ~nu_tauL
   1000021     5.23162122E+03   # ~g
   1000022     3.00000000E+02   # ~chi_10
   1000023     6.00000000E+02   # ~chi_20
   1000025     1.00219118E+03   # ~chi_30
   1000035     1.00631764E+03   # ~chi_40
   1000024     6.00000000E+02   # ~chi_1+
   1000037     1.00653031E+03   # ~chi_2+
#
BLOCK NMIX  # Neutralino Mixing Matrix
  1  1     9.98545703E-01   # N_11
  1  2    -2.59786721E-02   # N_12
  1  3     4.56614469E-02   # N_13
  1  4    -1.21086541E-02   # N_14
  2  1     2.98002800E-02   # N_21
  2  2     9.96170557E-01   # N_22
  2  3    -7.82591190E-02   # N_23
  2  4     2.51331558E-02   # N_24
  3  1     2.26735920E-02   # N_31
  3  2    -3.82285999E-02   # N_32
  3  3    -7.05226776E-01   # N_33
  3  4    -7.07587222E-01   # N_34
  4  1     3.87856956E-02   # N_41
  4  2    -7.42152589E-02   # N_42
  4  3    -7.03168356E-01   # N_43
  4  4     7.06075087E-01   # N_44
#
BLOCK UMIX  # Chargino Mixing Matrix U
  1  1    -9.93675290E-01   # U_11
  1  2     1.12291666E-01   # U_12
  2  1     1.12291666E-01   # U_21
  2  2     9.93675290E-01   # U_22
#
BLOCK VMIX  # Chargino Mixing Matrix V
  1  1    -9.99345192E-01   # V_11
  1  2     3.61826921E-02   # V_12
  2  1     3.61826921E-02   # V_21
  2  2     9.99345192E-01   # V_22
#
BLOCK STOPMIX  # Stop Mixing Matrix
  1  1     9.99998250E-01   # cos(theta_t)
  1  2     1.87082787E-03   # sin(theta_t)
  2  1    -1.87082787E-03   # -sin(theta_t)
  2  2     9.99998250E-01   # cos(theta_t)
#
BLOCK SBOTMIX  # Sbottom Mixing Matrix
  1  1     9.99999888E-01   # cos(theta_b)
  1  2     4.73286370E-04   # sin(theta_b)
  2  1    -4.73286370E-04   # -sin(theta_b)
  2  2     9.99999888E-01   # cos(theta_b)
#
BLOCK STAUMIX  # Stau Mixing Matrix
  1  1     7.03562554E-01   # cos(theta_tau)
  1  2     7.10633332E-01   # sin(theta_tau)
  2  1    -7.10633332E-01   # -sin(theta_tau)
  2  2     7.03562554E-01   # cos(theta_tau)
#
BLOCK ALPHA  # Higgs mixing
          -2.10135226E-01   # Mixing angle in the neutral Higgs boson sector
#
BLOCK HMIX Q=  1.24967024E+03  # DRbar Higgs Parameters
         1     9.89145527E+02   # mu(Q)               
         2     4.79766260E+00   # tanbeta(Q)          
         3     2.43349652E+02   # vev(Q)              
         4     9.91108016E+05   # MA^2(Q)             
#
BLOCK GAUGE Q=  1.24967024E+03  # The gauge couplings
     1     3.61009210E-01   # gprime(Q) DRbar
     2     6.44743696E-01   # g(Q) DRbar
     3     1.04187348E+00   # g3(Q) DRbar
#
BLOCK AU Q=  1.24967024E+03  # The trilinear couplings
  1  1     1.66606151E+03   # A_u(Q) DRbar
  2  2     1.66606151E+03   # A_c(Q) DRbar
  3  3     2.20944924E+03   # A_t(Q) DRbar
#
BLOCK AD Q=  1.24967024E+03  # The trilinear couplings
  1  1     1.11575193E+03   # A_d(Q) DRbar
  2  2     1.11575193E+03   # A_s(Q) DRbar
  3  3     1.29653761E+03   # A_b(Q) DRbar
#
BLOCK AE Q=  1.24967024E+03  # The trilinear couplings
  1  1     1.05817446E+02   # A_e(Q) DRbar
  2  2     1.05817446E+02   # A_mu(Q) DRbar
  3  3     1.05899436E+02   # A_tau(Q) DRbar
#
BLOCK Yu Q=  1.24967024E+03  # The Yukawa couplings
  1  1     0.00000000E+00   # y_u(Q) DRbar
  2  2     0.00000000E+00   # y_c(Q) DRbar
  3  3     8.73211437E-01   # y_t(Q) DRbar
#
BLOCK Yd Q=  1.24967024E+03  # The Yukawa couplings
  1  1     0.00000000E+00   # y_d(Q) DRbar
  2  2     0.00000000E+00   # y_s(Q) DRbar
  3  3     6.99698213E-02   # y_b(Q) DRbar
#
BLOCK Ye Q=  1.24967024E+03  # The Yukawa couplings
  1  1     0.00000000E+00   # y_e(Q) DRbar
  2  2     0.00000000E+00   # y_mu(Q) DRbar
  3  3     4.97737854E-02   # y_tau(Q) DRbar
#
BLOCK MSOFT Q=  1.24967024E+03  # The soft SUSY breaking masses at the scale Q
         1     1.59628987E+02   # M_1                 
         2     1.74629138E+02   # M_2                 
         3     4.53841372E+02   # M_3                 
        14     0.00000000E+00   # A_u                 
        15     0.00000000E+00   # A_d                 
        16     0.00000000E+00   # A_e                 
        21     1.84334654E+06   # M^2_Hd              
        22     2.44894237E+07   # M^2_Hu              
        31     5.18106543E+03   # M_eL                
        32     5.18106543E+03   # M_muL               
        33     5.18448656E+03   # M_tauL              
        34     4.67521231E+03   # M_eR                
        35     4.67521231E+03   # M_muR               
        36     4.68283043E+03   # M_tauR              
        41     4.98174985E+03   # M_q1L               
        42     4.98174985E+03   # M_q2L               
        43     2.96029251E+03   # M_q3L               
        44     5.23167454E+03   # M_uR                
        45     5.23167454E+03   # M_cR                
        46     6.73003431E+03   # M_tR                
        47     4.90766249E+03   # M_dR                
        48     4.90766249E+03   # M_sR                
        49     4.91238390E+03   # M_bR                
#
#
#
#                             =================
#                             |The decay table|
#                             =================
#
# - The QCD corrections to the decays gluino -> squark  + quark
#                                     squark -> gaugino + quark_prime
#                                     squark -> squark_prime + Higgs
#                                     squark -> gluino  + quark
#   are included.
#
# - The multi-body decays for the inos, stops and sbottoms are included.
#
# - The loop induced decays for the gluino, neutralinos and stops
#   are included.
#
# - The SUSY decays of the top quark are included.
#
#
#         PDG            Width
DECAY         6     1.42840824E+00   # top decays
#          BR         NDA      ID1       ID2
     1.00000000E+00    2           5        24   # BR(t ->  b    W+)
#
#         PDG            Width
DECAY   1000021     8.66375894E+01   # gluino decays
#          BR         NDA      ID1       ID2
     2.77622270E-03    2     1000001        -1   # BR(~g -> ~d_L  db)
     2.77622270E-03    2    -1000001         1   # BR(~g -> ~d_L* d )
     2.78346634E-03    2     2000001        -1   # BR(~g -> ~d_R  db)
     2.78346634E-03    2    -2000001         1   # BR(~g -> ~d_R* d )
     2.79241420E-03    2     1000002        -2   # BR(~g -> ~u_L  ub)
     2.79241420E-03    2    -1000002         2   # BR(~g -> ~u_L* u )
     2.78854436E-03    2     2000002        -2   # BR(~g -> ~u_R  ub)
     2.78854436E-03    2    -2000002         2   # BR(~g -> ~u_R* u )
     2.77622270E-03    2     1000003        -3   # BR(~g -> ~s_L  sb)
     2.77622270E-03    2    -1000003         3   # BR(~g -> ~s_L* s )
     2.78346634E-03    2     2000003        -3   # BR(~g -> ~s_R  sb)
     2.78346634E-03    2    -2000003         3   # BR(~g -> ~s_R* s )
     2.79241420E-03    2     1000004        -4   # BR(~g -> ~c_L  cb)
     2.79241420E-03    2    -1000004         4   # BR(~g -> ~c_L* c )
     2.78854436E-03    2     2000004        -4   # BR(~g -> ~c_R  cb)
     2.78854436E-03    2    -2000004         4   # BR(~g -> ~c_R* c )
     4.71975995E-01    2     1000005        -5   # BR(~g -> ~b_1  bb)
     4.71975995E-01    2    -1000005         5   # BR(~g -> ~b_1* b )
     2.78309703E-03    2     2000005        -5   # BR(~g -> ~b_2  bb)
     2.78309703E-03    2    -2000005         5   # BR(~g -> ~b_2* b )
     2.95961279E-03    2     1000006        -6   # BR(~g -> ~t_1  tb)
     2.95961279E-03    2    -1000006         6   # BR(~g -> ~t_1* t )
#
#         PDG            Width
DECAY   1000006     4.11356949E+04   # stop1 decays
#          BR         NDA      ID1       ID2
     1.17863617E-05    2     1000022         6   # BR(~t_1 -> ~chi_10 t )
     4.78018371E-04    2     1000023         6   # BR(~t_1 -> ~chi_20 t )
     7.39988547E-04    2     1000025         6   # BR(~t_1 -> ~chi_30 t )
     7.50224878E-04    2     1000035         6   # BR(~t_1 -> ~chi_40 t )
     9.47494847E-04    2     1000024         5   # BR(~t_1 -> ~chi_1+ b )
     1.52566914E-05    2     1000037         5   # BR(~t_1 -> ~chi_2+ b )
    -1.59271853E-07    2     1000005        37   # BR(~t_1 -> ~b_1    H+)
     9.97057390E-01    2     1000005        24   # BR(~t_1 -> ~b_1    W+)
#
#         PDG            Width
DECAY   2000006     1.42636968E+02   # stop2 decays
#          BR         NDA      ID1       ID2
     7.86473252E-02    2     1000022         6   # BR(~t_2 -> ~chi_10 t )
     1.12617853E-03    2     1000023         6   # BR(~t_2 -> ~chi_20 t )
     2.17488101E-01    2     1000025         6   # BR(~t_2 -> ~chi_30 t )
     2.13522881E-01    2     1000035         6   # BR(~t_2 -> ~chi_40 t )
     2.22460709E-03    2     1000024         5   # BR(~t_2 -> ~chi_1+ b )
     4.51926410E-01    2     1000037         5   # BR(~t_2 -> ~chi_2+ b )
     4.13881494E-02    2     1000005        37   # BR(~t_2 -> ~b_1    H+)
    -6.32365095E-03    2     1000005        24   # BR(~t_2 -> ~b_1    W+)
#
#         PDG            Width
DECAY   1000005     2.70729284E+00   # sbottom1 decays
#          BR         NDA      ID1       ID2
     1.00000000E+00    2    -1000024         6   # BR(~b_1 -> ~chi_1- t )
#
#         PDG            Width
DECAY   2000005     3.65295455E+00   # sbottom2 decays
#          BR         NDA      ID1       ID2
     7.63004177E-01    2     1000022         5   # BR(~b_2 -> ~chi_10 b )
     1.35982146E-03    2     1000023         5   # BR(~b_2 -> ~chi_20 b )
     5.67859690E-02    2     1000025         5   # BR(~b_2 -> ~chi_30 b )
     5.71442081E-02    2     1000035         5   # BR(~b_2 -> ~chi_40 b )
     1.35361414E-03    2    -1000024         6   # BR(~b_2 -> ~chi_1- t )
     1.06738602E-01    2    -1000037         6   # BR(~b_2 -> ~chi_2- t )
     1.00381002E-03    2     1000005        25   # BR(~b_2 -> ~b_1    h )
     7.06977524E-03    2     1000005        35   # BR(~b_2 -> ~b_1    H )
     7.04392056E-03    2     1000005        36   # BR(~b_2 -> ~b_1    A )
    -1.50389810E-03    2     1000005        23   # BR(~b_2 -> ~b_1    Z )
#
#         PDG            Width
DECAY   1000002     6.03604680E+01   # sup_L decays
#          BR         NDA      ID1       ID2
     8.55487886E-03    2     1000022         2   # BR(~u_L -> ~chi_10 u)
     3.30673222E-01    2     1000023         2   # BR(~u_L -> ~chi_20 u)
     3.60354518E-04    2     1000025         2   # BR(~u_L -> ~chi_30 u)
     1.39776870E-03    2     1000035         2   # BR(~u_L -> ~chi_40 u)
     6.58197922E-01    2     1000024         1   # BR(~u_L -> ~chi_1+ d)
     8.15853983E-04    2     1000037         1   # BR(~u_L -> ~chi_2+ d)
#
#         PDG            Width
DECAY   2000002     1.11864314E+01   # sup_R decays
#          BR         NDA      ID1       ID2
     9.97228026E-01    2     1000022         2   # BR(~u_R -> ~chi_10 u)
     8.80130785E-04    2     1000023         2   # BR(~u_R -> ~chi_20 u)
     4.82068030E-04    2     1000025         2   # BR(~u_R -> ~chi_30 u)
     1.40977521E-03    2     1000035         2   # BR(~u_R -> ~chi_40 u)
#
#         PDG            Width
DECAY   1000001     6.03424368E+01   # sdown_L decays
#          BR         NDA      ID1       ID2
     1.50010469E-02    2     1000022         1   # BR(~d_L -> ~chi_10 d)
     3.23498369E-01    2     1000023         1   # BR(~d_L -> ~chi_20 d)
     5.62345041E-04    2     1000025         1   # BR(~d_L -> ~chi_30 d)
     2.06823973E-03    2     1000035         1   # BR(~d_L -> ~chi_40 d)
     6.51008881E-01    2    -1000024         2   # BR(~d_L -> ~chi_1- u)
     7.86111822E-03    2    -1000037         2   # BR(~d_L -> ~chi_2- u)
#
#         PDG            Width
DECAY   2000001     2.79669202E+00   # sdown_R decays
#          BR         NDA      ID1       ID2
     9.97228016E-01    2     1000022         1   # BR(~d_R -> ~chi_10 d)
     8.80131443E-04    2     1000023         1   # BR(~d_R -> ~chi_20 d)
     4.82070493E-04    2     1000025         1   # BR(~d_R -> ~chi_30 d)
     1.40978248E-03    2     1000035         1   # BR(~d_R -> ~chi_40 d)
#
#         PDG            Width
DECAY   1000004     6.03604680E+01   # scharm_L decays
#          BR         NDA      ID1       ID2
     8.55487886E-03    2     1000022         4   # BR(~c_L -> ~chi_10 c)
     3.30673222E-01    2     1000023         4   # BR(~c_L -> ~chi_20 c)
     3.60354518E-04    2     1000025         4   # BR(~c_L -> ~chi_30 c)
     1.39776870E-03    2     1000035         4   # BR(~c_L -> ~chi_40 c)
     6.58197922E-01    2     1000024         3   # BR(~c_L -> ~chi_1+ s)
     8.15853983E-04    2     1000037         3   # BR(~c_L -> ~chi_2+ s)
#
#         PDG            Width
DECAY   2000004     1.11864314E+01   # scharm_R decays
#          BR         NDA      ID1       ID2
     9.97228026E-01    2     1000022         4   # BR(~c_R -> ~chi_10 c)
     8.80130785E-04    2     1000023         4   # BR(~c_R -> ~chi_20 c)
     4.82068030E-04    2     1000025         4   # BR(~c_R -> ~chi_30 c)
     1.40977521E-03    2     1000035         4   # BR(~c_R -> ~chi_40 c)
#
#         PDG            Width
DECAY   1000003     6.03424368E+01   # sstrange_L decays
#          BR         NDA      ID1       ID2
     1.50010469E-02    2     1000022         3   # BR(~s_L -> ~chi_10 s)
     3.23498369E-01    2     1000023         3   # BR(~s_L -> ~chi_20 s)
     5.62345041E-04    2     1000025         3   # BR(~s_L -> ~chi_30 s)
     2.06823973E-03    2     1000035         3   # BR(~s_L -> ~chi_40 s)
     6.51008881E-01    2    -1000024         4   # BR(~s_L -> ~chi_1- c)
     7.86111822E-03    2    -1000037         4   # BR(~s_L -> ~chi_2- c)
#
#         PDG            Width
DECAY   2000003     2.79669202E+00   # sstrange_R decays
#          BR         NDA      ID1       ID2
     9.97228016E-01    2     1000022         3   # BR(~s_R -> ~chi_10 s)
     8.80131443E-04    2     1000023         3   # BR(~s_R -> ~chi_20 s)
     4.82070493E-04    2     1000025         3   # BR(~s_R -> ~chi_30 s)
     1.40978248E-03    2     1000035         3   # BR(~s_R -> ~chi_40 s)
#
#         PDG            Width
DECAY   1000011     6.74377800E+01   # selectron_L decays
#          BR         NDA      ID1       ID2
     8.67900011E-02    2     1000022        11   # BR(~e_L -> ~chi_10 e-)
     3.09449732E-01    2     1000023        11   # BR(~e_L -> ~chi_20 e-)
     1.84140709E-04    2     1000025        11   # BR(~e_L -> ~chi_30 e-)
     7.77914285E-04    2     1000035        11   # BR(~e_L -> ~chi_40 e-)
     5.95680279E-01    2    -1000024        12   # BR(~e_L -> ~chi_1- nu_e)
     7.11793335E-03    2    -1000037        12   # BR(~e_L -> ~chi_2- nu_e)
#
#         PDG            Width
DECAY   2000011     2.58196696E+01   # selectron_R decays
#          BR         NDA      ID1       ID2
     9.97256173E-01    2     1000022        11   # BR(~e_R -> ~chi_10 e-)
     8.77421682E-04    2     1000023        11   # BR(~e_R -> ~chi_20 e-)
     4.75618011E-04    2     1000025        11   # BR(~e_R -> ~chi_30 e-)
     1.39078747E-03    2     1000035        11   # BR(~e_R -> ~chi_40 e-)
#
#         PDG            Width
DECAY   1000013     6.74377800E+01   # smuon_L decays
#          BR         NDA      ID1       ID2
     8.67900011E-02    2     1000022        13   # BR(~mu_L -> ~chi_10 mu-)
     3.09449732E-01    2     1000023        13   # BR(~mu_L -> ~chi_20 mu-)
     1.84140709E-04    2     1000025        13   # BR(~mu_L -> ~chi_30 mu-)
     7.77914285E-04    2     1000035        13   # BR(~mu_L -> ~chi_40 mu-)
     5.95680279E-01    2    -1000024        14   # BR(~mu_L -> ~chi_1- nu_mu)
     7.11793335E-03    2    -1000037        14   # BR(~mu_L -> ~chi_2- nu_mu)
#
#         PDG            Width
DECAY   2000013     2.58196696E+01   # smuon_R decays
#          BR         NDA      ID1       ID2
     9.97256173E-01    2     1000022        13   # BR(~mu_R -> ~chi_10 mu-)
     8.77421682E-04    2     1000023        13   # BR(~mu_R -> ~chi_20 mu-)
     4.75618011E-04    2     1000025        13   # BR(~mu_R -> ~chi_30 mu-)
     1.39078747E-03    2     1000035        13   # BR(~mu_R -> ~chi_40 mu-)
#
#         PDG            Width
DECAY   1000015     4.67927137E+01   # stau_1 decays
#          BR         NDA      ID1       ID2
     3.41049407E-01    2     1000022        15   # BR(~tau_1 -> ~chi_10  tau-)
     2.24635669E-01    2     1000023        15   # BR(~tau_1 -> ~chi_20  tau-)
     1.08068746E-03    2     1000025        15   # BR(~tau_1 -> ~chi_30  tau-)
     3.44099411E-04    2     1000035        15   # BR(~tau_1 -> ~chi_40  tau-)
     4.32402269E-01    2    -1000024        16   # BR(~tau_1 -> ~chi_1-  nu_tau)
     4.87868383E-04    2    -1000037        16   # BR(~tau_1 -> ~chi_2-  nu_tau)
#
#         PDG            Width
DECAY   2000015     4.71460417E+01   # stau_2 decays
#          BR         NDA      ID1       ID2
     3.31822461E-01    2     1000022        15   # BR(~tau_2 -> ~chi_10  tau-)
     2.20226969E-01    2     1000023        15   # BR(~tau_2 -> ~chi_20  tau-)
     4.24248845E-03    2     1000025        15   # BR(~tau_2 -> ~chi_30  tau-)
     6.29383676E-03    2     1000035        15   # BR(~tau_2 -> ~chi_40  tau-)
     4.22962719E-01    2    -1000024        16   # BR(~tau_2 -> ~chi_1-  nu_tau)
     1.44515257E-02    2    -1000037        16   # BR(~tau_2 -> ~chi_2-  nu_tau)
#
#         PDG            Width
DECAY   1000012     6.74630761E+01   # snu_eL decays
#          BR         NDA      ID1       ID2
     1.04479730E-01    2     1000022        12   # BR(~nu_eL -> ~chi_10 nu_e)
     2.89251738E-01    2     1000023        12   # BR(~nu_eL -> ~chi_20 nu_e)
     7.32102501E-04    2     1000025        12   # BR(~nu_eL -> ~chi_30 nu_e)
     2.59630006E-03    2     1000035        12   # BR(~nu_eL -> ~chi_40 nu_e)
     6.02201477E-01    2     1000024        11   # BR(~nu_eL -> ~chi_1+ e-)
     7.38652991E-04    2     1000037        11   # BR(~nu_eL -> ~chi_2+ e-)
#
#         PDG            Width
DECAY   1000014     6.74630761E+01   # snu_muL decays
#          BR         NDA      ID1       ID2
     1.04479730E-01    2     1000022        14   # BR(~nu_muL -> ~chi_10 nu_mu)
     2.89251738E-01    2     1000023        14   # BR(~nu_muL -> ~chi_20 nu_mu)
     7.32102501E-04    2     1000025        14   # BR(~nu_muL -> ~chi_30 nu_mu)
     2.59630006E-03    2     1000035        14   # BR(~nu_muL -> ~chi_40 nu_mu)
     6.02201477E-01    2     1000024        13   # BR(~nu_muL -> ~chi_1+ mu-)
     7.38652991E-04    2     1000037        13   # BR(~nu_muL -> ~chi_2+ mu-)
#
#         PDG            Width
DECAY   1000016     6.76900947E+01   # snu_tauL decays
#          BR         NDA      ID1       ID2
     1.04129327E-01    2     1000022        16   # BR(~nu_tauL -> ~chi_10 nu_tau)
     2.88281647E-01    2     1000023        16   # BR(~nu_tauL -> ~chi_20 nu_tau)
     7.29647180E-04    2     1000025        16   # BR(~nu_tauL -> ~chi_30 nu_tau)
     2.58759261E-03    2     1000035        16   # BR(~nu_tauL -> ~chi_40 nu_tau)
     6.00226153E-01    2     1000024        15   # BR(~nu_tauL -> ~chi_1+ tau-)
     4.04563314E-03    2     1000037        15   # BR(~nu_tauL -> ~chi_2+ tau-)
#
#         PDG            Width
DECAY   1000024     2.16671145E-06   # chargino1+ decays
#           BR         NDA      ID1       ID2       ID3
     1.00000000E+00    2     1000022        24   # BR(~chi_1+ -> ~chi_10  W+)
#
#         PDG            Width
DECAY   1000037     1.33802126E+01   # chargino2+ decays
#          BR         NDA      ID1       ID2
     6.05538332E-01    2    -1000005         6   # BR(~chi_2+ -> ~b_1*    t )
     8.59170990E-02    2     1000024        23   # BR(~chi_2+ -> ~chi_1+  Z )
     3.74977671E-02    2     1000022        24   # BR(~chi_2+ -> ~chi_10  W+)
     8.70056281E-02    2     1000023        24   # BR(~chi_2+ -> ~chi_20  W+)
     1.84041173E-01    2     1000024        25   # BR(~chi_2+ -> ~chi_1+  h )
#
#         PDG            Width
DECAY   1000022     0.00000000E+00   # neutralino1 decays
#
#         PDG            Width
DECAY   1000023     2.72690919E-03   # neutralino2 decays
#          BR         NDA      ID1       ID2
     5.81327745E-02    2     1000022        23   # BR(~chi_20 -> ~chi_10   Z )
     9.41867225E-01    2     1000022        25   # BR(~chi_20 -> ~chi_10   h )
#
#         PDG            Width
DECAY   1000025     5.02821910E+00   # neutralino3 decays
#          BR         NDA      ID1       ID2
     9.41717084E-02    2     1000022        23   # BR(~chi_30 -> ~chi_10   Z )
     1.83195233E-01    2     1000023        23   # BR(~chi_30 -> ~chi_20   Z )
     2.29399116E-01    2     1000024       -24   # BR(~chi_30 -> ~chi_1+   W-)
     2.29399116E-01    2    -1000024        24   # BR(~chi_30 -> ~chi_1-   W+)
     5.85333719E-02    2     1000022        25   # BR(~chi_30 -> ~chi_10   h )
     1.91833701E-01    2     1000023        25   # BR(~chi_30 -> ~chi_20   h )
     6.73387742E-03    2     1000005        -5   # BR(~chi_30 -> ~b_1      bb)
     6.73387742E-03    2    -1000005         5   # BR(~chi_30 -> ~b_1*     b )
#
#         PDG            Width
DECAY   1000035     5.69354198E+00   # neutralino4 decays
#          BR         NDA      ID1       ID2
     2.81456512E-02    2     1000022        23   # BR(~chi_40 -> ~chi_10   Z )
     4.29985272E-02    2     1000023        23   # BR(~chi_40 -> ~chi_20   Z )
     1.98526057E-01    2     1000024       -24   # BR(~chi_40 -> ~chi_1+   W-)
     1.98526057E-01    2    -1000024        24   # BR(~chi_40 -> ~chi_1-   W+)
     1.20577032E-01    2     1000022        25   # BR(~chi_40 -> ~chi_10   h )
     3.94619089E-01    2     1000023        25   # BR(~chi_40 -> ~chi_20   h )
     8.30379353E-03    2     1000005        -5   # BR(~chi_40 -> ~b_1      bb)
     8.30379353E-03    2    -1000005         5   # BR(~chi_40 -> ~b_1*     b )
#
#         PDG            Width
DECAY        25     3.48500465E-03   # h decays
#          BR         NDA      ID1       ID2
     7.19967849E-01    2           5        -5   # BR(h -> b       bb     )
     7.32141503E-02    2         -15        15   # BR(h -> tau+    tau-   )
     2.59160545E-04    2         -13        13   # BR(h -> mu+     mu-    )
     5.55194901E-04    2           3        -3   # BR(h -> s       sb     )
     2.31060089E-02    2           4        -4   # BR(h -> c       cb     )
     6.64707088E-02    2          21        21   # BR(h -> g       g      )
     2.12819525E-03    2          22        22   # BR(h -> gam     gam    )
     9.04976061E-04    2          22        23   # BR(h -> Z       gam    )
     1.01717754E-01    2          24       -24   # BR(h -> W+      W-     )
     1.16760025E-02    2          23        23   # BR(h -> Z       Z      )
#
#         PDG            Width
DECAY        35     2.32608770E+00   # H decays
#          BR         NDA      ID1       ID2
     1.32062224E-01    2           5        -5   # BR(H -> b       bb     )
     2.04866738E-02    2         -15        15   # BR(H -> tau+    tau-   )
     7.24208928E-05    2         -13        13   # BR(H -> mu+     mu-    )
     1.03638457E-04    2           3        -3   # BR(H -> s       sb     )
     9.16955474E-06    2           4        -4   # BR(H -> c       cb     )
     8.20552161E-01    2           6        -6   # BR(H -> t       tb     )
     1.08581404E-03    2          21        21   # BR(H -> g       g      )
     4.14610505E-06    2          22        22   # BR(H -> gam     gam    )
     1.26226865E-06    2          23        22   # BR(H -> Z       gam    )
     2.93147292E-03    2          24       -24   # BR(H -> W+      W-     )
     1.45003742E-03    2          23        23   # BR(H -> Z       Z      )
     1.04208320E-02    2          25        25   # BR(H -> h       h      )
     6.88443740E-22    2          36        36   # BR(H -> A       A      )
     1.67985903E-13    2          23        36   # BR(H -> Z       A      )
     3.22004469E-03    2     1000024  -1000024   # BR(H -> ~chi_1+ ~chi_1-)
     1.41115602E-03    2     1000022   1000022   # BR(H -> ~chi_10 ~chi_10)
     1.50509232E-03    2     1000023   1000023   # BR(H -> ~chi_20 ~chi_20)
     4.68385423E-03    2     1000022   1000023   # BR(H -> ~chi_10 ~chi_20)
#
#         PDG            Width
DECAY        36     2.47782576E+00   # A decays
#          BR         NDA      ID1       ID2
     1.24281440E-01    2           5        -5   # BR(A -> b       bb     )
     1.92543365E-02    2         -15        15   # BR(A -> tau+    tau-   )
     6.80636958E-05    2         -13        13   # BR(A -> mu+     mu-    )
     9.76953276E-05    2           3        -3   # BR(A -> s       sb     )
     8.30591865E-06    2           4        -4   # BR(A -> c       cb     )
     8.09829967E-01    2           6        -6   # BR(A -> t       tb     )
     1.56440746E-03    2          21        21   # BR(A -> g       g      )
     4.03754667E-06    2          22        22   # BR(A -> gam     gam    )
     1.83472116E-06    2          23        22   # BR(A -> Z       gam    )
     2.66640850E-03    2          23        25   # BR(A -> Z       h      )
     2.06672484E-02    2     1000024  -1000024   # BR(A -> ~chi_1+ ~chi_1-)
     2.07934916E-03    2     1000022   1000022   # BR(A -> ~chi_10 ~chi_10)
     9.66638794E-03    2     1000023   1000023   # BR(A -> ~chi_20 ~chi_20)
     9.81051777E-03    2     1000022   1000023   # BR(A -> ~chi_10 ~chi_20)
#
#         PDG            Width
DECAY        37     2.33530152E+00   # H+ decays
#          BR         NDA      ID1       ID2
     2.06172943E-04    2           4        -5   # BR(H+ -> c       bb     )
     2.05072809E-02    2         -15        16   # BR(H+ -> tau+    nu_tau )
     7.24928258E-05    2         -13        14   # BR(H+ -> mu+     nu_mu  )
     1.31940800E-06    2           2        -5   # BR(H+ -> u       bb     )
     4.94936675E-06    2           2        -3   # BR(H+ -> u       sb     )
     1.10248723E-04    2           4        -3   # BR(H+ -> c       sb     )
     9.61971755E-01    2           6        -5   # BR(H+ -> t       bb     )
     2.87927194E-03    2          24        25   # BR(H+ -> W+      h      )
     4.50773135E-10    2          24        36   # BR(H+ -> W+      A      )
     1.42397668E-02    2     1000024   1000022   # BR(H+ -> ~chi_1+ ~chi_10)
     6.74204562E-06    2     1000024   1000023   # BR(H+ -> ~chi_1+ ~chi_20)
