#
#                              ======================
#                              | THE SUSYHIT OUTPUT |
#                              ======================
#
#
#              ------------------------------------------------------
#              |     This is the output of the SUSY-HIT package     |
#              |  created by A.Djouadi, M.Muehlleitner and M.Spira. |
#              |  In case of problems with SUSY-HIT email to        |
#              |           margarete.muehlleitner@cern.ch           |
#              |           michael.spira@psi.ch                     |
#              |           abdelhak.djouadi@cern.ch                 |
#              ------------------------------------------------------
#
#              ------------------------------------------------------
#              |  SUSY Les Houches Accord - MSSM Spectrum + Decays  |
#              |              based on the decay programs           |
#              |                                                    |
#              |                     SDECAY 1.3b                    |
#              |                                                    |
#              |  Authors: M.Muhlleitner, A.Djouadi and Y.Mambrini  |
#              |  Ref.:    Comput.Phys.Commun.168(2005)46           |
#              |           [hep-ph/0311167]                         |
#              |                                                    |
#              |                     HDECAY 3.4                     |
#              |                                                    |
#              |  By: A.Djouadi,J.Kalinowski,M.Muhlleitner,M.Spira  |
#              |  Ref.:    Comput.Phys.Commun.108(1998)56           |
#              |           [hep-ph/9704448]                         |
#              |                                                    |
#              |                                                    |
#              |  If not stated otherwise all DRbar couplings and   |
#              |  soft SUSY breaking masses are given at the scale  |
#              |  Q=  0.13373152E+04
#              |                                                    |
#              ------------------------------------------------------
#
#
BLOCK DCINFO  # Decay Program information
     1   SDECAY/HDECAY # decay calculator
     2   1.3b  /3.4    # version number
#
BLOCK SPINFO  # Spectrum calculator information
     1   SuSpect     # RGE +Spectrum calculator            
     2   2.41        # version number                      
#
BLOCK MODSEL  # Model selection
     1    -1   # #bottom-up MSSM                                   
#
BLOCK SMINPUTS  # Standard Model inputs
         1     1.27934000E+02   # alpha_em^-1(M_Z)^MSbar
         2     1.16639000E-05   # G_F [GeV^-2]
         3     1.17200000E-01   # alpha_S(M_Z)^MSbar
         4     9.11870000E+01   # M_Z pole mass
         5     4.25000000E+00   # mb(mb)^MSbar
         6     1.72500000E+02   # mt pole mass
         7     1.77710000E+00   # mtau pole mass
#
BLOCK MINPAR  # Input parameters - minimal models
#
BLOCK EXTPAR  # Input parameters - non-minimal models
         0     1.33731516E+03   # EWSB                
         1     1.31000000E+02   # M_1                 
         2     2.63000000E+02   # M_2                 
         3     1.00000000E+03   # M_3                 
        11     0.00000000E+00   # A_t                 
        12     0.00000000E+00   # A_b                 
        13     0.00000000E+00   # A_tau               
        14     0.00000000E+00   # A_u                 
        15     0.00000000E+00   # A_d                 
        16     0.00000000E+00   # A_e                 
        23     1.00000000E+03   # mu(EWSB)            
        25     5.00000000E+00   # tanbeta(in)         
        26     1.00000000E+03   # MA_pole             
        31     5.00000000E+03   # M_eL                
        32     5.00000000E+03   # M_muL               
        33     5.00000000E+03   # M_tauL              
        34     5.00000000E+03   # M_eR                
        35     5.00000000E+03   # M_muR               
        36     5.00000000E+03   # M_tauR              
        41     5.00000000E+03   # M_q1L               
        42     5.00000000E+03   # M_q2L               
        43     3.30000000E+02   # M_q3L               
        44     5.00000000E+03   # M_uR                
        45     5.00000000E+03   # M_cR                
        46     5.00000000E+03   # M_tR                
        47     5.00000000E+03   # M_dR                
        48     5.00000000E+03   # M_sR                
        49     5.00000000E+03   # M_bR                
#
BLOCK MASS  # Mass Spectrum
# PDG code           mass       particle
        24     8.07243913E+01   # W+
        25     1.25000000E+02   # h
        35     1.00080995E+03   # H
        36     1.00000000E+03   # A
        37     1.00377362E+03   # H+
         5     4.87877839E+00   # b-quark pole mass calculated from mb(mb)_Msbar
   1000001     5.04021209E+03   # ~d_L
   2000001     5.03995906E+03   # ~d_R
   1000002     5.03964651E+03   # ~u_L
   2000002     5.03978055E+03   # ~u_R
   1000003     5.04021209E+03   # ~s_L
   2000003     5.03995906E+03   # ~s_R
   1000004     5.03964651E+03   # ~c_L
   2000004     5.03978055E+03   # ~c_R
   1000005     6.00000000E+02   # ~b_1
   2000005     5.03957577E+03   # ~b_2
   1000006     5.00095296E+03   # ~t_1
   2000006     5.06095296E+03   # ~t_2
   1000011     5.00019364E+03   # ~e_L
   2000011     5.00017688E+03   # ~e_R
   1000012     4.99962946E+03   # ~nu_eL
   1000013     5.00019364E+03   # ~mu_L
   2000013     5.00017688E+03   # ~mu_R
   1000014     4.99962946E+03   # ~nu_muL
   1000015     4.99934703E+03   # ~tau_1
   2000015     5.00102396E+03   # ~tau_2
   1000016     4.99962946E+03   # ~nu_tauL
   1000021     5.23162122E+03   # ~g
   1000022     6.00000000E+01   # ~chi_10
   1000023     5.00000000E+02   # ~chi_20
   1000025     1.00219118E+03   # ~chi_30
   1000035     1.00631764E+03   # ~chi_40
   1000024     5.00000000E+02   # ~chi_1+
   1000037     1.00653031E+03   # ~chi_2+
#
BLOCK NMIX  # Neutralino Mixing Matrix
  1  1     9.98723601E-01   # N_11
  1  2    -1.42522056E-02   # N_12
  1  3     4.60211523E-02   # N_13
  1  4    -1.51689762E-02   # N_14
  2  1     1.87049643E-02   # N_21
  2  2     9.95472965E-01   # N_22
  2  3    -8.51875950E-02   # N_23
  2  4     3.77726600E-02   # N_24
  3  1     2.12770841E-02   # N_31
  3  2    -3.39216773E-02   # N_32
  3  3    -7.05478619E-01   # N_33
  3  4    -7.07599127E-01   # N_34
  4  1     4.18160217E-02   # N_41
  4  2    -8.76342988E-02   # N_42
  4  3    -7.02086210E-01   # N_43
  4  4     7.05440716E-01   # N_44
#
BLOCK UMIX  # Chargino Mixing Matrix U
  1  1    -9.92598689E-01   # U_11
  1  2     1.21440697E-01   # U_12
  2  1     1.21440697E-01   # U_21
  2  2     9.92598689E-01   # U_22
#
BLOCK VMIX  # Chargino Mixing Matrix V
  1  1    -9.98542523E-01   # V_11
  1  2     5.39706343E-02   # V_12
  2  1     5.39706343E-02   # V_21
  2  2     9.98542523E-01   # V_22
#
BLOCK STOPMIX  # Stop Mixing Matrix
  1  1     9.99998232E-01   # cos(theta_t)
  1  2     1.88042465E-03   # sin(theta_t)
  2  1    -1.88042465E-03   # -sin(theta_t)
  2  2     9.99998232E-01   # cos(theta_t)
#
BLOCK SBOTMIX  # Sbottom Mixing Matrix
  1  1     9.99999888E-01   # cos(theta_b)
  1  2     4.73286370E-04   # sin(theta_b)
  2  1    -4.73286370E-04   # -sin(theta_b)
  2  2     9.99999888E-01   # cos(theta_b)
#
BLOCK STAUMIX  # Stau Mixing Matrix
  1  1     7.03952209E-01   # cos(theta_tau)
  1  2     7.10247342E-01   # sin(theta_tau)
  2  1    -7.10247342E-01   # -sin(theta_tau)
  2  2     7.03952209E-01   # cos(theta_tau)
#
BLOCK ALPHA  # Higgs mixing
          -2.10213312E-01   # Mixing angle in the neutral Higgs boson sector
#
BLOCK HMIX Q=  1.33731516E+03  # DRbar Higgs Parameters
         1     9.89833632E+02   # mu(Q)               
         2     4.79364020E+00   # tanbeta(Q)          
         3     2.43261849E+02   # vev(Q)              
         4     9.98593198E+05   # MA^2(Q)             
#
BLOCK GAUGE Q=  1.33731516E+03  # The gauge couplings
     1     3.61255972E-01   # gprime(Q) DRbar
     2     6.43046198E-01   # g(Q) DRbar
     3     1.04045190E+00   # g3(Q) DRbar
#
BLOCK AU Q=  1.33731516E+03  # The trilinear couplings
  1  1     1.76893619E+03   # A_u(Q) DRbar
  2  2     1.76893619E+03   # A_c(Q) DRbar
  3  3     2.32662623E+03   # A_t(Q) DRbar
#
BLOCK AD Q=  1.33731516E+03  # The trilinear couplings
  1  1     1.19816250E+03   # A_d(Q) DRbar
  2  2     1.19816250E+03   # A_s(Q) DRbar
  3  3     1.38387780E+03   # A_b(Q) DRbar
#
BLOCK AE Q=  1.33731516E+03  # The trilinear couplings
  1  1     2.11749530E+02   # A_e(Q) DRbar
  2  2     2.11749530E+02   # A_mu(Q) DRbar
  3  3     2.11914908E+02   # A_tau(Q) DRbar
#
BLOCK Yu Q=  1.33731516E+03  # The Yukawa couplings
  1  1     0.00000000E+00   # y_u(Q) DRbar
  2  2     0.00000000E+00   # y_c(Q) DRbar
  3  3     8.70357390E-01   # y_t(Q) DRbar
#
BLOCK Yd Q=  1.33731516E+03  # The Yukawa couplings
  1  1     0.00000000E+00   # y_d(Q) DRbar
  2  2     0.00000000E+00   # y_s(Q) DRbar
  3  3     6.99495824E-02   # y_b(Q) DRbar
#
BLOCK Ye Q=  1.33731516E+03  # The Yukawa couplings
  1  1     0.00000000E+00   # y_e(Q) DRbar
  2  2     0.00000000E+00   # y_mu(Q) DRbar
  3  3     4.97282425E-02   # y_tau(Q) DRbar
#
BLOCK MSOFT Q=  1.33731516E+03  # The soft SUSY breaking masses at the scale Q
         1     3.23180467E+02   # M_1                 
         2     3.47833182E+02   # M_2                 
         3     4.57585143E+02   # M_3                 
        14     0.00000000E+00   # A_u                 
        15     0.00000000E+00   # A_d                 
        16     0.00000000E+00   # A_e                 
        21     1.76643216E+06   # M^2_Hd              
        22     2.40610520E+07   # M^2_Hu              
        31     5.17347568E+03   # M_eL                
        32     5.17347568E+03   # M_muL               
        33     5.17687820E+03   # M_tauL              
        34     4.68082650E+03   # M_eR                
        35     4.68082650E+03   # M_muR               
        36     4.68838279E+03   # M_tauR              
        41     4.97809195E+03   # M_q1L               
        42     4.97809195E+03   # M_q2L               
        43     2.93393383E+03   # M_q3L               
        44     5.22641107E+03   # M_uR                
        45     5.22641107E+03   # M_cR                
        46     6.70326671E+03   # M_tR                
        47     4.90910832E+03   # M_dR                
        48     4.90910832E+03   # M_sR                
        49     4.91382143E+03   # M_bR                
#
#
#
#                             =================
#                             |The decay table|
#                             =================
#
# - The QCD corrections to the decays gluino -> squark  + quark
#                                     squark -> gaugino + quark_prime
#                                     squark -> squark_prime + Higgs
#                                     squark -> gluino  + quark
#   are included.
#
# - The multi-body decays for the inos, stops and sbottoms are included.
#
# - The loop induced decays for the gluino, neutralinos and stops
#   are included.
#
# - The SUSY decays of the top quark are included.
#
#
#         PDG            Width
DECAY         6     1.42094237E+00   # top decays
#          BR         NDA      ID1       ID2
     1.00000000E+00    2           5        24   # BR(t ->  b    W+)
#
#         PDG            Width
DECAY   1000021     8.76590367E+01   # gluino decays
#          BR         NDA      ID1       ID2
     2.74570082E-03    2     1000001        -1   # BR(~g -> ~d_L  db)
     2.74570082E-03    2    -1000001         1   # BR(~g -> ~d_L* d )
     2.75286483E-03    2     2000001        -1   # BR(~g -> ~d_R  db)
     2.75286483E-03    2    -2000001         1   # BR(~g -> ~d_R* d )
     2.76171432E-03    2     1000002        -2   # BR(~g -> ~u_L  ub)
     2.76171432E-03    2    -1000002         2   # BR(~g -> ~u_L* u )
     2.75788702E-03    2     2000002        -2   # BR(~g -> ~u_R  ub)
     2.75788702E-03    2    -2000002         2   # BR(~g -> ~u_R* u )
     2.74570082E-03    2     1000003        -3   # BR(~g -> ~s_L  sb)
     2.74570082E-03    2    -1000003         3   # BR(~g -> ~s_L* s )
     2.75286483E-03    2     2000003        -3   # BR(~g -> ~s_R  sb)
     2.75286483E-03    2    -2000003         3   # BR(~g -> ~s_R* s )
     2.76171432E-03    2     1000004        -4   # BR(~g -> ~c_L  cb)
     2.76171432E-03    2    -1000004         4   # BR(~g -> ~c_L* c )
     2.75788702E-03    2     2000004        -4   # BR(~g -> ~c_R  cb)
     2.75788702E-03    2    -2000004         4   # BR(~g -> ~c_R* c )
     4.72284221E-01    2     1000005        -5   # BR(~g -> ~b_1  bb)
     4.72284221E-01    2    -1000005         5   # BR(~g -> ~b_1* b )
     2.75255968E-03    2     2000005        -5   # BR(~g -> ~b_2  bb)
     2.75255968E-03    2    -2000005         5   # BR(~g -> ~b_2* b )
     2.92688488E-03    2     1000006        -6   # BR(~g -> ~t_1  tb)
     2.92688488E-03    2    -1000006         6   # BR(~g -> ~t_1* t )
#
#         PDG            Width
DECAY   1000006     4.19414172E+04   # stop1 decays
#          BR         NDA      ID1       ID2
     1.16041237E-05    2     1000022         6   # BR(~t_1 -> ~chi_10 t )
     4.75651211E-04    2     1000023         6   # BR(~t_1 -> ~chi_20 t )
     7.25772879E-04    2     1000025         6   # BR(~t_1 -> ~chi_30 t )
     7.35812563E-04    2     1000035         6   # BR(~t_1 -> ~chi_40 t )
     9.36278468E-04    2     1000024         5   # BR(~t_1 -> ~chi_1+ b )
     1.50109489E-05    2     1000037         5   # BR(~t_1 -> ~chi_2+ b )
    -1.57516826E-07    2     1000005        37   # BR(~t_1 -> ~b_1    H+)
     9.97100027E-01    2     1000005        24   # BR(~t_1 -> ~b_1    W+)
#
#         PDG            Width
DECAY   2000006     1.42784249E+02   # stop2 decays
#          BR         NDA      ID1       ID2
     7.88034578E-02    2     1000022         6   # BR(~t_2 -> ~chi_10 t )
     1.13882610E-03    2     1000023         6   # BR(~t_2 -> ~chi_20 t )
     2.17263763E-01    2     1000025         6   # BR(~t_2 -> ~chi_30 t )
     2.13302633E-01    2     1000035         6   # BR(~t_2 -> ~chi_40 t )
     2.25112256E-03    2     1000024         5   # BR(~t_2 -> ~chi_1+ b )
     4.52003703E-01    2     1000037         5   # BR(~t_2 -> ~chi_2+ b )
     4.16601532E-02    2     1000005        37   # BR(~t_2 -> ~b_1    H+)
    -6.42365873E-03    2     1000005        24   # BR(~t_2 -> ~b_1    W+)
#
#         PDG            Width
DECAY   1000005     7.59867857E-01   # sbottom1 decays
#          BR         NDA      ID1       ID2
     1.00000000E+00    2     1000023         5   # BR(~b_1 -> ~chi_20 b )
#
#         PDG            Width
DECAY   2000005     3.66223704E+00   # sbottom2 decays
#          BR         NDA      ID1       ID2
     7.63358055E-01    2     1000022         5   # BR(~b_2 -> ~chi_10 b )
     1.37559074E-03    2     1000023         5   # BR(~b_2 -> ~chi_20 b )
     5.66989047E-02    2     1000025         5   # BR(~b_2 -> ~chi_30 b )
     5.70554797E-02    2     1000035         5   # BR(~b_2 -> ~chi_40 b )
     1.37076935E-03    2    -1000024         6   # BR(~b_2 -> ~chi_1- t )
     1.06468208E-01    2    -1000037         6   # BR(~b_2 -> ~chi_2- t )
     1.00774118E-03    2     1000005        25   # BR(~b_2 -> ~b_1    h )
     7.10807670E-03    2     1000005        35   # BR(~b_2 -> ~b_1    H )
     7.08210903E-03    2     1000005        36   # BR(~b_2 -> ~b_1    A )
    -1.52493391E-03    2     1000005        23   # BR(~b_2 -> ~b_1    Z )
#
#         PDG            Width
DECAY   1000002     6.10247736E+01   # sup_L decays
#          BR         NDA      ID1       ID2
     8.47981818E-03    2     1000022         2   # BR(~u_L -> ~chi_10 u)
     3.30707691E-01    2     1000023         2   # BR(~u_L -> ~chi_20 u)
     3.56431758E-04    2     1000025         2   # BR(~u_L -> ~chi_30 u)
     1.38255282E-03    2     1000035         2   # BR(~u_L -> ~chi_40 u)
     6.58266533E-01    2     1000024         1   # BR(~u_L -> ~chi_1+ d)
     8.06972731E-04    2     1000037         1   # BR(~u_L -> ~chi_2+ d)
#
#         PDG            Width
DECAY   2000002     1.12103564E+01   # sup_R decays
#          BR         NDA      ID1       ID2
     9.97224184E-01    2     1000022         2   # BR(~u_R -> ~chi_10 u)
     8.88010069E-04    2     1000023         2   # BR(~u_R -> ~chi_20 u)
     4.81039206E-04    2     1000025         2   # BR(~u_R -> ~chi_30 u)
     1.40676648E-03    2     1000035         2   # BR(~u_R -> ~chi_40 u)
#
#         PDG            Width
DECAY   1000001     6.09975639E+01   # sdown_L decays
#          BR         NDA      ID1       ID2
     1.48716062E-02    2     1000022         1   # BR(~d_L -> ~chi_10 d)
     3.23578745E-01    2     1000023         1   # BR(~d_L -> ~chi_20 d)
     5.56305334E-04    2     1000025         1   # BR(~d_L -> ~chi_30 d)
     2.04602639E-03    2     1000035         1   # BR(~d_L -> ~chi_40 d)
     6.51170629E-01    2    -1000024         2   # BR(~d_L -> ~chi_1- u)
     7.77668811E-03    2    -1000037         2   # BR(~d_L -> ~chi_2- u)
#
#         PDG            Width
DECAY   2000001     2.80267284E+00   # sdown_R decays
#          BR         NDA      ID1       ID2
     9.97224174E-01    2     1000022         1   # BR(~d_R -> ~chi_10 d)
     8.88010084E-04    2     1000023         1   # BR(~d_R -> ~chi_20 d)
     4.81041769E-04    2     1000025         1   # BR(~d_R -> ~chi_30 d)
     1.40677404E-03    2     1000035         1   # BR(~d_R -> ~chi_40 d)
#
#         PDG            Width
DECAY   1000004     6.10247736E+01   # scharm_L decays
#          BR         NDA      ID1       ID2
     8.47981818E-03    2     1000022         4   # BR(~c_L -> ~chi_10 c)
     3.30707691E-01    2     1000023         4   # BR(~c_L -> ~chi_20 c)
     3.56431758E-04    2     1000025         4   # BR(~c_L -> ~chi_30 c)
     1.38255282E-03    2     1000035         4   # BR(~c_L -> ~chi_40 c)
     6.58266533E-01    2     1000024         3   # BR(~c_L -> ~chi_1+ s)
     8.06972731E-04    2     1000037         3   # BR(~c_L -> ~chi_2+ s)
#
#         PDG            Width
DECAY   2000004     1.12103564E+01   # scharm_R decays
#          BR         NDA      ID1       ID2
     9.97224184E-01    2     1000022         4   # BR(~c_R -> ~chi_10 c)
     8.88010069E-04    2     1000023         4   # BR(~c_R -> ~chi_20 c)
     4.81039206E-04    2     1000025         4   # BR(~c_R -> ~chi_30 c)
     1.40676648E-03    2     1000035         4   # BR(~c_R -> ~chi_40 c)
#
#         PDG            Width
DECAY   1000003     6.09975639E+01   # sstrange_L decays
#          BR         NDA      ID1       ID2
     1.48716062E-02    2     1000022         3   # BR(~s_L -> ~chi_10 s)
     3.23578745E-01    2     1000023         3   # BR(~s_L -> ~chi_20 s)
     5.56305334E-04    2     1000025         3   # BR(~s_L -> ~chi_30 s)
     2.04602639E-03    2     1000035         3   # BR(~s_L -> ~chi_40 s)
     6.51170629E-01    2    -1000024         4   # BR(~s_L -> ~chi_1- c)
     7.77668811E-03    2    -1000037         4   # BR(~s_L -> ~chi_2- c)
#
#         PDG            Width
DECAY   2000003     2.80267284E+00   # sstrange_R decays
#          BR         NDA      ID1       ID2
     9.97224174E-01    2     1000022         3   # BR(~s_R -> ~chi_10 s)
     8.88010084E-04    2     1000023         3   # BR(~s_R -> ~chi_20 s)
     4.81041769E-04    2     1000025         3   # BR(~s_R -> ~chi_30 s)
     1.40677404E-03    2     1000035         3   # BR(~s_R -> ~chi_40 s)
#
#         PDG            Width
DECAY   1000011     6.84111579E+01   # selectron_L decays
#          BR         NDA      ID1       ID2
     8.58779128E-02    2     1000022        11   # BR(~e_L -> ~chi_10 e-)
     3.09800865E-01    2     1000023        11   # BR(~e_L -> ~chi_20 e-)
     1.81520690E-04    2     1000025        11   # BR(~e_L -> ~chi_30 e-)
     7.66845848E-04    2     1000035        11   # BR(~e_L -> ~chi_40 e-)
     5.96356199E-01    2    -1000024        12   # BR(~e_L -> ~chi_1- nu_e)
     7.01665690E-03    2    -1000037        12   # BR(~e_L -> ~chi_2- nu_e)
#
#         PDG            Width
DECAY   2000011     2.59171709E+01   # selectron_R decays
#          BR         NDA      ID1       ID2
     9.97252872E-01    2     1000022        11   # BR(~e_R -> ~chi_10 e-)
     8.87743881E-04    2     1000023        11   # BR(~e_R -> ~chi_20 e-)
     4.73828720E-04    2     1000025        11   # BR(~e_R -> ~chi_30 e-)
     1.38555528E-03    2     1000035        11   # BR(~e_R -> ~chi_40 e-)
#
#         PDG            Width
DECAY   1000013     6.84111579E+01   # smuon_L decays
#          BR         NDA      ID1       ID2
     8.58779128E-02    2     1000022        13   # BR(~mu_L -> ~chi_10 mu-)
     3.09800865E-01    2     1000023        13   # BR(~mu_L -> ~chi_20 mu-)
     1.81520690E-04    2     1000025        13   # BR(~mu_L -> ~chi_30 mu-)
     7.66845848E-04    2     1000035        13   # BR(~mu_L -> ~chi_40 mu-)
     5.96356199E-01    2    -1000024        14   # BR(~mu_L -> ~chi_1- nu_mu)
     7.01665690E-03    2    -1000037        14   # BR(~mu_L -> ~chi_2- nu_mu)
#
#         PDG            Width
DECAY   2000013     2.59171709E+01   # smuon_R decays
#          BR         NDA      ID1       ID2
     9.97252872E-01    2     1000022        13   # BR(~mu_R -> ~chi_10 mu-)
     8.87743881E-04    2     1000023        13   # BR(~mu_R -> ~chi_20 mu-)
     4.73828720E-04    2     1000025        13   # BR(~mu_R -> ~chi_30 mu-)
     1.38555528E-03    2     1000035        13   # BR(~mu_R -> ~chi_40 mu-)
#
#         PDG            Width
DECAY   1000015     4.73319421E+01   # stau_1 decays
#          BR         NDA      ID1       ID2
     3.38430431E-01    2     1000022        15   # BR(~tau_1 -> ~chi_10  tau-)
     2.25538157E-01    2     1000023        15   # BR(~tau_1 -> ~chi_20  tau-)
     1.06837575E-03    2     1000025        15   # BR(~tau_1 -> ~chi_30  tau-)
     3.40179264E-04    2     1000035        15   # BR(~tau_1 -> ~chi_40  tau-)
     4.34140547E-01    2    -1000024        16   # BR(~tau_1 -> ~chi_1-  nu_tau)
     4.82310350E-04    2    -1000037        16   # BR(~tau_1 -> ~chi_2-  nu_tau)
#
#         PDG            Width
DECAY   2000015     4.76778129E+01   # stau_2 decays
#          BR         NDA      ID1       ID2
     3.29365164E-01    2     1000022        15   # BR(~tau_2 -> ~chi_10  tau-)
     2.21164374E-01    2     1000023        15   # BR(~tau_2 -> ~chi_20  tau-)
     4.19517015E-03    2     1000025        15   # BR(~tau_2 -> ~chi_30  tau-)
     6.22363889E-03    2     1000035        15   # BR(~tau_2 -> ~chi_40  tau-)
     4.24761311E-01    2    -1000024        16   # BR(~tau_2 -> ~chi_1-  nu_tau)
     1.42903417E-02    2    -1000037        16   # BR(~tau_2 -> ~chi_2-  nu_tau)
#
#         PDG            Width
DECAY   1000012     6.84271621E+01   # snu_eL decays
#          BR         NDA      ID1       ID2
     1.03396416E-01    2     1000022        12   # BR(~nu_eL -> ~chi_10 nu_e)
     2.89621836E-01    2     1000023        12   # BR(~nu_eL -> ~chi_20 nu_e)
     7.21787740E-04    2     1000025        12   # BR(~nu_eL -> ~chi_30 nu_e)
     2.55972020E-03    2     1000035        12   # BR(~nu_eL -> ~chi_40 nu_e)
     6.02971994E-01    2     1000024        11   # BR(~nu_eL -> ~chi_1+ e-)
     7.28245940E-04    2     1000037        11   # BR(~nu_eL -> ~chi_2+ e-)
#
#         PDG            Width
DECAY   1000014     6.84271621E+01   # snu_muL decays
#          BR         NDA      ID1       ID2
     1.03396416E-01    2     1000022        14   # BR(~nu_muL -> ~chi_10 nu_mu)
     2.89621836E-01    2     1000023        14   # BR(~nu_muL -> ~chi_20 nu_mu)
     7.21787740E-04    2     1000025        14   # BR(~nu_muL -> ~chi_30 nu_mu)
     2.55972020E-03    2     1000035        14   # BR(~nu_muL -> ~chi_40 nu_mu)
     6.02971994E-01    2     1000024        13   # BR(~nu_muL -> ~chi_1+ mu-)
     7.28245940E-04    2     1000037        13   # BR(~nu_muL -> ~chi_2+ mu-)
#
#         PDG            Width
DECAY   1000016     6.86542637E+01   # snu_tauL decays
#          BR         NDA      ID1       ID2
     1.03054391E-01    2     1000022        16   # BR(~nu_tauL -> ~chi_10 nu_tau)
     2.88663795E-01    2     1000023        16   # BR(~nu_tauL -> ~chi_20 nu_tau)
     7.19400137E-04    2     1000025        16   # BR(~nu_tauL -> ~chi_30 nu_tau)
     2.55125289E-03    2     1000035        16   # BR(~nu_tauL -> ~chi_40 nu_tau)
     6.01022344E-01    2     1000024        15   # BR(~nu_tauL -> ~chi_1+ tau-)
     3.98881695E-03    2     1000037        15   # BR(~nu_tauL -> ~chi_2+ tau-)
#
#         PDG            Width
DECAY   1000024     2.42755941E-07   # chargino1+ decays
#           BR         NDA      ID1       ID2       ID3
     3.33827530E-01    3     1000022         2        -1   # BR(~chi_1+ -> ~chi_10 u    db)
     3.33827530E-01    3     1000022         4        -3   # BR(~chi_1+ -> ~chi_10 c    sb)
     1.11162274E-01    3     1000022       -11        12   # BR(~chi_1+ -> ~chi_10 e+   nu_e)
     1.11162274E-01    3     1000022       -13        14   # BR(~chi_1+ -> ~chi_10 mu+  nu_mu)
     1.10020392E-01    3     1000022       -15        16   # BR(~chi_1+ -> ~chi_10 tau+ nu_tau)
#
#         PDG            Width
DECAY   1000037     2.11043084E+01   # chargino2+ decays
#          BR         NDA      ID1       ID2
     6.60035208E-01    2    -1000005         6   # BR(~chi_2+ -> ~b_1*    t )
     1.05043283E-01    2     1000024        23   # BR(~chi_2+ -> ~chi_1+  Z )
     2.75289539E-02    2     1000022        24   # BR(~chi_2+ -> ~chi_10  W+)
     1.05959722E-01    2     1000023        24   # BR(~chi_2+ -> ~chi_20  W+)
     1.01432833E-01    2     1000024        25   # BR(~chi_2+ -> ~chi_1+  h )
#
#         PDG            Width
DECAY   1000022     0.00000000E+00   # neutralino1 decays
#
#         PDG            Width
DECAY   1000023     1.07605822E-03   # neutralino2 decays
#          BR         NDA      ID1       ID2
     1.00000000E+00    2     1000022        25   # BR(~chi_20 -> ~chi_10   h )
#
#         PDG            Width
DECAY   1000025     7.62385066E+00   # neutralino3 decays
#          BR         NDA      ID1       ID2
     7.11024804E-02    2     1000022        23   # BR(~chi_30 -> ~chi_10   Z )
     2.23910769E-01    2     1000023        23   # BR(~chi_30 -> ~chi_20   Z )
     2.84745682E-01    2     1000024       -24   # BR(~chi_30 -> ~chi_1+   W-)
     2.84745682E-01    2    -1000024        24   # BR(~chi_30 -> ~chi_1-   W+)
     3.02198386E-02    2     1000022        25   # BR(~chi_30 -> ~chi_10   h )
     9.07580960E-02    2     1000023        25   # BR(~chi_30 -> ~chi_20   h )
     7.25872610E-03    2     1000005        -5   # BR(~chi_30 -> ~b_1      bb)
     7.25872610E-03    2    -1000005         5   # BR(~chi_30 -> ~b_1*     b )
#
#         PDG            Width
DECAY   1000035     7.28060524E+00   # neutralino4 decays
#          BR         NDA      ID1       ID2
     2.51695543E-02    2     1000022        23   # BR(~chi_40 -> ~chi_10   Z )
     6.19739537E-02    2     1000023        23   # BR(~chi_40 -> ~chi_20   Z )
     2.98290154E-01    2     1000024       -24   # BR(~chi_40 -> ~chi_1+   W-)
     2.98290154E-01    2    -1000024        24   # BR(~chi_40 -> ~chi_1-   W+)
     7.38608962E-02    2     1000022        25   # BR(~chi_40 -> ~chi_10   h )
     2.21288058E-01    2     1000023        25   # BR(~chi_40 -> ~chi_20   h )
     1.05636146E-02    2     1000005        -5   # BR(~chi_40 -> ~b_1      bb)
     1.05636146E-02    2    -1000005         5   # BR(~chi_40 -> ~b_1*     b )
#
#         PDG            Width
DECAY        25     4.18316489E-03   # h decays
#          BR         NDA      ID1       ID2
     6.28167718E-01    2           5        -5   # BR(h -> b       bb     )
     6.46389669E-02    2         -15        15   # BR(h -> tau+    tau-   )
     2.28772419E-04    2         -13        13   # BR(h -> mu+     mu-    )
     4.84561572E-04    2           3        -3   # BR(h -> s       sb     )
     2.01682202E-02    2           4        -4   # BR(h -> c       cb     )
     6.66734964E-02    2          21        21   # BR(h -> g       g      )
     2.23786511E-03    2          22        22   # BR(h -> gam     gam    )
     1.51144254E-03    2          22        23   # BR(h -> Z       gam    )
     1.90869165E-01    2          24       -24   # BR(h -> W+      W-     )
     2.50197916E-02    2          23        23   # BR(h -> Z       Z      )
#
#         PDG            Width
DECAY        35     2.45570205E+00   # H decays
#          BR         NDA      ID1       ID2
     1.25004822E-01    2           5        -5   # BR(H -> b       bb     )
     1.94053671E-02    2         -15        15   # BR(H -> tau+    tau-   )
     6.85984474E-05    2         -13        13   # BR(H -> mu+     mu-    )
     9.81683182E-05    2           3        -3   # BR(H -> s       sb     )
     8.68557668E-06    2           4        -4   # BR(H -> c       cb     )
     7.77242616E-01    2           6        -6   # BR(H -> t       tb     )
     1.04715717E-03    2          21        21   # BR(H -> g       g      )
     5.39624929E-06    2          22        22   # BR(H -> gam     gam    )
     1.19564488E-06    2          23        22   # BR(H -> Z       gam    )
     2.77674692E-03    2          24       -24   # BR(H -> W+      W-     )
     1.37350303E-03    2          23        23   # BR(H -> Z       Z      )
     9.83503389E-03    2          25        25   # BR(H -> h       h      )
     6.52107007E-22    2          36        36   # BR(H -> A       A      )
     1.59119443E-13    2          23        36   # BR(H -> Z       A      )
     3.42866606E-02    2     1000024  -1000024   # BR(H -> ~chi_1+ ~chi_1-)
     1.83538250E-03    2     1000022   1000022   # BR(H -> ~chi_10 ~chi_10)
     1.60260476E-02    2     1000023   1000023   # BR(H -> ~chi_20 ~chi_20)
     1.08734648E-02    2     1000022   1000023   # BR(H -> ~chi_10 ~chi_20)
     1.11153778E-04    2     1000005  -1000005   # BR(H -> ~b_1    ~b_1*  )
#
#         PDG            Width
DECAY        36     2.58270023E+00   # A decays
#          BR         NDA      ID1       ID2
     1.19151968E-01    2           5        -5   # BR(A -> b       bb     )
     1.84724849E-02    2         -15        15   # BR(A -> tau+    tau-   )
     6.52998658E-05    2         -13        13   # BR(A -> mu+     mu-    )
     9.37282600E-05    2           3        -3   # BR(A -> s       sb     )
     7.96864418E-06    2           4        -4   # BR(A -> c       cb     )
     7.76945588E-01    2           6        -6   # BR(A -> t       tb     )
     1.50088231E-03    2          21        21   # BR(A -> g       g      )
     2.41663589E-06    2          22        22   # BR(A -> gam     gam    )
     1.76021952E-06    2          23        22   # BR(A -> Z       gam    )
     2.54449260E-03    2          23        25   # BR(A -> Z       h      )
     4.45695488E-02    2     1000024  -1000024   # BR(A -> ~chi_1+ ~chi_1-)
     2.21773262E-03    2     1000022   1000022   # BR(A -> ~chi_10 ~chi_10)
     2.08458591E-02    2     1000023   1000023   # BR(A -> ~chi_20 ~chi_20)
     1.35802703E-02    2     1000022   1000023   # BR(A -> ~chi_10 ~chi_20)
#
#         PDG            Width
DECAY        37     2.35996467E+00   # H+ decays
#          BR         NDA      ID1       ID2
     2.03886860E-04    2           4        -5   # BR(H+ -> c       bb     )
     2.02929666E-02    2         -15        16   # BR(H+ -> tau+    nu_tau )
     7.17352288E-05    2         -13        14   # BR(H+ -> mu+     nu_mu  )
     1.30477811E-06    2           2        -5   # BR(H+ -> u       bb     )
     4.89764267E-06    2           2        -3   # BR(H+ -> u       sb     )
     1.09096553E-04    2           4        -3   # BR(H+ -> c       sb     )
     9.51838027E-01    2           6        -5   # BR(H+ -> t       bb     )
     2.83419018E-03    2          24        25   # BR(H+ -> W+      h      )
     4.46062264E-10    2          24        36   # BR(H+ -> W+      A      )
     2.46215094E-02    2     1000024   1000022   # BR(H+ -> ~chi_1+ ~chi_10)
     2.23853798E-05    2     1000024   1000023   # BR(H+ -> ~chi_1+ ~chi_20)
