BLOCK AD
      3 3 0.000000e+00

BLOCK AE
      3 3 0.000000e+00

BLOCK ALPHA
      -1.984076e-01

BLOCK AU
      3 3 1.547333e+03

BLOCK MASS
      -2000016 5.000000e+03
      -2000015 5.000545e+03
      -2000014 5.000000e+03
      -2000013 5.000178e+03
      -2000012 5.000000e+03
      -2000011 5.000178e+03
      -2000006 7.967734e+02
      -2000005 5.000058e+03
      -2000004 4.999882e+03
      -2000003 5.000060e+03
      -2000002 4.999881e+03
      -2000001 5.000060e+03
      -1000037 2.003628e+03
      -1000024 4.016646e+02
      -1000016 4.999616e+03
      -1000015 4.999839e+03
      -1000014 4.999616e+03
      -1000013 5.000206e+03
      -1000012 4.999616e+03
      -1000011 5.000206e+03
      -1000006 4.498768e+02
      -1000005 6.340939e+02
      -1000004 4.999735e+03
      -1000003 5.000324e+03
      -1000002 4.999735e+03
      -1000001 5.000324e+03
      -37 2.013166e+03
      -6 1.725000e+02
      6 1.725000e+02
      25 1.260000e+02
      35 2.013446e+03
      36 2.000000e+03
      37 2.013166e+03
      1000001 5.000324e+03
      1000002 4.999735e+03
      1000003 5.000324e+03
      1000004 4.999735e+03
      1000005 6.340939e+02
      1000006 4.498768e+02
      1000011 5.000206e+03
      1000012 4.999616e+03
      1000013 5.000206e+03
      1000014 4.999616e+03
      1000015 4.999839e+03
      1000016 4.999616e+03
      1000021 2.000000e+03
      1000022 4.000000e+02
      1000023 -4.047180e+02
      1000024 4.016646e+02
      1000025 2.000000e+03
      1000035 2.004717e+03
      1000037 2.003628e+03
      1000039 1.000000e-03
      2000001 5.000060e+03
      2000002 4.999881e+03
      2000003 5.000060e+03
      2000004 4.999882e+03
      2000005 5.000058e+03
      2000006 7.967734e+02
      2000011 5.000178e+03
      2000012 5.000000e+03
      2000013 5.000178e+03
      2000014 5.000000e+03
      2000015 5.000545e+03
      2000016 5.000000e+03

BLOCK MINPAR
      3 5.000000e+00
      4 4.036370e+02

BLOCK NMIX
      1 1 2.291420e-02
      1 2 -4.169080e-02
      1 3 7.084339e-01
      1 4 -7.041721e-01
      2 1 -1.022455e-02
      2 2 1.860285e-02
      2 3 7.055280e-01
      2 4 7.083641e-01
      3 1 -8.763475e-01
      3 2 -4.816792e-01
      3 3 -3.000000e-07
      3 4 7.600000e-07
      4 1 4.810253e-01
      4 2 -8.751576e-01
      4 3 -1.875115e-02
      4 4 4.860224e-02

BLOCK SBOTMIX
      1 1 9.999913e-01
      1 2 -4.172268e-03
      2 1 4.172268e-03
      2 2 9.999913e-01

BLOCK STAUMIX
      1 1 6.930430e-01
      1 2 7.208962e-01
      2 1 -7.208962e-01
      2 2 6.930430e-01

BLOCK STOPMIX
      1 1 7.083014e-01
      1 2 -7.059101e-01
      2 1 7.059101e-01
      2 2 7.083014e-01

BLOCK UMIX
      1 1 -2.326675e-02
      1 2 9.997293e-01
      2 1 -9.997293e-01
      2 2 -2.326675e-02

BLOCK VMIX
      1 1 -6.033441e-02
      1 2 9.981782e-01
      2 1 -9.981782e-01
      2 2 -6.033441e-02

DECAY -2000016 6.582118e-55

DECAY -2000015 3.442710e+01
   4.491491e-01 2 1000037 -16
   4.002512e-01 2 1000025 -15
   1.423973e-01 2 1000035 -15
   4.912289e-03 2 1000023 -15
   1.694885e-03 2 1000024 -16
   1.595144e-03 2 1000022 -15

DECAY -2000014 6.582118e-55

DECAY -2000013 1.830247e+01
   7.530097e-01 2 1000025 -13
   2.264655e-01 2 1000035 -13
   1.966106e-02 2 -13 1000039
   7.202950e-04 2 1000022 -13
   1.433696e-04 2 1000023 -13

DECAY -2000012 6.582118e-55

DECAY -2000011 1.830247e+01
   7.530097e-01 2 1000025 -11
   2.264655e-01 2 1000035 -11
   1.966106e-02 2 -11 1000039
   7.202950e-04 2 1000022 -11
   1.433696e-04 2 1000023 -11

DECAY -2000006 2.618394e+01
   4.484715e-01 2 23 -1000006
   2.018776e-01 2 -24 -1000005
   1.380420e-01 2 1000023 -6
   1.370390e-01 2 -1000024 -5
   7.456978e-02 2 1000022 -6

DECAY -2000005 1.913351e+02
   9.717847e-01 2 1000021 -5
   8.003041e-03 2 1000025 -5
   3.621003e-03 2 24 -1000006
   3.573341e-03 2 1000024 -6
   3.567856e-03 2 23 -1000005
   3.411547e-03 2 24 -2000006
   2.406456e-03 2 1000035 -5
   1.807689e-03 2 1000022 -5
   1.777221e-03 2 1000023 -5
   3.389196e-05 2 25 -1000005
   1.351086e-05 2 37 -2000006

DECAY -2000004 1.938997e+02
   9.588830e-01 2 1000021 -4
   3.158706e-02 2 1000025 -4
   9.499717e-03 2 1000035 -4
   3.021607e-05 2 1000022 -4

DECAY -2000003 1.879263e+02
   9.894014e-01 2 1000021 -3
   8.148121e-03 2 1000025 -3
   2.450524e-03 2 1000035 -3

DECAY -2000002 1.938997e+02
   9.588830e-01 2 1000021 -2
   3.158706e-02 2 1000025 -2
   9.499716e-03 2 1000035 -2
   3.021607e-05 2 1000022 -2

DECAY -2000001 1.879263e+02
   9.894014e-01 2 1000021 -1
   8.148121e-03 2 1000025 -1
   2.450524e-03 2 1000035 -1

DECAY -1000037 6.005582e+01
   3.321664e-01 2 1000005 -6
   2.213463e-01 2 -1000006 5
   1.254295e-01 2 -2000006 5
   8.122513e-02 2 -1000024 23
   8.051453e-02 2 1000023 -24
   7.977364e-02 2 1000022 -24
   7.954448e-02 2 -1000024 25

DECAY -1000024 8.955385e-12
   6.000001e-01 3 1000022 -2 1
   2.000000e-01 3 1000022 11 -12
   2.000000e-01 3 1000022 13 -14

DECAY -1000016 4.963516e+01
   5.953228e-01 2 -1000037 -15
   3.877772e-01 2 1000035 -16
   8.174978e-03 2 -1000024 -15
   7.245917e-03 2 -16 1000039
   1.233540e-03 2 1000022 -16
   2.455268e-04 2 1000023 -16

DECAY -1000015 3.364231e+01
   4.215977e-01 2 1000037 -16
   4.097571e-01 2 1000025 -15
   1.418793e-01 2 1000035 -15
   1.069257e-02 2 -15 1000039
   6.881822e-03 2 1000022 -15
   6.500602e-03 2 1000024 -16
   2.690838e-03 2 1000023 -15

DECAY -1000014 4.937823e+01
   5.983902e-01 2 -1000037 -13
   3.897768e-01 2 1000035 -14
   7.283282e-03 2 -14 1000039
   3.062964e-03 2 -1000024 -13
   1.239901e-03 2 1000022 -14
   2.467929e-04 2 1000023 -14

DECAY -1000013 4.936342e+01
   6.005789e-01 2 1000037 -14
   2.792118e-01 2 1000025 -13
   1.120362e-01 2 1000035 -13
   7.290039e-03 2 -13 1000039
   4.557036e-04 2 1000024 -14
   3.563810e-04 2 1000022 -13
   7.093482e-05 2 1000023 -13

DECAY -1000012 4.937823e+01
   5.983902e-01 2 -1000037 -11
   3.897768e-01 2 1000035 -12
   7.283282e-03 2 -12 1000039
   3.062964e-03 2 -1000024 -11
   1.239901e-03 2 1000022 -12
   2.467929e-04 2 1000023 -12

DECAY -1000011 4.936342e+01
   6.005789e-01 2 1000037 -12
   2.792118e-01 2 1000025 -11
   1.120362e-01 2 1000035 -11
   7.290039e-03 2 -11 1000039
   4.557036e-04 2 1000024 -12
   3.563810e-04 2 1000022 -11
   7.093482e-05 2 1000023 -11

DECAY -1000006 1.260846e-01
   1.000000e+00 2 -1000024 -5

DECAY -1000005 9.284319e+00
   7.931712e-01 2 24 -1000006
   2.032257e-01 2 1000024 -6
   1.913898e-03 2 1000022 -5
   1.689152e-03 2 1000023 -5

DECAY -1000004 2.309596e+02
   8.049789e-01 2 1000021 -4
   1.279427e-01 2 -1000037 -3
   3.975313e-02 2 1000035 -4
   2.651883e-02 2 1000025 -4
   6.548852e-04 2 -1000024 -3
   1.264580e-04 2 1000022 -4
   2.517050e-05 2 1000023 -4

DECAY -1000003 2.309596e+02
   8.051171e-01 2 1000021 -3
   1.283640e-01 2 1000037 -4
   5.956305e-02 2 1000035 -3
   6.631330e-03 2 1000025 -3
   1.894555e-04 2 1000022 -3
   9.739750e-05 2 1000024 -4
   3.770968e-05 2 1000023 -3

DECAY -1000002 2.309596e+02
   8.049790e-01 2 1000021 -2
   1.279426e-01 2 -1000037 -1
   3.975312e-02 2 1000035 -2
   2.651883e-02 2 1000025 -2
   6.548851e-04 2 -1000024 -1
   1.264580e-04 2 1000022 -2
   2.517050e-05 2 1000023 -2

DECAY -1000001 2.309596e+02
   8.051171e-01 2 1000021 -1
   1.283640e-01 2 1000037 -2
   5.956305e-02 2 1000035 -1
   6.631330e-03 2 1000025 -1
   1.894555e-04 2 1000022 -1
   9.739750e-05 2 1000024 -2
   3.770967e-05 2 1000023 -1

DECAY -37 1.254956e+01
   3.443086e-01 2 -1000006 1000005
   3.347460e-01 2 -6 5
   3.113113e-01 2 -2000006 1000005
   8.241666e-03 2 -16 15
   7.989900e-04 2 -1000024 1000023
   3.151885e-04 2 -4 3
   2.135386e-04 2 25 -24
   3.605512e-05 2 -1000024 1000022
   2.877527e-05 2 -14 13

DECAY -6 1.146810e+00
   3.333333e-01 3 -2 1 -5
   3.333333e-01 3 -4 3 -5
   1.111111e-01 3 -12 11 -5
   1.111111e-01 3 -14 13 -5
   1.111111e-01 3 -16 15 -5

DECAY 6 1.146810e+00
   3.333333e-01 3 2 -1 5
   3.333333e-01 3 4 -3 5
   1.111111e-01 3 12 -11 5
   1.111111e-01 3 14 -13 5
   1.111111e-01 3 16 -15 5

DECAY 25 4.080921e-03
   5.610000e-01 2 5 -5
   6.150000e-02 2 15 -15
   2.140000e-04 2 13 -13
   2.830000e-02 2 4 -4
   8.480000e-02 2 21 21
   2.280000e-03 2 22 22
   1.620000e-03 2 22 23
   3.850000e-02 3 24 -2 1
   3.850000e-02 3 24 -4 3
   3.850000e-02 3 -24 2 -1
   3.850000e-02 3 -24 4 -3
   1.283333e-02 3 24 11 -12
   1.283333e-02 3 24 13 -14
   1.283333e-02 3 24 15 -16
   1.283333e-02 3 -24 -11 12
   1.283333e-02 3 -24 -13 14
   1.283333e-02 3 -24 -15 16
   4.390199e-03 3 23 1 -1
   4.390199e-03 3 23 3 -3
   4.390199e-03 3 23 5 -5
   3.407888e-03 3 23 2 -2
   3.407888e-03 3 23 4 -4
   1.976471e-03 3 23 12 -12
   1.976471e-03 3 23 14 -14
   1.976471e-03 3 23 16 -16
   9.947377e-04 3 23 11 -11
   9.947377e-04 3 23 13 -13
   9.947377e-04 3 23 15 -15

DECAY 35 1.266352e+01
   3.305694e-01 2 1000006 -1000006
   2.960326e-01 2 2000006 -2000006
   2.826207e-01 2 6 -6
   7.575060e-02 2 5 -5
   8.165364e-03 2 15 -15
   3.071708e-03 2 1000024 -1000024
   9.414467e-04 2 1000022 1000022
   7.721855e-04 2 25 25
   6.151752e-04 2 1000022 1000023
   4.166371e-04 2 1000023 1000023
   3.324168e-04 2 3 -3
   2.359654e-04 2 1000005 -1000005
   2.127785e-04 2 24 -24
   1.258223e-04 2 21 21
   1.089189e-04 2 23 23
   2.850896e-05 2 13 -13

DECAY 36 1.307740e+01
   3.177221e-01 2 1000006 -2000006
   3.177221e-01 2 2000006 -1000006
   2.756267e-01 2 6 -6
   7.295092e-02 2 5 -5
   7.857338e-03 2 15 -15
   4.784584e-03 2 1000024 -1000024
   2.411606e-03 2 1000022 1000022
   3.198915e-04 2 3 -3
   2.111769e-04 2 1000023 1000023
   2.032550e-04 2 25 23
   1.148759e-04 2 21 21
   4.785023e-05 2 1000022 1000023
   2.743342e-05 2 13 -13

DECAY 37 1.254956e+01
   3.443086e-01 2 1000006 -1000005
   3.347460e-01 2 6 -5
   3.113113e-01 2 2000006 -1000005
   8.241666e-03 2 16 -15
   7.989900e-04 2 1000024 1000023
   3.151885e-04 2 4 -3
   2.135386e-04 2 25 24
   3.605512e-05 2 1000024 1000022
   2.877527e-05 2 14 -13

DECAY 1000001 2.309596e+02
   8.051171e-01 2 1000021 1
   1.283640e-01 2 -1000037 2
   5.956305e-02 2 1000035 1
   6.631330e-03 2 1000025 1
   1.894555e-04 2 1000022 1
   9.739750e-05 2 -1000024 2
   3.770967e-05 2 1000023 1

DECAY 1000002 2.309596e+02
   8.049790e-01 2 1000021 2
   1.279426e-01 2 1000037 1
   3.975312e-02 2 1000035 2
   2.651883e-02 2 1000025 2
   6.548851e-04 2 1000024 1
   1.264580e-04 2 1000022 2
   2.517050e-05 2 1000023 2

DECAY 1000003 2.309596e+02
   8.051171e-01 2 1000021 3
   1.283640e-01 2 -1000037 4
   5.956305e-02 2 1000035 3
   6.631330e-03 2 1000025 3
   1.894555e-04 2 1000022 3
   9.739750e-05 2 -1000024 4
   3.770968e-05 2 1000023 3

DECAY 1000004 2.309596e+02
   8.049789e-01 2 1000021 4
   1.279427e-01 2 1000037 3
   3.975313e-02 2 1000035 4
   2.651883e-02 2 1000025 4
   6.548852e-04 2 1000024 3
   1.264580e-04 2 1000022 4
   2.517050e-05 2 1000023 4

DECAY 1000005 9.284319e+00
   7.931712e-01 2 -24 1000006
   2.032257e-01 2 -1000024 6
   1.913898e-03 2 1000022 5
   1.689152e-03 2 1000023 5

DECAY 1000006 1.260846e-01
   1.000000e+00 2 1000024 5

DECAY 1000011 4.936342e+01
   6.005789e-01 2 -1000037 12
   2.792118e-01 2 1000025 11
   1.120362e-01 2 1000035 11
   7.290039e-03 2 11 1000039
   4.557036e-04 2 -1000024 12
   3.563810e-04 2 1000022 11
   7.093482e-05 2 1000023 11

DECAY 1000012 4.937823e+01
   5.983902e-01 2 1000037 11
   3.897768e-01 2 1000035 12
   7.283282e-03 2 12 1000039
   3.062964e-03 2 1000024 11
   1.239901e-03 2 1000022 12
   2.467929e-04 2 1000023 12

DECAY 1000013 4.936342e+01
   6.005789e-01 2 -1000037 14
   2.792118e-01 2 1000025 13
   1.120362e-01 2 1000035 13
   7.290039e-03 2 13 1000039
   4.557036e-04 2 -1000024 14
   3.563810e-04 2 1000022 13
   7.093482e-05 2 1000023 13

DECAY 1000014 4.937823e+01
   5.983902e-01 2 1000037 13
   3.897768e-01 2 1000035 14
   7.283282e-03 2 14 1000039
   3.062964e-03 2 1000024 13
   1.239901e-03 2 1000022 14
   2.467929e-04 2 1000023 14

DECAY 1000015 3.364231e+01
   4.215977e-01 2 -1000037 16
   4.097571e-01 2 1000025 15
   1.418793e-01 2 1000035 15
   1.069257e-02 2 15 1000039
   6.881822e-03 2 1000022 15
   6.500602e-03 2 -1000024 16
   2.690838e-03 2 1000023 15

DECAY 1000016 4.963516e+01
   5.953228e-01 2 1000037 15
   3.877772e-01 2 1000035 16
   8.174978e-03 2 1000024 15
   7.245917e-03 2 16 1000039
   1.233540e-03 2 1000022 16
   2.455268e-04 2 1000023 16

DECAY 1000021 1.046542e+02
   2.183399e-01 2 -1000006 6
   2.183399e-01 2 1000006 -6
   1.662059e-01 2 -1000005 5
   1.662059e-01 2 1000005 -5
   1.154366e-01 2 -2000006 6
   1.154366e-01 2 2000006 -6
   3.520313e-05 2 1000039 21

DECAY 1000022 4.564576e-07
   0.734086 2 1000039 23
   0.265914 2 1000039 25

DECAY 1000023 4.706892e-07
   6.594020e-01 2 1000039 25
   3.345830e-01 2 1000039 23
   7.985344e-04 3 1000022 1 -1
   7.985344e-04 3 1000022 3 -3
   6.192564e-04 3 1000022 2 -2
   6.192564e-04 3 1000022 4 -4
   3.604262e-04 3 1000022 12 -12
   3.604262e-04 3 1000022 14 -14
   3.604262e-04 3 1000022 16 -16
   2.761982e-04 2 1000022 22
   2.387788e-04 3 -1000024 2 -1
   2.387788e-04 3 1000024 1 -2
   2.387788e-04 3 -1000024 4 -3
   2.387788e-04 3 1000024 3 -4
   1.811472e-04 3 1000022 11 -11
   1.811472e-04 3 1000022 13 -13
   7.959293e-05 3 -1000024 12 -11
   7.959293e-05 3 -1000024 14 -13
   7.959293e-05 3 1000024 11 -12
   7.959293e-05 3 1000024 13 -14
   7.959293e-05 3 -1000024 16 -15
   7.959293e-05 3 1000024 15 -16
   2.699259e-05 3 1000022 15 -15

DECAY 1000024 8.955385e-12
   6.000001e-01 3 1000022 2 -1
   2.000000e-01 3 1000022 -11 12
   2.000000e-01 3 1000022 -13 14

DECAY 1000025 2.795192e+01
   1.980509e-01 2 1000006 -6
   1.980509e-01 2 -1000006 6
   1.594796e-01 2 1000024 -24
   1.594796e-01 2 -1000024 24
   1.047097e-01 2 2000006 -6
   1.047097e-01 2 -2000006 6
   3.769389e-02 2 1000005 -5
   3.769389e-02 2 -1000005 5
   1.318011e-04 2 1000039 22

DECAY 1000035 5.022984e+01
   1.893872e-01 2 1000005 -5
   1.893872e-01 2 -1000005 5
   1.057281e-01 2 1000023 23
   1.025910e-01 2 1000022 25
   9.410635e-02 2 1000006 -6
   9.410635e-02 2 -1000006 6
   5.567037e-02 2 2000006 -6
   5.567037e-02 2 -2000006 6
   3.619895e-02 2 1000024 -24
   3.619895e-02 2 -1000024 24
   2.058368e-02 2 1000022 23
   2.029805e-02 2 1000023 25
   7.350237e-05 2 1000039 23

DECAY 1000037 6.005582e+01
   3.321664e-01 2 -1000005 6
   2.213463e-01 2 1000006 -5
   1.254295e-01 2 2000006 -5
   8.122513e-02 2 1000024 23
   8.051453e-02 2 1000023 24
   7.977364e-02 2 1000022 24
   7.954448e-02 2 1000024 25

DECAY 1000039 6.582118e-55

DECAY 2000001 1.879263e+02
   9.894014e-01 2 1000021 1
   8.148121e-03 2 1000025 1
   2.450524e-03 2 1000035 1

DECAY 2000002 1.938997e+02
   9.588830e-01 2 1000021 2
   3.158706e-02 2 1000025 2
   9.499716e-03 2 1000035 2
   3.021607e-05 2 1000022 2

DECAY 2000003 1.879263e+02
   9.894014e-01 2 1000021 3
   8.148121e-03 2 1000025 3
   2.450524e-03 2 1000035 3

DECAY 2000004 1.938997e+02
   9.588830e-01 2 1000021 4
   3.158706e-02 2 1000025 4
   9.499717e-03 2 1000035 4
   3.021607e-05 2 1000022 4

DECAY 2000005 1.913351e+02
   9.717847e-01 2 1000021 5
   8.003041e-03 2 1000025 5
   3.621003e-03 2 -24 1000006
   3.573341e-03 2 -1000024 6
   3.567856e-03 2 23 1000005
   3.411547e-03 2 -24 2000006
   2.406456e-03 2 1000035 5
   1.807689e-03 2 1000022 5
   1.777221e-03 2 1000023 5
   3.389196e-05 2 25 1000005
   1.351086e-05 2 -37 2000006

DECAY 2000006 2.618394e+01
   4.484715e-01 2 23 1000006
   2.018776e-01 2 24 1000005
   1.380420e-01 2 1000023 6
   1.370390e-01 2 1000024 5
   7.456978e-02 2 1000022 6

DECAY 2000011 1.830247e+01
   7.530097e-01 2 1000025 11
   2.264655e-01 2 1000035 11
   1.966106e-02 2 11 1000039
   7.202950e-04 2 1000022 11
   1.433696e-04 2 1000023 11

DECAY 2000012 6.582118e-55

DECAY 2000013 1.830247e+01
   7.530097e-01 2 1000025 13
   2.264655e-01 2 1000035 13
   1.966106e-02 2 13 1000039
   7.202950e-04 2 1000022 13
   1.433696e-04 2 1000023 13

DECAY 2000014 6.582118e-55

DECAY 2000015 3.442710e+01
   4.491491e-01 2 -1000037 16
   4.002512e-01 2 1000025 15
   1.423973e-01 2 1000035 15
   4.912289e-03 2 1000023 15
   1.694885e-03 2 -1000024 16
   1.595144e-03 2 1000022 15

DECAY 2000016 6.582118e-55


BLOCK MSOFT

BLOCK HMIX
    1 403.637


