#
#                              ======================
#                              | THE SUSYHIT OUTPUT |
#                              ======================
#
#
#              ------------------------------------------------------
#              |     This is the output of the SUSY-HIT package     |
#              |  created by A.Djouadi, M.Muehlleitner and M.Spira. |
#              |  In case of problems with SUSY-HIT email to        |
#              |           margarete.muehlleitner@cern.ch           |
#              |           michael.spira@psi.ch                     |
#              |           abdelhak.djouadi@cern.ch                 |
#              ------------------------------------------------------
#
#              ------------------------------------------------------
#              |  SUSY Les Houches Accord - MSSM Spectrum + Decays  |
#              |              based on the decay programs           |
#              |                                                    |
#              |                     SDECAY 1.3b                    |
#              |                                                    |
#              |  Authors: M.Muhlleitner, A.Djouadi and Y.Mambrini  |
#              |  Ref.:    Comput.Phys.Commun.168(2005)46           |
#              |           [hep-ph/0311167]                         |
#              |                                                    |
#              |                     HDECAY 3.4                     |
#              |                                                    |
#              |  By: A.Djouadi,J.Kalinowski,M.Muhlleitner,M.Spira  |
#              |  Ref.:    Comput.Phys.Commun.108(1998)56           |
#              |           [hep-ph/9704448]                         |
#              |                                                    |
#              |                                                    |
#              |  If not stated otherwise all DRbar couplings and   |
#              |  soft SUSY breaking masses are given at the scale  |
#              |  Q=  0.25546700E+04
#              |                                                    |
#              ------------------------------------------------------
#
#
BLOCK DCINFO  # Decay Program information
     1   SDECAY/HDECAY # decay calculator
     2   1.3b  /3.4    # version number
#
BLOCK SPINFO  # Spectrum calculator information
     1     SOFTSUSY    # spectrum calculator               
     2     3.4.0       # version number                    
#
BLOCK MODSEL  # Model selection
     1     0   #  nonUniversal                                     
#
BLOCK SMINPUTS  # Standard Model inputs
         1     1.27908970E+02   # alpha_em^-1(M_Z)^MSbar
         2     1.16637870E-05   # G_F [GeV^-2]
         3     1.18400000E-01   # alpha_S(M_Z)^MSbar
         4     9.11876000E+01   # M_Z pole mass
         5     4.18000000E+00   # mb(mb)^MSbar
         6     1.73200000E+02   # mt pole mass
         7     1.77700000E+00   # mtau pole mass
#
BLOCK MINPAR  # Input parameters - minimal models
         3     2.77200000E+01   # tanb                
#
BLOCK EXTPAR  # Input parameters - non-minimal models
         0    -1.00000000E+00   # Set                 
         1     2.81860000E+02   # M_1(MX)             
         2     2.91296000E+03   # M_2(MX)             
         3     2.17633000E+03   # M_3(MX)             
        11     3.12945000E+03   # At(MX)              
        12     1.61892000E+03   # Ab(MX)              
        13     1.43959000E+03   # Atau(MX)            
        23    -3.09060000E+02   # mu(MX)              
        26     1.73842000E+03   # mA(pole)            
        31     1.58388000E+03   # meL(MX)             
        32     1.58388000E+03   # mmuL(MX)            
        33     1.24300000E+03   # mtauL(MX)           
        34     4.67890000E+02   # meR(MX)             
        35     4.67890000E+02   # mmuR(MX)            
        36     3.57016000E+03   # mtauR(MX)           
        41     2.27138000E+03   # mqL1(MX)            
        42     2.27138000E+03   # mqL2(MX)            
        43     1.73839000E+03   # mqL3(MX)            
        44     1.44355000E+03   # muR(MX)             
        45     1.44355000E+03   # mcR(MX)             
        46     3.74948000E+03   # mtR(MX)             
        47     3.95300000E+02   # mdR(MX)             
        48     3.95300000E+02   # msR(MX)             
        49     8.98440000E+02   # mbR(MX)             
#
BLOCK MASS  # Mass Spectrum
# PDG code           mass       particle
        24     8.04015625E+01   # W+
        25     1.24889251E+02   # h
        35     1.73843498E+03   # H
        36     1.73841992E+03   # A
        37     1.74072696E+03   # H+
         5     4.81876030E+00   # b-quark pole mass calculated from mb(mb)_Msbar
   1000001     2.37709492E+03   # ~d_L
   2000001     6.31509135E+02   # ~d_R
   1000002     2.37591875E+03   # ~u_L
   2000002     1.55343937E+03   # ~u_R
   1000003     2.37709492E+03   # ~s_L
   2000003     6.31509135E+02   # ~s_R
   1000004     2.37591875E+03   # ~c_L
   2000004     1.55343937E+03   # ~c_R
   1000005     1.03183147E+03   # ~b_1
   2000005     1.84223620E+03   # ~b_2
   1000006     1.84213659E+03   # ~t_1
   2000006     3.75469849E+03   # ~t_2
   1000011     1.60828814E+03   # ~e_L
   2000011     4.84783632E+02   # ~e_R
   1000012     1.60601730E+03   # ~nu_eL
   1000013     1.60828814E+03   # ~mu_L
   2000013     4.84783632E+02   # ~mu_R
   1000014     1.60601730E+03   # ~nu_muL
   1000015     1.26740292E+03   # ~tau_1
   2000015     3.57116751E+03   # ~tau_2
   1000016     1.26462557E+03   # ~nu_tauL
   1000021     2.27477936E+03   # ~g
   1000022     2.63623318E+02   # ~chi_10
   1000023    -3.26044919E+02   # ~chi_20
   1000025     3.37222766E+02   # ~chi_30
   1000035     2.87299180E+03   # ~chi_40
   1000024     3.23675968E+02   # ~chi_1+
   1000037     2.87315794E+03   # ~chi_2+
#
BLOCK NMIX  # Neutralino Mixing Matrix
  1  1     8.92608970E-01   # N_11
  1  2    -7.98876267E-03   # N_12
  1  3    -3.51465720E-01   # N_13
  1  4    -2.82236168E-01   # N_14
  2  1    -5.27767467E-02   # N_21
  2  2     1.79848579E-02   # N_22
  2  3    -7.03440147E-01   # N_23
  2  4     7.08564125E-01   # N_24
  3  1     4.47731622E-01   # N_31
  3  2     1.91326886E-02   # N_32
  3  3     6.17770103E-01   # N_33
  3  4     6.46165950E-01   # N_34
  4  1    -4.86469463E-04   # N_41
  4  2     9.99623261E-01   # N_42
  4  3    -1.97685291E-03   # N_43
  4  4    -2.73713466E-02   # N_44
#
BLOCK UMIX  # Chargino Mixing Matrix U
  1  1     2.80493481E-03   # U_11
  1  2     9.99996066E-01   # U_12
  2  1    -9.99996066E-01   # U_21
  2  2     2.80493481E-03   # U_22
#
BLOCK VMIX  # Chargino Mixing Matrix V
  1  1     3.87432881E-02   # V_11
  1  2    -9.99249197E-01   # V_12
  2  1    -9.99249197E-01   # V_21
  2  2    -3.87432881E-02   # V_22
#
BLOCK STOPMIX  # Stop Mixing Matrix
  1  1     9.99232804E-01   # cos(theta_t)
  1  2    -3.91638023E-02   # sin(theta_t)
  2  1     3.91638023E-02   # -sin(theta_t)
  2  2     9.99232804E-01   # cos(theta_t)
#
BLOCK SBOTMIX  # Sbottom Mixing Matrix
  1  1    -1.06480981E-02   # cos(theta_b)
  1  2     9.99943307E-01   # sin(theta_b)
  2  1    -9.99943307E-01   # -sin(theta_b)
  2  2    -1.06480981E-02   # cos(theta_b)
#
BLOCK STAUMIX  # Stau Mixing Matrix
  1  1     9.99998846E-01   # cos(theta_tau)
  1  2    -1.51920988E-03   # sin(theta_tau)
  2  1     1.51920988E-03   # -sin(theta_tau)
  2  2     9.99998846E-01   # cos(theta_tau)
#
BLOCK ALPHA  # Higgs mixing
          -3.76558992E-02   # Mixing angle in the neutral Higgs boson sector
#
BLOCK HMIX Q=  2.55467000E+03  # DRbar Higgs Parameters
         1    -3.15042824E+02   # mu(Q)MSSM           
         2     2.67376274E+01   # tan                 
         3     2.42985944E+02   # higgs               
         4     2.90310239E+06   # mA^2(Q)MSSM         
#
BLOCK GAUGE Q=  2.55467000E+03  # The gauge couplings
     1     3.65135890E-01   # gprime(Q) DRbar
     2     6.37934681E-01   # g(Q) DRbar
     3     1.02320885E+00   # g3(Q) DRbar
#
BLOCK AU Q=  2.55467000E+03  # The trilinear couplings
  1  1     0.00000000E+00   # A_u(Q) DRbar
  2  2     0.00000000E+00   # A_c(Q) DRbar
  3  3     3.12945001E+03   # A_t(Q) DRbar
#
BLOCK AD Q=  2.55467000E+03  # The trilinear couplings
  1  1     0.00000000E+00   # A_d(Q) DRbar
  2  2     0.00000000E+00   # A_s(Q) DRbar
  3  3     1.61892000E+03   # A_b(Q) DRbar
#
BLOCK AE Q=  2.55467000E+03  # The trilinear couplings
  1  1     0.00000000E+00   # A_e(Q) DRbar
  2  2     0.00000000E+00   # A_mu(Q) DRbar
  3  3     1.43959000E+03   # A_tau(Q) DRbar
#
BLOCK Yu Q=  2.55467000E+03  # The Yukawa couplings
  1  1     0.00000000E+00   # y_u(Q) DRbar
  2  2     0.00000000E+00   # y_c(Q) DRbar
  3  3     8.37398882E-01   # y_t(Q) DRbar
#
BLOCK Yd Q=  2.55467000E+03  # The Yukawa couplings
  1  1     0.00000000E+00   # y_d(Q) DRbar
  2  2     0.00000000E+00   # y_s(Q) DRbar
  3  3     3.80688450E-01   # y_b(Q) DRbar
#
BLOCK Ye Q=  2.55467000E+03  # The Yukawa couplings
  1  1     0.00000000E+00   # y_e(Q) DRbar
  2  2     0.00000000E+00   # y_mu(Q) DRbar
  3  3     2.67933302E-01   # y_tau(Q) DRbar
#
BLOCK MSOFT Q=  2.55467000E+03  # The soft SUSY breaking masses at the scale Q
         1     2.81860000E+02   # M_1(Q)              
         2     2.91296000E+03   # M_2(Q)              
         3     2.17633000E+03   # M_3(Q)              
        21     2.90583232E+06   # mH1^2(Q)            
        22    -7.42384740E+04   # mH2^2(Q)            
        31     1.58388000E+03   # meL(Q)              
        32     1.58388000E+03   # mmuL(Q)             
        33     1.24300000E+03   # mtauL(Q)            
        34     4.67890000E+02   # meR(Q)              
        35     4.67890000E+02   # mmuR(Q)             
        36     3.57016000E+03   # mtauR(Q)            
        41     2.27137999E+03   # mqL1(Q)             
        42     2.27137999E+03   # mqL2(Q)             
        43     1.73838999E+03   # mqL3(Q)             
        44     1.44354999E+03   # muR(Q)              
        45     1.44354999E+03   # mcR(Q)              
        46     3.74947999E+03   # mtR(Q)              
        47     3.95299971E+02   # mdR(Q)              
        48     3.95299971E+02   # msR(Q)              
        49     8.98439987E+02   # mbR(Q)              
#
Block HiggsBoundsInputHiggsCouplingsFermions
# ScalarNormEffCoupSq PseudoSNormEffCoupSq NP   IP1 IP2 IP2
    1.01464370E+00    0.00000000E+00        3  25   5   5  # h0-b-b eff. coupling^2, normalised to SM
    7.14886075E+02    0.00000000E+00        3  35   5   5  # H0-b-b eff. coupling^2, normalised to SM
    0.00000000E+00    7.14900719E+02        3  36   5   5  # A0-b-b eff. coupling^2, normalised to SM
#
    9.99979516E-01    0.00000000E+00        3  25   6   6  # h0-t-t eff. coupling^2, normalised to SM
    1.41927917E-03    0.00000000E+00        3  35   6   6  # H0-t-t eff. coupling^2, normalised to SM
    0.00000000E+00    1.39879563E-03        3  36   6   6  # A0-t-t eff. coupling^2, normalised to SM
#
    1.01464370E+00    0.00000000E+00        3  25  15  15  # h0-tau-tau eff. coupling^2, normalised to SM
    7.14886075E+02    0.00000000E+00        3  35  15  15  # H0-tau-tau eff. coupling^2, normalised to SM
    0.00000000E+00    7.14900719E+02        3  36  15  15  # A0-tau-tau eff. coupling^2, normalised to SM
#
Block HiggsBoundsInputHiggsCouplingsBosons
    9.99999926E-01        3  25  24  24  # h0-W-W eff. coupling^2, normalised to SM
    7.44453830E-08        3  35  24  24  # H0-W-W eff. coupling^2, normalised to SM
    0.00000000E+00        3  36  24  24  # A0-W-W eff. coupling^2, normalised to SM
#
    9.99999926E-01        3  25  23  23  # h0-Z-Z eff. coupling^2, normalised to SM
    7.44453830E-08        3  35  23  23  # H0-Z-Z eff. coupling^2, normalised to SM
    0.00000000E+00        3  36  23  23  # A0-Z-Z eff. coupling^2, normalised to SM
#
    8.93873801E-01        3  25  21  21  # h0-g-g eff. coupling^2, normalised to SM
    1.18972399E-10        3  35  21  21  # H0-g-g eff. coupling^2, normalised to SM
    9.94355222E-10        3  36  21  21  # A0-g-g eff. coupling^2, normalised to SM
#
    0.00000000E+00        3  25  25  23  # h0-h0-Z eff. coupling^2, normalised to SM
    0.00000000E+00        3  35  25  23  # H0-h0-Z eff. coupling^2, normalised to SM
    7.44453830E-08        3  36  25  23  # A0-h0-Z eff. coupling^2, normalised to SM
    0.00000000E+00        3  35  35  23  # H0-H0-Z eff. coupling^2, normalised to SM
    9.99999926E-01        3  36  35  23  # A0-H0-Z eff. coupling^2, normalised to SM
    0.00000000E+00        3  36  36  23  # A0-A0-Z eff. coupling^2, normalised to SM
#
    0.00000000E+00        4  25  21  21  23  # h0-g-g-Z eff. coupling^2, normalised to SM
    0.00000000E+00        4  35  21  21  23  # H0-g-g-Z eff. coupling^2, normalised to SM
    0.00000000E+00        4  36  21  21  23  # A0-g-g-Z eff. coupling^2, normalised to SM
#
#
#
#                             =================
#                             |The decay table|
#                             =================
#
# - The QCD corrections to the decays gluino -> squark  + quark
#                                     squark -> gaugino + quark_prime
#                                     squark -> squark_prime + Higgs
#                                     squark -> gluino  + quark
#   are included.
#
# - The multi-body decays for the inos, stops and sbottoms are included.
#
# - The loop induced decays for the gluino, neutralinos and stops
#   are included.
#
# - The SUSY decays of the top quark are included.
#
#
#         PDG            Width
DECAY         6     1.43273638E+00   # top decays
#          BR         NDA      ID1       ID2
     1.00000000E+00    2           5        24   # BR(t ->  b    W+)
#
#         PDG            Width
DECAY   1000021     1.43662089E+02   # gluino decays
#          BR         NDA      ID1       ID2
     1.35965123E-01    2     2000001        -1   # BR(~g -> ~d_R  db)
     1.35965123E-01    2    -2000001         1   # BR(~g -> ~d_R* d )
     4.54575063E-02    2     2000002        -2   # BR(~g -> ~u_R  ub)
     4.54575063E-02    2    -2000002         2   # BR(~g -> ~u_R* u )
     1.35965123E-01    2     2000003        -3   # BR(~g -> ~s_R  sb)
     1.35965123E-01    2    -2000003         3   # BR(~g -> ~s_R* s )
     4.54574302E-02    2     2000004        -4   # BR(~g -> ~c_R  cb)
     4.54574302E-02    2    -2000004         4   # BR(~g -> ~c_R* c )
     9.98844222E-02    2     1000005        -5   # BR(~g -> ~b_1  bb)
     9.98844222E-02    2    -1000005         5   # BR(~g -> ~b_1* b )
     1.89768467E-02    2     2000005        -5   # BR(~g -> ~b_2  bb)
     1.89768467E-02    2    -2000005         5   # BR(~g -> ~b_2* b )
     1.82935492E-02    2     1000006        -6   # BR(~g -> ~t_1  tb)
     1.82935492E-02    2    -1000006         6   # BR(~g -> ~t_1* t )
#
#         PDG            Width
DECAY   1000006     2.89740000E+01   # stop1 decays
#          BR         NDA      ID1       ID2
     6.91566991E-02    2     1000022         6   # BR(~t_1 -> ~chi_10 t )
     4.07911509E-01    2     1000023         6   # BR(~t_1 -> ~chi_20 t )
     3.46099592E-01    2     1000025         6   # BR(~t_1 -> ~chi_30 t )
     1.71967420E-01    2     1000024         5   # BR(~t_1 -> ~chi_1+ b )
     4.86477949E-03    2     1000005        24   # BR(~t_1 -> ~b_1    W+)
#
#         PDG            Width
DECAY   2000006     2.42460435E+02   # stop2 decays
#          BR         NDA      ID1       ID2
     4.66279504E-02    2     1000022         6   # BR(~t_2 -> ~chi_10 t )
     1.06898358E-01    2     1000023         6   # BR(~t_2 -> ~chi_20 t )
     9.45266210E-02    2     1000025         6   # BR(~t_2 -> ~chi_30 t )
     1.37993864E-06    2     1000035         6   # BR(~t_2 -> ~chi_40 t )
     2.12753065E-01    2     1000024         5   # BR(~t_2 -> ~chi_1+ b )
     2.93998059E-06    2     1000037         5   # BR(~t_2 -> ~chi_2+ b )
     3.43290378E-01    2     1000021         6   # BR(~t_2 -> ~g      t )
     5.68139463E-02    2     1000006        25   # BR(~t_2 -> ~t_1    h )
     8.89777380E-05    2     1000006        35   # BR(~t_2 -> ~t_1    H )
     9.02589690E-05    2     1000006        36   # BR(~t_2 -> ~t_1    A )
     9.36217157E-05    2     1000005        37   # BR(~t_2 -> ~b_1    H+)
     1.76958770E-04    2     2000005        37   # BR(~t_2 -> ~b_2    H+)
     4.71169208E-02    2     1000006        23   # BR(~t_2 -> ~t_1    Z )
     1.87525725E-05    2     1000005        24   # BR(~t_2 -> ~b_1    W+)
     9.14998710E-02    2     2000005        24   # BR(~t_2 -> ~b_2    W+)
#
#         PDG            Width
DECAY   1000005     5.18411144E+00   # sbottom1 decays
#          BR         NDA      ID1       ID2
     1.46265032E-01    2     1000022         5   # BR(~b_1 -> ~chi_10 b )
     2.29975896E-01    2     1000023         5   # BR(~b_1 -> ~chi_20 b )
     1.91400223E-01    2     1000025         5   # BR(~b_1 -> ~chi_30 b )
     4.32358849E-01    2    -1000024         6   # BR(~b_1 -> ~chi_1- t )
#
#         PDG            Width
DECAY   2000005     2.90514646E+01   # sbottom2 decays
#          BR         NDA      ID1       ID2
     2.87122806E-02    2     1000022         5   # BR(~b_2 -> ~chi_10 b )
     8.52349640E-02    2     1000023         5   # BR(~b_2 -> ~chi_20 b )
     6.68443335E-02    2     1000025         5   # BR(~b_2 -> ~chi_30 b )
     8.14148295E-01    2    -1000024         6   # BR(~b_2 -> ~chi_1- t )
     2.56350709E-03    2     1000005        25   # BR(~b_2 -> ~b_1    h )
     2.49662020E-03    2     1000005        23   # BR(~b_2 -> ~b_1    Z )
#
#         PDG            Width
DECAY   1000002     1.64590050E+00   # sup_L decays
#          BR         NDA      ID1       ID2
     1.43287996E-01    2     1000022         2   # BR(~u_L -> ~chi_10 u)
     3.36460310E-04    2     1000023         2   # BR(~u_L -> ~chi_20 u)
     5.85520383E-02    2     1000025         2   # BR(~u_L -> ~chi_30 u)
     1.61297597E-02    2     1000024         1   # BR(~u_L -> ~chi_1+ d)
     7.81693746E-01    2     1000021         2   # BR(~u_L -> ~g      u)
#
#         PDG            Width
DECAY   2000002     3.41947771E+00   # sup_R decays
#          BR         NDA      ID1       ID2
     8.02750000E-01    2     1000022         2   # BR(~u_R -> ~chi_10 u)
     2.72017469E-03    2     1000023         2   # BR(~u_R -> ~chi_20 u)
     1.94529826E-01    2     1000025         2   # BR(~u_R -> ~chi_30 u)
#
#         PDG            Width
DECAY   1000001     1.64594578E+00   # sdown_L decays
#          BR         NDA      ID1       ID2
     1.72963751E-01    2     1000022         1   # BR(~d_L -> ~chi_10 d)
     4.22831758E-03    2     1000023         1   # BR(~d_L -> ~chi_20 d)
     2.35477310E-02    2     1000025         1   # BR(~d_L -> ~chi_30 d)
     8.45826548E-05    2    -1000024         2   # BR(~d_L -> ~chi_1- u)
     7.99175618E-01    2     1000021         1   # BR(~d_L -> ~g      d)
#
#         PDG            Width
DECAY   2000001     2.51919381E-01   # sdown_R decays
#          BR         NDA      ID1       ID2
     8.39211273E-01    2     1000022         1   # BR(~d_R -> ~chi_10 d)
     2.31724983E-03    2     1000023         1   # BR(~d_R -> ~chi_20 d)
     1.58471478E-01    2     1000025         1   # BR(~d_R -> ~chi_30 d)
#
#         PDG            Width
DECAY   1000004     1.29265141E+00   # scharm_L decays
#          BR         NDA      ID1       ID2
     1.91226172E-01    2     1000022         4   # BR(~c_L -> ~chi_10 c)
     4.48798425E-04    2     1000023         4   # BR(~c_L -> ~chi_20 c)
     7.80946266E-02    2     1000025         4   # BR(~c_L -> ~chi_30 c)
     2.15156232E-02    2     1000024         3   # BR(~c_L -> ~chi_1+ s)
     7.08714780E-01    2     1000021         4   # BR(~c_L -> ~g      c)
#
#         PDG            Width
DECAY   2000004     3.42841868E+00   # scharm_R decays
#          BR         NDA      ID1       ID2
     8.02836778E-01    2     1000022         4   # BR(~c_R -> ~chi_10 c)
     2.71919471E-03    2     1000023         4   # BR(~c_R -> ~chi_20 c)
     1.94444027E-01    2     1000025         4   # BR(~c_R -> ~chi_30 c)
#
#         PDG            Width
DECAY   1000003     1.28320006E+00   # sstrange_L decays
#          BR         NDA      ID1       ID2
     2.32546880E-01    2     1000022         3   # BR(~s_L -> ~chi_10 s)
     5.68202196E-03    2     1000023         3   # BR(~s_L -> ~chi_20 s)
     3.16406948E-02    2     1000025         3   # BR(~s_L -> ~chi_30 s)
     1.13664431E-04    2    -1000024         4   # BR(~s_L -> ~chi_1- c)
     7.30016739E-01    2     1000021         3   # BR(~s_L -> ~g      s)
#
#         PDG            Width
DECAY   2000003     2.40901952E-01   # sstrange_R decays
#          BR         NDA      ID1       ID2
     8.39403228E-01    2     1000022         3   # BR(~s_R -> ~chi_10 s)
     2.31515440E-03    2     1000023         3   # BR(~s_R -> ~chi_20 s)
     1.58281617E-01    2     1000025         3   # BR(~s_R -> ~chi_30 s)
#
#         PDG            Width
DECAY   1000011     2.01169416E+00   # selectron_L decays
#          BR         NDA      ID1       ID2
     7.75153725E-01    2     1000022        11   # BR(~e_L -> ~chi_10 e-)
     4.44593306E-04    2     1000023        11   # BR(~e_L -> ~chi_20 e-)
     2.24354799E-01    2     1000025        11   # BR(~e_L -> ~chi_30 e-)
     4.68831470E-05    2    -1000024        12   # BR(~e_L -> ~chi_1- nu_e)
#
#         PDG            Width
DECAY   2000011     1.15581205E+00   # selectron_R decays
#          BR         NDA      ID1       ID2
     8.79327459E-01    2     1000022        11   # BR(~e_R -> ~chi_10 e-)
     1.85886191E-03    2     1000023        11   # BR(~e_R -> ~chi_20 e-)
     1.18813679E-01    2     1000025        11   # BR(~e_R -> ~chi_30 e-)
#
#         PDG            Width
DECAY   1000013     2.01169414E+00   # smuon_L decays
#          BR         NDA      ID1       ID2
     7.75153725E-01    2     1000022        13   # BR(~mu_L -> ~chi_10 mu-)
     4.44593306E-04    2     1000023        13   # BR(~mu_L -> ~chi_20 mu-)
     2.24354799E-01    2     1000025        13   # BR(~mu_L -> ~chi_30 mu-)
     4.68831474E-05    2    -1000024        14   # BR(~mu_L -> ~chi_1- nu_mu)
#
#         PDG            Width
DECAY   2000013     1.15581181E+00   # smuon_R decays
#          BR         NDA      ID1       ID2
     8.79327476E-01    2     1000022        13   # BR(~mu_R -> ~chi_10 mu-)
     1.85886171E-03    2     1000023        13   # BR(~mu_R -> ~chi_20 mu-)
     1.18813662E-01    2     1000025        13   # BR(~mu_R -> ~chi_30 mu-)
#
#         PDG            Width
DECAY   1000015     3.10689707E+00   # stau_1 decays
#          BR         NDA      ID1       ID2
     4.48486784E-01    2     1000022        15   # BR(~tau_1 -> ~chi_10  tau-)
     2.51506402E-01    2     1000023        15   # BR(~tau_1 -> ~chi_20  tau-)
     2.99972604E-01    2     1000025        15   # BR(~tau_1 -> ~chi_30  tau-)
     3.42106655E-05    2    -1000024        16   # BR(~tau_1 -> ~chi_1-  nu_tau)
#
#         PDG            Width
DECAY   2000015     2.97074098E+01   # stau_2 decays
#          BR         NDA      ID1       ID2
     5.23396357E-01    2     1000022        15   # BR(~tau_2 -> ~chi_10  tau-)
     8.53217309E-02    2     1000023        15   # BR(~tau_2 -> ~chi_20  tau-)
     1.90032571E-01    2     1000025        15   # BR(~tau_2 -> ~chi_30  tau-)
     4.57523851E-07    2     1000035        15   # BR(~tau_2 -> ~chi_40  tau-)
     1.68869388E-01    2    -1000024        16   # BR(~tau_2 -> ~chi_1-  nu_tau)
     8.80879193E-07    2    -1000037        16   # BR(~tau_2 -> ~chi_2-  nu_tau)
     1.46711125E-02    2     1000016       -37   # BR(~tau_2 -> ~nu_tauL H-)
     1.47903602E-03    2     1000016       -24   # BR(~tau_2 -> ~nu_tauL W-)
     7.99692815E-04    2     1000015        25   # BR(~tau_2 -> ~tau_1   h)
     7.33312246E-03    2     1000015        35   # BR(~tau_2 -> ~tau_1   H)
     7.33432074E-03    2     1000015        36   # BR(~tau_2 -> ~tau_1   A)
     7.61330340E-04    2     1000015        23   # BR(~tau_2 -> ~tau_1   Z)
#
#         PDG            Width
DECAY   1000012     2.02333693E+00   # snu_eL decays
#          BR         NDA      ID1       ID2
     8.19154265E-01    2     1000022        12   # BR(~nu_eL -> ~chi_10 nu_e)
     6.86026941E-03    2     1000023        12   # BR(~nu_eL -> ~chi_20 nu_e)
     1.65106947E-01    2     1000025        12   # BR(~nu_eL -> ~chi_30 nu_e)
     8.87851843E-03    2     1000024        11   # BR(~nu_eL -> ~chi_1+ e-)
#
#         PDG            Width
DECAY   1000014     2.02333693E+00   # snu_muL decays
#          BR         NDA      ID1       ID2
     8.19154265E-01    2     1000022        14   # BR(~nu_muL -> ~chi_10 nu_mu)
     6.86026941E-03    2     1000023        14   # BR(~nu_muL -> ~chi_20 nu_mu)
     1.65106947E-01    2     1000025        14   # BR(~nu_muL -> ~chi_30 nu_mu)
     8.87851835E-03    2     1000024        13   # BR(~nu_muL -> ~chi_1+ mu-)
#
#         PDG            Width
DECAY   1000016     3.11080719E+00   # snu_tauL decays
#          BR         NDA      ID1       ID2
     4.05422285E-01    2     1000022        16   # BR(~nu_tauL -> ~chi_10 nu_tau)
     3.33089771E-03    2     1000023        16   # BR(~nu_tauL -> ~chi_20 nu_tau)
     7.98489725E-02    2     1000025        16   # BR(~nu_tauL -> ~chi_30 nu_tau)
     5.11397845E-01    2     1000024        15   # BR(~nu_tauL -> ~chi_1+ tau-)
#
#         PDG            Width
DECAY   1000024     2.25504286E-04   # chargino1+ decays
#           BR         NDA      ID1       ID2       ID3
     3.33474539E-01    3     1000022         2        -1   # BR(~chi_1+ -> ~chi_10 u    db)
     3.33474539E-01    3     1000022         4        -3   # BR(~chi_1+ -> ~chi_10 c    sb)
     1.11164088E-01    3     1000022       -11        12   # BR(~chi_1+ -> ~chi_10 e+   nu_e)
     1.11164088E-01    3     1000022       -13        14   # BR(~chi_1+ -> ~chi_10 mu+  nu_mu)
     1.10722746E-01    3     1000022       -15        16   # BR(~chi_1+ -> ~chi_10 tau+ nu_tau)
#
#         PDG            Width
DECAY   1000037     1.05997146E+02   # chargino2+ decays
#          BR         NDA      ID1       ID2
     3.24209740E-02    2     1000002        -1   # BR(~chi_2+ -> ~u_L     db)
     3.23330083E-02    2    -1000001         2   # BR(~chi_2+ -> ~d_L*    u )
     3.24209653E-02    2     1000004        -3   # BR(~chi_2+ -> ~c_L     sb)
     3.23328685E-02    2    -1000003         4   # BR(~chi_2+ -> ~s_L*     c )
     1.14280629E-01    2     1000006        -5   # BR(~chi_2+ -> ~t_1     bb)
     1.98277880E-05    2    -1000005         6   # BR(~chi_2+ -> ~b_1*    t )
     1.11090123E-01    2    -2000005         6   # BR(~chi_2+ -> ~b_2*    t )
     5.17932623E-02    2     1000012       -11   # BR(~chi_2+ -> ~nu_eL   e+  )
     5.17932623E-02    2     1000014       -13   # BR(~chi_2+ -> ~nu_muL mu+ )
     7.12237333E-02    2     1000016       -15   # BR(~chi_2+ -> ~nu_tau1 tau+)
     5.17373862E-02    2    -1000011        12   # BR(~chi_2+ -> ~e_L+    nu_e)
     5.17373862E-02    2    -1000013        14   # BR(~chi_2+ -> ~mu_L+   nu_mu)
     7.11788310E-02    2    -1000015        16   # BR(~chi_2+ -> ~tau_1+  nu_tau)
     5.24208496E-02    2     1000024        23   # BR(~chi_2+ -> ~chi_1+  Z )
     7.27180668E-03    2     1000022        24   # BR(~chi_2+ -> ~chi_10  W+)
     5.08959911E-02    2     1000023        24   # BR(~chi_2+ -> ~chi_20  W+)
     4.33675775E-02    2     1000025        24   # BR(~chi_2+ -> ~chi_30  W+)
     5.36460932E-02    2     1000024        25   # BR(~chi_2+ -> ~chi_1+  h )
     2.20284729E-02    2     1000024        35   # BR(~chi_2+ -> ~chi_1+  H )
     2.20288131E-02    2     1000024        36   # BR(~chi_2+ -> ~chi_1+  A )
     5.39585373E-03    2     1000022        37   # BR(~chi_2+ -> ~chi_10  H+)
     2.17628083E-02    2     1000023        37   # BR(~chi_2+ -> ~chi_20  H+)
     1.68194764E-02    2     1000025        37   # BR(~chi_2+ -> ~chi_30  H+)
#
#         PDG            Width
DECAY   1000022     0.00000000E+00   # neutralino1 decays
#
#         PDG            Width
DECAY   1000023     1.99188213E-04   # neutralino2 decays
#          BR         NDA      ID1       ID2
     5.22173508E-04    2     1000022        22   # BR(~chi_20 -> ~chi_10 gam)
#           BR         NDA      ID1       ID2       ID3
     1.17442515E-01    3     1000022        -2         2   # BR(~chi_20 -> ~chi_10 ub      u)
     1.52440188E-01    3     1000022        -1         1   # BR(~chi_20 -> ~chi_10 db      d)
     1.17442515E-01    3     1000022        -4         4   # BR(~chi_20 -> ~chi_10 cb      c)
     1.52440188E-01    3     1000022        -3         3   # BR(~chi_20 -> ~chi_10 sb      s)
     1.45128586E-01    3     1000022        -5         5   # BR(~chi_20 -> ~chi_10 bb      b)
     3.47074308E-02    3     1000022       -11        11   # BR(~chi_20 -> ~chi_10 e+      e-)
     3.47074308E-02    3     1000022       -13        13   # BR(~chi_20 -> ~chi_10 mu+     mu-)
     3.48463709E-02    3     1000022       -15        15   # BR(~chi_20 -> ~chi_10 tau+    tau-)
     7.01036973E-02    3     1000022       -12        12   # BR(~chi_20 -> ~chi_10 nu_eb   nu_e)
     7.01036973E-02    3     1000022       -14        14   # BR(~chi_20 -> ~chi_10 nu_mub  nu_mu)
     7.01144159E-02    3     1000022       -16        16   # BR(~chi_20 -> ~chi_10 nu_taub nu_tau)
     1.47685053E-07    3     1000024        -2         1   # BR(~chi_20 -> ~chi_1+ ub      d)
     1.47685053E-07    3    -1000024        -1         2   # BR(~chi_20 -> ~chi_1- db      u)
     1.47685053E-07    3     1000024        -4         3   # BR(~chi_20 -> ~chi_1+ cb      s)
     1.47685053E-07    3    -1000024        -3         4   # BR(~chi_20 -> ~chi_1- sb      c)
     4.92285852E-08    3     1000024       -12        11   # BR(~chi_20 -> ~chi_1+ nu_eb   e-)
     4.92285852E-08    3    -1000024        12       -11   # BR(~chi_20 -> ~chi_1- nu_e    e+)
     4.92285852E-08    3     1000024       -14        13   # BR(~chi_20 -> ~chi_1+ nu_mub  mu-)
     4.92285852E-08    3    -1000024        14       -13   # BR(~chi_20 -> ~chi_1- nu_mu   mu+)
     1.84210728E-09    3     1000024       -16        15   # BR(~chi_20 -> ~chi_1+ nu_taub tau-)
     1.84210728E-09    3    -1000024        16       -15   # BR(~chi_20 -> ~chi_1- nu_tau  tau+)
#
#         PDG            Width
DECAY   1000025     1.55127534E-05   # neutralino3 decays
#          BR         NDA      ID1       ID2
     1.58286841E-02    2     1000022        22   # BR(~chi_30 -> ~chi_10 gam)
     1.73834373E-02    2     1000023        22   # BR(~chi_30 -> ~chi_20 gam)
#           BR         NDA      ID1       ID2       ID3
     1.10059581E-01    3     1000022        -2         2   # BR(~chi_30 -> ~chi_10 ub      u)
     1.39669427E-01    3     1000022        -1         1   # BR(~chi_30 -> ~chi_10 db      d)
     1.10059581E-01    3     1000022        -4         4   # BR(~chi_30 -> ~chi_10 cb      c)
     1.39669427E-01    3     1000022        -3         3   # BR(~chi_30 -> ~chi_10 sb      s)
     1.42185837E-01    3     1000022        -5         5   # BR(~chi_30 -> ~chi_10 bb      b)
     1.77169375E-02    3     1000022       -11        11   # BR(~chi_30 -> ~chi_10 e+      e-)
     1.77169375E-02    3     1000022       -13        13   # BR(~chi_30 -> ~chi_10 mu+     mu-)
     3.17746925E-02    3     1000022       -15        15   # BR(~chi_30 -> ~chi_10 tau+    tau-)
     6.54932484E-02    3     1000022       -12        12   # BR(~chi_30 -> ~chi_10 nu_eb   nu_e)
     6.54932484E-02    3     1000022       -14        14   # BR(~chi_30 -> ~chi_10 nu_mub  nu_mu)
     6.59457959E-02    3     1000022       -16        16   # BR(~chi_30 -> ~chi_10 nu_taub nu_tau)
     1.02120875E-03    3     1000023        -2         2   # BR(~chi_30 -> ~chi_20 ub      u)
     1.32604245E-03    3     1000023        -1         1   # BR(~chi_30 -> ~chi_20 db      d)
     1.02120875E-03    3     1000023        -4         4   # BR(~chi_30 -> ~chi_20 cb      c)
     1.32604245E-03    3     1000023        -3         3   # BR(~chi_30 -> ~chi_20 sb      s)
     8.82766191E-05    3     1000023        -5         5   # BR(~chi_30 -> ~chi_20 bb      b)
     3.05880084E-04    3     1000023       -11        11   # BR(~chi_30 -> ~chi_20 e+      e-)
     3.05880084E-04    3     1000023       -13        13   # BR(~chi_30 -> ~chi_20 mu+     mu-)
     2.62505267E-04    3     1000023       -15        15   # BR(~chi_30 -> ~chi_20 tau+    tau-)
     6.09520042E-04    3     1000023       -12        12   # BR(~chi_30 -> ~chi_20 nu_eb   nu_e)
     6.09520042E-04    3     1000023       -14        14   # BR(~chi_30 -> ~chi_20 nu_mub  nu_mu)
     6.09494097E-04    3     1000023       -16        16   # BR(~chi_30 -> ~chi_20 nu_taub nu_tau)
     9.00023065E-03    3     1000024        -2         1   # BR(~chi_30 -> ~chi_1+ ub      d)
     9.00023065E-03    3    -1000024        -1         2   # BR(~chi_30 -> ~chi_1- db      u)
     9.00023065E-03    3     1000024        -4         3   # BR(~chi_30 -> ~chi_1+ cb      s)
     9.00023065E-03    3    -1000024        -3         4   # BR(~chi_30 -> ~chi_1- sb      c)
     2.99998161E-03    3     1000024       -12        11   # BR(~chi_30 -> ~chi_1+ nu_eb   e-)
     2.99998161E-03    3    -1000024        12       -11   # BR(~chi_30 -> ~chi_1- nu_e    e+)
     2.99998161E-03    3     1000024       -14        13   # BR(~chi_30 -> ~chi_1+ nu_mub  mu-)
     2.99998161E-03    3    -1000024        14       -13   # BR(~chi_30 -> ~chi_1- nu_mu   mu+)
     2.75836881E-03    3     1000024       -16        15   # BR(~chi_30 -> ~chi_1+ nu_taub tau-)
     2.75836881E-03    3    -1000024        16       -15   # BR(~chi_30 -> ~chi_1- nu_tau  tau+)
#
#         PDG            Width
DECAY   1000035     1.05998910E+02   # neutralino4 decays
#          BR         NDA      ID1       ID2
     3.48584955E-03    2     1000022        23   # BR(~chi_40 -> ~chi_10   Z )
     3.00210107E-02    2     1000023        23   # BR(~chi_40 -> ~chi_20   Z )
     1.88146707E-02    2     1000025        23   # BR(~chi_40 -> ~chi_30   Z )
     5.09478144E-02    2     1000024       -24   # BR(~chi_40 -> ~chi_1+   W-)
     5.09478144E-02    2    -1000024        24   # BR(~chi_40 -> ~chi_1-   W+)
     4.18893810E-03    2     1000022        25   # BR(~chi_40 -> ~chi_10   h )
     3.61874995E-03    2     1000022        35   # BR(~chi_40 -> ~chi_10   H )
     1.79228843E-03    2     1000022        36   # BR(~chi_40 -> ~chi_10   A )
     2.27767620E-02    2     1000023        25   # BR(~chi_40 -> ~chi_20   h )
     6.37949271E-03    2     1000023        35   # BR(~chi_40 -> ~chi_20   H )
     1.54438696E-02    2     1000023        36   # BR(~chi_40 -> ~chi_20   A )
     2.66207940E-02    2     1000025        25   # BR(~chi_40 -> ~chi_30   h )
     1.20544340E-02    2     1000025        35   # BR(~chi_40 -> ~chi_30   H )
     4.81358200E-03    2     1000025        36   # BR(~chi_40 -> ~chi_30   A )
     2.19571882E-02    2     1000024       -37   # BR(~chi_40 -> ~chi_1+   H-)
     2.19571882E-02    2    -1000024        37   # BR(~chi_40 -> ~chi_1-   H+)
     1.62104282E-02    2     1000002        -2   # BR(~chi_40 -> ~u_L      ub)
     1.62104282E-02    2    -1000002         2   # BR(~chi_40 -> ~u_L*     u )
     1.09336670E-08    2     2000002        -2   # BR(~chi_40 -> ~u_R      ub)
     1.09336670E-08    2    -2000002         2   # BR(~chi_40 -> ~u_R*     u )
     1.61482775E-02    2     1000001        -1   # BR(~chi_40 -> ~d_L      db)
     1.61482775E-02    2    -1000001         1   # BR(~chi_40 -> ~d_L*     d )
     4.90544719E-09    2     2000001        -1   # BR(~chi_40 -> ~d_R      db)
     4.90544719E-09    2    -2000001         1   # BR(~chi_40 -> ~d_R*     d )
     1.62103585E-02    2     1000004        -4   # BR(~chi_40 -> ~c_L      cb)
     1.62103585E-02    2    -1000004         4   # BR(~chi_40 -> ~c_L*     c )
     1.09336628E-08    2     2000004        -4   # BR(~chi_40 -> ~c_R      cb)
     1.09336628E-08    2    -2000004         4   # BR(~chi_40 -> ~c_R*     c )
     1.61482775E-02    2     1000003        -3   # BR(~chi_40 -> ~s _L      sb)
     1.61482775E-02    2    -1000003         3   # BR(~chi_40 -> ~s _L*     s )
     4.90544719E-09    2     2000003        -3   # BR(~chi_40 -> ~s _R      sb)
     4.90544719E-09    2    -2000003         3   # BR(~chi_40 -> ~s _R*     s )
     5.56305602E-02    2     1000006        -6   # BR(~chi_40 -> ~t_1      tb)
     5.56305602E-02    2    -1000006         6   # BR(~chi_40 -> ~t_1*     t )
     1.00637702E-05    2     1000005        -5   # BR(~chi_40 -> ~b_1      bb)
     1.00637702E-05    2    -1000005         5   # BR(~chi_40 -> ~b_1*     b )
     5.70272200E-02    2     2000005        -5   # BR(~chi_40 -> ~b_2      bb)
     5.70272200E-02    2    -2000005         5   # BR(~chi_40 -> ~b_2*     b )
     2.58303596E-02    2     1000011       -11   # BR(~chi_40 -> ~e_L-     e+)
     2.58303596E-02    2    -1000011        11   # BR(~chi_40 -> ~e_L+     e-)
     1.60580739E-08    2     2000011       -11   # BR(~chi_40 -> ~e_R-     e+)
     1.60580739E-08    2    -2000011        11   # BR(~chi_40 -> ~e_R+     e-)
     2.58303596E-02    2     1000013       -13   # BR(~chi_40 -> ~mu_L-    mu+)
     2.58303596E-02    2    -1000013        13   # BR(~chi_40 -> ~mu_L+    mu-)
     1.60580739E-08    2     2000013       -13   # BR(~chi_40 -> ~mu_R-    mu+)
     1.60580739E-08    2    -2000013        13   # BR(~chi_40 -> ~mu_R+    mu-)
     3.55386119E-02    2     1000015       -15   # BR(~chi_40 -> ~tau_1-   tau+)
     3.55386119E-02    2    -1000015        15   # BR(~chi_40 -> ~tau_1+   tau-)
     2.59258065E-02    2     1000012       -12   # BR(~chi_40 -> ~nu_eL    nu_eb)
     2.59258065E-02    2    -1000012        12   # BR(~chi_40 -> ~nu_eL*   nu_e )
     2.59258065E-02    2     1000014       -14   # BR(~chi_40 -> ~nu_muL   nu_mub)
     2.59258065E-02    2    -1000014        14   # BR(~chi_40 -> ~nu_muL*  nu_mu )
     3.56535831E-02    2     1000016       -16   # BR(~chi_40 -> ~nu_tau1  nu_taub)
     3.56535831E-02    2    -1000016        16   # BR(~chi_40 -> ~nu_tau1* nu_tau )
#
#         PDG            Width
DECAY        25     3.89335645E-03   # h decays
#          BR         NDA      ID1       ID2
     5.84419571E-01    2           5        -5   # BR(h -> b       bb     )
     6.73872840E-02    2         -15        15   # BR(h -> tau+    tau-   )
     2.38526499E-04    2         -13        13   # BR(h -> mu+     mu-    )
     2.60530905E-04    2           3        -3   # BR(h -> s       sb     )
     2.22600181E-02    2           4        -4   # BR(h -> c       cb     )
     8.19707153E-02    2          21        21   # BR(h -> g       g      )
     2.40336650E-03    2          22        22   # BR(h -> gam     gam    )
     1.58916299E-03    2          22        23   # BR(h -> Z       gam    )
     2.12897145E-01    2          24       -24   # BR(h -> W+      W-     )
     2.65736796E-02    2          23        23   # BR(h -> Z       Z      )
#
#         PDG            Width
DECAY        35     2.12821077E+01   # H decays
#          BR         NDA      ID1       ID2
     7.81326562E-01    2           5        -5   # BR(H -> b       bb     )
     1.24967136E-01    2         -15        15   # BR(H -> tau+    tau-   )
     4.41760898E-04    2         -13        13   # BR(H -> mu+     mu-    )
     3.22677857E-04    2           3        -3   # BR(H -> s       sb     )
     5.12843066E-08    2           4        -4   # BR(H -> c       cb     )
     4.92003562E-03    2           6        -6   # BR(H -> t       tb     )
     2.33979802E-05    2          21        21   # BR(H -> g       g      )
     8.41441828E-10    2          22        22   # BR(H -> gam     gam    )
     1.16625078E-08    2          23        22   # BR(H -> Z       gam    )
     5.85303740E-06    2          24       -24   # BR(H -> W+      W-     )
     2.91258220E-06    2          23        23   # BR(H -> Z       Z      )
     2.35073578E-05    2          25        25   # BR(H -> h       h      )
     8.35052922E-04    2     1000024  -1000024   # BR(H -> ~chi_1+ ~chi_1-)
     1.85160939E-02    2     1000022   1000022   # BR(H -> ~chi_10 ~chi_10)
     5.39519591E-04    2     1000023   1000023   # BR(H -> ~chi_20 ~chi_20)
     1.08573218E-02    2     1000025   1000025   # BR(H -> ~chi_30 ~chi_30)
     3.16074156E-02    2     1000022   1000023   # BR(H -> ~chi_10 ~chi_20)
     1.53760713E-02    2     1000022   1000025   # BR(H -> ~chi_10 ~chi_30)
     1.02331709E-02    2     1000023   1000025   # BR(H -> ~chi_20 ~chi_30)
     1.56443206E-07    2     2000001  -2000001   # BR(H -> ~d_R    ~d_R*  )
     1.56443206E-07    2     2000003  -2000003   # BR(H -> ~s_R    ~s_R*  )
     5.66924559E-07    2     2000011  -2000011   # BR(H -> ~e_R-   ~e_R+  )
     5.66924559E-07    2     2000013  -2000013   # BR(H -> ~mu_R-  ~mu_R+ )
#
#         PDG            Width
DECAY        36     2.12881922E+01   # A decays
#          BR         NDA      ID1       ID2
     7.81146280E-01    2           5        -5   # BR(A -> b       bb     )
     1.24933376E-01    2         -15        15   # BR(A -> tau+    tau-   )
     4.41639719E-04    2         -13        13   # BR(A -> mu+     mu-    )
     3.22621442E-04    2           3        -3   # BR(A -> s       sb     )
     5.09937123E-08    2           4        -4   # BR(A -> c       cb     )
     4.98632915E-03    2           6        -6   # BR(A -> t       tb     )
     6.76200839E-05    2          21        21   # BR(A -> g       g      )
     2.57649082E-08    2          22        22   # BR(A -> gam     gam    )
     4.16900920E-08    2          23        22   # BR(A -> Z       gam    )
     5.88653956E-06    2          23        25   # BR(A -> Z       h      )
     9.58747882E-04    2     1000024  -1000024   # BR(A -> ~chi_1+ ~chi_1-)
     1.80701595E-02    2     1000022   1000022   # BR(A -> ~chi_10 ~chi_10)
     7.30242979E-04    2     1000023   1000023   # BR(A -> ~chi_20 ~chi_20)
     1.09198218E-02    2     1000025   1000025   # BR(A -> ~chi_30 ~chi_30)
     3.30198939E-02    2     1000022   1000023   # BR(A -> ~chi_10 ~chi_20)
     1.47041931E-02    2     1000022   1000025   # BR(A -> ~chi_10 ~chi_30)
     9.69306925E-03    2     1000023   1000025   # BR(A -> ~chi_20 ~chi_30)
#
#         PDG            Width
DECAY        37     2.20238066E+01   # H+ decays
#          BR         NDA      ID1       ID2
     1.33131566E-03    2           4        -5   # BR(H+ -> c       bb     )
     1.20920753E-01    2         -15        16   # BR(H+ -> tau+    nu_tau )
     4.27455087E-04    2         -13        14   # BR(H+ -> mu+     nu_mu  )
     1.33131116E-05    2           2        -5   # BR(H+ -> u       bb     )
     1.55857730E-05    2           2        -3   # BR(H+ -> u       sb     )
     3.06822432E-04    2           4        -3   # BR(H+ -> c       sb     )
     7.92492869E-01    2           6        -5   # BR(H+ -> t       bb     )
     5.72364009E-06    2          24        25   # BR(H+ -> W+      h      )
     3.90009073E-12    2          24        36   # BR(H+ -> W+      A      )
     6.56689751E-02    2     1000024   1000022   # BR(H+ -> ~chi_1+ ~chi_10)
     1.76685285E-05    2     1000024   1000023   # BR(H+ -> ~chi_1+ ~chi_20)
     1.87995184E-02    2     1000024   1000025   # BR(H+ -> ~chi_1+ ~chi_30)
