#
#                              ======================
#                              | THE SUSYHIT OUTPUT |
#                              ======================
#
#
#              ------------------------------------------------------
#              |     This is the output of the SUSY-HIT package     |
#              |  created by A.Djouadi, M.Muehlleitner and M.Spira. |
#              |  In case of problems with SUSY-HIT email to        |
#              |           margarete.muehlleitner@cern.ch           |
#              |           michael.spira@psi.ch                     |
#              |           abdelhak.djouadi@cern.ch                 |
#              ------------------------------------------------------
#
#              ------------------------------------------------------
#              |  SUSY Les Houches Accord - MSSM Spectrum + Decays  |
#              |              based on the decay programs           |
#              |                                                    |
#              |                     SDECAY 1.3b                    |
#              |                                                    |
#              |  Authors: M.Muhlleitner, A.Djouadi and Y.Mambrini  |
#              |  Ref.:    Comput.Phys.Commun.168(2005)46           |
#              |           [hep-ph/0311167]                         |
#              |                                                    |
#              |                     HDECAY 3.4                     |
#              |                                                    |
#              |  By: A.Djouadi,J.Kalinowski,M.Muhlleitner,M.Spira  |
#              |  Ref.:    Comput.Phys.Commun.108(1998)56           |
#              |           [hep-ph/9704448]                         |
#              |                                                    |
#              |                                                    |
#              |  If not stated otherwise all DRbar couplings and   |
#              |  soft SUSY breaking masses are given at the scale  |
#              |  Q=  0.30649380E+04
#              |                                                    |
#              ------------------------------------------------------
#
#
BLOCK DCINFO  # Decay Program information
     1   SDECAY/HDECAY # decay calculator
     2   1.3b  /3.4    # version number
#
BLOCK SPINFO  # Spectrum calculator information
     1     SOFTSUSY    # spectrum calculator               
     2     3.4.0       # version number                    
#
BLOCK MODSEL  # Model selection
     1     0   #  nonUniversal                                     
#
BLOCK SMINPUTS  # Standard Model inputs
         1     1.27908970E+02   # alpha_em^-1(M_Z)^MSbar
         2     1.16637870E-05   # G_F [GeV^-2]
         3     1.18400000E-01   # alpha_S(M_Z)^MSbar
         4     9.11876000E+01   # M_Z pole mass
         5     4.18000000E+00   # mb(mb)^MSbar
         6     1.73200000E+02   # mt pole mass
         7     1.77700000E+00   # mtau pole mass
#
BLOCK MINPAR  # Input parameters - minimal models
         3     2.03200000E+01   # tanb                
#
BLOCK EXTPAR  # Input parameters - non-minimal models
         0    -1.00000000E+00   # Set                 
         1    -1.72340000E+02   # M_1(MX)             
         2     2.48112000E+03   # M_2(MX)             
         3     2.33299000E+03   # M_3(MX)             
        11    -2.97254000E+03   # At(MX)              
        12     6.37710000E+02   # Ab(MX)              
        13    -1.73710000E+03   # Atau(MX)            
        23     1.79230000E+02   # mu(MX)              
        26     3.66344000E+03   # mA(pole)            
        31     4.44760000E+02   # meL(MX)             
        32     4.44760000E+02   # mmuL(MX)            
        33     3.99520000E+03   # mtauL(MX)           
        34     3.15390000E+02   # meR(MX)             
        35     3.15390000E+02   # mmuR(MX)            
        36     5.55520000E+02   # mtauR(MX)           
        41     1.82754000E+03   # mqL1(MX)            
        42     1.82754000E+03   # mqL2(MX)            
        43     2.45052000E+03   # mqL3(MX)            
        44     6.07850000E+02   # muR(MX)             
        45     6.07850000E+02   # mcR(MX)             
        46     3.82940000E+03   # mtR(MX)             
        47     2.99518000E+03   # mdR(MX)             
        48     2.99518000E+03   # msR(MX)             
        49     3.32800000E+02   # mbR(MX)             
#
BLOCK MASS  # Mass Spectrum
# PDG code           mass       particle
        24     8.03864561E+01   # W+
        25     1.24267822E+02   # h
        35     3.66345422E+03   # H
        36     3.66343999E+03   # A
        37     3.66457258E+03   # H+
         5     4.81876030E+00   # b-quark pole mass calculated from mb(mb)_Msbar
   1000001     1.97460630E+03   # ~d_L
   2000001     3.07073900E+03   # ~d_R
   1000002     1.97312269E+03   # ~u_L
   2000002     8.35495198E+02   # ~u_R
   1000003     1.97460630E+03   # ~s_L
   2000003     3.07073900E+03   # ~s_R
   1000004     1.97312269E+03   # ~c_L
   2000004     8.35495198E+02   # ~c_R
   1000005     6.34085006E+02   # ~b_1
   2000005     2.54262079E+03   # ~b_2
   1000006     2.54152289E+03   # ~t_1
   2000006     3.83784548E+03   # ~t_2
   1000011     5.22856048E+02   # ~e_L
   2000011     3.14574440E+02   # ~e_R
   1000012     5.16627360E+02   # ~nu_eL
   1000013     5.22856048E+02   # ~mu_L
   2000013     3.14574440E+02   # ~mu_R
   1000014     5.16627360E+02   # ~nu_muL
   1000015     5.47828663E+02   # ~tau_1
   2000015     4.00777886E+03   # ~tau_2
   1000016     4.00666289E+03   # ~nu_tauL
   1000021     2.46220015E+03   # ~g
   1000022    -1.48983600E+02   # ~chi_10
   1000023     1.88973005E+02   # ~chi_20
   1000025    -2.09924698E+02   # ~chi_30
   1000035     2.47262450E+03   # ~chi_40
   1000024     1.87429232E+02   # ~chi_1+
   1000037     2.47279199E+03   # ~chi_2+
#
BLOCK NMIX  # Neutralino Mixing Matrix
  1  1     8.02937943E-01   # N_11
  1  2     1.02863427E-02   # N_12
  1  3     4.71053438E-01   # N_13
  1  4     3.65093836E-01   # N_14
  2  1     9.01712810E-02   # N_21
  2  2     2.55191054E-02   # N_22
  2  3    -7.01682783E-01   # N_23
  2  4     7.06299644E-01   # N_24
  3  1    -5.89202423E-01   # N_31
  3  2     1.69874698E-02   # N_32
  3  3     5.34540990E-01   # N_33
  3  4     6.05654902E-01   # N_34
  4  1    -5.51615365E-04   # N_41
  4  2     9.99477059E-01   # N_42
  4  3     3.98248350E-03   # N_43
  4  4    -3.20849383E-02   # N_44
#
BLOCK UMIX  # Chargino Mixing Matrix U
  1  1    -5.62998272E-03   # U_11
  1  2     9.99984152E-01   # U_12
  2  1    -9.99984152E-01   # U_21
  2  2    -5.62998272E-03   # U_22
#
BLOCK VMIX  # Chargino Mixing Matrix V
  1  1    -4.53729500E-02   # V_11
  1  2     9.98970117E-01   # V_12
  2  1    -9.98970117E-01   # V_21
  2  2    -4.53729500E-02   # V_22
#
BLOCK STOPMIX  # Stop Mixing Matrix
  1  1     9.98567839E-01   # cos(theta_t)
  1  2     5.35001955E-02   # sin(theta_t)
  2  1    -5.35001955E-02   # -sin(theta_t)
  2  2     9.98567839E-01   # cos(theta_t)
#
BLOCK SBOTMIX  # Sbottom Mixing Matrix
  1  1     1.13285125E-03   # cos(theta_b)
  1  2     9.99999358E-01   # sin(theta_b)
  2  1    -9.99999358E-01   # -sin(theta_b)
  2  2     1.13285125E-03   # cos(theta_b)
#
BLOCK STAUMIX  # Stau Mixing Matrix
  1  1     5.95499073E-04   # cos(theta_tau)
  1  2     9.99999823E-01   # sin(theta_tau)
  2  1    -9.99999823E-01   # -sin(theta_tau)
  2  2     5.95499073E-04   # cos(theta_tau)
#
BLOCK ALPHA  # Higgs mixing
          -5.14056884E-02   # Mixing angle in the neutral Higgs boson sector
#
BLOCK HMIX Q=  3.06493800E+03  # DRbar Higgs Parameters
         1     1.82027249E+02   # mu(Q)MSSM           
         2     1.94691343E+01   # tan                 
         3     2.42557916E+02   # higgs               
         4     1.34928200E+07   # mA^2(Q)MSSM         
#
BLOCK GAUGE Q=  3.06493800E+03  # The gauge couplings
     1     3.66133613E-01   # gprime(Q) DRbar
     2     6.39377834E-01   # g(Q) DRbar
     3     1.01731394E+00   # g3(Q) DRbar
#
BLOCK AU Q=  3.06493800E+03  # The trilinear couplings
  1  1     0.00000000E+00   # A_u(Q) DRbar
  2  2     0.00000000E+00   # A_c(Q) DRbar
  3  3    -2.97253999E+03   # A_t(Q) DRbar
#
BLOCK AD Q=  3.06493800E+03  # The trilinear couplings
  1  1     0.00000000E+00   # A_d(Q) DRbar
  2  2     0.00000000E+00   # A_s(Q) DRbar
  3  3     6.37710005E+02   # A_b(Q) DRbar
#
BLOCK AE Q=  3.06493800E+03  # The trilinear couplings
  1  1     0.00000000E+00   # A_e(Q) DRbar
  2  2     0.00000000E+00   # A_mu(Q) DRbar
  3  3    -1.73710000E+03   # A_tau(Q) DRbar
#
BLOCK Yu Q=  3.06493800E+03  # The Yukawa couplings
  1  1     0.00000000E+00   # y_u(Q) DRbar
  2  2     0.00000000E+00   # y_c(Q) DRbar
  3  3     8.17752334E-01   # y_t(Q) DRbar
#
BLOCK Yd Q=  3.06493800E+03  # The Yukawa couplings
  1  1     0.00000000E+00   # y_d(Q) DRbar
  2  2     0.00000000E+00   # y_s(Q) DRbar
  3  3     2.58840928E-01   # y_b(Q) DRbar
#
BLOCK Ye Q=  3.06493800E+03  # The Yukawa couplings
  1  1     0.00000000E+00   # y_e(Q) DRbar
  2  2     0.00000000E+00   # y_mu(Q) DRbar
  3  3     1.99280118E-01   # y_tau(Q) DRbar
#
BLOCK MSOFT Q=  3.06493800E+03  # The soft SUSY breaking masses at the scale Q
         1    -1.72340000E+02   # M_1(Q)              
         2     2.48112000E+03   # M_2(Q)              
         3     2.33299000E+03   # M_3(Q)              
        21     1.33053797E+07   # mH1^2(Q)            
        22     1.46353062E+05   # mH2^2(Q)            
        31     4.44760000E+02   # meL(Q)              
        32     4.44760000E+02   # mmuL(Q)             
        33     3.99520000E+03   # mtauL(Q)            
        34     3.15390000E+02   # meR(Q)              
        35     3.15390000E+02   # mmuR(Q)             
        36     5.55520001E+02   # mtauR(Q)            
        41     1.82753999E+03   # mqL1(Q)             
        42     1.82753999E+03   # mqL2(Q)             
        43     2.45051998E+03   # mqL3(Q)             
        44     6.07849970E+02   # muR(Q)              
        45     6.07849970E+02   # mcR(Q)              
        46     3.82939998E+03   # mtR(Q)              
        47     2.99517999E+03   # mdR(Q)              
        48     2.99517999E+03   # msR(Q)              
        49     3.32799943E+02   # mbR(Q)              
#
Block HiggsBoundsInputHiggsCouplingsFermions
# ScalarNormEffCoupSq PseudoSNormEffCoupSq NP   IP1 IP2 IP2
    1.00340741E+00    0.00000000E+00        3  25   5   5  # h0-b-b eff. coupling^2, normalised to SM
    3.79043783E+02    0.00000000E+00        3  35   5   5  # H0-b-b eff. coupling^2, normalised to SM
    0.00000000E+00    3.79047190E+02        3  36   5   5  # A0-b-b eff. coupling^2, normalised to SM
#
    9.99991011E-01    0.00000000E+00        3  25   6   6  # h0-t-t eff. coupling^2, normalised to SM
    2.64718335E-03    0.00000000E+00        3  35   6   6  # H0-t-t eff. coupling^2, normalised to SM
    0.00000000E+00    2.63819394E-03        3  36   6   6  # A0-t-t eff. coupling^2, normalised to SM
#
    1.00340741E+00    0.00000000E+00        3  25  15  15  # h0-tau-tau eff. coupling^2, normalised to SM
    3.79043783E+02    0.00000000E+00        3  35  15  15  # H0-tau-tau eff. coupling^2, normalised to SM
    0.00000000E+00    3.79047190E+02        3  36  15  15  # A0-tau-tau eff. coupling^2, normalised to SM
#
Block HiggsBoundsInputHiggsCouplingsBosons
    9.99999992E-01        3  25  24  24  # h0-W-W eff. coupling^2, normalised to SM
    7.64466427E-09        3  35  24  24  # H0-W-W eff. coupling^2, normalised to SM
    0.00000000E+00        3  36  24  24  # A0-W-W eff. coupling^2, normalised to SM
#
    9.99999992E-01        3  25  23  23  # h0-Z-Z eff. coupling^2, normalised to SM
    7.64466427E-09        3  35  23  23  # H0-Z-Z eff. coupling^2, normalised to SM
    0.00000000E+00        3  36  23  23  # A0-Z-Z eff. coupling^2, normalised to SM
#
    8.90300339E-01        3  25  21  21  # h0-g-g eff. coupling^2, normalised to SM
    1.48047818E-15        3  35  21  21  # H0-g-g eff. coupling^2, normalised to SM
    2.10507997E-13        3  36  21  21  # A0-g-g eff. coupling^2, normalised to SM
#
    0.00000000E+00        3  25  25  23  # h0-h0-Z eff. coupling^2, normalised to SM
    0.00000000E+00        3  35  25  23  # H0-h0-Z eff. coupling^2, normalised to SM
    7.64466427E-09        3  36  25  23  # A0-h0-Z eff. coupling^2, normalised to SM
    0.00000000E+00        3  35  35  23  # H0-H0-Z eff. coupling^2, normalised to SM
    9.99999992E-01        3  36  35  23  # A0-H0-Z eff. coupling^2, normalised to SM
    0.00000000E+00        3  36  36  23  # A0-A0-Z eff. coupling^2, normalised to SM
#
    0.00000000E+00        4  25  21  21  23  # h0-g-g-Z eff. coupling^2, normalised to SM
    0.00000000E+00        4  35  21  21  23  # H0-g-g-Z eff. coupling^2, normalised to SM
    0.00000000E+00        4  36  21  21  23  # A0-g-g-Z eff. coupling^2, normalised to SM
#
#
#
#                             =================
#                             |The decay table|
#                             =================
#
# - The QCD corrections to the decays gluino -> squark  + quark
#                                     squark -> gaugino + quark_prime
#                                     squark -> squark_prime + Higgs
#                                     squark -> gluino  + quark
#   are included.
#
# - The multi-body decays for the inos, stops and sbottoms are included.
#
# - The loop induced decays for the gluino, neutralinos and stops
#   are included.
#
# - The SUSY decays of the top quark are included.
#
#
#         PDG            Width
DECAY         6     1.43990128E+00   # top decays
#          BR         NDA      ID1       ID2
     1.00000000E+00    2           5        24   # BR(t ->  b    W+)
#
#         PDG            Width
DECAY   1000021     1.45898581E+02   # gluino decays
#          BR         NDA      ID1       ID2
     2.16852978E-02    2     1000001        -1   # BR(~g -> ~d_L  db)
     2.16852978E-02    2    -1000001         1   # BR(~g -> ~d_L* d )
     2.18028745E-02    2     1000002        -2   # BR(~g -> ~u_L  ub)
     2.18028745E-02    2    -1000002         2   # BR(~g -> ~u_L* u )
     1.33335755E-01    2     2000002        -2   # BR(~g -> ~u_R  ub)
     1.33335755E-01    2    -2000002         2   # BR(~g -> ~u_R* u )
     2.16852978E-02    2     1000003        -3   # BR(~g -> ~s_L  sb)
     2.16852978E-02    2    -1000003         3   # BR(~g -> ~s_L* s )
     2.18027803E-02    2     1000004        -4   # BR(~g -> ~c_L  cb)
     2.18027803E-02    2    -1000004         4   # BR(~g -> ~c_L* c )
     1.33335739E-01    2     2000004        -4   # BR(~g -> ~c_R  cb)
     1.33335739E-01    2    -2000004         4   # BR(~g -> ~c_R* c )
     1.46352256E-01    2     1000005        -5   # BR(~g -> ~b_1  bb)
     1.46352256E-01    2    -1000005         5   # BR(~g -> ~b_1* b )
#
#         PDG            Width
DECAY   1000006     3.71923783E+01   # stop1 decays
#          BR         NDA      ID1       ID2
     1.18686757E-01    2     1000022         6   # BR(~t_1 -> ~chi_10 t )
     4.43053448E-01    2     1000023         6   # BR(~t_1 -> ~chi_20 t )
     3.39485426E-01    2     1000025         6   # BR(~t_1 -> ~chi_30 t )
     9.69212158E-02    2     1000024         5   # BR(~t_1 -> ~chi_1+ b )
     1.56109513E-03    2     1000037         5   # BR(~t_1 -> ~chi_2+ b )
     2.92059037E-04    2     1000005        24   # BR(~t_1 -> ~b_1    W+)
#
#         PDG            Width
DECAY   2000006     2.16972615E+02   # stop2 decays
#          BR         NDA      ID1       ID2
     5.99686665E-02    2     1000022         6   # BR(~t_2 -> ~chi_10 t )
     1.17047180E-01    2     1000023         6   # BR(~t_2 -> ~chi_20 t )
     9.71730531E-02    2     1000025         6   # BR(~t_2 -> ~chi_30 t )
     3.04049936E-04    2     1000035         6   # BR(~t_2 -> ~chi_40 t )
     2.32227786E-01    2     1000024         5   # BR(~t_2 -> ~chi_1+ b )
     6.10576088E-04    2     1000037         5   # BR(~t_2 -> ~chi_2+ b )
     3.28772248E-01    2     1000021         6   # BR(~t_2 -> ~g      t )
     3.91047876E-02    2     1000006        25   # BR(~t_2 -> ~t_1    h )
     4.24024492E-02    2     1000006        23   # BR(~t_2 -> ~t_1    Z )
     5.53456035E-07    2     1000005        24   # BR(~t_2 -> ~b_1    W+)
     8.23886493E-02    2     2000005        24   # BR(~t_2 -> ~b_2    W+)
#
#         PDG            Width
DECAY   1000005     1.60827493E+00   # sbottom1 decays
#          BR         NDA      ID1       ID2
     2.39814371E-01    2     1000022         5   # BR(~b_1 -> ~chi_10 b )
     2.16516069E-01    2     1000023         5   # BR(~b_1 -> ~chi_20 b )
     1.82028755E-01    2     1000025         5   # BR(~b_1 -> ~chi_30 b )
     3.61640805E-01    2    -1000024         6   # BR(~b_1 -> ~chi_1- t )
#
#         PDG            Width
DECAY   2000005     3.73912206E+01   # sbottom2 decays
#          BR         NDA      ID1       ID2
     2.55170559E-02    2     1000022         5   # BR(~b_2 -> ~chi_10 b )
     4.41590872E-02    2     1000023         5   # BR(~b_2 -> ~chi_20 b )
     3.01774398E-02    2     1000025         5   # BR(~b_2 -> ~chi_30 b )
     8.12924780E-04    2     1000035         5   # BR(~b_2 -> ~chi_40 b )
     8.84595306E-01    2    -1000024         6   # BR(~b_2 -> ~chi_1- t )
     1.44424965E-02    2     1000021         5   # BR(~b_2 -> ~g      b )
     1.45299441E-04    2     1000005        25   # BR(~b_2 -> ~b_1    h )
     1.50390907E-04    2     1000005        23   # BR(~b_2 -> ~b_1    Z )
#
#         PDG            Width
DECAY   1000002     3.25824790E-01   # sup_L decays
#          BR         NDA      ID1       ID2
     6.41892875E-01    2     1000022         2   # BR(~u_L -> ~chi_10 u)
     4.35256263E-02    2     1000023         2   # BR(~u_L -> ~chi_20 u)
     2.16404855E-01    2     1000025         2   # BR(~u_L -> ~chi_30 u)
     9.81766434E-02    2     1000024         1   # BR(~u_L -> ~chi_1+ d)
#
#         PDG            Width
DECAY   2000002     1.87645711E+00   # sup_R decays
#          BR         NDA      ID1       ID2
     6.59392079E-01    2     1000022         2   # BR(~u_R -> ~chi_10 u)
     7.98940439E-03    2     1000023         2   # BR(~u_R -> ~chi_20 u)
     3.32618517E-01    2     1000025         2   # BR(~u_R -> ~chi_30 u)
#
#         PDG            Width
DECAY   1000001     2.90693979E-01   # sdown_L decays
#          BR         NDA      ID1       ID2
     5.50242894E-01    2     1000022         1   # BR(~d_L -> ~chi_10 d)
     1.84514314E-03    2     1000023         1   # BR(~d_L -> ~chi_20 d)
     4.46216491E-01    2     1000025         1   # BR(~d_L -> ~chi_30 d)
     1.69547113E-03    2    -1000024         2   # BR(~d_L -> ~chi_1- u)
#
#         PDG            Width
DECAY   2000001     3.20623479E+01   # sdown_R decays
#          BR         NDA      ID1       ID2
     3.46667716E-02    2     1000022         1   # BR(~d_R -> ~chi_10 d)
     4.36087627E-04    2     1000023         1   # BR(~d_R -> ~chi_20 d)
     1.85893137E-02    2     1000025         1   # BR(~d_R -> ~chi_30 d)
     2.09906986E-09    2     1000035         1   # BR(~d_R -> ~chi_40 d)
     9.46307825E-01    2     1000021         1   # BR(~d_R -> ~g      d)
#
#         PDG            Width
DECAY   1000004     3.30508231E-01   # scharm_L decays
#          BR         NDA      ID1       ID2
     6.41989787E-01    2     1000022         4   # BR(~c_L -> ~chi_10 c)
     4.35180020E-02    2     1000023         4   # BR(~c_L -> ~chi_20 c)
     2.16331438E-01    2     1000025         4   # BR(~c_L -> ~chi_30 c)
     9.81607736E-02    2     1000024         3   # BR(~c_L -> ~chi_1+ s)
#
#         PDG            Width
DECAY   2000004     1.81501493E+00   # scharm_R decays
#          BR         NDA      ID1       ID2
     6.59500987E-01    2     1000022         4   # BR(~c_R -> ~chi_10 c)
     7.98809478E-03    2     1000023         4   # BR(~c_R -> ~chi_20 c)
     3.32510919E-01    2     1000025         4   # BR(~c_R -> ~chi_30 c)
#
#         PDG            Width
DECAY   1000003     2.94868991E-01   # sstrange_L decays
#          BR         NDA      ID1       ID2
     5.50363873E-01    2     1000022         3   # BR(~s_L -> ~chi_10 s)
     1.84494710E-03    2     1000023         3   # BR(~s_L -> ~chi_20 s)
     4.46095870E-01    2     1000025         3   # BR(~s_L -> ~chi_30 s)
     1.69531065E-03    2    -1000024         4   # BR(~s_L -> ~chi_1- c)
#
#         PDG            Width
DECAY   2000003     2.33048863E+01   # sstrange_R decays
#          BR         NDA      ID1       ID2
     5.01083054E-02    2     1000022         3   # BR(~s_R -> ~chi_10 s)
     6.30134849E-04    2     1000023         3   # BR(~s_R -> ~chi_20 s)
     2.68567182E-02    2     1000025         3   # BR(~s_R -> ~chi_30 s)
     2.93771201E-09    2     1000035         3   # BR(~s_R -> ~chi_40 s)
     9.22404839E-01    2     1000021         3   # BR(~s_R -> ~g      s)
#
#         PDG            Width
DECAY   1000011     5.59885848E-01   # selectron_L decays
#          BR         NDA      ID1       ID2
     7.08423810E-01    2     1000022        11   # BR(~e_L -> ~chi_10 e-)
     1.70858178E-02    2     1000023        11   # BR(~e_L -> ~chi_20 e-)
     2.74307531E-01    2     1000025        11   # BR(~e_L -> ~chi_30 e-)
     1.82841473E-04    2    -1000024        12   # BR(~e_L -> ~chi_1- nu_e)
#
#         PDG            Width
DECAY   2000011     8.35682930E-01   # selectron_R decays
#          BR         NDA      ID1       ID2
     7.78883191E-01    2     1000022        11   # BR(~e_R -> ~chi_10 e-)
     6.66858958E-03    2     1000023        11   # BR(~e_R -> ~chi_20 e-)
     2.14448220E-01    2     1000025        11   # BR(~e_R -> ~chi_30 e-)
#
#         PDG            Width
DECAY   1000013     5.59885791E-01   # smuon_L decays
#          BR         NDA      ID1       ID2
     7.08423814E-01    2     1000022        13   # BR(~mu_L -> ~chi_10 mu-)
     1.70858177E-02    2     1000023        13   # BR(~mu_L -> ~chi_20 mu-)
     2.74307527E-01    2     1000025        13   # BR(~mu_L -> ~chi_30 mu-)
     1.82841491E-04    2    -1000024        14   # BR(~mu_L -> ~chi_1- nu_mu)
#
#         PDG            Width
DECAY   2000013     8.35682552E-01   # smuon_R decays
#          BR         NDA      ID1       ID2
     7.78883252E-01    2     1000022        13   # BR(~mu_R -> ~chi_10 mu-)
     6.66858892E-03    2     1000023        13   # BR(~mu_R -> ~chi_20 mu-)
     2.14448159E-01    2     1000025        13   # BR(~mu_R -> ~chi_30 mu-)
#
#         PDG            Width
DECAY   1000015     3.04764749E+00   # stau_1 decays
#          BR         NDA      ID1       ID2
     5.57618273E-01    2     1000022        15   # BR(~tau_1 -> ~chi_10  tau-)
     6.04083961E-02    2     1000023        15   # BR(~tau_1 -> ~chi_20  tau-)
     2.71259440E-01    2     1000025        15   # BR(~tau_1 -> ~chi_30  tau-)
     1.10713890E-01    2    -1000024        16   # BR(~tau_1 -> ~chi_1-  nu_tau)
#
#         PDG            Width
DECAY   2000015     2.72622932E+01   # stau_2 decays
#          BR         NDA      ID1       ID2
     1.57365283E-01    2     1000022        15   # BR(~tau_2 -> ~chi_10  tau-)
     6.04782115E-02    2     1000023        15   # BR(~tau_2 -> ~chi_20  tau-)
     9.41048919E-02    2     1000025        15   # BR(~tau_2 -> ~chi_30  tau-)
     2.28941197E-01    2     1000035        15   # BR(~tau_2 -> ~chi_40  tau-)
     3.52843281E-05    2    -1000024        16   # BR(~tau_2 -> ~chi_1-  nu_tau)
     4.58558244E-01    2    -1000037        16   # BR(~tau_2 -> ~chi_2-  nu_tau)
     2.60377328E-04    2     1000015        25   # BR(~tau_2 -> ~tau_1   h)
     2.56512082E-04    2     1000015        23   # BR(~tau_2 -> ~tau_1   Z)
#
#         PDG            Width
DECAY   1000012     5.48334456E-01   # snu_eL decays
#          BR         NDA      ID1       ID2
     6.50741522E-01    2     1000022        12   # BR(~nu_eL -> ~chi_10 nu_e)
     1.96074407E-03    2     1000023        12   # BR(~nu_eL -> ~chi_20 nu_e)
     3.35401994E-01    2     1000025        12   # BR(~nu_eL -> ~chi_30 nu_e)
     1.18957393E-02    2     1000024        11   # BR(~nu_eL -> ~chi_1+ e-)
#
#         PDG            Width
DECAY   1000014     5.48334455E-01   # snu_muL decays
#          BR         NDA      ID1       ID2
     6.50741523E-01    2     1000022        14   # BR(~nu_muL -> ~chi_10 nu_mu)
     1.96074407E-03    2     1000023        14   # BR(~nu_muL -> ~chi_20 nu_mu)
     3.35401995E-01    2     1000025        14   # BR(~nu_muL -> ~chi_30 nu_mu)
     1.18957380E-02    2     1000024        13   # BR(~nu_muL -> ~chi_1+ mu-)
#
#         PDG            Width
DECAY   1000016     2.72682785E+01   # snu_tauL decays
#          BR         NDA      ID1       ID2
     1.20396603E-01    2     1000022        16   # BR(~nu_tauL -> ~chi_10 nu_tau)
     4.05732613E-04    2     1000023        16   # BR(~nu_tauL -> ~chi_20 nu_tau)
     7.46297935E-02    2     1000025        16   # BR(~nu_tauL -> ~chi_30 nu_tau)
     2.28958220E-01    2     1000035        16   # BR(~nu_tauL -> ~chi_40 nu_tau)
     1.18023677E-01    2     1000024        15   # BR(~nu_tauL -> ~chi_1+ tau-)
     4.57089198E-01    2     1000037        15   # BR(~nu_tauL -> ~chi_2+ tau-)
     4.96774844E-04    2    -1000015       -24   # BR(~nu_tauL -> ~tau_1+ W-)
#
#         PDG            Width
DECAY   1000024     3.13731334E-05   # chargino1+ decays
#           BR         NDA      ID1       ID2       ID3
     3.33607660E-01    3     1000022         2        -1   # BR(~chi_1+ -> ~chi_10 u    db)
     3.33607660E-01    3     1000022         4        -3   # BR(~chi_1+ -> ~chi_10 c    sb)
     1.11129001E-01    3     1000022       -11        12   # BR(~chi_1+ -> ~chi_10 e+   nu_e)
     1.11129001E-01    3     1000022       -13        14   # BR(~chi_1+ -> ~chi_10 mu+  nu_mu)
     1.10526678E-01    3     1000022       -15        16   # BR(~chi_1+ -> ~chi_10 tau+ nu_tau)
#
#         PDG            Width
DECAY   1000037     7.22337026E+01   # chargino2+ decays
#          BR         NDA      ID1       ID2
     5.42589111E-02    2     1000002        -1   # BR(~chi_2+ -> ~u_L     db)
     5.40876114E-02    2    -1000001         2   # BR(~chi_2+ -> ~d_L*    u )
     5.42588973E-02    2     1000004        -3   # BR(~chi_2+ -> ~c_L     sb)
     5.40873884E-02    2    -1000003         4   # BR(~chi_2+ -> ~s_L*     c )
     4.88411005E-07    2    -1000005         6   # BR(~chi_2+ -> ~b_1*    t )
     1.27058039E-01    2     1000012       -11   # BR(~chi_2+ -> ~nu_eL   e+  )
     1.27058039E-01    2     1000014       -13   # BR(~chi_2+ -> ~nu_muL mu+ )
     1.27034348E-01    2    -1000011        12   # BR(~chi_2+ -> ~e_L+    nu_e)
     1.27034348E-01    2    -1000013        14   # BR(~chi_2+ -> ~mu_L+   nu_mu)
     1.69163349E-07    2    -1000015        16   # BR(~chi_2+ -> ~tau_1+  nu_tau)
     6.96706649E-02    2     1000024        23   # BR(~chi_2+ -> ~chi_1+  Z )
     1.95385368E-02    2     1000022        24   # BR(~chi_2+ -> ~chi_10  W+)
     6.78735486E-02    2     1000023        24   # BR(~chi_2+ -> ~chi_20  W+)
     4.78727069E-02    2     1000025        24   # BR(~chi_2+ -> ~chi_30  W+)
     7.01663014E-02    2     1000024        25   # BR(~chi_2+ -> ~chi_1+  h )
#
#         PDG            Width
DECAY   1000022     0.00000000E+00   # neutralino1 decays
#
#         PDG            Width
DECAY   1000023     2.90053210E-05   # neutralino2 decays
#          BR         NDA      ID1       ID2
     1.85183603E-03    2     1000022        22   # BR(~chi_20 -> ~chi_10 gam)
#           BR         NDA      ID1       ID2       ID3
     1.18716479E-01    3     1000022        -2         2   # BR(~chi_20 -> ~chi_10 ub      u)
     1.54029245E-01    3     1000022        -1         1   # BR(~chi_20 -> ~chi_10 db      d)
     1.18716479E-01    3     1000022        -4         4   # BR(~chi_20 -> ~chi_10 cb      c)
     1.54029245E-01    3     1000022        -3         3   # BR(~chi_20 -> ~chi_10 sb      s)
     1.36289213E-01    3     1000022        -5         5   # BR(~chi_20 -> ~chi_10 bb      b)
     3.43718114E-02    3     1000022       -11        11   # BR(~chi_20 -> ~chi_10 e+      e-)
     3.43718114E-02    3     1000022       -13        13   # BR(~chi_20 -> ~chi_10 mu+     mu-)
     3.50139600E-02    3     1000022       -15        15   # BR(~chi_20 -> ~chi_10 tau+    tau-)
     7.08928325E-02    3     1000022       -12        12   # BR(~chi_20 -> ~chi_10 nu_eb   nu_e)
     7.08928325E-02    3     1000022       -14        14   # BR(~chi_20 -> ~chi_10 nu_mub  nu_mu)
     7.08238559E-02    3     1000022       -16        16   # BR(~chi_20 -> ~chi_10 nu_taub nu_tau)
     1.19609296E-07    3     1000024        -2         1   # BR(~chi_20 -> ~chi_1+ ub      d)
     1.19609296E-07    3    -1000024        -1         2   # BR(~chi_20 -> ~chi_1- db      u)
     3.98687590E-08    3     1000024       -12        11   # BR(~chi_20 -> ~chi_1+ nu_eb   e-)
     3.98687590E-08    3    -1000024        12       -11   # BR(~chi_20 -> ~chi_1- nu_e    e+)
     3.98687590E-08    3     1000024       -14        13   # BR(~chi_20 -> ~chi_1+ nu_mub  mu-)
     3.98687590E-08    3    -1000024        14       -13   # BR(~chi_20 -> ~chi_1- nu_mu   mu+)
#
#         PDG            Width
DECAY   1000025     1.46138075E-05   # neutralino3 decays
#          BR         NDA      ID1       ID2
     3.41813429E-02    2     1000022        22   # BR(~chi_30 -> ~chi_10 gam)
     5.70688151E-02    2     1000023        22   # BR(~chi_30 -> ~chi_20 gam)
#           BR         NDA      ID1       ID2       ID3
     2.22722621E-02    3     1000022        -2         2   # BR(~chi_30 -> ~chi_10 ub      u)
     2.66206115E-02    3     1000022        -1         1   # BR(~chi_30 -> ~chi_10 db      d)
     2.22722621E-02    3     1000022        -4         4   # BR(~chi_30 -> ~chi_10 cb      c)
     2.66206115E-02    3     1000022        -3         3   # BR(~chi_30 -> ~chi_10 sb      s)
     2.74907916E-02    3     1000022        -5         5   # BR(~chi_30 -> ~chi_10 bb      b)
     1.36853108E-02    3     1000022       -11        11   # BR(~chi_30 -> ~chi_10 e+      e-)
     1.36853108E-02    3     1000022       -13        13   # BR(~chi_30 -> ~chi_10 mu+     mu-)
     4.13731923E-03    3     1000022       -15        15   # BR(~chi_30 -> ~chi_10 tau+    tau-)
     1.49643306E-02    3     1000022       -12        12   # BR(~chi_30 -> ~chi_10 nu_eb   nu_e)
     1.49643306E-02    3     1000022       -14        14   # BR(~chi_30 -> ~chi_10 nu_mub  nu_mu)
     1.23047451E-02    3     1000022       -16        16   # BR(~chi_30 -> ~chi_10 nu_taub nu_tau)
     1.89008520E-02    3     1000023        -2         2   # BR(~chi_30 -> ~chi_20 ub      u)
     2.45531982E-02    3     1000023        -1         1   # BR(~chi_30 -> ~chi_20 db      d)
     1.89008520E-02    3     1000023        -4         4   # BR(~chi_30 -> ~chi_20 cb      c)
     2.45531982E-02    3     1000023        -3         3   # BR(~chi_30 -> ~chi_20 sb      s)
     1.52499591E-02    3     1000023        -5         5   # BR(~chi_30 -> ~chi_20 bb      b)
     5.75700197E-03    3     1000023       -11        11   # BR(~chi_30 -> ~chi_20 e+      e-)
     5.75700197E-03    3     1000023       -13        13   # BR(~chi_30 -> ~chi_20 mu+     mu-)
     5.49148219E-03    3     1000023       -15        15   # BR(~chi_30 -> ~chi_20 tau+    tau-)
     1.12825642E-02    3     1000023       -12        12   # BR(~chi_30 -> ~chi_20 nu_eb   nu_e)
     1.12825642E-02    3     1000023       -14        14   # BR(~chi_30 -> ~chi_20 nu_mub  nu_mu)
     1.12895329E-02    3     1000023       -16        16   # BR(~chi_30 -> ~chi_20 nu_taub nu_tau)
     9.30568524E-02    3     1000024        -2         1   # BR(~chi_30 -> ~chi_1+ ub      d)
     9.30568524E-02    3    -1000024        -1         2   # BR(~chi_30 -> ~chi_1- db      u)
     9.30568524E-02    3     1000024        -4         3   # BR(~chi_30 -> ~chi_1+ cb      s)
     9.30568524E-02    3    -1000024        -3         4   # BR(~chi_30 -> ~chi_1- sb      c)
     3.10410264E-02    3     1000024       -12        11   # BR(~chi_30 -> ~chi_1+ nu_eb   e-)
     3.10410264E-02    3    -1000024        12       -11   # BR(~chi_30 -> ~chi_1- nu_e    e+)
     3.10410264E-02    3     1000024       -14        13   # BR(~chi_30 -> ~chi_1+ nu_mub  mu-)
     3.10410264E-02    3    -1000024        14       -13   # BR(~chi_30 -> ~chi_1- nu_mu   mu+)
     3.01611172E-02    3     1000024       -16        15   # BR(~chi_30 -> ~chi_1+ nu_taub tau-)
     3.01611172E-02    3    -1000024        16       -15   # BR(~chi_30 -> ~chi_1- nu_tau  tau+)
#
#         PDG            Width
DECAY   1000035     7.22110885E+01   # neutralino4 decays
#          BR         NDA      ID1       ID2
     1.24118555E-02    2     1000022        23   # BR(~chi_40 -> ~chi_10   Z )
     2.63793907E-02    2     1000023        23   # BR(~chi_40 -> ~chi_20   Z )
     3.09007245E-02    2     1000025        23   # BR(~chi_40 -> ~chi_30   Z )
     6.76486436E-02    2     1000024       -24   # BR(~chi_40 -> ~chi_1+   W-)
     6.76486436E-02    2    -1000024        24   # BR(~chi_40 -> ~chi_1-   W+)
     7.67138309E-03    2     1000022        25   # BR(~chi_40 -> ~chi_10   h )
     4.39576801E-02    2     1000023        25   # BR(~chi_40 -> ~chi_20   h )
     1.84284898E-02    2     1000025        25   # BR(~chi_40 -> ~chi_30   h )
     2.71456848E-02    2     1000002        -2   # BR(~chi_40 -> ~u_L      ub)
     2.71456848E-02    2    -1000002         2   # BR(~chi_40 -> ~u_L*     u )
     2.80142461E-08    2     2000002        -2   # BR(~chi_40 -> ~u_R      ub)
     2.80142461E-08    2    -2000002         2   # BR(~chi_40 -> ~u_R*     u )
     2.70164608E-02    2     1000001        -1   # BR(~chi_40 -> ~d_L      db)
     2.70164608E-02    2    -1000001         1   # BR(~chi_40 -> ~d_L*     d )
     2.71455735E-02    2     1000004        -4   # BR(~chi_40 -> ~c_L      cb)
     2.71455735E-02    2    -1000004         4   # BR(~chi_40 -> ~c_L*     c )
     2.80142426E-08    2     2000004        -4   # BR(~chi_40 -> ~c_R      cb)
     2.80142426E-08    2    -2000004         4   # BR(~chi_40 -> ~c_R*     c )
     2.70164608E-02    2     1000003        -3   # BR(~chi_40 -> ~s _L      sb)
     2.70164608E-02    2    -1000003         3   # BR(~chi_40 -> ~s _L*     s )
     2.47633400E-07    2     1000005        -5   # BR(~chi_40 -> ~b_1      bb)
     2.47633400E-07    2    -1000005         5   # BR(~chi_40 -> ~b_1*     b )
     6.34274280E-02    2     1000011       -11   # BR(~chi_40 -> ~e_L-     e+)
     6.34274280E-02    2    -1000011        11   # BR(~chi_40 -> ~e_L+     e-)
     2.68944475E-08    2     2000011       -11   # BR(~chi_40 -> ~e_R-     e+)
     2.68944475E-08    2    -2000011        11   # BR(~chi_40 -> ~e_R+     e-)
     6.34274280E-02    2     1000013       -13   # BR(~chi_40 -> ~mu_L-    mu+)
     6.34274280E-02    2    -1000013        13   # BR(~chi_40 -> ~mu_L+    mu-)
     2.68944475E-08    2     2000013       -13   # BR(~chi_40 -> ~mu_R-    mu+)
     2.68944475E-08    2    -2000013        13   # BR(~chi_40 -> ~mu_R+    mu-)
     1.09671635E-07    2     1000015       -15   # BR(~chi_40 -> ~tau_1-   tau+)
     1.09671635E-07    2    -1000015        15   # BR(~chi_40 -> ~tau_1+   tau-)
     6.36485457E-02    2     1000012       -12   # BR(~chi_40 -> ~nu_eL    nu_eb)
     6.36485457E-02    2    -1000012        12   # BR(~chi_40 -> ~nu_eL*   nu_e )
     6.36485457E-02    2     1000014       -14   # BR(~chi_40 -> ~nu_muL   nu_mub)
     6.36485457E-02    2    -1000014        14   # BR(~chi_40 -> ~nu_muL*  nu_mu )
#
#         PDG            Width
DECAY        25     3.98014170E-03   # h decays
#          BR         NDA      ID1       ID2
     6.11358861E-01    2           5        -5   # BR(h -> b       bb     )
     6.48470073E-02    2         -15        15   # BR(h -> tau+    tau-   )
     2.29528222E-04    2         -13        13   # BR(h -> mu+     mu-    )
     2.50845647E-04    2           3        -3   # BR(h -> s       sb     )
     2.16878840E-02    2           4        -4   # BR(h -> c       cb     )
     7.88484531E-02    2          21        21   # BR(h -> g       g      )
     2.29849367E-03    2          22        22   # BR(h -> gam     gam    )
     1.46875546E-03    2          22        23   # BR(h -> Z       gam    )
     1.94974307E-01    2          24       -24   # BR(h -> W+      W-     )
     2.40358651E-02    2          23        23   # BR(h -> Z       Z      )
#
#         PDG            Width
DECAY        35     3.64220865E+01   # H decays
#          BR         NDA      ID1       ID2
     4.06087405E-01    2           5        -5   # BR(H -> b       bb     )
     7.85822735E-02    2         -15        15   # BR(H -> tau+    tau-   )
     2.71015979E-04    2         -13        13   # BR(H -> mu+     mu-    )
     1.66551330E-04    2           3        -3   # BR(H -> s       sb     )
     1.06434994E-07    2           4        -4   # BR(H -> c       cb     )
     1.04973127E-02    2           6        -6   # BR(H -> t       tb     )
     2.09975968E-06    2          21        21   # BR(H -> g       g      )
     2.86770284E-08    2          22        22   # BR(H -> gam     gam    )
     3.07220025E-09    2          23        22   # BR(H -> Z       gam    )
     3.32079477E-06    2          24       -24   # BR(H -> W+      W-     )
     1.65742890E-06    2          23        23   # BR(H -> Z       Z      )
     1.27403862E-05    2          25        25   # BR(H -> h       h      )
     1.70237237E-03    2     1000024  -1000024   # BR(H -> ~chi_1+ ~chi_1-)
     1.25564991E-01    2     1000024  -1000037   # BR(H -> ~chi_1+ ~chi_2-)
     1.25564991E-01    2     1000037  -1000024   # BR(H -> ~chi_2+ ~chi_1-)
     3.56088214E-02    2     1000022   1000022   # BR(H -> ~chi_10 ~chi_10)
     1.92185914E-04    2     1000023   1000023   # BR(H -> ~chi_20 ~chi_20)
     2.95177849E-02    2     1000025   1000025   # BR(H -> ~chi_30 ~chi_30)
     3.04438917E-02    2     1000022   1000023   # BR(H -> ~chi_10 ~chi_20)
     2.33016752E-03    2     1000022   1000025   # BR(H -> ~chi_10 ~chi_30)
     3.28028907E-02    2     1000022   1000035   # BR(H -> ~chi_10 ~chi_40)
     2.31805323E-02    2     1000023   1000025   # BR(H -> ~chi_20 ~chi_30)
     4.77665481E-02    2     1000023   1000035   # BR(H -> ~chi_20 ~chi_40)
     4.52095059E-02    2     1000025   1000035   # BR(H -> ~chi_30 ~chi_40)
     4.21536219E-07    2     2000002  -2000002   # BR(H -> ~u_R    ~u_R*  )
     4.21536219E-07    2     2000004  -2000004   # BR(H -> ~c_R    ~c_R*  )
     1.04124826E-07    2     1000005  -1000005   # BR(H -> ~b_1    ~b_1*  )
     2.24220952E-03    2     1000005  -2000005   # BR(H -> ~b_1    ~b_2*  )
     2.24220952E-03    2     2000005  -1000005   # BR(H -> ~b_2    ~b_1*  )
     5.26456120E-07    2     1000011  -1000011   # BR(H -> ~e_L-   ~e_L+  )
     3.49982509E-07    2     2000011  -2000011   # BR(H -> ~e_R-   ~e_R+  )
     5.26456120E-07    2     1000013  -1000013   # BR(H -> ~mu_L-  ~mu_L+ )
     3.49982509E-07    2     2000013  -2000013   # BR(H -> ~mu_R-  ~mu_R+ )
     2.52942348E-07    2     1000015  -1000015   # BR(H -> ~tau_1- ~tau_1+)
     1.71548889E-06    2     1000012  -1000012   # BR(H -> ~nu_eL  ~nu_eL*   )
     1.71548889E-06    2     1000014  -1000014   # BR(H -> ~nu_muL ~nu_muL*  )
#
#         PDG            Width
DECAY        36     3.64241130E+01   # A decays
#          BR         NDA      ID1       ID2
     4.06099141E-01    2           5        -5   # BR(A -> b       bb     )
     7.85783784E-02    2         -15        15   # BR(A -> tau+    tau-   )
     2.71002322E-04    2         -13        13   # BR(A -> mu+     mu-    )
     1.66573828E-04    2           3        -3   # BR(A -> s       sb     )
     1.07052581E-07    2           4        -4   # BR(A -> c       cb     )
     1.05206175E-02    2           6        -6   # BR(A -> t       tb     )
     2.50364063E-05    2          21        21   # BR(A -> g       g      )
     6.83997819E-08    2          22        22   # BR(A -> gam     gam    )
     2.44697658E-08    2          23        22   # BR(A -> Z       gam    )
     3.36830267E-06    2          23        25   # BR(A -> Z       h      )
     1.76471124E-03    2     1000024  -1000024   # BR(A -> ~chi_1+ ~chi_1-)
     1.25523956E-01    2     1000024  -1000037   # BR(A -> ~chi_1+ ~chi_2-)
     1.25523956E-01    2     1000037  -1000024   # BR(A -> ~chi_2+ ~chi_1-)
     3.05610699E-02    2     1000022   1000022   # BR(A -> ~chi_10 ~chi_10)
     2.38958267E-04    2     1000023   1000023   # BR(A -> ~chi_20 ~chi_20)
     2.36869960E-02    2     1000025   1000025   # BR(A -> ~chi_30 ~chi_30)
     3.76552059E-02    2     1000022   1000023   # BR(A -> ~chi_10 ~chi_20)
     1.56935093E-03    2     1000022   1000025   # BR(A -> ~chi_10 ~chi_30)
     2.26815725E-02    2     1000022   1000035   # BR(A -> ~chi_10 ~chi_40)
     2.75685692E-02    2     1000023   1000025   # BR(A -> ~chi_20 ~chi_30)
     7.61038660E-02    2     1000023   1000035   # BR(A -> ~chi_20 ~chi_40)
     2.69733310E-02    2     1000025   1000035   # BR(A -> ~chi_30 ~chi_40)
     2.24206985E-03    2     1000005  -2000005   # BR(A -> ~b_1    ~b_2*  )
     2.24206985E-03    2    -1000005   2000005   # BR(A -> ~b_1*   ~b_2   )
#
#         PDG            Width
DECAY        37     3.66815890E+01   # H+ decays
#          BR         NDA      ID1       ID2
     6.59477741E-04    2           4        -5   # BR(H+ -> c       bb     )
     7.80509427E-02    2         -15        16   # BR(H+ -> tau+    nu_tau )
     2.69183294E-04    2         -13        14   # BR(H+ -> mu+     nu_mu  )
     6.59477045E-06    2           2        -5   # BR(H+ -> u       bb     )
     8.27778252E-06    2           2        -3   # BR(H+ -> u       sb     )
     1.63033878E-04    2           4        -3   # BR(H+ -> c       sb     )
     4.02248733E-01    2           6        -5   # BR(H+ -> t       bb     )
     3.34916574E-06    2          24        25   # BR(H+ -> W+      h      )
     6.68517314E-14    2          24        36   # BR(H+ -> W+      A      )
     8.27621180E-02    2     1000024   1000022   # BR(H+ -> ~chi_1+ ~chi_10)
     1.94728949E-03    2     1000024   1000023   # BR(H+ -> ~chi_1+ ~chi_20)
     3.62657830E-02    2     1000024   1000025   # BR(H+ -> ~chi_1+ ~chi_30)
     1.24918387E-01    2     1000024   1000035   # BR(H+ -> ~chi_1+ ~chi_40)
     5.51554808E-02    2     1000037   1000022   # BR(H+ -> ~chi_2+ ~chi_10)
     1.23271524E-01    2     1000037   1000023   # BR(H+ -> ~chi_2+ ~chi_20)
     7.17420497E-02    2     1000037   1000025   # BR(H+ -> ~chi_2+ ~chi_30)
     2.05228334E-06    2    -1000011   1000012   # BR(H+ -> ~e_L+   ~nu_eL )
     2.05228334E-06    2    -1000013   1000014   # BR(H+ -> ~mu_L+  ~nu_muL)
     2.25236709E-02    2     1000006  -1000005   # BR(H+ -> ~t_1    ~b_1*  )
