#
#                              ======================
#                              | THE SUSYHIT OUTPUT |
#                              ======================
#
#
#              ------------------------------------------------------
#              |     This is the output of the SUSY-HIT package     |
#              |  created by A.Djouadi, M.Muehlleitner and M.Spira. |
#              |  In case of problems with SUSY-HIT email to        |
#              |           margarete.muehlleitner@cern.ch           |
#              |           michael.spira@psi.ch                     |
#              |           abdelhak.djouadi@cern.ch                 |
#              ------------------------------------------------------
#
#              ------------------------------------------------------
#              |  SUSY Les Houches Accord - MSSM Spectrum + Decays  |
#              |              based on the decay programs           |
#              |                                                    |
#              |                     SDECAY 1.3b                    |
#              |                                                    |
#              |  Authors: M.Muhlleitner, A.Djouadi and Y.Mambrini  |
#              |  Ref.:    Comput.Phys.Commun.168(2005)46           |
#              |           [hep-ph/0311167]                         |
#              |                                                    |
#              |                     HDECAY 3.4                     |
#              |                                                    |
#              |  By: A.Djouadi,J.Kalinowski,M.Muhlleitner,M.Spira  |
#              |  Ref.:    Comput.Phys.Commun.108(1998)56           |
#              |           [hep-ph/9704448]                         |
#              |                                                    |
#              |                                                    |
#              |  If not stated otherwise all DRbar couplings and   |
#              |  soft SUSY breaking masses are given at the scale  |
#              |  Q=  0.27841800E+04
#              |                                                    |
#              ------------------------------------------------------
#
#
BLOCK DCINFO  # Decay Program information
     1   SDECAY/HDECAY # decay calculator
     2   1.3b  /3.4    # version number
#
BLOCK SPINFO  # Spectrum calculator information
     1     SOFTSUSY    # spectrum calculator               
     2     3.4.0       # version number                    
#
BLOCK MODSEL  # Model selection
     1     0   #  nonUniversal                                     
#
BLOCK SMINPUTS  # Standard Model inputs
         1     1.27908970E+02   # alpha_em^-1(M_Z)^MSbar
         2     1.16637870E-05   # G_F [GeV^-2]
         3     1.18400000E-01   # alpha_S(M_Z)^MSbar
         4     9.11876000E+01   # M_Z pole mass
         5     4.18000000E+00   # mb(mb)^MSbar
         6     1.73200000E+02   # mt pole mass
         7     1.77700000E+00   # mtau pole mass
#
BLOCK MINPAR  # Input parameters - minimal models
         3     1.36600000E+01   # tanb                
#
BLOCK EXTPAR  # Input parameters - non-minimal models
         0    -1.00000000E+00   # Set                 
         1    -8.11660000E+02   # M_1(MX)             
         2    -2.48473000E+03   # M_2(MX)             
         3     8.12050000E+02   # M_3(MX)             
        11    -4.15261000E+03   # At(MX)              
        12    -1.11346000E+03   # Ab(MX)              
        13     2.08081000E+03   # Atau(MX)            
        23     2.96731000E+03   # mu(MX)              
        26     2.17503000E+03   # mA(pole)            
        31     2.76786000E+03   # meL(MX)             
        32     2.76786000E+03   # mmuL(MX)            
        33     1.46317000E+03   # mtauL(MX)           
        34     2.85642000E+03   # meR(MX)             
        35     2.85642000E+03   # mmuR(MX)            
        36     2.73213000E+03   # mtauR(MX)           
        41     7.21270000E+02   # mqL1(MX)            
        42     7.21270000E+02   # mqL2(MX)            
        43     2.71866000E+03   # mqL3(MX)            
        44     1.98561000E+03   # muR(MX)             
        45     1.98561000E+03   # mcR(MX)             
        46     2.85373000E+03   # mtR(MX)             
        47     2.12406000E+03   # mdR(MX)             
        48     2.12406000E+03   # msR(MX)             
        49     1.56720000E+03   # mbR(MX)             
#
BLOCK MASS  # Mass Spectrum
# PDG code           mass       particle
        24     8.03918831E+01   # W+
        25     1.26419068E+02   # h
        35     2.17501120E+03   # H
        36     2.17502977E+03   # A
        37     2.17680625E+03   # H+
         5     4.81876030E+00   # b-quark pole mass calculated from mb(mb)_Msbar
   1000001     8.35702131E+02   # ~d_L
   2000001     2.15468750E+03   # ~d_R
   1000002     8.32249762E+02   # ~u_L
   2000002     2.01391238E+03   # ~u_R
   1000003     8.35702131E+02   # ~s_L
   2000003     2.15468750E+03   # ~s_R
   1000004     8.32249762E+02   # ~c_L
   2000004     2.01391238E+03   # ~c_R
   1000005     1.60051122E+03   # ~b_1
   2000005     2.74174508E+03   # ~b_2
   1000006     2.66648490E+03   # ~t_1
   2000006     2.89539804E+03   # ~t_2
   1000011     2.78568949E+03   # ~e_L
   2000011     2.86171191E+03   # ~e_R
   1000012     2.78428111E+03   # ~nu_eL
   1000013     2.78568949E+03   # ~mu_L
   2000013     2.86171191E+03   # ~mu_R
   1000014     2.78428111E+03   # ~nu_muL
   1000015     1.49038090E+03   # ~tau_1
   2000015     2.73645137E+03   # ~tau_2
   1000016     1.48831281E+03   # ~nu_tauL
   1000021     9.51875279E+02   # ~g
   1000022    -8.04677064E+02   # ~chi_10
   1000023    -2.47134176E+03   # ~chi_20
   1000025     3.00119648E+03   # ~chi_30
   1000035    -3.00592841E+03   # ~chi_40
   1000024     2.47150936E+03   # ~chi_1+
   1000037     3.00605848E+03   # ~chi_2+
#
BLOCK NMIX  # Neutralino Mixing Matrix
  1  1     9.99875346E-01   # N_11
  1  2    -4.36464396E-05   # N_12
  1  3     1.55067634E-02   # N_13
  1  4     2.97172976E-03   # N_14
  2  1     1.24043396E-03   # N_21
  2  2     9.96379391E-01   # N_22
  2  3    -6.72012227E-02   # N_23
  2  4    -5.20630999E-02   # N_24
  3  1     8.86199283E-03   # N_31
  3  2    -1.07441498E-02   # N_32
  3  3    -7.06962947E-01   # N_33
  3  4     7.07113442E-01   # N_34
  4  1    -1.30084281E-02   # N_41
  4  2     8.43366511E-02   # N_42
  4  3     7.03879910E-01   # N_43
  4  4     7.05174576E-01   # N_44
#
BLOCK UMIX  # Chargino Mixing Matrix U
  1  1     9.94847130E-01   # U_11
  1  2    -1.01386330E-01   # U_12
  2  1     1.01386330E-01   # U_21
  2  2     9.94847130E-01   # U_22
#
BLOCK VMIX  # Chargino Mixing Matrix V
  1  1    -9.96800588E-01   # V_11
  1  2    -7.99286393E-02   # V_12
  2  1    -7.99286393E-02   # V_21
  2  2     9.96800588E-01   # V_22
#
BLOCK STOPMIX  # Stop Mixing Matrix
  1  1     8.21894910E-01   # cos(theta_t)
  1  2     5.69639146E-01   # sin(theta_t)
  2  1    -5.69639146E-01   # -sin(theta_t)
  2  2     8.21894910E-01   # cos(theta_t)
#
BLOCK SBOTMIX  # Sbottom Mixing Matrix
  1  1     1.69519850E-02   # cos(theta_b)
  1  2     9.99856305E-01   # sin(theta_b)
  2  1    -9.99856305E-01   # -sin(theta_b)
  2  2     1.69519850E-02   # cos(theta_b)
#
BLOCK STAUMIX  # Stau Mixing Matrix
  1  1     9.99928091E-01   # cos(theta_tau)
  1  2     1.19921987E-02   # sin(theta_tau)
  2  1    -1.19921987E-02   # -sin(theta_tau)
  2  2     9.99928091E-01   # cos(theta_tau)
#
BLOCK ALPHA  # Higgs mixing
          -7.67705797E-02   # Mixing angle in the neutral Higgs boson sector
#
BLOCK HMIX Q=  2.78418000E+03  # DRbar Higgs Parameters
         1     3.00850852E+03   # mu(Q)MSSM           
         2     1.30483538E+01   # tan                 
         3     2.43077472E+02   # higgs               
         4     4.70074869E+06   # mA^2(Q)MSSM         
#
BLOCK GAUGE Q=  2.78418000E+03  # The gauge couplings
     1     3.64602722E-01   # gprime(Q) DRbar
     2     6.36839903E-01   # g(Q) DRbar
     3     1.03766681E+00   # g3(Q) DRbar
#
BLOCK AU Q=  2.78418000E+03  # The trilinear couplings
  1  1     0.00000000E+00   # A_u(Q) DRbar
  2  2     0.00000000E+00   # A_c(Q) DRbar
  3  3    -4.15260999E+03   # A_t(Q) DRbar
#
BLOCK AD Q=  2.78418000E+03  # The trilinear couplings
  1  1     0.00000000E+00   # A_d(Q) DRbar
  2  2     0.00000000E+00   # A_s(Q) DRbar
  3  3    -1.11346000E+03   # A_b(Q) DRbar
#
BLOCK AE Q=  2.78418000E+03  # The trilinear couplings
  1  1     0.00000000E+00   # A_e(Q) DRbar
  2  2     0.00000000E+00   # A_mu(Q) DRbar
  3  3     2.08081000E+03   # A_tau(Q) DRbar
#
BLOCK Yu Q=  2.78418000E+03  # The Yukawa couplings
  1  1     0.00000000E+00   # y_u(Q) DRbar
  2  2     0.00000000E+00   # y_c(Q) DRbar
  3  3     8.19834329E-01   # y_t(Q) DRbar
#
BLOCK Yd Q=  2.78418000E+03  # The Yukawa couplings
  1  1     0.00000000E+00   # y_d(Q) DRbar
  2  2     0.00000000E+00   # y_s(Q) DRbar
  3  3     1.58401040E-01   # y_b(Q) DRbar
#
BLOCK Ye Q=  2.78418000E+03  # The Yukawa couplings
  1  1     0.00000000E+00   # y_e(Q) DRbar
  2  2     0.00000000E+00   # y_mu(Q) DRbar
  3  3     1.29611756E-01   # y_tau(Q) DRbar
#
BLOCK MSOFT Q=  2.78418000E+03  # The soft SUSY breaking masses at the scale Q
         1    -8.11660000E+02   # M_1(Q)              
         2    -2.48473000E+03   # M_2(Q)              
         3     8.12050000E+02   # M_3(Q)              
        21    -4.45423822E+06   # mH1^2(Q)            
        22    -8.90286930E+06   # mH2^2(Q)            
        31     2.76786000E+03   # meL(Q)              
        32     2.76786000E+03   # mmuL(Q)             
        33     1.46317000E+03   # mtauL(Q)            
        34     2.85642000E+03   # meR(Q)              
        35     2.85642000E+03   # mmuR(Q)             
        36     2.73213000E+03   # mtauR(Q)            
        41     7.21269996E+02   # mqL1(Q)             
        42     7.21269996E+02   # mqL2(Q)             
        43     2.71866000E+03   # mqL3(Q)             
        44     1.98561000E+03   # muR(Q)              
        45     1.98561000E+03   # mcR(Q)              
        46     2.85372999E+03   # mtR(Q)              
        47     2.12406000E+03   # mdR(Q)              
        48     2.12406000E+03   # msR(Q)              
        49     1.56720000E+03   # mbR(Q)              
#
Block HiggsBoundsInputHiggsCouplingsFermions
# ScalarNormEffCoupSq PseudoSNormEffCoupSq NP   IP1 IP2 IP2
    1.00737469E+00    0.00000000E+00        3  25   5   5  # h0-b-b eff. coupling^2, normalised to SM
    1.70252162E+02    0.00000000E+00        3  35   5   5  # H0-b-b eff. coupling^2, normalised to SM
    0.00000000E+00    1.70259537E+02        3  36   5   5  # A0-b-b eff. coupling^2, normalised to SM
#
    9.99956686E-01    0.00000000E+00        3  25   6   6  # h0-t-t eff. coupling^2, normalised to SM
    5.91670050E-03    0.00000000E+00        3  35   6   6  # H0-t-t eff. coupling^2, normalised to SM
    0.00000000E+00    5.87338612E-03        3  36   6   6  # A0-t-t eff. coupling^2, normalised to SM
#
    1.00737469E+00    0.00000000E+00        3  25  15  15  # h0-tau-tau eff. coupling^2, normalised to SM
    1.70252162E+02    0.00000000E+00        3  35  15  15  # H0-tau-tau eff. coupling^2, normalised to SM
    0.00000000E+00    1.70259537E+02        3  36  15  15  # A0-tau-tau eff. coupling^2, normalised to SM
#
Block HiggsBoundsInputHiggsCouplingsBosons
    9.99999920E-01        3  25  24  24  # h0-W-W eff. coupling^2, normalised to SM
    7.95661224E-08        3  35  24  24  # H0-W-W eff. coupling^2, normalised to SM
    0.00000000E+00        3  36  24  24  # A0-W-W eff. coupling^2, normalised to SM
#
    9.99999920E-01        3  25  23  23  # h0-Z-Z eff. coupling^2, normalised to SM
    7.95661224E-08        3  35  23  23  # H0-Z-Z eff. coupling^2, normalised to SM
    0.00000000E+00        3  36  23  23  # A0-Z-Z eff. coupling^2, normalised to SM
#
    8.86794636E-01        3  25  21  21  # h0-g-g eff. coupling^2, normalised to SM
    1.48658439E-12        3  35  21  21  # H0-g-g eff. coupling^2, normalised to SM
    4.23400666E-11        3  36  21  21  # A0-g-g eff. coupling^2, normalised to SM
#
    0.00000000E+00        3  25  25  23  # h0-h0-Z eff. coupling^2, normalised to SM
    0.00000000E+00        3  35  25  23  # H0-h0-Z eff. coupling^2, normalised to SM
    7.95661224E-08        3  36  25  23  # A0-h0-Z eff. coupling^2, normalised to SM
    0.00000000E+00        3  35  35  23  # H0-H0-Z eff. coupling^2, normalised to SM
    9.99999920E-01        3  36  35  23  # A0-H0-Z eff. coupling^2, normalised to SM
    0.00000000E+00        3  36  36  23  # A0-A0-Z eff. coupling^2, normalised to SM
#
    0.00000000E+00        4  25  21  21  23  # h0-g-g-Z eff. coupling^2, normalised to SM
    0.00000000E+00        4  35  21  21  23  # H0-g-g-Z eff. coupling^2, normalised to SM
    0.00000000E+00        4  36  21  21  23  # A0-g-g-Z eff. coupling^2, normalised to SM
#
#
#
#                             =================
#                             |The decay table|
#                             =================
#
# - The QCD corrections to the decays gluino -> squark  + quark
#                                     squark -> gaugino + quark_prime
#                                     squark -> squark_prime + Higgs
#                                     squark -> gluino  + quark
#   are included.
#
# - The multi-body decays for the inos, stops and sbottoms are included.
#
# - The loop induced decays for the gluino, neutralinos and stops
#   are included.
#
# - The SUSY decays of the top quark are included.
#
#
#         PDG            Width
DECAY         6     1.42825226E+00   # top decays
#          BR         NDA      ID1       ID2
     1.00000000E+00    2           5        24   # BR(t ->  b    W+)
#
#         PDG            Width
DECAY   1000021     4.18910833E+00   # gluino decays
#          BR         NDA      ID1       ID2
     1.21584501E-01    2     1000001        -1   # BR(~g -> ~d_L  db)
     1.21584501E-01    2    -1000001         1   # BR(~g -> ~d_L* d )
     1.28420755E-01    2     1000002        -2   # BR(~g -> ~u_L  ub)
     1.28420755E-01    2    -1000002         2   # BR(~g -> ~u_L* u )
     1.21584501E-01    2     1000003        -3   # BR(~g -> ~s_L  sb)
     1.21584501E-01    2    -1000003         3   # BR(~g -> ~s_L* s )
     1.28410242E-01    2     1000004        -4   # BR(~g -> ~c_L  cb)
     1.28410242E-01    2    -1000004         4   # BR(~g -> ~c_L* c )
#
#         PDG            Width
DECAY   1000006     1.23115513E+02   # stop1 decays
#          BR         NDA      ID1       ID2
     1.46320902E-02    2     1000022         6   # BR(~t_1 -> ~chi_10 t )
     3.77080270E-04    2     1000023         6   # BR(~t_1 -> ~chi_20 t )
     2.01057895E-03    2     1000024         5   # BR(~t_1 -> ~chi_1+ b )
     9.78139207E-01    2     1000021         6   # BR(~t_1 -> ~g      t )
     4.84104354E-03    2     1000005        24   # BR(~t_1 -> ~b_1    W+)
#
#         PDG            Width
DECAY   2000006     1.39234420E+02   # stop2 decays
#          BR         NDA      ID1       ID2
     2.92563361E-02    2     1000022         6   # BR(~t_2 -> ~chi_10 t )
     2.18996016E-03    2     1000023         6   # BR(~t_2 -> ~chi_20 t )
     0.00000000E+00    2     1000025         6   # BR(~t_2 -> ~chi_30 t )
     5.26330676E-03    2     1000024         5   # BR(~t_2 -> ~chi_1+ b )
     8.97680959E-01    2     1000021         6   # BR(~t_2 -> ~g      t )
     4.88477856E-03    2     1000006        25   # BR(~t_2 -> ~t_1    h )
     3.32573315E-02    2     1000006        23   # BR(~t_2 -> ~t_1    Z )
     3.37698822E-03    2     1000005        24   # BR(~t_2 -> ~b_1    W+)
     2.40903394E-02    2     2000005        24   # BR(~t_2 -> ~b_2    W+)
#
#         PDG            Width
DECAY   1000005     3.87196153E+01   # sbottom1 decays
#          BR         NDA      ID1       ID2
     1.35725646E-02    2     1000022         5   # BR(~b_1 -> ~chi_10 b )
     9.86427435E-01    2     1000021         5   # BR(~b_1 -> ~g      b )
#
#         PDG            Width
DECAY   2000005     1.23468670E+02   # sbottom2 decays
#          BR         NDA      ID1       ID2
     2.72193987E-03    2     1000022         5   # BR(~b_2 -> ~chi_10 b )
     3.12623858E-03    2     1000023         5   # BR(~b_2 -> ~chi_20 b )
     4.12091164E-03    2    -1000024         6   # BR(~b_2 -> ~chi_1- t )
     9.81070542E-01    2     1000021         5   # BR(~b_2 -> ~g      b )
     4.58037635E-03    2     1000005        25   # BR(~b_2 -> ~b_1    h )
     4.37999188E-03    2     1000005        23   # BR(~b_2 -> ~b_1    Z )
#
#         PDG            Width
DECAY   1000002     5.58081910E-04   # sup_L decays
#          BR         NDA      ID1       ID2
     1.00000000E+00    2     1000022         2   # BR(~u_L -> ~chi_10 u)
#
#         PDG            Width
DECAY   2000002     1.00344912E+02   # sup_R decays
#          BR         NDA      ID1       ID2
     3.22189631E-02    2     1000022         2   # BR(~u_R -> ~chi_10 u)
     9.67781037E-01    2     1000021         2   # BR(~u_R -> ~g      u)
#
#         PDG            Width
DECAY   1000001     6.97770032E-04   # sdown_L decays
#          BR         NDA      ID1       ID2
     1.00000000E+00    2     1000022         1   # BR(~d_L -> ~chi_10 d)
#
#         PDG            Width
DECAY   2000001     1.12500317E+02   # sdown_R decays
#          BR         NDA      ID1       ID2
     8.06319375E-03    2     1000022         1   # BR(~d_R -> ~chi_10 d)
     9.91936806E-01    2     1000021         1   # BR(~d_R -> ~g      d)
#
#         PDG            Width
DECAY   1000004     5.17951649E-04   # scharm_L decays
#          BR         NDA      ID1       ID2
     1.00000000E+00    2     1000022         4   # BR(~c_L -> ~chi_10 c)
#
#         PDG            Width
DECAY   2000004     7.27253258E+01   # scharm_R decays
#          BR         NDA      ID1       ID2
     4.59606965E-02    2     1000022         4   # BR(~c_R -> ~chi_10 c)
     9.54039303E-01    2     1000021         4   # BR(~c_R -> ~g      c)
#
#         PDG            Width
DECAY   1000003     6.52149642E-04   # sstrange_L decays
#          BR         NDA      ID1       ID2
     1.00000000E+00    2     1000022         3   # BR(~s_L -> ~chi_10 s)
#
#         PDG            Width
DECAY   2000003     8.06667614E+01   # sstrange_R decays
#          BR         NDA      ID1       ID2
     1.16217855E-02    2     1000022         3   # BR(~s_R -> ~chi_10 s)
     9.88378214E-01    2     1000021         3   # BR(~s_R -> ~g      s)
#
#         PDG            Width
DECAY   1000011     4.60775271E+00   # selectron_L decays
#          BR         NDA      ID1       ID2
     6.71320876E-01    2     1000022        11   # BR(~e_L -> ~chi_10 e-)
     1.09962225E-01    2     1000023        11   # BR(~e_L -> ~chi_20 e-)
     2.18716900E-01    2    -1000024        12   # BR(~e_L -> ~chi_1- nu_e)
#
#         PDG            Width
DECAY   2000011     1.28343644E+01   # selectron_R decays
#          BR         NDA      ID1       ID2
     9.99999883E-01    2     1000022        11   # BR(~e_R -> ~chi_10 e-)
     1.17273601E-07    2     1000023        11   # BR(~e_R -> ~chi_20 e-)
#
#         PDG            Width
DECAY   1000013     4.60775267E+00   # smuon_L decays
#          BR         NDA      ID1       ID2
     6.71320879E-01    2     1000022        13   # BR(~mu_L -> ~chi_10 mu-)
     1.09962219E-01    2     1000023        13   # BR(~mu_L -> ~chi_20 mu-)
     2.18716902E-01    2    -1000024        14   # BR(~mu_L -> ~chi_1- nu_mu)
#
#         PDG            Width
DECAY   2000013     1.28343643E+01   # smuon_R decays
#          BR         NDA      ID1       ID2
     9.99999883E-01    2     1000022        13   # BR(~mu_R -> ~chi_10 mu-)
     1.17273597E-07    2     1000023        13   # BR(~mu_R -> ~chi_20 mu-)
#
#         PDG            Width
DECAY   1000015     9.89410359E-01   # stau_1 decays
#          BR         NDA      ID1       ID2
     1.00000000E+00    2     1000022        15   # BR(~tau_1 -> ~chi_10  tau-)
#
#         PDG            Width
DECAY   2000015     1.33842091E+01   # stau_2 decays
#          BR         NDA      ID1       ID2
     9.02141135E-01    2     1000022        15   # BR(~tau_2 -> ~chi_10  tau-)
     1.60073965E-06    2     1000023        15   # BR(~tau_2 -> ~chi_20  tau-)
     4.24198418E-06    2    -1000024        16   # BR(~tau_2 -> ~chi_1-  nu_tau)
     4.76683053E-02    2     1000016       -24   # BR(~tau_2 -> ~nu_tauL W-)
     2.57259119E-02    2     1000015        25   # BR(~tau_2 -> ~tau_1   h)
     2.44588053E-02    2     1000015        23   # BR(~tau_2 -> ~tau_1   Z)
#
#         PDG            Width
DECAY   1000012     4.59698962E+00   # snu_eL decays
#          BR         NDA      ID1       ID2
     6.72633665E-01    2     1000022        12   # BR(~nu_eL -> ~chi_10 nu_e)
     1.09030203E-01    2     1000023        12   # BR(~nu_eL -> ~chi_20 nu_e)
     2.18336132E-01    2     1000024        11   # BR(~nu_eL -> ~chi_1+ e-)
#
#         PDG            Width
DECAY   1000014     4.59698955E+00   # snu_muL decays
#          BR         NDA      ID1       ID2
     6.72633675E-01    2     1000022        14   # BR(~nu_muL -> ~chi_10 nu_mu)
     1.09030205E-01    2     1000023        14   # BR(~nu_muL -> ~chi_20 nu_mu)
     2.18336121E-01    2     1000024        13   # BR(~nu_muL -> ~chi_1+ mu-)
#
#         PDG            Width
DECAY   1000016     9.85528179E-01   # snu_tauL decays
#          BR         NDA      ID1       ID2
     1.00000000E+00    2     1000022        16   # BR(~nu_tauL -> ~chi_10 nu_tau)
#
#         PDG            Width
DECAY   1000024     9.82687810E+01   # chargino1+ decays
#          BR         NDA      ID1       ID2
     2.30212052E-01    2     1000002        -1   # BR(~chi_1+ -> ~u_L     db)
     2.28824760E-01    2    -1000001         2   # BR(~chi_1+ -> ~d_L*    u )
     2.30212050E-01    2     1000004        -3   # BR(~chi_1+ -> ~c_L     sb)
     2.28824731E-01    2    -1000003         4   # BR(~chi_1+ -> ~s_L*     c )
     1.83286163E-04    2    -1000005         6   # BR(~chi_1+ -> ~b_1*    t )
     4.09686900E-02    2     1000016       -15   # BR(~chi_1+ -> ~nu_tau1 tau+)
     4.06800282E-02    2    -1000015        16   # BR(~chi_1+ -> ~tau_1+  nu_tau)
     9.44024429E-05    2     1000022        24   # BR(~chi_1+ -> ~chi_10  W+)
#
#         PDG            Width
DECAY   1000037     1.45098802E+01   # chargino2+ decays
#          BR         NDA      ID1       ID2
     1.32348732E-02    2     1000002        -1   # BR(~chi_2+ -> ~u_L     db)
     2.12654521E-02    2    -1000001         2   # BR(~chi_2+ -> ~d_L*    u )
     1.32348732E-02    2     1000004        -3   # BR(~chi_2+ -> ~c_L     sb)
     2.12654509E-02    2    -1000003         4   # BR(~chi_2+ -> ~s_L*     c )
     7.75722172E-02    2     1000006        -5   # BR(~chi_2+ -> ~t_1     bb)
     1.34190818E-02    2     2000006        -5   # BR(~chi_2+ -> ~t_2     bb)
     8.02187580E-02    2    -1000005         6   # BR(~chi_2+ -> ~b_1*    t )
     8.05010091E-02    2    -2000005         6   # BR(~chi_2+ -> ~b_2*    t )
     1.07833065E-04    2     1000012       -11   # BR(~chi_2+ -> ~nu_eL   e+  )
     1.07833065E-04    2     1000014       -13   # BR(~chi_2+ -> ~nu_muL mu+ )
     2.25913076E-02    2     1000016       -15   # BR(~chi_2+ -> ~nu_tau1 tau+)
     1.71389282E-04    2    -1000011        12   # BR(~chi_2+ -> ~e_L+    nu_e)
     1.71389282E-04    2    -1000013        14   # BR(~chi_2+ -> ~mu_L+   nu_mu)
     4.65474002E-03    2    -1000015        16   # BR(~chi_2+ -> ~tau_1+  nu_tau)
     1.01777047E-03    2    -2000015        16   # BR(~chi_2+ -> ~tau_2+  nu_tau)
     1.62381230E-01    2     1000024        23   # BR(~chi_2+ -> ~chi_1+  Z )
     1.15195588E-01    2     1000022        24   # BR(~chi_2+ -> ~chi_10  W+)
     1.82178296E-01    2     1000023        24   # BR(~chi_2+ -> ~chi_20  W+)
     1.81103655E-01    2     1000024        25   # BR(~chi_2+ -> ~chi_1+  h )
     9.60725300E-03    2     1000022        37   # BR(~chi_2+ -> ~chi_10  H+)
#
#         PDG            Width
DECAY   1000022     0.00000000E+00   # neutralino1 decays
#
#         PDG            Width
DECAY   1000023     9.83651058E+01   # neutralino2 decays
#          BR         NDA      ID1       ID2
     2.78972277E-05    2     1000022        23   # BR(~chi_20 -> ~chi_10   Z )
     6.44847475E-05    2     1000022        25   # BR(~chi_20 -> ~chi_10   h )
     1.14938931E-01    2     1000002        -2   # BR(~chi_20 -> ~u_L      ub)
     1.14938931E-01    2    -1000002         2   # BR(~chi_20 -> ~u_L*     u )
     1.51639224E-08    2     2000002        -2   # BR(~chi_20 -> ~u_R      ub)
     1.51639224E-08    2    -2000002         2   # BR(~chi_20 -> ~u_R*     u )
     1.14586411E-01    2     1000001        -1   # BR(~chi_20 -> ~d_L      db)
     1.14586411E-01    2    -1000001         1   # BR(~chi_20 -> ~d_L*     d )
     1.95327425E-09    2     2000001        -1   # BR(~chi_20 -> ~d_R      db)
     1.95327425E-09    2    -2000001         1   # BR(~chi_20 -> ~d_R*     d )
     1.14938916E-01    2     1000004        -4   # BR(~chi_20 -> ~c_L      cb)
     1.14938916E-01    2    -1000004         4   # BR(~chi_20 -> ~c_L*     c )
     1.51638465E-08    2     2000004        -4   # BR(~chi_20 -> ~c_R      cb)
     1.51638465E-08    2    -2000004         4   # BR(~chi_20 -> ~c_R*     c )
     1.14586411E-01    2     1000003        -3   # BR(~chi_20 -> ~s _L      sb)
     1.14586411E-01    2    -1000003         3   # BR(~chi_20 -> ~s _L*     s )
     1.95327425E-09    2     2000003        -3   # BR(~chi_20 -> ~s _R      sb)
     1.95327425E-09    2    -2000003         3   # BR(~chi_20 -> ~s _R*     s )
     8.41486196E-05    2     1000005        -5   # BR(~chi_20 -> ~b_1      bb)
     8.41486196E-05    2    -1000005         5   # BR(~chi_20 -> ~b_1*     b )
     2.04124549E-02    2     1000015       -15   # BR(~chi_20 -> ~tau_1-   tau+)
     2.04124549E-02    2    -1000015        15   # BR(~chi_20 -> ~tau_1+   tau-)
     2.04065027E-02    2     1000016       -16   # BR(~chi_20 -> ~nu_tau1  nu_taub)
     2.04065027E-02    2    -1000016        16   # BR(~chi_20 -> ~nu_tau1* nu_tau )
#
#         PDG            Width
DECAY   1000025     1.33986201E+01   # neutralino3 decays
#          BR         NDA      ID1       ID2
     8.85146987E-02    2     1000022        23   # BR(~chi_30 -> ~chi_10   Z )
     1.47423880E-01    2     1000023        23   # BR(~chi_30 -> ~chi_20   Z )
     1.69161199E-01    2     1000024       -24   # BR(~chi_30 -> ~chi_1+   W-)
     1.69161199E-01    2    -1000024        24   # BR(~chi_30 -> ~chi_1-   W+)
     4.22094858E-02    2     1000022        25   # BR(~chi_30 -> ~chi_10   h )
     6.94843041E-05    2     1000022        35   # BR(~chi_30 -> ~chi_10   H )
     9.80497021E-03    2     1000022        36   # BR(~chi_30 -> ~chi_10   A )
     2.37683967E-03    2     1000023        25   # BR(~chi_30 -> ~chi_20   h )
     9.17334496E-05    2     1000002        -2   # BR(~chi_30 -> ~u_L      ub)
     9.17334496E-05    2    -1000002         2   # BR(~chi_30 -> ~u_L*     u )
     1.82523266E-05    2     2000002        -2   # BR(~chi_30 -> ~u_R      ub)
     1.82523266E-05    2    -2000002         2   # BR(~chi_30 -> ~u_R*     u )
     1.72848411E-04    2     1000001        -1   # BR(~chi_30 -> ~d_L      db)
     1.72848411E-04    2    -1000001         1   # BR(~chi_30 -> ~d_L*     d )
     3.55411529E-06    2     2000001        -1   # BR(~chi_30 -> ~d_R      db)
     3.55411529E-06    2    -2000001         1   # BR(~chi_30 -> ~d_R*     d )
     9.17334447E-05    2     1000004        -4   # BR(~chi_30 -> ~c_L      cb)
     9.17334447E-05    2    -1000004         4   # BR(~chi_30 -> ~c_L*     c )
     1.82523107E-05    2     2000004        -4   # BR(~chi_30 -> ~c_R      cb)
     1.82523107E-05    2    -2000004         4   # BR(~chi_30 -> ~c_R*     c )
     1.72848411E-04    2     1000003        -3   # BR(~chi_30 -> ~s _L      sb)
     1.72848411E-04    2    -1000003         3   # BR(~chi_30 -> ~s _L*     s )
     3.55411529E-06    2     2000003        -3   # BR(~chi_30 -> ~s _R      sb)
     3.55411529E-06    2    -2000003         3   # BR(~chi_30 -> ~s _R*     s )
     1.28716677E-01    2     1000006        -6   # BR(~chi_30 -> ~t_1      tb)
     1.28716677E-01    2    -1000006         6   # BR(~chi_30 -> ~t_1*     t )
     4.28412142E-02    2     1000005        -5   # BR(~chi_30 -> ~b_1      bb)
     4.28412142E-02    2    -1000005         5   # BR(~chi_30 -> ~b_1*     b )
     2.29822327E-03    2     2000005        -5   # BR(~chi_30 -> ~b_2      bb)
     2.29822327E-03    2    -2000005         5   # BR(~chi_30 -> ~b_2*     b )
     2.78510540E-07    2     1000011       -11   # BR(~chi_30 -> ~e_L-     e+)
     2.78510540E-07    2    -1000011        11   # BR(~chi_30 -> ~e_L+     e-)
     3.83502272E-07    2     2000011       -11   # BR(~chi_30 -> ~e_R-     e+)
     3.83502272E-07    2    -2000011        11   # BR(~chi_30 -> ~e_R+     e-)
     2.78510540E-07    2     1000013       -13   # BR(~chi_30 -> ~mu_L-    mu+)
     2.78510540E-07    2    -1000013        13   # BR(~chi_30 -> ~mu_L+    mu-)
     3.83502272E-07    2     2000013       -13   # BR(~chi_30 -> ~mu_R-    mu+)
     3.83502272E-07    2    -2000013        13   # BR(~chi_30 -> ~mu_R+    mu-)
     1.06063319E-02    2     1000015       -15   # BR(~chi_30 -> ~tau_1-   tau+)
     1.06063319E-02    2    -1000015        15   # BR(~chi_30 -> ~tau_1+   tau-)
     5.33904084E-04    2     2000015       -15   # BR(~chi_30 -> ~tau_2-   tau+)
     5.33904084E-04    2    -2000015        15   # BR(~chi_30 -> ~tau_2+   tau-)
     2.19451676E-06    2     1000012       -12   # BR(~chi_30 -> ~nu_eL    nu_eb)
     2.19451676E-06    2    -1000012        12   # BR(~chi_30 -> ~nu_eL*   nu_e )
     2.19451676E-06    2     1000014       -14   # BR(~chi_30 -> ~nu_muL   nu_mub)
     2.19451676E-06    2    -1000014        14   # BR(~chi_30 -> ~nu_muL*  nu_mu )
     6.42818902E-05    2     1000016       -16   # BR(~chi_30 -> ~nu_tau1  nu_taub)
     6.42818902E-05    2    -1000016        16   # BR(~chi_30 -> ~nu_tau1* nu_tau )
#
#         PDG            Width
DECAY   1000035     1.17123257E+01   # neutralino4 decays
#          BR         NDA      ID1       ID2
     4.65594116E-02    2     1000022        23   # BR(~chi_40 -> ~chi_10   Z )
     2.96998014E-03    2     1000023        23   # BR(~chi_40 -> ~chi_20   Z )
     1.46379569E-01    2     1000024       -24   # BR(~chi_40 -> ~chi_1+   W-)
     1.46379569E-01    2    -1000024        24   # BR(~chi_40 -> ~chi_1-   W+)
     1.06210184E-01    2     1000022        25   # BR(~chi_40 -> ~chi_10   h )
     1.22439811E-02    2     1000022        35   # BR(~chi_40 -> ~chi_10   H )
     1.05319825E-04    2     1000022        36   # BR(~chi_40 -> ~chi_10   A )
     2.22896605E-01    2     1000023        25   # BR(~chi_40 -> ~chi_20   h )
     8.59729273E-03    2     1000002        -2   # BR(~chi_40 -> ~u_L      ub)
     8.59729273E-03    2    -1000002         2   # BR(~chi_40 -> ~u_L*     u )
     4.52919385E-05    2     2000002        -2   # BR(~chi_40 -> ~u_R      ub)
     4.52919385E-05    2    -2000002         2   # BR(~chi_40 -> ~u_R*     u )
     9.65856583E-03    2     1000001        -1   # BR(~chi_40 -> ~d_L      db)
     9.65856583E-03    2    -1000001         1   # BR(~chi_40 -> ~d_L*     d )
     8.83261943E-06    2     2000001        -1   # BR(~chi_40 -> ~d_R      db)
     8.83261943E-06    2    -2000001         1   # BR(~chi_40 -> ~d_R*     d )
     8.59729228E-03    2     1000004        -4   # BR(~chi_40 -> ~c_L      cb)
     8.59729228E-03    2    -1000004         4   # BR(~chi_40 -> ~c_L*     c )
     4.52918996E-05    2     2000004        -4   # BR(~chi_40 -> ~c_R      cb)
     4.52918996E-05    2    -2000004         4   # BR(~chi_40 -> ~c_R*     c )
     9.65856583E-03    2     1000003        -3   # BR(~chi_40 -> ~s _L      sb)
     9.65856583E-03    2    -1000003         3   # BR(~chi_40 -> ~s _L*     s )
     8.83261943E-06    2     2000003        -3   # BR(~chi_40 -> ~s _R      sb)
     8.83261943E-06    2    -2000003         3   # BR(~chi_40 -> ~s _R*     s )
     5.30054557E-02    2     1000006        -6   # BR(~chi_40 -> ~t_1      tb)
     5.30054557E-02    2    -1000006         6   # BR(~chi_40 -> ~t_1*     t )
     4.82845176E-02    2     1000005        -5   # BR(~chi_40 -> ~b_1      bb)
     4.82845176E-02    2    -1000005         5   # BR(~chi_40 -> ~b_1*     b )
     3.09028946E-03    2     2000005        -5   # BR(~chi_40 -> ~b_2      bb)
     3.09028946E-03    2    -2000005         5   # BR(~chi_40 -> ~b_2*     b )
     6.09914498E-05    2     1000011       -11   # BR(~chi_40 -> ~e_L-     e+)
     6.09914498E-05    2    -1000011        11   # BR(~chi_40 -> ~e_L+     e-)
     1.00738953E-06    2     2000011       -11   # BR(~chi_40 -> ~e_R-     e+)
     1.00738953E-06    2    -2000011        11   # BR(~chi_40 -> ~e_R+     e-)
     6.09914498E-05    2     1000013       -13   # BR(~chi_40 -> ~mu_L-    mu+)
     6.09914498E-05    2    -1000013        13   # BR(~chi_40 -> ~mu_L+    mu-)
     1.00738953E-06    2     2000013       -13   # BR(~chi_40 -> ~mu_R-    mu+)
     1.00738953E-06    2    -2000013        13   # BR(~chi_40 -> ~mu_R+    mu-)
     1.37084220E-02    2     1000015       -15   # BR(~chi_40 -> ~tau_1-   tau+)
     1.37084220E-02    2    -1000015        15   # BR(~chi_40 -> ~tau_1+   tau-)
     6.34089018E-04    2     2000015       -15   # BR(~chi_40 -> ~tau_2-   tau+)
     6.34089018E-04    2    -2000015        15   # BR(~chi_40 -> ~tau_2+   tau-)
     8.79834787E-05    2     1000012       -12   # BR(~chi_40 -> ~nu_eL    nu_eb)
     8.79834787E-05    2    -1000012        12   # BR(~chi_40 -> ~nu_eL*   nu_e )
     8.79834787E-05    2     1000014       -14   # BR(~chi_40 -> ~nu_muL   nu_mub)
     8.79834787E-05    2    -1000014        14   # BR(~chi_40 -> ~nu_muL*  nu_mu )
     2.48498632E-03    2     1000016       -16   # BR(~chi_40 -> ~nu_tau1  nu_taub)
     2.48498632E-03    2    -1000016        16   # BR(~chi_40 -> ~nu_tau1* nu_tau )
#
#         PDG            Width
DECAY        25     4.53149568E-03   # h decays
#          BR         NDA      ID1       ID2
     6.01906012E-01    2           5        -5   # BR(h -> b       bb     )
     5.81882548E-02    2         -15        15   # BR(h -> tau+    tau-   )
     2.05944891E-04    2         -13        13   # BR(h -> mu+     mu-    )
     2.23991214E-04    2           3        -3   # BR(h -> s       sb     )
     1.93127571E-02    2           4        -4   # BR(h -> c       cb     )
     7.27287516E-02    2          21        21   # BR(h -> g       g      )
     2.18213402E-03    2          22        22   # BR(h -> gam     gam    )
     1.56178511E-03    2          22        23   # BR(h -> Z       gam    )
     2.16113072E-01    2          24       -24   # BR(h -> W+      W-     )
     2.75772968E-02    2          23        23   # BR(h -> Z       Z      )
#
#         PDG            Width
DECAY        35     5.60990214E+00   # H decays
#          BR         NDA      ID1       ID2
     7.57598827E-01    2           5        -5   # BR(H -> b       bb     )
     1.45416387E-01    2         -15        15   # BR(H -> tau+    tau-   )
     5.04544182E-04    2         -13        13   # BR(H -> mu+     mu-    )
     2.21020219E-04    2           3        -3   # BR(H -> s       sb     )
     9.83361219E-07    2           4        -4   # BR(H -> c       cb     )
     9.56256565E-02    2           6        -6   # BR(H -> t       tb     )
     3.91801919E-05    2          21        21   # BR(H -> g       g      )
     1.71175105E-07    2          22        22   # BR(H -> gam     gam    )
     6.57821202E-08    2          23        22   # BR(H -> Z       gam    )
     4.67017045E-05    2          24       -24   # BR(H -> W+      W-     )
     2.32718852E-05    2          23        23   # BR(H -> Z       Z      )
     2.49214553E-04    2          25        25   # BR(H -> h       h      )
     7.06246226E-05    2     1000022   1000022   # BR(H -> ~chi_10 ~chi_10)
     4.13569484E-05    2     1000002  -1000002   # BR(H -> ~u_L    ~u_L*  )
     4.13569484E-05    2     1000004  -1000004   # BR(H -> ~c_L    ~c_L*  )
     6.03189789E-05    2     1000001  -1000001   # BR(H -> ~d_L    ~d_L*  )
     6.03189789E-05    2     1000003  -1000003   # BR(H -> ~s_L    ~s_L*  )
#
#         PDG            Width
DECAY        36     5.61505623E+00   # A decays
#          BR         NDA      ID1       ID2
     7.57079649E-01    2           5        -5   # BR(A -> b       bb     )
     1.45290641E-01    2         -15        15   # BR(A -> tau+    tau-   )
     5.04106746E-04    2         -13        13   # BR(A -> mu+     mu-    )
     2.20921896E-04    2           3        -3   # BR(A -> s       sb     )
     9.84262533E-07    2           4        -4   # BR(A -> c       cb     )
     9.65000395E-02    2           6        -6   # BR(A -> t       tb     )
     2.08914697E-04    2          21        21   # BR(A -> g       g      )
     4.04000127E-07    2          22        22   # BR(A -> gam     gam    )
     1.99031324E-07    2          23        22   # BR(A -> Z       gam    )
     4.71118319E-05    2          23        25   # BR(A -> Z       h      )
     1.47027566E-04    2     1000022   1000022   # BR(A -> ~chi_10 ~chi_10)
#
#         PDG            Width
DECAY        37     5.04956126E+00   # H+ decays
#          BR         NDA      ID1       ID2
     1.23222195E-03    2           4        -5   # BR(H+ -> c       bb     )
     1.61693543E-01    2         -15        16   # BR(H+ -> tau+    nu_tau )
     5.61018966E-04    2         -13        14   # BR(H+ -> mu+     nu_mu  )
     1.23221752E-05    2           2        -5   # BR(H+ -> u       bb     )
     1.22792574E-05    2           2        -3   # BR(H+ -> u       sb     )
     2.42742279E-04    2           4        -3   # BR(H+ -> c       sb     )
     8.35970031E-01    2           6        -5   # BR(H+ -> t       bb     )
     5.25799910E-05    2          24        25   # BR(H+ -> W+      h      )
     4.60774680E-12    2          24        36   # BR(H+ -> W+      A      )
     1.11630844E-04    2     1000002  -1000001   # BR(H+ -> ~u_L    ~d_L*  )
     1.11630844E-04    2     1000004  -1000003   # BR(H+ -> ~c_L    ~s_L*  )
