#
#                              ======================
#                              | THE SUSYHIT OUTPUT |
#                              ======================
#
#
#              ------------------------------------------------------
#              |     This is the output of the SUSY-HIT package     |
#              |  created by A.Djouadi, M.Muehlleitner and M.Spira. |
#              |  In case of problems with SUSY-HIT email to        |
#              |           margarete.muehlleitner@cern.ch           |
#              |           michael.spira@psi.ch                     |
#              |           abdelhak.djouadi@cern.ch                 |
#              ------------------------------------------------------
#
#              ------------------------------------------------------
#              |  SUSY Les Houches Accord - MSSM Spectrum + Decays  |
#              |              based on the decay programs           |
#              |                                                    |
#              |                     SDECAY 1.3b                    |
#              |                                                    |
#              |  Authors: M.Muhlleitner, A.Djouadi and Y.Mambrini  |
#              |  Ref.:    Comput.Phys.Commun.168(2005)46           |
#              |           [hep-ph/0311167]                         |
#              |                                                    |
#              |                     HDECAY 3.4                     |
#              |                                                    |
#              |  By: A.Djouadi,J.Kalinowski,M.Muhlleitner,M.Spira  |
#              |  Ref.:    Comput.Phys.Commun.108(1998)56           |
#              |           [hep-ph/9704448]                         |
#              |                                                    |
#              |                                                    |
#              |  If not stated otherwise all DRbar couplings and   |
#              |  soft SUSY breaking masses are given at the scale  |
#              |  Q=  0.22476150E+04
#              |                                                    |
#              ------------------------------------------------------
#
#
BLOCK DCINFO  # Decay Program information
     1   SDECAY/HDECAY # decay calculator
     2   1.3b  /3.4    # version number
#
BLOCK SPINFO  # Spectrum calculator information
     1     SOFTSUSY    # spectrum calculator               
     2     3.4.0       # version number                    
#
BLOCK MODSEL  # Model selection
     1     0   #  nonUniversal                                     
#
BLOCK SMINPUTS  # Standard Model inputs
         1     1.27908970E+02   # alpha_em^-1(M_Z)^MSbar
         2     1.16637870E-05   # G_F [GeV^-2]
         3     1.18400000E-01   # alpha_S(M_Z)^MSbar
         4     9.11876000E+01   # M_Z pole mass
         5     4.18000000E+00   # mb(mb)^MSbar
         6     1.73200000E+02   # mt pole mass
         7     1.77700000E+00   # mtau pole mass
#
BLOCK MINPAR  # Input parameters - minimal models
         3     1.37100000E+01   # tanb                
#
BLOCK EXTPAR  # Input parameters - non-minimal models
         0    -1.00000000E+00   # Set                 
         1    -6.54350000E+02   # M_1(MX)             
         2    -1.55420000E+03   # M_2(MX)             
         3     5.74650000E+02   # M_3(MX)             
        11    -3.66064000E+03   # At(MX)              
        12     7.61320000E+02   # Ab(MX)              
        13    -3.22980000E+02   # Atau(MX)            
        23     1.04089000E+03   # mu(MX)              
        26     1.16664000E+03   # mA(pole)            
        31     1.33217000E+03   # meL(MX)             
        32     1.33217000E+03   # mmuL(MX)            
        33     1.84164000E+03   # mtauL(MX)           
        34     2.32790000E+03   # meR(MX)             
        35     2.32790000E+03   # mmuR(MX)            
        36     2.78362000E+03   # mtauR(MX)           
        41     2.82840000E+03   # mqL1(MX)            
        42     2.82840000E+03   # mqL2(MX)            
        43     1.63903000E+03   # mqL3(MX)            
        44     2.62009000E+03   # muR(MX)             
        45     2.62009000E+03   # mcR(MX)             
        46     3.08606000E+03   # mtR(MX)             
        47     1.81899000E+03   # mdR(MX)             
        48     1.81899000E+03   # msR(MX)             
        49     1.99520000E+03   # mbR(MX)             
#
BLOCK MASS  # Mass Spectrum
# PDG code           mass       particle
        24     8.03946440E+01   # W+
        25     1.27097925E+02   # h
        35     1.16672829E+03   # H
        36     1.16663996E+03   # A
        37     1.16974173E+03   # H+
         5     4.81876030E+00   # b-quark pole mass calculated from mb(mb)_Msbar
   1000001     2.86375637E+03   # ~d_L
   2000001     1.84126471E+03   # ~d_R
   1000002     2.86280027E+03   # ~u_L
   2000002     2.64675673E+03   # ~u_R
   1000003     2.86375637E+03   # ~s_L
   2000003     1.84126471E+03   # ~s_R
   1000004     2.86280027E+03   # ~c_L
   2000004     2.64675673E+03   # ~c_R
   1000005     1.65813632E+03   # ~b_1
   2000005     2.01659854E+03   # ~b_2
   1000006     1.65008539E+03   # ~t_1
   2000006     3.06261247E+03   # ~t_2
   1000011     1.35138499E+03   # ~e_L
   2000011     2.33031214E+03   # ~e_R
   1000012     1.34878896E+03   # ~nu_eL
   1000013     1.35138499E+03   # ~mu_L
   2000013     2.33031214E+03   # ~mu_R
   1000014     1.34878896E+03   # ~nu_muL
   1000015     1.85508300E+03   # ~tau_1
   2000015     2.78541712E+03   # ~tau_2
   1000016     1.85314313E+03   # ~nu_tauL
   1000021     7.20438468E+02   # ~g
   1000022    -6.49348101E+02   # ~chi_10
   1000023    -1.06431110E+03   # ~chi_20
   1000025     1.06901708E+03   # ~chi_30
   1000035    -1.58186297E+03   # ~chi_40
   1000024     1.06389782E+03   # ~chi_1+
   1000037     1.58202393E+03   # ~chi_2+
#
BLOCK NMIX  # Neutralino Mixing Matrix
  1  1     9.97473011E-01   # N_11
  1  2    -2.44492596E-03   # N_12
  1  3     6.19828126E-02   # N_13
  1  4     3.46373477E-02   # N_14
  2  1    -6.82734983E-02   # N_21
  2  2    -9.83278703E-02   # N_22
  2  3     7.03160727E-01   # N_23
  2  4     7.00881838E-01   # N_24
  3  1     1.92729691E-02   # N_31
  3  2    -2.26934143E-02   # N_32
  3  3    -7.06298035E-01   # N_33
  3  4     7.07288235E-01   # N_34
  4  1    -3.85676983E-03   # N_41
  4  2     9.94892286E-01   # N_42
  4  3     5.35369778E-02   # N_43
  4  4     8.54883392E-02   # N_44
#
BLOCK UMIX  # Chargino Mixing Matrix U
  1  1    -7.56601449E-02   # U_11
  1  2     9.97133663E-01   # U_12
  2  1    -9.97133663E-01   # U_21
  2  2    -7.56601449E-02   # U_22
#
BLOCK VMIX  # Chargino Mixing Matrix V
  1  1     1.20855256E-01   # V_11
  1  2     9.92670140E-01   # V_12
  2  1     9.92670140E-01   # V_21
  2  2    -1.20855256E-01   # V_22
#
BLOCK STOPMIX  # Stop Mixing Matrix
  1  1     9.96745258E-01   # cos(theta_t)
  1  2     8.06156973E-02   # sin(theta_t)
  2  1    -8.06156973E-02   # -sin(theta_t)
  2  2     9.96745258E-01   # cos(theta_t)
#
BLOCK SBOTMIX  # Sbottom Mixing Matrix
  1  1     9.99748458E-01   # cos(theta_b)
  1  2     2.24281236E-02   # sin(theta_b)
  2  1    -2.24281236E-02   # -sin(theta_b)
  2  2     9.99748458E-01   # cos(theta_b)
#
BLOCK STAUMIX  # Stau Mixing Matrix
  1  1     9.99983624E-01   # cos(theta_tau)
  1  2     5.72291288E-03   # sin(theta_tau)
  2  1    -5.72291288E-03   # -sin(theta_tau)
  2  2     9.99983624E-01   # cos(theta_tau)
#
BLOCK ALPHA  # Higgs mixing
          -7.72238292E-02   # Mixing angle in the neutral Higgs boson sector
#
BLOCK HMIX Q=  2.24761500E+03  # DRbar Higgs Parameters
         1     1.05534803E+03   # mu(Q)MSSM           
         2     1.31233513E+01   # tan                 
         3     2.42578702E+02   # higgs               
         4     1.27149035E+06   # mA^2(Q)MSSM         
#
BLOCK GAUGE Q=  2.24761500E+03  # The gauge couplings
     1     3.64115153E-01   # gprime(Q) DRbar
     2     6.37850131E-01   # g(Q) DRbar
     3     1.04292804E+00   # g3(Q) DRbar
#
BLOCK AU Q=  2.24761500E+03  # The trilinear couplings
  1  1     0.00000000E+00   # A_u(Q) DRbar
  2  2     0.00000000E+00   # A_c(Q) DRbar
  3  3    -3.66064000E+03   # A_t(Q) DRbar
#
BLOCK AD Q=  2.24761500E+03  # The trilinear couplings
  1  1     0.00000000E+00   # A_d(Q) DRbar
  2  2     0.00000000E+00   # A_s(Q) DRbar
  3  3     7.61320000E+02   # A_b(Q) DRbar
#
BLOCK AE Q=  2.24761500E+03  # The trilinear couplings
  1  1     0.00000000E+00   # A_e(Q) DRbar
  2  2     0.00000000E+00   # A_mu(Q) DRbar
  3  3    -3.22980000E+02   # A_tau(Q) DRbar
#
BLOCK Yu Q=  2.24761500E+03  # The Yukawa couplings
  1  1     0.00000000E+00   # y_u(Q) DRbar
  2  2     0.00000000E+00   # y_c(Q) DRbar
  3  3     8.32480411E-01   # y_t(Q) DRbar
#
BLOCK Yd Q=  2.24761500E+03  # The Yukawa couplings
  1  1     0.00000000E+00   # y_d(Q) DRbar
  2  2     0.00000000E+00   # y_s(Q) DRbar
  3  3     1.72708342E-01   # y_b(Q) DRbar
#
BLOCK Ye Q=  2.24761500E+03  # The Yukawa couplings
  1  1     0.00000000E+00   # y_e(Q) DRbar
  2  2     0.00000000E+00   # y_mu(Q) DRbar
  3  3     1.32055284E-01   # y_tau(Q) DRbar
#
BLOCK MSOFT Q=  2.24761500E+03  # The soft SUSY breaking masses at the scale Q
         1    -6.54350000E+02   # M_1(Q)              
         2    -1.55420000E+03   # M_2(Q)              
         3     5.74650000E+02   # M_3(Q)              
        21     1.87175694E+05   # mH1^2(Q)            
        22    -1.08330494E+06   # mH2^2(Q)            
        31     1.33217000E+03   # meL(Q)              
        32     1.33217000E+03   # mmuL(Q)             
        33     1.84164000E+03   # mtauL(Q)            
        34     2.32790000E+03   # meR(Q)              
        35     2.32790000E+03   # mmuR(Q)             
        36     2.78362000E+03   # mtauR(Q)            
        41     2.82840000E+03   # mqL1(Q)             
        42     2.82840000E+03   # mqL2(Q)             
        43     1.63903000E+03   # mqL3(Q)             
        44     2.62009000E+03   # muR(Q)              
        45     2.62009000E+03   # mcR(Q)              
        46     3.08606000E+03   # mtR(Q)              
        47     1.81899000E+03   # mdR(Q)              
        48     1.81899000E+03   # msR(Q)              
        49     1.99520000E+03   # mbR(Q)              
#
Block HiggsBoundsInputHiggsCouplingsFermions
# ScalarNormEffCoupSq PseudoSNormEffCoupSq NP   IP1 IP2 IP2
    1.03096307E+00    0.00000000E+00        3  25   5   5  # h0-b-b eff. coupling^2, normalised to SM
    1.72191386E+02    0.00000000E+00        3  35   5   5  # H0-b-b eff. coupling^2, normalised to SM
    0.00000000E+00    1.72222349E+02        3  36   5   5  # A0-b-b eff. coupling^2, normalised to SM
#
    9.99820215E-01    0.00000000E+00        3  25   6   6  # h0-t-t eff. coupling^2, normalised to SM
    5.98623278E-03    0.00000000E+00        3  35   6   6  # H0-t-t eff. coupling^2, normalised to SM
    0.00000000E+00    5.80644733E-03        3  36   6   6  # A0-t-t eff. coupling^2, normalised to SM
#
    1.03096307E+00    0.00000000E+00        3  25  15  15  # h0-tau-tau eff. coupling^2, normalised to SM
    1.72191386E+02    0.00000000E+00        3  35  15  15  # H0-tau-tau eff. coupling^2, normalised to SM
    0.00000000E+00    1.72222349E+02        3  36  15  15  # A0-tau-tau eff. coupling^2, normalised to SM
#
Block HiggsBoundsInputHiggsCouplingsBosons
    9.99998629E-01        3  25  24  24  # h0-W-W eff. coupling^2, normalised to SM
    1.37066263E-06        3  35  24  24  # H0-W-W eff. coupling^2, normalised to SM
    0.00000000E+00        3  36  24  24  # A0-W-W eff. coupling^2, normalised to SM
#
    9.99998629E-01        3  25  23  23  # h0-Z-Z eff. coupling^2, normalised to SM
    1.37066263E-06        3  35  23  23  # H0-Z-Z eff. coupling^2, normalised to SM
    0.00000000E+00        3  36  23  23  # A0-Z-Z eff. coupling^2, normalised to SM
#
    8.83844526E-01        3  25  21  21  # h0-g-g eff. coupling^2, normalised to SM
    2.72767850E-07        3  35  21  21  # H0-g-g eff. coupling^2, normalised to SM
    3.90294284E-06        3  36  21  21  # A0-g-g eff. coupling^2, normalised to SM
#
    0.00000000E+00        3  25  25  23  # h0-h0-Z eff. coupling^2, normalised to SM
    0.00000000E+00        3  35  25  23  # H0-h0-Z eff. coupling^2, normalised to SM
    1.37066263E-06        3  36  25  23  # A0-h0-Z eff. coupling^2, normalised to SM
    0.00000000E+00        3  35  35  23  # H0-H0-Z eff. coupling^2, normalised to SM
    9.99998629E-01        3  36  35  23  # A0-H0-Z eff. coupling^2, normalised to SM
    0.00000000E+00        3  36  36  23  # A0-A0-Z eff. coupling^2, normalised to SM
#
    0.00000000E+00        4  25  21  21  23  # h0-g-g-Z eff. coupling^2, normalised to SM
    0.00000000E+00        4  35  21  21  23  # H0-g-g-Z eff. coupling^2, normalised to SM
    0.00000000E+00        4  36  21  21  23  # A0-g-g-Z eff. coupling^2, normalised to SM
#
#
#
#                             =================
#                             |The decay table|
#                             =================
#
# - The QCD corrections to the decays gluino -> squark  + quark
#                                     squark -> gaugino + quark_prime
#                                     squark -> squark_prime + Higgs
#                                     squark -> gluino  + quark
#   are included.
#
# - The multi-body decays for the inos, stops and sbottoms are included.
#
# - The loop induced decays for the gluino, neutralinos and stops
#   are included.
#
# - The SUSY decays of the top quark are included.
#
#
#         PDG            Width
DECAY         6     1.43266434E+00   # top decays
#          BR         NDA      ID1       ID2
     1.00000000E+00    2           5        24   # BR(t ->  b    W+)
#
#         PDG            Width
DECAY   1000021     5.14871486E-09   # gluino decays
#          BR         NDA      ID1       ID2
     6.36296348E-01    2     1000022        21   # BR(~g -> ~chi_10 g)
#           BR         NDA      ID1       ID2       ID3
     7.90256331E-02    3     1000022         1        -1   # BR(~g -> ~chi_10 d  db)
     6.35231893E-02    3     1000022         2        -2   # BR(~g -> ~chi_10 u  ub)
     7.90256331E-02    3     1000022         3        -3   # BR(~g -> ~chi_10 s  sb)
     6.35231893E-02    3     1000022         4        -4   # BR(~g -> ~chi_10 c  cb)
     7.86060076E-02    3     1000022         5        -5   # BR(~g -> ~chi_10 b  bb)
#
#         PDG            Width
DECAY   1000006     6.89999545E+01   # stop1 decays
#          BR         NDA      ID1       ID2
     2.47439685E-03    2     1000022         6   # BR(~t_1 -> ~chi_10 t )
     5.15372463E-02    2     1000023         6   # BR(~t_1 -> ~chi_20 t )
     5.00669521E-02    2     1000025         6   # BR(~t_1 -> ~chi_30 t )
     4.80615350E-03    2     1000024         5   # BR(~t_1 -> ~chi_1+ b )
     1.26257874E-03    2     1000037         5   # BR(~t_1 -> ~chi_2+ b )
     8.89852673E-01    2     1000021         6   # BR(~t_1 -> ~g      t )
#
#         PDG            Width
DECAY   2000006     3.13209556E+02   # stop2 decays
#          BR         NDA      ID1       ID2
     2.08231883E-02    2     1000022         6   # BR(~t_2 -> ~chi_10 t )
     5.10451527E-02    2     1000023         6   # BR(~t_2 -> ~chi_20 t )
     5.22250229E-02    2     1000025         6   # BR(~t_2 -> ~chi_30 t )
     1.24537346E-04    2     1000035         6   # BR(~t_2 -> ~chi_40 t )
     1.03628258E-01    2     1000024         5   # BR(~t_2 -> ~chi_1+ b )
     2.53649542E-04    2     1000037         5   # BR(~t_2 -> ~chi_2+ b )
     4.97648844E-01    2     1000021         6   # BR(~t_2 -> ~g      t )
     6.88085632E-02    2     1000006        25   # BR(~t_2 -> ~t_1    h )
     1.60902981E-03    2     1000006        35   # BR(~t_2 -> ~t_1    H )
     1.66973042E-03    2     1000006        36   # BR(~t_2 -> ~t_1    A )
     3.24180997E-03    2     1000005        37   # BR(~t_2 -> ~b_1    H+)
     6.78370363E-02    2     1000006        23   # BR(~t_2 -> ~t_1    Z )
     1.31051373E-01    2     1000005        24   # BR(~t_2 -> ~b_1    W+)
     3.38045795E-05    2     2000005        24   # BR(~t_2 -> ~b_2    W+)
#
#         PDG            Width
DECAY   1000005     7.06833619E+01   # sbottom1 decays
#          BR         NDA      ID1       ID2
     2.60073061E-03    2     1000022         5   # BR(~b_1 -> ~chi_10 b )
     2.65225666E-03    2     1000023         5   # BR(~b_1 -> ~chi_20 b )
     2.38269625E-03    2     1000025         5   # BR(~b_1 -> ~chi_30 b )
     7.56029314E-04    2     1000035         5   # BR(~b_1 -> ~chi_40 b )
     1.00688483E-01    2    -1000024         6   # BR(~b_1 -> ~chi_1- t )
     8.90919805E-01    2     1000021         5   # BR(~b_1 -> ~g      b )
#
#         PDG            Width
DECAY   2000005     9.09065065E+01   # sbottom2 decays
#          BR         NDA      ID1       ID2
     1.03875719E-02    2     1000022         5   # BR(~b_2 -> ~chi_10 b )
     3.38305537E-03    2     1000023         5   # BR(~b_2 -> ~chi_20 b )
     3.41724933E-03    2     1000025         5   # BR(~b_2 -> ~chi_30 b )
     2.43912640E-05    2     1000035         5   # BR(~b_2 -> ~chi_40 b )
     6.79406440E-03    2    -1000024         6   # BR(~b_2 -> ~chi_1- t )
     4.66788080E-05    2    -1000037         6   # BR(~b_2 -> ~chi_2- t )
     9.74065659E-01    2     1000021         5   # BR(~b_2 -> ~g      b )
     4.86440111E-04    2     1000005        25   # BR(~b_2 -> ~b_1    h )
     4.49443220E-04    2     1000005        23   # BR(~b_2 -> ~b_1    Z )
     9.45446877E-04    2     1000006       -24   # BR(~b_2 -> ~t_1    W-)
#
#         PDG            Width
DECAY   1000002     1.96461442E+02   # sup_L decays
#          BR         NDA      ID1       ID2
     1.80572134E-03    2     1000022         2   # BR(~u_L -> ~chi_10 u)
     5.26061723E-04    2     1000023         2   # BR(~u_L -> ~chi_20 u)
     1.53236097E-05    2     1000025         2   # BR(~u_L -> ~chi_30 u)
     2.72871657E-02    2     1000035         2   # BR(~u_L -> ~chi_40 u)
     1.24041335E-03    2     1000024         1   # BR(~u_L -> ~chi_1+ d)
     5.44013643E-02    2     1000037         1   # BR(~u_L -> ~chi_2+ d)
     9.14723950E-01    2     1000021         2   # BR(~u_L -> ~g      u)
#
#         PDG            Width
DECAY   2000002     1.67657549E+02   # sup_R decays
#          BR         NDA      ID1       ID2
     3.15262228E-02    2     1000022         2   # BR(~u_R -> ~chi_10 u)
     1.17509221E-04    2     1000023         2   # BR(~u_R -> ~chi_20 u)
     9.33211017E-06    2     1000025         2   # BR(~u_R -> ~chi_30 u)
     2.20880814E-07    2     1000035         2   # BR(~u_R -> ~chi_40 u)
     9.68346715E-01    2     1000021         2   # BR(~u_R -> ~g      u)
#
#         PDG            Width
DECAY   1000001     1.96495673E+02   # sdown_L decays
#          BR         NDA      ID1       ID2
     1.90164997E-03    2     1000022         1   # BR(~d_L -> ~chi_10 d)
     3.09264821E-04    2     1000023         1   # BR(~d_L -> ~chi_20 d)
     2.94265517E-05    2     1000025         1   # BR(~d_L -> ~chi_30 d)
     2.73881564E-02    2     1000035         1   # BR(~d_L -> ~chi_40 d)
     4.86331171E-04    2    -1000024         2   # BR(~d_L -> ~chi_1- u)
     5.49325371E-02    2    -1000037         2   # BR(~d_L -> ~chi_2- u)
     9.14952634E-01    2     1000021         1   # BR(~d_L -> ~g      d)
#
#         PDG            Width
DECAY   2000001     9.52899350E+01   # sdown_R decays
#          BR         NDA      ID1       ID2
     8.36323058E-03    2     1000022         1   # BR(~d_R -> ~chi_10 d)
     2.27203174E-05    2     1000023         1   # BR(~d_R -> ~chi_20 d)
     1.79458144E-06    2     1000025         1   # BR(~d_R -> ~chi_30 d)
     1.14809544E-08    2     1000035         1   # BR(~d_R -> ~chi_40 d)
     9.91612243E-01    2     1000021         1   # BR(~d_R -> ~g      d)
#
#         PDG            Width
DECAY   1000004     1.62204271E+02   # scharm_L decays
#          BR         NDA      ID1       ID2
     2.25593359E-03    2     1000022         4   # BR(~c_L -> ~chi_10 c)
     6.57360014E-04    2     1000023         4   # BR(~c_L -> ~chi_20 c)
     1.91482028E-05    2     1000025         4   # BR(~c_L -> ~chi_30 c)
     3.40679577E-02    2     1000035         4   # BR(~c_L -> ~chi_40 c)
     1.55000579E-03    2     1000024         3   # BR(~c_L -> ~chi_1+ s)
     6.79199972E-02    2     1000037         3   # BR(~c_L -> ~chi_2+ s)
     8.93529598E-01    2     1000021         4   # BR(~c_L -> ~g      c)
#
#         PDG            Width
DECAY   2000004     1.36410840E+02   # scharm_R decays
#          BR         NDA      ID1       ID2
     3.99762599E-02    2     1000022         4   # BR(~c_R -> ~chi_10 c)
     1.49012808E-04    2     1000023         4   # BR(~c_R -> ~chi_20 c)
     1.18339675E-05    2     1000025         4   # BR(~c_R -> ~chi_30 c)
     2.79589534E-07    2     1000035         4   # BR(~c_R -> ~chi_40 c)
     9.59862614E-01    2     1000021         4   # BR(~c_R -> ~g      c)
#
#         PDG            Width
DECAY   1000003     1.62222447E+02   # sstrange_L decays
#          BR         NDA      ID1       ID2
     2.37592692E-03    2     1000022         3   # BR(~s_L -> ~chi_10 s)
     3.86477588E-04    2     1000023         3   # BR(~s_L -> ~chi_20 s)
     3.67733784E-05    2     1000025         3   # BR(~s_L -> ~chi_30 s)
     3.41963114E-02    2     1000035         3   # BR(~s_L -> ~chi_40 s)
     6.07750965E-04    2    -1000024         4   # BR(~s_L -> ~chi_1- c)
     6.85875716E-02    2    -1000037         4   # BR(~s_L -> ~chi_2- c)
     8.93809188E-01    2     1000021         3   # BR(~s_L -> ~g      s)
#
#         PDG            Width
DECAY   2000003     7.70323832E+01   # sstrange_R decays
#          BR         NDA      ID1       ID2
     1.06875854E-02    2     1000022         3   # BR(~s_R -> ~chi_10 s)
     2.89555639E-05    2     1000023         3   # BR(~s_R -> ~chi_20 s)
     2.28693392E-06    2     1000025         3   # BR(~s_R -> ~chi_30 s)
     1.42959336E-08    2     1000035         3   # BR(~s_R -> ~chi_40 s)
     9.89281158E-01    2     1000021         3   # BR(~s_R -> ~g      s)
#
#         PDG            Width
DECAY   1000011     1.06395154E+00   # selectron_L decays
#          BR         NDA      ID1       ID2
     9.77420440E-01    2     1000022        11   # BR(~e_L -> ~chi_10 e-)
     1.39733864E-02    2     1000023        11   # BR(~e_L -> ~chi_20 e-)
     9.84064617E-05    2     1000025        11   # BR(~e_L -> ~chi_30 e-)
     8.50776676E-03    2    -1000024        12   # BR(~e_L -> ~chi_1- nu_e)
#
#         PDG            Width
DECAY   2000011     1.04439295E+01   # selectron_R decays
#          BR         NDA      ID1       ID2
     9.96286090E-01    2     1000022        11   # BR(~e_R -> ~chi_10 e-)
     3.43626794E-03    2     1000023        11   # BR(~e_R -> ~chi_20 e-)
     2.72551463E-04    2     1000025        11   # BR(~e_R -> ~chi_30 e-)
     5.09026108E-06    2     1000035        11   # BR(~e_R -> ~chi_40 e-)
#
#         PDG            Width
DECAY   1000013     1.06395152E+00   # smuon_L decays
#          BR         NDA      ID1       ID2
     9.77420441E-01    2     1000022        13   # BR(~mu_L -> ~chi_10 mu-)
     1.39733855E-02    2     1000023        13   # BR(~mu_L -> ~chi_20 mu-)
     9.84064552E-05    2     1000025        13   # BR(~mu_L -> ~chi_30 mu-)
     8.50776694E-03    2    -1000024        14   # BR(~mu_L -> ~chi_1- nu_mu)
#
#         PDG            Width
DECAY   2000013     1.04439294E+01   # smuon_R decays
#          BR         NDA      ID1       ID2
     9.96286090E-01    2     1000022        13   # BR(~mu_R -> ~chi_10 mu-)
     3.43626794E-03    2     1000023        13   # BR(~mu_R -> ~chi_20 mu-)
     2.72551462E-04    2     1000025        13   # BR(~mu_R -> ~chi_30 mu-)
     5.09026104E-06    2     1000035        13   # BR(~mu_R -> ~chi_40 mu-)
#
#         PDG            Width
DECAY   1000015     3.91276061E+00   # stau_1 decays
#          BR         NDA      ID1       ID2
     4.75564194E-01    2     1000022        15   # BR(~tau_1 -> ~chi_10  tau-)
     5.30774599E-02    2     1000023        15   # BR(~tau_1 -> ~chi_20  tau-)
     3.66602796E-02    2     1000025        15   # BR(~tau_1 -> ~chi_30  tau-)
     1.40761869E-01    2     1000035        15   # BR(~tau_1 -> ~chi_40  tau-)
     1.02044922E-02    2    -1000024        16   # BR(~tau_1 -> ~chi_1-  nu_tau)
     2.83731706E-01    2    -1000037        16   # BR(~tau_1 -> ~chi_2-  nu_tau)
#
#         PDG            Width
DECAY   2000015     1.46873667E+01   # stau_2 decays
#          BR         NDA      ID1       ID2
     8.90255192E-01    2     1000022        15   # BR(~tau_2 -> ~chi_10  tau-)
     2.70378107E-02    2     1000023        15   # BR(~tau_2 -> ~chi_20  tau-)
     2.41827393E-02    2     1000025        15   # BR(~tau_2 -> ~chi_30  tau-)
     1.67697909E-04    2     1000035        15   # BR(~tau_2 -> ~chi_40  tau-)
     4.75211009E-02    2    -1000024        16   # BR(~tau_2 -> ~chi_1-  nu_tau)
     3.21694536E-04    2    -1000037        16   # BR(~tau_2 -> ~chi_2-  nu_tau)
     5.16445960E-03    2     1000016       -24   # BR(~tau_2 -> ~nu_tauL W-)
     2.71047154E-03    2     1000015        25   # BR(~tau_2 -> ~tau_1   h)
     2.63883393E-03    2     1000015        23   # BR(~tau_2 -> ~tau_1   Z)
#
#         PDG            Width
DECAY   1000012     1.07982759E+00   # snu_eL decays
#          BR         NDA      ID1       ID2
     9.75590734E-01    2     1000022        12   # BR(~nu_eL -> ~chi_10 nu_e)
     2.53571409E-03    2     1000023        12   # BR(~nu_eL -> ~chi_20 nu_e)
     7.93490546E-04    2     1000025        12   # BR(~nu_eL -> ~chi_30 nu_e)
     2.10800615E-02    2     1000024        11   # BR(~nu_eL -> ~chi_1+ e-)
#
#         PDG            Width
DECAY   1000014     1.07982759E+00   # snu_muL decays
#          BR         NDA      ID1       ID2
     9.75590736E-01    2     1000022        14   # BR(~nu_muL -> ~chi_10 nu_mu)
     2.53571409E-03    2     1000023        14   # BR(~nu_muL -> ~chi_20 nu_mu)
     7.93490548E-04    2     1000025        14   # BR(~nu_muL -> ~chi_30 nu_mu)
     2.10800598E-02    2     1000024        13   # BR(~nu_muL -> ~chi_1+ mu-)
#
#         PDG            Width
DECAY   1000016     3.92533019E+00   # snu_tauL decays
#          BR         NDA      ID1       ID2
     4.80782533E-01    2     1000022        16   # BR(~nu_tauL -> ~chi_10 nu_tau)
     3.02282633E-03    2     1000023        16   # BR(~nu_tauL -> ~chi_20 nu_tau)
     9.65725880E-04    2     1000025        16   # BR(~nu_tauL -> ~chi_30 nu_tau)
     1.39861307E-01    2     1000035        16   # BR(~nu_tauL -> ~chi_40 nu_tau)
     9.84152409E-02    2     1000024        15   # BR(~nu_tauL -> ~chi_1+ tau-)
     2.76952367E-01    2     1000037        15   # BR(~nu_tauL -> ~chi_2+ tau-)
#
#         PDG            Width
DECAY   1000024     4.50331067E-01   # chargino1+ decays
#          BR         NDA      ID1       ID2
     1.00000000E+00    2     1000022        24   # BR(~chi_1+ -> ~chi_10  W+)
#
#         PDG            Width
DECAY   1000037     9.88228141E+00   # chargino2+ decays
#          BR         NDA      ID1       ID2
     4.76227556E-02    2     1000012       -11   # BR(~chi_2+ -> ~nu_eL   e+  )
     4.76227556E-02    2     1000014       -13   # BR(~chi_2+ -> ~nu_muL mu+ )
     4.70715311E-02    2    -1000011        12   # BR(~chi_2+ -> ~e_L+    nu_e)
     4.70715311E-02    2    -1000013        14   # BR(~chi_2+ -> ~mu_L+   nu_mu)
     2.04808236E-01    2     1000024        23   # BR(~chi_2+ -> ~chi_1+  Z )
     1.50970324E-04    2     1000022        24   # BR(~chi_2+ -> ~chi_10  W+)
     2.02288272E-01    2     1000023        24   # BR(~chi_2+ -> ~chi_20  W+)
     1.98282957E-01    2     1000025        24   # BR(~chi_2+ -> ~chi_30  W+)
     2.05080992E-01    2     1000024        25   # BR(~chi_2+ -> ~chi_1+  h )
#
#         PDG            Width
DECAY   1000022     0.00000000E+00   # neutralino1 decays
#
#         PDG            Width
DECAY   1000023     4.92075518E-01   # neutralino2 decays
#          BR         NDA      ID1       ID2
     7.76574518E-02    2     1000022        23   # BR(~chi_20 -> ~chi_10   Z )
     9.22342548E-01    2     1000022        25   # BR(~chi_20 -> ~chi_10   h )
#
#         PDG            Width
DECAY   1000025     4.65669059E-01   # neutralino3 decays
#          BR         NDA      ID1       ID2
     9.26062290E-01    2     1000022        23   # BR(~chi_30 -> ~chi_10   Z )
     7.39377103E-02    2     1000022        25   # BR(~chi_30 -> ~chi_10   h )
#
#         PDG            Width
DECAY   1000035     9.86255575E+00   # neutralino4 decays
#          BR         NDA      ID1       ID2
     9.61403885E-06    2     1000022        23   # BR(~chi_40 -> ~chi_10   Z )
     1.09905086E-02    2     1000023        23   # BR(~chi_40 -> ~chi_20   Z )
     1.91480346E-01    2     1000025        23   # BR(~chi_40 -> ~chi_30   Z )
     2.01428990E-01    2     1000024       -24   # BR(~chi_40 -> ~chi_1+   W-)
     2.01428990E-01    2    -1000024        24   # BR(~chi_40 -> ~chi_1-   W+)
     1.47847075E-04    2     1000022        25   # BR(~chi_40 -> ~chi_10   h )
     1.95370341E-01    2     1000023        25   # BR(~chi_40 -> ~chi_20   h )
     9.58852241E-03    2     1000025        25   # BR(~chi_40 -> ~chi_30   h )
     2.33450981E-02    2     1000011       -11   # BR(~chi_40 -> ~e_L-     e+)
     2.33450981E-02    2    -1000011        11   # BR(~chi_40 -> ~e_L+     e-)
     2.33450981E-02    2     1000013       -13   # BR(~chi_40 -> ~mu_L-    mu+)
     2.33450981E-02    2    -1000013        13   # BR(~chi_40 -> ~mu_L+    mu-)
     2.40436119E-02    2     1000012       -12   # BR(~chi_40 -> ~nu_eL    nu_eb)
     2.40436119E-02    2    -1000012        12   # BR(~chi_40 -> ~nu_eL*   nu_e )
     2.40436119E-02    2     1000014       -14   # BR(~chi_40 -> ~nu_muL   nu_mub)
     2.40436119E-02    2    -1000014        14   # BR(~chi_40 -> ~nu_muL*  nu_mu )
#
#         PDG            Width
DECAY        25     4.50411164E-03   # h decays
#          BR         NDA      ID1       ID2
     5.77883179E-01    2           5        -5   # BR(h -> b       bb     )
     6.02483946E-02    2         -15        15   # BR(h -> tau+    tau-   )
     2.13276713E-04    2         -13        13   # BR(h -> mu+     mu-    )
     2.31645946E-04    2           3        -3   # BR(h -> s       sb     )
     1.95112902E-02    2           4        -4   # BR(h -> c       cb     )
     7.42207101E-02    2          21        21   # BR(h -> g       g      )
     2.24298155E-03    2          22        22   # BR(h -> gam     gam    )
     1.66568998E-03    2          22        23   # BR(h -> Z       gam    )
     2.33665461E-01    2          24       -24   # BR(h -> W+      W-     )
     3.01173708E-02    2          23        23   # BR(h -> Z       Z      )
#
#         PDG            Width
DECAY        35     3.33283850E+00   # H decays
#          BR         NDA      ID1       ID2
     7.79710118E-01    2           5        -5   # BR(H -> b       bb     )
     1.28622853E-01    2         -15        15   # BR(H -> tau+    tau-   )
     4.58635970E-04    2         -13        13   # BR(H -> mu+     mu-    )
     3.00209614E-04    2           3        -3   # BR(H -> s       sb     )
     9.82547514E-07    2           4        -4   # BR(H -> c       cb     )
     8.95955661E-02    2           6        -6   # BR(H -> t       tb     )
     9.96809201E-05    2          21        21   # BR(H -> g       g      )
     3.04623099E-07    2          22        22   # BR(H -> gam     gam    )
     1.09249234E-07    2          23        22   # BR(H -> Z       gam    )
     2.04675645E-04    2          24       -24   # BR(H -> W+      W-     )
     1.01378232E-04    2          23        23   # BR(H -> Z       Z      )
     9.05485701E-04    2          25        25   # BR(H -> h       h      )
#
#         PDG            Width
DECAY        36     3.34261857E+00   # A decays
#          BR         NDA      ID1       ID2
     7.77656834E-01    2           5        -5   # BR(A -> b       bb     )
     1.28260728E-01    2         -15        15   # BR(A -> tau+    tau-   )
     4.57340153E-04    2         -13        13   # BR(A -> mu+     mu-    )
     2.99491384E-04    2           3        -3   # BR(A -> s       sb     )
     9.58884595E-07    2           4        -4   # BR(A -> c       cb     )
     9.27459720E-02    2           6        -6   # BR(A -> t       tb     )
     3.75440305E-04    2          21        21   # BR(A -> g       g      )
     7.03772431E-07    2          22        22   # BR(A -> gam     gam    )
     2.73574910E-07    2          23        22   # BR(A -> Z       gam    )
     2.02258410E-04    2          23        25   # BR(A -> Z       h      )
#
#         PDG            Width
DECAY        37     3.16081847E+00   # H+ decays
#          BR         NDA      ID1       ID2
     1.30602483E-03    2           4        -5   # BR(H+ -> c       bb     )
     1.35998499E-01    2         -15        16   # BR(H+ -> tau+    nu_tau )
     4.84930764E-04    2         -13        14   # BR(H+ -> mu+     nu_mu  )
     1.30601396E-05    2           2        -5   # BR(H+ -> u       bb     )
     1.58216035E-05    2           2        -3   # BR(H+ -> u       sb     )
     3.12388759E-04    2           4        -3   # BR(H+ -> c       sb     )
     8.61652694E-01    2           6        -5   # BR(H+ -> t       bb     )
     2.16580577E-04    2          24        25   # BR(H+ -> W+      h      )
     1.19190031E-10    2          24        36   # BR(H+ -> W+      A      )
